way_id;shape;index;name;nb_lanes;legal_speed;speed_zone_30;oneway;shares_bike;bike_box;bus_lane;dedicated_bus_lane;length;nb_traffic_signals;nb_crossings;nb_stops;nb_give_ways;nb_lvl_crossings;roundabout;stop_id_orig;node_id_orig;coord_x_orig;coord_y_orig;stop_id_dest;node_id_dest;coord_x_dest;coord_y_dest;nb_neighbouring_ways_bus_stop;ordre_orig;ordre_dest;id_line;line_name;colour;operator;ref;from;to
95223773;"{\"type\":\"LineString\",\"coordinates\":[[-73.6048982,45.4461397],[-73.6047641,45.446023],[-73.604713,45.4460061],[-73.6046676,45.4460079],[-73.6046185,45.4460181],[-73.6045657,45.4460418],[-73.6042813,45.4462225],[-73.604259,45.4462484],[-73.6042492,45.4462751],[-73.6042505,45.4463058],[-73.6042713,45.4463356],[-73.6044861,45.4465021]]}";1;"";1;50;false;true;true;false;false;false;102.0;0;0;0;0;0;false;78364;6190671014;-73.604996;45.446132;78561;6190670033;-73.61232;45.445965;1;0;1;9417440;Bus 25 : Direction Châteauguay;"";EXO;25 O;Terminus Angrignon;boul. Deguire / rue Principale
95223751;"{\"type\":\"LineString\",\"coordinates\":[[-73.6048551,45.4468838],[-73.6048618,45.4468414],[-73.6048479,45.4468084],[-73.6048201,45.4467749],[-73.6047148,45.4466934],[-73.6044861,45.4465021]]}";2;"";1;50;false;false;true;false;false;false;53.0;0;0;0;0;0;false;78364;6190671014;-73.604996;45.446132;78561;6190670033;-73.61232;45.445965;0;0;1;9417440;Bus 25 : Direction Châteauguay;"";EXO;25 O;Terminus Angrignon;boul. Deguire / rue Principale
95223758;"{\"type\":\"LineString\",\"coordinates\":[[-73.6045251,45.4469498],[-73.6046816,45.4468988],[-73.6047117,45.44688],[-73.6047435,45.4468706],[-73.6047709,45.4468683],[-73.6048551,45.4468838]]}";3;"";1;50;false;false;true;false;false;false;29.0;0;0;0;0;0;false;78364;6190671014;-73.604996;45.446132;78561;6190670033;-73.61232;45.445965;0;0;1;9417440;Bus 25 : Direction Châteauguay;"";EXO;25 O;Terminus Angrignon;boul. Deguire / rue Principale
453684367;"{\"type\":\"LineString\",\"coordinates\":[[-73.6044858,45.4470492],[-73.604502,45.4470082],[-73.6045251,45.4469498]]}";4;"";1;50;false;false;true;false;false;false;12.0;0;1;0;0;0;false;78364;6190671014;-73.604996;45.446132;78561;6190670033;-73.61232;45.445965;0;0;1;9417440;Bus 25 : Direction Châteauguay;"";EXO;25 O;Terminus Angrignon;boul. Deguire / rue Principale
453684369;"{\"type\":\"LineString\",\"coordinates\":[[-73.6044485,45.4471798],[-73.6044858,45.4470492]]}";5;Avenue Irwin;1;50;false;false;true;false;false;false;15.0;0;0;0;0;0;false;78364;6190671014;-73.604996;45.446132;78561;6190670033;-73.61232;45.445965;0;0;1;9417440;Bus 25 : Direction Châteauguay;"";EXO;25 O;Terminus Angrignon;boul. Deguire / rue Principale
453684374;"{\"type\":\"LineString\",\"coordinates\":[[-73.6044485,45.4471798],[-73.6045924,45.4472009],[-73.6049,45.4472459]]}";6;Boulevard Angrignon;2;50;false;true;true;false;false;false;37.0;0;1;0;0;0;false;78364;6190671014;-73.604996;45.446132;78561;6190670033;-73.61232;45.445965;0;0;1;9417440;Bus 25 : Direction Châteauguay;"";EXO;25 O;Terminus Angrignon;boul. Deguire / rue Principale
48422488;"{\"type\":\"LineString\",\"coordinates\":[[-73.6049,45.4472459],[-73.605195,45.4472403],[-73.6059755,45.4471688],[-73.6071232,45.4471161],[-73.6075773,45.4471227],[-73.6077628,45.4471398],[-73.6081153,45.447197],[-73.6083563,45.4472496],[-73.6085426,45.4473127],[-73.60904,45.4475279]]}";7;Boulevard Angrignon;2;50;false;true;true;false;false;false;335.0;0;0;0;0;0;false;78364;6190671014;-73.604996;45.446132;78561;6190670033;-73.61232;45.445965;0;0;1;9417440;Bus 25 : Direction Châteauguay;"";EXO;25 O;Terminus Angrignon;boul. Deguire / rue Principale
48421819;"{\"type\":\"LineString\",\"coordinates\":[[-73.60904,45.4475279],[-73.6094694,45.4477276],[-73.6096053,45.4477908]]}";8;Boulevard Angrignon;2;50;false;true;true;false;false;false;53.0;1;1;0;0;0;false;78364;6190671014;-73.604996;45.446132;78561;6190670033;-73.61232;45.445965;0;0;1;9417440;Bus 25 : Direction Châteauguay;"";EXO;25 O;Terminus Angrignon;boul. Deguire / rue Principale
48421830;"{\"type\":\"LineString\",\"coordinates\":[[-73.6096053,45.4477908],[-73.6097401,45.447852]]}";9;Boulevard Angrignon;2;50;false;true;true;false;false;false;13.0;2;0;0;0;0;false;78364;6190671014;-73.604996;45.446132;78561;6190670033;-73.61232;45.445965;0;0;1;9417440;Bus 25 : Direction Châteauguay;"";EXO;25 O;Terminus Angrignon;boul. Deguire / rue Principale
48421831;"{\"type\":\"LineString\",\"coordinates\":[[-73.6097401,45.447852],[-73.609856,45.4477474]]}";10;Boulevard Newman;2;50;false;true;true;false;false;false;15.0;2;0;0;0;0;false;78364;6190671014;-73.604996;45.446132;78561;6190670033;-73.61232;45.445965;0;0;1;9417440;Bus 25 : Direction Châteauguay;"";EXO;25 O;Terminus Angrignon;boul. Deguire / rue Principale
452083388;"{\"type\":\"LineString\",\"coordinates\":[[-73.609856,45.4477474],[-73.609897,45.4477113],[-73.6102145,45.4474316]]}";11;Boulevard Newman;4;50;false;true;true;false;false;false;45.0;1;1;0;0;0;false;78364;6190671014;-73.604996;45.446132;78561;6190670033;-73.61232;45.445965;0;0;1;9417440;Bus 25 : Direction Châteauguay;"";EXO;25 O;Terminus Angrignon;boul. Deguire / rue Principale
164759173;"{\"type\":\"LineString\",\"coordinates\":[[-73.6102145,45.4474316],[-73.6103195,45.4473487],[-73.6108105,45.4469604],[-73.6119363,45.44607],[-73.6120419,45.4459864],[-73.6121228,45.4459272],[-73.6133122,45.444979],[-73.6141426,45.444332],[-73.6141914,45.4442959],[-73.6143457,45.4441958]]}";12;Boulevard Newman;4;50;false;true;true;false;false;false;242.0;3;1;0;0;0;false;78364;6190671014;-73.604996;45.446132;78561;6190670033;-73.61232;45.445965;1;0;1;9417440;Bus 25 : Direction Châteauguay;"";EXO;25 O;Terminus Angrignon;boul. Deguire / rue Principale
452083150;"{\"type\":\"LineString\",\"coordinates\":[[-73.6143457,45.4441958],[-73.6146378,45.4440045]]}";1;Boulevard Newman;4;50;false;true;true;false;false;false;32.0;1;0;0;0;0;false;78564;6190670031;-73.614322;45.4443;78568;6190670028;-73.619604;45.441188;2;2;3;9417440;Bus 25 : Direction Châteauguay;"";EXO;25 O;Terminus Angrignon;boul. Deguire / rue Principale
452083151;"{\"type\":\"LineString\",\"coordinates\":[[-73.6146378,45.4440045],[-73.6152217,45.4436317],[-73.6156832,45.4433659],[-73.6157717,45.4433118],[-73.6164012,45.4429272],[-73.6169238,45.4426079]]}";2;Boulevard Newman;4;50;false;true;true;false;false;false;237.0;0;0;0;0;0;false;78564;6190670031;-73.614322;45.4443;78568;6190670028;-73.619604;45.441188;0;2;3;9417440;Bus 25 : Direction Châteauguay;"";EXO;25 O;Terminus Angrignon;boul. Deguire / rue Principale
451921072;"{\"type\":\"LineString\",\"coordinates\":[[-73.6169238,45.4426079],[-73.6169976,45.4425628],[-73.617067,45.4425234]]}";3;Boulevard Newman;4;50;false;true;true;false;false;false;15.0;1;0;0;0;0;false;78564;6190670031;-73.614322;45.4443;78568;6190670028;-73.619604;45.441188;0;2;3;9417440;Bus 25 : Direction Châteauguay;"";EXO;25 O;Terminus Angrignon;boul. Deguire / rue Principale
474611752;"{\"type\":\"LineString\",\"coordinates\":[[-73.617067,45.4425234],[-73.6172827,45.4423886],[-73.6174863,45.4422756]]}";4;Boulevard Newman;4;50;false;true;true;false;false;false;43.0;1;0;0;0;0;false;78564;6190670031;-73.614322;45.4443;78568;6190670028;-73.619604;45.441188;0;2;3;9417440;Bus 25 : Direction Châteauguay;"";EXO;25 O;Terminus Angrignon;boul. Deguire / rue Principale
451921074;"{\"type\":\"LineString\",\"coordinates\":[[-73.6174863,45.4422756],[-73.6178819,45.4420562],[-73.6182692,45.4418413],[-73.6188681,45.4415136],[-73.6189965,45.4414433]]}";5;Boulevard Newman;4;50;false;true;true;false;false;false;150.0;1;0;0;0;0;false;78564;6190670031;-73.614322;45.4443;78568;6190670028;-73.619604;45.441188;0;2;3;9417440;Bus 25 : Direction Châteauguay;"";EXO;25 O;Terminus Angrignon;boul. Deguire / rue Principale
451915378;"{\"type\":\"LineString\",\"coordinates\":[[-73.6189965,45.4414433],[-73.6193815,45.4412225]]}";6;Boulevard Newman;4;50;false;true;true;false;false;false;39.0;1;0;0;0;0;false;78564;6190670031;-73.614322;45.4443;78568;6190670028;-73.619604;45.441188;0;2;3;9417440;Bus 25 : Direction Châteauguay;"";EXO;25 O;Terminus Angrignon;boul. Deguire / rue Principale
474608653;"{\"type\":\"LineString\",\"coordinates\":[[-73.6193815,45.4412225],[-73.6202355,45.4407491]]}";7;Boulevard Newman;4;50;false;true;true;false;false;false;85.0;1;0;0;0;0;false;78564;6190670031;-73.614322;45.4443;78568;6190670028;-73.619604;45.441188;2;2;3;9417440;Bus 25 : Direction Châteauguay;"";EXO;25 O;Terminus Angrignon;boul. Deguire / rue Principale
451915378;"{\"type\":\"LineString\",\"coordinates\":[[-73.6189965,45.4414433],[-73.6193815,45.4412225]]}";1;Boulevard Newman;4;50;false;true;true;false;false;false;39.0;1;0;0;0;0;false;78568;6190670028;-73.619604;45.441188;78565;6190670030;-73.622314;45.439561;2;3;4;9417440;Bus 25 : Direction Châteauguay;"";EXO;25 O;Terminus Angrignon;boul. Deguire / rue Principale
474608653;"{\"type\":\"LineString\",\"coordinates\":[[-73.6193815,45.4412225],[-73.6202355,45.4407491]]}";2;Boulevard Newman;4;50;false;true;true;false;false;false;85.0;1;0;0;0;0;false;78568;6190670028;-73.619604;45.441188;78565;6190670030;-73.622314;45.439561;0;3;4;9417440;Bus 25 : Direction Châteauguay;"";EXO;25 O;Terminus Angrignon;boul. Deguire / rue Principale
451915386;"{\"type\":\"LineString\",\"coordinates\":[[-73.6202355,45.4407491],[-73.6206368,45.4405217],[-73.6210471,45.4402903],[-73.6215578,45.4399919]]}";3;Boulevard Newman;4;50;false;true;true;false;false;false;134.0;1;0;0;0;0;false;78568;6190670028;-73.619604;45.441188;78565;6190670030;-73.622314;45.439561;0;3;4;9417440;Bus 25 : Direction Châteauguay;"";EXO;25 O;Terminus Angrignon;boul. Deguire / rue Principale
474596231;"{\"type\":\"LineString\",\"coordinates\":[[-73.6215578,45.4399919],[-73.6218378,45.4398282],[-73.6221853,45.4395763],[-73.6223316,45.4394703]]}";4;Boulevard Newman;4;50;false;true;true;false;false;false;84.0;1;0;0;0;0;false;78568;6190670028;-73.619604;45.441188;78565;6190670030;-73.622314;45.439561;2;3;4;9417440;Bus 25 : Direction Châteauguay;"";EXO;25 O;Terminus Angrignon;boul. Deguire / rue Principale
451911436;"{\"type\":\"LineString\",\"coordinates\":[[-73.6223316,45.4394703],[-73.6235227,45.4383628]]}";1;Boulevard Newman;4;50;false;true;true;false;false;false;155.0;1;0;0;0;0;false;78565;6190670030;-73.622314;45.439561;78567;6190670029;-73.625516;45.436575;2;4;5;9417440;Bus 25 : Direction Châteauguay;"";EXO;25 O;Terminus Angrignon;boul. Deguire / rue Principale
451911442;"{\"type\":\"LineString\",\"coordinates\":[[-73.6235227,45.4383628],[-73.623804,45.4381013],[-73.6245338,45.4374227],[-73.6251694,45.4368318]]}";2;Boulevard Newman;4;50;false;true;true;false;false;false;214.0;0;0;0;0;0;false;78565;6190670030;-73.622314;45.439561;78567;6190670029;-73.625516;45.436575;0;4;5;9417440;Bus 25 : Direction Châteauguay;"";EXO;25 O;Terminus Angrignon;boul. Deguire / rue Principale
474806499;"{\"type\":\"LineString\",\"coordinates\":[[-73.6251694,45.4368318],[-73.6254258,45.4365934],[-73.6255181,45.4365075]]}";3;Boulevard Newman;4;50;false;true;true;false;false;false;46.0;1;0;0;0;0;false;78565;6190670030;-73.622314;45.439561;78567;6190670029;-73.625516;45.436575;2;4;5;9417440;Bus 25 : Direction Châteauguay;"";EXO;25 O;Terminus Angrignon;boul. Deguire / rue Principale
451902771;"{\"type\":\"LineString\",\"coordinates\":[[-73.6255181,45.4365075],[-73.6262213,45.4358634]]}";1;Boulevard Newman;4;50;false;true;true;false;false;false;91.0;1;0;0;0;0;false;78567;6190670029;-73.625516;45.436575;78559;6190670035;-73.630103;45.432593;2;5;6;9417440;Bus 25 : Direction Châteauguay;"";EXO;25 O;Terminus Angrignon;boul. Deguire / rue Principale
451902762;"{\"type\":\"LineString\",\"coordinates\":[[-73.6262213,45.4358634],[-73.626498,45.4356099],[-73.6266151,45.4355026],[-73.6268099,45.4353242],[-73.6269009,45.4352381],[-73.6270871,45.4350618],[-73.6272686,45.43489],[-73.6273137,45.4348473],[-73.6282783,45.4339341],[-73.6283462,45.4338698],[-73.6284204,45.4337997]]}";2;Boulevard Newman;4;50;false;true;true;false;false;false;287.0;0;0;0;0;0;false;78567;6190670029;-73.625516;45.436575;78559;6190670035;-73.630103;45.432593;0;5;6;9417440;Bus 25 : Direction Châteauguay;"";EXO;25 O;Terminus Angrignon;boul. Deguire / rue Principale
459768278;"{\"type\":\"LineString\",\"coordinates\":[[-73.6284204,45.4337997],[-73.6288556,45.4333888]]}";3;Boulevard Newman;4;50;false;true;true;false;false;false;57.0;1;0;0;0;0;false;78567;6190670029;-73.625516;45.436575;78559;6190670035;-73.630103;45.432593;0;5;6;9417440;Bus 25 : Direction Châteauguay;"";EXO;25 O;Terminus Angrignon;boul. Deguire / rue Principale
459768280;"{\"type\":\"LineString\",\"coordinates\":[[-73.6288556,45.4333888],[-73.6293722,45.4329385],[-73.6294164,45.4329],[-73.6295903,45.432759],[-73.6299666,45.4325058],[-73.6300393,45.4324616]]}";4;Boulevard Newman;4;50;false;true;true;false;false;false;139.0;2;0;0;0;0;false;78567;6190670029;-73.625516;45.436575;78559;6190670035;-73.630103;45.432593;2;5;6;9417440;Bus 25 : Direction Châteauguay;"";EXO;25 O;Terminus Angrignon;boul. Deguire / rue Principale
451899719;"{\"type\":\"LineString\",\"coordinates\":[[-73.6300393,45.4324616],[-73.6302113,45.4323882],[-73.6309698,45.4320402],[-73.6314594,45.4318686]]}";1;Boulevard Newman;4;50;false;true;true;false;false;false;130.0;1;0;0;0;0;false;78559;6190670035;-73.630103;45.432593;78569;6190670027;-73.634174;45.43094;2;6;7;9417440;Bus 25 : Direction Châteauguay;"";EXO;25 O;Terminus Angrignon;boul. Deguire / rue Principale
451899720;"{\"type\":\"LineString\",\"coordinates\":[[-73.6314594,45.4318686],[-73.631905,45.4317125],[-73.6319849,45.4316817],[-73.6325545,45.4314695],[-73.6335091,45.4311139],[-73.6336195,45.4310728],[-73.6337925,45.4310083],[-73.6343674,45.4307942]]}";2;Boulevard Newman;4;50;false;true;true;false;false;false;257.0;1;0;0;0;0;false;78559;6190670035;-73.630103;45.432593;78569;6190670027;-73.634174;45.43094;2;6;7;9417440;Bus 25 : Direction Châteauguay;"";EXO;25 O;Terminus Angrignon;boul. Deguire / rue Principale
451899720;"{\"type\":\"LineString\",\"coordinates\":[[-73.6314594,45.4318686],[-73.631905,45.4317125],[-73.6319849,45.4316817],[-73.6325545,45.4314695],[-73.6335091,45.4311139],[-73.6336195,45.4310728],[-73.6337925,45.4310083],[-73.6343674,45.4307942]]}";1;Boulevard Newman;4;50;false;true;true;false;false;false;128.5;1;0;0;0;0;false;78569;6190670027;-73.634174;45.43094;78563;6190670032;-73.638512;45.429398;1;7;8;9417440;Bus 25 : Direction Châteauguay;"";EXO;25 O;Terminus Angrignon;boul. Deguire / rue Principale
451896831;"{\"type\":\"LineString\",\"coordinates\":[[-73.6343674,45.4307942],[-73.6348092,45.4306453]]}";2;Boulevard Newman;4;50;false;true;true;false;false;false;39.0;1;0;0;0;0;false;78569;6190670027;-73.634174;45.43094;78563;6190670032;-73.638512;45.429398;0;7;8;9417440;Bus 25 : Direction Châteauguay;"";EXO;25 O;Terminus Angrignon;boul. Deguire / rue Principale
451896830;"{\"type\":\"LineString\",\"coordinates\":[[-73.6348092,45.4306453],[-73.6349345,45.430603],[-73.6355536,45.4303763],[-73.6362864,45.4301087],[-73.6363447,45.4300874]]}";3;Boulevard Newman;4;50;false;true;true;false;false;false;136.0;2;0;0;0;0;false;78569;6190670027;-73.634174;45.43094;78563;6190670032;-73.638512;45.429398;0;7;8;9417440;Bus 25 : Direction Châteauguay;"";EXO;25 O;Terminus Angrignon;boul. Deguire / rue Principale
499892370;"{\"type\":\"LineString\",\"coordinates\":[[-73.6363447,45.4300874],[-73.6367216,45.4299511]]}";4;Boulevard Newman;4;50;false;true;true;false;false;false;34.0;0;0;0;0;0;false;78569;6190670027;-73.634174;45.43094;78563;6190670032;-73.638512;45.429398;0;7;8;9417440;Bus 25 : Direction Châteauguay;"";EXO;25 O;Terminus Angrignon;boul. Deguire / rue Principale
499892372;"{\"type\":\"LineString\",\"coordinates\":[[-73.6367216,45.4299511],[-73.6387666,45.4292114],[-73.6389079,45.4291628]]}";5;Boulevard Newman;4;50;false;true;true;false;false;false;96.5;1;0;0;0;0;false;78569;6190670027;-73.634174;45.43094;78563;6190670032;-73.638512;45.429398;1;7;8;9417440;Bus 25 : Direction Châteauguay;"";EXO;25 O;Terminus Angrignon;boul. Deguire / rue Principale
499892372;"{\"type\":\"LineString\",\"coordinates\":[[-73.6367216,45.4299511],[-73.6387666,45.4292114],[-73.6389079,45.4291628]]}";1;Boulevard Newman;4;50;false;true;true;false;false;false;96.5;1;0;0;0;0;false;78563;6190670032;-73.638512;45.429398;76557;6190673009;-73.644449;45.42728;1;8;9;9417440;Bus 25 : Direction Châteauguay;"";EXO;25 O;Terminus Angrignon;boul. Deguire / rue Principale
477486651;"{\"type\":\"LineString\",\"coordinates\":[[-73.6389079,45.4291628],[-73.6390096,45.4291304]]}";2;Boulevard Newman;4;50;false;true;true;false;false;false;9.0;2;0;0;0;0;false;78563;6190670032;-73.638512;45.429398;76557;6190673009;-73.644449;45.42728;0;8;9;9417440;Bus 25 : Direction Châteauguay;"";EXO;25 O;Terminus Angrignon;boul. Deguire / rue Principale
477486650;"{\"type\":\"LineString\",\"coordinates\":[[-73.6390096,45.4291304],[-73.6394363,45.4289689],[-73.6395494,45.4289278]]}";3;Boulevard Newman;4;50;false;true;true;false;false;false;48.0;2;0;0;0;0;false;78563;6190670032;-73.638512;45.429398;76557;6190673009;-73.644449;45.42728;0;8;9;9417440;Bus 25 : Direction Châteauguay;"";EXO;25 O;Terminus Angrignon;boul. Deguire / rue Principale
555505982;"{\"type\":\"LineString\",\"coordinates\":[[-73.6395494,45.4289278],[-73.6396252,45.4288995]]}";4;Boulevard Newman;4;50;false;true;true;false;false;false;7.0;2;0;0;0;0;false;78563;6190670032;-73.638512;45.429398;76557;6190673009;-73.644449;45.42728;0;8;9;9417440;Bus 25 : Direction Châteauguay;"";EXO;25 O;Terminus Angrignon;boul. Deguire / rue Principale
456360852;"{\"type\":\"LineString\",\"coordinates\":[[-73.6396252,45.4288995],[-73.6396682,45.4288806],[-73.6396857,45.4288574]]}";5;Boulevard Newman;4;50;false;true;true;false;false;false;7.0;1;0;0;0;0;false;78563;6190670032;-73.638512;45.429398;76557;6190673009;-73.644449;45.42728;0;8;9;9417440;Bus 25 : Direction Châteauguay;"";EXO;25 O;Terminus Angrignon;boul. Deguire / rue Principale
453533478;"{\"type\":\"LineString\",\"coordinates\":[[-73.6396857,45.4288574],[-73.6400667,45.4287493]]}";6;Boulevard Newman;4;50;false;false;true;false;false;false;33.0;0;0;0;0;0;false;78563;6190670032;-73.638512;45.429398;76557;6190673009;-73.644449;45.42728;0;8;9;9417440;Bus 25 : Direction Châteauguay;"";EXO;25 O;Terminus Angrignon;boul. Deguire / rue Principale
424837410;"{\"type\":\"LineString\",\"coordinates\":[[-73.6400667,45.4287493],[-73.6402905,45.4286722],[-73.6407594,45.428503],[-73.6423823,45.4279076],[-73.6430408,45.4276713]]}";7;Boulevard Newman;4;50;false;false;true;false;false;false;262.0;0;0;0;0;0;false;78563;6190670032;-73.638512;45.429398;76557;6190673009;-73.644449;45.42728;0;8;9;9417440;Bus 25 : Direction Châteauguay;"";EXO;25 O;Terminus Angrignon;boul. Deguire / rue Principale
473015245;"{\"type\":\"LineString\",\"coordinates\":[[-73.6430408,45.4276713],[-73.6434429,45.4275233]]}";8;Boulevard Newman;4;50;false;false;true;false;false;false;36.0;0;0;0;0;0;false;78563;6190670032;-73.638512;45.429398;76557;6190673009;-73.644449;45.42728;0;8;9;9417440;Bus 25 : Direction Châteauguay;"";EXO;25 O;Terminus Angrignon;boul. Deguire / rue Principale
473015241;"{\"type\":\"LineString\",\"coordinates\":[[-73.6434429,45.4275233],[-73.6435826,45.4274734],[-73.6443837,45.4271686]]}";9;Boulevard Newman;4;50;false;false;true;false;false;false;42.0;0;0;0;0;0;false;78563;6190670032;-73.638512;45.429398;76557;6190673009;-73.644449;45.42728;1;8;9;9417440;Bus 25 : Direction Châteauguay;"";EXO;25 O;Terminus Angrignon;boul. Deguire / rue Principale
452039035;"{\"type\":\"LineString\",\"coordinates\":[[-73.6491969,45.4254348],[-73.6497035,45.4251971]]}";1;Boulevard Newman;4;50;false;false;true;false;false;false;48.0;0;0;0;0;0;false;78315;6190671056;-73.649156;45.425473;78606;6190670003;-73.683171;45.399932;2;10;11;9417440;Bus 25 : Direction Châteauguay;"";EXO;25 O;Terminus Angrignon;boul. Deguire / rue Principale
452039036;"{\"type\":\"LineString\",\"coordinates\":[[-73.6501443,45.4252705],[-73.6497035,45.4251971]]}";2;Rue Airlie;1;50;false;false;true;false;false;false;36.0;0;0;0;0;0;false;78315;6190671056;-73.649156;45.425473;78606;6190670003;-73.683171;45.399932;0;10;11;9417440;Bus 25 : Direction Châteauguay;"";EXO;25 O;Terminus Angrignon;boul. Deguire / rue Principale
673471346;"{\"type\":\"LineString\",\"coordinates\":[[-73.6503762,45.4253084],[-73.6501443,45.4252705]]}";3;Rue Airlie;1;50;false;false;true;false;false;false;19.0;0;0;0;0;0;false;78315;6190671056;-73.649156;45.425473;78606;6190670003;-73.683171;45.399932;0;10;11;9417440;Bus 25 : Direction Châteauguay;"";EXO;25 O;Terminus Angrignon;boul. Deguire / rue Principale
422433304;"{\"type\":\"LineString\",\"coordinates\":[[-73.6503762,45.4253084],[-73.6504724,45.4252292],[-73.6505603,45.4251427],[-73.650629,45.4250297],[-73.6507629,45.4247626],[-73.650858,45.4245509],[-73.6509106,45.4244531],[-73.6509705,45.4243699]]}";4;"";1;50;false;true;true;false;false;false;116.0;0;0;0;0;0;false;78315;6190671056;-73.649156;45.425473;78606;6190670003;-73.683171;45.399932;0;10;11;9417440;Bus 25 : Direction Châteauguay;"";EXO;25 O;Terminus Angrignon;boul. Deguire / rue Principale
490755724;"{\"type\":\"LineString\",\"coordinates\":[[-73.6509705,45.4243699],[-73.6511138,45.4242673],[-73.6513461,45.4240427],[-73.6515249,45.4237494],[-73.6517747,45.4232899],[-73.652203,45.4226081]]}";5;"";1;50;false;true;false;false;false;false;220.0;0;0;0;0;0;false;78315;6190671056;-73.649156;45.425473;78606;6190670003;-73.683171;45.399932;0;10;11;9417440;Bus 25 : Direction Châteauguay;"";EXO;25 O;Terminus Angrignon;boul. Deguire / rue Principale
467989463;"{\"type\":\"LineString\",\"coordinates\":[[-73.652203,45.4226081],[-73.652266,45.4224832]]}";6;Route 138;1;50;false;true;true;false;false;false;15.0;0;0;0;0;0;false;78315;6190671056;-73.649156;45.425473;78606;6190670003;-73.683171;45.399932;0;10;11;9417440;Bus 25 : Direction Châteauguay;"";EXO;25 O;Terminus Angrignon;boul. Deguire / rue Principale
417092084;"{\"type\":\"LineString\",\"coordinates\":[[-73.652266,45.4224832],[-73.6523849,45.4222466]]}";7;Pont Honoré-Mercier;1;50;false;true;true;false;false;false;28.0;0;0;0;0;0;false;78315;6190671056;-73.649156;45.425473;78606;6190670003;-73.683171;45.399932;0;10;11;9417440;Bus 25 : Direction Châteauguay;"";EXO;25 O;Terminus Angrignon;boul. Deguire / rue Principale
482530517;"{\"type\":\"LineString\",\"coordinates\":[[-73.6523849,45.4222466],[-73.6524512,45.4221211]]}";8;Pont Honoré-Mercier;1;50;false;true;false;false;false;false;15.0;0;0;0;0;0;false;78315;6190671056;-73.649156;45.425473;78606;6190670003;-73.683171;45.399932;0;10;11;9417440;Bus 25 : Direction Châteauguay;"";EXO;25 O;Terminus Angrignon;boul. Deguire / rue Principale
482530518;"{\"type\":\"LineString\",\"coordinates\":[[-73.6524512,45.4221211],[-73.6527798,45.4214923]]}";9;Pont Honoré-Mercier;1;50;false;true;false;false;false;false;75.0;0;0;0;0;0;false;78315;6190671056;-73.649156;45.425473;78606;6190670003;-73.683171;45.399932;0;10;11;9417440;Bus 25 : Direction Châteauguay;"";EXO;25 O;Terminus Angrignon;boul. Deguire / rue Principale
567465771;"{\"type\":\"LineString\",\"coordinates\":[[-73.6527798,45.4214923],[-73.6547778,45.4177144],[-73.656277,45.4147936],[-73.6564471,45.4144551],[-73.6567326,45.4138965],[-73.6574807,45.4124561],[-73.658502,45.410453],[-73.6592403,45.4089848]]}";10;Pont Honoré-Mercier;2;50;false;true;false;false;false;false;1479.0;0;0;0;0;0;false;78315;6190671056;-73.649156;45.425473;78606;6190670003;-73.683171;45.399932;0;10;11;9417440;Bus 25 : Direction Châteauguay;"";EXO;25 O;Terminus Angrignon;boul. Deguire / rue Principale
685945572;"{\"type\":\"LineString\",\"coordinates\":[[-73.6592403,45.4089848],[-73.6593146,45.4088561],[-73.6593951,45.4087253],[-73.6594779,45.4085928],[-73.6595361,45.408509],[-73.6596993,45.4082977]]}";11;Pont Honoré-Mercier;2;70;false;true;false;false;false;false;85.0;0;0;0;0;0;false;78315;6190671056;-73.649156;45.425473;78606;6190670003;-73.683171;45.399932;0;10;11;9417440;Bus 25 : Direction Châteauguay;"";EXO;25 O;Terminus Angrignon;boul. Deguire / rue Principale
482530519;"{\"type\":\"LineString\",\"coordinates\":[[-73.6596993,45.4082977],[-73.6603312,45.4075269],[-73.660621,45.4071637],[-73.6608681,45.4068579],[-73.6613401,45.4062694],[-73.6615113,45.4060485],[-73.6616561,45.4058905],[-73.6618306,45.4057249],[-73.662051,45.405562],[-73.6622966,45.4054152],[-73.6624994,45.4053157],[-73.662652,45.4052519],[-73.6627964,45.405198]]}";12;Pont Honoré-Mercier;2;70;false;true;false;false;false;false;428.0;0;0;0;0;0;false;78315;6190671056;-73.649156;45.425473;78606;6190670003;-73.683171;45.399932;0;10;11;9417440;Bus 25 : Direction Châteauguay;"";EXO;25 O;Terminus Angrignon;boul. Deguire / rue Principale
48747491;"{\"type\":\"LineString\",\"coordinates\":[[-73.6627964,45.405198],[-73.6630775,45.4051134],[-73.6635366,45.4049902],[-73.6642348,45.4048001],[-73.6648979,45.4046224],[-73.6655088,45.4044566],[-73.6661857,45.4042722],[-73.6668546,45.4040911],[-73.6674442,45.4039379],[-73.6679272,45.4038067],[-73.6695947,45.4033564]]}";13;Pont Honoré-Mercier;2;70;false;true;false;false;false;false;570.0;0;0;0;0;0;false;78315;6190671056;-73.649156;45.425473;78606;6190670003;-73.683171;45.399932;0;10;11;9417440;Bus 25 : Direction Châteauguay;"";EXO;25 O;Terminus Angrignon;boul. Deguire / rue Principale
678489529;"{\"type\":\"LineString\",\"coordinates\":[[-73.6695947,45.4033564],[-73.6718958,45.4027794]]}";14;Route 132/138;2;70;false;true;false;false;false;false;192.0;0;0;0;0;0;false;78315;6190671056;-73.649156;45.425473;78606;6190670003;-73.683171;45.399932;0;10;11;9417440;Bus 25 : Direction Châteauguay;"";EXO;25 O;Terminus Angrignon;boul. Deguire / rue Principale
341667136;"{\"type\":\"LineString\",\"coordinates\":[[-73.6718958,45.4027794],[-73.6722556,45.4026894]]}";15;Route 132;2;70;false;true;true;false;false;false;30.0;0;0;0;0;0;false;78315;6190671056;-73.649156;45.425473;78606;6190670003;-73.683171;45.399932;0;10;11;9417440;Bus 25 : Direction Châteauguay;"";EXO;25 O;Terminus Angrignon;boul. Deguire / rue Principale
45271209;"{\"type\":\"LineString\",\"coordinates\":[[-73.6722556,45.4026894],[-73.6756545,45.4017831],[-73.6760442,45.4016792],[-73.6761514,45.4016506],[-73.6770081,45.4014221],[-73.6780331,45.4011488],[-73.6786454,45.4009848],[-73.6805,45.4004879],[-73.6814883,45.4002232],[-73.6826567,45.3999102],[-73.6832169,45.3997601],[-73.6840441,45.3995385],[-73.6852715,45.3992613],[-73.6858973,45.3991751],[-73.6864028,45.3991285],[-73.6865411,45.3991158],[-73.6871365,45.399112],[-73.6877226,45.3991356],[-73.6885903,45.3991949]]}";16;Route 132;2;70;false;true;true;false;false;false;1349.0;0;0;0;0;0;false;78315;6190671056;-73.649156;45.425473;78606;6190670003;-73.683171;45.399932;2;10;11;9417440;Bus 25 : Direction Châteauguay;"";EXO;25 O;Terminus Angrignon;boul. Deguire / rue Principale
45271209;"{\"type\":\"LineString\",\"coordinates\":[[-73.6722556,45.4026894],[-73.6756545,45.4017831],[-73.6760442,45.4016792],[-73.6761514,45.4016506],[-73.6770081,45.4014221],[-73.6780331,45.4011488],[-73.6786454,45.4009848],[-73.6805,45.4004879],[-73.6814883,45.4002232],[-73.6826567,45.3999102],[-73.6832169,45.3997601],[-73.6840441,45.3995385],[-73.6852715,45.3992613],[-73.6858973,45.3991751],[-73.6864028,45.3991285],[-73.6865411,45.3991158],[-73.6871365,45.399112],[-73.6877226,45.3991356],[-73.6885903,45.3991949]]}";1;Route 132;2;70;false;true;true;false;false;false;674.5;0;0;0;0;0;false;78606;6190670003;-73.683171;45.399932;78898;6190668828;-73.7052;45.376988;1;11;12;9417440;Bus 25 : Direction Châteauguay;"";EXO;25 O;Terminus Angrignon;boul. Deguire / rue Principale
462337783;"{\"type\":\"LineString\",\"coordinates\":[[-73.6885903,45.3991949],[-73.6890208,45.3992024],[-73.6894727,45.3991883]]}";2;Route 132/138;2;70;false;true;true;false;false;false;70.0;1;0;0;0;0;false;78606;6190670003;-73.683171;45.399932;78898;6190668828;-73.7052;45.376988;0;11;12;9417440;Bus 25 : Direction Châteauguay;"";EXO;25 O;Terminus Angrignon;boul. Deguire / rue Principale
462337784;"{\"type\":\"LineString\",\"coordinates\":[[-73.6894727,45.3991883],[-73.6899582,45.3991497],[-73.6904651,45.3990772]]}";3;Route 132/138;2;70;false;true;true;false;false;false;79.0;1;0;0;0;0;false;78606;6190670003;-73.683171;45.399932;78898;6190668828;-73.7052;45.376988;0;11;12;9417440;Bus 25 : Direction Châteauguay;"";EXO;25 O;Terminus Angrignon;boul. Deguire / rue Principale
326317194;"{\"type\":\"LineString\",\"coordinates\":[[-73.6904651,45.3990772],[-73.6908661,45.3989764],[-73.6911357,45.398902],[-73.6914066,45.3988003],[-73.6917861,45.3986365],[-73.6921684,45.3984387],[-73.6925948,45.3981779],[-73.6929818,45.3978533],[-73.6932932,45.3975337],[-73.6934411,45.3973407],[-73.6935913,45.3969904]]}";4;Route 132/138;2;70;false;true;true;false;false;false;352.0;0;0;0;0;0;false;78606;6190670003;-73.683171;45.399932;78898;6190668828;-73.7052;45.376988;0;11;12;9417440;Bus 25 : Direction Châteauguay;"";EXO;25 O;Terminus Angrignon;boul. Deguire / rue Principale
494183738;"{\"type\":\"LineString\",\"coordinates\":[[-73.6935913,45.3969904],[-73.6944419,45.3954988],[-73.6947906,45.3948515]]}";5;Route 132/138;5;70;false;false;true;false;false;false;256.0;0;0;0;0;0;false;78606;6190670003;-73.683171;45.399932;78898;6190668828;-73.7052;45.376988;0;11;12;9417440;Bus 25 : Direction Châteauguay;"";EXO;25 O;Terminus Angrignon;boul. Deguire / rue Principale
13856278;"{\"type\":\"LineString\",\"coordinates\":[[-73.6947906,45.3948515],[-73.6949582,45.3946793],[-73.695728,45.393318]]}";6;Route 132/138;5;70;false;true;true;false;false;false;186.0;1;0;0;0;0;false;78606;6190670003;-73.683171;45.399932;78898;6190668828;-73.7052;45.376988;0;11;12;9417440;Bus 25 : Direction Châteauguay;"";EXO;25 O;Terminus Angrignon;boul. Deguire / rue Principale
494183736;"{\"type\":\"LineString\",\"coordinates\":[[-73.695728,45.393318],[-73.6962819,45.3923626],[-73.6964738,45.3918936]]}";7;Route 132/138;5;70;false;true;true;false;false;false;169.0;1;0;0;0;0;false;78606;6190670003;-73.683171;45.399932;78898;6190668828;-73.7052;45.376988;0;11;12;9417440;Bus 25 : Direction Châteauguay;"";EXO;25 O;Terminus Angrignon;boul. Deguire / rue Principale
638130703;"{\"type\":\"LineString\",\"coordinates\":[[-73.6964738,45.3918936],[-73.6983132,45.3886906],[-73.7044729,45.3779945]]}";8;Route 132;5;70;false;false;true;false;false;false;1666.0;0;0;0;0;0;false;78606;6190670003;-73.683171;45.399932;78898;6190668828;-73.7052;45.376988;0;11;12;9417440;Bus 25 : Direction Châteauguay;"";EXO;25 O;Terminus Angrignon;boul. Deguire / rue Principale
494183737;"{\"type\":\"LineString\",\"coordinates\":[[-73.7044729,45.3779945],[-73.7046146,45.3778855],[-73.7052121,45.3768862]]}";9;Route 132;5;70;false;true;true;false;false;false;68.5;1;0;0;0;0;false;78606;6190670003;-73.683171;45.399932;78898;6190668828;-73.7052;45.376988;1;11;12;9417440;Bus 25 : Direction Châteauguay;"";EXO;25 O;Terminus Angrignon;boul. Deguire / rue Principale
638130697;"{\"type\":\"LineString\",\"coordinates\":[[-73.7052121,45.3768862],[-73.7056223,45.376185],[-73.7058002,45.3758808]]}";1;Route 132;5;70;false;true;true;false;false;false;121.0;1;0;0;0;0;false;78898;6190668828;-73.7052;45.376988;78128;6190672391;-73.712612;45.368834;2;12;13;9417440;Bus 25 : Direction Châteauguay;"";EXO;25 O;Terminus Angrignon;boul. Deguire / rue Principale
638130700;"{\"type\":\"LineString\",\"coordinates\":[[-73.7058002,45.3758808],[-73.7057841,45.3757376]]}";2;Route 132;5;70;false;true;true;false;false;false;16.0;0;0;0;0;0;false;78898;6190668828;-73.7052;45.376988;78128;6190672391;-73.712612;45.368834;0;12;13;9417440;Bus 25 : Direction Châteauguay;"";EXO;25 O;Terminus Angrignon;boul. Deguire / rue Principale
638130699;"{\"type\":\"LineString\",\"coordinates\":[[-73.7057841,45.3757376],[-73.7059489,45.3754557],[-73.7061827,45.3750558],[-73.7077504,45.3723743],[-73.7094727,45.3694074]]}";3;Route 132;5;70;false;false;true;false;false;false;760.0;0;0;0;0;0;false;78898;6190668828;-73.7052;45.376988;78128;6190672391;-73.712612;45.368834;0;12;13;9417440;Bus 25 : Direction Châteauguay;"";EXO;25 O;Terminus Angrignon;boul. Deguire / rue Principale
342545892;"{\"type\":\"LineString\",\"coordinates\":[[-73.7094727,45.3694074],[-73.7095933,45.3692952],[-73.7099265,45.3687802]]}";4;Boulevard Saint-Jean-Baptiste;2;50;false;true;true;false;false;false;79.0;0;0;0;0;0;false;78898;6190668828;-73.7052;45.376988;78128;6190672391;-73.712612;45.368834;0;12;13;9417440;Bus 25 : Direction Châteauguay;"";EXO;25 O;Terminus Angrignon;boul. Deguire / rue Principale
341667133;"{\"type\":\"LineString\",\"coordinates\":[[-73.7099265,45.3687802],[-73.7101067,45.3686221],[-73.7101943,45.3685874],[-73.7102726,45.3685688],[-73.7103689,45.3685601],[-73.710492,45.3685568]]}";5;"";1;50;false;true;true;false;false;false;55.0;0;0;0;0;0;false;78898;6190668828;-73.7052;45.376988;78128;6190672391;-73.712612;45.368834;0;12;13;9417440;Bus 25 : Direction Châteauguay;"";EXO;25 O;Terminus Angrignon;boul. Deguire / rue Principale
462338991;"{\"type\":\"LineString\",\"coordinates\":[[-73.710492,45.3685568],[-73.710709,45.3685793],[-73.7111722,45.3686273],[-73.7121931,45.3687332],[-73.7138278,45.3689027],[-73.7147545,45.3689988]]}";6;Boulevard Saint-Francis;2;50;false;true;false;false;false;false;338.0;0;0;0;0;0;false;78898;6190668828;-73.7052;45.376988;78128;6190672391;-73.712612;45.368834;2;12;13;9417440;Bus 25 : Direction Châteauguay;"";EXO;25 O;Terminus Angrignon;boul. Deguire / rue Principale
462338991;"{\"type\":\"LineString\",\"coordinates\":[[-73.710492,45.3685568],[-73.710709,45.3685793],[-73.7111722,45.3686273],[-73.7121931,45.3687332],[-73.7138278,45.3689027],[-73.7147545,45.3689988]]}";1;Boulevard Saint-Francis;2;50;false;true;false;false;false;false;169.0;0;0;0;0;0;false;78128;6190672391;-73.712612;45.368834;78089;6190672418;-73.716035;45.369108;1;13;14;9417440;Bus 25 : Direction Châteauguay;"";EXO;25 O;Terminus Angrignon;boul. Deguire / rue Principale
680838748;"{\"type\":\"LineString\",\"coordinates\":[[-73.7147545,45.3689988],[-73.7162388,45.3691528]]}";2;Boulevard Saint-Francis;2;50;false;true;false;false;false;false;59.0;0;0;0;0;0;false;78128;6190672391;-73.712612;45.368834;78089;6190672418;-73.716035;45.369108;1;13;14;9417440;Bus 25 : Direction Châteauguay;"";EXO;25 O;Terminus Angrignon;boul. Deguire / rue Principale
678228605;"{\"type\":\"LineString\",\"coordinates\":[[-73.7162388,45.3691528],[-73.7176828,45.3693025]]}";1;Boulevard Saint-Francis;2;50;false;true;false;false;false;false;115.0;0;0;0;0;0;false;78089;6190672418;-73.716035;45.369108;78091;6190672416;-73.721333;45.369691;2;14;15;9417440;Bus 25 : Direction Châteauguay;"";EXO;25 O;Terminus Angrignon;boul. Deguire / rue Principale
680838740;"{\"type\":\"LineString\",\"coordinates\":[[-73.7176828,45.3693025],[-73.7209305,45.3696393]]}";2;Boulevard Saint-Francis;2;50;false;true;false;false;false;false;257.0;0;0;0;0;0;false;78089;6190672418;-73.716035;45.369108;78091;6190672416;-73.721333;45.369691;0;14;15;9417440;Bus 25 : Direction Châteauguay;"";EXO;25 O;Terminus Angrignon;boul. Deguire / rue Principale
178199380;"{\"type\":\"LineString\",\"coordinates\":[[-73.7209305,45.3696393],[-73.7212873,45.3696776],[-73.7214319,45.3696917],[-73.7223541,45.3697897],[-73.724888,45.3700603],[-73.7252532,45.3700779],[-73.7258977,45.3699447],[-73.7260545,45.3698975],[-73.7270819,45.369531],[-73.7282316,45.3691264],[-73.728689,45.3689666],[-73.7301643,45.3684587],[-73.7310832,45.3681016]]}";3;Boulevard Saint-Francis;1;50;false;true;true;false;false;false;850.0;0;1;0;0;0;false;78089;6190672418;-73.716035;45.369108;78091;6190672416;-73.721333;45.369691;2;14;15;9417440;Bus 25 : Direction Châteauguay;"";EXO;25 O;Terminus Angrignon;boul. Deguire / rue Principale
178199380;"{\"type\":\"LineString\",\"coordinates\":[[-73.7209305,45.3696393],[-73.7212873,45.3696776],[-73.7214319,45.3696917],[-73.7223541,45.3697897],[-73.724888,45.3700603],[-73.7252532,45.3700779],[-73.7258977,45.3699447],[-73.7260545,45.3698975],[-73.7270819,45.369531],[-73.7282316,45.3691264],[-73.728689,45.3689666],[-73.7301643,45.3684587],[-73.7310832,45.3681016]]}";1;Boulevard Saint-Francis;1;50;false;true;true;false;false;false;425.0;0;1;0;0;0;false;78181;6190671749;-73.730284;45.368401;78265;6190671079;-73.735824;45.367996;1;18;19;9417440;Bus 25 : Direction Châteauguay;"";EXO;25 O;Terminus Angrignon;boul. Deguire / rue Principale
340350768;"{\"type\":\"LineString\",\"coordinates\":[[-73.7310832,45.3681016],[-73.7314339,45.3679568],[-73.7315252,45.3678761]]}";2;Boulevard Saint-Francis;1;50;false;true;false;false;false;false;44.0;0;0;0;0;0;false;78181;6190671749;-73.730284;45.368401;78265;6190671079;-73.735824;45.367996;0;18;19;9417440;Bus 25 : Direction Châteauguay;"";EXO;25 O;Terminus Angrignon;boul. Deguire / rue Principale
790429880;"{\"type\":\"LineString\",\"coordinates\":[[-73.7321606,45.3676393],[-73.7315252,45.3678761]]}";3;Boulevard Saint-Francis;2;50;false;false;false;false;false;false;57.0;0;0;0;0;0;false;78181;6190671749;-73.730284;45.368401;78265;6190671079;-73.735824;45.367996;0;18;19;9417440;Bus 25 : Direction Châteauguay;"";EXO;25 O;Terminus Angrignon;boul. Deguire / rue Principale
678245772;"{\"type\":\"LineString\",\"coordinates\":[[-73.7384376,45.3682683],[-73.7383491,45.368259],[-73.7370261,45.3681198],[-73.7360442,45.3680151],[-73.7334617,45.3677036],[-73.7326265,45.3675792],[-73.7323943,45.3675863],[-73.7321606,45.3676393]]}";4;Boulevard Saint-Francis;2;50;false;false;true;false;false;false;249.5;0;0;0;0;0;false;78181;6190671749;-73.730284;45.368401;78265;6190671079;-73.735824;45.367996;1;18;19;9417440;Bus 25 : Direction Châteauguay;"";EXO;25 O;Terminus Angrignon;boul. Deguire / rue Principale
45416553;"{\"type\":\"LineString\",\"coordinates\":[[-73.7515448,45.3693413],[-73.7511508,45.3700865],[-73.7509707,45.3704777],[-73.7507688,45.3712798],[-73.7506226,45.3717476]]}";1;Boulevard Salaberry Nord;1;50;false;false;true;false;false;false;278.0;0;0;0;0;0;false;78190;6190671742;-73.751544;45.369326;78139;6190671782;-73.749755;45.372998;2;24;25;9417440;Bus 25 : Direction Châteauguay;"";EXO;25 O;Terminus Angrignon;boul. Deguire / rue Principale
14896295;"{\"type\":\"LineString\",\"coordinates\":[[-73.7498303,45.3769305],[-73.7497439,45.3768094],[-73.7496098,45.3764444],[-73.7493008,45.3753049],[-73.7492789,45.3750053],[-73.7492408,45.3744849],[-73.7494296,45.3737252],[-73.7497323,45.373109],[-73.7497643,45.3730439],[-73.7501849,45.3726098],[-73.7504338,45.372242],[-73.7505149,45.3720713],[-73.7506226,45.3717476]]}";2;Boulevard Salaberry Nord;2;50;false;false;false;false;false;false;604.0;0;0;0;0;0;false;78190;6190671742;-73.751544;45.369326;78139;6190671782;-73.749755;45.372998;2;24;25;9417440;Bus 25 : Direction Châteauguay;"";EXO;25 O;Terminus Angrignon;boul. Deguire / rue Principale
13863405;"{\"type\":\"LineString\",\"coordinates\":[[-73.7475567,45.3773744],[-73.7475034,45.3776618],[-73.7474495,45.3779526]]}";1;Rue Church;1;50;false;false;true;false;false;false;65.0;0;0;0;0;0;false;78257;6190671687;-73.747597;45.377387;78228;6190671712;-73.750725;45.379647;2;28;29;9417440;Bus 25 : Direction Châteauguay;"";EXO;25 O;Terminus Angrignon;boul. Deguire / rue Principale
13863417;"{\"type\":\"LineString\",\"coordinates\":[[-73.7507514,45.3782954],[-73.7481181,45.378022],[-73.7474495,45.3779526]]}";2;Rue d'Abbotsford;1;50;false;false;true;false;false;false;262.0;0;0;0;0;0;false;78257;6190671687;-73.747597;45.377387;78228;6190671712;-73.750725;45.379647;0;28;29;9417440;Bus 25 : Direction Châteauguay;"";EXO;25 O;Terminus Angrignon;boul. Deguire / rue Principale
677713377;"{\"type\":\"LineString\",\"coordinates\":[[-73.7504139,45.3807422],[-73.7505196,45.38043],[-73.7506521,45.3799793],[-73.7507514,45.3796097],[-73.7508462,45.3790353],[-73.7508245,45.3785637],[-73.7507514,45.3782954]]}";3;Boulevard Salaberry Nord;2;50;false;false;false;false;false;false;276.0;0;0;0;0;0;false;78257;6190671687;-73.747597;45.377387;78228;6190671712;-73.750725;45.379647;2;28;29;9417440;Bus 25 : Direction Châteauguay;"";EXO;25 O;Terminus Angrignon;boul. Deguire / rue Principale
677713377;"{\"type\":\"LineString\",\"coordinates\":[[-73.7504139,45.3807422],[-73.7505196,45.38043],[-73.7506521,45.3799793],[-73.7507514,45.3796097],[-73.7508462,45.3790353],[-73.7508245,45.3785637],[-73.7507514,45.3782954]]}";1;Boulevard Salaberry Nord;2;50;false;false;false;false;false;false;138.0;0;0;0;0;0;false;78228;6190671712;-73.750725;45.379647;78235;6190671705;-73.766767;45.383009;1;29;30;9417440;Bus 25 : Direction Châteauguay;"";EXO;25 O;Terminus Angrignon;boul. Deguire / rue Principale
678241591;"{\"type\":\"LineString\",\"coordinates\":[[-73.7502804,45.3811229],[-73.7504139,45.3807422]]}";2;Boulevard Salaberry Nord;2;50;false;false;false;false;false;false;44.0;0;0;0;0;0;false;78228;6190671712;-73.750725;45.379647;78235;6190671705;-73.766767;45.383009;0;29;30;9417440;Bus 25 : Direction Châteauguay;"";EXO;25 O;Terminus Angrignon;boul. Deguire / rue Principale
402748538;"{\"type\":\"LineString\",\"coordinates\":[[-73.7499955,45.3816167],[-73.750086,45.3814667],[-73.7502804,45.3811229]]}";3;Boulevard Salaberry Nord;2;50;false;false;false;false;false;false;60.0;0;0;0;0;0;false;78228;6190671712;-73.750725;45.379647;78235;6190671705;-73.766767;45.383009;0;29;30;9417440;Bus 25 : Direction Châteauguay;"";EXO;25 O;Terminus Angrignon;boul. Deguire / rue Principale
678241597;"{\"type\":\"LineString\",\"coordinates\":[[-73.7495723,45.3824173],[-73.7497349,45.3820345],[-73.7499616,45.3816728],[-73.7499955,45.3816167]]}";4;Boulevard Salaberry Nord;2;50;false;false;true;false;false;false;96.0;0;0;0;0;0;false;78228;6190671712;-73.750725;45.379647;78235;6190671705;-73.766767;45.383009;0;29;30;9417440;Bus 25 : Direction Châteauguay;"";EXO;25 O;Terminus Angrignon;boul. Deguire / rue Principale
387919918;"{\"type\":\"LineString\",\"coordinates\":[[-73.7495723,45.3824173],[-73.7482574,45.3826406],[-73.7480758,45.3826406],[-73.7479107,45.3826135],[-73.7477622,45.3825594],[-73.7476577,45.3824899],[-73.7475641,45.3823817],[-73.7475146,45.3822696]]}";5;"";1;50;false;false;true;false;false;false;185.0;0;0;0;0;0;false;78228;6190671712;-73.750725;45.379647;78235;6190671705;-73.766767;45.383009;0;29;30;9417440;Bus 25 : Direction Châteauguay;"";EXO;25 O;Terminus Angrignon;boul. Deguire / rue Principale
387919919;"{\"type\":\"LineString\",\"coordinates\":[[-73.7475146,45.3822696],[-73.7475146,45.382173],[-73.7475311,45.3820918],[-73.7475806,45.381972],[-73.7476687,45.3818948],[-73.7478007,45.3818213],[-73.7482668,45.381678]]}";6;"";1;50;false;true;true;false;false;false;98.0;0;0;0;0;0;false;78228;6190671712;-73.750725;45.379647;78235;6190671705;-73.766767;45.383009;0;29;30;9417440;Bus 25 : Direction Châteauguay;"";EXO;25 O;Terminus Angrignon;boul. Deguire / rue Principale
408677979;"{\"type\":\"LineString\",\"coordinates\":[[-73.7482668,45.381678],[-73.748399,45.3816532],[-73.7496233,45.3814105],[-73.7499616,45.3813367]]}";7;Chemin Saint-Bernard;1;50;false;true;true;false;false;false;138.0;0;0;0;0;0;false;78228;6190671712;-73.750725;45.379647;78235;6190671705;-73.766767;45.383009;0;29;30;9417440;Bus 25 : Direction Châteauguay;"";EXO;25 O;Terminus Angrignon;boul. Deguire / rue Principale
409159625;"{\"type\":\"LineString\",\"coordinates\":[[-73.7499616,45.3813367],[-73.7525574,45.3808542],[-73.7547075,45.3804313]]}";8;Chemin Saint-Bernard;1;50;false;true;true;false;false;false;385.0;0;0;0;0;0;false;78228;6190671712;-73.750725;45.379647;78235;6190671705;-73.766767;45.383009;0;29;30;9417440;Bus 25 : Direction Châteauguay;"";EXO;25 O;Terminus Angrignon;boul. Deguire / rue Principale
387919923;"{\"type\":\"LineString\",\"coordinates\":[[-73.7547075,45.3804313],[-73.7568131,45.3800171],[-73.7571044,45.3799588],[-73.75734,45.3799132],[-73.7580206,45.3797826],[-73.7584956,45.3796839],[-73.7585737,45.3796625],[-73.7587022,45.3796231],[-73.7588562,45.3795744],[-73.7590137,45.379522],[-73.759111,45.3794901],[-73.7592217,45.3794331]]}";9;Chemin Saint-Bernard;1;50;false;true;true;false;false;false;372.0;0;0;0;0;0;false;78228;6190671712;-73.750725;45.379647;78235;6190671705;-73.766767;45.383009;0;29;30;9417440;Bus 25 : Direction Châteauguay;"";EXO;25 O;Terminus Angrignon;boul. Deguire / rue Principale
678241596;"{\"type\":\"LineString\",\"coordinates\":[[-73.7618873,45.3781709],[-73.7617274,45.378282],[-73.7615357,45.3784013],[-73.7615072,45.3784186],[-73.7614031,45.378482],[-73.7612951,45.3785455],[-73.7611511,45.3786255],[-73.7609606,45.3787274],[-73.7607686,45.3788242],[-73.7606153,45.378896],[-73.7604287,45.3789799],[-73.760223,45.3790636],[-73.7599174,45.3791867],[-73.7596795,45.3792797],[-73.7594305,45.3793642],[-73.7592217,45.3794331]]}";10;Chemin Saint-Bernard;2;40;false;false;true;false;false;false;253.0;0;0;1;0;0;false;78228;6190671712;-73.750725;45.379647;78235;6190671705;-73.766767;45.383009;0;29;30;9417440;Bus 25 : Direction Châteauguay;"";EXO;25 O;Terminus Angrignon;boul. Deguire / rue Principale
678241595;"{\"type\":\"LineString\",\"coordinates\":[[-73.7621747,45.3787405],[-73.7621029,45.3785989],[-73.7619822,45.3783624],[-73.7619187,45.378235],[-73.7618873,45.3781709]]}";11;Rue Notre-Dame Nord;2;40;false;false;true;false;false;false;68.0;0;1;1;0;0;false;78228;6190671712;-73.750725;45.379647;78235;6190671705;-73.766767;45.383009;0;29;30;9417440;Bus 25 : Direction Châteauguay;"";EXO;25 O;Terminus Angrignon;boul. Deguire / rue Principale
548379414;"{\"type\":\"LineString\",\"coordinates\":[[-73.7665947,45.3811139],[-73.7643159,45.380869],[-73.7636983,45.3807431],[-73.7633421,45.3806053],[-73.7630363,45.3803605],[-73.762836,45.3800357],[-73.7621747,45.3787405]]}";12;Rue Notre-Dame Nord;2;50;false;false;true;false;false;false;491.0;0;0;0;0;0;false;78228;6190671712;-73.750725;45.379647;78235;6190671705;-73.766767;45.383009;0;29;30;9417440;Bus 25 : Direction Châteauguay;"";EXO;25 O;Terminus Angrignon;boul. Deguire / rue Principale
620431652;"{\"type\":\"LineString\",\"coordinates\":[[-73.7670192,45.3811595],[-73.7665947,45.3811139]]}";13;Rue Notre-Dame Nord;1;50;false;false;true;false;false;false;34.0;0;0;0;0;0;false;78228;6190671712;-73.750725;45.379647;78235;6190671705;-73.766767;45.383009;0;29;30;9417440;Bus 25 : Direction Châteauguay;"";EXO;25 O;Terminus Angrignon;boul. Deguire / rue Principale
13864366;"{\"type\":\"LineString\",\"coordinates\":[[-73.7687577,45.3813886],[-73.7679397,45.3812808],[-73.7670192,45.3811595]]}";14;Rue Notre-Dame Nord;1;50;false;false;true;false;false;false;139.0;0;0;0;0;0;false;78228;6190671712;-73.750725;45.379647;78235;6190671705;-73.766767;45.383009;0;29;30;9417440;Bus 25 : Direction Châteauguay;"";EXO;25 O;Terminus Angrignon;boul. Deguire / rue Principale
13863246;"{\"type\":\"LineString\",\"coordinates\":[[-73.7687577,45.3813886],[-73.7687272,45.3814906],[-73.7686328,45.3815931],[-73.7681607,45.3820091],[-73.767723,45.3823949],[-73.7672955,45.3830445],[-73.7671175,45.3833063]]}";15;Boulevard D'Youville;1;50;false;true;true;false;false;false;251.0;0;0;0;0;0;false;78228;6190671712;-73.750725;45.379647;78235;6190671705;-73.766767;45.383009;0;29;30;9417440;Bus 25 : Direction Châteauguay;"";EXO;25 O;Terminus Angrignon;boul. Deguire / rue Principale
13863293;"{\"type\":\"LineString\",\"coordinates\":[[-73.7665859,45.3829617],[-73.7667517,45.383066],[-73.7671175,45.3833063]]}";16;Chemin Vinet Ouest;1;50;false;false;true;false;false;false;28.5;0;0;0;0;0;false;78228;6190671712;-73.750725;45.379647;78235;6190671705;-73.766767;45.383009;1;29;30;9417440;Bus 25 : Direction Châteauguay;"";EXO;25 O;Terminus Angrignon;boul. Deguire / rue Principale
13863303;"{\"type\":\"LineString\",\"coordinates\":[[-73.7665859,45.3829617],[-73.7670192,45.3811595]]}";1;Rue Edmour;1;50;false;false;true;false;false;false;203.0;0;0;0;0;0;false;78235;6190671705;-73.766767;45.383009;78234;6190671706;-73.76711;45.38122;2;30;31;9417440;Bus 25 : Direction Châteauguay;"";EXO;25 O;Terminus Angrignon;boul. Deguire / rue Principale
13864366;"{\"type\":\"LineString\",\"coordinates\":[[-73.7687577,45.3813886],[-73.7679397,45.3812808],[-73.7670192,45.3811595]]}";2;Rue Notre-Dame Nord;1;50;false;false;true;false;false;false;139.0;0;0;0;0;0;false;78235;6190671705;-73.766767;45.383009;78234;6190671706;-73.76711;45.38122;2;30;31;9417440;Bus 25 : Direction Châteauguay;"";EXO;25 O;Terminus Angrignon;boul. Deguire / rue Principale
13863303;"{\"type\":\"LineString\",\"coordinates\":[[-73.7665859,45.3829617],[-73.7670192,45.3811595]]}";1;Rue Edmour;1;50;false;false;true;false;false;false;203.0;0;0;0;0;0;false;78234;6190671706;-73.76711;45.38122;78877;6190668836;-73.761022;45.37635;2;31;32;9417440;Bus 25 : Direction Châteauguay;"";EXO;25 O;Terminus Angrignon;boul. Deguire / rue Principale
13864366;"{\"type\":\"LineString\",\"coordinates\":[[-73.7687577,45.3813886],[-73.7679397,45.3812808],[-73.7670192,45.3811595]]}";2;Rue Notre-Dame Nord;1;50;false;false;true;false;false;false;139.0;0;0;0;0;0;false;78234;6190671706;-73.76711;45.38122;78877;6190668836;-73.761022;45.37635;0;31;32;9417440;Bus 25 : Direction Châteauguay;"";EXO;25 O;Terminus Angrignon;boul. Deguire / rue Principale
620431652;"{\"type\":\"LineString\",\"coordinates\":[[-73.7670192,45.3811595],[-73.7665947,45.3811139]]}";3;Rue Notre-Dame Nord;1;50;false;false;true;false;false;false;34.0;0;0;0;0;0;false;78234;6190671706;-73.76711;45.38122;78877;6190668836;-73.761022;45.37635;0;31;32;9417440;Bus 25 : Direction Châteauguay;"";EXO;25 O;Terminus Angrignon;boul. Deguire / rue Principale
548379414;"{\"type\":\"LineString\",\"coordinates\":[[-73.7665947,45.3811139],[-73.7643159,45.380869],[-73.7636983,45.3807431],[-73.7633421,45.3806053],[-73.7630363,45.3803605],[-73.762836,45.3800357],[-73.7621747,45.3787405]]}";4;Rue Notre-Dame Nord;2;50;false;false;true;false;false;false;491.0;0;0;0;0;0;false;78234;6190671706;-73.76711;45.38122;78877;6190668836;-73.761022;45.37635;0;31;32;9417440;Bus 25 : Direction Châteauguay;"";EXO;25 O;Terminus Angrignon;boul. Deguire / rue Principale
678241595;"{\"type\":\"LineString\",\"coordinates\":[[-73.7621747,45.3787405],[-73.7621029,45.3785989],[-73.7619822,45.3783624],[-73.7619187,45.378235],[-73.7618873,45.3781709]]}";5;Rue Notre-Dame Nord;2;40;false;false;true;false;false;false;68.0;0;1;1;0;0;false;78234;6190671706;-73.76711;45.38122;78877;6190668836;-73.761022;45.37635;0;31;32;9417440;Bus 25 : Direction Châteauguay;"";EXO;25 O;Terminus Angrignon;boul. Deguire / rue Principale
548379412;"{\"type\":\"LineString\",\"coordinates\":[[-73.7618873,45.3781709],[-73.7618486,45.3780913],[-73.7609395,45.3763672],[-73.7609046,45.3763042],[-73.7608717,45.3762435],[-73.7606237,45.3757647],[-73.7606214,45.3757602],[-73.7605665,45.3756561],[-73.7605341,45.3755962],[-73.7603398,45.3752328],[-73.7603131,45.3751896],[-73.7602883,45.3751542],[-73.7602812,45.3751441],[-73.7601806,45.3750829]]}";6;Rue Notre-Dame Nord;2;40;false;false;true;false;false;false;370.0;0;0;6;0;0;false;78234;6190671706;-73.76711;45.38122;78877;6190668836;-73.761022;45.37635;2;31;32;9417440;Bus 25 : Direction Châteauguay;"";EXO;25 O;Terminus Angrignon;boul. Deguire / rue Principale
548379412;"{\"type\":\"LineString\",\"coordinates\":[[-73.7618873,45.3781709],[-73.7618486,45.3780913],[-73.7609395,45.3763672],[-73.7609046,45.3763042],[-73.7608717,45.3762435],[-73.7606237,45.3757647],[-73.7606214,45.3757602],[-73.7605665,45.3756561],[-73.7605341,45.3755962],[-73.7603398,45.3752328],[-73.7603131,45.3751896],[-73.7602883,45.3751542],[-73.7602812,45.3751441],[-73.7601806,45.3750829]]}";1;Rue Notre-Dame Nord;2;40;false;false;true;false;false;false;185.0;0;0;6;0;0;false;78877;6190668836;-73.761022;45.37635;78193;6190671740;-73.760206;45.375042;1;32;33;9417440;Bus 25 : Direction Châteauguay;"";EXO;25 O;Terminus Angrignon;boul. Deguire / rue Principale
473574466;"{\"type\":\"LineString\",\"coordinates\":[[-73.7601806,45.3750829],[-73.7601059,45.3750454],[-73.7600742,45.3750309],[-73.7599675,45.3749823],[-73.7599237,45.3749603],[-73.7599035,45.3749486],[-73.7598661,45.374927],[-73.7598242,45.3748979]]}";2;Rue Notre-Dame Nord;2;40;false;false;true;false;false;false;17.5;0;1;1;0;0;false;78877;6190668836;-73.761022;45.37635;78193;6190671740;-73.760206;45.375042;1;32;33;9417440;Bus 25 : Direction Châteauguay;"";EXO;25 O;Terminus Angrignon;boul. Deguire / rue Principale
548379412;"{\"type\":\"LineString\",\"coordinates\":[[-73.7618873,45.3781709],[-73.7618486,45.3780913],[-73.7609395,45.3763672],[-73.7609046,45.3763042],[-73.7608717,45.3762435],[-73.7606237,45.3757647],[-73.7606214,45.3757602],[-73.7605665,45.3756561],[-73.7605341,45.3755962],[-73.7603398,45.3752328],[-73.7603131,45.3751896],[-73.7602883,45.3751542],[-73.7602812,45.3751441],[-73.7601806,45.3750829]]}";1;Rue Notre-Dame Nord;2;40;false;false;true;false;false;false;370.0;0;0;6;0;0;false;78193;6190671740;-73.760206;45.375042;78194;6190671739;-73.759141;45.373778;2;33;34;9417440;Bus 25 : Direction Châteauguay;"";EXO;25 O;Terminus Angrignon;boul. Deguire / rue Principale
473574466;"{\"type\":\"LineString\",\"coordinates\":[[-73.7601806,45.3750829],[-73.7601059,45.3750454],[-73.7600742,45.3750309],[-73.7599675,45.3749823],[-73.7599237,45.3749603],[-73.7599035,45.3749486],[-73.7598661,45.374927],[-73.7598242,45.3748979]]}";2;Rue Notre-Dame Nord;2;40;false;false;true;false;false;false;35.0;0;1;1;0;0;false;78193;6190671740;-73.760206;45.375042;78194;6190671739;-73.759141;45.373778;0;33;34;9417440;Bus 25 : Direction Châteauguay;"";EXO;25 O;Terminus Angrignon;boul. Deguire / rue Principale
473574464;"{\"type\":\"LineString\",\"coordinates\":[[-73.7598242,45.3748979],[-73.7597954,45.3748778],[-73.7597826,45.3748689],[-73.7597516,45.3748416],[-73.7597279,45.3748181],[-73.7596932,45.3747816],[-73.7596679,45.374749],[-73.7596318,45.3747024],[-73.7595964,45.3746528],[-73.7595767,45.374623],[-73.7594745,45.3744527],[-73.7594436,45.3744013]]}";3;Rue Notre-Dame Nord;2;30;false;false;true;false;false;false;64.0;0;1;0;0;0;false;78193;6190671740;-73.760206;45.375042;78194;6190671739;-73.759141;45.373778;0;33;34;9417440;Bus 25 : Direction Châteauguay;"";EXO;25 O;Terminus Angrignon;boul. Deguire / rue Principale
801349810;"{\"type\":\"LineString\",\"coordinates\":[[-73.7594436,45.3744013],[-73.7594046,45.3743263],[-73.7591558,45.3738484],[-73.7591406,45.3738172],[-73.7591199,45.3737747]]}";4;Rue Notre-Dame Nord;2;30;false;false;true;false;false;false;75.0;0;1;0;0;0;false;78193;6190671740;-73.760206;45.375042;78194;6190671739;-73.759141;45.373778;2;33;34;9417440;Bus 25 : Direction Châteauguay;"";EXO;25 O;Terminus Angrignon;boul. Deguire / rue Principale
13863243;"{\"type\":\"LineString\",\"coordinates\":[[-73.7591199,45.3737747],[-73.7590216,45.3738064],[-73.7583519,45.3739765],[-73.7561942,45.3745494],[-73.7557611,45.3746628],[-73.7552964,45.3747937],[-73.7552209,45.3748203],[-73.7551681,45.3748431],[-73.7551133,45.3748768],[-73.7550758,45.3749065],[-73.755047,45.3749352],[-73.7550127,45.3749764],[-73.7549945,45.3750138],[-73.7549922,45.3750432],[-73.7549937,45.3750959],[-73.755003,45.3751552],[-73.7550144,45.3752194],[-73.7550733,45.3754249],[-73.7550943,45.3755133],[-73.755099,45.3755649],[-73.7551011,45.3755872],[-73.7550981,45.3756238],[-73.7550909,45.3756438],[-73.7550798,45.3756705],[-73.7550606,45.3756988],[-73.7550428,45.3757181],[-73.7550161,45.3757392],[-73.7549801,45.3757563],[-73.7549385,45.3757742],[-73.7548706,45.3757927],[-73.7547484,45.3758194],[-73.7545971,45.3758481],[-73.7545872,45.3758502],[-73.7545293,45.3758625]]}";1;Rue Jeanne-d'Arc;2;40;false;false;true;false;false;false;479.0;0;2;2;0;0;false;78194;6190671739;-73.759141;45.373778;78239;6190671703;-73.754185;45.375548;2;34;35;9417440;Bus 25 : Direction Châteauguay;"";EXO;25 O;Terminus Angrignon;boul. Deguire / rue Principale
617815995;"{\"type\":\"LineString\",\"coordinates\":[[-73.7545293,45.3758625],[-73.7544039,45.3758825],[-73.7543991,45.3758833],[-73.7543745,45.3758832],[-73.7543438,45.3758814],[-73.7542973,45.3758733],[-73.7542428,45.3758547],[-73.7541948,45.3758295],[-73.7541452,45.3757912],[-73.7541043,45.3757427],[-73.7540738,45.3756877],[-73.754052,45.3756218],[-73.754042,45.3755643],[-73.7540422,45.3755426],[-73.7540427,45.3754958]]}";2;Rue Brault;2;30;false;false;true;false;false;false;69.0;0;1;2;0;0;false;78194;6190671739;-73.759141;45.373778;78239;6190671703;-73.754185;45.375548;2;34;35;9417440;Bus 25 : Direction Châteauguay;"";EXO;25 O;Terminus Angrignon;boul. Deguire / rue Principale
801281262;"{\"type\":\"LineString\",\"coordinates\":[[-73.7541374,45.3730292],[-73.7541435,45.3731182],[-73.7541413,45.3738174],[-73.7541409,45.3739444],[-73.7541404,45.374098],[-73.7541389,45.3741812],[-73.7541361,45.3742719],[-73.7541323,45.3743394],[-73.7541313,45.3743564],[-73.7541303,45.3743744],[-73.7541252,45.3744652],[-73.7541131,45.3748023],[-73.7541045,45.3749265],[-73.7540916,45.3751168],[-73.7540676,45.3753517],[-73.7540427,45.3754958]]}";1;Boulevard D'Youville;2;30;false;false;false;false;false;false;137.5;0;1;1;0;0;false;78447;6190670990;-73.754147;45.374235;78242;6190671702;-73.755578;45.37082;1;36;37;9417440;Bus 25 : Direction Châteauguay;"";EXO;25 O;Terminus Angrignon;boul. Deguire / rue Principale
797573529;"{\"type\":\"LineString\",\"coordinates\":[[-73.75422,45.3723243],[-73.7541933,45.3723868],[-73.7541777,45.3724344],[-73.7541611,45.3724845],[-73.7541398,45.3725762],[-73.754128,45.3726551],[-73.7541254,45.3727752],[-73.7541294,45.3728952],[-73.7541338,45.3729715],[-73.7541374,45.3730292]]}";2;Boulevard D'Youville;2;50;false;false;false;false;false;false;80.0;0;0;0;0;0;false;78447;6190670990;-73.754147;45.374235;78242;6190671702;-73.755578;45.37082;0;36;37;9417440;Bus 25 : Direction Châteauguay;"";EXO;25 O;Terminus Angrignon;boul. Deguire / rue Principale
789696691;"{\"type\":\"LineString\",\"coordinates\":[[-73.7561248,45.3685546],[-73.7561292,45.3687831],[-73.7561293,45.3689356],[-73.7561269,45.3690637],[-73.7561228,45.3691521],[-73.7561187,45.3692211],[-73.7561089,45.3693071],[-73.7560947,45.3693985],[-73.7560748,45.3694979],[-73.7560564,45.3695809],[-73.7560342,45.3696732],[-73.7560084,45.3697565],[-73.7559707,45.3698718],[-73.7559235,45.3699976],[-73.7558682,45.3701278],[-73.7557901,45.3702886],[-73.755738,45.3703845],[-73.7556749,45.3704881],[-73.7555963,45.370613],[-73.7555613,45.3706686],[-73.7555135,45.3707443],[-73.7554461,45.3708479],[-73.7552608,45.3711415],[-73.7552158,45.3712075],[-73.7551754,45.3712641],[-73.7551161,45.3713394],[-73.7550503,45.3714203],[-73.754981,45.3715036],[-73.7549313,45.3715562],[-73.7548916,45.3715951],[-73.7548558,45.3716329],[-73.75482,45.371667],[-73.7547572,45.3717265],[-73.754708,45.3717682],[-73.7546569,45.371813],[-73.754597,45.3718678],[-73.7545355,45.3719235],[-73.7544586,45.3719968],[-73.7544003,45.3720607],[-73.7543339,45.3721397],[-73.7543009,45.3721858],[-73.754269,45.3722329],[-73.7542377,45.372291],[-73.75422,45.3723243]]}";3;Boulevard D'Youville;2;40;false;false;false;false;false;false;227.5;0;0;0;0;0;false;78447;6190670990;-73.754147;45.374235;78242;6190671702;-73.755578;45.37082;1;36;37;9417440;Bus 25 : Direction Châteauguay;"";EXO;25 O;Terminus Angrignon;boul. Deguire / rue Principale
789696691;"{\"type\":\"LineString\",\"coordinates\":[[-73.7561248,45.3685546],[-73.7561292,45.3687831],[-73.7561293,45.3689356],[-73.7561269,45.3690637],[-73.7561228,45.3691521],[-73.7561187,45.3692211],[-73.7561089,45.3693071],[-73.7560947,45.3693985],[-73.7560748,45.3694979],[-73.7560564,45.3695809],[-73.7560342,45.3696732],[-73.7560084,45.3697565],[-73.7559707,45.3698718],[-73.7559235,45.3699976],[-73.7558682,45.3701278],[-73.7557901,45.3702886],[-73.755738,45.3703845],[-73.7556749,45.3704881],[-73.7555963,45.370613],[-73.7555613,45.3706686],[-73.7555135,45.3707443],[-73.7554461,45.3708479],[-73.7552608,45.3711415],[-73.7552158,45.3712075],[-73.7551754,45.3712641],[-73.7551161,45.3713394],[-73.7550503,45.3714203],[-73.754981,45.3715036],[-73.7549313,45.3715562],[-73.7548916,45.3715951],[-73.7548558,45.3716329],[-73.75482,45.371667],[-73.7547572,45.3717265],[-73.754708,45.3717682],[-73.7546569,45.371813],[-73.754597,45.3718678],[-73.7545355,45.3719235],[-73.7544586,45.3719968],[-73.7544003,45.3720607],[-73.7543339,45.3721397],[-73.7543009,45.3721858],[-73.754269,45.3722329],[-73.7542377,45.372291],[-73.75422,45.3723243]]}";1;Boulevard D'Youville;2;40;false;false;false;false;false;false;227.5;0;0;0;0;0;false;78242;6190671702;-73.755578;45.37082;78185;6190671745;-73.756124;45.368501;1;37;38;9417440;Bus 25 : Direction Châteauguay;"";EXO;25 O;Terminus Angrignon;boul. Deguire / rue Principale
789696687;"{\"type\":\"LineString\",\"coordinates\":[[-73.755623,45.3669633],[-73.7556506,45.3670218],[-73.7557553,45.3672101],[-73.755894,45.3674593],[-73.7559353,45.3675382],[-73.7559533,45.3675844],[-73.7559767,45.36765],[-73.7560043,45.3677354],[-73.7560323,45.3678313],[-73.7560391,45.3678547],[-73.7560621,45.3679727],[-73.7560745,45.3680673],[-73.7560996,45.3682673],[-73.7561061,45.3683333],[-73.7561072,45.3683446],[-73.7561184,45.3684584],[-73.7561248,45.3685546]]}";2;Boulevard D'Youville;2;40;false;false;false;false;false;false;91.5;0;0;0;0;0;false;78242;6190671702;-73.755578;45.37082;78185;6190671745;-73.756124;45.368501;1;37;38;9417440;Bus 25 : Direction Châteauguay;"";EXO;25 O;Terminus Angrignon;boul. Deguire / rue Principale
789696691;"{\"type\":\"LineString\",\"coordinates\":[[-73.7561248,45.3685546],[-73.7561292,45.3687831],[-73.7561293,45.3689356],[-73.7561269,45.3690637],[-73.7561228,45.3691521],[-73.7561187,45.3692211],[-73.7561089,45.3693071],[-73.7560947,45.3693985],[-73.7560748,45.3694979],[-73.7560564,45.3695809],[-73.7560342,45.3696732],[-73.7560084,45.3697565],[-73.7559707,45.3698718],[-73.7559235,45.3699976],[-73.7558682,45.3701278],[-73.7557901,45.3702886],[-73.755738,45.3703845],[-73.7556749,45.3704881],[-73.7555963,45.370613],[-73.7555613,45.3706686],[-73.7555135,45.3707443],[-73.7554461,45.3708479],[-73.7552608,45.3711415],[-73.7552158,45.3712075],[-73.7551754,45.3712641],[-73.7551161,45.3713394],[-73.7550503,45.3714203],[-73.754981,45.3715036],[-73.7549313,45.3715562],[-73.7548916,45.3715951],[-73.7548558,45.3716329],[-73.75482,45.371667],[-73.7547572,45.3717265],[-73.754708,45.3717682],[-73.7546569,45.371813],[-73.754597,45.3718678],[-73.7545355,45.3719235],[-73.7544586,45.3719968],[-73.7544003,45.3720607],[-73.7543339,45.3721397],[-73.7543009,45.3721858],[-73.754269,45.3722329],[-73.7542377,45.372291],[-73.75422,45.3723243]]}";1;Boulevard D'Youville;2;40;false;false;false;false;false;false;455.0;0;0;0;0;0;false;78185;6190671745;-73.756124;45.368501;78246;6190671698;-73.754746;45.365633;2;38;39;9417440;Bus 25 : Direction Châteauguay;"";EXO;25 O;Terminus Angrignon;boul. Deguire / rue Principale
789696687;"{\"type\":\"LineString\",\"coordinates\":[[-73.755623,45.3669633],[-73.7556506,45.3670218],[-73.7557553,45.3672101],[-73.755894,45.3674593],[-73.7559353,45.3675382],[-73.7559533,45.3675844],[-73.7559767,45.36765],[-73.7560043,45.3677354],[-73.7560323,45.3678313],[-73.7560391,45.3678547],[-73.7560621,45.3679727],[-73.7560745,45.3680673],[-73.7560996,45.3682673],[-73.7561061,45.3683333],[-73.7561072,45.3683446],[-73.7561184,45.3684584],[-73.7561248,45.3685546]]}";2;Boulevard D'Youville;2;40;false;false;false;false;false;false;183.0;0;0;0;0;0;false;78185;6190671745;-73.756124;45.368501;78246;6190671698;-73.754746;45.365633;0;38;39;9417440;Bus 25 : Direction Châteauguay;"";EXO;25 O;Terminus Angrignon;boul. Deguire / rue Principale
177386525;"{\"type\":\"LineString\",\"coordinates\":[[-73.7547165,45.3656002],[-73.7548846,45.3657126],[-73.7549677,45.3657754],[-73.7550561,45.3658486],[-73.7551205,45.3659038],[-73.7551725,45.3659576],[-73.7552564,45.3660581],[-73.7553057,45.3661254],[-73.7553376,45.36618],[-73.7553804,45.3662505],[-73.7554142,45.3663241],[-73.7554496,45.3664208],[-73.7554691,45.3664918],[-73.755497,45.366592],[-73.7555349,45.3667211],[-73.7555593,45.3668024],[-73.7555777,45.3668555],[-73.7556058,45.3669241],[-73.7556141,45.3669445],[-73.755623,45.3669633]]}";3;Boulevard D'Youville;2;30;false;false;true;false;false;false;172.0;0;2;1;0;0;false;78185;6190671745;-73.756124;45.368501;78246;6190671698;-73.754746;45.365633;2;38;39;9417440;Bus 25 : Direction Châteauguay;"";EXO;25 O;Terminus Angrignon;boul. Deguire / rue Principale
14896265;"{\"type\":\"LineString\",\"coordinates\":[[-73.756764,45.3650554],[-73.7567943,45.3650979],[-73.7568942,45.3652978],[-73.7570656,45.3656286],[-73.7570994,45.3656867],[-73.7571159,45.3657091],[-73.757134,45.3657228],[-73.7571486,45.3657322],[-73.7571742,45.3657411],[-73.7571968,45.3657437],[-73.7572146,45.3657429],[-73.7572369,45.3657408],[-73.7572713,45.3657352],[-73.7573293,45.3657231],[-73.757412,45.3657038],[-73.7575002,45.3656802],[-73.7575828,45.365661]]}";1;Rue Letendre;2;30;false;false;false;false;false;false;118.0;0;0;0;0;0;false;78879;6190668835;-73.756719;45.365093;78197;6190671738;-73.758676;45.365423;2;40;41;9417440;Bus 25 : Direction Châteauguay;"";EXO;25 O;Terminus Angrignon;boul. Deguire / rue Principale
785190411;"{\"type\":\"LineString\",\"coordinates\":[[-73.7575828,45.365661],[-73.7577079,45.3656292],[-73.7577278,45.3656241],[-73.7581185,45.3655256],[-73.758606,45.3654027],[-73.7587037,45.3653786],[-73.7588199,45.3653494],[-73.7592837,45.3652311],[-73.7593878,45.3652055]]}";2;Rue Letendre;2;40;false;false;true;false;false;false;151.0;0;1;2;0;0;false;78879;6190668835;-73.756719;45.365093;78197;6190671738;-73.758676;45.365423;2;40;41;9417440;Bus 25 : Direction Châteauguay;"";EXO;25 O;Terminus Angrignon;boul. Deguire / rue Principale
785190411;"{\"type\":\"LineString\",\"coordinates\":[[-73.7575828,45.365661],[-73.7577079,45.3656292],[-73.7577278,45.3656241],[-73.7581185,45.3655256],[-73.758606,45.3654027],[-73.7587037,45.3653786],[-73.7588199,45.3653494],[-73.7592837,45.3652311],[-73.7593878,45.3652055]]}";1;Rue Letendre;2;40;false;false;true;false;false;false;75.5;0;1;2;0;0;false;78197;6190671738;-73.758676;45.365423;78199;6190671736;-73.759377;45.365192;1;41;42;9417440;Bus 25 : Direction Châteauguay;"";EXO;25 O;Terminus Angrignon;boul. Deguire / rue Principale
789064818;"{\"type\":\"LineString\",\"coordinates\":[[-73.7566716,45.3582709],[-73.7567018,45.3583346],[-73.7567145,45.3583637],[-73.7567636,45.3584625],[-73.756792,45.3585199],[-73.7568998,45.3587369],[-73.7569184,45.3587745],[-73.7569801,45.3589112],[-73.757017,45.3589962],[-73.7570486,45.3590785],[-73.7571382,45.3593206],[-73.7571682,45.3594133],[-73.7572025,45.3595081],[-73.7572225,45.3595644],[-73.7572692,45.3597031],[-73.7572817,45.3597403],[-73.7573056,45.3598109],[-73.7573992,45.3600561],[-73.7574321,45.3601358],[-73.7574645,45.3602148],[-73.7577301,45.3608657],[-73.7577641,45.3609496],[-73.7577931,45.3610249],[-73.7579179,45.3613355],[-73.7580481,45.3616754],[-73.7582859,45.3623005],[-73.7583189,45.3623865],[-73.7583423,45.362455],[-73.7584333,45.3627095],[-73.7585016,45.3628976],[-73.7585335,45.3629842],[-73.758552,45.363036],[-73.7587053,45.3634394],[-73.7587767,45.3636294],[-73.7588069,45.3637078],[-73.7588275,45.36376],[-73.7589535,45.3640887],[-73.7591232,45.364532],[-73.7592824,45.3649444],[-73.7593569,45.3651366],[-73.7593878,45.3652055]]}";2;Boulevard Deguire;2;50;false;false;true;false;false;false;400.0;1;1;5;0;0;false;78197;6190671738;-73.758676;45.365423;78199;6190671736;-73.759377;45.365192;1;41;42;9417440;Bus 25 : Direction Châteauguay;"";EXO;25 O;Terminus Angrignon;boul. Deguire / rue Principale
785190411;"{\"type\":\"LineString\",\"coordinates\":[[-73.7575828,45.365661],[-73.7577079,45.3656292],[-73.7577278,45.3656241],[-73.7581185,45.3655256],[-73.758606,45.3654027],[-73.7587037,45.3653786],[-73.7588199,45.3653494],[-73.7592837,45.3652311],[-73.7593878,45.3652055]]}";1;Rue Letendre;2;40;false;false;true;false;false;false;151.0;0;1;2;0;0;false;78199;6190671736;-73.759377;45.365192;78201;6190671735;-73.758379;45.362454;2;42;43;9417440;Bus 25 : Direction Châteauguay;"";EXO;25 O;Terminus Angrignon;boul. Deguire / rue Principale
789064818;"{\"type\":\"LineString\",\"coordinates\":[[-73.7566716,45.3582709],[-73.7567018,45.3583346],[-73.7567145,45.3583637],[-73.7567636,45.3584625],[-73.756792,45.3585199],[-73.7568998,45.3587369],[-73.7569184,45.3587745],[-73.7569801,45.3589112],[-73.757017,45.3589962],[-73.7570486,45.3590785],[-73.7571382,45.3593206],[-73.7571682,45.3594133],[-73.7572025,45.3595081],[-73.7572225,45.3595644],[-73.7572692,45.3597031],[-73.7572817,45.3597403],[-73.7573056,45.3598109],[-73.7573992,45.3600561],[-73.7574321,45.3601358],[-73.7574645,45.3602148],[-73.7577301,45.3608657],[-73.7577641,45.3609496],[-73.7577931,45.3610249],[-73.7579179,45.3613355],[-73.7580481,45.3616754],[-73.7582859,45.3623005],[-73.7583189,45.3623865],[-73.7583423,45.362455],[-73.7584333,45.3627095],[-73.7585016,45.3628976],[-73.7585335,45.3629842],[-73.758552,45.363036],[-73.7587053,45.3634394],[-73.7587767,45.3636294],[-73.7588069,45.3637078],[-73.7588275,45.36376],[-73.7589535,45.3640887],[-73.7591232,45.364532],[-73.7592824,45.3649444],[-73.7593569,45.3651366],[-73.7593878,45.3652055]]}";2;Boulevard Deguire;2;50;false;false;true;false;false;false;800.0;1;1;5;0;0;false;78199;6190671736;-73.759377;45.365192;78201;6190671735;-73.758379;45.362454;2;42;43;9417440;Bus 25 : Direction Châteauguay;"";EXO;25 O;Terminus Angrignon;boul. Deguire / rue Principale
