way_id;shape;index;name;nb_lanes;legal_speed;speed_zone_30;oneway;shares_bike;bike_box;bus_lane;dedicated_bus_lane;length;nb_traffic_signals;nb_crossings;nb_stops;nb_give_ways;nb_lvl_crossings;roundabout;stop_id_orig;node_id_orig;coord_x_orig;coord_y_orig;stop_id_dest;node_id_dest;coord_x_dest;coord_y_dest;nb_neighbouring_ways_bus_stop;ordre_orig;ordre_dest;id_line;line_name;colour;operator;ref;from;to
205572168;"{\"type\":\"LineString\",\"coordinates\":[[-73.6219546,45.4393031],[-73.6217934,45.4392292],[-73.6215885,45.4391352],[-73.6214175,45.4390596],[-73.62119,45.4389589],[-73.6201038,45.4384785],[-73.6186406,45.4377948],[-73.6178384,45.4374424],[-73.6175137,45.4373085],[-73.61728,45.4372121],[-73.6171159,45.4371836],[-73.6164842,45.4370738],[-73.6155621,45.4369278],[-73.6146473,45.4367775],[-73.6146083,45.4367729],[-73.6136671,45.4366284],[-73.6132092,45.4365513],[-73.6130322,45.4365215],[-73.6129234,45.4365032],[-73.6122771,45.4363913],[-73.6121692,45.4363716],[-73.6118823,45.4363193],[-73.60949,45.4358829],[-73.6089592,45.4357938],[-73.6081026,45.4356501],[-73.6074334,45.4355465],[-73.6061433,45.4353283],[-73.6055066,45.4352151],[-73.6050147,45.4351277],[-73.6048773,45.4350986]]}";1;Rue Lapierre;1;50;false;false;true;false;false;false;1431.0;0;0;0;0;0;false;79118;6133058352;-73.605053;45.435064;79050;6133058712;-73.604887;45.446031;1;0;1;9360794;Bus 111 : Direction Sainte-Martine;"";EXO;111 O;rue Lapierre / face au Cegep André-Laurendeau;Ste-Martine (route 138 / chemin de la Rivière des
451912082;"{\"type\":\"LineString\",\"coordinates\":[[-73.6219546,45.4393031],[-73.6220299,45.4394487],[-73.6220357,45.4395171]]}";2;"";1;50;false;true;true;false;false;false;25.0;0;0;0;0;0;false;79118;6133058352;-73.605053;45.435064;79050;6133058712;-73.604887;45.446031;0;0;1;9360794;Bus 111 : Direction Sainte-Martine;"";EXO;111 O;rue Lapierre / face au Cegep André-Laurendeau;Ste-Martine (route 138 / chemin de la Rivière des
451911443;"{\"type\":\"LineString\",\"coordinates\":[[-73.6220357,45.4395171],[-73.6217961,45.4397024],[-73.6215201,45.4398581],[-73.6207891,45.4402705],[-73.6201158,45.4406503]]}";3;Boulevard Newman;2;50;false;true;true;false;false;false;197.0;1;0;0;0;0;false;79118;6133058352;-73.605053;45.435064;79050;6133058712;-73.604887;45.446031;0;0;1;9360794;Bus 111 : Direction Sainte-Martine;"";EXO;111 O;rue Lapierre / face au Cegep André-Laurendeau;Ste-Martine (route 138 / chemin de la Rivière des
451919502;"{\"type\":\"LineString\",\"coordinates\":[[-73.6201158,45.4406503],[-73.6189511,45.4413215],[-73.6188492,45.4413802]]}";4;Boulevard Newman;2;50;false;true;true;false;false;false;128.0;2;0;0;0;0;false;79118;6133058352;-73.605053;45.435064;79050;6133058712;-73.604887;45.446031;0;0;1;9360794;Bus 111 : Direction Sainte-Martine;"";EXO;111 O;rue Lapierre / face au Cegep André-Laurendeau;Ste-Martine (route 138 / chemin de la Rivière des
451915381;"{\"type\":\"LineString\",\"coordinates\":[[-73.6188492,45.4413802],[-73.6184953,45.4415579]]}";5;Boulevard Newman;2;50;false;true;true;false;false;false;34.0;1;0;0;0;0;false;79118;6133058352;-73.605053;45.435064;79050;6133058712;-73.604887;45.446031;0;0;1;9360794;Bus 111 : Direction Sainte-Martine;"";EXO;111 O;rue Lapierre / face au Cegep André-Laurendeau;Ste-Martine (route 138 / chemin de la Rivière des
474611999;"{\"type\":\"LineString\",\"coordinates\":[[-73.6184953,45.4415579],[-73.6181417,45.441753]]}";6;Boulevard Newman;2;50;false;true;true;false;false;false;36.0;0;0;0;0;0;false;79118;6133058352;-73.605053;45.435064;79050;6133058712;-73.604887;45.446031;0;0;1;9360794;Bus 111 : Direction Sainte-Martine;"";EXO;111 O;rue Lapierre / face au Cegep André-Laurendeau;Ste-Martine (route 138 / chemin de la Rivière des
47919212;"{\"type\":\"LineString\",\"coordinates\":[[-73.6181417,45.441753],[-73.6181157,45.441764],[-73.616929,45.4424374]]}";7;Boulevard Newman;2;50;false;true;true;false;false;false;122.0;1;0;0;0;0;false;79118;6133058352;-73.605053;45.435064;79050;6133058712;-73.604887;45.446031;0;0;1;9360794;Bus 111 : Direction Sainte-Martine;"";EXO;111 O;rue Lapierre / face au Cegep André-Laurendeau;Ste-Martine (route 138 / chemin de la Rivière des
474611754;"{\"type\":\"LineString\",\"coordinates\":[[-73.616929,45.4424374],[-73.6162807,45.442805]]}";8;Boulevard Newman;2;50;false;true;true;false;false;false;66.0;1;0;0;0;0;false;79118;6133058352;-73.605053;45.435064;79050;6133058712;-73.604887;45.446031;0;0;1;9360794;Bus 111 : Direction Sainte-Martine;"";EXO;111 O;rue Lapierre / face au Cegep André-Laurendeau;Ste-Martine (route 138 / chemin de la Rivière des
451921073;"{\"type\":\"LineString\",\"coordinates\":[[-73.6162807,45.442805],[-73.6155407,45.4432328],[-73.6150091,45.4435611],[-73.6148294,45.4436721],[-73.6143092,45.4440406],[-73.614192,45.4441237]]}";9;Boulevard Newman;2;50;false;true;true;false;false;false;220.0;1;0;0;0;0;false;79118;6133058352;-73.605053;45.435064;79050;6133058712;-73.604887;45.446031;0;0;1;9360794;Bus 111 : Direction Sainte-Martine;"";EXO;111 O;rue Lapierre / face au Cegep André-Laurendeau;Ste-Martine (route 138 / chemin de la Rivière des
452083149;"{\"type\":\"LineString\",\"coordinates\":[[-73.614192,45.4441237],[-73.6140723,45.4442118],[-73.6139105,45.4443308]]}";10;Boulevard Newman;2;50;false;true;true;false;false;false;32.0;1;1;0;0;0;false;79118;6133058352;-73.605053;45.435064;79050;6133058712;-73.604887;45.446031;0;0;1;9360794;Bus 111 : Direction Sainte-Martine;"";EXO;111 O;rue Lapierre / face au Cegep André-Laurendeau;Ste-Martine (route 138 / chemin de la Rivière des
48421822;"{\"type\":\"LineString\",\"coordinates\":[[-73.6139105,45.4443308],[-73.6121161,45.4457914],[-73.6120452,45.4458491],[-73.6119053,45.4459509],[-73.6100401,45.4474404]]}";11;Boulevard Newman;2;50;false;true;true;false;false;false;460.0;2;0;0;0;0;false;79118;6133058352;-73.605053;45.435064;79050;6133058712;-73.604887;45.446031;0;0;1;9360794;Bus 111 : Direction Sainte-Martine;"";EXO;111 O;rue Lapierre / face au Cegep André-Laurendeau;Ste-Martine (route 138 / chemin de la Rivière des
48421823;"{\"type\":\"LineString\",\"coordinates\":[[-73.6100401,45.4474404],[-73.6097951,45.4475011],[-73.6096536,45.4475354],[-73.6095051,45.4475336],[-73.6094491,45.4475329],[-73.6092461,45.4474675]]}";12;"";1;50;false;true;true;false;false;false;66.0;0;1;0;0;0;false;79118;6133058352;-73.605053;45.435064;79050;6133058712;-73.604887;45.446031;0;0;1;9360794;Bus 111 : Direction Sainte-Martine;"";EXO;111 O;rue Lapierre / face au Cegep André-Laurendeau;Ste-Martine (route 138 / chemin de la Rivière des
48422487;"{\"type\":\"LineString\",\"coordinates\":[[-73.6092461,45.4474675],[-73.6086772,45.4471995],[-73.6084232,45.4471241],[-73.6082155,45.4470716],[-73.6079899,45.4470352],[-73.6077512,45.4470107],[-73.6074132,45.4469994],[-73.6064181,45.4470371],[-73.6062518,45.4470427],[-73.6059407,45.4470615]]}";13;Boulevard Angrignon;2;50;false;true;true;false;false;false;272.0;0;0;0;0;0;false;79118;6133058352;-73.605053;45.435064;79050;6133058712;-73.604887;45.446031;0;0;1;9360794;Bus 111 : Direction Sainte-Martine;"";EXO;111 O;rue Lapierre / face au Cegep André-Laurendeau;Ste-Martine (route 138 / chemin de la Rivière des
453684373;"{\"type\":\"LineString\",\"coordinates\":[[-73.6059407,45.4470615],[-73.6054606,45.4471105],[-73.6052326,45.4471255],[-73.6049617,45.4471142]]}";14;Boulevard Angrignon;2;50;false;true;true;false;false;false;78.0;0;0;0;0;0;false;79118;6133058352;-73.605053;45.435064;79050;6133058712;-73.604887;45.446031;0;0;1;9360794;Bus 111 : Direction Sainte-Martine;"";EXO;111 O;rue Lapierre / face au Cegep André-Laurendeau;Ste-Martine (route 138 / chemin de la Rivière des
95223743;"{\"type\":\"LineString\",\"coordinates\":[[-73.6049617,45.4471142],[-73.6049128,45.4470551],[-73.6048528,45.4469826],[-73.6048528,45.4469187],[-73.6048551,45.4468838]]}";15;"";1;50;false;true;true;false;false;false;28.0;0;1;0;0;0;false;79118;6133058352;-73.605053;45.435064;79050;6133058712;-73.604887;45.446031;0;0;1;9360794;Bus 111 : Direction Sainte-Martine;"";EXO;111 O;rue Lapierre / face au Cegep André-Laurendeau;Ste-Martine (route 138 / chemin de la Rivière des
95223751;"{\"type\":\"LineString\",\"coordinates\":[[-73.6048551,45.4468838],[-73.6048618,45.4468414],[-73.6048479,45.4468084],[-73.6048201,45.4467749],[-73.6047148,45.4466934],[-73.6044861,45.4465021]]}";16;"";1;50;false;false;true;false;false;false;53.0;0;0;0;0;0;false;79118;6133058352;-73.605053;45.435064;79050;6133058712;-73.604887;45.446031;0;0;1;9360794;Bus 111 : Direction Sainte-Martine;"";EXO;111 O;rue Lapierre / face au Cegep André-Laurendeau;Ste-Martine (route 138 / chemin de la Rivière des
95223773;"{\"type\":\"LineString\",\"coordinates\":[[-73.6048982,45.4461397],[-73.6047641,45.446023],[-73.604713,45.4460061],[-73.6046676,45.4460079],[-73.6046185,45.4460181],[-73.6045657,45.4460418],[-73.6042813,45.4462225],[-73.604259,45.4462484],[-73.6042492,45.4462751],[-73.6042505,45.4463058],[-73.6042713,45.4463356],[-73.6044861,45.4465021]]}";17;"";1;50;false;true;true;false;false;false;51.0;0;0;0;0;0;false;79118;6133058352;-73.605053;45.435064;79050;6133058712;-73.604887;45.446031;1;0;1;9360794;Bus 111 : Direction Sainte-Martine;"";EXO;111 O;rue Lapierre / face au Cegep André-Laurendeau;Ste-Martine (route 138 / chemin de la Rivière des
666126652;"{\"type\":\"LineString\",\"coordinates\":[[-73.6044861,45.4465021],[-73.6045483,45.4464154],[-73.6046588,45.4463452],[-73.6047923,45.4462689],[-73.6048822,45.4462112],[-73.6049058,45.446179],[-73.6048982,45.4461397]]}";1;"";1;50;false;true;true;false;false;false;54.0;0;0;0;0;0;false;79050;6133058712;-73.604887;45.446031;79075;6133058692;-73.611992;45.446121;2;1;2;9360794;Bus 111 : Direction Sainte-Martine;"";EXO;111 O;rue Lapierre / face au Cegep André-Laurendeau;Ste-Martine (route 138 / chemin de la Rivière des
95223751;"{\"type\":\"LineString\",\"coordinates\":[[-73.6048551,45.4468838],[-73.6048618,45.4468414],[-73.6048479,45.4468084],[-73.6048201,45.4467749],[-73.6047148,45.4466934],[-73.6044861,45.4465021]]}";2;"";1;50;false;false;true;false;false;false;53.0;0;0;0;0;0;false;79050;6133058712;-73.604887;45.446031;79075;6133058692;-73.611992;45.446121;0;1;2;9360794;Bus 111 : Direction Sainte-Martine;"";EXO;111 O;rue Lapierre / face au Cegep André-Laurendeau;Ste-Martine (route 138 / chemin de la Rivière des
95223743;"{\"type\":\"LineString\",\"coordinates\":[[-73.6049617,45.4471142],[-73.6049128,45.4470551],[-73.6048528,45.4469826],[-73.6048528,45.4469187],[-73.6048551,45.4468838]]}";3;"";1;50;false;true;true;false;false;false;28.0;0;1;0;0;0;false;79050;6133058712;-73.604887;45.446031;79075;6133058692;-73.611992;45.446121;0;1;2;9360794;Bus 111 : Direction Sainte-Martine;"";EXO;111 O;rue Lapierre / face au Cegep André-Laurendeau;Ste-Martine (route 138 / chemin de la Rivière des
95223758;"{\"type\":\"LineString\",\"coordinates\":[[-73.6045251,45.4469498],[-73.6046816,45.4468988],[-73.6047117,45.44688],[-73.6047435,45.4468706],[-73.6047709,45.4468683],[-73.6048551,45.4468838]]}";4;"";1;50;false;false;true;false;false;false;29.0;0;0;0;0;0;false;79050;6133058712;-73.604887;45.446031;79075;6133058692;-73.611992;45.446121;0;1;2;9360794;Bus 111 : Direction Sainte-Martine;"";EXO;111 O;rue Lapierre / face au Cegep André-Laurendeau;Ste-Martine (route 138 / chemin de la Rivière des
453684367;"{\"type\":\"LineString\",\"coordinates\":[[-73.6044858,45.4470492],[-73.604502,45.4470082],[-73.6045251,45.4469498]]}";5;"";1;50;false;false;true;false;false;false;12.0;0;1;0;0;0;false;79050;6133058712;-73.604887;45.446031;79075;6133058692;-73.611992;45.446121;0;1;2;9360794;Bus 111 : Direction Sainte-Martine;"";EXO;111 O;rue Lapierre / face au Cegep André-Laurendeau;Ste-Martine (route 138 / chemin de la Rivière des
453684369;"{\"type\":\"LineString\",\"coordinates\":[[-73.6044485,45.4471798],[-73.6044858,45.4470492]]}";6;Avenue Irwin;1;50;false;false;true;false;false;false;15.0;0;0;0;0;0;false;79050;6133058712;-73.604887;45.446031;79075;6133058692;-73.611992;45.446121;0;1;2;9360794;Bus 111 : Direction Sainte-Martine;"";EXO;111 O;rue Lapierre / face au Cegep André-Laurendeau;Ste-Martine (route 138 / chemin de la Rivière des
453684374;"{\"type\":\"LineString\",\"coordinates\":[[-73.6044485,45.4471798],[-73.6045924,45.4472009],[-73.6049,45.4472459]]}";7;Boulevard Angrignon;2;50;false;true;true;false;false;false;37.0;0;1;0;0;0;false;79050;6133058712;-73.604887;45.446031;79075;6133058692;-73.611992;45.446121;0;1;2;9360794;Bus 111 : Direction Sainte-Martine;"";EXO;111 O;rue Lapierre / face au Cegep André-Laurendeau;Ste-Martine (route 138 / chemin de la Rivière des
48422488;"{\"type\":\"LineString\",\"coordinates\":[[-73.6049,45.4472459],[-73.605195,45.4472403],[-73.6059755,45.4471688],[-73.6071232,45.4471161],[-73.6075773,45.4471227],[-73.6077628,45.4471398],[-73.6081153,45.447197],[-73.6083563,45.4472496],[-73.6085426,45.4473127],[-73.60904,45.4475279]]}";8;Boulevard Angrignon;2;50;false;true;true;false;false;false;335.0;0;0;0;0;0;false;79050;6133058712;-73.604887;45.446031;79075;6133058692;-73.611992;45.446121;0;1;2;9360794;Bus 111 : Direction Sainte-Martine;"";EXO;111 O;rue Lapierre / face au Cegep André-Laurendeau;Ste-Martine (route 138 / chemin de la Rivière des
48421819;"{\"type\":\"LineString\",\"coordinates\":[[-73.60904,45.4475279],[-73.6094694,45.4477276],[-73.6096053,45.4477908]]}";9;Boulevard Angrignon;2;50;false;true;true;false;false;false;53.0;1;1;0;0;0;false;79050;6133058712;-73.604887;45.446031;79075;6133058692;-73.611992;45.446121;0;1;2;9360794;Bus 111 : Direction Sainte-Martine;"";EXO;111 O;rue Lapierre / face au Cegep André-Laurendeau;Ste-Martine (route 138 / chemin de la Rivière des
48421830;"{\"type\":\"LineString\",\"coordinates\":[[-73.6096053,45.4477908],[-73.6097401,45.447852]]}";10;Boulevard Angrignon;2;50;false;true;true;false;false;false;13.0;2;0;0;0;0;false;79050;6133058712;-73.604887;45.446031;79075;6133058692;-73.611992;45.446121;0;1;2;9360794;Bus 111 : Direction Sainte-Martine;"";EXO;111 O;rue Lapierre / face au Cegep André-Laurendeau;Ste-Martine (route 138 / chemin de la Rivière des
48421831;"{\"type\":\"LineString\",\"coordinates\":[[-73.6097401,45.447852],[-73.609856,45.4477474]]}";11;Boulevard Newman;2;50;false;true;true;false;false;false;15.0;2;0;0;0;0;false;79050;6133058712;-73.604887;45.446031;79075;6133058692;-73.611992;45.446121;0;1;2;9360794;Bus 111 : Direction Sainte-Martine;"";EXO;111 O;rue Lapierre / face au Cegep André-Laurendeau;Ste-Martine (route 138 / chemin de la Rivière des
452083388;"{\"type\":\"LineString\",\"coordinates\":[[-73.609856,45.4477474],[-73.609897,45.4477113],[-73.6102145,45.4474316]]}";12;Boulevard Newman;4;50;false;true;true;false;false;false;45.0;1;1;0;0;0;false;79050;6133058712;-73.604887;45.446031;79075;6133058692;-73.611992;45.446121;0;1;2;9360794;Bus 111 : Direction Sainte-Martine;"";EXO;111 O;rue Lapierre / face au Cegep André-Laurendeau;Ste-Martine (route 138 / chemin de la Rivière des
164759173;"{\"type\":\"LineString\",\"coordinates\":[[-73.6102145,45.4474316],[-73.6103195,45.4473487],[-73.6108105,45.4469604],[-73.6119363,45.44607],[-73.6120419,45.4459864],[-73.6121228,45.4459272],[-73.6133122,45.444979],[-73.6141426,45.444332],[-73.6141914,45.4442959],[-73.6143457,45.4441958]]}";13;Boulevard Newman;4;50;false;true;true;false;false;false;484.0;3;1;0;0;0;false;79050;6133058712;-73.604887;45.446031;79075;6133058692;-73.611992;45.446121;2;1;2;9360794;Bus 111 : Direction Sainte-Martine;"";EXO;111 O;rue Lapierre / face au Cegep André-Laurendeau;Ste-Martine (route 138 / chemin de la Rivière des
48421822;"{\"type\":\"LineString\",\"coordinates\":[[-73.6139105,45.4443308],[-73.6121161,45.4457914],[-73.6120452,45.4458491],[-73.6119053,45.4459509],[-73.6100401,45.4474404]]}";1;Boulevard Newman;2;50;false;true;true;false;false;false;460.0;2;0;0;0;0;false;79075;6133058692;-73.611992;45.446121;79033;6133058726;-73.61435;45.444298;2;2;3;9360794;Bus 111 : Direction Sainte-Martine;"";EXO;111 O;rue Lapierre / face au Cegep André-Laurendeau;Ste-Martine (route 138 / chemin de la Rivière des
48421823;"{\"type\":\"LineString\",\"coordinates\":[[-73.6100401,45.4474404],[-73.6097951,45.4475011],[-73.6096536,45.4475354],[-73.6095051,45.4475336],[-73.6094491,45.4475329],[-73.6092461,45.4474675]]}";2;"";1;50;false;true;true;false;false;false;66.0;0;1;0;0;0;false;79075;6133058692;-73.611992;45.446121;79033;6133058726;-73.61435;45.444298;0;2;3;9360794;Bus 111 : Direction Sainte-Martine;"";EXO;111 O;rue Lapierre / face au Cegep André-Laurendeau;Ste-Martine (route 138 / chemin de la Rivière des
48422487;"{\"type\":\"LineString\",\"coordinates\":[[-73.6092461,45.4474675],[-73.6086772,45.4471995],[-73.6084232,45.4471241],[-73.6082155,45.4470716],[-73.6079899,45.4470352],[-73.6077512,45.4470107],[-73.6074132,45.4469994],[-73.6064181,45.4470371],[-73.6062518,45.4470427],[-73.6059407,45.4470615]]}";3;Boulevard Angrignon;2;50;false;true;true;false;false;false;272.0;0;0;0;0;0;false;79075;6133058692;-73.611992;45.446121;79033;6133058726;-73.61435;45.444298;0;2;3;9360794;Bus 111 : Direction Sainte-Martine;"";EXO;111 O;rue Lapierre / face au Cegep André-Laurendeau;Ste-Martine (route 138 / chemin de la Rivière des
453684373;"{\"type\":\"LineString\",\"coordinates\":[[-73.6059407,45.4470615],[-73.6054606,45.4471105],[-73.6052326,45.4471255],[-73.6049617,45.4471142]]}";4;Boulevard Angrignon;2;50;false;true;true;false;false;false;78.0;0;0;0;0;0;false;79075;6133058692;-73.611992;45.446121;79033;6133058726;-73.61435;45.444298;0;2;3;9360794;Bus 111 : Direction Sainte-Martine;"";EXO;111 O;rue Lapierre / face au Cegep André-Laurendeau;Ste-Martine (route 138 / chemin de la Rivière des
95223743;"{\"type\":\"LineString\",\"coordinates\":[[-73.6049617,45.4471142],[-73.6049128,45.4470551],[-73.6048528,45.4469826],[-73.6048528,45.4469187],[-73.6048551,45.4468838]]}";5;"";1;50;false;true;true;false;false;false;28.0;0;1;0;0;0;false;79075;6133058692;-73.611992;45.446121;79033;6133058726;-73.61435;45.444298;0;2;3;9360794;Bus 111 : Direction Sainte-Martine;"";EXO;111 O;rue Lapierre / face au Cegep André-Laurendeau;Ste-Martine (route 138 / chemin de la Rivière des
95223758;"{\"type\":\"LineString\",\"coordinates\":[[-73.6045251,45.4469498],[-73.6046816,45.4468988],[-73.6047117,45.44688],[-73.6047435,45.4468706],[-73.6047709,45.4468683],[-73.6048551,45.4468838]]}";6;"";1;50;false;false;true;false;false;false;29.0;0;0;0;0;0;false;79075;6133058692;-73.611992;45.446121;79033;6133058726;-73.61435;45.444298;0;2;3;9360794;Bus 111 : Direction Sainte-Martine;"";EXO;111 O;rue Lapierre / face au Cegep André-Laurendeau;Ste-Martine (route 138 / chemin de la Rivière des
453684367;"{\"type\":\"LineString\",\"coordinates\":[[-73.6044858,45.4470492],[-73.604502,45.4470082],[-73.6045251,45.4469498]]}";7;"";1;50;false;false;true;false;false;false;12.0;0;1;0;0;0;false;79075;6133058692;-73.611992;45.446121;79033;6133058726;-73.61435;45.444298;0;2;3;9360794;Bus 111 : Direction Sainte-Martine;"";EXO;111 O;rue Lapierre / face au Cegep André-Laurendeau;Ste-Martine (route 138 / chemin de la Rivière des
453684369;"{\"type\":\"LineString\",\"coordinates\":[[-73.6044485,45.4471798],[-73.6044858,45.4470492]]}";8;Avenue Irwin;1;50;false;false;true;false;false;false;15.0;0;0;0;0;0;false;79075;6133058692;-73.611992;45.446121;79033;6133058726;-73.61435;45.444298;0;2;3;9360794;Bus 111 : Direction Sainte-Martine;"";EXO;111 O;rue Lapierre / face au Cegep André-Laurendeau;Ste-Martine (route 138 / chemin de la Rivière des
453684374;"{\"type\":\"LineString\",\"coordinates\":[[-73.6044485,45.4471798],[-73.6045924,45.4472009],[-73.6049,45.4472459]]}";9;Boulevard Angrignon;2;50;false;true;true;false;false;false;37.0;0;1;0;0;0;false;79075;6133058692;-73.611992;45.446121;79033;6133058726;-73.61435;45.444298;0;2;3;9360794;Bus 111 : Direction Sainte-Martine;"";EXO;111 O;rue Lapierre / face au Cegep André-Laurendeau;Ste-Martine (route 138 / chemin de la Rivière des
48422488;"{\"type\":\"LineString\",\"coordinates\":[[-73.6049,45.4472459],[-73.605195,45.4472403],[-73.6059755,45.4471688],[-73.6071232,45.4471161],[-73.6075773,45.4471227],[-73.6077628,45.4471398],[-73.6081153,45.447197],[-73.6083563,45.4472496],[-73.6085426,45.4473127],[-73.60904,45.4475279]]}";10;Boulevard Angrignon;2;50;false;true;true;false;false;false;335.0;0;0;0;0;0;false;79075;6133058692;-73.611992;45.446121;79033;6133058726;-73.61435;45.444298;0;2;3;9360794;Bus 111 : Direction Sainte-Martine;"";EXO;111 O;rue Lapierre / face au Cegep André-Laurendeau;Ste-Martine (route 138 / chemin de la Rivière des
48421819;"{\"type\":\"LineString\",\"coordinates\":[[-73.60904,45.4475279],[-73.6094694,45.4477276],[-73.6096053,45.4477908]]}";11;Boulevard Angrignon;2;50;false;true;true;false;false;false;53.0;1;1;0;0;0;false;79075;6133058692;-73.611992;45.446121;79033;6133058726;-73.61435;45.444298;0;2;3;9360794;Bus 111 : Direction Sainte-Martine;"";EXO;111 O;rue Lapierre / face au Cegep André-Laurendeau;Ste-Martine (route 138 / chemin de la Rivière des
48421830;"{\"type\":\"LineString\",\"coordinates\":[[-73.6096053,45.4477908],[-73.6097401,45.447852]]}";12;Boulevard Angrignon;2;50;false;true;true;false;false;false;13.0;2;0;0;0;0;false;79075;6133058692;-73.611992;45.446121;79033;6133058726;-73.61435;45.444298;0;2;3;9360794;Bus 111 : Direction Sainte-Martine;"";EXO;111 O;rue Lapierre / face au Cegep André-Laurendeau;Ste-Martine (route 138 / chemin de la Rivière des
48421831;"{\"type\":\"LineString\",\"coordinates\":[[-73.6097401,45.447852],[-73.609856,45.4477474]]}";13;Boulevard Newman;2;50;false;true;true;false;false;false;15.0;2;0;0;0;0;false;79075;6133058692;-73.611992;45.446121;79033;6133058726;-73.61435;45.444298;0;2;3;9360794;Bus 111 : Direction Sainte-Martine;"";EXO;111 O;rue Lapierre / face au Cegep André-Laurendeau;Ste-Martine (route 138 / chemin de la Rivière des
452083388;"{\"type\":\"LineString\",\"coordinates\":[[-73.609856,45.4477474],[-73.609897,45.4477113],[-73.6102145,45.4474316]]}";14;Boulevard Newman;4;50;false;true;true;false;false;false;45.0;1;1;0;0;0;false;79075;6133058692;-73.611992;45.446121;79033;6133058726;-73.61435;45.444298;0;2;3;9360794;Bus 111 : Direction Sainte-Martine;"";EXO;111 O;rue Lapierre / face au Cegep André-Laurendeau;Ste-Martine (route 138 / chemin de la Rivière des
164759173;"{\"type\":\"LineString\",\"coordinates\":[[-73.6102145,45.4474316],[-73.6103195,45.4473487],[-73.6108105,45.4469604],[-73.6119363,45.44607],[-73.6120419,45.4459864],[-73.6121228,45.4459272],[-73.6133122,45.444979],[-73.6141426,45.444332],[-73.6141914,45.4442959],[-73.6143457,45.4441958]]}";15;Boulevard Newman;4;50;false;true;true;false;false;false;484.0;3;1;0;0;0;false;79075;6133058692;-73.611992;45.446121;79033;6133058726;-73.61435;45.444298;2;2;3;9360794;Bus 111 : Direction Sainte-Martine;"";EXO;111 O;rue Lapierre / face au Cegep André-Laurendeau;Ste-Martine (route 138 / chemin de la Rivière des
164759173;"{\"type\":\"LineString\",\"coordinates\":[[-73.6102145,45.4474316],[-73.6103195,45.4473487],[-73.6108105,45.4469604],[-73.6119363,45.44607],[-73.6120419,45.4459864],[-73.6121228,45.4459272],[-73.6133122,45.444979],[-73.6141426,45.444332],[-73.6141914,45.4442959],[-73.6143457,45.4441958]]}";1;Boulevard Newman;4;50;false;true;true;false;false;false;484.0;3;1;0;0;0;false;79033;6133058726;-73.61435;45.444298;79115;6133058355;-73.619624;45.441199;2;3;4;9360794;Bus 111 : Direction Sainte-Martine;"";EXO;111 O;rue Lapierre / face au Cegep André-Laurendeau;Ste-Martine (route 138 / chemin de la Rivière des
452083150;"{\"type\":\"LineString\",\"coordinates\":[[-73.6143457,45.4441958],[-73.6146378,45.4440045]]}";2;Boulevard Newman;4;50;false;true;true;false;false;false;32.0;1;0;0;0;0;false;79033;6133058726;-73.61435;45.444298;79115;6133058355;-73.619624;45.441199;0;3;4;9360794;Bus 111 : Direction Sainte-Martine;"";EXO;111 O;rue Lapierre / face au Cegep André-Laurendeau;Ste-Martine (route 138 / chemin de la Rivière des
452083151;"{\"type\":\"LineString\",\"coordinates\":[[-73.6146378,45.4440045],[-73.6152217,45.4436317],[-73.6156832,45.4433659],[-73.6157717,45.4433118],[-73.6164012,45.4429272],[-73.6169238,45.4426079]]}";3;Boulevard Newman;4;50;false;true;true;false;false;false;237.0;0;0;0;0;0;false;79033;6133058726;-73.61435;45.444298;79115;6133058355;-73.619624;45.441199;0;3;4;9360794;Bus 111 : Direction Sainte-Martine;"";EXO;111 O;rue Lapierre / face au Cegep André-Laurendeau;Ste-Martine (route 138 / chemin de la Rivière des
451921072;"{\"type\":\"LineString\",\"coordinates\":[[-73.6169238,45.4426079],[-73.6169976,45.4425628],[-73.617067,45.4425234]]}";4;Boulevard Newman;4;50;false;true;true;false;false;false;15.0;1;0;0;0;0;false;79033;6133058726;-73.61435;45.444298;79115;6133058355;-73.619624;45.441199;0;3;4;9360794;Bus 111 : Direction Sainte-Martine;"";EXO;111 O;rue Lapierre / face au Cegep André-Laurendeau;Ste-Martine (route 138 / chemin de la Rivière des
474611752;"{\"type\":\"LineString\",\"coordinates\":[[-73.617067,45.4425234],[-73.6172827,45.4423886],[-73.6174863,45.4422756]]}";5;Boulevard Newman;4;50;false;true;true;false;false;false;43.0;1;0;0;0;0;false;79033;6133058726;-73.61435;45.444298;79115;6133058355;-73.619624;45.441199;0;3;4;9360794;Bus 111 : Direction Sainte-Martine;"";EXO;111 O;rue Lapierre / face au Cegep André-Laurendeau;Ste-Martine (route 138 / chemin de la Rivière des
451921074;"{\"type\":\"LineString\",\"coordinates\":[[-73.6174863,45.4422756],[-73.6178819,45.4420562],[-73.6182692,45.4418413],[-73.6188681,45.4415136],[-73.6189965,45.4414433]]}";6;Boulevard Newman;4;50;false;true;true;false;false;false;150.0;1;0;0;0;0;false;79033;6133058726;-73.61435;45.444298;79115;6133058355;-73.619624;45.441199;0;3;4;9360794;Bus 111 : Direction Sainte-Martine;"";EXO;111 O;rue Lapierre / face au Cegep André-Laurendeau;Ste-Martine (route 138 / chemin de la Rivière des
451915378;"{\"type\":\"LineString\",\"coordinates\":[[-73.6189965,45.4414433],[-73.6193815,45.4412225]]}";7;Boulevard Newman;4;50;false;true;true;false;false;false;39.0;1;0;0;0;0;false;79033;6133058726;-73.61435;45.444298;79115;6133058355;-73.619624;45.441199;0;3;4;9360794;Bus 111 : Direction Sainte-Martine;"";EXO;111 O;rue Lapierre / face au Cegep André-Laurendeau;Ste-Martine (route 138 / chemin de la Rivière des
474608653;"{\"type\":\"LineString\",\"coordinates\":[[-73.6193815,45.4412225],[-73.6202355,45.4407491]]}";8;Boulevard Newman;4;50;false;true;true;false;false;false;85.0;1;0;0;0;0;false;79033;6133058726;-73.61435;45.444298;79115;6133058355;-73.619624;45.441199;2;3;4;9360794;Bus 111 : Direction Sainte-Martine;"";EXO;111 O;rue Lapierre / face au Cegep André-Laurendeau;Ste-Martine (route 138 / chemin de la Rivière des
474608653;"{\"type\":\"LineString\",\"coordinates\":[[-73.6193815,45.4412225],[-73.6202355,45.4407491]]}";1;Boulevard Newman;4;50;false;true;true;false;false;false;85.0;1;0;0;0;0;false;79115;6133058355;-73.619624;45.441199;79031;6133058728;-73.622731;45.439205;2;4;5;9360794;Bus 111 : Direction Sainte-Martine;"";EXO;111 O;rue Lapierre / face au Cegep André-Laurendeau;Ste-Martine (route 138 / chemin de la Rivière des
451915386;"{\"type\":\"LineString\",\"coordinates\":[[-73.6202355,45.4407491],[-73.6206368,45.4405217],[-73.6210471,45.4402903],[-73.6215578,45.4399919]]}";2;Boulevard Newman;4;50;false;true;true;false;false;false;134.0;1;0;0;0;0;false;79115;6133058355;-73.619624;45.441199;79031;6133058728;-73.622731;45.439205;0;4;5;9360794;Bus 111 : Direction Sainte-Martine;"";EXO;111 O;rue Lapierre / face au Cegep André-Laurendeau;Ste-Martine (route 138 / chemin de la Rivière des
474596231;"{\"type\":\"LineString\",\"coordinates\":[[-73.6215578,45.4399919],[-73.6218378,45.4398282],[-73.6221853,45.4395763],[-73.6223316,45.4394703]]}";3;Boulevard Newman;4;50;false;true;true;false;false;false;84.0;1;0;0;0;0;false;79115;6133058355;-73.619624;45.441199;79031;6133058728;-73.622731;45.439205;0;4;5;9360794;Bus 111 : Direction Sainte-Martine;"";EXO;111 O;rue Lapierre / face au Cegep André-Laurendeau;Ste-Martine (route 138 / chemin de la Rivière des
451911436;"{\"type\":\"LineString\",\"coordinates\":[[-73.6223316,45.4394703],[-73.6235227,45.4383628]]}";4;Boulevard Newman;4;50;false;true;true;false;false;false;155.0;1;0;0;0;0;false;79115;6133058355;-73.619624;45.441199;79031;6133058728;-73.622731;45.439205;2;4;5;9360794;Bus 111 : Direction Sainte-Martine;"";EXO;111 O;rue Lapierre / face au Cegep André-Laurendeau;Ste-Martine (route 138 / chemin de la Rivière des
451911436;"{\"type\":\"LineString\",\"coordinates\":[[-73.6223316,45.4394703],[-73.6235227,45.4383628]]}";1;Boulevard Newman;4;50;false;true;true;false;false;false;77.5;1;0;0;0;0;false;79031;6133058728;-73.622731;45.439205;79073;6133058693;-73.625932;45.436232;1;5;6;9360794;Bus 111 : Direction Sainte-Martine;"";EXO;111 O;rue Lapierre / face au Cegep André-Laurendeau;Ste-Martine (route 138 / chemin de la Rivière des
451911442;"{\"type\":\"LineString\",\"coordinates\":[[-73.6235227,45.4383628],[-73.623804,45.4381013],[-73.6245338,45.4374227],[-73.6251694,45.4368318]]}";2;Boulevard Newman;4;50;false;true;true;false;false;false;214.0;0;0;0;0;0;false;79031;6133058728;-73.622731;45.439205;79073;6133058693;-73.625932;45.436232;0;5;6;9360794;Bus 111 : Direction Sainte-Martine;"";EXO;111 O;rue Lapierre / face au Cegep André-Laurendeau;Ste-Martine (route 138 / chemin de la Rivière des
474806499;"{\"type\":\"LineString\",\"coordinates\":[[-73.6251694,45.4368318],[-73.6254258,45.4365934],[-73.6255181,45.4365075]]}";3;Boulevard Newman;4;50;false;true;true;false;false;false;46.0;1;0;0;0;0;false;79031;6133058728;-73.622731;45.439205;79073;6133058693;-73.625932;45.436232;0;5;6;9360794;Bus 111 : Direction Sainte-Martine;"";EXO;111 O;rue Lapierre / face au Cegep André-Laurendeau;Ste-Martine (route 138 / chemin de la Rivière des
451902771;"{\"type\":\"LineString\",\"coordinates\":[[-73.6255181,45.4365075],[-73.6262213,45.4358634]]}";4;Boulevard Newman;4;50;false;true;true;false;false;false;45.5;1;0;0;0;0;false;79031;6133058728;-73.622731;45.439205;79073;6133058693;-73.625932;45.436232;1;5;6;9360794;Bus 111 : Direction Sainte-Martine;"";EXO;111 O;rue Lapierre / face au Cegep André-Laurendeau;Ste-Martine (route 138 / chemin de la Rivière des
451902771;"{\"type\":\"LineString\",\"coordinates\":[[-73.6255181,45.4365075],[-73.6262213,45.4358634]]}";1;Boulevard Newman;4;50;false;true;true;false;false;false;45.5;1;0;0;0;0;false;79073;6133058693;-73.625932;45.436232;79029;6133058730;-73.630347;45.432404;1;6;7;9360794;Bus 111 : Direction Sainte-Martine;"";EXO;111 O;rue Lapierre / face au Cegep André-Laurendeau;Ste-Martine (route 138 / chemin de la Rivière des
451902762;"{\"type\":\"LineString\",\"coordinates\":[[-73.6262213,45.4358634],[-73.626498,45.4356099],[-73.6266151,45.4355026],[-73.6268099,45.4353242],[-73.6269009,45.4352381],[-73.6270871,45.4350618],[-73.6272686,45.43489],[-73.6273137,45.4348473],[-73.6282783,45.4339341],[-73.6283462,45.4338698],[-73.6284204,45.4337997]]}";2;Boulevard Newman;4;50;false;true;true;false;false;false;287.0;0;0;0;0;0;false;79073;6133058693;-73.625932;45.436232;79029;6133058730;-73.630347;45.432404;0;6;7;9360794;Bus 111 : Direction Sainte-Martine;"";EXO;111 O;rue Lapierre / face au Cegep André-Laurendeau;Ste-Martine (route 138 / chemin de la Rivière des
459768278;"{\"type\":\"LineString\",\"coordinates\":[[-73.6284204,45.4337997],[-73.6288556,45.4333888]]}";3;Boulevard Newman;4;50;false;true;true;false;false;false;57.0;1;0;0;0;0;false;79073;6133058693;-73.625932;45.436232;79029;6133058730;-73.630347;45.432404;0;6;7;9360794;Bus 111 : Direction Sainte-Martine;"";EXO;111 O;rue Lapierre / face au Cegep André-Laurendeau;Ste-Martine (route 138 / chemin de la Rivière des
459768280;"{\"type\":\"LineString\",\"coordinates\":[[-73.6288556,45.4333888],[-73.6293722,45.4329385],[-73.6294164,45.4329],[-73.6295903,45.432759],[-73.6299666,45.4325058],[-73.6300393,45.4324616]]}";4;Boulevard Newman;4;50;false;true;true;false;false;false;139.0;2;0;0;0;0;false;79073;6133058693;-73.625932;45.436232;79029;6133058730;-73.630347;45.432404;0;6;7;9360794;Bus 111 : Direction Sainte-Martine;"";EXO;111 O;rue Lapierre / face au Cegep André-Laurendeau;Ste-Martine (route 138 / chemin de la Rivière des
451899719;"{\"type\":\"LineString\",\"coordinates\":[[-73.6300393,45.4324616],[-73.6302113,45.4323882],[-73.6309698,45.4320402],[-73.6314594,45.4318686]]}";5;Boulevard Newman;4;50;false;true;true;false;false;false;65.0;1;0;0;0;0;false;79073;6133058693;-73.625932;45.436232;79029;6133058730;-73.630347;45.432404;1;6;7;9360794;Bus 111 : Direction Sainte-Martine;"";EXO;111 O;rue Lapierre / face au Cegep André-Laurendeau;Ste-Martine (route 138 / chemin de la Rivière des
451899719;"{\"type\":\"LineString\",\"coordinates\":[[-73.6300393,45.4324616],[-73.6302113,45.4323882],[-73.6309698,45.4320402],[-73.6314594,45.4318686]]}";1;Boulevard Newman;4;50;false;true;true;false;false;false;65.0;1;0;0;0;0;false;79029;6133058730;-73.630347;45.432404;79027;6133058732;-73.633726;45.431164;1;7;8;9360794;Bus 111 : Direction Sainte-Martine;"";EXO;111 O;rue Lapierre / face au Cegep André-Laurendeau;Ste-Martine (route 138 / chemin de la Rivière des
451899720;"{\"type\":\"LineString\",\"coordinates\":[[-73.6314594,45.4318686],[-73.631905,45.4317125],[-73.6319849,45.4316817],[-73.6325545,45.4314695],[-73.6335091,45.4311139],[-73.6336195,45.4310728],[-73.6337925,45.4310083],[-73.6343674,45.4307942]]}";2;Boulevard Newman;4;50;false;true;true;false;false;false;128.5;1;0;0;0;0;false;79029;6133058730;-73.630347;45.432404;79027;6133058732;-73.633726;45.431164;1;7;8;9360794;Bus 111 : Direction Sainte-Martine;"";EXO;111 O;rue Lapierre / face au Cegep André-Laurendeau;Ste-Martine (route 138 / chemin de la Rivière des
451899720;"{\"type\":\"LineString\",\"coordinates\":[[-73.6314594,45.4318686],[-73.631905,45.4317125],[-73.6319849,45.4316817],[-73.6325545,45.4314695],[-73.6335091,45.4311139],[-73.6336195,45.4310728],[-73.6337925,45.4310083],[-73.6343674,45.4307942]]}";1;Boulevard Newman;4;50;false;true;true;false;false;false;128.5;1;0;0;0;0;false;79027;6133058732;-73.633726;45.431164;79071;6133058695;-73.638498;45.429384;1;8;9;9360794;Bus 111 : Direction Sainte-Martine;"";EXO;111 O;rue Lapierre / face au Cegep André-Laurendeau;Ste-Martine (route 138 / chemin de la Rivière des
451896831;"{\"type\":\"LineString\",\"coordinates\":[[-73.6343674,45.4307942],[-73.6348092,45.4306453]]}";2;Boulevard Newman;4;50;false;true;true;false;false;false;39.0;1;0;0;0;0;false;79027;6133058732;-73.633726;45.431164;79071;6133058695;-73.638498;45.429384;0;8;9;9360794;Bus 111 : Direction Sainte-Martine;"";EXO;111 O;rue Lapierre / face au Cegep André-Laurendeau;Ste-Martine (route 138 / chemin de la Rivière des
451896830;"{\"type\":\"LineString\",\"coordinates\":[[-73.6348092,45.4306453],[-73.6349345,45.430603],[-73.6355536,45.4303763],[-73.6362864,45.4301087],[-73.6363447,45.4300874]]}";3;Boulevard Newman;4;50;false;true;true;false;false;false;136.0;2;0;0;0;0;false;79027;6133058732;-73.633726;45.431164;79071;6133058695;-73.638498;45.429384;0;8;9;9360794;Bus 111 : Direction Sainte-Martine;"";EXO;111 O;rue Lapierre / face au Cegep André-Laurendeau;Ste-Martine (route 138 / chemin de la Rivière des
499892370;"{\"type\":\"LineString\",\"coordinates\":[[-73.6363447,45.4300874],[-73.6367216,45.4299511]]}";4;Boulevard Newman;4;50;false;true;true;false;false;false;34.0;0;0;0;0;0;false;79027;6133058732;-73.633726;45.431164;79071;6133058695;-73.638498;45.429384;0;8;9;9360794;Bus 111 : Direction Sainte-Martine;"";EXO;111 O;rue Lapierre / face au Cegep André-Laurendeau;Ste-Martine (route 138 / chemin de la Rivière des
499892372;"{\"type\":\"LineString\",\"coordinates\":[[-73.6367216,45.4299511],[-73.6387666,45.4292114],[-73.6389079,45.4291628]]}";5;Boulevard Newman;4;50;false;true;true;false;false;false;96.5;1;0;0;0;0;false;79027;6133058732;-73.633726;45.431164;79071;6133058695;-73.638498;45.429384;1;8;9;9360794;Bus 111 : Direction Sainte-Martine;"";EXO;111 O;rue Lapierre / face au Cegep André-Laurendeau;Ste-Martine (route 138 / chemin de la Rivière des
499892372;"{\"type\":\"LineString\",\"coordinates\":[[-73.6367216,45.4299511],[-73.6387666,45.4292114],[-73.6389079,45.4291628]]}";1;Boulevard Newman;4;50;false;true;true;false;false;false;96.5;1;0;0;0;0;false;79071;6133058695;-73.638498;45.429384;79069;6133058697;-73.644587;45.427183;1;9;10;9360794;Bus 111 : Direction Sainte-Martine;"";EXO;111 O;rue Lapierre / face au Cegep André-Laurendeau;Ste-Martine (route 138 / chemin de la Rivière des
477486651;"{\"type\":\"LineString\",\"coordinates\":[[-73.6389079,45.4291628],[-73.6390096,45.4291304]]}";2;Boulevard Newman;4;50;false;true;true;false;false;false;9.0;2;0;0;0;0;false;79071;6133058695;-73.638498;45.429384;79069;6133058697;-73.644587;45.427183;0;9;10;9360794;Bus 111 : Direction Sainte-Martine;"";EXO;111 O;rue Lapierre / face au Cegep André-Laurendeau;Ste-Martine (route 138 / chemin de la Rivière des
477486650;"{\"type\":\"LineString\",\"coordinates\":[[-73.6390096,45.4291304],[-73.6394363,45.4289689],[-73.6395494,45.4289278]]}";3;Boulevard Newman;4;50;false;true;true;false;false;false;48.0;2;0;0;0;0;false;79071;6133058695;-73.638498;45.429384;79069;6133058697;-73.644587;45.427183;0;9;10;9360794;Bus 111 : Direction Sainte-Martine;"";EXO;111 O;rue Lapierre / face au Cegep André-Laurendeau;Ste-Martine (route 138 / chemin de la Rivière des
555505982;"{\"type\":\"LineString\",\"coordinates\":[[-73.6395494,45.4289278],[-73.6396252,45.4288995]]}";4;Boulevard Newman;4;50;false;true;true;false;false;false;7.0;2;0;0;0;0;false;79071;6133058695;-73.638498;45.429384;79069;6133058697;-73.644587;45.427183;0;9;10;9360794;Bus 111 : Direction Sainte-Martine;"";EXO;111 O;rue Lapierre / face au Cegep André-Laurendeau;Ste-Martine (route 138 / chemin de la Rivière des
456360852;"{\"type\":\"LineString\",\"coordinates\":[[-73.6396252,45.4288995],[-73.6396682,45.4288806],[-73.6396857,45.4288574]]}";5;Boulevard Newman;4;50;false;true;true;false;false;false;7.0;1;0;0;0;0;false;79071;6133058695;-73.638498;45.429384;79069;6133058697;-73.644587;45.427183;0;9;10;9360794;Bus 111 : Direction Sainte-Martine;"";EXO;111 O;rue Lapierre / face au Cegep André-Laurendeau;Ste-Martine (route 138 / chemin de la Rivière des
453533478;"{\"type\":\"LineString\",\"coordinates\":[[-73.6396857,45.4288574],[-73.6400667,45.4287493]]}";6;Boulevard Newman;4;50;false;false;true;false;false;false;33.0;0;0;0;0;0;false;79071;6133058695;-73.638498;45.429384;79069;6133058697;-73.644587;45.427183;0;9;10;9360794;Bus 111 : Direction Sainte-Martine;"";EXO;111 O;rue Lapierre / face au Cegep André-Laurendeau;Ste-Martine (route 138 / chemin de la Rivière des
424837410;"{\"type\":\"LineString\",\"coordinates\":[[-73.6400667,45.4287493],[-73.6402905,45.4286722],[-73.6407594,45.428503],[-73.6423823,45.4279076],[-73.6430408,45.4276713]]}";7;Boulevard Newman;4;50;false;false;true;false;false;false;262.0;0;0;0;0;0;false;79071;6133058695;-73.638498;45.429384;79069;6133058697;-73.644587;45.427183;0;9;10;9360794;Bus 111 : Direction Sainte-Martine;"";EXO;111 O;rue Lapierre / face au Cegep André-Laurendeau;Ste-Martine (route 138 / chemin de la Rivière des
473015245;"{\"type\":\"LineString\",\"coordinates\":[[-73.6430408,45.4276713],[-73.6434429,45.4275233]]}";8;Boulevard Newman;4;50;false;false;true;false;false;false;36.0;0;0;0;0;0;false;79071;6133058695;-73.638498;45.429384;79069;6133058697;-73.644587;45.427183;0;9;10;9360794;Bus 111 : Direction Sainte-Martine;"";EXO;111 O;rue Lapierre / face au Cegep André-Laurendeau;Ste-Martine (route 138 / chemin de la Rivière des
473015241;"{\"type\":\"LineString\",\"coordinates\":[[-73.6434429,45.4275233],[-73.6435826,45.4274734],[-73.6443837,45.4271686]]}";9;Boulevard Newman;4;50;false;false;true;false;false;false;84.0;0;0;0;0;0;false;79071;6133058695;-73.638498;45.429384;79069;6133058697;-73.644587;45.427183;0;9;10;9360794;Bus 111 : Direction Sainte-Martine;"";EXO;111 O;rue Lapierre / face au Cegep André-Laurendeau;Ste-Martine (route 138 / chemin de la Rivière des
360575537;"{\"type\":\"LineString\",\"coordinates\":[[-73.6443837,45.4271686],[-73.6458013,45.426662],[-73.648543,45.4256711],[-73.6489625,45.4255195],[-73.649129,45.4254593],[-73.6491969,45.4254348]]}";10;Boulevard Newman;4;50;false;false;true;false;false;false;211.5;0;0;0;0;0;false;79071;6133058695;-73.638498;45.429384;79069;6133058697;-73.644587;45.427183;1;9;10;9360794;Bus 111 : Direction Sainte-Martine;"";EXO;111 O;rue Lapierre / face au Cegep André-Laurendeau;Ste-Martine (route 138 / chemin de la Rivière des
473015241;"{\"type\":\"LineString\",\"coordinates\":[[-73.6434429,45.4275233],[-73.6435826,45.4274734],[-73.6443837,45.4271686]]}";1;Boulevard Newman;4;50;false;false;true;false;false;false;84.0;0;0;0;0;0;false;79069;6133058697;-73.644587;45.427183;79067;6133058698;-73.649115;45.425571;2;10;11;9360794;Bus 111 : Direction Sainte-Martine;"";EXO;111 O;rue Lapierre / face au Cegep André-Laurendeau;Ste-Martine (route 138 / chemin de la Rivière des
360575537;"{\"type\":\"LineString\",\"coordinates\":[[-73.6443837,45.4271686],[-73.6458013,45.426662],[-73.648543,45.4256711],[-73.6489625,45.4255195],[-73.649129,45.4254593],[-73.6491969,45.4254348]]}";2;Boulevard Newman;4;50;false;false;true;false;false;false;423.0;0;0;0;0;0;false;79069;6133058697;-73.644587;45.427183;79067;6133058698;-73.649115;45.425571;2;10;11;9360794;Bus 111 : Direction Sainte-Martine;"";EXO;111 O;rue Lapierre / face au Cegep André-Laurendeau;Ste-Martine (route 138 / chemin de la Rivière des
452039035;"{\"type\":\"LineString\",\"coordinates\":[[-73.6491969,45.4254348],[-73.6497035,45.4251971]]}";1;Boulevard Newman;4;50;false;false;true;false;false;false;48.0;0;0;0;0;0;false;79067;6133058698;-73.649115;45.425571;78606;6190670003;-73.683171;45.399932;2;11;12;9360794;Bus 111 : Direction Sainte-Martine;"";EXO;111 O;rue Lapierre / face au Cegep André-Laurendeau;Ste-Martine (route 138 / chemin de la Rivière des
452039036;"{\"type\":\"LineString\",\"coordinates\":[[-73.6501443,45.4252705],[-73.6497035,45.4251971]]}";2;Rue Airlie;1;50;false;false;true;false;false;false;36.0;0;0;0;0;0;false;79067;6133058698;-73.649115;45.425571;78606;6190670003;-73.683171;45.399932;0;11;12;9360794;Bus 111 : Direction Sainte-Martine;"";EXO;111 O;rue Lapierre / face au Cegep André-Laurendeau;Ste-Martine (route 138 / chemin de la Rivière des
673471346;"{\"type\":\"LineString\",\"coordinates\":[[-73.6503762,45.4253084],[-73.6501443,45.4252705]]}";3;Rue Airlie;1;50;false;false;true;false;false;false;19.0;0;0;0;0;0;false;79067;6133058698;-73.649115;45.425571;78606;6190670003;-73.683171;45.399932;0;11;12;9360794;Bus 111 : Direction Sainte-Martine;"";EXO;111 O;rue Lapierre / face au Cegep André-Laurendeau;Ste-Martine (route 138 / chemin de la Rivière des
422433304;"{\"type\":\"LineString\",\"coordinates\":[[-73.6503762,45.4253084],[-73.6504724,45.4252292],[-73.6505603,45.4251427],[-73.650629,45.4250297],[-73.6507629,45.4247626],[-73.650858,45.4245509],[-73.6509106,45.4244531],[-73.6509705,45.4243699]]}";4;"";1;50;false;true;true;false;false;false;116.0;0;0;0;0;0;false;79067;6133058698;-73.649115;45.425571;78606;6190670003;-73.683171;45.399932;0;11;12;9360794;Bus 111 : Direction Sainte-Martine;"";EXO;111 O;rue Lapierre / face au Cegep André-Laurendeau;Ste-Martine (route 138 / chemin de la Rivière des
490755724;"{\"type\":\"LineString\",\"coordinates\":[[-73.6509705,45.4243699],[-73.6511138,45.4242673],[-73.6513461,45.4240427],[-73.6515249,45.4237494],[-73.6517747,45.4232899],[-73.652203,45.4226081]]}";5;"";1;50;false;true;false;false;false;false;220.0;0;0;0;0;0;false;79067;6133058698;-73.649115;45.425571;78606;6190670003;-73.683171;45.399932;0;11;12;9360794;Bus 111 : Direction Sainte-Martine;"";EXO;111 O;rue Lapierre / face au Cegep André-Laurendeau;Ste-Martine (route 138 / chemin de la Rivière des
467989463;"{\"type\":\"LineString\",\"coordinates\":[[-73.652203,45.4226081],[-73.652266,45.4224832]]}";6;Route 138;1;50;false;true;true;false;false;false;15.0;0;0;0;0;0;false;79067;6133058698;-73.649115;45.425571;78606;6190670003;-73.683171;45.399932;0;11;12;9360794;Bus 111 : Direction Sainte-Martine;"";EXO;111 O;rue Lapierre / face au Cegep André-Laurendeau;Ste-Martine (route 138 / chemin de la Rivière des
417092084;"{\"type\":\"LineString\",\"coordinates\":[[-73.652266,45.4224832],[-73.6523849,45.4222466]]}";7;Pont Honoré-Mercier;1;50;false;true;true;false;false;false;28.0;0;0;0;0;0;false;79067;6133058698;-73.649115;45.425571;78606;6190670003;-73.683171;45.399932;0;11;12;9360794;Bus 111 : Direction Sainte-Martine;"";EXO;111 O;rue Lapierre / face au Cegep André-Laurendeau;Ste-Martine (route 138 / chemin de la Rivière des
482530517;"{\"type\":\"LineString\",\"coordinates\":[[-73.6523849,45.4222466],[-73.6524512,45.4221211]]}";8;Pont Honoré-Mercier;1;50;false;true;false;false;false;false;15.0;0;0;0;0;0;false;79067;6133058698;-73.649115;45.425571;78606;6190670003;-73.683171;45.399932;0;11;12;9360794;Bus 111 : Direction Sainte-Martine;"";EXO;111 O;rue Lapierre / face au Cegep André-Laurendeau;Ste-Martine (route 138 / chemin de la Rivière des
482530518;"{\"type\":\"LineString\",\"coordinates\":[[-73.6524512,45.4221211],[-73.6527798,45.4214923]]}";9;Pont Honoré-Mercier;1;50;false;true;false;false;false;false;75.0;0;0;0;0;0;false;79067;6133058698;-73.649115;45.425571;78606;6190670003;-73.683171;45.399932;0;11;12;9360794;Bus 111 : Direction Sainte-Martine;"";EXO;111 O;rue Lapierre / face au Cegep André-Laurendeau;Ste-Martine (route 138 / chemin de la Rivière des
567465771;"{\"type\":\"LineString\",\"coordinates\":[[-73.6527798,45.4214923],[-73.6547778,45.4177144],[-73.656277,45.4147936],[-73.6564471,45.4144551],[-73.6567326,45.4138965],[-73.6574807,45.4124561],[-73.658502,45.410453],[-73.6592403,45.4089848]]}";10;Pont Honoré-Mercier;2;50;false;true;false;false;false;false;1479.0;0;0;0;0;0;false;79067;6133058698;-73.649115;45.425571;78606;6190670003;-73.683171;45.399932;0;11;12;9360794;Bus 111 : Direction Sainte-Martine;"";EXO;111 O;rue Lapierre / face au Cegep André-Laurendeau;Ste-Martine (route 138 / chemin de la Rivière des
685945572;"{\"type\":\"LineString\",\"coordinates\":[[-73.6592403,45.4089848],[-73.6593146,45.4088561],[-73.6593951,45.4087253],[-73.6594779,45.4085928],[-73.6595361,45.408509],[-73.6596993,45.4082977]]}";11;Pont Honoré-Mercier;2;70;false;true;false;false;false;false;85.0;0;0;0;0;0;false;79067;6133058698;-73.649115;45.425571;78606;6190670003;-73.683171;45.399932;0;11;12;9360794;Bus 111 : Direction Sainte-Martine;"";EXO;111 O;rue Lapierre / face au Cegep André-Laurendeau;Ste-Martine (route 138 / chemin de la Rivière des
482530519;"{\"type\":\"LineString\",\"coordinates\":[[-73.6596993,45.4082977],[-73.6603312,45.4075269],[-73.660621,45.4071637],[-73.6608681,45.4068579],[-73.6613401,45.4062694],[-73.6615113,45.4060485],[-73.6616561,45.4058905],[-73.6618306,45.4057249],[-73.662051,45.405562],[-73.6622966,45.4054152],[-73.6624994,45.4053157],[-73.662652,45.4052519],[-73.6627964,45.405198]]}";12;Pont Honoré-Mercier;2;70;false;true;false;false;false;false;428.0;0;0;0;0;0;false;79067;6133058698;-73.649115;45.425571;78606;6190670003;-73.683171;45.399932;0;11;12;9360794;Bus 111 : Direction Sainte-Martine;"";EXO;111 O;rue Lapierre / face au Cegep André-Laurendeau;Ste-Martine (route 138 / chemin de la Rivière des
48747491;"{\"type\":\"LineString\",\"coordinates\":[[-73.6627964,45.405198],[-73.6630775,45.4051134],[-73.6635366,45.4049902],[-73.6642348,45.4048001],[-73.6648979,45.4046224],[-73.6655088,45.4044566],[-73.6661857,45.4042722],[-73.6668546,45.4040911],[-73.6674442,45.4039379],[-73.6679272,45.4038067],[-73.6695947,45.4033564]]}";13;Pont Honoré-Mercier;2;70;false;true;false;false;false;false;570.0;0;0;0;0;0;false;79067;6133058698;-73.649115;45.425571;78606;6190670003;-73.683171;45.399932;0;11;12;9360794;Bus 111 : Direction Sainte-Martine;"";EXO;111 O;rue Lapierre / face au Cegep André-Laurendeau;Ste-Martine (route 138 / chemin de la Rivière des
678489529;"{\"type\":\"LineString\",\"coordinates\":[[-73.6695947,45.4033564],[-73.6718958,45.4027794]]}";14;Route 132/138;2;70;false;true;false;false;false;false;192.0;0;0;0;0;0;false;79067;6133058698;-73.649115;45.425571;78606;6190670003;-73.683171;45.399932;0;11;12;9360794;Bus 111 : Direction Sainte-Martine;"";EXO;111 O;rue Lapierre / face au Cegep André-Laurendeau;Ste-Martine (route 138 / chemin de la Rivière des
341667136;"{\"type\":\"LineString\",\"coordinates\":[[-73.6718958,45.4027794],[-73.6722556,45.4026894]]}";15;Route 132;2;70;false;true;true;false;false;false;30.0;0;0;0;0;0;false;79067;6133058698;-73.649115;45.425571;78606;6190670003;-73.683171;45.399932;0;11;12;9360794;Bus 111 : Direction Sainte-Martine;"";EXO;111 O;rue Lapierre / face au Cegep André-Laurendeau;Ste-Martine (route 138 / chemin de la Rivière des
45271209;"{\"type\":\"LineString\",\"coordinates\":[[-73.6722556,45.4026894],[-73.6756545,45.4017831],[-73.6760442,45.4016792],[-73.6761514,45.4016506],[-73.6770081,45.4014221],[-73.6780331,45.4011488],[-73.6786454,45.4009848],[-73.6805,45.4004879],[-73.6814883,45.4002232],[-73.6826567,45.3999102],[-73.6832169,45.3997601],[-73.6840441,45.3995385],[-73.6852715,45.3992613],[-73.6858973,45.3991751],[-73.6864028,45.3991285],[-73.6865411,45.3991158],[-73.6871365,45.399112],[-73.6877226,45.3991356],[-73.6885903,45.3991949]]}";16;Route 132;2;70;false;true;true;false;false;false;1349.0;0;0;0;0;0;false;79067;6133058698;-73.649115;45.425571;78606;6190670003;-73.683171;45.399932;2;11;12;9360794;Bus 111 : Direction Sainte-Martine;"";EXO;111 O;rue Lapierre / face au Cegep André-Laurendeau;Ste-Martine (route 138 / chemin de la Rivière des
45271209;"{\"type\":\"LineString\",\"coordinates\":[[-73.6722556,45.4026894],[-73.6756545,45.4017831],[-73.6760442,45.4016792],[-73.6761514,45.4016506],[-73.6770081,45.4014221],[-73.6780331,45.4011488],[-73.6786454,45.4009848],[-73.6805,45.4004879],[-73.6814883,45.4002232],[-73.6826567,45.3999102],[-73.6832169,45.3997601],[-73.6840441,45.3995385],[-73.6852715,45.3992613],[-73.6858973,45.3991751],[-73.6864028,45.3991285],[-73.6865411,45.3991158],[-73.6871365,45.399112],[-73.6877226,45.3991356],[-73.6885903,45.3991949]]}";1;Route 132;2;70;false;true;true;false;false;false;674.5;0;0;0;0;0;false;78606;6190670003;-73.683171;45.399932;78898;6190668828;-73.7052;45.376988;1;12;13;9360794;Bus 111 : Direction Sainte-Martine;"";EXO;111 O;rue Lapierre / face au Cegep André-Laurendeau;Ste-Martine (route 138 / chemin de la Rivière des
462337783;"{\"type\":\"LineString\",\"coordinates\":[[-73.6885903,45.3991949],[-73.6890208,45.3992024],[-73.6894727,45.3991883]]}";2;Route 132/138;2;70;false;true;true;false;false;false;70.0;1;0;0;0;0;false;78606;6190670003;-73.683171;45.399932;78898;6190668828;-73.7052;45.376988;0;12;13;9360794;Bus 111 : Direction Sainte-Martine;"";EXO;111 O;rue Lapierre / face au Cegep André-Laurendeau;Ste-Martine (route 138 / chemin de la Rivière des
462337784;"{\"type\":\"LineString\",\"coordinates\":[[-73.6894727,45.3991883],[-73.6899582,45.3991497],[-73.6904651,45.3990772]]}";3;Route 132/138;2;70;false;true;true;false;false;false;79.0;1;0;0;0;0;false;78606;6190670003;-73.683171;45.399932;78898;6190668828;-73.7052;45.376988;0;12;13;9360794;Bus 111 : Direction Sainte-Martine;"";EXO;111 O;rue Lapierre / face au Cegep André-Laurendeau;Ste-Martine (route 138 / chemin de la Rivière des
326317194;"{\"type\":\"LineString\",\"coordinates\":[[-73.6904651,45.3990772],[-73.6908661,45.3989764],[-73.6911357,45.398902],[-73.6914066,45.3988003],[-73.6917861,45.3986365],[-73.6921684,45.3984387],[-73.6925948,45.3981779],[-73.6929818,45.3978533],[-73.6932932,45.3975337],[-73.6934411,45.3973407],[-73.6935913,45.3969904]]}";4;Route 132/138;2;70;false;true;true;false;false;false;352.0;0;0;0;0;0;false;78606;6190670003;-73.683171;45.399932;78898;6190668828;-73.7052;45.376988;0;12;13;9360794;Bus 111 : Direction Sainte-Martine;"";EXO;111 O;rue Lapierre / face au Cegep André-Laurendeau;Ste-Martine (route 138 / chemin de la Rivière des
494183738;"{\"type\":\"LineString\",\"coordinates\":[[-73.6935913,45.3969904],[-73.6944419,45.3954988],[-73.6947906,45.3948515]]}";5;Route 132/138;5;70;false;false;true;false;false;false;256.0;0;0;0;0;0;false;78606;6190670003;-73.683171;45.399932;78898;6190668828;-73.7052;45.376988;0;12;13;9360794;Bus 111 : Direction Sainte-Martine;"";EXO;111 O;rue Lapierre / face au Cegep André-Laurendeau;Ste-Martine (route 138 / chemin de la Rivière des
13856278;"{\"type\":\"LineString\",\"coordinates\":[[-73.6947906,45.3948515],[-73.6949582,45.3946793],[-73.695728,45.393318]]}";6;Route 132/138;5;70;false;true;true;false;false;false;186.0;1;0;0;0;0;false;78606;6190670003;-73.683171;45.399932;78898;6190668828;-73.7052;45.376988;0;12;13;9360794;Bus 111 : Direction Sainte-Martine;"";EXO;111 O;rue Lapierre / face au Cegep André-Laurendeau;Ste-Martine (route 138 / chemin de la Rivière des
494183736;"{\"type\":\"LineString\",\"coordinates\":[[-73.695728,45.393318],[-73.6962819,45.3923626],[-73.6964738,45.3918936]]}";7;Route 132/138;5;70;false;true;true;false;false;false;169.0;1;0;0;0;0;false;78606;6190670003;-73.683171;45.399932;78898;6190668828;-73.7052;45.376988;0;12;13;9360794;Bus 111 : Direction Sainte-Martine;"";EXO;111 O;rue Lapierre / face au Cegep André-Laurendeau;Ste-Martine (route 138 / chemin de la Rivière des
638130703;"{\"type\":\"LineString\",\"coordinates\":[[-73.6964738,45.3918936],[-73.6983132,45.3886906],[-73.7044729,45.3779945]]}";8;Route 132;5;70;false;false;true;false;false;false;1666.0;0;0;0;0;0;false;78606;6190670003;-73.683171;45.399932;78898;6190668828;-73.7052;45.376988;0;12;13;9360794;Bus 111 : Direction Sainte-Martine;"";EXO;111 O;rue Lapierre / face au Cegep André-Laurendeau;Ste-Martine (route 138 / chemin de la Rivière des
494183737;"{\"type\":\"LineString\",\"coordinates\":[[-73.7044729,45.3779945],[-73.7046146,45.3778855],[-73.7052121,45.3768862]]}";9;Route 132;5;70;false;true;true;false;false;false;68.5;1;0;0;0;0;false;78606;6190670003;-73.683171;45.399932;78898;6190668828;-73.7052;45.376988;1;12;13;9360794;Bus 111 : Direction Sainte-Martine;"";EXO;111 O;rue Lapierre / face au Cegep André-Laurendeau;Ste-Martine (route 138 / chemin de la Rivière des
494183737;"{\"type\":\"LineString\",\"coordinates\":[[-73.7044729,45.3779945],[-73.7046146,45.3778855],[-73.7052121,45.3768862]]}";1;Route 132;5;70;false;true;true;false;false;false;137.0;1;0;0;0;0;false;78898;6190668828;-73.7052;45.376988;78126;6190672393;-73.710515;45.367864;2;13;14;9360794;Bus 111 : Direction Sainte-Martine;"";EXO;111 O;rue Lapierre / face au Cegep André-Laurendeau;Ste-Martine (route 138 / chemin de la Rivière des
638130697;"{\"type\":\"LineString\",\"coordinates\":[[-73.7052121,45.3768862],[-73.7056223,45.376185],[-73.7058002,45.3758808]]}";2;Route 132;5;70;false;true;true;false;false;false;121.0;1;0;0;0;0;false;78898;6190668828;-73.7052;45.376988;78126;6190672393;-73.710515;45.367864;0;13;14;9360794;Bus 111 : Direction Sainte-Martine;"";EXO;111 O;rue Lapierre / face au Cegep André-Laurendeau;Ste-Martine (route 138 / chemin de la Rivière des
638130700;"{\"type\":\"LineString\",\"coordinates\":[[-73.7058002,45.3758808],[-73.7057841,45.3757376]]}";3;Route 132;5;70;false;true;true;false;false;false;16.0;0;0;0;0;0;false;78898;6190668828;-73.7052;45.376988;78126;6190672393;-73.710515;45.367864;0;13;14;9360794;Bus 111 : Direction Sainte-Martine;"";EXO;111 O;rue Lapierre / face au Cegep André-Laurendeau;Ste-Martine (route 138 / chemin de la Rivière des
638130699;"{\"type\":\"LineString\",\"coordinates\":[[-73.7057841,45.3757376],[-73.7059489,45.3754557],[-73.7061827,45.3750558],[-73.7077504,45.3723743],[-73.7094727,45.3694074]]}";4;Route 132;5;70;false;false;true;false;false;false;760.0;0;0;0;0;0;false;78898;6190668828;-73.7052;45.376988;78126;6190672393;-73.710515;45.367864;0;13;14;9360794;Bus 111 : Direction Sainte-Martine;"";EXO;111 O;rue Lapierre / face au Cegep André-Laurendeau;Ste-Martine (route 138 / chemin de la Rivière des
342545892;"{\"type\":\"LineString\",\"coordinates\":[[-73.7094727,45.3694074],[-73.7095933,45.3692952],[-73.7099265,45.3687802]]}";5;Boulevard Saint-Jean-Baptiste;2;50;false;true;true;false;false;false;79.0;0;0;0;0;0;false;78898;6190668828;-73.7052;45.376988;78126;6190672393;-73.710515;45.367864;0;13;14;9360794;Bus 111 : Direction Sainte-Martine;"";EXO;111 O;rue Lapierre / face au Cegep André-Laurendeau;Ste-Martine (route 138 / chemin de la Rivière des
462338993;"{\"type\":\"LineString\",\"coordinates\":[[-73.7099265,45.3687802],[-73.7100129,45.368635],[-73.7100358,45.3686049],[-73.7100813,45.3685176]]}";6;Boulevard Saint-Jean-Baptiste;2;50;false;true;true;false;false;false;32.0;1;0;0;0;0;false;78898;6190668828;-73.7052;45.376988;78126;6190672393;-73.710515;45.367864;0;13;14;9360794;Bus 111 : Direction Sainte-Martine;"";EXO;111 O;rue Lapierre / face au Cegep André-Laurendeau;Ste-Martine (route 138 / chemin de la Rivière des
342545893;"{\"type\":\"LineString\",\"coordinates\":[[-73.7100813,45.3685176],[-73.7101268,45.3684268]]}";7;Boulevard Saint-Jean-Baptiste;2;50;false;true;true;false;false;false;11.0;0;0;0;0;0;false;78898;6190668828;-73.7052;45.376988;78126;6190672393;-73.710515;45.367864;0;13;14;9360794;Bus 111 : Direction Sainte-Martine;"";EXO;111 O;rue Lapierre / face au Cegep André-Laurendeau;Ste-Martine (route 138 / chemin de la Rivière des
678426634;"{\"type\":\"LineString\",\"coordinates\":[[-73.7101268,45.3684268],[-73.7105136,45.3677917],[-73.7105526,45.3677276],[-73.7106124,45.367627]]}";8;Boulevard Saint-Jean-Baptiste;2;50;false;true;true;false;false;false;97.0;1;0;0;0;0;false;78898;6190668828;-73.7052;45.376988;78126;6190672393;-73.710515;45.367864;2;13;14;9360794;Bus 111 : Direction Sainte-Martine;"";EXO;111 O;rue Lapierre / face au Cegep André-Laurendeau;Ste-Martine (route 138 / chemin de la Rivière des
678426634;"{\"type\":\"LineString\",\"coordinates\":[[-73.7101268,45.3684268],[-73.7105136,45.3677917],[-73.7105526,45.3677276],[-73.7106124,45.367627]]}";1;Boulevard Saint-Jean-Baptiste;2;50;false;true;true;false;false;false;48.5;1;0;0;0;0;false;78126;6190672393;-73.710515;45.367864;78135;6190672385;-73.711689;45.365937;1;14;15;9360794;Bus 111 : Direction Sainte-Martine;"";EXO;111 O;rue Lapierre / face au Cegep André-Laurendeau;Ste-Martine (route 138 / chemin de la Rivière des
342545895;"{\"type\":\"LineString\",\"coordinates\":[[-73.7106124,45.367627],[-73.7109064,45.3670901],[-73.7109156,45.3670266],[-73.7109041,45.3669337]]}";2;Boulevard Saint-Jean-Baptiste;2;50;false;true;true;false;false;false;82.0;0;0;0;0;0;false;78126;6190672393;-73.710515;45.367864;78135;6190672385;-73.711689;45.365937;0;14;15;9360794;Bus 111 : Direction Sainte-Martine;"";EXO;111 O;rue Lapierre / face au Cegep André-Laurendeau;Ste-Martine (route 138 / chemin de la Rivière des
666181870;"{\"type\":\"LineString\",\"coordinates\":[[-73.7109041,45.3669337],[-73.7115683,45.3658389]]}";3;Boulevard Saint-Jean-Baptiste;5;50;false;false;true;false;false;false;66.5;1;0;0;0;0;false;78126;6190672393;-73.710515;45.367864;78135;6190672385;-73.711689;45.365937;1;14;15;9360794;Bus 111 : Direction Sainte-Martine;"";EXO;111 O;rue Lapierre / face au Cegep André-Laurendeau;Ste-Martine (route 138 / chemin de la Rivière des
666181870;"{\"type\":\"LineString\",\"coordinates\":[[-73.7109041,45.3669337],[-73.7115683,45.3658389]]}";1;Boulevard Saint-Jean-Baptiste;5;50;false;false;true;false;false;false;133.0;1;0;0;0;0;false;78135;6190672385;-73.711689;45.365937;78180;6190671750;-73.713615;45.362695;2;15;16;9360794;Bus 111 : Direction Sainte-Martine;"";EXO;111 O;rue Lapierre / face au Cegep André-Laurendeau;Ste-Martine (route 138 / chemin de la Rivière des
677713370;"{\"type\":\"LineString\",\"coordinates\":[[-73.7115683,45.3658389],[-73.713018,45.3634711],[-73.7135371,45.3625678]]}";2;Boulevard Saint-Jean-Baptiste;5;50;false;false;true;false;false;false;395.0;2;0;0;0;0;false;78135;6190672385;-73.711689;45.365937;78180;6190671750;-73.713615;45.362695;2;15;16;9360794;Bus 111 : Direction Sainte-Martine;"";EXO;111 O;rue Lapierre / face au Cegep André-Laurendeau;Ste-Martine (route 138 / chemin de la Rivière des
677713370;"{\"type\":\"LineString\",\"coordinates\":[[-73.7115683,45.3658389],[-73.713018,45.3634711],[-73.7135371,45.3625678]]}";1;Boulevard Saint-Jean-Baptiste;5;50;false;false;true;false;false;false;395.0;2;0;0;0;0;false;78180;6190671750;-73.713615;45.362695;78445;6190670991;-73.716335;45.357973;2;16;17;9360794;Bus 111 : Direction Sainte-Martine;"";EXO;111 O;rue Lapierre / face au Cegep André-Laurendeau;Ste-Martine (route 138 / chemin de la Rivière des
462340969;"{\"type\":\"LineString\",\"coordinates\":[[-73.7135371,45.3625678],[-73.7142507,45.3613773],[-73.7143242,45.3612455],[-73.7147433,45.3605702],[-73.7150279,45.3601066],[-73.715174,45.3598686]]}";2;Boulevard Saint-Jean-Baptiste;5;50;false;false;true;false;false;false;327.0;1;0;0;0;0;false;78180;6190671750;-73.713615;45.362695;78445;6190670991;-73.716335;45.357973;0;16;17;9360794;Bus 111 : Direction Sainte-Martine;"";EXO;111 O;rue Lapierre / face au Cegep André-Laurendeau;Ste-Martine (route 138 / chemin de la Rivière des
462340968;"{\"type\":\"LineString\",\"coordinates\":[[-73.715174,45.3598686],[-73.7159491,45.3585979]]}";3;Boulevard Saint-Jean-Baptiste;5;50;false;false;true;false;false;false;154.0;1;0;0;0;0;false;78180;6190671750;-73.713615;45.362695;78445;6190670991;-73.716335;45.357973;0;16;17;9360794;Bus 111 : Direction Sainte-Martine;"";EXO;111 O;rue Lapierre / face au Cegep André-Laurendeau;Ste-Martine (route 138 / chemin de la Rivière des
342545890;"{\"type\":\"LineString\",\"coordinates\":[[-73.7159491,45.3585979],[-73.7169749,45.3568171],[-73.7178048,45.3554453],[-73.7180614,45.355017],[-73.7182579,45.3546948],[-73.7189892,45.3534917],[-73.7191875,45.3531849],[-73.7202808,45.3514631],[-73.7208038,45.3506182],[-73.7215589,45.3493389],[-73.7215898,45.3492865]]}";4;Boulevard Saint-Jean-Baptiste;5;50;false;false;true;false;false;false;1125.0;3;0;0;0;0;false;78180;6190671750;-73.713615;45.362695;78445;6190670991;-73.716335;45.357973;2;16;17;9360794;Bus 111 : Direction Sainte-Martine;"";EXO;111 O;rue Lapierre / face au Cegep André-Laurendeau;Ste-Martine (route 138 / chemin de la Rivière des
342545890;"{\"type\":\"LineString\",\"coordinates\":[[-73.7159491,45.3585979],[-73.7169749,45.3568171],[-73.7178048,45.3554453],[-73.7180614,45.355017],[-73.7182579,45.3546948],[-73.7189892,45.3534917],[-73.7191875,45.3531849],[-73.7202808,45.3514631],[-73.7208038,45.3506182],[-73.7215589,45.3493389],[-73.7215898,45.3492865]]}";1;Boulevard Saint-Jean-Baptiste;5;50;false;false;true;false;false;false;562.5;3;0;0;0;0;false;78088;6190672419;-73.719264;45.353124;79190;6306184888;-73.722244;45.348769;1;19;20;9360794;Bus 111 : Direction Sainte-Martine;"";EXO;111 O;rue Lapierre / face au Cegep André-Laurendeau;Ste-Martine (route 138 / chemin de la Rivière des
678431397;"{\"type\":\"LineString\",\"coordinates\":[[-73.7215898,45.3492865],[-73.7216394,45.3492092]]}";2;Boulevard Saint-Jean-Baptiste;5;50;false;false;true;false;false;false;10.0;0;0;0;0;0;false;78088;6190672419;-73.719264;45.353124;79190;6306184888;-73.722244;45.348769;0;19;20;9360794;Bus 111 : Direction Sainte-Martine;"";EXO;111 O;rue Lapierre / face au Cegep André-Laurendeau;Ste-Martine (route 138 / chemin de la Rivière des
678177378;"{\"type\":\"LineString\",\"coordinates\":[[-73.7227926,45.3472835],[-73.722382,45.3479572],[-73.721704,45.3491023],[-73.7216394,45.3492092]]}";3;Boulevard Saint-Jean-Baptiste;2;50;false;false;true;false;false;false;116.5;1;0;0;0;0;false;78088;6190672419;-73.719264;45.353124;79190;6306184888;-73.722244;45.348769;1;19;20;9360794;Bus 111 : Direction Sainte-Martine;"";EXO;111 O;rue Lapierre / face au Cegep André-Laurendeau;Ste-Martine (route 138 / chemin de la Rivière des
