way_id;shape;index;name;nb_lanes;legal_speed;speed_zone_30;oneway;shares_bike;bike_box;bus_lane;dedicated_bus_lane;length;nb_traffic_signals;nb_crossings;nb_stops;nb_give_ways;nb_lvl_crossings;roundabout;stop_id_orig;node_id_orig;coord_x_orig;coord_y_orig;stop_id_dest;node_id_dest;coord_x_dest;coord_y_dest;nb_neighbouring_ways_bus_stop;ordre_orig;ordre_dest;id_line;line_name;colour;operator;ref;from;to
609027483;"{\"type\":\"LineString\",\"coordinates\":[[-73.5340853,45.5479434],[-73.5338524,45.5478599]]}";1;Boulevard Pie-IX;3;50;false;true;true;false;false;false;21.0;0;0;0;0;0;false;53296;5769014304;-73.534015;45.547862;53259;3969486610;-73.535976;45.547431;1;0;1;5908968;Bus 139 : Pie-IX Nord;"";STM;139-N;"";""
495450422;"{\"type\":\"LineString\",\"coordinates\":[[-73.5338524,45.5478599],[-73.5337689,45.5478191],[-73.5336971,45.5477806],[-73.5336751,45.5477628],[-73.5336522,45.5477407],[-73.5336341,45.5477182],[-73.5336106,45.5476839],[-73.5336053,45.5476618],[-73.5336033,45.5476379],[-73.5336019,45.5476177],[-73.5336034,45.5475989]]}";2;"";1;50;false;true;true;false;false;false;38.0;0;0;0;0;0;false;53296;5769014304;-73.534015;45.547862;53259;3969486610;-73.535976;45.547431;0;0;1;5908968;Bus 139 : Pie-IX Nord;"";STM;139-N;"";""
609027484;"{\"type\":\"LineString\",\"coordinates\":[[-73.5336034,45.5475989],[-73.5339507,45.5469975],[-73.5340082,45.5469058],[-73.5340045,45.5468316]]}";3;Rue Notre-Dame Est;2;60;false;true;true;false;false;false;92.0;0;0;0;0;0;false;53296;5769014304;-73.534015;45.547862;53259;3969486610;-73.535976;45.547431;0;0;1;5908968;Bus 139 : Pie-IX Nord;"";STM;139-N;"";""
393827236;"{\"type\":\"LineString\",\"coordinates\":[[-73.5343159,45.546293],[-73.5341018,45.5466797],[-73.5340045,45.5468316]]}";4;Rue Notre-Dame Est;4;60;false;false;false;false;false;false;65.0;0;0;0;0;0;false;53296;5769014304;-73.534015;45.547862;53259;3969486610;-73.535976;45.547431;0;0;1;5908968;Bus 139 : Pie-IX Nord;"";STM;139-N;"";""
453483742;"{\"type\":\"LineString\",\"coordinates\":[[-73.5343159,45.546293],[-73.5343964,45.5462536],[-73.5344837,45.5461145],[-73.5349055,45.5454317]]}";5;Rue Notre-Dame Est;2;60;false;true;true;false;false;false;108.0;1;0;0;0;0;false;53296;5769014304;-73.534015;45.547862;53259;3969486610;-73.535976;45.547431;0;0;1;5908968;Bus 139 : Pie-IX Nord;"";STM;139-N;"";""
20213161;"{\"type\":\"LineString\",\"coordinates\":[[-73.5349055,45.5454317],[-73.5353634,45.5455718],[-73.5364195,45.5458947],[-73.5369409,45.5460542]]}";6;Avenue Bourbonnière;1;50;false;true;true;false;false;false;174.0;1;0;0;0;0;false;53296;5769014304;-73.534015;45.547862;53259;3969486610;-73.535976;45.547431;0;0;1;5908968;Bus 139 : Pie-IX Nord;"";STM;139-N;"";""
393828185;"{\"type\":\"LineString\",\"coordinates\":[[-73.5369409,45.5460542],[-73.5364846,45.5467639],[-73.5359548,45.5476435],[-73.535518,45.5484032],[-73.5354588,45.5485021]]}";7;Rue Sainte-Catherine Est;1;50;false;false;true;false;false;false;296.0;2;0;0;0;0;false;53296;5769014304;-73.534015;45.547862;53259;3969486610;-73.535976;45.547431;2;0;1;5908968;Bus 139 : Pie-IX Nord;"";STM;139-N;"";""
393828185;"{\"type\":\"LineString\",\"coordinates\":[[-73.5369409,45.5460542],[-73.5364846,45.5467639],[-73.5359548,45.5476435],[-73.535518,45.5484032],[-73.5354588,45.5485021]]}";1;Rue Sainte-Catherine Est;1;50;false;false;true;false;false;false;148.0;2;0;0;0;0;false;53259;3969486610;-73.535976;45.547431;53272;3573226037;-73.536058;45.548751;1;1;2;5908968;Bus 139 : Pie-IX Nord;"";STM;139-N;"";""
453483726;"{\"type\":\"LineString\",\"coordinates\":[[-73.5354588,45.5485021],[-73.5367629,45.548913],[-73.5372414,45.5490638]]}";2;Boulevard Pie-IX;2;50;false;true;true;false;false;false;76.5;2;0;0;0;0;false;53259;3969486610;-73.535976;45.547431;53272;3573226037;-73.536058;45.548751;1;1;2;5908968;Bus 139 : Pie-IX Nord;"";STM;139-N;"";""
451902792;"{\"type\":\"LineString\",\"coordinates\":[[-73.5481574,45.5525701],[-73.5482223,45.5525928]]}";1;Boulevard Pie-IX;2;50;false;true;true;false;false;false;6.0;2;0;0;0;0;false;53085;3569713493;-73.547955;45.552574;61373;5769014303;-73.552248;45.553961;2;7;8;5908968;Bus 139 : Pie-IX Nord;"";STM;139-N;"";""
451899886;"{\"type\":\"LineString\",\"coordinates\":[[-73.5482223,45.5525928],[-73.5482632,45.5526059],[-73.5492959,45.5529376],[-73.5498442,45.5531137],[-73.5511696,45.5535449],[-73.5514973,45.5536515],[-73.551601,45.5536852]]}";2;Boulevard Pie-IX;2;50;false;true;true;false;false;false;291.0;2;1;0;0;0;false;53085;3569713493;-73.547955;45.552574;61373;5769014303;-73.552248;45.553961;0;7;8;5908968;Bus 139 : Pie-IX Nord;"";STM;139-N;"";""
451902789;"{\"type\":\"LineString\",\"coordinates\":[[-73.551601,45.5536852],[-73.5517277,45.5537203]]}";3;Boulevard Pie-IX;2;50;false;true;true;false;false;false;11.0;2;0;0;0;0;false;53085;3569713493;-73.547955;45.552574;61373;5769014303;-73.552248;45.553961;0;7;8;5908968;Bus 139 : Pie-IX Nord;"";STM;139-N;"";""
455030774;"{\"type\":\"LineString\",\"coordinates\":[[-73.5517277,45.5537203],[-73.5518313,45.5537552],[-73.5518445,45.5537596],[-73.5520231,45.5538197]]}";4;Boulevard Pie-IX;3;50;false;true;true;false;false;false;26.0;1;1;0;0;0;false;53085;3569713493;-73.547955;45.552574;61373;5769014303;-73.552248;45.553961;0;7;8;5908968;Bus 139 : Pie-IX Nord;"";STM;139-N;"";""
460492768;"{\"type\":\"LineString\",\"coordinates\":[[-73.5520231,45.5538197],[-73.5528019,45.5540817]]}";5;Boulevard Pie-IX;3;50;false;true;true;false;false;false;68.0;0;0;0;0;0;false;53085;3569713493;-73.547955;45.552574;61373;5769014303;-73.552248;45.553961;2;7;8;5908968;Bus 139 : Pie-IX Nord;"";STM;139-N;"";""
38124950;"{\"type\":\"LineString\",\"coordinates\":[[-73.5544552,45.5546379],[-73.5546289,45.5546929]]}";1;Boulevard Pie-IX;3;50;false;true;true;false;false;false;15.0;2;0;0;0;0;false;52959;5769014302;-73.554254;45.554625;52950;5769014301;-73.555452;45.555014;2;10;11;5908968;Bus 139 : Pie-IX Nord;"";STM;139-N;"";""
451902793;"{\"type\":\"LineString\",\"coordinates\":[[-73.5546289,45.5546929],[-73.5547516,45.5547297],[-73.5547754,45.5547364],[-73.5548936,45.5547697]]}";2;Boulevard Pie-IX;3;50;false;true;true;false;false;false;23.0;1;1;0;0;0;false;52959;5769014302;-73.554254;45.554625;52950;5769014301;-73.555452;45.555014;0;10;11;5908968;Bus 139 : Pie-IX Nord;"";STM;139-N;"";""
108655106;"{\"type\":\"LineString\",\"coordinates\":[[-73.5548936,45.5547697],[-73.5549579,45.5547889],[-73.5567744,45.5553515],[-73.5568588,45.5553778]]}";3;Boulevard Pie-IX;3;50;false;true;true;false;false;false;168.0;0;0;0;0;0;false;52959;5769014302;-73.554254;45.554625;52950;5769014301;-73.555452;45.555014;2;10;11;5908968;Bus 139 : Pie-IX Nord;"";STM;139-N;"";""
108655106;"{\"type\":\"LineString\",\"coordinates\":[[-73.5548936,45.5547697],[-73.5549579,45.5547889],[-73.5567744,45.5553515],[-73.5568588,45.5553778]]}";1;Boulevard Pie-IX;3;50;false;true;true;false;false;false;84.0;0;0;0;0;0;false;52950;5769014301;-73.555452;45.555014;52831;5062182827;-73.558636;45.556003;1;11;12;5908968;Bus 139 : Pie-IX Nord;"";STM;139-N;"";""
433811814;"{\"type\":\"LineString\",\"coordinates\":[[-73.5568588,45.5553778],[-73.5577331,45.5556689]]}";2;Boulevard Pie-IX;3;50;false;true;true;false;false;false;76.0;0;0;0;0;0;false;52950;5769014301;-73.555452;45.555014;52831;5062182827;-73.558636;45.556003;0;11;12;5908968;Bus 139 : Pie-IX Nord;"";STM;139-N;"";""
460513231;"{\"type\":\"LineString\",\"coordinates\":[[-73.5577331,45.5556689],[-73.5579137,45.5557404],[-73.5588365,45.5560359]]}";3;Boulevard Pie-IX;2;50;false;true;true;false;false;false;48.0;1;0;0;0;0;false;52950;5769014301;-73.555452;45.555014;52831;5062182827;-73.558636;45.556003;1;11;12;5908968;Bus 139 : Pie-IX Nord;"";STM;139-N;"";""
460513231;"{\"type\":\"LineString\",\"coordinates\":[[-73.5577331,45.5556689],[-73.5579137,45.5557404],[-73.5588365,45.5560359]]}";1;Boulevard Pie-IX;2;50;false;true;true;false;false;false;96.0;1;0;0;0;0;false;52831;5062182827;-73.558636;45.556003;52702;5062178522;-73.562429;45.557213;2;12;13;5908968;Bus 139 : Pie-IX Nord;"";STM;139-N;"";""
460513234;"{\"type\":\"LineString\",\"coordinates\":[[-73.5588365,45.5560359],[-73.5593758,45.5562044]]}";2;Boulevard Pie-IX;3;50;false;true;true;false;false;false;47.0;1;0;0;0;0;false;52831;5062182827;-73.558636;45.556003;52702;5062178522;-73.562429;45.557213;0;12;13;5908968;Bus 139 : Pie-IX Nord;"";STM;139-N;"";""
433811815;"{\"type\":\"LineString\",\"coordinates\":[[-73.5593758,45.5562044],[-73.5597749,45.556331],[-73.5599747,45.556379]]}";3;Boulevard Pie-IX;2;50;false;true;true;false;false;false;51.0;0;0;0;0;0;false;52831;5062182827;-73.558636;45.556003;52702;5062178522;-73.562429;45.557213;0;12;13;5908968;Bus 139 : Pie-IX Nord;"";STM;139-N;"";""
783158388;"{\"type\":\"LineString\",\"coordinates\":[[-73.5599747,45.556379],[-73.562637,45.5572184]]}";4;Boulevard Pie-IX;3;50;false;true;true;false;false;false;228.0;1;0;0;0;0;false;52831;5062182827;-73.558636;45.556003;52702;5062178522;-73.562429;45.557213;2;12;13;5908968;Bus 139 : Pie-IX Nord;"";STM;139-N;"";""
783158388;"{\"type\":\"LineString\",\"coordinates\":[[-73.5599747,45.556379],[-73.562637,45.5572184]]}";1;Boulevard Pie-IX;3;50;false;true;true;false;false;false;228.0;1;0;0;0;0;false;52702;5062178522;-73.562429;45.557213;52594;5062162722;-73.565356;45.558149;2;13;14;5908968;Bus 139 : Pie-IX Nord;"";STM;139-N;"";""
330153486;"{\"type\":\"LineString\",\"coordinates\":[[-73.562637,45.5572184],[-73.5627595,45.5572554]]}";2;Boulevard Pie-IX;3;50;false;true;true;false;false;false;11.0;2;0;0;0;0;false;52702;5062178522;-73.562429;45.557213;52594;5062162722;-73.565356;45.558149;0;13;14;5908968;Bus 139 : Pie-IX Nord;"";STM;139-N;"";""
433811812;"{\"type\":\"LineString\",\"coordinates\":[[-73.5627595,45.5572554],[-73.5644545,45.5578155]]}";3;Boulevard Pie-IX;3;50;false;true;true;false;false;false;147.0;1;0;0;0;0;false;52702;5062178522;-73.562429;45.557213;52594;5062162722;-73.565356;45.558149;0;13;14;5908968;Bus 139 : Pie-IX Nord;"";STM;139-N;"";""
783158384;"{\"type\":\"LineString\",\"coordinates\":[[-73.5644545,45.5578155],[-73.5647799,45.5579355],[-73.5655644,45.5581822]]}";4;Boulevard Pie-IX;2;50;false;true;true;false;false;false;96.0;0;0;0;0;0;false;52702;5062178522;-73.562429;45.557213;52594;5062162722;-73.565356;45.558149;2;13;14;5908968;Bus 139 : Pie-IX Nord;"";STM;139-N;"";""
783158384;"{\"type\":\"LineString\",\"coordinates\":[[-73.5644545,45.5578155],[-73.5647799,45.5579355],[-73.5655644,45.5581822]]}";1;Boulevard Pie-IX;2;50;false;true;true;false;false;false;96.0;0;0;0;0;0;false;52594;5062162722;-73.565356;45.558149;52495;5769014300;-73.56825;45.559079;2;14;15;5908968;Bus 139 : Pie-IX Nord;"";STM;139-N;"";""
433810295;"{\"type\":\"LineString\",\"coordinates\":[[-73.5655644,45.5581822],[-73.5664936,45.5584775],[-73.5667045,45.5585254]]}";2;Boulevard Pie-IX;2;50;false;true;true;false;false;false;97.0;0;0;0;0;0;false;52594;5062162722;-73.565356;45.558149;52495;5769014300;-73.56825;45.559079;0;14;15;5908968;Bus 139 : Pie-IX Nord;"";STM;139-N;"";""
460563639;"{\"type\":\"LineString\",\"coordinates\":[[-73.5667045,45.5585254],[-73.5684331,45.5590851]]}";3;Boulevard Pie-IX;3;50;false;true;true;false;false;false;149.0;1;0;0;0;0;false;52594;5062162722;-73.565356;45.558149;52495;5769014300;-73.56825;45.559079;2;14;15;5908968;Bus 139 : Pie-IX Nord;"";STM;139-N;"";""
460563639;"{\"type\":\"LineString\",\"coordinates\":[[-73.5667045,45.5585254],[-73.5684331,45.5590851]]}";1;Boulevard Pie-IX;3;50;false;true;true;false;false;false;149.0;1;0;0;0;0;false;52495;5769014300;-73.56825;45.559079;52401;5769014299;-73.570979;45.559962;2;15;16;5908968;Bus 139 : Pie-IX Nord;"";STM;139-N;"";""
433810294;"{\"type\":\"LineString\",\"coordinates\":[[-73.5684331,45.5590851],[-73.5698041,45.559534]]}";2;Boulevard Pie-IX;3;50;false;true;true;false;false;false;119.0;1;0;0;0;0;false;52495;5769014300;-73.56825;45.559079;52401;5769014299;-73.570979;45.559962;0;15;16;5908968;Bus 139 : Pie-IX Nord;"";STM;139-N;"";""
460561646;"{\"type\":\"LineString\",\"coordinates\":[[-73.5698041,45.559534],[-73.5711457,45.559966]]}";3;Boulevard Pie-IX;3;50;false;true;true;false;false;false;116.0;1;0;0;0;0;false;52495;5769014300;-73.56825;45.559079;52401;5769014299;-73.570979;45.559962;2;15;16;5908968;Bus 139 : Pie-IX Nord;"";STM;139-N;"";""
460561646;"{\"type\":\"LineString\",\"coordinates\":[[-73.5698041,45.559534],[-73.5711457,45.559966]]}";1;Boulevard Pie-IX;3;50;false;true;true;false;false;false;116.0;1;0;0;0;0;false;52401;5769014299;-73.570979;45.559962;52309;301302042;-73.573511;45.560785;2;16;17;5908968;Bus 139 : Pie-IX Nord;"";STM;139-N;"";""
452044713;"{\"type\":\"LineString\",\"coordinates\":[[-73.5711457,45.559966],[-73.5723639,45.560361]]}";2;Boulevard Pie-IX;3;50;false;true;true;false;false;false;105.0;1;0;0;0;0;false;52401;5769014299;-73.570979;45.559962;52309;301302042;-73.573511;45.560785;0;16;17;5908968;Bus 139 : Pie-IX Nord;"";STM;139-N;"";""
460561645;"{\"type\":\"LineString\",\"coordinates\":[[-73.5723639,45.560361],[-73.5731012,45.560623]]}";3;Boulevard Pie-IX;2;50;false;true;true;false;false;false;65.0;0;0;0;0;0;false;52401;5769014299;-73.570979;45.559962;52309;301302042;-73.573511;45.560785;0;16;17;5908968;Bus 139 : Pie-IX Nord;"";STM;139-N;"";""
452044728;"{\"type\":\"LineString\",\"coordinates\":[[-73.5731012,45.560623],[-73.5736902,45.56082]]}";4;Boulevard Pie-IX;2;50;false;true;true;false;false;false;51.0;1;0;0;0;0;false;52401;5769014299;-73.570979;45.559962;52309;301302042;-73.573511;45.560785;2;16;17;5908968;Bus 139 : Pie-IX Nord;"";STM;139-N;"";""
452044728;"{\"type\":\"LineString\",\"coordinates\":[[-73.5731012,45.560623],[-73.5736902,45.56082]]}";1;Boulevard Pie-IX;2;50;false;true;true;false;false;false;51.0;1;0;0;0;0;false;52309;301302042;-73.573511;45.560785;52241;5769014298;-73.575715;45.56147;2;17;18;5908968;Bus 139 : Pie-IX Nord;"";STM;139-N;"";""
452044711;"{\"type\":\"LineString\",\"coordinates\":[[-73.5736902,45.56082],[-73.5738348,45.5608617]]}";2;Boulevard Pie-IX;2;50;false;true;true;false;false;false;13.0;2;0;0;0;0;false;52309;301302042;-73.573511;45.560785;52241;5769014298;-73.575715;45.56147;0;17;18;5908968;Bus 139 : Pie-IX Nord;"";STM;139-N;"";""
452044717;"{\"type\":\"LineString\",\"coordinates\":[[-73.5738348,45.5608617],[-73.5747327,45.5611401],[-73.5749984,45.5612008]]}";3;Boulevard Pie-IX;2;50;false;true;true;false;false;false;99.0;1;0;0;0;0;false;52309;301302042;-73.573511;45.560785;52241;5769014298;-73.575715;45.56147;0;17;18;5908968;Bus 139 : Pie-IX Nord;"";STM;139-N;"";""
783158373;"{\"type\":\"LineString\",\"coordinates\":[[-73.5749984,45.5612008],[-73.5759071,45.5614722]]}";4;Boulevard Pie-IX;3;50;false;true;true;false;false;false;78.0;1;0;0;0;0;false;52309;301302042;-73.573511;45.560785;52241;5769014298;-73.575715;45.56147;2;17;18;5908968;Bus 139 : Pie-IX Nord;"";STM;139-N;"";""
783158373;"{\"type\":\"LineString\",\"coordinates\":[[-73.5749984,45.5612008],[-73.5759071,45.5614722]]}";1;Boulevard Pie-IX;3;50;false;true;true;false;false;false;78.0;1;0;0;0;0;false;52241;5769014298;-73.575715;45.56147;52126;5769014297;-73.579444;45.562626;2;18;19;5908968;Bus 139 : Pie-IX Nord;"";STM;139-N;"";""
452044750;"{\"type\":\"LineString\",\"coordinates\":[[-73.5759071,45.5614722],[-73.5781065,45.562162]]}";2;Boulevard Pie-IX;3;50;false;true;true;false;false;false;188.0;1;0;0;0;0;false;52241;5769014298;-73.575715;45.56147;52126;5769014297;-73.579444;45.562626;0;18;19;5908968;Bus 139 : Pie-IX Nord;"";STM;139-N;"";""
783158367;"{\"type\":\"LineString\",\"coordinates\":[[-73.5781065,45.562162],[-73.5786415,45.5623466],[-73.5791799,45.5625107],[-73.5795206,45.5626146],[-73.5796366,45.5626506]]}";3;Boulevard Pie-IX;2;50;false;true;true;false;false;false;132.0;1;1;0;0;0;false;52241;5769014298;-73.575715;45.56147;52126;5769014297;-73.579444;45.562626;2;18;19;5908968;Bus 139 : Pie-IX Nord;"";STM;139-N;"";""
783158367;"{\"type\":\"LineString\",\"coordinates\":[[-73.5781065,45.562162],[-73.5786415,45.5623466],[-73.5791799,45.5625107],[-73.5795206,45.5626146],[-73.5796366,45.5626506]]}";1;Boulevard Pie-IX;2;50;false;true;true;false;false;false;132.0;1;1;0;0;0;false;52126;5769014297;-73.579444;45.562626;52014;281870486;-73.583211;45.563793;2;19;20;5908968;Bus 139 : Pie-IX Nord;"";STM;139-N;"";""
452044754;"{\"type\":\"LineString\",\"coordinates\":[[-73.5796366,45.5626506],[-73.5798225,45.5627084],[-73.5801154,45.5627985],[-73.5805836,45.5629449],[-73.5808957,45.5630246]]}";2;Boulevard Pie-IX;2;50;false;true;true;false;false;false;107.0;1;1;0;0;0;false;52126;5769014297;-73.579444;45.562626;52014;281870486;-73.583211;45.563793;0;19;20;5908968;Bus 139 : Pie-IX Nord;"";STM;139-N;"";""
783158370;"{\"type\":\"LineString\",\"coordinates\":[[-73.5808957,45.5630246],[-73.5834428,45.563832]]}";3;Boulevard Pie-IX;3;50;false;true;true;false;false;false;218.0;1;0;0;0;0;false;52126;5769014297;-73.579444;45.562626;52014;281870486;-73.583211;45.563793;2;19;20;5908968;Bus 139 : Pie-IX Nord;"";STM;139-N;"";""
783158370;"{\"type\":\"LineString\",\"coordinates\":[[-73.5808957,45.5630246],[-73.5834428,45.563832]]}";1;Boulevard Pie-IX;3;50;false;true;true;false;false;false;218.0;1;0;0;0;0;false;52014;281870486;-73.583211;45.563793;51910;281870490;-73.58708;45.564991;2;20;21;5908968;Bus 139 : Pie-IX Nord;"";STM;139-N;"";""
452044715;"{\"type\":\"LineString\",\"coordinates\":[[-73.5834428,45.563832],[-73.5860734,45.5646261]]}";2;Boulevard Pie-IX;3;50;false;true;true;false;false;false;224.0;1;0;0;0;0;false;52014;281870486;-73.583211;45.563793;51910;281870490;-73.58708;45.564991;0;20;21;5908968;Bus 139 : Pie-IX Nord;"";STM;139-N;"";""
783158361;"{\"type\":\"LineString\",\"coordinates\":[[-73.5860734,45.5646261],[-73.5864361,45.5647552],[-73.5873094,45.565025]]}";3;Boulevard Pie-IX;2;50;false;true;true;false;false;false;107.0;1;0;0;0;0;false;52014;281870486;-73.583211;45.563793;51910;281870490;-73.58708;45.564991;2;20;21;5908968;Bus 139 : Pie-IX Nord;"";STM;139-N;"";""
783158361;"{\"type\":\"LineString\",\"coordinates\":[[-73.5860734,45.5646261],[-73.5864361,45.5647552],[-73.5873094,45.565025]]}";1;Boulevard Pie-IX;2;50;false;true;true;false;false;false;107.0;1;0;0;0;0;false;51910;281870490;-73.58708;45.564991;51866;281870506;-73.588355;45.565394;2;21;22;5908968;Bus 139 : Pie-IX Nord;"";STM;139-N;"";""
452044721;"{\"type\":\"LineString\",\"coordinates\":[[-73.5873094,45.565025],[-73.5881173,45.56528],[-73.5883236,45.5653397],[-73.5885774,45.5654079]]}";2;Boulevard Pie-IX;2;50;false;true;true;false;false;false;108.0;2;0;0;0;0;false;51910;281870490;-73.58708;45.564991;51866;281870506;-73.588355;45.565394;2;21;22;5908968;Bus 139 : Pie-IX Nord;"";STM;139-N;"";""
452044721;"{\"type\":\"LineString\",\"coordinates\":[[-73.5873094,45.565025],[-73.5881173,45.56528],[-73.5883236,45.5653397],[-73.5885774,45.5654079]]}";1;Boulevard Pie-IX;2;50;false;true;true;false;false;false;108.0;2;0;0;0;0;false;51866;281870506;-73.588355;45.565394;51791;281870509;-73.591106;45.566561;2;22;23;5908968;Bus 139 : Pie-IX Nord;"";STM;139-N;"";""
330153485;"{\"type\":\"LineString\",\"coordinates\":[[-73.5885774,45.5654079],[-73.5890579,45.5655905],[-73.5903535,45.5661421],[-73.5913219,45.5665836]]}";2;Boulevard Pie-IX;3;50;false;true;true;false;false;false;251.0;2;0;0;0;0;false;51866;281870506;-73.588355;45.565394;51791;281870509;-73.591106;45.566561;2;22;23;5908968;Bus 139 : Pie-IX Nord;"";STM;139-N;"";""
460559950;"{\"type\":\"LineString\",\"coordinates\":[[-73.5913219,45.5665836],[-73.5920159,45.5668897]]}";1;Boulevard Pie-IX;3;50;false;true;true;false;false;false;64.0;1;0;0;0;0;false;51791;281870509;-73.591106;45.566561;51735;5769014296;-73.593696;45.567686;2;23;24;5908968;Bus 139 : Pie-IX Nord;"";STM;139-N;"";""
452044734;"{\"type\":\"LineString\",\"coordinates\":[[-73.5920159,45.5668897],[-73.5937794,45.5676677],[-73.5938761,45.5677093]]}";2;Boulevard Pie-IX;3;50;false;true;true;false;false;false;172.0;1;1;0;0;0;false;51791;281870509;-73.591106;45.566561;51735;5769014296;-73.593696;45.567686;2;23;24;5908968;Bus 139 : Pie-IX Nord;"";STM;139-N;"";""
452044734;"{\"type\":\"LineString\",\"coordinates\":[[-73.5920159,45.5668897],[-73.5937794,45.5676677],[-73.5938761,45.5677093]]}";1;Boulevard Pie-IX;3;50;false;true;true;false;false;false;172.0;1;1;0;0;0;false;51735;5769014296;-73.593696;45.567686;51656;291487940;-73.5967;45.569015;2;24;25;5908968;Bus 139 : Pie-IX Nord;"";STM;139-N;"";""
452044737;"{\"type\":\"LineString\",\"coordinates\":[[-73.5938761,45.5677093],[-73.5939575,45.5677435],[-73.5954427,45.5683951]]}";2;Boulevard Pie-IX;3;50;false;true;true;false;false;false;144.0;1;1;0;0;0;false;51735;5769014296;-73.593696;45.567686;51656;291487940;-73.5967;45.569015;0;24;25;5908968;Bus 139 : Pie-IX Nord;"";STM;139-N;"";""
460556049;"{\"type\":\"LineString\",\"coordinates\":[[-73.5954427,45.5683951],[-73.5968524,45.5690306]]}";3;Boulevard Pie-IX;3;50;false;true;true;false;false;false;131.0;1;0;0;0;0;false;51735;5769014296;-73.593696;45.567686;51656;291487940;-73.5967;45.569015;2;24;25;5908968;Bus 139 : Pie-IX Nord;"";STM;139-N;"";""
460556049;"{\"type\":\"LineString\",\"coordinates\":[[-73.5954427,45.5683951],[-73.5968524,45.5690306]]}";1;Boulevard Pie-IX;3;50;false;true;true;false;false;false;131.0;1;0;0;0;0;false;51656;291487940;-73.5967;45.569015;51529;4591421647;-73.602366;45.57153;2;25;26;5908968;Bus 139 : Pie-IX Nord;"";STM;139-N;"";""
118255255;"{\"type\":\"LineString\",\"coordinates\":[[-73.5968524,45.5690306],[-73.597613,45.5693741],[-73.59786,45.5695175],[-73.5983206,45.5697759],[-73.5987171,45.5699434],[-73.6002265,45.5706039],[-73.6012911,45.5710907],[-73.6016052,45.5712125]]}";2;Boulevard Pie-IX;3;50;false;true;true;false;false;false;444.0;1;0;0;0;0;false;51656;291487940;-73.5967;45.569015;51529;4591421647;-73.602366;45.57153;0;25;26;5908968;Bus 139 : Pie-IX Nord;"";STM;139-N;"";""
781905225;"{\"type\":\"LineString\",\"coordinates\":[[-73.6016052,45.5712125],[-73.6020188,45.5713735]]}";3;Boulevard Pie-IX;2;50;false;true;true;false;false;false;37.0;0;0;0;0;0;false;51656;291487940;-73.5967;45.569015;51529;4591421647;-73.602366;45.57153;0;25;26;5908968;Bus 139 : Pie-IX Nord;"";STM;139-N;"";""
452044724;"{\"type\":\"LineString\",\"coordinates\":[[-73.6020188,45.5713735],[-73.6023507,45.571508],[-73.6025895,45.5716065]]}";4;Boulevard Pie-IX;2;50;false;true;true;false;false;false;52.0;1;0;0;0;0;false;51656;291487940;-73.5967;45.569015;51529;4591421647;-73.602366;45.57153;2;25;26;5908968;Bus 139 : Pie-IX Nord;"";STM;139-N;"";""
452044724;"{\"type\":\"LineString\",\"coordinates\":[[-73.6020188,45.5713735],[-73.6023507,45.571508],[-73.6025895,45.5716065]]}";1;Boulevard Pie-IX;2;50;false;true;true;false;false;false;52.0;1;0;0;0;0;false;51529;4591421647;-73.602366;45.57153;51479;4591446001;-73.60509;45.572723;2;26;27;5908968;Bus 139 : Pie-IX Nord;"";STM;139-N;"";""
452044718;"{\"type\":\"LineString\",\"coordinates\":[[-73.6025895,45.5716065],[-73.6035168,45.5720098],[-73.6036756,45.5720527]]}";2;Boulevard Pie-IX;2;50;false;true;true;false;false;false;99.0;1;0;0;0;0;false;51529;4591421647;-73.602366;45.57153;51479;4591446001;-73.60509;45.572723;0;26;27;5908968;Bus 139 : Pie-IX Nord;"";STM;139-N;"";""
781905221;"{\"type\":\"LineString\",\"coordinates\":[[-73.6036756,45.5720527],[-73.6038505,45.5721268]]}";3;Boulevard Pie-IX;3;50;false;true;true;false;false;false;16.0;1;0;0;0;0;false;51529;4591421647;-73.602366;45.57153;51479;4591446001;-73.60509;45.572723;0;26;27;5908968;Bus 139 : Pie-IX Nord;"";STM;139-N;"";""
433227645;"{\"type\":\"LineString\",\"coordinates\":[[-73.6038505,45.5721268],[-73.6052805,45.5727586]]}";4;Boulevard Pie-IX;3;50;false;true;true;false;false;false;132.0;2;0;0;0;0;false;51529;4591421647;-73.602366;45.57153;51479;4591446001;-73.60509;45.572723;2;26;27;5908968;Bus 139 : Pie-IX Nord;"";STM;139-N;"";""
433227645;"{\"type\":\"LineString\",\"coordinates\":[[-73.6038505,45.5721268],[-73.6052805,45.5727586]]}";1;Boulevard Pie-IX;3;50;false;true;true;false;false;false;132.0;2;0;0;0;0;false;51479;4591446001;-73.60509;45.572723;51424;4591446015;-73.60778;45.573909;2;27;28;5908968;Bus 139 : Pie-IX Nord;"";STM;139-N;"";""
433225233;"{\"type\":\"LineString\",\"coordinates\":[[-73.6052805,45.5727586],[-73.6079546,45.5739572],[-73.6094687,45.5746011]]}";2;Boulevard Pie-IX;3;50;false;true;true;false;false;false;386.0;2;0;0;0;0;false;51479;4591446001;-73.60509;45.572723;51424;4591446015;-73.60778;45.573909;2;27;28;5908968;Bus 139 : Pie-IX Nord;"";STM;139-N;"";""
433225233;"{\"type\":\"LineString\",\"coordinates\":[[-73.6052805,45.5727586],[-73.6079546,45.5739572],[-73.6094687,45.5746011]]}";1;Boulevard Pie-IX;3;50;false;true;true;false;false;false;193.0;2;0;0;0;0;false;51424;4591446015;-73.60778;45.573909;51366;5769014295;-73.610496;45.575107;1;28;29;5908968;Bus 139 : Pie-IX Nord;"";STM;139-N;"";""
461148633;"{\"type\":\"LineString\",\"coordinates\":[[-73.6094687,45.5746011],[-73.6097587,45.5747629],[-73.6106272,45.575151]]}";2;Boulevard Pie-IX;2;50;false;true;true;false;false;false;55.0;1;0;0;0;0;false;51424;4591446015;-73.60778;45.573909;51366;5769014295;-73.610496;45.575107;1;28;29;5908968;Bus 139 : Pie-IX Nord;"";STM;139-N;"";""
461148633;"{\"type\":\"LineString\",\"coordinates\":[[-73.6094687,45.5746011],[-73.6097587,45.5747629],[-73.6106272,45.575151]]}";1;Boulevard Pie-IX;2;50;false;true;true;false;false;false;110.0;1;0;0;0;0;false;51366;5769014295;-73.610496;45.575107;51298;4591471362;-73.613762;45.576543;2;29;30;5908968;Bus 139 : Pie-IX Nord;"";STM;139-N;"";""
461148632;"{\"type\":\"LineString\",\"coordinates\":[[-73.6106272,45.575151],[-73.611605,45.5755759],[-73.6118651,45.5756669]]}";2;Boulevard Pie-IX;2;50;false;true;true;false;false;false;113.0;1;0;0;0;0;false;51366;5769014295;-73.610496;45.575107;51298;4591471362;-73.613762;45.576543;0;29;30;5908968;Bus 139 : Pie-IX Nord;"";STM;139-N;"";""
461145027;"{\"type\":\"LineString\",\"coordinates\":[[-73.6118651,45.5756669],[-73.6129444,45.5761427]]}";3;Boulevard Pie-IX;3;50;false;true;true;false;false;false;100.0;0;0;0;0;0;false;51366;5769014295;-73.610496;45.575107;51298;4591471362;-73.613762;45.576543;0;29;30;5908968;Bus 139 : Pie-IX Nord;"";STM;139-N;"";""
449692294;"{\"type\":\"LineString\",\"coordinates\":[[-73.6129444,45.5761427],[-73.614016,45.5766198]]}";4;Boulevard Pie-IX;3;50;false;true;true;false;false;false;99.0;1;0;0;0;0;false;51366;5769014295;-73.610496;45.575107;51298;4591471362;-73.613762;45.576543;2;29;30;5908968;Bus 139 : Pie-IX Nord;"";STM;139-N;"";""
449692294;"{\"type\":\"LineString\",\"coordinates\":[[-73.6129444,45.5761427],[-73.614016,45.5766198]]}";1;Boulevard Pie-IX;3;50;false;true;true;false;false;false;49.5;1;0;0;0;0;false;51298;4591471362;-73.613762;45.576543;51245;4591472574;-73.616598;45.577796;1;30;31;5908968;Bus 139 : Pie-IX Nord;"";STM;139-N;"";""
433223684;"{\"type\":\"LineString\",\"coordinates\":[[-73.614016,45.5766198],[-73.6150049,45.5770519]]}";2;Boulevard Pie-IX;3;50;false;true;true;false;false;false;91.0;1;0;0;0;0;false;51298;4591471362;-73.613762;45.576543;51245;4591472574;-73.616598;45.577796;0;30;31;5908968;Bus 139 : Pie-IX Nord;"";STM;139-N;"";""
781874154;"{\"type\":\"LineString\",\"coordinates\":[[-73.6150049,45.5770519],[-73.6152261,45.5771778],[-73.6160596,45.5775429]]}";3;Boulevard Pie-IX;2;50;false;true;true;false;false;false;99.0;0;0;0;0;0;false;51298;4591471362;-73.613762;45.576543;51245;4591472574;-73.616598;45.577796;0;30;31;5908968;Bus 139 : Pie-IX Nord;"";STM;139-N;"";""
461141854;"{\"type\":\"LineString\",\"coordinates\":[[-73.6160596,45.5775429],[-73.6167264,45.577841]]}";4;Boulevard Pie-IX;2;50;false;true;true;false;false;false;31.0;1;0;0;0;0;false;51298;4591471362;-73.613762;45.576543;51245;4591472574;-73.616598;45.577796;1;30;31;5908968;Bus 139 : Pie-IX Nord;"";STM;139-N;"";""
461141854;"{\"type\":\"LineString\",\"coordinates\":[[-73.6160596,45.5775429],[-73.6167264,45.577841]]}";1;Boulevard Pie-IX;2;50;false;true;true;false;false;false;62.0;1;0;0;0;0;false;51245;4591472574;-73.616598;45.577796;51184;3573264994;-73.619269;45.578972;2;31;32;5908968;Bus 139 : Pie-IX Nord;"";STM;139-N;"";""
461141849;"{\"type\":\"LineString\",\"coordinates\":[[-73.6167264,45.577841],[-73.6174177,45.5781262],[-73.6179736,45.5783556]]}";2;Boulevard Pie-IX;2;50;false;true;true;false;false;false;113.0;1;0;0;0;0;false;51245;4591472574;-73.616598;45.577796;51184;3573264994;-73.619269;45.578972;0;31;32;5908968;Bus 139 : Pie-IX Nord;"";STM;139-N;"";""
433222898;"{\"type\":\"LineString\",\"coordinates\":[[-73.6179736,45.5783556],[-73.6180976,45.5784101],[-73.6187498,45.5786969]]}";3;Boulevard Pie-IX;3;50;false;true;true;false;false;false;72.0;1;0;0;0;0;false;51245;4591472574;-73.616598;45.577796;51184;3573264994;-73.619269;45.578972;0;31;32;5908968;Bus 139 : Pie-IX Nord;"";STM;139-N;"";""
433222697;"{\"type\":\"LineString\",\"coordinates\":[[-73.6187498,45.5786969],[-73.6194509,45.5790154]]}";4;Boulevard Pie-IX;3;50;false;true;true;false;false;false;66.0;1;0;0;0;0;false;51245;4591472574;-73.616598;45.577796;51184;3573264994;-73.619269;45.578972;2;31;32;5908968;Bus 139 : Pie-IX Nord;"";STM;139-N;"";""
433222697;"{\"type\":\"LineString\",\"coordinates\":[[-73.6187498,45.5786969],[-73.6194509,45.5790154]]}";1;Boulevard Pie-IX;3;50;false;true;true;false;false;false;66.0;1;0;0;0;0;false;51184;3573264994;-73.619269;45.578972;54238;3573264494;-73.620624;45.57957;2;32;33;5908968;Bus 139 : Pie-IX Nord;"";STM;139-N;"";""
461112045;"{\"type\":\"LineString\",\"coordinates\":[[-73.6194509,45.5790154],[-73.6200917,45.5792989]]}";2;Boulevard Pie-IX;3;50;false;true;true;false;false;false;60.0;1;0;0;0;0;false;51184;3573264994;-73.619269;45.578972;54238;3573264494;-73.620624;45.57957;0;32;33;5908968;Bus 139 : Pie-IX Nord;"";STM;139-N;"";""
433221271;"{\"type\":\"LineString\",\"coordinates\":[[-73.6200917,45.5792989],[-73.6207723,45.5795987],[-73.6208157,45.5796178]]}";3;Boulevard Pie-IX;3;50;false;true;true;false;false;false;67.0;1;0;0;0;0;false;51184;3573264994;-73.619269;45.578972;54238;3573264494;-73.620624;45.57957;2;32;33;5908968;Bus 139 : Pie-IX Nord;"";STM;139-N;"";""
433221271;"{\"type\":\"LineString\",\"coordinates\":[[-73.6200917,45.5792989],[-73.6207723,45.5795987],[-73.6208157,45.5796178]]}";1;Boulevard Pie-IX;3;50;false;true;true;false;false;false;67.0;1;0;0;0;0;false;54238;3573264494;-73.620624;45.57957;51100;3573264293;-73.622653;45.580461;2;33;34;5908968;Bus 139 : Pie-IX Nord;"";STM;139-N;"";""
433220827;"{\"type\":\"LineString\",\"coordinates\":[[-73.6208157,45.5796178],[-73.6209658,45.5797034],[-73.621446,45.5799074],[-73.6221454,45.5802046]]}";2;Boulevard Pie-IX;2;50;false;true;true;false;false;false;123.0;1;0;0;0;0;false;54238;3573264494;-73.620624;45.57957;51100;3573264293;-73.622653;45.580461;0;33;34;5908968;Bus 139 : Pie-IX Nord;"";STM;139-N;"";""
433219326;"{\"type\":\"LineString\",\"coordinates\":[[-73.6221454,45.5802046],[-73.6227785,45.5804994]]}";3;Boulevard Pie-IX;2;50;false;true;true;false;false;false;60.0;1;0;0;0;0;false;54238;3573264494;-73.620624;45.57957;51100;3573264293;-73.622653;45.580461;2;33;34;5908968;Bus 139 : Pie-IX Nord;"";STM;139-N;"";""
433219326;"{\"type\":\"LineString\",\"coordinates\":[[-73.6221454,45.5802046],[-73.6227785,45.5804994]]}";1;Boulevard Pie-IX;2;50;false;true;true;false;false;false;60.0;1;0;0;0;0;false;51100;3573264293;-73.622653;45.580461;51037;5769014294;-73.626075;45.581982;2;34;35;5908968;Bus 139 : Pie-IX Nord;"";STM;139-N;"";""
433219168;"{\"type\":\"LineString\",\"coordinates\":[[-73.6227785,45.5804994],[-73.6231953,45.5806791],[-73.6236135,45.5808453],[-73.6248345,45.5813834]]}";2;Boulevard Pie-IX;3;50;false;true;true;false;false;false;189.0;0;0;0;0;0;false;51100;3573264293;-73.622653;45.580461;51037;5769014294;-73.626075;45.581982;0;34;35;5908968;Bus 139 : Pie-IX Nord;"";STM;139-N;"";""
452688925;"{\"type\":\"LineString\",\"coordinates\":[[-73.6248345,45.5813834],[-73.6255126,45.5816805]]}";3;Boulevard Pie-IX;3;50;false;true;true;false;false;false;63.0;1;0;0;0;0;false;51100;3573264293;-73.622653;45.580461;51037;5769014294;-73.626075;45.581982;0;34;35;5908968;Bus 139 : Pie-IX Nord;"";STM;139-N;"";""
433805255;"{\"type\":\"LineString\",\"coordinates\":[[-73.6255126,45.5816805],[-73.6261882,45.5819845]]}";4;Boulevard Pie-IX;3;50;false;true;true;false;false;false;63.0;1;0;0;0;0;false;51100;3573264293;-73.622653;45.580461;51037;5769014294;-73.626075;45.581982;2;34;35;5908968;Bus 139 : Pie-IX Nord;"";STM;139-N;"";""
433805255;"{\"type\":\"LineString\",\"coordinates\":[[-73.6255126,45.5816805],[-73.6261882,45.5819845]]}";1;Boulevard Pie-IX;3;50;false;true;true;false;false;false;63.0;1;0;0;0;0;false;51037;5769014294;-73.626075;45.581982;54189;5769014293;-73.627868;45.582758;2;35;36;5908968;Bus 139 : Pie-IX Nord;"";STM;139-N;"";""
461095236;"{\"type\":\"LineString\",\"coordinates\":[[-73.6261882,45.5819845],[-73.6268609,45.5822757]]}";2;Boulevard Pie-IX;3;50;false;true;true;false;false;false;62.0;0;0;0;0;0;false;51037;5769014294;-73.626075;45.581982;54189;5769014293;-73.627868;45.582758;0;35;36;5908968;Bus 139 : Pie-IX Nord;"";STM;139-N;"";""
433219030;"{\"type\":\"LineString\",\"coordinates\":[[-73.6268609,45.5822757],[-73.6274078,45.5825015]]}";3;Boulevard Pie-IX;3;50;false;true;true;false;false;false;50.0;0;0;0;0;0;false;51037;5769014294;-73.626075;45.581982;54189;5769014293;-73.627868;45.582758;0;35;36;5908968;Bus 139 : Pie-IX Nord;"";STM;139-N;"";""
783084330;"{\"type\":\"LineString\",\"coordinates\":[[-73.6274078,45.5825015],[-73.6274988,45.5825667]]}";4;Boulevard Pie-IX;2;50;false;true;true;false;false;false;11.0;0;0;0;0;0;false;51037;5769014294;-73.626075;45.581982;54189;5769014293;-73.627868;45.582758;0;35;36;5908968;Bus 139 : Pie-IX Nord;"";STM;139-N;"";""
496846952;"{\"type\":\"LineString\",\"coordinates\":[[-73.6274988,45.5825667],[-73.6277175,45.5826636],[-73.6281535,45.5828567]]}";5;Boulevard Pie-IX;2;50;false;true;true;false;false;false;61.0;1;0;0;0;0;false;51037;5769014294;-73.626075;45.581982;54189;5769014293;-73.627868;45.582758;2;35;36;5908968;Bus 139 : Pie-IX Nord;"";STM;139-N;"";""
496846952;"{\"type\":\"LineString\",\"coordinates\":[[-73.6274988,45.5825667],[-73.6277175,45.5826636],[-73.6281535,45.5828567]]}";1;Boulevard Pie-IX;2;50;false;true;true;false;false;false;30.5;1;0;0;0;0;false;54189;5769014293;-73.627868;45.582758;55181;4465752575;-73.630296;45.584414;1;36;37;5908968;Bus 139 : Pie-IX Nord;"";STM;139-N;"";""
434335538;"{\"type\":\"LineString\",\"coordinates\":[[-73.6281535,45.5828567],[-73.628535,45.5830369],[-73.6288252,45.5831672]]}";2;Boulevard Pie-IX;2;50;false;true;true;false;false;false;63.0;1;0;0;0;0;false;54189;5769014293;-73.627868;45.582758;55181;4465752575;-73.630296;45.584414;0;36;37;5908968;Bus 139 : Pie-IX Nord;"";STM;139-N;"";""
433805259;"{\"type\":\"LineString\",\"coordinates\":[[-73.6288252,45.5831672],[-73.6291736,45.5833415],[-73.6292731,45.5834122]]}";3;Boulevard Pie-IX;2;50;false;true;true;false;false;false;45.0;0;0;0;0;0;false;54189;5769014293;-73.627868;45.582758;55181;4465752575;-73.630296;45.584414;0;36;37;5908968;Bus 139 : Pie-IX Nord;"";STM;139-N;"";""
783084331;"{\"type\":\"LineString\",\"coordinates\":[[-73.6292731,45.5834122],[-73.6293624,45.5834756],[-73.629594,45.5836681],[-73.6298703,45.5839398]]}";4;Boulevard Pie-IX;3;50;false;true;true;false;false;false;75.0;0;0;0;0;0;false;54189;5769014293;-73.627868;45.582758;55181;4465752575;-73.630296;45.584414;0;36;37;5908968;Bus 139 : Pie-IX Nord;"";STM;139-N;"";""
433805256;"{\"type\":\"LineString\",\"coordinates\":[[-73.6298703,45.5839398],[-73.631175,45.5851847]]}";5;Boulevard Pie-IX;3;50;false;true;true;false;false;false;86.0;1;0;0;0;0;false;54189;5769014293;-73.627868;45.582758;55181;4465752575;-73.630296;45.584414;1;36;37;5908968;Bus 139 : Pie-IX Nord;"";STM;139-N;"";""
433805256;"{\"type\":\"LineString\",\"coordinates\":[[-73.6298703,45.5839398],[-73.631175,45.5851847]]}";1;Boulevard Pie-IX;3;50;false;true;true;false;false;false;86.0;1;0;0;0;0;false;55181;4465752575;-73.630296;45.584414;55157;4465752713;-73.631509;45.585562;1;37;38;5908968;Bus 139 : Pie-IX Nord;"";STM;139-N;"";""
453284495;"{\"type\":\"LineString\",\"coordinates\":[[-73.631175,45.5851847],[-73.6316549,45.5856514]]}";2;Boulevard Pie-IX;3;50;false;true;true;false;false;false;32.0;2;0;0;0;0;false;55181;4465752575;-73.630296;45.584414;55157;4465752713;-73.631509;45.585562;1;37;38;5908968;Bus 139 : Pie-IX Nord;"";STM;139-N;"";""
433019760;"{\"type\":\"LineString\",\"coordinates\":[[-73.6316549,45.5856514],[-73.6321464,45.5861]]}";1;Boulevard Pie-IX;3;50;false;true;true;false;false;false;63.0;1;0;0;0;0;false;55157;4465752713;-73.631509;45.585562;55132;5769014292;-73.633304;45.587254;2;38;39;5908968;Bus 139 : Pie-IX Nord;"";STM;139-N;"";""
453286558;"{\"type\":\"LineString\",\"coordinates\":[[-73.6321464,45.5861],[-73.6324827,45.586415]]}";2;Boulevard Pie-IX;3;50;false;true;true;false;false;false;44.0;1;0;0;0;0;false;55157;4465752713;-73.631509;45.585562;55132;5769014292;-73.633304;45.587254;0;38;39;5908968;Bus 139 : Pie-IX Nord;"";STM;139-N;"";""
433019580;"{\"type\":\"LineString\",\"coordinates\":[[-73.6324827,45.586415],[-73.6326024,45.5865659],[-73.6330709,45.5870138],[-73.6333538,45.5872858],[-73.6335704,45.5874381]]}";3;Boulevard Pie-IX;2;50;false;true;true;false;false;false;143.0;2;0;0;0;0;false;55157;4465752713;-73.631509;45.585562;55132;5769014292;-73.633304;45.587254;2;38;39;5908968;Bus 139 : Pie-IX Nord;"";STM;139-N;"";""
433019580;"{\"type\":\"LineString\",\"coordinates\":[[-73.6324827,45.586415],[-73.6326024,45.5865659],[-73.6330709,45.5870138],[-73.6333538,45.5872858],[-73.6335704,45.5874381]]}";1;Boulevard Pie-IX;2;50;false;true;true;false;false;false;71.5;2;0;0;0;0;false;55132;5769014292;-73.633304;45.587254;55112;5769014291;-73.635257;45.589102;1;39;40;5908968;Bus 139 : Pie-IX Nord;"";STM;139-N;"";""
433802842;"{\"type\":\"LineString\",\"coordinates\":[[-73.6335704,45.5874381],[-73.6344932,45.5883264]]}";2;Boulevard Pie-IX;3;50;false;true;true;false;false;false;123.0;2;0;0;0;0;false;55132;5769014292;-73.633304;45.587254;55112;5769014291;-73.635257;45.589102;0;39;40;5908968;Bus 139 : Pie-IX Nord;"";STM;139-N;"";""
637091829;"{\"type\":\"LineString\",\"coordinates\":[[-73.6344932,45.5883264],[-73.6349422,45.5887626]]}";3;Boulevard Pie-IX;3;50;false;true;true;false;false;false;60.0;1;0;0;0;0;false;55132;5769014292;-73.633304;45.587254;55112;5769014291;-73.635257;45.589102;0;39;40;5908968;Bus 139 : Pie-IX Nord;"";STM;139-N;"";""
459551273;"{\"type\":\"LineString\",\"coordinates\":[[-73.6349422,45.5887626],[-73.6354112,45.589205],[-73.6359208,45.5896695]]}";4;Boulevard Pie-IX;3;50;false;true;true;false;false;false;63.5;1;0;0;0;0;false;55132;5769014292;-73.633304;45.587254;55112;5769014291;-73.635257;45.589102;1;39;40;5908968;Bus 139 : Pie-IX Nord;"";STM;139-N;"";""
459551273;"{\"type\":\"LineString\",\"coordinates\":[[-73.6349422,45.5887626],[-73.6354112,45.589205],[-73.6359208,45.5896695]]}";1;Boulevard Pie-IX;3;50;false;true;true;false;false;false;63.5;1;0;0;0;0;false;55112;5769014291;-73.635257;45.589102;55096;5769014290;-73.637189;45.590932;1;40;41;5908968;Bus 139 : Pie-IX Nord;"";STM;139-N;"";""
474364781;"{\"type\":\"LineString\",\"coordinates\":[[-73.6359208,45.5896695],[-73.6364747,45.5901845],[-73.6365049,45.5902196]]}";2;Boulevard Pie-IX;3;50;false;true;true;false;false;false;77.0;0;0;0;0;0;false;55112;5769014291;-73.635257;45.589102;55096;5769014290;-73.637189;45.590932;0;40;41;5908968;Bus 139 : Pie-IX Nord;"";STM;139-N;"";""
460016640;"{\"type\":\"LineString\",\"coordinates\":[[-73.6365049,45.5902196],[-73.6366,45.5903301],[-73.6373393,45.5910127]]}";3;Boulevard Pie-IX;2;50;false;true;true;false;false;false;55.0;1;0;0;0;0;false;55112;5769014291;-73.635257;45.589102;55096;5769014290;-73.637189;45.590932;1;40;41;5908968;Bus 139 : Pie-IX Nord;"";STM;139-N;"";""
471488916;"{\"type\":\"LineString\",\"coordinates\":[[-73.6373393,45.5910127],[-73.6379636,45.5915978],[-73.6381244,45.5917231]]}";1;Boulevard Pie-IX;2;50;false;true;true;false;false;false;100.0;1;0;0;0;0;false;55096;5769014290;-73.637189;45.590932;55084;5769014289;-73.639002;45.592644;2;41;42;5908968;Bus 139 : Pie-IX Nord;"";STM;139-N;"";""
783084315;"{\"type\":\"LineString\",\"coordinates\":[[-73.6381244,45.5917231],[-73.6385729,45.5921439]]}";2;Boulevard Pie-IX;3;50;false;true;true;false;false;false;59.0;1;0;0;0;0;false;55096;5769014290;-73.637189;45.590932;55084;5769014289;-73.639002;45.592644;0;41;42;5908968;Bus 139 : Pie-IX Nord;"";STM;139-N;"";""
460016639;"{\"type\":\"LineString\",\"coordinates\":[[-73.6385729,45.5921439],[-73.6392433,45.59278]]}";3;Boulevard Pie-IX;3;50;false;true;true;false;false;false;88.0;2;0;0;0;0;false;55096;5769014290;-73.637189;45.590932;55084;5769014289;-73.639002;45.592644;2;41;42;5908968;Bus 139 : Pie-IX Nord;"";STM;139-N;"";""
460016639;"{\"type\":\"LineString\",\"coordinates\":[[-73.6385729,45.5921439],[-73.6392433,45.59278]]}";1;Boulevard Pie-IX;3;50;false;true;true;false;false;false;44.0;2;0;0;0;0;false;55084;5769014289;-73.639002;45.592644;61543;5769014288;-73.640957;45.594527;1;42;43;5908968;Bus 139 : Pie-IX Nord;"";STM;139-N;"";""
459551272;"{\"type\":\"LineString\",\"coordinates\":[[-73.6392433,45.59278],[-73.6402677,45.5937634]]}";2;Boulevard Pie-IX;3;50;false;true;true;false;false;false;136.0;1;0;0;0;0;false;55084;5769014289;-73.639002;45.592644;61543;5769014288;-73.640957;45.594527;0;42;43;5908968;Bus 139 : Pie-IX Nord;"";STM;139-N;"";""
783084310;"{\"type\":\"LineString\",\"coordinates\":[[-73.6402677,45.5937634],[-73.6403883,45.5939036],[-73.6408055,45.5943038]]}";3;Boulevard Pie-IX;2;50;false;true;true;false;false;false;74.0;0;0;0;0;0;false;55084;5769014289;-73.639002;45.592644;61543;5769014288;-73.640957;45.594527;0;42;43;5908968;Bus 139 : Pie-IX Nord;"";STM;139-N;"";""
433013959;"{\"type\":\"LineString\",\"coordinates\":[[-73.6408055,45.5943038],[-73.64099,45.5944748],[-73.6411402,45.5946128],[-73.6412273,45.594691]]}";4;Boulevard Pie-IX;2;50;false;true;true;false;false;false;27.5;1;0;0;0;0;false;55084;5769014289;-73.639002;45.592644;61543;5769014288;-73.640957;45.594527;1;42;43;5908968;Bus 139 : Pie-IX Nord;"";STM;139-N;"";""
433013959;"{\"type\":\"LineString\",\"coordinates\":[[-73.6408055,45.5943038],[-73.64099,45.5944748],[-73.6411402,45.5946128],[-73.6412273,45.594691]]}";1;Boulevard Pie-IX;2;50;false;true;true;false;false;false;27.5;1;0;0;0;0;false;61543;5769014288;-73.640957;45.594527;61544;5769014287;-73.6429566;45.5965822;1;43;44;5908968;Bus 139 : Pie-IX Nord;"";STM;139-N;"";""
781818705;"{\"type\":\"LineString\",\"coordinates\":[[-73.6412273,45.594691],[-73.6413365,45.5947889],[-73.6423278,45.5957512],[-73.6423344,45.595759],[-73.6424251,45.595848]]}";2;Boulevard Pie-IX;3;50;false;true;true;false;false;false;159.0;1;0;0;0;0;false;61543;5769014288;-73.640957;45.594527;61544;5769014287;-73.6429566;45.5965822;0;43;44;5908968;Bus 139 : Pie-IX Nord;"";STM;139-N;"";""
650719073;"{\"type\":\"LineString\",\"coordinates\":[[-73.6424251,45.595848],[-73.642585,45.5959991]]}";3;Boulevard Pie-IX;3;50;false;true;true;false;false;false;21.0;2;0;0;0;0;false;61543;5769014288;-73.640957;45.594527;61544;5769014287;-73.6429566;45.5965822;0;43;44;5908968;Bus 139 : Pie-IX Nord;"";STM;139-N;"";""
326316597;"{\"type\":\"LineString\",\"coordinates\":[[-73.642585,45.5959991],[-73.6427166,45.5961144]]}";4;Boulevard Pie-IX;3;50;false;true;false;false;false;false;8.5;1;0;0;0;0;false;61543;5769014288;-73.640957;45.594527;61544;5769014287;-73.6429566;45.5965822;1;43;44;5908968;Bus 139 : Pie-IX Nord;"";STM;139-N;"";""
