way_id;shape;index;name;nb_lanes;legal_speed;speed_zone_30;oneway;shares_bike;bike_box;bus_lane;dedicated_bus_lane;length;nb_traffic_signals;nb_crossings;nb_stops;nb_give_ways;nb_lvl_crossings;roundabout;stop_id_orig;node_id_orig;coord_x_orig;coord_y_orig;stop_id_dest;node_id_dest;coord_x_dest;coord_y_dest;nb_neighbouring_ways_bus_stop;ordre_orig;ordre_dest;id_line;line_name;colour;operator;ref;from;to
233446227;"{\"type\":\"LineString\",\"coordinates\":[[-73.7659065,45.6257936],[-73.7659636,45.6258374],[-73.7660316,45.6258688],[-73.7661131,45.6258859],[-73.7661811,45.6258792],[-73.7668398,45.6256794]]}";1;"";1;50;false;true;true;false;false;false;81.0;0;0;0;0;0;false;"46330;49063";6219942215;-73.76582;45.625801;42895;6269507605;-73.77142;45.624649;1;0;1;9312746;Bus : 63 S - Direction Métro Cartier;"";STL;63S;Gare Sainte-Rose;Métro Cartier Quai:2
673264002;"{\"type\":\"LineString\",\"coordinates\":[[-73.767057,45.6259343],[-73.7668398,45.6256794]]}";2;"";1;50;false;false;true;false;false;false;33.0;0;0;0;0;0;false;"46330;49063";6219942215;-73.76582;45.625801;42895;6269507605;-73.77142;45.624649;0;0;1;9312746;Bus : 63 S - Direction Métro Cartier;"";STL;63S;Gare Sainte-Rose;Métro Cartier Quai:2
45289895;"{\"type\":\"LineString\",\"coordinates\":[[-73.7754153,45.6237441],[-73.7753045,45.6237622],[-73.774985,45.6238109],[-73.7747332,45.6238493],[-73.7743284,45.6239111],[-73.7737998,45.6239978],[-73.7732648,45.6240856],[-73.772866,45.6241701],[-73.7722445,45.6243455],[-73.7714635,45.6245698],[-73.7703596,45.6249104],[-73.7697405,45.625107],[-73.7695794,45.6251581],[-73.7693165,45.6252399],[-73.7679537,45.6256642],[-73.767057,45.6259343]]}";3;Boulevard Sainte-Rose Est;2;50;false;false;false;false;false;false;349.0;0;0;0;0;0;false;"46330;49063";6219942215;-73.76582;45.625801;42895;6269507605;-73.77142;45.624649;1;0;1;9312746;Bus : 63 S - Direction Métro Cartier;"";STL;63S;Gare Sainte-Rose;Métro Cartier Quai:2
45289895;"{\"type\":\"LineString\",\"coordinates\":[[-73.7754153,45.6237441],[-73.7753045,45.6237622],[-73.774985,45.6238109],[-73.7747332,45.6238493],[-73.7743284,45.6239111],[-73.7737998,45.6239978],[-73.7732648,45.6240856],[-73.772866,45.6241701],[-73.7722445,45.6243455],[-73.7714635,45.6245698],[-73.7703596,45.6249104],[-73.7697405,45.625107],[-73.7695794,45.6251581],[-73.7693165,45.6252399],[-73.7679537,45.6256642],[-73.767057,45.6259343]]}";1;Boulevard Sainte-Rose Est;2;50;false;false;false;false;false;false;349.0;0;0;0;0;0;false;42894;6269507613;-73.77415;45.623977;42891;6269507627;-73.77688;45.623223;1;2;3;9312746;Bus : 63 S - Direction Métro Cartier;"";STL;63S;Gare Sainte-Rose;Métro Cartier Quai:2
50954633;"{\"type\":\"LineString\",\"coordinates\":[[-73.7764692,45.6233455],[-73.7763815,45.6233851],[-73.7761611,45.6234926],[-73.7758347,45.6236145],[-73.7754153,45.6237441]]}";2;Boulevard Sainte-Rose;2;50;false;false;false;false;false;false;94.0;0;0;0;0;0;false;42894;6269507613;-73.77415;45.623977;42891;6269507627;-73.77688;45.623223;0;2;3;9312746;Bus : 63 S - Direction Métro Cartier;"";STL;63S;Gare Sainte-Rose;Métro Cartier Quai:2
686625322;"{\"type\":\"LineString\",\"coordinates\":[[-73.7799208,45.6195081],[-73.7791092,45.6206056],[-73.7784988,45.6217753],[-73.7781236,45.6223447],[-73.7778562,45.6226052],[-73.7776665,45.6227348],[-73.7775552,45.6228108],[-73.7775123,45.6228401],[-73.7770884,45.6230575],[-73.7769398,45.6231308],[-73.7764692,45.6233455]]}";3;Boulevard Sainte-Rose;2;50;false;false;true;false;false;false;259.0;0;0;0;0;0;false;42894;6269507613;-73.77415;45.623977;42891;6269507627;-73.77688;45.623223;1;2;3;9312746;Bus : 63 S - Direction Métro Cartier;"";STL;63S;Gare Sainte-Rose;Métro Cartier Quai:2
686625322;"{\"type\":\"LineString\",\"coordinates\":[[-73.7799208,45.6195081],[-73.7791092,45.6206056],[-73.7784988,45.6217753],[-73.7781236,45.6223447],[-73.7778562,45.6226052],[-73.7776665,45.6227348],[-73.7775552,45.6228108],[-73.7775123,45.6228401],[-73.7770884,45.6230575],[-73.7769398,45.6231308],[-73.7764692,45.6233455]]}";1;Boulevard Sainte-Rose;2;50;false;false;true;false;false;false;259.0;0;0;0;0;0;false;42887;6269507670;-73.77984;45.619708;43009;6269507684;-73.78115;45.618466;1;5;6;9312746;Bus : 63 S - Direction Métro Cartier;"";STL;63S;Gare Sainte-Rose;Métro Cartier Quai:2
673264006;"{\"type\":\"LineString\",\"coordinates\":[[-73.7827799,45.6166246],[-73.7824948,45.6168599],[-73.7822804,45.617076],[-73.7820704,45.6173717],[-73.781859,45.617657],[-73.7815741,45.6179874],[-73.7812727,45.6182978],[-73.7804729,45.618917],[-73.7802481,45.6191288],[-73.7800607,45.619342],[-73.7799208,45.6195081]]}";2;Boulevard Sainte-Rose;2;50;false;false;true;false;false;false;196.0;0;0;0;0;0;false;42887;6269507670;-73.77984;45.619708;43009;6269507684;-73.78115;45.618466;1;5;6;9312746;Bus : 63 S - Direction Métro Cartier;"";STL;63S;Gare Sainte-Rose;Métro Cartier Quai:2
164608795;"{\"type\":\"LineString\",\"coordinates\":[[-73.7810424,45.6102887],[-73.781199,45.6109159],[-73.7813261,45.6114253],[-73.7814291,45.6118383],[-73.781451,45.6119212],[-73.7817403,45.6129698],[-73.7820788,45.6141893],[-73.7822597,45.6148409],[-73.7823206,45.6150602],[-73.7826897,45.6163173],[-73.7827799,45.6166246]]}";1;Rue des Patriotes;1;50;false;false;true;false;false;false;358.5;0;0;0;0;0;false;42577;6269507793;-73.78156;45.612009;42575;6269507835;-73.78098;45.609707;1;9;10;9312746;Bus : 63 S - Direction Métro Cartier;"";STL;63S;Gare Sainte-Rose;Métro Cartier Quai:2
45762829;"{\"type\":\"LineString\",\"coordinates\":[[-73.780189,45.6070669],[-73.7803613,45.6077174],[-73.7806771,45.6089098],[-73.7808541,45.6095779],[-73.7808757,45.6096594],[-73.7810424,45.6102887]]}";2;Rue des Patriotes;2;50;false;false;true;false;false;false;182.0;0;0;0;0;0;false;42577;6269507793;-73.78156;45.612009;42575;6269507835;-73.78098;45.609707;1;9;10;9312746;Bus : 63 S - Direction Métro Cartier;"";STL;63S;Gare Sainte-Rose;Métro Cartier Quai:2
45762829;"{\"type\":\"LineString\",\"coordinates\":[[-73.780189,45.6070669],[-73.7803613,45.6077174],[-73.7806771,45.6089098],[-73.7808541,45.6095779],[-73.7808757,45.6096594],[-73.7810424,45.6102887]]}";1;Rue des Patriotes;2;50;false;false;true;false;false;false;182.0;0;0;0;0;0;false;42573;6269507879;-73.78036;45.607369;46166;6269507908;-73.78262;45.606068;1;11;12;9312746;Bus : 63 S - Direction Métro Cartier;"";STL;63S;Gare Sainte-Rose;Métro Cartier Quai:2
45762812;"{\"type\":\"LineString\",\"coordinates\":[[-73.780189,45.6070669],[-73.7805939,45.6070096],[-73.7821713,45.6067862],[-73.7826717,45.6067153]]}";2;Boulevard Marc-Aurèle-Fortin;1;50;false;true;true;false;false;false;198.0;0;0;0;0;0;false;42573;6269507879;-73.78036;45.607369;46166;6269507908;-73.78262;45.606068;0;11;12;9312746;Bus : 63 S - Direction Métro Cartier;"";STL;63S;Gare Sainte-Rose;Métro Cartier Quai:2
45762810;"{\"type\":\"LineString\",\"coordinates\":[[-73.7826478,45.606634],[-73.7826717,45.6067153]]}";3;Boulevard Marc-Aurèle-Fortin;2;50;false;false;true;false;false;false;10.0;0;0;0;0;0;false;42573;6269507879;-73.78036;45.607369;46166;6269507908;-73.78262;45.606068;0;11;12;9312746;Bus : 63 S - Direction Métro Cartier;"";STL;63S;Gare Sainte-Rose;Métro Cartier Quai:2
343271683;"{\"type\":\"LineString\",\"coordinates\":[[-73.7825285,45.6061936],[-73.7825535,45.6062859],[-73.7826478,45.606634]]}";4;Rue Arthur-Buies;2;50;false;false;true;false;false;false;50.0;0;0;0;0;0;false;42573;6269507879;-73.78036;45.607369;46166;6269507908;-73.78262;45.606068;0;11;12;9312746;Bus : 63 S - Direction Métro Cartier;"";STL;63S;Gare Sainte-Rose;Métro Cartier Quai:2
45762723;"{\"type\":\"LineString\",\"coordinates\":[[-73.7816654,45.6040313],[-73.7817926,45.6040776],[-73.7819814,45.6042417],[-73.7819929,45.6042613],[-73.7820556,45.6043685],[-73.7821265,45.6046483],[-73.7821856,45.6048754],[-73.7823076,45.6053445],[-73.7824705,45.6059707],[-73.7824833,45.60602],[-73.7825285,45.6061936]]}";5;Rue Arthur-Buies;2;50;false;false;false;false;false;false;128.0;0;0;0;0;0;false;42573;6269507879;-73.78036;45.607369;46166;6269507908;-73.78262;45.606068;1;11;12;9312746;Bus : 63 S - Direction Métro Cartier;"";STL;63S;Gare Sainte-Rose;Métro Cartier Quai:2
343271683;"{\"type\":\"LineString\",\"coordinates\":[[-73.7825285,45.6061936],[-73.7825535,45.6062859],[-73.7826478,45.606634]]}";1;Rue Arthur-Buies;2;50;false;false;true;false;false;false;50.0;0;0;0;0;0;false;46166;6269507908;-73.78262;45.606068;46167;6269507948;-73.78212;45.604294;2;12;13;9312746;Bus : 63 S - Direction Métro Cartier;"";STL;63S;Gare Sainte-Rose;Métro Cartier Quai:2
45762723;"{\"type\":\"LineString\",\"coordinates\":[[-73.7816654,45.6040313],[-73.7817926,45.6040776],[-73.7819814,45.6042417],[-73.7819929,45.6042613],[-73.7820556,45.6043685],[-73.7821265,45.6046483],[-73.7821856,45.6048754],[-73.7823076,45.6053445],[-73.7824705,45.6059707],[-73.7824833,45.60602],[-73.7825285,45.6061936]]}";2;Rue Arthur-Buies;2;50;false;false;false;false;false;false;256.0;0;0;0;0;0;false;46166;6269507908;-73.78262;45.606068;46167;6269507948;-73.78212;45.604294;2;12;13;9312746;Bus : 63 S - Direction Métro Cartier;"";STL;63S;Gare Sainte-Rose;Métro Cartier Quai:2
45762723;"{\"type\":\"LineString\",\"coordinates\":[[-73.7816654,45.6040313],[-73.7817926,45.6040776],[-73.7819814,45.6042417],[-73.7819929,45.6042613],[-73.7820556,45.6043685],[-73.7821265,45.6046483],[-73.7821856,45.6048754],[-73.7823076,45.6053445],[-73.7824705,45.6059707],[-73.7824833,45.60602],[-73.7825285,45.6061936]]}";1;Rue Arthur-Buies;2;50;false;false;false;false;false;false;128.0;0;0;0;0;0;false;46167;6269507948;-73.78212;45.604294;46168;6269507980;-73.78151;45.601967;1;13;14;9312746;Bus : 63 S - Direction Métro Cartier;"";STL;63S;Gare Sainte-Rose;Métro Cartier Quai:2
45762785;"{\"type\":\"LineString\",\"coordinates\":[[-73.7813783,45.6017199],[-73.7816417,45.6026542],[-73.781796,45.6032011],[-73.7818149,45.6032681],[-73.7818224,45.6032949],[-73.7818676,45.6035744],[-73.7816654,45.6040313]]}";2;Rue Honoré-Mercier;2;50;false;false;false;false;false;false;131.5;0;0;0;0;0;false;46167;6269507948;-73.78212;45.604294;46168;6269507980;-73.78151;45.601967;1;13;14;9312746;Bus : 63 S - Direction Métro Cartier;"";STL;63S;Gare Sainte-Rose;Métro Cartier Quai:2
45762785;"{\"type\":\"LineString\",\"coordinates\":[[-73.7813783,45.6017199],[-73.7816417,45.6026542],[-73.781796,45.6032011],[-73.7818149,45.6032681],[-73.7818224,45.6032949],[-73.7818676,45.6035744],[-73.7816654,45.6040313]]}";1;Rue Honoré-Mercier;2;50;false;false;false;false;false;false;131.5;0;0;0;0;0;false;46168;6269507980;-73.78151;45.601967;46169;6269507981;-73.77828;45.601894;1;14;15;9312746;Bus : 63 S - Direction Métro Cartier;"";STL;63S;Gare Sainte-Rose;Métro Cartier Quai:2
93077535;"{\"type\":\"LineString\",\"coordinates\":[[-73.7782251,45.6020105],[-73.779774,45.6016426],[-73.7800858,45.6016028],[-73.7803854,45.6015894],[-73.7806421,45.6015928],[-73.7808911,45.6016184],[-73.7813783,45.6017199]]}";2;Boulevard de la Renaissance;2;50;false;false;false;false;false;false;127.5;0;0;0;0;0;false;46168;6269507980;-73.78151;45.601967;46169;6269507981;-73.77828;45.601894;1;14;15;9312746;Bus : 63 S - Direction Métro Cartier;"";STL;63S;Gare Sainte-Rose;Métro Cartier Quai:2
42934493;"{\"type\":\"LineString\",\"coordinates\":[[-73.7739891,45.6018704],[-73.7740328,45.602026],[-73.7742028,45.6026416],[-73.7742656,45.6028631],[-73.7743268,45.6030635],[-73.7743487,45.6031269],[-73.7743782,45.6031874],[-73.7744171,45.6032413],[-73.7744668,45.603291],[-73.7745338,45.6033431],[-73.7746089,45.6033905],[-73.7746947,45.6034262],[-73.7747863,45.603455],[-73.7749026,45.6034825],[-73.7750266,45.6034923],[-73.77514,45.6034923],[-73.7752499,45.6034801],[-73.775466,45.6034267],[-73.7755725,45.6033985],[-73.7756737,45.6033643],[-73.7757757,45.6033263],[-73.7758576,45.6032887],[-73.7759259,45.603254],[-73.7759909,45.6032123],[-73.7761092,45.6031193],[-73.7762397,45.6030025],[-73.7763758,45.602867],[-73.7766217,45.6026478],[-73.7768526,45.6024795],[-73.7770799,45.6023345],[-73.7772878,45.6022177],[-73.7774711,45.6021318],[-73.7775969,45.6020943],[-73.7777311,45.6020704],[-73.7778597,45.6020624],[-73.7779871,45.6020544],[-73.7781072,45.6020361],[-73.7782251,45.6020105]]}";1;Boulevard de la Renaissance;2;50;false;false;false;false;false;false;262.5;0;0;0;0;0;false;46171;6269507974;-73.77436;45.602686;46172;6269508303;-73.77389;45.601063;1;17;18;9312746;Bus : 63 S - Direction Métro Cartier;"";STL;63S;Gare Sainte-Rose;Métro Cartier Quai:2
46278153;"{\"type\":\"LineString\",\"coordinates\":[[-73.7732252,45.5989377],[-73.7737392,45.6009956],[-73.7739891,45.6018704]]}";2;Boulevard des Rossignols;2;50;false;false;false;false;false;false;166.0;0;0;2;0;0;false;46171;6269507974;-73.77436;45.602686;46172;6269508303;-73.77389;45.601063;1;17;18;9312746;Bus : 63 S - Direction Métro Cartier;"";STL;63S;Gare Sainte-Rose;Métro Cartier Quai:2
46204399;"{\"type\":\"LineString\",\"coordinates\":[[-73.7692178,45.5865055],[-73.7705157,45.5880521],[-73.7705744,45.5881221],[-73.7710492,45.5886878],[-73.7712642,45.5889298],[-73.7713414,45.5891073],[-73.7713728,45.5892435],[-73.7714457,45.5895401],[-73.771479,45.5896611],[-73.7716024,45.5901253],[-73.7716388,45.5902574],[-73.7717938,45.5908387],[-73.7719239,45.5912947],[-73.7721329,45.5920454],[-73.7723529,45.5928343],[-73.7723952,45.5930114],[-73.7724843,45.5934033],[-73.7725279,45.5935913],[-73.7725406,45.5936616],[-73.7725439,45.5936799],[-73.7726165,45.5940518],[-73.7726448,45.5943745],[-73.7726655,45.5948031],[-73.7726757,45.5950212],[-73.772682,45.5953439],[-73.772711,45.5957788],[-73.772748,45.59647],[-73.7728047,45.5972162],[-73.7728729,45.5976066],[-73.7729483,45.5979092],[-73.7732252,45.5989377]]}";1;Boulevard des Rossignols;2;50;false;false;false;false;false;false;719.0;0;0;3;0;0;false;46178;6269508783;-73.76945;45.586608;46179;6269508814;-73.76881;45.585384;1;26;27;9312746;Bus : 63 S - Direction Métro Cartier;"";STL;63S;Gare Sainte-Rose;Métro Cartier Quai:2
111542784;"{\"type\":\"LineString\",\"coordinates\":[[-73.7691115,45.5863741],[-73.7692178,45.5865055]]}";2;Boulevard des Rossignols;4;50;false;false;false;false;false;false;17.0;0;0;0;0;0;false;46178;6269508783;-73.76945;45.586608;46179;6269508814;-73.76881;45.585384;0;26;27;9312746;Bus : 63 S - Direction Métro Cartier;"";STL;63S;Gare Sainte-Rose;Métro Cartier Quai:2
455472236;"{\"type\":\"LineString\",\"coordinates\":[[-73.768829,45.5858131],[-73.768917,45.5860845],[-73.7691115,45.5863741]]}";3;Boulevard des Rossignols;4;50;false;false;true;false;false;false;67.0;0;0;0;0;0;false;46178;6269508783;-73.76945;45.586608;46179;6269508814;-73.76881;45.585384;0;26;27;9312746;Bus : 63 S - Direction Métro Cartier;"";STL;63S;Gare Sainte-Rose;Métro Cartier Quai:2
25193749;"{\"type\":\"LineString\",\"coordinates\":[[-73.7679582,45.5825875],[-73.7682383,45.5836795],[-73.7686211,45.5851722],[-73.768829,45.5858131]]}";4;Boulevard des Rossignols;4;50;false;false;true;false;false;false;182.5;0;0;0;0;0;false;46178;6269508783;-73.76945;45.586608;46179;6269508814;-73.76881;45.585384;1;26;27;9312746;Bus : 63 S - Direction Métro Cartier;"";STL;63S;Gare Sainte-Rose;Métro Cartier Quai:2
25193749;"{\"type\":\"LineString\",\"coordinates\":[[-73.7679582,45.5825875],[-73.7682383,45.5836795],[-73.7686211,45.5851722],[-73.768829,45.5858131]]}";1;Boulevard des Rossignols;4;50;false;false;true;false;false;false;182.5;0;0;0;0;0;false;46179;6269508814;-73.76881;45.585384;46180;6269508857;-73.76717;45.582601;1;27;28;9312746;Bus : 63 S - Direction Métro Cartier;"";STL;63S;Gare Sainte-Rose;Métro Cartier Quai:2
45760849;"{\"type\":\"LineString\",\"coordinates\":[[-73.7679582,45.5825875],[-73.7669491,45.5827299],[-73.7665363,45.5828515],[-73.7662772,45.5829747],[-73.7660428,45.5831432],[-73.765872,45.5833304],[-73.7653943,45.5840723],[-73.7650678,45.5843478],[-73.7648335,45.5845073],[-73.7645742,45.5846395],[-73.7644193,45.5846918],[-73.7637881,45.584829],[-73.7632743,45.5848775],[-73.7623762,45.5849127]]}";2;Rue Michelin;2;50;false;false;true;false;false;false;273.5;0;0;0;0;0;false;46179;6269508814;-73.76881;45.585384;46180;6269508857;-73.76717;45.582601;1;27;28;9312746;Bus : 63 S - Direction Métro Cartier;"";STL;63S;Gare Sainte-Rose;Métro Cartier Quai:2
45760854;"{\"type\":\"LineString\",\"coordinates\":[[-73.7584699,45.5847533],[-73.7579448,45.5847296],[-73.7575982,45.5847529],[-73.7573155,45.5847858],[-73.756787,45.584915],[-73.7558157,45.5853635],[-73.7554988,45.5855273]]}";1;Rue Michelin;2;50;false;false;true;false;false;false;256.0;0;0;0;0;0;false;46183;6269508830;-73.75864;45.584681;46184;6269508808;-73.7554;45.585481;2;31;32;9312746;Bus : 63 S - Direction Métro Cartier;"";STL;63S;Gare Sainte-Rose;Métro Cartier Quai:2
679314261;"{\"type\":\"LineString\",\"coordinates\":[[-73.7535043,45.5866293],[-73.7554988,45.5855273]]}";2;Rue Michelin;2;50;false;false;true;false;false;false;198.0;0;0;0;0;0;false;46183;6269508830;-73.75864;45.584681;46184;6269508808;-73.7554;45.585481;2;31;32;9312746;Bus : 63 S - Direction Métro Cartier;"";STL;63S;Gare Sainte-Rose;Métro Cartier Quai:2
45760854;"{\"type\":\"LineString\",\"coordinates\":[[-73.7584699,45.5847533],[-73.7579448,45.5847296],[-73.7575982,45.5847529],[-73.7573155,45.5847858],[-73.756787,45.584915],[-73.7558157,45.5853635],[-73.7554988,45.5855273]]}";1;Rue Michelin;2;50;false;false;true;false;false;false;256.0;0;0;0;0;0;false;46184;6269508808;-73.7554;45.585481;41961;6269508801;-73.75305;45.586126;2;32;33;9312746;Bus : 63 S - Direction Métro Cartier;"";STL;63S;Gare Sainte-Rose;Métro Cartier Quai:2
679314261;"{\"type\":\"LineString\",\"coordinates\":[[-73.7535043,45.5866293],[-73.7554988,45.5855273]]}";2;Rue Michelin;2;50;false;false;true;false;false;false;198.0;0;0;0;0;0;false;46184;6269508808;-73.7554;45.585481;41961;6269508801;-73.75305;45.586126;0;32;33;9312746;Bus : 63 S - Direction Métro Cartier;"";STL;63S;Gare Sainte-Rose;Métro Cartier Quai:2
679314255;"{\"type\":\"LineString\",\"coordinates\":[[-73.7535043,45.5866293],[-73.7518793,45.5851641],[-73.7501127,45.5836784]]}";3;Boulevard Le Corbusier;1;60;false;true;false;false;false;false;422.0;0;0;0;0;0;false;46184;6269508808;-73.7554;45.585481;41961;6269508801;-73.75305;45.586126;2;32;33;9312746;Bus : 63 S - Direction Métro Cartier;"";STL;63S;Gare Sainte-Rose;Métro Cartier Quai:2
679314255;"{\"type\":\"LineString\",\"coordinates\":[[-73.7535043,45.5866293],[-73.7518793,45.5851641],[-73.7501127,45.5836784]]}";1;Boulevard Le Corbusier;1;60;false;true;false;false;false;false;211.0;0;0;0;0;0;false;41954;6269508825;-73.75163;45.584848;41955;6269508850;-73.74961;45.583068;1;34;35;9312746;Bus : 63 S - Direction Métro Cartier;"";STL;63S;Gare Sainte-Rose;Métro Cartier Quai:2
679314250;"{\"type\":\"LineString\",\"coordinates\":[[-73.7501127,45.5836784],[-73.7480829,45.5816808]]}";2;Boulevard Le Corbusier;1;60;false;true;false;false;false;false;136.5;0;0;0;0;0;false;41954;6269508825;-73.75163;45.584848;41955;6269508850;-73.74961;45.583068;1;34;35;9312746;Bus : 63 S - Direction Métro Cartier;"";STL;63S;Gare Sainte-Rose;Métro Cartier Quai:2
679314250;"{\"type\":\"LineString\",\"coordinates\":[[-73.7501127,45.5836784],[-73.7480829,45.5816808]]}";1;Boulevard Le Corbusier;1;60;false;true;false;false;false;false;136.5;0;0;0;0;0;false;41955;6269508850;-73.74961;45.583068;41949;6269508901;-73.7479;45.581345;1;35;36;9312746;Bus : 63 S - Direction Métro Cartier;"";STL;63S;Gare Sainte-Rose;Métro Cartier Quai:2
679942260;"{\"type\":\"LineString\",\"coordinates\":[[-73.7480829,45.5816808],[-73.7471309,45.5807924]]}";2;Boulevard Le Corbusier;1;60;false;true;false;false;false;false;62.0;0;0;0;0;0;false;41955;6269508850;-73.74961;45.583068;41949;6269508901;-73.7479;45.581345;1;35;36;9312746;Bus : 63 S - Direction Métro Cartier;"";STL;63S;Gare Sainte-Rose;Métro Cartier Quai:2
679942260;"{\"type\":\"LineString\",\"coordinates\":[[-73.7480829,45.5816808],[-73.7471309,45.5807924]]}";1;Boulevard Le Corbusier;1;60;false;true;false;false;false;false;62.0;0;0;0;0;0;false;41949;6269508901;-73.7479;45.581345;41947;6269508966;-73.74357;45.577251;1;36;37;9312746;Bus : 63 S - Direction Métro Cartier;"";STL;63S;Gare Sainte-Rose;Métro Cartier Quai:2
45755880;"{\"type\":\"LineString\",\"coordinates\":[[-73.7471309,45.5807924],[-73.7459796,45.5797248]]}";2;Boulevard Le Corbusier;2;60;false;true;false;false;false;false;149.0;0;0;0;0;0;false;41949;6269508901;-73.7479;45.581345;41947;6269508966;-73.74357;45.577251;0;36;37;9312746;Bus : 63 S - Direction Métro Cartier;"";STL;63S;Gare Sainte-Rose;Métro Cartier Quai:2
38151427;"{\"type\":\"LineString\",\"coordinates\":[[-73.7459796,45.5797248],[-73.7449985,45.5788238]]}";3;Boulevard Le Corbusier;2;60;false;true;false;false;false;false;126.0;0;0;0;0;0;false;41949;6269508901;-73.7479;45.581345;41947;6269508966;-73.74357;45.577251;0;36;37;9312746;Bus : 63 S - Direction Métro Cartier;"";STL;63S;Gare Sainte-Rose;Métro Cartier Quai:2
38151428;"{\"type\":\"LineString\",\"coordinates\":[[-73.7449985,45.5788238],[-73.7439337,45.5778092],[-73.7436452,45.5775034],[-73.7433709,45.5771709],[-73.7432423,45.5769675],[-73.7431323,45.5767333],[-73.7431116,45.5766891],[-73.7429523,45.576237],[-73.7429018,45.5758841],[-73.7427465,45.5747985],[-73.7426652,45.5743716],[-73.7424774,45.5739682]]}";4;Boulevard Le Corbusier;2;60;false;true;false;false;false;false;294.0;1;0;0;0;0;false;41949;6269508901;-73.7479;45.581345;41947;6269508966;-73.74357;45.577251;1;36;37;9312746;Bus : 63 S - Direction Métro Cartier;"";STL;63S;Gare Sainte-Rose;Métro Cartier Quai:2
45755868;"{\"type\":\"LineString\",\"coordinates\":[[-73.7424774,45.5739682],[-73.7422595,45.5735947],[-73.7418491,45.5731007],[-73.7413473,45.5726275]]}";1;Boulevard Le Corbusier;3;60;false;true;false;false;false;false;87.0;0;0;0;0;0;false;46355;6269509292;-73.74166;45.572796;"41018;41932";6269509381;-73.74198;45.572102;1;40;41;9312746;Bus : 63 S - Direction Métro Cartier;"";STL;63S;Gare Sainte-Rose;Métro Cartier Quai:2
455474956;"{\"type\":\"LineString\",\"coordinates\":[[-73.7413473,45.5726275],[-73.7413278,45.5725378],[-73.7413365,45.572458],[-73.7413653,45.5723882]]}";2;"";1;50;false;true;true;false;false;false;28.0;0;0;0;0;0;false;46355;6269509292;-73.74166;45.572796;"41018;41932";6269509381;-73.74198;45.572102;0;40;41;9312746;Bus : 63 S - Direction Métro Cartier;"";STL;63S;Gare Sainte-Rose;Métro Cartier Quai:2
165086150;"{\"type\":\"LineString\",\"coordinates\":[[-73.7413653,45.5723882],[-73.7414679,45.5723304],[-73.7430271,45.5714652],[-73.7435379,45.5712004],[-73.7438052,45.5710788],[-73.7441104,45.5709491],[-73.7444843,45.5708292]]}";3;Boulevard Le Carrefour;1;50;false;true;false;false;false;false;150.0;0;0;0;0;0;false;46355;6269509292;-73.74166;45.572796;"41018;41932";6269509381;-73.74198;45.572102;1;40;41;9312746;Bus : 63 S - Direction Métro Cartier;"";STL;63S;Gare Sainte-Rose;Métro Cartier Quai:2
45755729;"{\"type\":\"LineString\",\"coordinates\":[[-73.7443762,45.5707482],[-73.7438228,45.5709423],[-73.7438005,45.5709526],[-73.7433719,45.5711499],[-73.7431441,45.5712668],[-73.7429955,45.5713431],[-73.7420247,45.571886],[-73.7418024,45.5720154],[-73.7414375,45.5722279],[-73.7413885,45.5722574]]}";1;Boulevard Le Carrefour;2;50;false;true;false;false;false;false;288.0;0;0;0;0;0;false;"41018;41932";6269509381;-73.74198;45.572102;"44161;44163";6269509584;-73.7483;45.568594;2;41;42;9312746;Bus : 63 S - Direction Métro Cartier;"";STL;63S;Gare Sainte-Rose;Métro Cartier Quai:2
45755858;"{\"type\":\"LineString\",\"coordinates\":[[-73.7460729,45.5701116],[-73.7443762,45.5707482]]}";2;Boulevard Le Carrefour;2;50;false;true;false;false;false;false;151.0;0;0;0;0;0;false;"41018;41932";6269509381;-73.74198;45.572102;"44161;44163";6269509584;-73.7483;45.568594;0;41;42;9312746;Bus : 63 S - Direction Métro Cartier;"";STL;63S;Gare Sainte-Rose;Métro Cartier Quai:2
652937897;"{\"type\":\"LineString\",\"coordinates\":[[-73.7480536,45.5693169],[-73.747605,45.5695129],[-73.7471654,45.5696881],[-73.7460729,45.5701116]]}";3;Boulevard Le Carrefour;2;50;false;true;false;false;false;false;178.0;1;0;0;0;0;false;"41018;41932";6269509381;-73.74198;45.572102;"44161;44163";6269509584;-73.7483;45.568594;0;41;42;9312746;Bus : 63 S - Direction Métro Cartier;"";STL;63S;Gare Sainte-Rose;Métro Cartier Quai:2
678350781;"{\"type\":\"LineString\",\"coordinates\":[[-73.7482256,45.5693738],[-73.7480536,45.5693169]]}";4;"";1;50;false;true;false;false;false;false;15.0;2;0;0;0;0;false;"41018;41932";6269509381;-73.74198;45.572102;"44161;44163";6269509584;-73.7483;45.568594;0;41;42;9312746;Bus : 63 S - Direction Métro Cartier;"";STL;63S;Gare Sainte-Rose;Métro Cartier Quai:2
45760900;"{\"type\":\"LineString\",\"coordinates\":[[-73.7480536,45.5693169],[-73.7477738,45.569102],[-73.7477012,45.5690397],[-73.7476345,45.569001],[-73.747466,45.5689034],[-73.7473901,45.5688594],[-73.7472267,45.5687802],[-73.7470932,45.5687155]]}";5;Avenue Terry Fox;2;50;false;false;false;false;false;false;101.0;1;0;0;0;0;false;"41018;41932";6269509381;-73.74198;45.572102;"44161;44163";6269509584;-73.7483;45.568594;0;41;42;9312746;Bus : 63 S - Direction Métro Cartier;"";STL;63S;Gare Sainte-Rose;Métro Cartier Quai:2
662152608;"{\"type\":\"LineString\",\"coordinates\":[[-73.7475508,45.5684635],[-73.7470932,45.5687155]]}";6;"";1;50;false;false;true;false;false;false;46.0;0;0;0;0;0;false;"41018;41932";6269509381;-73.74198;45.572102;"44161;44163";6269509584;-73.7483;45.568594;0;41;42;9312746;Bus : 63 S - Direction Métro Cartier;"";STL;63S;Gare Sainte-Rose;Métro Cartier Quai:2
694409796;"{\"type\":\"LineString\",\"coordinates\":[[-73.7475508,45.5684635],[-73.7478552,45.5687373]]}";7;"";1;50;false;true;true;false;false;false;39.0;0;0;0;0;0;false;"41018;41932";6269509381;-73.74198;45.572102;"44161;44163";6269509584;-73.7483;45.568594;0;41;42;9312746;Bus : 63 S - Direction Métro Cartier;"";STL;63S;Gare Sainte-Rose;Métro Cartier Quai:2
695760828;"{\"type\":\"LineString\",\"coordinates\":[[-73.7478552,45.5687373],[-73.7480061,45.5688715]]}";8;"";1;50;false;true;true;false;false;false;19.0;0;0;0;0;0;false;"41018;41932";6269509381;-73.74198;45.572102;"44161;44163";6269509584;-73.7483;45.568594;0;41;42;9312746;Bus : 63 S - Direction Métro Cartier;"";STL;63S;Gare Sainte-Rose;Métro Cartier Quai:2
292376886;"{\"type\":\"LineString\",\"coordinates\":[[-73.7480061,45.5688715],[-73.7480552,45.5689096],[-73.7481617,45.5689162],[-73.7483174,45.5688443]]}";9;"";1;50;false;true;true;false;false;false;29.0;0;0;0;0;0;false;"41018;41932";6269509381;-73.74198;45.572102;"44161;44163";6269509584;-73.7483;45.568594;0;41;42;9312746;Bus : 63 S - Direction Métro Cartier;"";STL;63S;Gare Sainte-Rose;Métro Cartier Quai:2
678350780;"{\"type\":\"LineString\",\"coordinates\":[[-73.7483174,45.5688443],[-73.7483189,45.5687593],[-73.7481831,45.5686551],[-73.7480275,45.5685377]]}";10;"";1;50;false;true;true;false;false;false;43.0;0;0;0;0;0;false;"41018;41932";6269509381;-73.74198;45.572102;"44161;44163";6269509584;-73.7483;45.568594;2;41;42;9312746;Bus : 63 S - Direction Métro Cartier;"";STL;63S;Gare Sainte-Rose;Métro Cartier Quai:2
678350780;"{\"type\":\"LineString\",\"coordinates\":[[-73.7483174,45.5688443],[-73.7483189,45.5687593],[-73.7481831,45.5686551],[-73.7480275,45.5685377]]}";1;"";1;50;false;true;true;false;false;false;21.5;0;0;0;0;0;false;"44161;44163";6269509584;-73.7483;45.568594;41931;6269509373;-73.74128;45.572194;1;42;43;9312746;Bus : 63 S - Direction Métro Cartier;"";STL;63S;Gare Sainte-Rose;Métro Cartier Quai:2
292376886;"{\"type\":\"LineString\",\"coordinates\":[[-73.7480061,45.5688715],[-73.7480552,45.5689096],[-73.7481617,45.5689162],[-73.7483174,45.5688443]]}";2;"";1;50;false;true;true;false;false;false;29.0;0;0;0;0;0;false;"44161;44163";6269509584;-73.7483;45.568594;41931;6269509373;-73.74128;45.572194;0;42;43;9312746;Bus : 63 S - Direction Métro Cartier;"";STL;63S;Gare Sainte-Rose;Métro Cartier Quai:2
695760828;"{\"type\":\"LineString\",\"coordinates\":[[-73.7478552,45.5687373],[-73.7480061,45.5688715]]}";3;"";1;50;false;true;true;false;false;false;19.0;0;0;0;0;0;false;"44161;44163";6269509584;-73.7483;45.568594;41931;6269509373;-73.74128;45.572194;0;42;43;9312746;Bus : 63 S - Direction Métro Cartier;"";STL;63S;Gare Sainte-Rose;Métro Cartier Quai:2
694409796;"{\"type\":\"LineString\",\"coordinates\":[[-73.7475508,45.5684635],[-73.7478552,45.5687373]]}";4;"";1;50;false;true;true;false;false;false;39.0;0;0;0;0;0;false;"44161;44163";6269509584;-73.7483;45.568594;41931;6269509373;-73.74128;45.572194;0;42;43;9312746;Bus : 63 S - Direction Métro Cartier;"";STL;63S;Gare Sainte-Rose;Métro Cartier Quai:2
662152608;"{\"type\":\"LineString\",\"coordinates\":[[-73.7475508,45.5684635],[-73.7470932,45.5687155]]}";5;"";1;50;false;false;true;false;false;false;46.0;0;0;0;0;0;false;"44161;44163";6269509584;-73.7483;45.568594;41931;6269509373;-73.74128;45.572194;0;42;43;9312746;Bus : 63 S - Direction Métro Cartier;"";STL;63S;Gare Sainte-Rose;Métro Cartier Quai:2
45760900;"{\"type\":\"LineString\",\"coordinates\":[[-73.7480536,45.5693169],[-73.7477738,45.569102],[-73.7477012,45.5690397],[-73.7476345,45.569001],[-73.747466,45.5689034],[-73.7473901,45.5688594],[-73.7472267,45.5687802],[-73.7470932,45.5687155]]}";6;Avenue Terry Fox;2;50;false;false;false;false;false;false;101.0;1;0;0;0;0;false;"44161;44163";6269509584;-73.7483;45.568594;41931;6269509373;-73.74128;45.572194;0;42;43;9312746;Bus : 63 S - Direction Métro Cartier;"";STL;63S;Gare Sainte-Rose;Métro Cartier Quai:2
652937897;"{\"type\":\"LineString\",\"coordinates\":[[-73.7480536,45.5693169],[-73.747605,45.5695129],[-73.7471654,45.5696881],[-73.7460729,45.5701116]]}";7;Boulevard Le Carrefour;2;50;false;true;false;false;false;false;178.0;1;0;0;0;0;false;"44161;44163";6269509584;-73.7483;45.568594;41931;6269509373;-73.74128;45.572194;0;42;43;9312746;Bus : 63 S - Direction Métro Cartier;"";STL;63S;Gare Sainte-Rose;Métro Cartier Quai:2
45755858;"{\"type\":\"LineString\",\"coordinates\":[[-73.7460729,45.5701116],[-73.7443762,45.5707482]]}";8;Boulevard Le Carrefour;2;50;false;true;false;false;false;false;151.0;0;0;0;0;0;false;"44161;44163";6269509584;-73.7483;45.568594;41931;6269509373;-73.74128;45.572194;0;42;43;9312746;Bus : 63 S - Direction Métro Cartier;"";STL;63S;Gare Sainte-Rose;Métro Cartier Quai:2
45755729;"{\"type\":\"LineString\",\"coordinates\":[[-73.7443762,45.5707482],[-73.7438228,45.5709423],[-73.7438005,45.5709526],[-73.7433719,45.5711499],[-73.7431441,45.5712668],[-73.7429955,45.5713431],[-73.7420247,45.571886],[-73.7418024,45.5720154],[-73.7414375,45.5722279],[-73.7413885,45.5722574]]}";9;Boulevard Le Carrefour;2;50;false;true;false;false;false;false;288.0;0;0;0;0;0;false;"44161;44163";6269509584;-73.7483;45.568594;41931;6269509373;-73.74128;45.572194;0;42;43;9312746;Bus : 63 S - Direction Métro Cartier;"";STL;63S;Gare Sainte-Rose;Métro Cartier Quai:2
455474957;"{\"type\":\"LineString\",\"coordinates\":[[-73.7413885,45.5722574],[-73.7412072,45.5722668],[-73.7409074,45.5722348]]}";10;"";1;50;false;true;true;false;false;false;19.0;0;0;0;0;0;false;"44161;44163";6269509584;-73.7483;45.568594;41931;6269509373;-73.74128;45.572194;1;42;43;9312746;Bus : 63 S - Direction Métro Cartier;"";STL;63S;Gare Sainte-Rose;Métro Cartier Quai:2
45755729;"{\"type\":\"LineString\",\"coordinates\":[[-73.7443762,45.5707482],[-73.7438228,45.5709423],[-73.7438005,45.5709526],[-73.7433719,45.5711499],[-73.7431441,45.5712668],[-73.7429955,45.5713431],[-73.7420247,45.571886],[-73.7418024,45.5720154],[-73.7414375,45.5722279],[-73.7413885,45.5722574]]}";1;Boulevard Le Carrefour;2;50;false;true;false;false;false;false;288.0;0;0;0;0;0;false;41931;6269509373;-73.74128;45.572194;41964;6269509532;-73.73876;45.570201;2;43;44;9312746;Bus : 63 S - Direction Métro Cartier;"";STL;63S;Gare Sainte-Rose;Métro Cartier Quai:2
455474957;"{\"type\":\"LineString\",\"coordinates\":[[-73.7413885,45.5722574],[-73.7412072,45.5722668],[-73.7409074,45.5722348]]}";2;"";1;50;false;true;true;false;false;false;38.0;0;0;0;0;0;false;41931;6269509373;-73.74128;45.572194;41964;6269509532;-73.73876;45.570201;0;43;44;9312746;Bus : 63 S - Direction Métro Cartier;"";STL;63S;Gare Sainte-Rose;Métro Cartier Quai:2
455474949;"{\"type\":\"LineString\",\"coordinates\":[[-73.7409074,45.5722348],[-73.7385431,45.5701423]]}";3;Boulevard Le Corbusier;2;60;false;true;false;false;false;false;297.0;1;0;0;0;0;false;41931;6269509373;-73.74128;45.572194;41964;6269509532;-73.73876;45.570201;2;43;44;9312746;Bus : 63 S - Direction Métro Cartier;"";STL;63S;Gare Sainte-Rose;Métro Cartier Quai:2
45755901;"{\"type\":\"LineString\",\"coordinates\":[[-73.7385431,45.5701423],[-73.737953,45.5695957],[-73.7364192,45.5682736],[-73.7359495,45.5679546]]}";1;Boulevard Le Corbusier;2;60;false;true;false;false;false;false;158.5;1;0;0;0;0;false;41966;6269509986;-73.73689;45.568559;41941;6269510040;-73.73419;45.566715;1;45;46;9312746;Bus : 63 S - Direction Métro Cartier;"";STL;63S;Gare Sainte-Rose;Métro Cartier Quai:2
672433262;"{\"type\":\"LineString\",\"coordinates\":[[-73.7359495,45.5679546],[-73.7354273,45.5676427],[-73.735038,45.5674116],[-73.7348281,45.5672748],[-73.7344214,45.5669228],[-73.7339125,45.5664918],[-73.7326313,45.5653828],[-73.7324832,45.5652926]]}";2;Voie réservée - boulevard Le Corbusier;1;50;false;true;true;false;true;false;201.0;0;0;0;0;0;false;41966;6269509986;-73.73689;45.568559;41941;6269510040;-73.73419;45.566715;1;45;46;9312746;Bus : 63 S - Direction Métro Cartier;"";STL;63S;Gare Sainte-Rose;Métro Cartier Quai:2
672433262;"{\"type\":\"LineString\",\"coordinates\":[[-73.7359495,45.5679546],[-73.7354273,45.5676427],[-73.735038,45.5674116],[-73.7348281,45.5672748],[-73.7344214,45.5669228],[-73.7339125,45.5664918],[-73.7326313,45.5653828],[-73.7324832,45.5652926]]}";1;Voie réservée - boulevard Le Corbusier;1;50;false;true;true;false;true;false;201.0;0;0;0;0;0;false;41941;6269510040;-73.73419;45.566715;41958;6269510083;-73.73102;45.563894;1;46;47;9312746;Bus : 63 S - Direction Métro Cartier;"";STL;63S;Gare Sainte-Rose;Métro Cartier Quai:2
679314213;"{\"type\":\"LineString\",\"coordinates\":[[-73.7324832,45.5652926],[-73.731199,45.5641242],[-73.7288698,45.5620685],[-73.727183,45.5605226],[-73.72707,45.5604132]]}";2;Voie réservée - boulevard Le Corbusier;1;50;false;true;true;false;true;false;344.0;0;0;0;0;0;false;41941;6269510040;-73.73419;45.566715;41958;6269510083;-73.73102;45.563894;1;46;47;9312746;Bus : 63 S - Direction Métro Cartier;"";STL;63S;Gare Sainte-Rose;Métro Cartier Quai:2
679314213;"{\"type\":\"LineString\",\"coordinates\":[[-73.7324832,45.5652926],[-73.731199,45.5641242],[-73.7288698,45.5620685],[-73.727183,45.5605226],[-73.72707,45.5604132]]}";1;Voie réservée - boulevard Le Corbusier;1;50;false;true;true;false;true;false;344.0;0;0;0;0;0;false;41937;6269510251;-73.72867;45.561807;43147;6269510273;-73.72528;45.560919;1;48;49;9312746;Bus : 63 S - Direction Métro Cartier;"";STL;63S;Gare Sainte-Rose;Métro Cartier Quai:2
475251790;"{\"type\":\"LineString\",\"coordinates\":[[-73.72707,45.5604132],[-73.7270131,45.5604364],[-73.7269504,45.5604619]]}";2;Boulevard du Souvenir;3;50;false;true;false;false;false;false;11.0;1;0;0;0;0;false;41937;6269510251;-73.72867;45.561807;43147;6269510273;-73.72528;45.560919;0;48;49;9312746;Bus : 63 S - Direction Métro Cartier;"";STL;63S;Gare Sainte-Rose;Métro Cartier Quai:2
475251788;"{\"type\":\"LineString\",\"coordinates\":[[-73.7269504,45.5604619],[-73.7266639,45.5605658],[-73.7264044,45.5606501],[-73.7255372,45.5609316]]}";3;Boulevard du Souvenir;3;50;false;true;false;false;false;false;122.0;1;0;0;0;0;false;41937;6269510251;-73.72867;45.561807;43147;6269510273;-73.72528;45.560919;0;48;49;9312746;Bus : 63 S - Direction Métro Cartier;"";STL;63S;Gare Sainte-Rose;Métro Cartier Quai:2
475237531;"{\"type\":\"LineString\",\"coordinates\":[[-73.7255372,45.5609316],[-73.7249098,45.5611404],[-73.7238338,45.5614515],[-73.722752,45.5617595]]}";4;Boulevard du Souvenir;3;50;false;true;false;false;false;false;118.0;1;0;0;0;0;false;41937;6269510251;-73.72867;45.561807;43147;6269510273;-73.72528;45.560919;1;48;49;9312746;Bus : 63 S - Direction Métro Cartier;"";STL;63S;Gare Sainte-Rose;Métro Cartier Quai:2
475237531;"{\"type\":\"LineString\",\"coordinates\":[[-73.7255372,45.5609316],[-73.7249098,45.5611404],[-73.7238338,45.5614515],[-73.722752,45.5617595]]}";1;Boulevard du Souvenir;3;50;false;true;false;false;false;false;118.0;1;0;0;0;0;false;43148;6269510225;-73.72296;45.561631;"46509;43507;46443";6269510304;-73.72082;45.559592;1;50;51;9312746;Bus : 63 S - Direction Métro Cartier;"";STL;63S;Gare Sainte-Rose;Métro Cartier Quai:2
29081985;"{\"type\":\"LineString\",\"coordinates\":[[-73.722752,45.5617595],[-73.7225279,45.561532],[-73.7214827,45.5604479],[-73.7211098,45.5600515],[-73.7210472,45.5599848],[-73.7205915,45.5595102]]}";2;Boulevard de l'Avenir;3;50;false;true;false;false;false;false;151.0;1;0;0;0;0;false;43148;6269510225;-73.72296;45.561631;"46509;43507;46443";6269510304;-73.72082;45.559592;1;50;51;9312746;Bus : 63 S - Direction Métro Cartier;"";STL;63S;Gare Sainte-Rose;Métro Cartier Quai:2
29081985;"{\"type\":\"LineString\",\"coordinates\":[[-73.722752,45.5617595],[-73.7225279,45.561532],[-73.7214827,45.5604479],[-73.7211098,45.5600515],[-73.7210472,45.5599848],[-73.7205915,45.5595102]]}";1;Boulevard de l'Avenir;3;50;false;true;false;false;false;false;151.0;1;0;0;0;0;false;"46509;43507;46443";6269510304;-73.72082;45.559592;43509;6269510344;-73.71932;45.558005;1;51;52;9312746;Bus : 63 S - Direction Métro Cartier;"";STL;63S;Gare Sainte-Rose;Métro Cartier Quai:2
695738775;"{\"type\":\"LineString\",\"coordinates\":[[-73.7205915,45.5595102],[-73.7199464,45.5588146]]}";2;Boulevard de l'Avenir;3;50;false;true;false;false;false;false;93.0;0;0;0;0;0;false;"46509;43507;46443";6269510304;-73.72082;45.559592;43509;6269510344;-73.71932;45.558005;0;51;52;9312746;Bus : 63 S - Direction Métro Cartier;"";STL;63S;Gare Sainte-Rose;Métro Cartier Quai:2
475848926;"{\"type\":\"LineString\",\"coordinates\":[[-73.7199464,45.5588146],[-73.719872,45.558742],[-73.7198603,45.5587298],[-73.7197703,45.558636]]}";3;Boulevard de l'Avenir;3;50;false;true;false;false;false;false;25.0;0;1;0;0;0;false;"46509;43507;46443";6269510304;-73.72082;45.559592;43509;6269510344;-73.71932;45.558005;0;51;52;9312746;Bus : 63 S - Direction Métro Cartier;"";STL;63S;Gare Sainte-Rose;Métro Cartier Quai:2
475848927;"{\"type\":\"LineString\",\"coordinates\":[[-73.7197703,45.558636],[-73.7197203,45.5585821],[-73.7196809,45.55854],[-73.7195714,45.5584231]]}";4;Boulevard de l'Avenir;3;50;false;true;false;false;false;false;29.0;0;1;0;0;0;false;"46509;43507;46443";6269510304;-73.72082;45.559592;43509;6269510344;-73.71932;45.558005;0;51;52;9312746;Bus : 63 S - Direction Métro Cartier;"";STL;63S;Gare Sainte-Rose;Métro Cartier Quai:2
653184003;"{\"type\":\"LineString\",\"coordinates\":[[-73.7195714,45.5584231],[-73.7194895,45.5583356],[-73.7189255,45.5577333],[-73.7186432,45.5574319],[-73.7183965,45.5571685],[-73.7181107,45.5568633]]}";5;Boulevard de l'Avenir;3;50;false;true;false;false;false;false;104.0;1;0;0;0;0;false;"46509;43507;46443";6269510304;-73.72082;45.559592;43509;6269510344;-73.71932;45.558005;1;51;52;9312746;Bus : 63 S - Direction Métro Cartier;"";STL;63S;Gare Sainte-Rose;Métro Cartier Quai:2
653184003;"{\"type\":\"LineString\",\"coordinates\":[[-73.7195714,45.5584231],[-73.7194895,45.5583356],[-73.7189255,45.5577333],[-73.7186432,45.5574319],[-73.7183965,45.5571685],[-73.7181107,45.5568633]]}";1;Boulevard de l'Avenir;3;50;false;true;false;false;false;false;104.0;1;0;0;0;0;false;43509;6269510344;-73.71932;45.558005;41342;6269510366;-73.71693;45.557179;1;52;53;9312746;Bus : 63 S - Direction Métro Cartier;"";STL;63S;Gare Sainte-Rose;Métro Cartier Quai:2
147992072;"{\"type\":\"LineString\",\"coordinates\":[[-73.7181107,45.5568633],[-73.7179908,45.5567341]]}";2;Boulevard de l'Avenir;1;50;false;true;true;false;false;false;18.0;2;0;0;0;0;false;43509;6269510344;-73.71932;45.558005;41342;6269510366;-73.71693;45.557179;0;52;53;9312746;Bus : 63 S - Direction Métro Cartier;"";STL;63S;Gare Sainte-Rose;Métro Cartier Quai:2
574726033;"{\"type\":\"LineString\",\"coordinates\":[[-73.7179908,45.5567341],[-73.7178056,45.5568343]]}";3;Boulevard de la Concorde Ouest;2;60;false;true;true;false;false;false;19.0;2;0;0;0;0;false;43509;6269510344;-73.71932;45.558005;41342;6269510366;-73.71693;45.557179;0;52;53;9312746;Bus : 63 S - Direction Métro Cartier;"";STL;63S;Gare Sainte-Rose;Métro Cartier Quai:2
452222559;"{\"type\":\"LineString\",\"coordinates\":[[-73.7178056,45.5568343],[-73.7172175,45.557152],[-73.7163704,45.5576097],[-73.7148177,45.5584487],[-73.7137146,45.5590448],[-73.7135021,45.5591596],[-73.7129715,45.5594463],[-73.7128947,45.5594878]]}";4;Boulevard de la Concorde Ouest;2;60;false;true;true;false;false;false;242.0;2;1;0;0;0;false;43509;6269510344;-73.71932;45.558005;41342;6269510366;-73.71693;45.557179;1;52;53;9312746;Bus : 63 S - Direction Métro Cartier;"";STL;63S;Gare Sainte-Rose;Métro Cartier Quai:2
165090586;"{\"type\":\"LineString\",\"coordinates\":[[-73.7128947,45.5594878],[-73.7128186,45.5594073],[-73.7126514,45.5592471],[-73.7113467,45.5579564]]}";1;Boulevard Laval;1;50;false;true;false;false;false;false;104.5;1;1;0;0;0;false;41925;6269510218;-73.71156;45.558071;41923;6269510377;-73.71066;45.556651;1;56;57;9312746;Bus : 63 S - Direction Métro Cartier;"";STL;63S;Gare Sainte-Rose;Métro Cartier Quai:2
475800621;"{\"type\":\"LineString\",\"coordinates\":[[-73.7113467,45.5579564],[-73.7110237,45.5575628],[-73.710955,45.5573525]]}";2;Boulevard Laval;1;50;false;true;false;false;false;false;75.0;0;0;0;0;0;false;41925;6269510218;-73.71156;45.558071;41923;6269510377;-73.71066;45.556651;0;56;57;9312746;Bus : 63 S - Direction Métro Cartier;"";STL;63S;Gare Sainte-Rose;Métro Cartier Quai:2
475800620;"{\"type\":\"LineString\",\"coordinates\":[[-73.710955,45.5573525],[-73.7108005,45.5569498],[-73.7105485,45.5566642],[-73.7103478,45.5566012]]}";3;Boulevard Laval;1;50;false;true;false;false;false;false;50.5;0;0;0;0;0;false;41925;6269510218;-73.71156;45.558071;41923;6269510377;-73.71066;45.556651;1;56;57;9312746;Bus : 63 S - Direction Métro Cartier;"";STL;63S;Gare Sainte-Rose;Métro Cartier Quai:2
476005016;"{\"type\":\"LineString\",\"coordinates\":[[-73.7103478,45.5566012],[-73.7111951,45.5561987]]}";1;Rue D'Argenteuil;2;50;false;false;true;false;false;false;80.0;0;0;0;0;0;false;41923;6269510377;-73.71066;45.556651;41512;6269510500;-73.71282;45.555477;2;57;58;9312746;Bus : 63 S - Direction Métro Cartier;"";STL;63S;Gare Sainte-Rose;Métro Cartier Quai:2
29082136;"{\"type\":\"LineString\",\"coordinates\":[[-73.7111951,45.5561987],[-73.7116572,45.5559728],[-73.7128693,45.5553804],[-73.7134655,45.555089],[-73.7140842,45.5547866],[-73.714668,45.5545012],[-73.7153674,45.5541593],[-73.7158593,45.5539263],[-73.7160724,45.5537866],[-73.7166542,45.5532265],[-73.7170761,45.5528359],[-73.7172177,45.5527322],[-73.7179642,45.5523533]]}";2;Rue D'Argenteuil;2;50;false;false;true;false;false;false;685.0;0;0;0;0;0;false;41923;6269510377;-73.71066;45.556651;41512;6269510500;-73.71282;45.555477;2;57;58;9312746;Bus : 63 S - Direction Métro Cartier;"";STL;63S;Gare Sainte-Rose;Métro Cartier Quai:2
464970740;"{\"type\":\"LineString\",\"coordinates\":[[-73.7144278,45.548748],[-73.7143982,45.5487622],[-73.7141504,45.5488814],[-73.7136385,45.5491275],[-73.7127511,45.5495542],[-73.7120532,45.5498898],[-73.7114251,45.5501918],[-73.7107932,45.5504957],[-73.710165,45.5507977],[-73.709916,45.5509175],[-73.7095469,45.5510949],[-73.7089394,45.551387],[-73.7086494,45.5515265],[-73.7081364,45.5517731],[-73.707264,45.5521926],[-73.7064495,45.5525842],[-73.7056663,45.5529608]]}";1;Boulevard Cartier Ouest;2;50;false;false;true;false;false;false;414.5;0;0;0;0;0;false;41233;6269510571;-73.70646;45.552466;41231;6269510512;-73.70205;45.55466;1;68;69;9312746;Bus : 63 S - Direction Métro Cartier;"";STL;63S;Gare Sainte-Rose;Métro Cartier Quai:2
37764769;"{\"type\":\"LineString\",\"coordinates\":[[-73.7056663,45.5529608],[-73.7044051,45.5535708],[-73.7030177,45.5542438]]}";2;Boulevard Cartier Ouest;2;50;false;false;false;false;false;false;252.0;0;0;0;0;0;false;41233;6269510571;-73.70646;45.552466;41231;6269510512;-73.70205;45.55466;0;68;69;9312746;Bus : 63 S - Direction Métro Cartier;"";STL;63S;Gare Sainte-Rose;Métro Cartier Quai:2
29016286;"{\"type\":\"LineString\",\"coordinates\":[[-73.7030177,45.5542438],[-73.7028555,45.5543359],[-73.7026515,45.5544517],[-73.7024824,45.5545477]]}";3;Boulevard Cartier Ouest;2;50;false;true;false;false;false;false;54.0;0;0;0;0;0;false;41233;6269510571;-73.70646;45.552466;41231;6269510512;-73.70205;45.55466;0;68;69;9312746;Bus : 63 S - Direction Métro Cartier;"";STL;63S;Gare Sainte-Rose;Métro Cartier Quai:2
53292666;"{\"type\":\"LineString\",\"coordinates\":[[-73.7024824,45.5545477],[-73.7023268,45.554636],[-73.7019419,45.5548545]]}";4;Boulevard Cartier Ouest;2;50;false;true;false;false;false;false;27.5;1;0;0;0;0;false;41233;6269510571;-73.70646;45.552466;41231;6269510512;-73.70205;45.55466;1;68;69;9312746;Bus : 63 S - Direction Métro Cartier;"";STL;63S;Gare Sainte-Rose;Métro Cartier Quai:2
53292666;"{\"type\":\"LineString\",\"coordinates\":[[-73.7024824,45.5545477],[-73.7023268,45.554636],[-73.7019419,45.5548545]]}";1;Boulevard Cartier Ouest;2;50;false;true;false;false;false;false;27.5;1;0;0;0;0;false;41231;6269510512;-73.70205;45.55466;41228;6269510363;-73.69932;45.556402;1;69;70;9312746;Bus : 63 S - Direction Métro Cartier;"";STL;63S;Gare Sainte-Rose;Métro Cartier Quai:2
679942255;"{\"type\":\"LineString\",\"coordinates\":[[-73.7019419,45.5548545],[-73.7007139,45.5557224],[-73.7004203,45.5559143],[-73.6998839,45.5562417],[-73.6998577,45.5562601],[-73.6995166,45.5564144],[-73.6992425,45.5565321],[-73.6988815,45.5566668],[-73.6966263,45.5575155]]}";2;Boulevard Cartier Ouest;2;50;false;true;true;false;false;false;257.0;2;0;0;0;0;false;41231;6269510512;-73.70205;45.55466;41228;6269510363;-73.69932;45.556402;1;69;70;9312746;Bus : 63 S - Direction Métro Cartier;"";STL;63S;Gare Sainte-Rose;Métro Cartier Quai:2
679942255;"{\"type\":\"LineString\",\"coordinates\":[[-73.7019419,45.5548545],[-73.7007139,45.5557224],[-73.7004203,45.5559143],[-73.6998839,45.5562417],[-73.6998577,45.5562601],[-73.6995166,45.5564144],[-73.6992425,45.5565321],[-73.6988815,45.5566668],[-73.6966263,45.5575155]]}";1;Boulevard Cartier Ouest;2;50;false;true;true;false;false;false;257.0;2;0;0;0;0;false;41228;6269510363;-73.69932;45.556402;41226;6269510350;-73.69597;45.557694;1;70;71;9312746;Bus : 63 S - Direction Métro Cartier;"";STL;63S;Gare Sainte-Rose;Métro Cartier Quai:2
679942213;"{\"type\":\"LineString\",\"coordinates\":[[-73.6966263,45.5575155],[-73.6964443,45.557584],[-73.6954926,45.5579407],[-73.6953802,45.5579828],[-73.695225,45.558041],[-73.6950377,45.5581112],[-73.69428,45.5583952],[-73.693884,45.5585179],[-73.6935513,45.5585982],[-73.6934266,45.5586282],[-73.6930629,45.5586904],[-73.6927468,45.5587266]]}";2;Boulevard Cartier Ouest;2;50;false;true;true;false;false;false;167.0;2;0;0;0;0;false;41228;6269510363;-73.69932;45.556402;41226;6269510350;-73.69597;45.557694;1;70;71;9312746;Bus : 63 S - Direction Métro Cartier;"";STL;63S;Gare Sainte-Rose;Métro Cartier Quai:2
679942213;"{\"type\":\"LineString\",\"coordinates\":[[-73.6966263,45.5575155],[-73.6964443,45.557584],[-73.6954926,45.5579407],[-73.6953802,45.5579828],[-73.695225,45.558041],[-73.6950377,45.5581112],[-73.69428,45.5583952],[-73.693884,45.5585179],[-73.6935513,45.5585982],[-73.6934266,45.5586282],[-73.6930629,45.5586904],[-73.6927468,45.5587266]]}";1;Boulevard Cartier Ouest;2;50;false;true;true;false;false;false;167.0;2;0;0;0;0;false;41224;6269510315;-73.693;45.558617;41222;6269510321;-73.68973;45.558728;1;72;73;9312746;Bus : 63 S - Direction Métro Cartier;"";STL;63S;Gare Sainte-Rose;Métro Cartier Quai:2
53292665;"{\"type\":\"LineString\",\"coordinates\":[[-73.6927468,45.5587266],[-73.6917629,45.5587665],[-73.6912476,45.558765],[-73.6903089,45.5587485],[-73.6899359,45.5587759],[-73.6891191,45.5588359],[-73.688969,45.5588469],[-73.688346,45.5589842],[-73.6879843,45.5590947],[-73.6873379,45.5592854],[-73.6868265,45.5593539],[-73.6866391,45.5593608],[-73.686426,45.5593528],[-73.6858182,45.5592844],[-73.6856388,45.5592749],[-73.6854345,45.5592651],[-73.6853204,45.5592709],[-73.6852418,45.5592749],[-73.6850436,45.5593068],[-73.6847541,45.5594139],[-73.6840984,45.5597503]]}";2;Boulevard Cartier Ouest;2;50;false;true;true;false;false;false;351.0;1;0;0;0;0;false;41224;6269510315;-73.693;45.558617;41222;6269510321;-73.68973;45.558728;1;72;73;9312746;Bus : 63 S - Direction Métro Cartier;"";STL;63S;Gare Sainte-Rose;Métro Cartier Quai:2
53292665;"{\"type\":\"LineString\",\"coordinates\":[[-73.6927468,45.5587266],[-73.6917629,45.5587665],[-73.6912476,45.558765],[-73.6903089,45.5587485],[-73.6899359,45.5587759],[-73.6891191,45.5588359],[-73.688969,45.5588469],[-73.688346,45.5589842],[-73.6879843,45.5590947],[-73.6873379,45.5592854],[-73.6868265,45.5593539],[-73.6866391,45.5593608],[-73.686426,45.5593528],[-73.6858182,45.5592844],[-73.6856388,45.5592749],[-73.6854345,45.5592651],[-73.6853204,45.5592709],[-73.6852418,45.5592749],[-73.6850436,45.5593068],[-73.6847541,45.5594139],[-73.6840984,45.5597503]]}";1;Boulevard Cartier Ouest;2;50;false;true;true;false;false;false;351.0;1;0;0;0;0;false;41220;6269510312;-73.68751;45.559164;"47128;47170;47120;47012;47002;47173;47058;47158;47141;47102;47122;47911;47133;47160;47163;47127;47137;47117;47031;47143;47174;47124;47112;47070;47148;47017";6269510222;-73.6825;45.559923;1;74;75;9312746;Bus : 63 S - Direction Métro Cartier;"";STL;63S;Gare Sainte-Rose;Métro Cartier Quai:2
669902218;"{\"type\":\"LineString\",\"coordinates\":[[-73.6840984,45.5597503],[-73.6835265,45.5600532],[-73.6830194,45.5603075]]}";2;Boulevard Cartier Ouest;2;50;false;true;true;false;false;false;105.0;2;0;0;0;0;false;41220;6269510312;-73.68751;45.559164;"47128;47170;47120;47012;47002;47173;47058;47158;47141;47102;47122;47911;47133;47160;47163;47127;47137;47117;47031;47143;47174;47124;47112;47070;47148;47017";6269510222;-73.6825;45.559923;0;74;75;9312746;Bus : 63 S - Direction Métro Cartier;"";STL;63S;Gare Sainte-Rose;Métro Cartier Quai:2
242652088;"{\"type\":\"LineString\",\"coordinates\":[[-73.6830194,45.5603075],[-73.6828755,45.560162]]}";3;"";1;50;false;false;true;false;false;false;20.0;1;0;0;0;0;false;41220;6269510312;-73.68751;45.559164;"47128;47170;47120;47012;47002;47173;47058;47158;47141;47102;47122;47911;47133;47160;47163;47127;47137;47117;47031;47143;47174;47124;47112;47070;47148;47017";6269510222;-73.6825;45.559923;0;74;75;9312746;Bus : 63 S - Direction Métro Cartier;"";STL;63S;Gare Sainte-Rose;Métro Cartier Quai:2
259643630;"{\"type\":\"LineString\",\"coordinates\":[[-73.683108,45.5597546],[-73.6832991,45.5596564],[-73.6834151,45.5595825],[-73.6834772,45.5596133],[-73.6835498,45.5596565],[-73.6835923,45.5597297],[-73.6835737,45.5597964],[-73.6834678,45.5598527],[-73.6828755,45.560162]]}";4;"";1;50;false;false;true;false;false;false;129.0;0;0;0;0;0;false;41220;6269510312;-73.68751;45.559164;"47128;47170;47120;47012;47002;47173;47058;47158;47141;47102;47122;47911;47133;47160;47163;47127;47137;47117;47031;47143;47174;47124;47112;47070;47148;47017";6269510222;-73.6825;45.559923;0;74;75;9312746;Bus : 63 S - Direction Métro Cartier;"";STL;63S;Gare Sainte-Rose;Métro Cartier Quai:2
694196043;"{\"type\":\"LineString\",\"coordinates\":[[-73.6829383,45.5598439],[-73.683108,45.5597546]]}";5;"";1;50;false;false;true;false;false;false;17.0;0;0;0;0;0;false;41220;6269510312;-73.68751;45.559164;"47128;47170;47120;47012;47002;47173;47058;47158;47141;47102;47122;47911;47133;47160;47163;47127;47137;47117;47031;47143;47174;47124;47112;47070;47148;47017";6269510222;-73.6825;45.559923;0;74;75;9312746;Bus : 63 S - Direction Métro Cartier;"";STL;63S;Gare Sainte-Rose;Métro Cartier Quai:2
694409795;"{\"type\":\"LineString\",\"coordinates\":[[-73.6827819,45.5599253],[-73.6829383,45.5598439]]}";6;"";1;50;false;false;true;false;false;false;16.0;0;0;0;0;0;false;41220;6269510312;-73.68751;45.559164;"47128;47170;47120;47012;47002;47173;47058;47158;47141;47102;47122;47911;47133;47160;47163;47127;47137;47117;47031;47143;47174;47124;47112;47070;47148;47017";6269510222;-73.6825;45.559923;0;74;75;9312746;Bus : 63 S - Direction Métro Cartier;"";STL;63S;Gare Sainte-Rose;Métro Cartier Quai:2
669902223;"{\"type\":\"LineString\",\"coordinates\":[[-73.6826117,45.5600129],[-73.6827819,45.5599253]]}";7;"";1;50;false;false;true;false;false;false;17.0;0;0;0;0;0;false;41220;6269510312;-73.68751;45.559164;"47128;47170;47120;47012;47002;47173;47058;47158;47141;47102;47122;47911;47133;47160;47163;47127;47137;47117;47031;47143;47174;47124;47112;47070;47148;47017";6269510222;-73.6825;45.559923;1;74;75;9312746;Bus : 63 S - Direction Métro Cartier;"";STL;63S;Gare Sainte-Rose;Métro Cartier Quai:2
