way_id;shape;index;name;nb_lanes;legal_speed;speed_zone_30;oneway;shares_bike;bike_box;bus_lane;dedicated_bus_lane;length;nb_traffic_signals;nb_crossings;nb_stops;nb_give_ways;nb_lvl_crossings;roundabout;stop_id_orig;node_id_orig;coord_x_orig;coord_y_orig;stop_id_dest;node_id_dest;coord_x_dest;coord_y_dest;nb_neighbouring_ways_bus_stop;order_orig;order_dest;id_line;line_name;colour;operator;ref;from;to
729448095;"{\"type\":\"LineString\",\"coordinates\":[[-6.1819622,53.3965968],[-6.1811398,53.396534],[-6.1807527,53.3965182],[-6.1803711,53.3965009],[-6.1802729,53.3964885],[-6.1801792,53.3964693]]}";1;Blunden Drive;2;50;false;false;true;false;false;false;121.0;0;0;0;0;0;false;"";5546666689;-6.1819513;53.3966453;1184;4989754522;-6.25389;53.350769;1;0;1;7468116;27A - Blunden Drive - Eden Quay;"";Dublin Bus;27A;Blunden Drive;Eden Quay
494273193;"{\"type\":\"LineString\",\"coordinates\":[[-6.1801792,53.3964693],[-6.1798065,53.3964949]]}";2;Blunden Drive;1;50;false;true;true;false;false;false;26.0;0;0;0;0;0;false;"";5546666689;-6.1819513;53.3966453;1184;4989754522;-6.25389;53.350769;0;0;1;7468116;27A - Blunden Drive - Eden Quay;"";Dublin Bus;27A;Blunden Drive;Eden Quay
16140931;"{\"type\":\"LineString\",\"coordinates\":[[-6.1798065,53.3964949],[-6.179747,53.3965093],[-6.1796829,53.3965117],[-6.1796209,53.3965018],[-6.1795674,53.3964806],[-6.1795286,53.3964511],[-6.1795072,53.3964158],[-6.1795054,53.3963782],[-6.1795221,53.3963438],[-6.1795554,53.3963139]]}";3;"";1;50;false;false;true;false;false;false;38.0;0;0;0;0;0;true;"";5546666689;-6.1819513;53.3966453;1184;4989754522;-6.25389;53.350769;0;0;1;7468116;27A - Blunden Drive - Eden Quay;"";Dublin Bus;27A;Blunden Drive;Eden Quay
16140934;"{\"type\":\"LineString\",\"coordinates\":[[-6.1795554,53.3963139],[-6.1796228,53.3960958]]}";4;Millbrook Road;1;50;false;true;true;false;false;false;25.0;0;0;0;0;0;false;"";5546666689;-6.1819513;53.3966453;1184;4989754522;-6.25389;53.350769;0;0;1;7468116;27A - Blunden Drive - Eden Quay;"";Dublin Bus;27A;Blunden Drive;Eden Quay
494273198;"{\"type\":\"LineString\",\"coordinates\":[[-6.1796228,53.3960958],[-6.1794994,53.3958405],[-6.1793245,53.3955613],[-6.1791648,53.3953284],[-6.1788769,53.3950251],[-6.1788055,53.3949465],[-6.1787724,53.3948997],[-6.1787536,53.3948731],[-6.178696,53.3947917],[-6.1786632,53.3947454],[-6.178627,53.3946943],[-6.1786104,53.3946709],[-6.178554,53.3944977],[-6.178541,53.394458],[-6.1785279,53.3943765],[-6.1785217,53.3943001],[-6.178537,53.3939633],[-6.1785612,53.3938922],[-6.178555,53.3938166],[-6.1786259,53.3932806],[-6.178644,53.3931021]]}";5;Millbrook Road;2;50;false;false;true;false;false;false;351.0;0;0;0;0;0;false;"";5546666689;-6.1819513;53.3966453;1184;4989754522;-6.25389;53.350769;0;0;1;7468116;27A - Blunden Drive - Eden Quay;"";Dublin Bus;27A;Blunden Drive;Eden Quay
334277921;"{\"type\":\"LineString\",\"coordinates\":[[-6.178644,53.3931021],[-6.1787019,53.3926999],[-6.1787336,53.3924274],[-6.1787247,53.3914783],[-6.1787186,53.3911981],[-6.1787131,53.3911578],[-6.1787117,53.3911475],[-6.1787029,53.3910823]]}";6;Millbrook Road;2;50;false;false;true;false;false;false;227.0;0;0;0;0;0;false;"";5546666689;-6.1819513;53.3966453;1184;4989754522;-6.25389;53.350769;0;0;1;7468116;27A - Blunden Drive - Eden Quay;"";Dublin Bus;27A;Blunden Drive;Eden Quay
334277927;"{\"type\":\"LineString\",\"coordinates\":[[-6.1797736,53.3910328],[-6.1794577,53.3910541],[-6.1787029,53.3910823]]}";7;Tonlegee Road;1;50;false;false;true;false;false;false;72.0;0;0;0;0;0;false;"";5546666689;-6.1819513;53.3966453;1184;4989754522;-6.25389;53.350769;0;0;1;7468116;27A - Blunden Drive - Eden Quay;"";Dublin Bus;27A;Blunden Drive;Eden Quay
515123278;"{\"type\":\"LineString\",\"coordinates\":[[-6.1841221,53.3907278],[-6.1840065,53.3907347],[-6.1837695,53.390749],[-6.183652,53.390756],[-6.1833292,53.390785],[-6.1830852,53.3908023],[-6.1828586,53.3908172],[-6.1828264,53.3908196],[-6.1826264,53.3908347],[-6.1825514,53.3908404],[-6.1823496,53.3908543],[-6.182303,53.3908571],[-6.1821016,53.3908719],[-6.1820462,53.3908755],[-6.1818302,53.3908911],[-6.181782,53.3908947],[-6.1816305,53.3909052],[-6.1815728,53.3909092],[-6.1815268,53.3909125],[-6.1813021,53.3909278],[-6.1812607,53.3909308],[-6.1810548,53.3909449],[-6.1810057,53.3909483],[-6.1807909,53.3909631],[-6.1807308,53.3909673],[-6.180479,53.3909847],[-6.180111,53.39101],[-6.1798178,53.3910298],[-6.1797736,53.3910328]]}";8;Tonlegee Road;1;50;false;false;true;false;false;false;294.0;1;1;0;0;0;false;"";5546666689;-6.1819513;53.3966453;1184;4989754522;-6.25389;53.350769;0;0;1;7468116;27A - Blunden Drive - Eden Quay;"";Dublin Bus;27A;Blunden Drive;Eden Quay
515123279;"{\"type\":\"LineString\",\"coordinates\":[[-6.1841221,53.3907278],[-6.1839438,53.3899452]]}";9;Tonlegee Avenue;2;30;false;false;true;false;false;false;89.0;0;0;0;0;0;false;"";5546666689;-6.1819513;53.3966453;1184;4989754522;-6.25389;53.350769;0;0;1;7468116;27A - Blunden Drive - Eden Quay;"";Dublin Bus;27A;Blunden Drive;Eden Quay
129950854;"{\"type\":\"LineString\",\"coordinates\":[[-6.1839438,53.3899452],[-6.1839251,53.3898476],[-6.183871,53.3897488],[-6.1837548,53.3896136],[-6.1834486,53.3893165]]}";10;Tonlegee Avenue;2;30;false;false;true;false;false;false;79.0;0;0;0;0;0;false;"";5546666689;-6.1819513;53.3966453;1184;4989754522;-6.25389;53.350769;0;0;1;7468116;27A - Blunden Drive - Eden Quay;"";Dublin Bus;27A;Blunden Drive;Eden Quay
129950851;"{\"type\":\"LineString\",\"coordinates\":[[-6.1893974,53.3885006],[-6.1889323,53.3887168],[-6.1887577,53.3887688],[-6.1877408,53.3888326],[-6.1864099,53.3889139],[-6.1858149,53.3889545],[-6.1845428,53.3890291],[-6.1841971,53.3890514],[-6.184075,53.3890601],[-6.184022,53.3890726],[-6.1838913,53.3891107],[-6.1835404,53.3892754],[-6.1834486,53.3893165]]}";11;Glenwood Road;2;30;false;false;true;false;false;false;419.0;0;0;0;0;0;false;"";5546666689;-6.1819513;53.3966453;1184;4989754522;-6.25389;53.350769;0;0;1;7468116;27A - Blunden Drive - Eden Quay;"";Dublin Bus;27A;Blunden Drive;Eden Quay
515123281;"{\"type\":\"LineString\",\"coordinates\":[[-6.1903527,53.3880346],[-6.1902426,53.3880908],[-6.1896214,53.3883864],[-6.1893974,53.3885006]]}";12;Glenwood Road;2;30;false;false;true;false;false;false;83.0;0;0;0;1;0;false;"";5546666689;-6.1819513;53.3966453;1184;4989754522;-6.25389;53.350769;0;0;1;7468116;27A - Blunden Drive - Eden Quay;"";Dublin Bus;27A;Blunden Drive;Eden Quay
515123282;"{\"type\":\"LineString\",\"coordinates\":[[-6.1874028,53.3860312],[-6.1888673,53.3870122],[-6.1899859,53.3877517],[-6.1902884,53.3879723],[-6.1903527,53.3880346]]}";13;Springdale Road;2;50;false;false;true;false;false;false;300.0;0;0;0;0;0;false;"";5546666689;-6.1819513;53.3966453;1184;4989754522;-6.25389;53.350769;0;0;1;7468116;27A - Blunden Drive - Eden Quay;"";Dublin Bus;27A;Blunden Drive;Eden Quay
515123284;"{\"type\":\"LineString\",\"coordinates\":[[-6.1874028,53.3860312],[-6.1871711,53.386134],[-6.1863026,53.3864529],[-6.1854258,53.3867516],[-6.1851838,53.3868239],[-6.1849884,53.386894],[-6.1841052,53.387211]]}";14;Edenmore Park;2;30;false;false;true;false;false;false;258.0;0;0;0;0;0;false;"";5546666689;-6.1819513;53.3966453;1184;4989754522;-6.25389;53.350769;0;0;1;7468116;27A - Blunden Drive - Eden Quay;"";Dublin Bus;27A;Blunden Drive;Eden Quay
27490650;"{\"type\":\"LineString\",\"coordinates\":[[-6.1816326,53.3850823],[-6.1817597,53.3852542],[-6.1826828,53.3860191],[-6.1841052,53.387211]]}";15;Edenmore Grove;2;30;false;false;true;false;false;false;291.0;0;0;0;0;0;false;"";5546666689;-6.1819513;53.3966453;1184;4989754522;-6.25389;53.350769;0;0;1;7468116;27A - Blunden Drive - Eden Quay;"";Dublin Bus;27A;Blunden Drive;Eden Quay
27490601;"{\"type\":\"LineString\",\"coordinates\":[[-6.1843895,53.3841664],[-6.1841867,53.3843158],[-6.1839731,53.3844299],[-6.1836763,53.3845655],[-6.1832889,53.3847282],[-6.1827628,53.3849004],[-6.1826946,53.3849167],[-6.1821971,53.385002],[-6.1816326,53.3850823]]}";16;Edenmore Green;2;30;false;false;true;false;false;false;217.0;0;0;0;0;0;false;"";5546666689;-6.1819513;53.3966453;1184;4989754522;-6.25389;53.350769;0;0;1;7468116;27A - Blunden Drive - Eden Quay;"";Dublin Bus;27A;Blunden Drive;Eden Quay
515123286;"{\"type\":\"LineString\",\"coordinates\":[[-6.1835795,53.3838785],[-6.1836149,53.3838911],[-6.1843895,53.3841664]]}";17;Springdale Road;2;50;false;false;true;false;false;false;64.0;1;0;0;0;0;false;"";5546666689;-6.1819513;53.3966453;1184;4989754522;-6.25389;53.350769;0;0;1;7468116;27A - Blunden Drive - Eden Quay;"";Dublin Bus;27A;Blunden Drive;Eden Quay
548747713;"{\"type\":\"LineString\",\"coordinates\":[[-6.184992,53.3829827],[-6.1846898,53.3831748],[-6.1844277,53.3833218],[-6.1836915,53.3837647],[-6.1836215,53.3838234],[-6.1835795,53.3838785]]}";18;Harmonstown Road;2;50;false;false;true;false;false;false;139.0;1;0;0;0;0;false;"";5546666689;-6.1819513;53.3966453;1184;4989754522;-6.25389;53.350769;0;0;1;7468116;27A - Blunden Drive - Eden Quay;"";Dublin Bus;27A;Blunden Drive;Eden Quay
7273981;"{\"type\":\"LineString\",\"coordinates\":[[-6.1867715,53.3810962],[-6.1865102,53.381414],[-6.1860688,53.3819729],[-6.1859521,53.3821175],[-6.1857304,53.3823853],[-6.1855454,53.3825717],[-6.1854492,53.3826617],[-6.1852919,53.3827863],[-6.184992,53.3829827]]}";19;Harmonstown Road;2;50;false;false;true;false;false;false;244.0;0;0;0;0;0;false;"";5546666689;-6.1819513;53.3966453;1184;4989754522;-6.25389;53.350769;0;0;1;7468116;27A - Blunden Drive - Eden Quay;"";Dublin Bus;27A;Blunden Drive;Eden Quay
548700764;"{\"type\":\"LineString\",\"coordinates\":[[-6.189934,53.3798082],[-6.1895315,53.3799436],[-6.1892931,53.3800238],[-6.1890571,53.3801024],[-6.1885328,53.3802769],[-6.1878222,53.3805134],[-6.1872417,53.3807184],[-6.1871198,53.3807734],[-6.1870071,53.3808375],[-6.1867952,53.3810674],[-6.1867715,53.3810962]]}";20;Harmonstown Road;2;50;false;false;true;false;false;false;261.0;0;0;0;0;0;false;"";5546666689;-6.1819513;53.3966453;1184;4989754522;-6.25389;53.350769;0;0;1;7468116;27A - Blunden Drive - Eden Quay;"";Dublin Bus;27A;Blunden Drive;Eden Quay
7990774;"{\"type\":\"LineString\",\"coordinates\":[[-6.1917055,53.3814572],[-6.1914194,53.381196],[-6.1910966,53.380887],[-6.1909682,53.3807687],[-6.1904922,53.3803536],[-6.1902037,53.38006],[-6.189934,53.3798082]]}";21;Ribh Road;2;30;false;false;true;false;false;false;220.0;0;0;0;0;0;false;"";5546666689;-6.1819513;53.3966453;1184;4989754522;-6.25389;53.350769;0;0;1;7468116;27A - Blunden Drive - Eden Quay;"";Dublin Bus;27A;Blunden Drive;Eden Quay
7990780;"{\"type\":\"LineString\",\"coordinates\":[[-6.1917055,53.3814572],[-6.1905339,53.3819333],[-6.1904579,53.3820041]]}";22;McAuley Drive;2;30;false;false;true;false;false;false;105.0;0;0;0;0;0;false;"";5546666689;-6.1819513;53.3966453;1184;4989754522;-6.25389;53.350769;0;0;1;7468116;27A - Blunden Drive - Eden Quay;"";Dublin Bus;27A;Blunden Drive;Eden Quay
7990773;"{\"type\":\"LineString\",\"coordinates\":[[-6.1904579,53.3820041],[-6.1904793,53.3820608],[-6.1908743,53.382411],[-6.1910413,53.3825639],[-6.1912874,53.3827893]]}";23;McAuley Drive;2;30;false;false;true;false;false;false;105.0;0;0;0;0;0;false;"";5546666689;-6.1819513;53.3966453;1184;4989754522;-6.25389;53.350769;0;0;1;7468116;27A - Blunden Drive - Eden Quay;"";Dublin Bus;27A;Blunden Drive;Eden Quay
515123288;"{\"type\":\"LineString\",\"coordinates\":[[-6.1912874,53.3827893],[-6.1918858,53.3833393],[-6.1919223,53.3833728]]}";24;McAuley Drive;2;30;false;false;true;false;false;false;78.0;0;0;0;0;0;false;"";5546666689;-6.1819513;53.3966453;1184;4989754522;-6.25389;53.350769;0;0;1;7468116;27A - Blunden Drive - Eden Quay;"";Dublin Bus;27A;Blunden Drive;Eden Quay
317183884;"{\"type\":\"LineString\",\"coordinates\":[[-6.1919223,53.3833728],[-6.1919497,53.3834301],[-6.1919377,53.3835289],[-6.1918919,53.3835866],[-6.1918664,53.3836792],[-6.1919096,53.383731]]}";25;McAuley Drive;2;30;false;false;true;false;false;false;42.0;0;0;0;0;0;false;"";5546666689;-6.1819513;53.3966453;1184;4989754522;-6.25389;53.350769;0;0;1;7468116;27A - Blunden Drive - Eden Quay;"";Dublin Bus;27A;Blunden Drive;Eden Quay
7990769;"{\"type\":\"LineString\",\"coordinates\":[[-6.1972298,53.3825518],[-6.1971801,53.3826235],[-6.1969465,53.3828457],[-6.1964811,53.3832885],[-6.1964176,53.3833607],[-6.1963158,53.3834394],[-6.1959735,53.3837305],[-6.1958556,53.3838171],[-6.1956682,53.3839186],[-6.1954577,53.3840098],[-6.1951953,53.3840958],[-6.1949993,53.3841645],[-6.1948724,53.3842213],[-6.1946567,53.3843385],[-6.1946129,53.3843623],[-6.1944545,53.3844407],[-6.1942497,53.3845137],[-6.1942319,53.3845214],[-6.1940458,53.3845668],[-6.1938113,53.3845979],[-6.1935291,53.38462],[-6.193273,53.3845904],[-6.1930711,53.384554],[-6.192904,53.3845053],[-6.192749,53.3844287],[-6.1926511,53.3843691],[-6.1925533,53.3842743],[-6.1925011,53.3841972],[-6.1924638,53.3841304],[-6.1924248,53.3840383],[-6.1923698,53.3839557],[-6.1923106,53.3838949],[-6.1922332,53.3838462],[-6.1921293,53.3838066],[-6.1919733,53.3837688],[-6.1919096,53.383731]]}";26;McAuley Road;2;30;false;false;true;false;false;false;511.0;0;0;0;0;0;false;"";5546666689;-6.1819513;53.3966453;1184;4989754522;-6.25389;53.350769;0;0;1;7468116;27A - Blunden Drive - Eden Quay;"";Dublin Bus;27A;Blunden Drive;Eden Quay
129924295;"{\"type\":\"LineString\",\"coordinates\":[[-6.201767,53.3824118],[-6.200551,53.3823765],[-6.2001415,53.3823673],[-6.2001058,53.3823665],[-6.1987229,53.3823387],[-6.1985696,53.3823341],[-6.197888,53.3823154],[-6.1977087,53.3823105],[-6.1975455,53.3823276],[-6.1974432,53.3823694],[-6.1973928,53.3824102],[-6.1973576,53.3824386],[-6.1973054,53.382483],[-6.1972298,53.3825518]]}";27;Gracefield Road;2;30;false;false;true;false;false;false;317.0;0;0;0;0;0;false;"";5546666689;-6.1819513;53.3966453;1184;4989754522;-6.25389;53.350769;0;0;1;7468116;27A - Blunden Drive - Eden Quay;"";Dublin Bus;27A;Blunden Drive;Eden Quay
5378377;"{\"type\":\"LineString\",\"coordinates\":[[-6.201767,53.3824118],[-6.2028846,53.3824425],[-6.2030097,53.3824459],[-6.2032882,53.3824556],[-6.2035075,53.3824874],[-6.2036937,53.3825342],[-6.2042599,53.3826774],[-6.2045278,53.3827052],[-6.2047703,53.3827097],[-6.2048866,53.3827395],[-6.2050097,53.3827874],[-6.2051383,53.3828548]]}";28;Gracefield Road;2;50;false;false;true;false;false;false;237.0;0;1;0;0;0;false;"";5546666689;-6.1819513;53.3966453;1184;4989754522;-6.25389;53.350769;0;0;1;7468116;27A - Blunden Drive - Eden Quay;"";Dublin Bus;27A;Blunden Drive;Eden Quay
317183863;"{\"type\":\"LineString\",\"coordinates\":[[-6.2051383,53.3828548],[-6.205212,53.3828408],[-6.2052894,53.3828394],[-6.2053381,53.3828453],[-6.2053975,53.3828604],[-6.2054495,53.3828832],[-6.2054858,53.3829078],[-6.2055133,53.3829361]]}";29;Artane Roundabout;2;50;false;false;true;false;false;false;30.0;0;0;0;0;0;true;"";5546666689;-6.1819513;53.3966453;1184;4989754522;-6.25389;53.350769;0;0;1;7468116;27A - Blunden Drive - Eden Quay;"";Dublin Bus;27A;Blunden Drive;Eden Quay
361316722;"{\"type\":\"LineString\",\"coordinates\":[[-6.2059287,53.38279],[-6.2057573,53.3828588],[-6.2055133,53.3829361]]}";30;Malahide Road;3;50;false;false;true;false;false;false;33.0;0;1;0;0;0;false;"";5546666689;-6.1819513;53.3966453;1184;4989754522;-6.25389;53.350769;0;0;1;7468116;27A - Blunden Drive - Eden Quay;"";Dublin Bus;27A;Blunden Drive;Eden Quay
157072278;"{\"type\":\"LineString\",\"coordinates\":[[-6.2080493,53.3815844],[-6.2078781,53.3817176],[-6.2077128,53.3818462],[-6.2074974,53.3820156],[-6.2072642,53.3821871],[-6.2071541,53.3822582],[-6.2071179,53.3822816],[-6.2068112,53.3824344],[-6.206648,53.3825157],[-6.2062154,53.3826938],[-6.2059287,53.38279]]}";31;Malahide Road;4;50;false;false;true;false;false;false;199.0;0;0;0;0;0;false;"";5546666689;-6.1819513;53.3966453;1184;4989754522;-6.25389;53.350769;0;0;1;7468116;27A - Blunden Drive - Eden Quay;"";Dublin Bus;27A;Blunden Drive;Eden Quay
129313733;"{\"type\":\"LineString\",\"coordinates\":[[-6.2103169,53.3799382],[-6.2101497,53.3800278],[-6.2099629,53.3801446],[-6.2097378,53.380295],[-6.2094769,53.3804881],[-6.2092685,53.3806481],[-6.2089901,53.3808551],[-6.2086539,53.381121],[-6.2084975,53.3812475],[-6.2082938,53.3814123],[-6.2080493,53.3815844]]}";32;Malahide Road;3;50;false;false;false;false;false;false;240.0;1;1;0;0;0;false;"";5546666689;-6.1819513;53.3966453;1184;4989754522;-6.25389;53.350769;0;0;1;7468116;27A - Blunden Drive - Eden Quay;"";Dublin Bus;27A;Blunden Drive;Eden Quay
317675352;"{\"type\":\"LineString\",\"coordinates\":[[-6.2131872,53.3784154],[-6.2130144,53.3784773],[-6.2127798,53.3785797],[-6.2126384,53.3786415],[-6.2122777,53.3788273],[-6.2117732,53.3791054],[-6.2116685,53.3791624],[-6.2113685,53.3793259],[-6.2111193,53.3794637],[-6.2105571,53.3797962],[-6.2103169,53.3799382]]}";33;Malahide Road;4;50;false;false;true;false;false;false;258.0;2;0;0;0;0;false;"";5546666689;-6.1819513;53.3966453;1184;4989754522;-6.25389;53.350769;0;0;1;7468116;27A - Blunden Drive - Eden Quay;"";Dublin Bus;27A;Blunden Drive;Eden Quay
317127410;"{\"type\":\"LineString\",\"coordinates\":[[-6.2154624,53.3773138],[-6.2153418,53.3773956],[-6.2150837,53.3775704],[-6.2148518,53.3777296],[-6.2147124,53.3778155],[-6.2145596,53.3778982],[-6.2143413,53.3779918],[-6.2141135,53.3780799],[-6.2134056,53.3783374],[-6.2131872,53.3784154]]}";34;Malahide Road;4;50;false;false;true;false;false;false;198.0;1;0;0;0;0;false;"";5546666689;-6.1819513;53.3966453;1184;4989754522;-6.25389;53.350769;0;0;1;7468116;27A - Blunden Drive - Eden Quay;"";Dublin Bus;27A;Blunden Drive;Eden Quay
4900226;"{\"type\":\"LineString\",\"coordinates\":[[-6.217939,53.3759626],[-6.2177354,53.3760647],[-6.2176743,53.3760958],[-6.2172619,53.3763062],[-6.2171093,53.3763819],[-6.216388,53.3767513],[-6.216217,53.3768452],[-6.2160418,53.3769407],[-6.2154624,53.3773138]]}";35;Malahide Road;4;50;false;false;true;false;false;false;225.0;0;0;0;0;0;false;"";5546666689;-6.1819513;53.3966453;1184;4989754522;-6.25389;53.350769;0;0;1;7468116;27A - Blunden Drive - Eden Quay;"";Dublin Bus;27A;Blunden Drive;Eden Quay
378875553;"{\"type\":\"LineString\",\"coordinates\":[[-6.218782,53.3754956],[-6.2185639,53.3756327],[-6.218121,53.3758694],[-6.2179832,53.3759431],[-6.217939,53.3759626]]}";36;Malahide Road;4;50;false;false;true;false;false;false;78.0;1;0;0;0;0;false;"";5546666689;-6.1819513;53.3966453;1184;4989754522;-6.25389;53.350769;0;0;1;7468116;27A - Blunden Drive - Eden Quay;"";Dublin Bus;27A;Blunden Drive;Eden Quay
342674853;"{\"type\":\"LineString\",\"coordinates\":[[-6.218782,53.3754956],[-6.2187968,53.375409],[-6.2189448,53.3752959],[-6.2192251,53.3750817],[-6.2196101,53.374734],[-6.2196568,53.3746891]]}";37;Malahide Road;2;50;false;true;true;false;false;false;109.0;1;0;0;0;0;false;"";5546666689;-6.1819513;53.3966453;1184;4989754522;-6.25389;53.350769;0;0;1;7468116;27A - Blunden Drive - Eden Quay;"";Dublin Bus;27A;Blunden Drive;Eden Quay
529166773;"{\"type\":\"LineString\",\"coordinates\":[[-6.2196568,53.3746891],[-6.2197694,53.3745809],[-6.2198848,53.3745331]]}";38;Malahide Road;2;50;false;true;true;false;false;false;24.0;0;1;0;0;0;false;"";5546666689;-6.1819513;53.3966453;1184;4989754522;-6.25389;53.350769;0;0;1;7468116;27A - Blunden Drive - Eden Quay;"";Dublin Bus;27A;Blunden Drive;Eden Quay
317675351;"{\"type\":\"LineString\",\"coordinates\":[[-6.2214248,53.3732001],[-6.2211514,53.3733719],[-6.2210749,53.3734221],[-6.2209495,53.373511],[-6.2205741,53.3737771],[-6.2203594,53.3739673],[-6.2201855,53.3741611],[-6.2200469,53.3743417],[-6.2199785,53.3744294],[-6.2198848,53.3745331]]}";39;Malahide Road;4;50;false;false;true;false;false;false;183.0;0;1;0;0;0;false;"";5546666689;-6.1819513;53.3966453;1184;4989754522;-6.25389;53.350769;0;0;1;7468116;27A - Blunden Drive - Eden Quay;"";Dublin Bus;27A;Blunden Drive;Eden Quay
56722994;"{\"type\":\"LineString\",\"coordinates\":[[-6.2214925,53.3731575],[-6.2214248,53.3732001]]}";40;Malahide Road;4;50;false;false;true;false;false;false;7.0;0;0;0;0;0;false;"";5546666689;-6.1819513;53.3966453;1184;4989754522;-6.25389;53.350769;0;0;1;7468116;27A - Blunden Drive - Eden Quay;"";Dublin Bus;27A;Blunden Drive;Eden Quay
56722985;"{\"type\":\"LineString\",\"coordinates\":[[-6.2214925,53.3731575],[-6.221582,53.373002]]}";41;Malahide Road;2;50;false;true;true;false;false;false;19.0;0;1;0;0;0;false;"";5546666689;-6.1819513;53.3966453;1184;4989754522;-6.25389;53.350769;0;0;1;7468116;27A - Blunden Drive - Eden Quay;"";Dublin Bus;27A;Blunden Drive;Eden Quay
750263308;"{\"type\":\"LineString\",\"coordinates\":[[-6.221582,53.373002],[-6.221851,53.3727812],[-6.2221169,53.3725128],[-6.2225247,53.3720985],[-6.2231924,53.3714349],[-6.2238967,53.3707177],[-6.224314,53.3702919],[-6.2246958,53.3699026],[-6.2254395,53.3691458],[-6.225639,53.3689801],[-6.2260967,53.3686041]]}";42;Malahide Road;2;50;false;true;false;false;false;false;579.0;0;2;0;0;0;false;"";5546666689;-6.1819513;53.3966453;1184;4989754522;-6.25389;53.350769;0;0;1;7468116;27A - Blunden Drive - Eden Quay;"";Dublin Bus;27A;Blunden Drive;Eden Quay
750263309;"{\"type\":\"LineString\",\"coordinates\":[[-6.2260967,53.3686041],[-6.2263298,53.3684385],[-6.2268307,53.3681257],[-6.2269495,53.3680522],[-6.2270273,53.3680056],[-6.2273532,53.3678049]]}";43;Malahide Road;2;50;false;true;true;false;false;false;123.0;1;0;0;0;0;false;"";5546666689;-6.1819513;53.3966453;1184;4989754522;-6.25389;53.350769;0;0;1;7468116;27A - Blunden Drive - Eden Quay;"";Dublin Bus;27A;Blunden Drive;Eden Quay
326993767;"{\"type\":\"LineString\",\"coordinates\":[[-6.227407,53.3677631],[-6.2273532,53.3678049]]}";44;Malahide Road;3;50;false;false;false;false;false;false;6.0;0;0;0;0;0;false;"";5546666689;-6.1819513;53.3966453;1184;4989754522;-6.25389;53.350769;0;0;1;7468116;27A - Blunden Drive - Eden Quay;"";Dublin Bus;27A;Blunden Drive;Eden Quay
360696797;"{\"type\":\"LineString\",\"coordinates\":[[-6.2292855,53.3648599],[-6.2292127,53.3651874],[-6.2291433,53.3653726],[-6.2289794,53.3657324],[-6.2288907,53.3658899],[-6.2287939,53.3660445],[-6.2286036,53.3663091],[-6.2283054,53.3667262],[-6.2282882,53.3667522],[-6.228019,53.3671343],[-6.2278836,53.3673136],[-6.2277239,53.3674803],[-6.2275532,53.3676339],[-6.2274843,53.3676984],[-6.227407,53.3677631]]}";45;Malahide Road;3;50;false;false;false;false;false;false;352.0;1;0;0;0;0;false;"";5546666689;-6.1819513;53.3966453;1184;4989754522;-6.25389;53.350769;0;0;1;7468116;27A - Blunden Drive - Eden Quay;"";Dublin Bus;27A;Blunden Drive;Eden Quay
3818324;"{\"type\":\"LineString\",\"coordinates\":[[-6.2298176,53.3643593],[-6.22963,53.3644894],[-6.2294875,53.364615],[-6.2294597,53.3646395],[-6.2293384,53.3647896],[-6.2292855,53.3648599]]}";46;Malahide Road;4;50;false;false;true;false;false;false;67.0;2;0;0;0;0;false;"";5546666689;-6.1819513;53.3966453;1184;4989754522;-6.25389;53.350769;0;0;1;7468116;27A - Blunden Drive - Eden Quay;"";Dublin Bus;27A;Blunden Drive;Eden Quay
197048019;"{\"type\":\"LineString\",\"coordinates\":[[-6.2329627,53.3638733],[-6.2327655,53.3639237],[-6.2326329,53.3639576],[-6.2318186,53.364153],[-6.2315617,53.3642009],[-6.2309918,53.3642942],[-6.2305584,53.3643355],[-6.2301531,53.3643532],[-6.2298176,53.3643593]]}";47;Marino Mart;6;50;false;false;true;false;false;false;220.0;1;0;0;0;0;false;"";5546666689;-6.1819513;53.3966453;1184;4989754522;-6.25389;53.350769;0;0;1;7468116;27A - Blunden Drive - Eden Quay;"";Dublin Bus;27A;Blunden Drive;Eden Quay
146465050;"{\"type\":\"LineString\",\"coordinates\":[[-6.2332619,53.3637949],[-6.2329627,53.3638733]]}";48;Marino Mart;5;50;false;false;true;false;false;false;22.0;0;0;0;0;0;false;"";5546666689;-6.1819513;53.3966453;1184;4989754522;-6.25389;53.350769;0;0;1;7468116;27A - Blunden Drive - Eden Quay;"";Dublin Bus;27A;Blunden Drive;Eden Quay
368990036;"{\"type\":\"LineString\",\"coordinates\":[[-6.234743,53.3633522],[-6.2342918,53.3634823],[-6.2335724,53.3636985],[-6.2332619,53.3637949]]}";49;Fairview;6;50;false;false;true;false;false;false;111.0;0;0;0;0;0;false;"";5546666689;-6.1819513;53.3966453;1184;4989754522;-6.25389;53.350769;0;0;1;7468116;27A - Blunden Drive - Eden Quay;"";Dublin Bus;27A;Blunden Drive;Eden Quay
22716429;"{\"type\":\"LineString\",\"coordinates\":[[-6.2364566,53.362849],[-6.2359464,53.3630073],[-6.235517,53.36313],[-6.2351937,53.3632223],[-6.234743,53.3633522]]}";50;Fairview;5;50;false;false;true;false;false;false;128.0;1;0;0;0;0;false;"";5546666689;-6.1819513;53.3966453;1184;4989754522;-6.25389;53.350769;0;0;1;7468116;27A - Blunden Drive - Eden Quay;"";Dublin Bus;27A;Blunden Drive;Eden Quay
442928296;"{\"type\":\"LineString\",\"coordinates\":[[-6.2368792,53.3624417],[-6.2366371,53.362675],[-6.2364566,53.362849]]}";51;Annesley Bridge Road;4;50;false;false;true;false;false;false;54.0;1;0;0;0;0;false;"";5546666689;-6.1819513;53.3966453;1184;4989754522;-6.25389;53.350769;0;0;1;7468116;27A - Blunden Drive - Eden Quay;"";Dublin Bus;27A;Blunden Drive;Eden Quay
4287188;"{\"type\":\"LineString\",\"coordinates\":[[-6.2385622,53.3610019],[-6.2384712,53.361078],[-6.2384312,53.3611116],[-6.2381319,53.3613631],[-6.2378516,53.3615991],[-6.2376588,53.3617555],[-6.2374039,53.3619789],[-6.2368792,53.3624417]]}";52;Annesley Bridge Road;5;50;false;false;true;false;false;false;197.0;0;0;0;0;0;false;"";5546666689;-6.1819513;53.3966453;1184;4989754522;-6.25389;53.350769;0;0;1;7468116;27A - Blunden Drive - Eden Quay;"";Dublin Bus;27A;Blunden Drive;Eden Quay
379071734;"{\"type\":\"LineString\",\"coordinates\":[[-6.2386869,53.3608994],[-6.2385622,53.3610019]]}";53;Annesley Bridge;5;50;false;false;true;false;false;false;15.0;0;0;0;0;0;false;"";5546666689;-6.1819513;53.3966453;1184;4989754522;-6.25389;53.350769;0;0;1;7468116;27A - Blunden Drive - Eden Quay;"";Dublin Bus;27A;Blunden Drive;Eden Quay
317219085;"{\"type\":\"LineString\",\"coordinates\":[[-6.2387285,53.3608653],[-6.2386869,53.3608994]]}";54;Annesley Bridge;5;50;false;false;true;false;false;false;5.0;0;0;0;0;0;false;"";5546666689;-6.1819513;53.3966453;1184;4989754522;-6.25389;53.350769;0;0;1;7468116;27A - Blunden Drive - Eden Quay;"";Dublin Bus;27A;Blunden Drive;Eden Quay
4937391;"{\"type\":\"LineString\",\"coordinates\":[[-6.2389493,53.3606838],[-6.2387285,53.3608653]]}";55;Annesley Bridge;5;50;false;false;true;false;false;false;26.0;0;0;0;0;0;false;"";5546666689;-6.1819513;53.3966453;1184;4989754522;-6.25389;53.350769;0;0;1;7468116;27A - Blunden Drive - Eden Quay;"";Dublin Bus;27A;Blunden Drive;Eden Quay
4937390;"{\"type\":\"LineString\",\"coordinates\":[[-6.2390148,53.3606292],[-6.2389493,53.3606838]]}";56;Annesley Bridge Road;5;50;false;false;true;false;false;false;8.0;1;0;0;0;0;false;"";5546666689;-6.1819513;53.3966453;1184;4989754522;-6.25389;53.350769;0;0;1;7468116;27A - Blunden Drive - Eden Quay;"";Dublin Bus;27A;Blunden Drive;Eden Quay
37096954;"{\"type\":\"LineString\",\"coordinates\":[[-6.2393619,53.3602691],[-6.2393368,53.3602973],[-6.2390148,53.3606292]]}";57;North Strand Road;5;50;false;false;true;false;false;false;47.0;1;0;0;0;0;false;"";5546666689;-6.1819513;53.3966453;1184;4989754522;-6.25389;53.350769;0;0;1;7468116;27A - Blunden Drive - Eden Quay;"";Dublin Bus;27A;Blunden Drive;Eden Quay
37812705;"{\"type\":\"LineString\",\"coordinates\":[[-6.2399931,53.3596662],[-6.2398718,53.3597745],[-6.2397449,53.3598965],[-6.2395592,53.3600684],[-6.2393619,53.3602691]]}";58;North Strand Road;6;50;false;false;true;false;false;false;80.0;0;0;0;0;0;false;"";5546666689;-6.1819513;53.3966453;1184;4989754522;-6.25389;53.350769;0;0;1;7468116;27A - Blunden Drive - Eden Quay;"";Dublin Bus;27A;Blunden Drive;Eden Quay
37691265;"{\"type\":\"LineString\",\"coordinates\":[[-6.2402921,53.3594225],[-6.2401285,53.3595559],[-6.2399931,53.3596662]]}";59;North Strand Road;1;50;false;false;true;false;false;false;34.0;1;1;0;0;0;false;"";5546666689;-6.1819513;53.3966453;1184;4989754522;-6.25389;53.350769;0;0;1;7468116;27A - Blunden Drive - Eden Quay;"";Dublin Bus;27A;Blunden Drive;Eden Quay
481221022;"{\"type\":\"LineString\",\"coordinates\":[[-6.2403848,53.3593319],[-6.2402921,53.3594225]]}";60;North Strand Road;4;50;false;false;true;false;false;false;12.0;1;0;0;0;0;false;"";5546666689;-6.1819513;53.3966453;1184;4989754522;-6.25389;53.350769;0;0;1;7468116;27A - Blunden Drive - Eden Quay;"";Dublin Bus;27A;Blunden Drive;Eden Quay
375581292;"{\"type\":\"LineString\",\"coordinates\":[[-6.2406104,53.3591044],[-6.2405626,53.3591582],[-6.2403848,53.3593319]]}";61;North Strand Road;4;50;false;false;true;false;false;false;30.0;0;0;0;0;0;false;"";5546666689;-6.1819513;53.3966453;1184;4989754522;-6.25389;53.350769;0;0;1;7468116;27A - Blunden Drive - Eden Quay;"";Dublin Bus;27A;Blunden Drive;Eden Quay
375581291;"{\"type\":\"LineString\",\"coordinates\":[[-6.2411525,53.3586229],[-6.2410033,53.3587408],[-6.2407429,53.3589741],[-6.2406104,53.3591044]]}";62;North Strand Road;4;50;false;false;true;false;false;false;66.0;0;0;0;0;0;false;"";5546666689;-6.1819513;53.3966453;1184;4989754522;-6.25389;53.350769;0;0;1;7468116;27A - Blunden Drive - Eden Quay;"";Dublin Bus;27A;Blunden Drive;Eden Quay
4287187;"{\"type\":\"LineString\",\"coordinates\":[[-6.2440112,53.3566966],[-6.2439907,53.3567109],[-6.2439701,53.3567252],[-6.2438134,53.3568295],[-6.2433013,53.3571552],[-6.2428201,53.3574756],[-6.2427373,53.3575342],[-6.2426136,53.3576186],[-6.242318,53.3578072],[-6.242179,53.3578988],[-6.2420588,53.3579854],[-6.2416794,53.3582301],[-6.2411525,53.3586229]]}";63;North Strand Road;4;50;false;false;true;false;false;false;289.0;1;0;0;0;0;false;"";5546666689;-6.1819513;53.3966453;1184;4989754522;-6.25389;53.350769;0;0;1;7468116;27A - Blunden Drive - Eden Quay;"";Dublin Bus;27A;Blunden Drive;Eden Quay
128947808;"{\"type\":\"LineString\",\"coordinates\":[[-6.2440112,53.3566966],[-6.2441549,53.3565972],[-6.2442545,53.3565305]]}";64;North Strand Road;4;50;false;false;true;false;false;false;25.0;0;0;0;0;0;false;"";5546666689;-6.1819513;53.3966453;1184;4989754522;-6.25389;53.350769;0;0;1;7468116;27A - Blunden Drive - Eden Quay;"";Dublin Bus;27A;Blunden Drive;Eden Quay
482926564;"{\"type\":\"LineString\",\"coordinates\":[[-6.2442545,53.3565305],[-6.2442572,53.356529]]}";65;North Strand Road;4;50;false;false;true;false;false;false;1.0;0;0;0;0;0;false;"";5546666689;-6.1819513;53.3966453;1184;4989754522;-6.25389;53.350769;0;0;1;7468116;27A - Blunden Drive - Eden Quay;"";Dublin Bus;27A;Blunden Drive;Eden Quay
317219095;"{\"type\":\"LineString\",\"coordinates\":[[-6.2442572,53.356529],[-6.2443719,53.3564514]]}";66;Newcomen Bridge;4;50;false;false;true;false;false;false;12.0;0;0;0;0;0;false;"";5546666689;-6.1819513;53.3966453;1184;4989754522;-6.25389;53.350769;0;0;1;7468116;27A - Blunden Drive - Eden Quay;"";Dublin Bus;27A;Blunden Drive;Eden Quay
502143950;"{\"type\":\"LineString\",\"coordinates\":[[-6.244431,53.3564115],[-6.2443719,53.3564514]]}";67;North Strand Road;4;50;false;false;true;false;false;false;6.0;0;0;0;0;0;false;"";5546666689;-6.1819513;53.3966453;1184;4989754522;-6.25389;53.350769;0;0;1;7468116;27A - Blunden Drive - Eden Quay;"";Dublin Bus;27A;Blunden Drive;Eden Quay
37720965;"{\"type\":\"LineString\",\"coordinates\":[[-6.2451039,53.3559576],[-6.2448331,53.3561421],[-6.2446829,53.3562416],[-6.244431,53.3564115]]}";68;North Strand Road;4;50;false;false;true;false;false;false;68.0;0;0;0;0;0;false;"";5546666689;-6.1819513;53.3966453;1184;4989754522;-6.25389;53.350769;0;0;1;7468116;27A - Blunden Drive - Eden Quay;"";Dublin Bus;27A;Blunden Drive;Eden Quay
37866821;"{\"type\":\"LineString\",\"coordinates\":[[-6.246288,53.3550671],[-6.2461724,53.355154],[-6.2455796,53.3555999],[-6.2454208,53.3557193],[-6.2451039,53.3559576]]}";69;North Strand Road;4;50;false;false;true;false;false;false;128.0;0;0;0;0;0;false;"";5546666689;-6.1819513;53.3966453;1184;4989754522;-6.25389;53.350769;0;0;1;7468116;27A - Blunden Drive - Eden Quay;"";Dublin Bus;27A;Blunden Drive;Eden Quay
130277328;"{\"type\":\"LineString\",\"coordinates\":[[-6.2466832,53.3547073],[-6.2464207,53.3549463],[-6.246288,53.3550671]]}";70;North Strand Road;4;50;false;false;true;false;false;false;49.0;1;0;0;0;0;false;"";5546666689;-6.1819513;53.3966453;1184;4989754522;-6.25389;53.350769;0;0;1;7468116;27A - Blunden Drive - Eden Quay;"";Dublin Bus;27A;Blunden Drive;Eden Quay
354359921;"{\"type\":\"LineString\",\"coordinates\":[[-6.2482417,53.3532579],[-6.2480663,53.3534157],[-6.2479425,53.3535212],[-6.2477435,53.3537091],[-6.2476425,53.3538045],[-6.2474421,53.3539932],[-6.2467814,53.3546178],[-6.2466832,53.3547073]]}";71;Amiens Street;4;50;false;false;true;false;false;false;194.0;1;0;0;0;0;false;"";5546666689;-6.1819513;53.3966453;1184;4989754522;-6.25389;53.350769;0;0;1;7468116;27A - Blunden Drive - Eden Quay;"";Dublin Bus;27A;Blunden Drive;Eden Quay
354359922;"{\"type\":\"LineString\",\"coordinates\":[[-6.2486188,53.3529497],[-6.2482417,53.3532579]]}";72;Amiens Street;3;50;false;false;true;false;false;false;43.0;0;0;0;0;0;false;"";5546666689;-6.1819513;53.3966453;1184;4989754522;-6.25389;53.350769;0;0;1;7468116;27A - Blunden Drive - Eden Quay;"";Dublin Bus;27A;Blunden Drive;Eden Quay
520012242;"{\"type\":\"LineString\",\"coordinates\":[[-6.2488824,53.3527225],[-6.2487534,53.3528355],[-6.2486188,53.3529497]]}";73;Amiens Street;3;50;false;false;true;false;false;false;31.0;0;0;0;0;0;false;"";5546666689;-6.1819513;53.3966453;1184;4989754522;-6.25389;53.350769;0;0;1;7468116;27A - Blunden Drive - Eden Quay;"";Dublin Bus;27A;Blunden Drive;Eden Quay
37865180;"{\"type\":\"LineString\",\"coordinates\":[[-6.2494985,53.3521529],[-6.249236,53.3524035],[-6.2489537,53.3526565],[-6.2488824,53.3527225]]}";74;Amiens Street;3;50;false;false;true;false;false;false;77.0;0;1;0;0;0;false;"";5546666689;-6.1819513;53.3966453;1184;4989754522;-6.25389;53.350769;0;0;1;7468116;27A - Blunden Drive - Eden Quay;"";Dublin Bus;27A;Blunden Drive;Eden Quay
37865179;"{\"type\":\"LineString\",\"coordinates\":[[-6.2497435,53.3518457],[-6.2497261,53.351872],[-6.2494985,53.3521529]]}";75;Amiens Street;4;50;false;false;true;false;false;false;39.0;0;0;0;0;0;false;"";5546666689;-6.1819513;53.3966453;1184;4989754522;-6.25389;53.350769;0;0;1;7468116;27A - Blunden Drive - Eden Quay;"";Dublin Bus;27A;Blunden Drive;Eden Quay
37865178;"{\"type\":\"LineString\",\"coordinates\":[[-6.2500678,53.3513705],[-6.2500118,53.3514696],[-6.2498406,53.3517174],[-6.2497435,53.3518457]]}";76;Amiens Street;5;50;false;false;true;false;false;false;58.0;1;0;0;0;0;false;"";5546666689;-6.1819513;53.3966453;1184;4989754522;-6.25389;53.350769;0;0;1;7468116;27A - Blunden Drive - Eden Quay;"";Dublin Bus;27A;Blunden Drive;Eden Quay
50214631;"{\"type\":\"LineString\",\"coordinates\":[[-6.2500678,53.3513705],[-6.2502517,53.351399],[-6.2503298,53.3514111],[-6.2504867,53.351415],[-6.2506263,53.3513849],[-6.2507508,53.3513236],[-6.2511367,53.3512594],[-6.251187,53.351251]]}";77;Talbot Street;1;30;false;true;true;false;false;false;80.0;1;0;0;0;0;false;"";5546666689;-6.1819513;53.3966453;1184;4989754522;-6.25389;53.350769;0;0;1;7468116;27A - Blunden Drive - Eden Quay;"";Dublin Bus;27A;Blunden Drive;Eden Quay
584286612;"{\"type\":\"LineString\",\"coordinates\":[[-6.251187,53.351251],[-6.2513925,53.351217],[-6.2516543,53.3511778],[-6.2522025,53.3510978],[-6.2522591,53.351056],[-6.2524118,53.3510339],[-6.2528073,53.3509702],[-6.2528129,53.3509693],[-6.2530002,53.3509413],[-6.2530513,53.3509412]]}";78;Talbot Street;1;30;false;true;true;false;false;false;131.0;0;0;0;0;0;false;"";5546666689;-6.1819513;53.3966453;1184;4989754522;-6.25389;53.350769;0;0;1;7468116;27A - Blunden Drive - Eden Quay;"";Dublin Bus;27A;Blunden Drive;Eden Quay
584286613;"{\"type\":\"LineString\",\"coordinates\":[[-6.2530513,53.3509412],[-6.2531516,53.350939],[-6.253572,53.3508659],[-6.2536518,53.3508653]]}";79;Talbot Street;1;30;false;true;true;false;false;false;42.0;0;0;0;0;0;false;"";5546666689;-6.1819513;53.3966453;1184;4989754522;-6.25389;53.350769;0;0;1;7468116;27A - Blunden Drive - Eden Quay;"";Dublin Bus;27A;Blunden Drive;Eden Quay
481221021;"{\"type\":\"LineString\",\"coordinates\":[[-6.2536518,53.3508653],[-6.2537052,53.3508663],[-6.2539188,53.3508295]]}";80;Talbot Street;1;30;false;true;true;false;false;false;19.0;0;0;0;0;0;false;"";5546666689;-6.1819513;53.3966453;1184;4989754522;-6.25389;53.350769;1;0;1;7468116;27A - Blunden Drive - Eden Quay;"";Dublin Bus;27A;Blunden Drive;Eden Quay
