way_id;shape;index;name;nb_lanes;legal_speed;speed_zone_30;oneway;shares_bike;bike_box;bus_lane;dedicated_bus_lane;length;nb_traffic_signals;nb_crossings;nb_stops;nb_give_ways;nb_lvl_crossings;roundabout;stop_id_orig;node_id_orig;coord_x_orig;coord_y_orig;stop_id_dest;node_id_dest;coord_x_dest;coord_y_dest;nb_neighbouring_ways_bus_stop;ordre_orig;ordre_dest;id_line;line_name;colour;operator;ref;from;to
198481396;"{\"type\":\"LineString\",\"coordinates\":[[-74.0082633,45.3866527],[-74.0083776,45.3866551],[-74.0086485,45.3866475],[-74.0087451,45.3866475],[-74.0087987,45.3866344],[-74.008855,45.3866042],[-74.008968,45.386553],[-74.0091367,45.3865345],[-74.0092171,45.3865458],[-74.0092849,45.3865741]]}";1;"";1;50;false;false;true;false;false;false;85.0;0;0;0;0;0;false;72946;5215346228;-74.008327;45.386603;72830;6133272626;-74.011793;45.386154;1;0;1;9464619;Bus 3 : Service AM;"";EXO;3 AM;Gare Dorion;Gare Dorion
44334260;"{\"type\":\"LineString\",\"coordinates\":[[-74.0082633,45.3866527],[-74.0082951,45.3868],[-74.0083295,45.3868482],[-74.008457,45.3869776]]}";2;Avenue du Club;2;50;false;false;true;false;false;false;41.0;0;0;0;0;0;false;72946;5215346228;-74.008327;45.386603;72830;6133272626;-74.011793;45.386154;0;0;1;9464619;Bus 3 : Service AM;"";EXO;3 AM;Gare Dorion;Gare Dorion
682297509;"{\"type\":\"LineString\",\"coordinates\":[[-74.008457,45.3869776],[-74.0090577,45.3876073],[-74.009738,45.3883109]]}";3;Avenue du Club;2;50;false;false;true;false;false;false;179.0;0;0;0;0;0;false;72946;5215346228;-74.008327;45.386603;72830;6133272626;-74.011793;45.386154;0;0;1;9464619;Bus 3 : Service AM;"";EXO;3 AM;Gare Dorion;Gare Dorion
682126584;"{\"type\":\"LineString\",\"coordinates\":[[-74.009738,45.3883109],[-74.0107899,45.3878174]]}";4;Rue Adèle;2;50;false;false;true;false;false;false;99.0;0;0;0;0;0;false;72946;5215346228;-74.008327;45.386603;72830;6133272626;-74.011793;45.386154;0;0;1;9464619;Bus 3 : Service AM;"";EXO;3 AM;Gare Dorion;Gare Dorion
387944984;"{\"type\":\"LineString\",\"coordinates\":[[-74.0107899,45.3878174],[-74.0119411,45.3872748]]}";5;Rue Adèle;1;50;false;true;true;false;false;false;109.0;0;0;0;0;0;false;72946;5215346228;-74.008327;45.386603;72830;6133272626;-74.011793;45.386154;0;0;1;9464619;Bus 3 : Service AM;"";EXO;3 AM;Gare Dorion;Gare Dorion
196778892;"{\"type\":\"LineString\",\"coordinates\":[[-74.0119411,45.3872748],[-74.012677,45.3869375]]}";6;Rue Adèle;2;50;false;true;true;false;false;false;69.0;0;0;0;0;0;false;72946;5215346228;-74.008327;45.386603;72830;6133272626;-74.011793;45.386154;0;0;1;9464619;Bus 3 : Service AM;"";EXO;3 AM;Gare Dorion;Gare Dorion
28771779;"{\"type\":\"LineString\",\"coordinates\":[[-74.012677,45.3869375],[-74.012342,45.3865874],[-74.0122539,45.3865255]]}";7;Avenue Saint-Charles;2;50;false;true;false;false;false;false;57.0;0;0;0;0;0;false;72946;5215346228;-74.008327;45.386603;72830;6133272626;-74.011793;45.386154;0;0;1;9464619;Bus 3 : Service AM;"";EXO;3 AM;Gare Dorion;Gare Dorion
289484699;"{\"type\":\"LineString\",\"coordinates\":[[-74.0122539,45.3865255],[-74.0121182,45.386465],[-74.0119482,45.3864386],[-74.0116362,45.3864763]]}";8;Avenue Saint-Charles;2;50;false;true;true;false;false;false;51.0;0;0;0;0;0;false;72946;5215346228;-74.008327;45.386603;72830;6133272626;-74.011793;45.386154;0;0;1;9464619;Bus 3 : Service AM;"";EXO;3 AM;Gare Dorion;Gare Dorion
218549327;"{\"type\":\"LineString\",\"coordinates\":[[-74.0116362,45.3864763],[-74.0113815,45.3865017],[-74.0111592,45.3864847],[-74.0110089,45.3864421],[-74.010889,45.3863825]]}";9;Avenue Saint-Charles;2;50;false;true;false;false;false;false;62.0;0;0;0;0;0;false;72946;5215346228;-74.008327;45.386603;72830;6133272626;-74.011793;45.386154;0;0;1;9464619;Bus 3 : Service AM;"";EXO;3 AM;Gare Dorion;Gare Dorion
414517121;"{\"type\":\"LineString\",\"coordinates\":[[-74.010889,45.3863825],[-74.0104732,45.3858744]]}";10;Avenue Saint-Charles;2;50;false;true;false;false;false;false;66.0;1;0;0;0;0;false;72946;5215346228;-74.008327;45.386603;72830;6133272626;-74.011793;45.386154;0;0;1;9464619;Bus 3 : Service AM;"";EXO;3 AM;Gare Dorion;Gare Dorion
682126583;"{\"type\":\"LineString\",\"coordinates\":[[-74.0103659,45.3859143],[-74.0104732,45.3858744]]}";11;Rue Valois;2;50;false;false;true;false;false;false;10.0;2;0;0;0;0;false;72946;5215346228;-74.008327;45.386603;72830;6133272626;-74.011793;45.386154;0;0;1;9464619;Bus 3 : Service AM;"";EXO;3 AM;Gare Dorion;Gare Dorion
44334263;"{\"type\":\"LineString\",\"coordinates\":[[-74.0104732,45.3858744],[-74.0107399,45.3857784],[-74.0111776,45.3856163],[-74.011261,45.3856122],[-74.0113144,45.3856203],[-74.0113678,45.3856427]]}";12;Rue Valois;2;50;false;false;true;false;false;false;78.0;1;0;0;0;0;false;72946;5215346228;-74.008327;45.386603;72830;6133272626;-74.011793;45.386154;0;0;1;9464619;Bus 3 : Service AM;"";EXO;3 AM;Gare Dorion;Gare Dorion
44334264;"{\"type\":\"LineString\",\"coordinates\":[[-74.0141512,45.3856377],[-74.0137121,45.3851715],[-74.0135083,45.3850763],[-74.0133579,45.385063],[-74.0124992,45.3853411],[-74.0114356,45.3856246],[-74.0113678,45.3856427]]}";13;Avenue Charbonneau;2;50;false;true;false;false;false;false;262.0;0;0;0;0;0;false;72946;5215346228;-74.008327;45.386603;72830;6133272626;-74.011793;45.386154;0;0;1;9464619;Bus 3 : Service AM;"";EXO;3 AM;Gare Dorion;Gare Dorion
289484698;"{\"type\":\"LineString\",\"coordinates\":[[-74.0113678,45.3856427],[-74.0117593,45.3860396],[-74.0118208,45.3860651],[-74.0118906,45.3860633]]}";14;Rue Valois;1;40;false;true;true;false;false;false;65.0;0;0;0;0;0;false;72946;5215346228;-74.008327;45.386603;72830;6133272626;-74.011793;45.386154;2;0;1;9464619;Bus 3 : Service AM;"";EXO;3 AM;Gare Dorion;Gare Dorion
690197281;"{\"type\":\"LineString\",\"coordinates\":[[-74.0118906,45.3860633],[-74.01311,45.3860125],[-74.0132576,45.3860101],[-74.0133409,45.3859963],[-74.0133852,45.385989],[-74.0135815,45.3859003],[-74.013708,45.385842],[-74.0137979,45.3858006],[-74.0138996,45.3857537],[-74.0141512,45.3856377]]}";1;Rue Valois;1;40;false;true;false;false;false;false;189.0;0;0;0;0;0;false;72830;6133272626;-74.011793;45.386154;72553;6133273500;-74.01897;45.383388;2;1;2;9464619;Bus 3 : Service AM;"";EXO;3 AM;Gare Dorion;Gare Dorion
198485237;"{\"type\":\"LineString\",\"coordinates\":[[-74.0141512,45.3856377],[-74.0146768,45.3853832],[-74.0150179,45.3852181],[-74.0159419,45.3847708],[-74.0173984,45.3840656],[-74.0176075,45.3839644]]}";2;Rue Valois;2;40;false;false;true;false;false;false;329.0;0;0;0;0;0;false;72830;6133272626;-74.011793;45.386154;72553;6133273500;-74.01897;45.383388;0;1;2;9464619;Bus 3 : Service AM;"";EXO;3 AM;Gare Dorion;Gare Dorion
690197287;"{\"type\":\"LineString\",\"coordinates\":[[-74.0176075,45.3839644],[-74.0180612,45.3837494],[-74.0190234,45.3832934],[-74.0192122,45.3832012],[-74.0201984,45.3827247],[-74.0214646,45.3821185]]}";3;Rue Valois;2;40;false;false;true;false;false;false;365.0;0;0;0;0;0;false;72830;6133272626;-74.011793;45.386154;72553;6133273500;-74.01897;45.383388;2;1;2;9464619;Bus 3 : Service AM;"";EXO;3 AM;Gare Dorion;Gare Dorion
682126568;"{\"type\":\"LineString\",\"coordinates\":[[-74.0226439,45.3833366],[-74.0219894,45.3826606],[-74.0214646,45.3821185]]}";1;2e Avenue;2;50;false;false;true;false;false;false;164.0;0;0;0;0;0;false;72935;6133272222;-74.021405;45.382178;72923;6133272234;-74.024509;45.380671;2;3;4;9464619;Bus 3 : Service AM;"";EXO;3 AM;Gare Dorion;Gare Dorion
682126567;"{\"type\":\"LineString\",\"coordinates\":[[-74.0214646,45.3821185],[-74.0223138,45.3817085],[-74.0227807,45.3814831],[-74.0237543,45.381013]]}";2;Rue Valois;2;40;false;false;true;false;false;false;218.0;0;0;0;0;0;false;72935;6133272222;-74.021405;45.382178;72923;6133272234;-74.024509;45.380671;0;3;4;9464619;Bus 3 : Service AM;"";EXO;3 AM;Gare Dorion;Gare Dorion
682126571;"{\"type\":\"LineString\",\"coordinates\":[[-74.0237543,45.381013],[-74.0244995,45.3806517],[-74.024606,45.3806001]]}";3;Rue Valois;2;40;false;false;true;false;false;false;81.0;0;0;0;0;0;false;72935;6133272222;-74.021405;45.382178;72923;6133272234;-74.024509;45.380671;2;3;4;9464619;Bus 3 : Service AM;"";EXO;3 AM;Gare Dorion;Gare Dorion
44443766;"{\"type\":\"LineString\",\"coordinates\":[[-74.024606,45.3806001],[-74.0267658,45.382833],[-74.0268989,45.3828369]]}";1;4e Avenue;2;50;false;false;true;false;false;false;311.0;0;0;0;0;0;false;72923;6133272234;-74.024509;45.380671;72615;6133273238;-74.028696;45.378701;2;4;5;9464619;Bus 3 : Service AM;"";EXO;3 AM;Gare Dorion;Gare Dorion
682126572;"{\"type\":\"LineString\",\"coordinates\":[[-74.024606,45.3806001],[-74.0249936,45.3804138],[-74.0254245,45.3802066],[-74.0260007,45.3799296],[-74.0262249,45.3798218],[-74.0270406,45.3794296],[-74.0279183,45.3790077],[-74.0287755,45.3785956]]}";2;Rue Valois;2;40;false;false;true;false;false;false;396.0;0;0;0;0;0;false;72923;6133272234;-74.024509;45.380671;72615;6133273238;-74.028696;45.378701;2;4;5;9464619;Bus 3 : Service AM;"";EXO;3 AM;Gare Dorion;Gare Dorion
44443768;"{\"type\":\"LineString\",\"coordinates\":[[-74.0268989,45.3828369],[-74.0301655,45.3812822],[-74.0304239,45.381043],[-74.0305321,45.3808256]]}";1;Rue Archambault;2;50;false;false;true;false;false;false;184.0;0;0;0;0;0;false;72715;6133272940;-74.027183;45.3826;72924;6133272233;-74.024689;45.380643;1;19;20;9464619;Bus 3 : Service AM;"";EXO;3 AM;Gare Dorion;Gare Dorion
44443766;"{\"type\":\"LineString\",\"coordinates\":[[-74.024606,45.3806001],[-74.0267658,45.382833],[-74.0268989,45.3828369]]}";2;4e Avenue;2;50;false;false;true;false;false;false;155.5;0;0;0;0;0;false;72715;6133272940;-74.027183;45.3826;72924;6133272233;-74.024689;45.380643;1;19;20;9464619;Bus 3 : Service AM;"";EXO;3 AM;Gare Dorion;Gare Dorion
682126572;"{\"type\":\"LineString\",\"coordinates\":[[-74.024606,45.3806001],[-74.0249936,45.3804138],[-74.0254245,45.3802066],[-74.0260007,45.3799296],[-74.0262249,45.3798218],[-74.0270406,45.3794296],[-74.0279183,45.3790077],[-74.0287755,45.3785956]]}";1;Rue Valois;2;40;false;false;true;false;false;false;396.0;0;0;0;0;0;false;72924;6133272233;-74.024689;45.380643;72732;6133272923;-74.024335;45.382152;2;20;21;9464619;Bus 3 : Service AM;"";EXO;3 AM;Gare Dorion;Gare Dorion
682126574;"{\"type\":\"LineString\",\"coordinates\":[[-74.0287755,45.3785956],[-74.0291477,45.3784135],[-74.0292698,45.3783538],[-74.0294951,45.3782436],[-74.0301272,45.3779344],[-74.0307516,45.3776289],[-74.0313896,45.3773168],[-74.0320035,45.3770165],[-74.0324213,45.3768121],[-74.0327722,45.3766833],[-74.0330678,45.37661]]}";2;Rue Valois;2;40;false;false;true;false;false;false;403.0;0;0;0;0;0;false;72924;6133272233;-74.024689;45.380643;72732;6133272923;-74.024335;45.382152;0;20;21;9464619;Bus 3 : Service AM;"";EXO;3 AM;Gare Dorion;Gare Dorion
44443770;"{\"type\":\"LineString\",\"coordinates\":[[-74.0305321,45.3808256],[-74.030537,45.3806562],[-74.0305236,45.380488],[-74.0304108,45.380252],[-74.0287755,45.3785956]]}";3;8e Avenue;2;50;false;false;true;false;false;false;290.0;0;0;0;0;0;false;72924;6133272233;-74.024689;45.380643;72732;6133272923;-74.024335;45.382152;0;20;21;9464619;Bus 3 : Service AM;"";EXO;3 AM;Gare Dorion;Gare Dorion
44443768;"{\"type\":\"LineString\",\"coordinates\":[[-74.0268989,45.3828369],[-74.0301655,45.3812822],[-74.0304239,45.381043],[-74.0305321,45.3808256]]}";4;Rue Archambault;2;50;false;false;true;false;false;false;368.0;0;0;0;0;0;false;72924;6133272233;-74.024689;45.380643;72732;6133272923;-74.024335;45.382152;0;20;21;9464619;Bus 3 : Service AM;"";EXO;3 AM;Gare Dorion;Gare Dorion
44443766;"{\"type\":\"LineString\",\"coordinates\":[[-74.024606,45.3806001],[-74.0267658,45.382833],[-74.0268989,45.3828369]]}";5;4e Avenue;2;50;false;false;true;false;false;false;311.0;0;0;0;0;0;false;72924;6133272233;-74.024689;45.380643;72732;6133272923;-74.024335;45.382152;0;20;21;9464619;Bus 3 : Service AM;"";EXO;3 AM;Gare Dorion;Gare Dorion
682126571;"{\"type\":\"LineString\",\"coordinates\":[[-74.0237543,45.381013],[-74.0244995,45.3806517],[-74.024606,45.3806001]]}";6;Rue Valois;2;40;false;false;true;false;false;false;81.0;0;0;0;0;0;false;72924;6133272233;-74.024689;45.380643;72732;6133272923;-74.024335;45.382152;0;20;21;9464619;Bus 3 : Service AM;"";EXO;3 AM;Gare Dorion;Gare Dorion
682126567;"{\"type\":\"LineString\",\"coordinates\":[[-74.0214646,45.3821185],[-74.0223138,45.3817085],[-74.0227807,45.3814831],[-74.0237543,45.381013]]}";7;Rue Valois;2;40;false;false;true;false;false;false;218.0;0;0;0;0;0;false;72924;6133272233;-74.024689;45.380643;72732;6133272923;-74.024335;45.382152;0;20;21;9464619;Bus 3 : Service AM;"";EXO;3 AM;Gare Dorion;Gare Dorion
44443795;"{\"type\":\"LineString\",\"coordinates\":[[-74.0226439,45.3833366],[-74.0241625,45.3826032],[-74.0243215,45.3824436],[-74.0243956,45.3822792],[-74.0244552,45.3821556],[-74.0244698,45.3820087],[-74.0244124,45.38176],[-74.0242747,45.3815178],[-74.023823,45.3810875],[-74.0237543,45.381013]]}";8;Avenue du Curé-David;2;50;false;false;true;false;false;false;343.0;0;0;0;0;0;false;72924;6133272233;-74.024689;45.380643;72732;6133272923;-74.024335;45.382152;2;20;21;9464619;Bus 3 : Service AM;"";EXO;3 AM;Gare Dorion;Gare Dorion
44443795;"{\"type\":\"LineString\",\"coordinates\":[[-74.0226439,45.3833366],[-74.0241625,45.3826032],[-74.0243215,45.3824436],[-74.0243956,45.3822792],[-74.0244552,45.3821556],[-74.0244698,45.3820087],[-74.0244124,45.38176],[-74.0242747,45.3815178],[-74.023823,45.3810875],[-74.0237543,45.381013]]}";1;Avenue du Curé-David;2;50;false;false;true;false;false;false;171.5;0;0;0;0;0;false;72732;6133272923;-74.024335;45.382152;72734;6133272921;-74.022661;45.383265;1;21;22;9464619;Bus 3 : Service AM;"";EXO;3 AM;Gare Dorion;Gare Dorion
682126568;"{\"type\":\"LineString\",\"coordinates\":[[-74.0226439,45.3833366],[-74.0219894,45.3826606],[-74.0214646,45.3821185]]}";2;2e Avenue;2;50;false;false;true;false;false;false;82.0;0;0;0;0;0;false;72732;6133272923;-74.024335;45.382152;72734;6133272921;-74.022661;45.383265;1;21;22;9464619;Bus 3 : Service AM;"";EXO;3 AM;Gare Dorion;Gare Dorion
44443795;"{\"type\":\"LineString\",\"coordinates\":[[-74.0226439,45.3833366],[-74.0241625,45.3826032],[-74.0243215,45.3824436],[-74.0243956,45.3822792],[-74.0244552,45.3821556],[-74.0244698,45.3820087],[-74.0244124,45.38176],[-74.0242747,45.3815178],[-74.023823,45.3810875],[-74.0237543,45.381013]]}";1;Avenue du Curé-David;2;50;false;false;true;false;false;false;343.0;0;0;0;0;0;false;72734;6133272921;-74.022661;45.383265;72936;6133272221;-74.021551;45.382145;2;22;23;9464619;Bus 3 : Service AM;"";EXO;3 AM;Gare Dorion;Gare Dorion
682126568;"{\"type\":\"LineString\",\"coordinates\":[[-74.0226439,45.3833366],[-74.0219894,45.3826606],[-74.0214646,45.3821185]]}";2;2e Avenue;2;50;false;false;true;false;false;false;164.0;0;0;0;0;0;false;72734;6133272921;-74.022661;45.383265;72936;6133272221;-74.021551;45.382145;2;22;23;9464619;Bus 3 : Service AM;"";EXO;3 AM;Gare Dorion;Gare Dorion
682126567;"{\"type\":\"LineString\",\"coordinates\":[[-74.0214646,45.3821185],[-74.0223138,45.3817085],[-74.0227807,45.3814831],[-74.0237543,45.381013]]}";1;Rue Valois;2;40;false;false;true;false;false;false;218.0;0;0;0;0;0;false;72936;6133272221;-74.021551;45.382145;72552;6133273501;-74.019128;45.383161;2;23;24;9464619;Bus 3 : Service AM;"";EXO;3 AM;Gare Dorion;Gare Dorion
690197287;"{\"type\":\"LineString\",\"coordinates\":[[-74.0176075,45.3839644],[-74.0180612,45.3837494],[-74.0190234,45.3832934],[-74.0192122,45.3832012],[-74.0201984,45.3827247],[-74.0214646,45.3821185]]}";2;Rue Valois;2;40;false;false;true;false;false;false;365.0;0;0;0;0;0;false;72936;6133272221;-74.021551;45.382145;72552;6133273501;-74.019128;45.383161;2;23;24;9464619;Bus 3 : Service AM;"";EXO;3 AM;Gare Dorion;Gare Dorion
690197287;"{\"type\":\"LineString\",\"coordinates\":[[-74.0176075,45.3839644],[-74.0180612,45.3837494],[-74.0190234,45.3832934],[-74.0192122,45.3832012],[-74.0201984,45.3827247],[-74.0214646,45.3821185]]}";1;Rue Valois;2;40;false;false;true;false;false;false;182.5;0;0;0;0;0;false;72552;6133273501;-74.019128;45.383161;72833;2070698436;-74.0113861;45.3855673;1;24;25;9464619;Bus 3 : Service AM;"";EXO;3 AM;Gare Dorion;Gare Dorion
198485237;"{\"type\":\"LineString\",\"coordinates\":[[-74.0141512,45.3856377],[-74.0146768,45.3853832],[-74.0150179,45.3852181],[-74.0159419,45.3847708],[-74.0173984,45.3840656],[-74.0176075,45.3839644]]}";2;Rue Valois;2;40;false;false;true;false;false;false;329.0;0;0;0;0;0;false;72552;6133273501;-74.019128;45.383161;72833;2070698436;-74.0113861;45.3855673;0;24;25;9464619;Bus 3 : Service AM;"";EXO;3 AM;Gare Dorion;Gare Dorion
44334264;"{\"type\":\"LineString\",\"coordinates\":[[-74.0141512,45.3856377],[-74.0137121,45.3851715],[-74.0135083,45.3850763],[-74.0133579,45.385063],[-74.0124992,45.3853411],[-74.0114356,45.3856246],[-74.0113678,45.3856427]]}";3;Avenue Charbonneau;2;50;false;true;false;false;false;false;131.0;0;0;0;0;0;false;72552;6133273501;-74.019128;45.383161;72833;2070698436;-74.0113861;45.3855673;1;24;25;9464619;Bus 3 : Service AM;"";EXO;3 AM;Gare Dorion;Gare Dorion
44334263;"{\"type\":\"LineString\",\"coordinates\":[[-74.0104732,45.3858744],[-74.0107399,45.3857784],[-74.0111776,45.3856163],[-74.011261,45.3856122],[-74.0113144,45.3856203],[-74.0113678,45.3856427]]}";1;Rue Valois;2;50;false;false;true;false;false;false;78.0;1;0;0;0;0;false;72833;2070698436;-74.0113861;45.3855673;72946;5215346228;-74.008327;45.386603;2;25;26;9464619;Bus 3 : Service AM;"";EXO;3 AM;Gare Dorion;Gare Dorion
682126583;"{\"type\":\"LineString\",\"coordinates\":[[-74.0103659,45.3859143],[-74.0104732,45.3858744]]}";2;Rue Valois;2;50;false;false;true;false;false;false;10.0;2;0;0;0;0;false;72833;2070698436;-74.0113861;45.3855673;72946;5215346228;-74.008327;45.386603;0;25;26;9464619;Bus 3 : Service AM;"";EXO;3 AM;Gare Dorion;Gare Dorion
387944983;"{\"type\":\"LineString\",\"coordinates\":[[-74.0103659,45.3859143],[-74.0104279,45.385992],[-74.0107292,45.3863772],[-74.0109227,45.3866488],[-74.0109765,45.386714]]}";3;Avenue Saint-Henri;2;50;false;true;true;false;false;false;101.0;1;0;0;0;0;false;72833;2070698436;-74.0113861;45.3855673;72946;5215346228;-74.008327;45.386603;0;25;26;9464619;Bus 3 : Service AM;"";EXO;3 AM;Gare Dorion;Gare Dorion
456611436;"{\"type\":\"LineString\",\"coordinates\":[[-74.0109765,45.386714],[-74.0100993,45.3871046]]}";4;Rue Trestler;1;50;false;true;true;false;false;false;82.0;0;0;0;0;0;false;72833;2070698436;-74.0113861;45.3855673;72946;5215346228;-74.008327;45.386603;0;25;26;9464619;Bus 3 : Service AM;"";EXO;3 AM;Gare Dorion;Gare Dorion
682126563;"{\"type\":\"LineString\",\"coordinates\":[[-74.0100993,45.3871046],[-74.009574,45.3865709],[-74.0094408,45.386526],[-74.0093903,45.3865409],[-74.0092963,45.3865686],[-74.0092849,45.3865741]]}";5;Avenue Vaudreuil;2;50;false;false;true;false;false;false;98.0;0;0;0;0;0;false;72833;2070698436;-74.0113861;45.3855673;72946;5215346228;-74.008327;45.386603;0;25;26;9464619;Bus 3 : Service AM;"";EXO;3 AM;Gare Dorion;Gare Dorion
198481396;"{\"type\":\"LineString\",\"coordinates\":[[-74.0082633,45.3866527],[-74.0083776,45.3866551],[-74.0086485,45.3866475],[-74.0087451,45.3866475],[-74.0087987,45.3866344],[-74.008855,45.3866042],[-74.008968,45.386553],[-74.0091367,45.3865345],[-74.0092171,45.3865458],[-74.0092849,45.3865741]]}";6;"";1;50;false;false;true;false;false;false;85.0;0;0;0;0;0;false;72833;2070698436;-74.0113861;45.3855673;72946;5215346228;-74.008327;45.386603;1;25;26;9464619;Bus 3 : Service AM;"";EXO;3 AM;Gare Dorion;Gare Dorion
