way_id;shape;index;name;nb_lanes;legal_speed;speed_zone_30;oneway;shares_bike;bike_box;bus_lane;dedicated_bus_lane;length;nb_traffic_signals;nb_crossings;nb_stops;nb_give_ways;nb_lvl_crossings;roundabout;stop_id_orig;node_id_orig;coord_x_orig;coord_y_orig;stop_id_dest;node_id_dest;coord_x_dest;coord_y_dest;nb_neighbouring_ways_bus_stop;ordre_orig;ordre_dest;id_line;line_name;colour;operator;ref;from;to
678143317;"{\"type\":\"LineString\",\"coordinates\":[[-73.6827245,45.5596752],[-73.682528,45.5597726]]}";1;"";1;50;false;false;true;false;false;false;19.0;0;0;0;0;0;false;"47073;47022;47222;47048;47074";6269510223;-73.68259;45.559843;41842;6269510244;-73.68204;45.56156;1;0;1;9312763;Bus : 48 E - Direction Duvernay;"";STL;48E;Métro Cartier Quai:9;Terminus Haut-Saint-François
679314283;"{\"type\":\"LineString\",\"coordinates\":[[-73.6829266,45.5595727],[-73.6827245,45.5596752]]}";2;"";1;50;false;false;true;false;false;false;20.0;0;0;0;0;0;false;"47073;47022;47222;47048;47074";6269510223;-73.68259;45.559843;41842;6269510244;-73.68204;45.56156;0;0;1;9312763;Bus : 48 E - Direction Duvernay;"";STL;48E;Métro Cartier Quai:9;Terminus Haut-Saint-François
679314278;"{\"type\":\"LineString\",\"coordinates\":[[-73.6831224,45.5594735],[-73.6829266,45.5595727]]}";3;"";1;50;false;false;true;false;false;false;19.0;0;0;0;0;0;false;"47073;47022;47222;47048;47074";6269510223;-73.68259;45.559843;41842;6269510244;-73.68204;45.56156;0;0;1;9312763;Bus : 48 E - Direction Duvernay;"";STL;48E;Métro Cartier Quai:9;Terminus Haut-Saint-François
676619309;"{\"type\":\"LineString\",\"coordinates\":[[-73.6832245,45.5594238],[-73.6831224,45.5594735]]}";4;"";1;50;false;false;true;false;false;false;10.0;0;0;0;0;0;false;"47073;47022;47222;47048;47074";6269510223;-73.68259;45.559843;41842;6269510244;-73.68204;45.56156;0;0;1;9312763;Bus : 48 E - Direction Duvernay;"";STL;48E;Métro Cartier Quai:9;Terminus Haut-Saint-François
242652093;"{\"type\":\"LineString\",\"coordinates\":[[-73.6835499,45.5592626],[-73.6832245,45.5594238]]}";5;"";1;50;false;false;true;false;false;false;32.0;0;0;0;0;0;false;"47073;47022;47222;47048;47074";6269510223;-73.68259;45.559843;41842;6269510244;-73.68204;45.56156;0;0;1;9312763;Bus : 48 E - Direction Duvernay;"";STL;48E;Métro Cartier Quai:9;Terminus Haut-Saint-François
258700561;"{\"type\":\"LineString\",\"coordinates\":[[-73.6835499,45.5592626],[-73.6836785,45.5593759],[-73.683829,45.5595086],[-73.6840984,45.5597503]]}";6;Montée Major;1;50;false;false;true;false;false;false;70.0;1;0;0;0;0;false;"47073;47022;47222;47048;47074";6269510223;-73.68259;45.559843;41842;6269510244;-73.68204;45.56156;0;0;1;9312763;Bus : 48 E - Direction Duvernay;"";STL;48E;Métro Cartier Quai:9;Terminus Haut-Saint-François
669902218;"{\"type\":\"LineString\",\"coordinates\":[[-73.6840984,45.5597503],[-73.6835265,45.5600532],[-73.6830194,45.5603075]]}";7;Boulevard Cartier Ouest;2;50;false;true;true;false;false;false;105.0;2;0;0;0;0;false;"47073;47022;47222;47048;47074";6269510223;-73.68259;45.559843;41842;6269510244;-73.68204;45.56156;0;0;1;9312763;Bus : 48 E - Direction Duvernay;"";STL;48E;Métro Cartier Quai:9;Terminus Haut-Saint-François
258700554;"{\"type\":\"LineString\",\"coordinates\":[[-73.6830194,45.5603075],[-73.6827075,45.5604638],[-73.6824175,45.5606264],[-73.6822665,45.5607085]]}";8;Boulevard Cartier Ouest;2;50;false;true;true;false;false;false;74.0;1;0;0;0;0;false;"47073;47022;47222;47048;47074";6269510223;-73.68259;45.559843;41842;6269510244;-73.68204;45.56156;0;0;1;9312763;Bus : 48 E - Direction Duvernay;"";STL;48E;Métro Cartier Quai:9;Terminus Haut-Saint-François
455492089;"{\"type\":\"LineString\",\"coordinates\":[[-73.6822665,45.5607085],[-73.6819634,45.5608959],[-73.6817505,45.5610049]]}";9;Boulevard Cartier Ouest;2;50;false;true;true;false;false;false;53.0;1;0;0;0;0;false;"47073;47022;47222;47048;47074";6269510223;-73.68259;45.559843;41842;6269510244;-73.68204;45.56156;0;0;1;9312763;Bus : 48 E - Direction Duvernay;"";STL;48E;Métro Cartier Quai:9;Terminus Haut-Saint-François
292641472;"{\"type\":\"LineString\",\"coordinates\":[[-73.6817505,45.5610049],[-73.6816926,45.5610324],[-73.6815922,45.5610802]]}";10;Boulevard Cartier Ouest;2;50;false;true;true;false;false;false;15.0;2;0;0;0;0;false;"47073;47022;47222;47048;47074";6269510223;-73.68259;45.559843;41842;6269510244;-73.68204;45.56156;0;0;1;9312763;Bus : 48 E - Direction Duvernay;"";STL;48E;Métro Cartier Quai:9;Terminus Haut-Saint-François
258700557;"{\"type\":\"LineString\",\"coordinates\":[[-73.6815922,45.5610802],[-73.68169,45.5611749],[-73.6819137,45.5613673],[-73.6823486,45.5617409],[-73.6823502,45.5617422],[-73.6826844,45.5619598]]}";11;Boulevard des Laurentides;2;50;false;true;true;false;false;false;65.0;2;0;0;0;0;false;"47073;47022;47222;47048;47074";6269510223;-73.68259;45.559843;41842;6269510244;-73.68204;45.56156;1;0;1;9312763;Bus : 48 E - Direction Duvernay;"";STL;48E;Métro Cartier Quai:9;Terminus Haut-Saint-François
258700557;"{\"type\":\"LineString\",\"coordinates\":[[-73.6815922,45.5610802],[-73.68169,45.5611749],[-73.6819137,45.5613673],[-73.6823486,45.5617409],[-73.6823502,45.5617422],[-73.6826844,45.5619598]]}";1;Boulevard des Laurentides;2;50;false;true;true;false;false;false;65.0;2;0;0;0;0;false;41842;6269510244;-73.68204;45.56156;41865;6269510199;-73.68424;45.563491;1;1;2;9312763;Bus : 48 E - Direction Duvernay;"";STL;48E;Métro Cartier Quai:9;Terminus Haut-Saint-François
452227549;"{\"type\":\"LineString\",\"coordinates\":[[-73.6826844,45.5619598],[-73.684522,45.5635813]]}";2;Boulevard des Laurentides;4;50;false;false;true;false;false;false;115.5;0;0;0;0;0;false;41842;6269510244;-73.68204;45.56156;41865;6269510199;-73.68424;45.563491;1;1;2;9312763;Bus : 48 E - Direction Duvernay;"";STL;48E;Métro Cartier Quai:9;Terminus Haut-Saint-François
452227549;"{\"type\":\"LineString\",\"coordinates\":[[-73.6826844,45.5619598],[-73.684522,45.5635813]]}";1;Boulevard des Laurentides;4;50;false;false;true;false;false;false;115.5;0;0;0;0;0;false;41865;6269510199;-73.68424;45.563491;41887;6269510068;-73.68568;45.564778;1;2;3;9312763;Bus : 48 E - Direction Duvernay;"";STL;48E;Métro Cartier Quai:9;Terminus Haut-Saint-François
452227544;"{\"type\":\"LineString\",\"coordinates\":[[-73.684522,45.5635813],[-73.6864142,45.565271]]}";2;Boulevard des Laurentides;4;50;false;false;true;false;false;false;119.5;0;0;0;0;0;false;41865;6269510199;-73.68424;45.563491;41887;6269510068;-73.68568;45.564778;1;2;3;9312763;Bus : 48 E - Direction Duvernay;"";STL;48E;Métro Cartier Quai:9;Terminus Haut-Saint-François
452227544;"{\"type\":\"LineString\",\"coordinates\":[[-73.684522,45.5635813],[-73.6864142,45.565271]]}";1;Boulevard des Laurentides;4;50;false;false;true;false;false;false;119.5;0;0;0;0;0;false;41887;6269510068;-73.68568;45.564778;41796;6269510010;-73.68855;45.567342;1;3;4;9312763;Bus : 48 E - Direction Duvernay;"";STL;48E;Métro Cartier Quai:9;Terminus Haut-Saint-François
46086120;"{\"type\":\"LineString\",\"coordinates\":[[-73.6864142,45.565271],[-73.68769,45.5664197]]}";2;Boulevard des Laurentides;4;50;false;false;true;false;false;false;162.0;0;0;0;0;0;false;41887;6269510068;-73.68568;45.564778;41796;6269510010;-73.68855;45.567342;0;3;4;9312763;Bus : 48 E - Direction Duvernay;"";STL;48E;Métro Cartier Quai:9;Terminus Haut-Saint-François
452227546;"{\"type\":\"LineString\",\"coordinates\":[[-73.68769,45.5664197],[-73.6883244,45.5669908]]}";3;Boulevard des Laurentides;4;50;false;false;true;false;false;false;81.0;0;0;0;0;0;false;41887;6269510068;-73.68568;45.564778;41796;6269510010;-73.68855;45.567342;0;3;4;9312763;Bus : 48 E - Direction Duvernay;"";STL;48E;Métro Cartier Quai:9;Terminus Haut-Saint-François
452227547;"{\"type\":\"LineString\",\"coordinates\":[[-73.6883244,45.5669908],[-73.6901977,45.568689]]}";4;Boulevard des Laurentides;4;50;false;false;true;false;false;false;119.5;0;0;0;0;0;false;41887;6269510068;-73.68568;45.564778;41796;6269510010;-73.68855;45.567342;1;3;4;9312763;Bus : 48 E - Direction Duvernay;"";STL;48E;Métro Cartier Quai:9;Terminus Haut-Saint-François
452227548;"{\"type\":\"LineString\",\"coordinates\":[[-73.6901977,45.568689],[-73.6920842,45.5703911]]}";1;Boulevard des Laurentides;4;50;false;false;true;false;false;false;120.0;1;0;0;0;0;false;41800;6269509527;-73.69171;45.5702;41341;6269509370;-73.69105;45.570912;1;6;7;9312763;Bus : 48 E - Direction Duvernay;"";STL;48E;Métro Cartier Quai:9;Terminus Haut-Saint-François
45609654;"{\"type\":\"LineString\",\"coordinates\":[[-73.6920842,45.5703911],[-73.6915349,45.570713],[-73.6910313,45.5710575],[-73.6904805,45.571419],[-73.6898953,45.5717469]]}";2;Boulevard de la Concorde Est;2;50;false;true;true;false;false;false;114.0;1;0;0;0;0;false;41800;6269509527;-73.69171;45.5702;41341;6269509370;-73.69105;45.570912;1;6;7;9312763;Bus : 48 E - Direction Duvernay;"";STL;48E;Métro Cartier Quai:9;Terminus Haut-Saint-François
45609654;"{\"type\":\"LineString\",\"coordinates\":[[-73.6920842,45.5703911],[-73.6915349,45.570713],[-73.6910313,45.5710575],[-73.6904805,45.571419],[-73.6898953,45.5717469]]}";1;Boulevard de la Concorde Est;2;50;false;true;true;false;false;false;114.0;1;0;0;0;0;false;41341;6269509370;-73.69105;45.570912;41344;6269509357;-73.6891;45.57204;1;7;8;9312763;Bus : 48 E - Direction Duvernay;"";STL;48E;Métro Cartier Quai:9;Terminus Haut-Saint-François
45609885;"{\"type\":\"LineString\",\"coordinates\":[[-73.6898953,45.5717469],[-73.6892475,45.572103]]}";2;Boulevard de la Concorde Est;2;50;false;true;true;false;false;false;65.0;0;0;0;0;0;false;41341;6269509370;-73.69105;45.570912;41344;6269509357;-73.6891;45.57204;0;7;8;9312763;Bus : 48 E - Direction Duvernay;"";STL;48E;Métro Cartier Quai:9;Terminus Haut-Saint-François
45609750;"{\"type\":\"LineString\",\"coordinates\":[[-73.6892475,45.572103],[-73.6891084,45.5721774],[-73.6880956,45.5727186],[-73.6879427,45.5728003],[-73.6871972,45.5731988],[-73.6862879,45.5736847]]}";3;Boulevard de la Concorde Est;2;50;false;true;true;false;false;false;145.5;1;0;0;0;0;false;41341;6269509370;-73.69105;45.570912;41344;6269509357;-73.6891;45.57204;1;7;8;9312763;Bus : 48 E - Direction Duvernay;"";STL;48E;Métro Cartier Quai:9;Terminus Haut-Saint-François
45609885;"{\"type\":\"LineString\",\"coordinates\":[[-73.6898953,45.5717469],[-73.6892475,45.572103]]}";1;Boulevard de la Concorde Est;2;50;false;true;true;false;false;false;65.0;0;0;0;0;0;false;41344;6269509357;-73.6891;45.57204;41346;6269509332;-73.68658;45.573411;2;8;9;9312763;Bus : 48 E - Direction Duvernay;"";STL;48E;Métro Cartier Quai:9;Terminus Haut-Saint-François
45609750;"{\"type\":\"LineString\",\"coordinates\":[[-73.6892475,45.572103],[-73.6891084,45.5721774],[-73.6880956,45.5727186],[-73.6879427,45.5728003],[-73.6871972,45.5731988],[-73.6862879,45.5736847]]}";2;Boulevard de la Concorde Est;2;50;false;true;true;false;false;false;291.0;1;0;0;0;0;false;41344;6269509357;-73.6891;45.57204;41346;6269509332;-73.68658;45.573411;2;8;9;9312763;Bus : 48 E - Direction Duvernay;"";STL;48E;Métro Cartier Quai:9;Terminus Haut-Saint-François
45609750;"{\"type\":\"LineString\",\"coordinates\":[[-73.6892475,45.572103],[-73.6891084,45.5721774],[-73.6880956,45.5727186],[-73.6879427,45.5728003],[-73.6871972,45.5731988],[-73.6862879,45.5736847]]}";1;Boulevard de la Concorde Est;2;50;false;true;true;false;false;false;145.5;1;0;0;0;0;false;41346;6269509332;-73.68658;45.573411;41348;6269509316;-73.68466;45.574526;1;9;10;9312763;Bus : 48 E - Direction Duvernay;"";STL;48E;Métro Cartier Quai:9;Terminus Haut-Saint-François
45609777;"{\"type\":\"LineString\",\"coordinates\":[[-73.6862879,45.5736847],[-73.6854551,45.5741115],[-73.6850751,45.57433],[-73.6847971,45.5744878],[-73.6844706,45.5746774]]}";2;Boulevard de la Concorde Est;3;50;false;true;true;false;false;false;90.0;1;0;0;0;0;false;41346;6269509332;-73.68658;45.573411;41348;6269509316;-73.68466;45.574526;1;9;10;9312763;Bus : 48 E - Direction Duvernay;"";STL;48E;Métro Cartier Quai:9;Terminus Haut-Saint-François
45609777;"{\"type\":\"LineString\",\"coordinates\":[[-73.6862879,45.5736847],[-73.6854551,45.5741115],[-73.6850751,45.57433],[-73.6847971,45.5744878],[-73.6844706,45.5746774]]}";1;Boulevard de la Concorde Est;3;50;false;true;true;false;false;false;90.0;1;0;0;0;0;false;41348;6269509316;-73.68466;45.574526;41350;6269508983;-73.68323;45.575523;1;10;11;9312763;Bus : 48 E - Direction Duvernay;"";STL;48E;Métro Cartier Quai:9;Terminus Haut-Saint-François
45609601;"{\"type\":\"LineString\",\"coordinates\":[[-73.6844706,45.5746774],[-73.6840687,45.5749301]]}";2;Boulevard de la Concorde Est;3;50;false;true;true;false;false;false;43.0;0;0;0;0;0;false;41348;6269509316;-73.68466;45.574526;41350;6269508983;-73.68323;45.575523;0;10;11;9312763;Bus : 48 E - Direction Duvernay;"";STL;48E;Métro Cartier Quai:9;Terminus Haut-Saint-François
45609710;"{\"type\":\"LineString\",\"coordinates\":[[-73.6840687,45.5749301],[-73.6837408,45.5751914],[-73.683077,45.5757204]]}";3;Boulevard de la Concorde Est;3;50;false;true;true;false;false;false;58.5;0;0;0;0;0;false;41348;6269509316;-73.68466;45.574526;41350;6269508983;-73.68323;45.575523;1;10;11;9312763;Bus : 48 E - Direction Duvernay;"";STL;48E;Métro Cartier Quai:9;Terminus Haut-Saint-François
45609710;"{\"type\":\"LineString\",\"coordinates\":[[-73.6840687,45.5749301],[-73.6837408,45.5751914],[-73.683077,45.5757204]]}";1;Boulevard de la Concorde Est;3;50;false;true;true;false;false;false;58.5;0;0;0;0;0;false;41350;6269508983;-73.68323;45.575523;41353;6269508962;-73.68144;45.576894;1;11;12;9312763;Bus : 48 E - Direction Duvernay;"";STL;48E;Métro Cartier Quai:9;Terminus Haut-Saint-François
45609560;"{\"type\":\"LineString\",\"coordinates\":[[-73.683077,45.5757204],[-73.6824177,45.5762476]]}";2;Boulevard de la Concorde Est;3;50;false;true;true;false;false;false;78.0;0;0;0;0;0;false;41350;6269508983;-73.68323;45.575523;41353;6269508962;-73.68144;45.576894;0;11;12;9312763;Bus : 48 E - Direction Duvernay;"";STL;48E;Métro Cartier Quai:9;Terminus Haut-Saint-François
45610072;"{\"type\":\"LineString\",\"coordinates\":[[-73.6824177,45.5762476],[-73.681455,45.5770134]]}";3;Boulevard de la Concorde Est;3;50;false;true;true;false;false;false;57.0;1;0;0;0;0;false;41350;6269508983;-73.68323;45.575523;41353;6269508962;-73.68144;45.576894;1;11;12;9312763;Bus : 48 E - Direction Duvernay;"";STL;48E;Métro Cartier Quai:9;Terminus Haut-Saint-François
45609872;"{\"type\":\"LineString\",\"coordinates\":[[-73.681455,45.5770134],[-73.680228,45.5779624]]}";1;Boulevard de la Concorde Est;3;50;false;true;true;false;false;false;143.0;2;0;0;0;0;false;41353;6269508962;-73.68144;45.576894;41355;6269508931;-73.6798;45.578306;2;12;13;9312763;Bus : 48 E - Direction Duvernay;"";STL;48E;Métro Cartier Quai:9;Terminus Haut-Saint-François
45609748;"{\"type\":\"LineString\",\"coordinates\":[[-73.680228,45.5779624],[-73.6799918,45.5781937],[-73.6799252,45.5783009],[-73.6797827,45.5789113]]}";2;Boulevard de la Concorde Est;2;50;false;true;true;false;false;false;114.0;1;0;0;0;0;false;41353;6269508962;-73.68144;45.576894;41355;6269508931;-73.6798;45.578306;2;12;13;9312763;Bus : 48 E - Direction Duvernay;"";STL;48E;Métro Cartier Quai:9;Terminus Haut-Saint-François
45609748;"{\"type\":\"LineString\",\"coordinates\":[[-73.680228,45.5779624],[-73.6799918,45.5781937],[-73.6799252,45.5783009],[-73.6797827,45.5789113]]}";1;Boulevard de la Concorde Est;2;50;false;true;true;false;false;false;57.0;1;0;0;0;0;false;41355;6269508931;-73.6798;45.578306;41357;6269508904;-73.67892;45.580102;1;13;14;9312763;Bus : 48 E - Direction Duvernay;"";STL;48E;Métro Cartier Quai:9;Terminus Haut-Saint-François
45609968;"{\"type\":\"LineString\",\"coordinates\":[[-73.6797827,45.5789113],[-73.6796908,45.5792139],[-73.6796438,45.5793688],[-73.6795235,45.5795834],[-73.6793912,45.5797448]]}";2;Boulevard de la Concorde Est;2;50;false;true;true;false;false;false;99.0;0;0;0;0;0;false;41355;6269508931;-73.6798;45.578306;41357;6269508904;-73.67892;45.580102;0;13;14;9312763;Bus : 48 E - Direction Duvernay;"";STL;48E;Métro Cartier Quai:9;Terminus Haut-Saint-François
45609871;"{\"type\":\"LineString\",\"coordinates\":[[-73.6793912,45.5797448],[-73.6788971,45.5802541]]}";3;Boulevard de la Concorde Est;2;50;false;true;true;false;false;false;34.5;0;0;0;0;0;false;41355;6269508931;-73.6798;45.578306;41357;6269508904;-73.67892;45.580102;1;13;14;9312763;Bus : 48 E - Direction Duvernay;"";STL;48E;Métro Cartier Quai:9;Terminus Haut-Saint-François
45609550;"{\"type\":\"LineString\",\"coordinates\":[[-73.6788971,45.5802541],[-73.6784896,45.5804896],[-73.6781133,45.5806832]]}";1;Boulevard de la Concorde Est;2;50;false;true;true;false;false;false;78.0;1;0;0;0;0;false;41357;6269508904;-73.67892;45.580102;41359;6269506404;-73.67656;45.581445;2;14;15;9312763;Bus : 48 E - Direction Duvernay;"";STL;48E;Métro Cartier Quai:9;Terminus Haut-Saint-François
45609786;"{\"type\":\"LineString\",\"coordinates\":[[-73.6781133,45.5806832],[-73.6771372,45.5812309],[-73.6763443,45.5816758],[-73.6762428,45.5817327],[-73.6760342,45.5818833],[-73.6759682,45.5819635]]}";2;Boulevard de la Concorde Est;3;50;false;true;true;false;false;false;221.0;2;0;0;0;0;false;41357;6269508904;-73.67892;45.580102;41359;6269506404;-73.67656;45.581445;2;14;15;9312763;Bus : 48 E - Direction Duvernay;"";STL;48E;Métro Cartier Quai:9;Terminus Haut-Saint-François
45609786;"{\"type\":\"LineString\",\"coordinates\":[[-73.6781133,45.5806832],[-73.6771372,45.5812309],[-73.6763443,45.5816758],[-73.6762428,45.5817327],[-73.6760342,45.5818833],[-73.6759682,45.5819635]]}";1;Boulevard de la Concorde Est;3;50;false;true;true;false;false;false;110.5;2;0;0;0;0;false;41359;6269506404;-73.67656;45.581445;41361;6269508841;-73.67531;45.583013;1;15;16;9312763;Bus : 48 E - Direction Duvernay;"";STL;48E;Métro Cartier Quai:9;Terminus Haut-Saint-François
45609658;"{\"type\":\"LineString\",\"coordinates\":[[-73.6759682,45.5819635],[-73.6758235,45.5821902],[-73.6758085,45.5822137],[-73.675633,45.5825898]]}";2;Boulevard de la Concorde Est;3;50;false;true;true;false;false;false;75.0;0;0;0;0;0;false;41359;6269506404;-73.67656;45.581445;41361;6269508841;-73.67531;45.583013;0;15;16;9312763;Bus : 48 E - Direction Duvernay;"";STL;48E;Métro Cartier Quai:9;Terminus Haut-Saint-François
29156488;"{\"type\":\"LineString\",\"coordinates\":[[-73.675633,45.5825898],[-73.675358,45.5831696]]}";3;Boulevard de la Concorde Est;1;50;false;true;true;false;false;false;34.0;1;0;0;0;0;false;41359;6269506404;-73.67656;45.581445;41361;6269508841;-73.67531;45.583013;1;15;16;9312763;Bus : 48 E - Direction Duvernay;"";STL;48E;Métro Cartier Quai:9;Terminus Haut-Saint-François
452231529;"{\"type\":\"LineString\",\"coordinates\":[[-73.675358,45.5831696],[-73.6753271,45.5832307]]}";1;Boulevard de la Concorde Est;1;50;false;true;true;false;false;false;8.0;1;0;0;0;0;false;41361;6269508841;-73.67531;45.583013;41363;6269508781;-73.67389;45.586025;2;16;17;9312763;Bus : 48 E - Direction Duvernay;"";STL;48E;Métro Cartier Quai:9;Terminus Haut-Saint-François
165097199;"{\"type\":\"LineString\",\"coordinates\":[[-73.6753271,45.5832307],[-73.6750633,45.5837524]]}";2;Boulevard de la Concorde Est;1;50;false;true;true;false;false;false;62.0;0;0;0;0;0;false;41361;6269508841;-73.67531;45.583013;41363;6269508781;-73.67389;45.586025;0;16;17;9312763;Bus : 48 E - Direction Duvernay;"";STL;48E;Métro Cartier Quai:9;Terminus Haut-Saint-François
454002814;"{\"type\":\"LineString\",\"coordinates\":[[-73.6750633,45.5837524],[-73.6750327,45.5838128]]}";3;Boulevard de la Concorde O;1;50;false;true;true;false;false;false;8.0;1;0;0;0;0;false;41361;6269508841;-73.67531;45.583013;41363;6269508781;-73.67389;45.586025;0;16;17;9312763;Bus : 48 E - Direction Duvernay;"";STL;48E;Métro Cartier Quai:9;Terminus Haut-Saint-François
454002813;"{\"type\":\"LineString\",\"coordinates\":[[-73.6750327,45.5838128],[-73.6747973,45.5842663]]}";4;Boulevard de la Concorde Est;1;50;false;true;true;false;false;false;54.0;1;0;0;0;0;false;41361;6269508841;-73.67531;45.583013;41363;6269508781;-73.67389;45.586025;0;16;17;9312763;Bus : 48 E - Direction Duvernay;"";STL;48E;Métro Cartier Quai:9;Terminus Haut-Saint-François
576673920;"{\"type\":\"LineString\",\"coordinates\":[[-73.6747973,45.5842663],[-73.6741929,45.5855859],[-73.6737517,45.5864404],[-73.6736208,45.5866798],[-73.6727971,45.5876154],[-73.6718101,45.5886837],[-73.6708521,45.5897085]]}";5;Boulevard de la Concorde Est;1;50;false;true;true;false;false;false;684.0;2;0;0;0;0;false;41361;6269508841;-73.67531;45.583013;41363;6269508781;-73.67389;45.586025;2;16;17;9312763;Bus : 48 E - Direction Duvernay;"";STL;48E;Métro Cartier Quai:9;Terminus Haut-Saint-François
576673920;"{\"type\":\"LineString\",\"coordinates\":[[-73.6747973,45.5842663],[-73.6741929,45.5855859],[-73.6737517,45.5864404],[-73.6736208,45.5866798],[-73.6727971,45.5876154],[-73.6718101,45.5886837],[-73.6708521,45.5897085]]}";1;Boulevard de la Concorde Est;1;50;false;true;true;false;false;false;342.0;2;0;0;0;0;false;41365;6269508728;-73.6728;45.587498;41367;6269508674;-73.67056;45.59003;1;18;19;9312763;Bus : 48 E - Direction Duvernay;"";STL;48E;Métro Cartier Quai:9;Terminus Haut-Saint-François
725908467;"{\"type\":\"LineString\",\"coordinates\":[[-73.6708521,45.5897085],[-73.6702591,45.590666],[-73.6701033,45.5909176]]}";2;Boulevard de la Concorde Est;1;50;false;true;false;false;false;false;73.5;2;0;0;0;0;false;41365;6269508728;-73.6728;45.587498;41367;6269508674;-73.67056;45.59003;1;18;19;9312763;Bus : 48 E - Direction Duvernay;"";STL;48E;Métro Cartier Quai:9;Terminus Haut-Saint-François
725908467;"{\"type\":\"LineString\",\"coordinates\":[[-73.6708521,45.5897085],[-73.6702591,45.590666],[-73.6701033,45.5909176]]}";1;Boulevard de la Concorde Est;1;50;false;true;false;false;false;false;73.5;2;0;0;0;0;false;41367;6269508674;-73.67056;45.59003;41369;6269508615;-73.66985;45.591075;1;19;20;9312763;Bus : 48 E - Direction Duvernay;"";STL;48E;Métro Cartier Quai:9;Terminus Haut-Saint-François
576673918;"{\"type\":\"LineString\",\"coordinates\":[[-73.6701033,45.5909176],[-73.6698018,45.5913415]]}";2;Boulevard de la Concorde Est;1;50;false;true;false;false;false;false;26.5;1;0;0;0;0;false;41367;6269508674;-73.67056;45.59003;41369;6269508615;-73.66985;45.591075;1;19;20;9312763;Bus : 48 E - Direction Duvernay;"";STL;48E;Métro Cartier Quai:9;Terminus Haut-Saint-François
576673918;"{\"type\":\"LineString\",\"coordinates\":[[-73.6701033,45.5909176],[-73.6698018,45.5913415]]}";1;Boulevard de la Concorde Est;1;50;false;true;false;false;false;false;26.5;1;0;0;0;0;false;41369;6269508615;-73.66985;45.591075;41372;6269508623;-73.66767;45.592682;1;20;21;9312763;Bus : 48 E - Direction Duvernay;"";STL;48E;Métro Cartier Quai:9;Terminus Haut-Saint-François
165097202;"{\"type\":\"LineString\",\"coordinates\":[[-73.6698018,45.5913415],[-73.6696086,45.5915596],[-73.6695374,45.591633],[-73.6694416,45.5917291],[-73.6692507,45.5918829]]}";2;Boulevard de la Concorde Est;1;50;false;true;false;false;false;false;75.0;0;0;0;0;0;false;41369;6269508615;-73.66985;45.591075;41372;6269508623;-73.66767;45.592682;0;20;21;9312763;Bus : 48 E - Direction Duvernay;"";STL;48E;Métro Cartier Quai:9;Terminus Haut-Saint-François
579563546;"{\"type\":\"LineString\",\"coordinates\":[[-73.6692507,45.5918829],[-73.6691659,45.5919498],[-73.6689815,45.5920741],[-73.6686194,45.5923074],[-73.6681601,45.5925604]]}";3;Boulevard de la Concorde Est;1;50;false;true;false;false;false;false;114.0;1;0;0;0;0;false;41369;6269508615;-73.66985;45.591075;41372;6269508623;-73.66767;45.592682;0;20;21;9312763;Bus : 48 E - Direction Duvernay;"";STL;48E;Métro Cartier Quai:9;Terminus Haut-Saint-François
573414724;"{\"type\":\"LineString\",\"coordinates\":[[-73.6681601,45.5925604],[-73.6676411,45.5927948]]}";4;Boulevard de la Concorde Est;1;50;false;true;false;false;false;false;24.5;1;0;0;0;0;false;41369;6269508615;-73.66985;45.591075;41372;6269508623;-73.66767;45.592682;1;20;21;9312763;Bus : 48 E - Direction Duvernay;"";STL;48E;Métro Cartier Quai:9;Terminus Haut-Saint-François
573414733;"{\"type\":\"LineString\",\"coordinates\":[[-73.6676411,45.5927948],[-73.6673638,45.5929201],[-73.6669068,45.5930934]]}";1;Boulevard de la Concorde Est;1;50;false;true;true;false;false;false;67.0;0;0;0;0;0;false;41372;6269508623;-73.66767;45.592682;41373;6269508610;-73.66641;45.59314;2;21;22;9312763;Bus : 48 E - Direction Duvernay;"";STL;48E;Métro Cartier Quai:9;Terminus Haut-Saint-François
573414736;"{\"type\":\"LineString\",\"coordinates\":[[-73.6669068,45.5930934],[-73.6663325,45.5932369],[-73.6658166,45.5932988],[-73.6651101,45.5933542]]}";2;Boulevard de la Concorde Est;1;50;false;true;false;false;false;false;144.0;1;0;0;0;0;false;41372;6269508623;-73.66767;45.592682;41373;6269508610;-73.66641;45.59314;2;21;22;9312763;Bus : 48 E - Direction Duvernay;"";STL;48E;Métro Cartier Quai:9;Terminus Haut-Saint-François
573414736;"{\"type\":\"LineString\",\"coordinates\":[[-73.6669068,45.5930934],[-73.6663325,45.5932369],[-73.6658166,45.5932988],[-73.6651101,45.5933542]]}";1;Boulevard de la Concorde Est;1;50;false;true;false;false;false;false;72.0;1;0;0;0;0;false;41373;6269508610;-73.66641;45.59314;41377;6269508595;-73.66228;45.594209;1;22;23;9312763;Bus : 48 E - Direction Duvernay;"";STL;48E;Métro Cartier Quai:9;Terminus Haut-Saint-François
454892458;"{\"type\":\"LineString\",\"coordinates\":[[-73.6651101,45.5933542],[-73.6644771,45.5933769]]}";2;Boulevard de la Concorde Est;1;50;false;true;false;false;false;false;50.0;1;0;0;0;0;false;41373;6269508610;-73.66641;45.59314;41377;6269508595;-73.66228;45.594209;0;22;23;9312763;Bus : 48 E - Direction Duvernay;"";STL;48E;Métro Cartier Quai:9;Terminus Haut-Saint-François
573410407;"{\"type\":\"LineString\",\"coordinates\":[[-73.6644771,45.5933769],[-73.6641116,45.5934374],[-73.6636306,45.5935722],[-73.6631472,45.5937829],[-73.6627353,45.5940238]]}";3;Boulevard de la Concorde Est;1;50;false;true;false;false;false;false;156.0;1;0;0;0;0;false;41373;6269508610;-73.66641;45.59314;41377;6269508595;-73.66228;45.594209;0;22;23;9312763;Bus : 48 E - Direction Duvernay;"";STL;48E;Métro Cartier Quai:9;Terminus Haut-Saint-François
635887743;"{\"type\":\"LineString\",\"coordinates\":[[-73.6627353,45.5940238],[-73.6623187,45.5942987],[-73.6618698,45.5945948]]}";4;Boulevard de la Concorde Est;1;50;false;true;false;false;false;false;46.5;1;0;0;0;0;false;41373;6269508610;-73.66641;45.59314;41377;6269508595;-73.66228;45.594209;1;22;23;9312763;Bus : 48 E - Direction Duvernay;"";STL;48E;Métro Cartier Quai:9;Terminus Haut-Saint-François
635887743;"{\"type\":\"LineString\",\"coordinates\":[[-73.6627353,45.5940238],[-73.6623187,45.5942987],[-73.6618698,45.5945948]]}";1;Boulevard de la Concorde Est;1;50;false;true;false;false;false;false;46.5;1;0;0;0;0;false;41377;6269508595;-73.66228;45.594209;41379;6269508374;-73.66102;45.595157;1;23;24;9312763;Bus : 48 E - Direction Duvernay;"";STL;48E;Métro Cartier Quai:9;Terminus Haut-Saint-François
635887741;"{\"type\":\"LineString\",\"coordinates\":[[-73.6618698,45.5945948],[-73.6613997,45.5949067],[-73.6608984,45.5954104]]}";2;Boulevard de la Concorde Est;1;50;false;true;false;false;false;false;59.5;0;0;0;0;0;false;41377;6269508595;-73.66228;45.594209;41379;6269508374;-73.66102;45.595157;1;23;24;9312763;Bus : 48 E - Direction Duvernay;"";STL;48E;Métro Cartier Quai:9;Terminus Haut-Saint-François
635887741;"{\"type\":\"LineString\",\"coordinates\":[[-73.6618698,45.5945948],[-73.6613997,45.5949067],[-73.6608984,45.5954104]]}";1;Boulevard de la Concorde Est;1;50;false;true;false;false;false;false;59.5;0;0;0;0;0;false;41379;6269508374;-73.66102;45.595157;41382;6269508350;-73.65941;45.596765;1;24;25;9312763;Bus : 48 E - Direction Duvernay;"";STL;48E;Métro Cartier Quai:9;Terminus Haut-Saint-François
635888018;"{\"type\":\"LineString\",\"coordinates\":[[-73.6608984,45.5954104],[-73.6597779,45.5965364]]}";2;Boulevard de la Concorde Est;1;50;false;true;false;false;false;false;153.0;1;0;0;0;0;false;41379;6269508374;-73.66102;45.595157;41382;6269508350;-73.65941;45.596765;0;24;25;9312763;Bus : 48 E - Direction Duvernay;"";STL;48E;Métro Cartier Quai:9;Terminus Haut-Saint-François
635888016;"{\"type\":\"LineString\",\"coordinates\":[[-73.6597779,45.5965364],[-73.6590228,45.597296]]}";3;Boulevard de la Concorde Est;1;50;false;true;true;false;false;false;51.5;1;0;0;0;0;false;41379;6269508374;-73.66102;45.595157;41382;6269508350;-73.65941;45.596765;1;24;25;9312763;Bus : 48 E - Direction Duvernay;"";STL;48E;Métro Cartier Quai:9;Terminus Haut-Saint-François
635888016;"{\"type\":\"LineString\",\"coordinates\":[[-73.6597779,45.5965364],[-73.6590228,45.597296]]}";1;Boulevard de la Concorde Est;1;50;false;true;true;false;false;false;51.5;1;0;0;0;0;false;41382;6269508350;-73.65941;45.596765;41384;6269508318;-73.65748;45.598715;1;25;26;9312763;Bus : 48 E - Direction Duvernay;"";STL;48E;Métro Cartier Quai:9;Terminus Haut-Saint-François
682428313;"{\"type\":\"LineString\",\"coordinates\":[[-73.6590228,45.597296],[-73.6579689,45.5983588],[-73.6578987,45.5984246],[-73.6574838,45.5988395],[-73.6562506,45.6001016]]}";2;Boulevard de la Concorde Est;1;50;false;true;true;false;false;false;190.0;2;0;0;0;0;false;41382;6269508350;-73.65941;45.596765;41384;6269508318;-73.65748;45.598715;1;25;26;9312763;Bus : 48 E - Direction Duvernay;"";STL;48E;Métro Cartier Quai:9;Terminus Haut-Saint-François
682428313;"{\"type\":\"LineString\",\"coordinates\":[[-73.6590228,45.597296],[-73.6579689,45.5983588],[-73.6578987,45.5984246],[-73.6574838,45.5988395],[-73.6562506,45.6001016]]}";1;Boulevard de la Concorde Est;1;50;false;true;true;false;false;false;190.0;2;0;0;0;0;false;41384;6269508318;-73.65748;45.598715;41386;6269508285;-73.65575;45.600462;1;26;27;9312763;Bus : 48 E - Direction Duvernay;"";STL;48E;Métro Cartier Quai:9;Terminus Haut-Saint-François
454892457;"{\"type\":\"LineString\",\"coordinates\":[[-73.6562506,45.6001016],[-73.65557,45.6008217],[-73.654902,45.6014685],[-73.6547693,45.6015651],[-73.6543841,45.6017735],[-73.6539562,45.6020201]]}";2;Boulevard de la Concorde Est;1;50;false;true;true;false;false;false;140.5;2;0;0;0;0;false;41384;6269508318;-73.65748;45.598715;41386;6269508285;-73.65575;45.600462;1;26;27;9312763;Bus : 48 E - Direction Duvernay;"";STL;48E;Métro Cartier Quai:9;Terminus Haut-Saint-François
454892457;"{\"type\":\"LineString\",\"coordinates\":[[-73.6562506,45.6001016],[-73.65557,45.6008217],[-73.654902,45.6014685],[-73.6547693,45.6015651],[-73.6543841,45.6017735],[-73.6539562,45.6020201]]}";1;Boulevard de la Concorde Est;1;50;false;true;true;false;false;false;140.5;2;0;0;0;0;false;41388;6269507964;-73.65445;45.601625;43238;6269507909;-73.65106;45.604392;1;28;29;9312763;Bus : 48 E - Direction Duvernay;"";STL;48E;Métro Cartier Quai:9;Terminus Haut-Saint-François
46046971;"{\"type\":\"LineString\",\"coordinates\":[[-73.6539562,45.6020201],[-73.6533697,45.6023207],[-73.6520434,45.6030244],[-73.6513756,45.6034185],[-73.6506943,45.6037957]]}";2;Boulevard de la Concorde Est;1;50;false;true;true;false;false;false;322.0;2;0;0;0;0;false;41388;6269507964;-73.65445;45.601625;43238;6269507909;-73.65106;45.604392;0;28;29;9312763;Bus : 48 E - Direction Duvernay;"";STL;48E;Métro Cartier Quai:9;Terminus Haut-Saint-François
29156490;"{\"type\":\"LineString\",\"coordinates\":[[-73.6508189,45.6039037],[-73.6506943,45.6037957]]}";3;Boulevard Vanier;1;50;false;false;true;false;false;false;16.0;2;0;0;0;0;false;41388;6269507964;-73.65445;45.601625;43238;6269507909;-73.65106;45.604392;0;28;29;9312763;Bus : 48 E - Direction Duvernay;"";STL;48E;Métro Cartier Quai:9;Terminus Haut-Saint-François
29156416;"{\"type\":\"LineString\",\"coordinates\":[[-73.6508189,45.6039037],[-73.6509381,45.6040963],[-73.6517806,45.6048221],[-73.6520649,45.6049891],[-73.6524485,45.6051411],[-73.6529926,45.6052295],[-73.6532343,45.6052819],[-73.6535689,45.6054397],[-73.6537487,45.6055583],[-73.6554989,45.6071253],[-73.6572596,45.6087422],[-73.6574214,45.6089235],[-73.6574992,45.6090543],[-73.6575271,45.6091293],[-73.6576175,45.6093727],[-73.6576485,45.6096162],[-73.6576256,45.6100113],[-73.657553,45.6112177],[-73.6575198,45.6119038],[-73.6575476,45.6120643],[-73.6576456,45.6122902],[-73.6578086,45.6124451],[-73.658914,45.6134212],[-73.6593165,45.61375],[-73.6593899,45.6137913]]}";4;Boulevard Vanier;2;50;false;true;true;false;false;false;684.5;1;0;0;0;0;false;41388;6269507964;-73.65445;45.601625;43238;6269507909;-73.65106;45.604392;1;28;29;9312763;Bus : 48 E - Direction Duvernay;"";STL;48E;Métro Cartier Quai:9;Terminus Haut-Saint-François
29156416;"{\"type\":\"LineString\",\"coordinates\":[[-73.6508189,45.6039037],[-73.6509381,45.6040963],[-73.6517806,45.6048221],[-73.6520649,45.6049891],[-73.6524485,45.6051411],[-73.6529926,45.6052295],[-73.6532343,45.6052819],[-73.6535689,45.6054397],[-73.6537487,45.6055583],[-73.6554989,45.6071253],[-73.6572596,45.6087422],[-73.6574214,45.6089235],[-73.6574992,45.6090543],[-73.6575271,45.6091293],[-73.6576175,45.6093727],[-73.6576485,45.6096162],[-73.6576256,45.6100113],[-73.657553,45.6112177],[-73.6575198,45.6119038],[-73.6575476,45.6120643],[-73.6576456,45.6122902],[-73.6578086,45.6124451],[-73.658914,45.6134212],[-73.6593165,45.61375],[-73.6593899,45.6137913]]}";1;Boulevard Vanier;2;50;false;true;true;false;false;false;684.5;1;0;0;0;0;false;43236;6269507740;-73.65744;45.611969;42880;6269507493;-73.66151;45.613531;1;34;35;9312763;Bus : 48 E - Direction Duvernay;"";STL;48E;Métro Cartier Quai:9;Terminus Haut-Saint-François
231947993;"{\"type\":\"LineString\",\"coordinates\":[[-73.6593899,45.6137913],[-73.6595193,45.6138514],[-73.6595352,45.6138574],[-73.6597423,45.613912],[-73.6598942,45.6139362],[-73.6599648,45.6139387],[-73.6601072,45.6139393],[-73.6602872,45.6139234],[-73.6604549,45.6138803],[-73.6608434,45.6137229],[-73.6612762,45.613559],[-73.6618921,45.6133121],[-73.6621293,45.6132221]]}";2;Boulevard Vanier;2;50;false;true;false;false;false;false;119.0;0;0;0;0;0;false;43236;6269507740;-73.65744;45.611969;42880;6269507493;-73.66151;45.613531;1;34;35;9312763;Bus : 48 E - Direction Duvernay;"";STL;48E;Métro Cartier Quai:9;Terminus Haut-Saint-François
231947993;"{\"type\":\"LineString\",\"coordinates\":[[-73.6593899,45.6137913],[-73.6595193,45.6138514],[-73.6595352,45.6138574],[-73.6597423,45.613912],[-73.6598942,45.6139362],[-73.6599648,45.6139387],[-73.6601072,45.6139393],[-73.6602872,45.6139234],[-73.6604549,45.6138803],[-73.6608434,45.6137229],[-73.6612762,45.613559],[-73.6618921,45.6133121],[-73.6621293,45.6132221]]}";1;Boulevard Vanier;2;50;false;true;false;false;false;false;119.0;0;0;0;0;0;false;42880;6269507493;-73.66151;45.613531;46112;6269507633;-73.67306;45.622024;1;35;36;9312763;Bus : 48 E - Direction Duvernay;"";STL;48E;Métro Cartier Quai:9;Terminus Haut-Saint-François
46773609;"{\"type\":\"LineString\",\"coordinates\":[[-73.6621293,45.6132221],[-73.6622607,45.6131726]]}";2;Boulevard Saint-Martin Est;2;60;false;true;false;false;false;false;12.0;0;0;0;0;0;false;42880;6269507493;-73.66151;45.613531;46112;6269507633;-73.67306;45.622024;0;35;36;9312763;Bus : 48 E - Direction Duvernay;"";STL;48E;Métro Cartier Quai:9;Terminus Haut-Saint-François
45801430;"{\"type\":\"LineString\",\"coordinates\":[[-73.6622607,45.6131726],[-73.6621921,45.6130996]]}";3;"";1;50;false;true;true;false;false;false;10.0;0;0;0;0;0;false;42880;6269507493;-73.66151;45.613531;46112;6269507633;-73.67306;45.622024;0;35;36;9312763;Bus : 48 E - Direction Duvernay;"";STL;48E;Métro Cartier Quai:9;Terminus Haut-Saint-François
647401833;"{\"type\":\"LineString\",\"coordinates\":[[-73.6621921,45.6130996],[-73.659429,45.6106459],[-73.6592412,45.6104547],[-73.659192,45.6103641],[-73.6591818,45.610256],[-73.6592096,45.6101663],[-73.6593013,45.6100864],[-73.6594051,45.6100336],[-73.6595211,45.6100079],[-73.6596622,45.6100096],[-73.6597897,45.6100381],[-73.6601434,45.6102673],[-73.6618539,45.6116825],[-73.6620029,45.611716]]}";4;"";1;50;false;true;false;false;false;false;715.0;0;0;0;0;0;false;42880;6269507493;-73.66151;45.613531;46112;6269507633;-73.67306;45.622024;0;35;36;9312763;Bus : 48 E - Direction Duvernay;"";STL;48E;Métro Cartier Quai:9;Terminus Haut-Saint-François
258700564;"{\"type\":\"LineString\",\"coordinates\":[[-73.6620029,45.611716],[-73.6628655,45.6124254],[-73.663016,45.6125492]]}";5;Boulevard Pie-IX;1;80;false;true;false;false;false;false;122.0;0;0;0;0;0;false;42880;6269507493;-73.66151;45.613531;46112;6269507633;-73.67306;45.622024;0;35;36;9312763;Bus : 48 E - Direction Duvernay;"";STL;48E;Métro Cartier Quai:9;Terminus Haut-Saint-François
37956725;"{\"type\":\"LineString\",\"coordinates\":[[-73.663016,45.6125492],[-73.6637843,45.6132111]]}";6;Boulevard Pie-IX;1;80;false;true;false;false;false;false;95.0;0;0;0;0;0;false;42880;6269507493;-73.66151;45.613531;46112;6269507633;-73.67306;45.622024;0;35;36;9312763;Bus : 48 E - Direction Duvernay;"";STL;48E;Métro Cartier Quai:9;Terminus Haut-Saint-François
37956726;"{\"type\":\"LineString\",\"coordinates\":[[-73.6637843,45.6132111],[-73.6657019,45.6150934]]}";7;Boulevard Pie-IX;1;80;false;true;false;false;false;false;257.0;0;0;0;0;0;false;42880;6269507493;-73.66151;45.613531;46112;6269507633;-73.67306;45.622024;0;35;36;9312763;Bus : 48 E - Direction Duvernay;"";STL;48E;Métro Cartier Quai:9;Terminus Haut-Saint-François
326316610;"{\"type\":\"LineString\",\"coordinates\":[[-73.6657019,45.6150934],[-73.6679821,45.6171938],[-73.668316,45.6175014]]}";8;Boulevard Pie-IX;1;80;false;true;false;false;false;false;337.0;0;0;0;0;0;false;42880;6269507493;-73.66151;45.613531;46112;6269507633;-73.67306;45.622024;0;35;36;9312763;Bus : 48 E - Direction Duvernay;"";STL;48E;Métro Cartier Quai:9;Terminus Haut-Saint-François
37814044;"{\"type\":\"LineString\",\"coordinates\":[[-73.668316,45.6175014],[-73.6692131,45.6183035]]}";9;Boulevard Pie-IX;1;50;false;true;false;false;false;false;114.0;0;0;0;0;0;false;42880;6269507493;-73.66151;45.613531;46112;6269507633;-73.67306;45.622024;0;35;36;9312763;Bus : 48 E - Direction Duvernay;"";STL;48E;Métro Cartier Quai:9;Terminus Haut-Saint-François
37814045;"{\"type\":\"LineString\",\"coordinates\":[[-73.6692131,45.6183035],[-73.669406,45.6184539]]}";10;Boulevard Pie-IX;1;50;false;true;false;false;false;false;23.0;0;0;0;0;0;false;42880;6269507493;-73.66151;45.613531;46112;6269507633;-73.67306;45.622024;0;35;36;9312763;Bus : 48 E - Direction Duvernay;"";STL;48E;Métro Cartier Quai:9;Terminus Haut-Saint-François
630947795;"{\"type\":\"LineString\",\"coordinates\":[[-73.669406,45.6184539],[-73.6702871,45.6192324]]}";11;Boulevard Pie-IX;1;50;false;true;false;false;false;false;111.0;0;0;0;0;0;false;42880;6269507493;-73.66151;45.613531;46112;6269507633;-73.67306;45.622024;0;35;36;9312763;Bus : 48 E - Direction Duvernay;"";STL;48E;Métro Cartier Quai:9;Terminus Haut-Saint-François
326316609;"{\"type\":\"LineString\",\"coordinates\":[[-73.6702871,45.6192324],[-73.6706364,45.6195506],[-73.6712729,45.6200855],[-73.6716866,45.6205011],[-73.6717677,45.620583],[-73.6721733,45.6209946],[-73.6722845,45.6211075],[-73.673188,45.6220506]]}";12;Boulevard Pie-IX;1;50;false;true;false;false;false;false;193.5;0;0;0;0;0;false;42880;6269507493;-73.66151;45.613531;46112;6269507633;-73.67306;45.622024;1;35;36;9312763;Bus : 48 E - Direction Duvernay;"";STL;48E;Métro Cartier Quai:9;Terminus Haut-Saint-François
326316609;"{\"type\":\"LineString\",\"coordinates\":[[-73.6702871,45.6192324],[-73.6706364,45.6195506],[-73.6712729,45.6200855],[-73.6716866,45.6205011],[-73.6717677,45.620583],[-73.6721733,45.6209946],[-73.6722845,45.6211075],[-73.673188,45.6220506]]}";1;Boulevard Pie-IX;1;50;false;true;false;false;false;false;387.0;0;0;0;0;0;false;46112;6269507633;-73.67306;45.622024;46113;6269507599;-73.67544;45.624441;2;36;37;9312763;Bus : 48 E - Direction Duvernay;"";STL;48E;Métro Cartier Quai:9;Terminus Haut-Saint-François
100181630;"{\"type\":\"LineString\",\"coordinates\":[[-73.673188,45.6220506],[-73.673679,45.6226058],[-73.6737862,45.6227275],[-73.6743639,45.6233551],[-73.6755763,45.6244908]]}";2;Boulevard Pie-IX;1;50;false;true;false;false;false;false;330.0;0;0;0;0;0;false;46112;6269507633;-73.67306;45.622024;46113;6269507599;-73.67544;45.624441;2;36;37;9312763;Bus : 48 E - Direction Duvernay;"";STL;48E;Métro Cartier Quai:9;Terminus Haut-Saint-François
100181630;"{\"type\":\"LineString\",\"coordinates\":[[-73.673188,45.6220506],[-73.673679,45.6226058],[-73.6737862,45.6227275],[-73.6743639,45.6233551],[-73.6755763,45.6244908]]}";1;Boulevard Pie-IX;1;50;false;true;false;false;false;false;330.0;0;0;0;0;0;false;46113;6269507599;-73.67544;45.624441;46313;6269507576;-73.67657;45.625492;2;37;38;9312763;Bus : 48 E - Direction Duvernay;"";STL;48E;Métro Cartier Quai:9;Terminus Haut-Saint-François
100181625;"{\"type\":\"LineString\",\"coordinates\":[[-73.6755763,45.6244908],[-73.6762049,45.6250586],[-73.6765033,45.6253281],[-73.6767705,45.6255695]]}";2;Boulevard Pie-IX;1;50;false;true;false;false;false;false;152.0;0;0;0;0;0;false;46113;6269507599;-73.67544;45.624441;46313;6269507576;-73.67657;45.625492;2;37;38;9312763;Bus : 48 E - Direction Duvernay;"";STL;48E;Métro Cartier Quai:9;Terminus Haut-Saint-François
100181625;"{\"type\":\"LineString\",\"coordinates\":[[-73.6755763,45.6244908],[-73.6762049,45.6250586],[-73.6765033,45.6253281],[-73.6767705,45.6255695]]}";1;Boulevard Pie-IX;1;50;false;true;false;false;false;false;152.0;0;0;0;0;0;false;46313;6269507576;-73.67657;45.625492;46314;6269507500;-73.67832;45.626974;2;38;39;9312763;Bus : 48 E - Direction Duvernay;"";STL;48E;Métro Cartier Quai:9;Terminus Haut-Saint-François
100181634;"{\"type\":\"LineString\",\"coordinates\":[[-73.6767705,45.6255695],[-73.677047,45.6258573]]}";2;Boulevard Pie-IX;1;50;false;true;false;false;false;false;39.0;0;0;0;0;0;false;46313;6269507576;-73.67657;45.625492;46314;6269507500;-73.67832;45.626974;0;38;39;9312763;Bus : 48 E - Direction Duvernay;"";STL;48E;Métro Cartier Quai:9;Terminus Haut-Saint-François
762706897;"{\"type\":\"LineString\",\"coordinates\":[[-73.677047,45.6258573],[-73.6770653,45.6258763],[-73.6776364,45.626278],[-73.6787194,45.6272832]]}";3;Boulevard Pie-IX;1;50;false;true;true;false;false;false;206.0;0;0;0;0;0;false;46313;6269507576;-73.67657;45.625492;46314;6269507500;-73.67832;45.626974;2;38;39;9312763;Bus : 48 E - Direction Duvernay;"";STL;48E;Métro Cartier Quai:9;Terminus Haut-Saint-François
762706897;"{\"type\":\"LineString\",\"coordinates\":[[-73.677047,45.6258573],[-73.6770653,45.6258763],[-73.6776364,45.626278],[-73.6787194,45.6272832]]}";1;Boulevard Pie-IX;1;50;false;true;true;false;false;false;103.0;0;0;0;0;0;false;46314;6269507500;-73.67832;45.626974;46364;6269507574;-73.68204;45.625894;1;39;40;9312763;Bus : 48 E - Direction Duvernay;"";STL;48E;Métro Cartier Quai:9;Terminus Haut-Saint-François
32602285;"{\"type\":\"LineString\",\"coordinates\":[[-73.6787194,45.6272832],[-73.6788428,45.6272185]]}";2;Avenue De l'Empereur;1;50;false;false;true;false;false;false;13.0;0;0;0;0;0;false;46314;6269507500;-73.67832;45.626974;46364;6269507574;-73.68204;45.625894;0;39;40;9312763;Bus : 48 E - Direction Duvernay;"";STL;48E;Métro Cartier Quai:9;Terminus Haut-Saint-François
259643620;"{\"type\":\"LineString\",\"coordinates\":[[-73.6788428,45.6272185],[-73.6801003,45.6265454],[-73.680441,45.6263872],[-73.6808321,45.6262553],[-73.6814434,45.6260697],[-73.6819517,45.625826],[-73.6820485,45.6257642],[-73.6821518,45.6257117],[-73.6825403,45.6255132],[-73.6827438,45.6254092],[-73.6831414,45.625206],[-73.6839239,45.6247569]]}";3;Avenue De l'Empereur;2;50;false;false;true;false;false;false;242.0;0;0;2;0;0;false;46314;6269507500;-73.67832;45.626974;46364;6269507574;-73.68204;45.625894;1;39;40;9312763;Bus : 48 E - Direction Duvernay;"";STL;48E;Métro Cartier Quai:9;Terminus Haut-Saint-François
100181622;"{\"type\":\"LineString\",\"coordinates\":[[-73.6818045,45.6223157],[-73.6819505,45.6224706],[-73.6820526,45.6226434],[-73.6821517,45.6229704],[-73.6822209,45.6231241],[-73.6823392,45.6232854],[-73.6824535,45.6233828],[-73.6827029,45.6235954],[-73.6831659,45.6240227],[-73.6839239,45.6247569]]}";1;Avenue des Ambassadeurs;2;50;false;false;true;false;false;false;161.0;0;0;0;0;0;false;46539;6269507606;-73.68288;45.623624;46366;6269507625;-73.68173;45.622172;1;42;43;9312763;Bus : 48 E - Direction Duvernay;"";STL;48E;Métro Cartier Quai:9;Terminus Haut-Saint-François
678143321;"{\"type\":\"LineString\",\"coordinates\":[[-73.6816451,45.6222046],[-73.6818045,45.6223157]]}";2;Avenue des Ambassadeurs;1;50;false;false;true;false;false;false;18.0;0;0;1;0;0;false;46539;6269507606;-73.68288;45.623624;46366;6269507625;-73.68173;45.622172;0;42;43;9312763;Bus : 48 E - Direction Duvernay;"";STL;48E;Métro Cartier Quai:9;Terminus Haut-Saint-François
32635544;"{\"type\":\"LineString\",\"coordinates\":[[-73.6816451,45.6222046],[-73.6829074,45.620614]]}";3;Avenue Des Généraux;1;50;false;true;false;false;false;false;101.5;0;0;1;0;0;false;46539;6269507606;-73.68288;45.623624;46366;6269507625;-73.68173;45.622172;1;42;43;9312763;Bus : 48 E - Direction Duvernay;"";STL;48E;Métro Cartier Quai:9;Terminus Haut-Saint-François
32635544;"{\"type\":\"LineString\",\"coordinates\":[[-73.6816451,45.6222046],[-73.6829074,45.620614]]}";1;Avenue Des Généraux;1;50;false;true;false;false;false;false;203.0;0;0;1;0;0;false;46366;6269507625;-73.68173;45.622172;46367;6269507656;-73.68251;45.620345;2;43;44;9312763;Bus : 48 E - Direction Duvernay;"";STL;48E;Métro Cartier Quai:9;Terminus Haut-Saint-François
100181627;"{\"type\":\"LineString\",\"coordinates\":[[-73.6829074,45.620614],[-73.682709,45.6205469]]}";2;Avenue des Gouverneurs;1;50;false;false;false;false;false;false;18.0;0;0;0;0;0;false;46366;6269507625;-73.68173;45.622172;46367;6269507656;-73.68251;45.620345;0;43;44;9312763;Bus : 48 E - Direction Duvernay;"";STL;48E;Métro Cartier Quai:9;Terminus Haut-Saint-François
259643623;"{\"type\":\"LineString\",\"coordinates\":[[-73.682709,45.6205469],[-73.6818696,45.6201905],[-73.6816389,45.6200913],[-73.6811361,45.6198812],[-73.6808391,45.6197247],[-73.6806948,45.6196171],[-73.6804802,45.619437],[-73.6802768,45.6192347],[-73.680211,45.6191509],[-73.6798801,45.6182231],[-73.679689,45.6176874],[-73.6795694,45.6173723],[-73.6794345,45.6170167],[-73.6793024,45.616646],[-73.6792217,45.6164193]]}";3;Avenue des Gouverneurs;1;50;false;false;false;false;false;false;566.0;0;0;0;0;0;false;46366;6269507625;-73.68173;45.622172;46367;6269507656;-73.68251;45.620345;2;43;44;9312763;Bus : 48 E - Direction Duvernay;"";STL;48E;Métro Cartier Quai:9;Terminus Haut-Saint-François
100181626;"{\"type\":\"LineString\",\"coordinates\":[[-73.6792217,45.6164193],[-73.6792068,45.6163738],[-73.6791115,45.6160816],[-73.6790526,45.6159874]]}";1;Avenue des Gouverneurs;1;50;false;false;true;false;false;false;50.0;0;0;0;0;0;false;46370;6269507694;-73.67938;45.616399;46598;6269507729;-73.68326;45.61414;2;47;48;9312763;Bus : 48 E - Direction Duvernay;"";STL;48E;Métro Cartier Quai:9;Terminus Haut-Saint-François
678143320;"{\"type\":\"LineString\",\"coordinates\":[[-73.6790526,45.6159874],[-73.6791207,45.6159711],[-73.6791783,45.6159409],[-73.6792195,45.6158996],[-73.6792405,45.6158514],[-73.6792389,45.6158011],[-73.6792152,45.6157536]]}";2;"";1;50;false;false;true;false;false;false;34.0;0;0;0;0;0;true;46370;6269507694;-73.67938;45.616399;46598;6269507729;-73.68326;45.61414;0;47;48;9312763;Bus : 48 E - Direction Duvernay;"";STL;48E;Métro Cartier Quai:9;Terminus Haut-Saint-François
45802433;"{\"type\":\"LineString\",\"coordinates\":[[-73.6808796,45.6149506],[-73.6806288,45.6150276],[-73.6803925,45.6151312],[-73.680207,45.6152206],[-73.6799981,45.615386],[-73.6797722,45.6155895],[-73.6795834,45.6156862],[-73.6792152,45.6157536]]}";3;Avenue des Aristocrates;2;50;false;false;true;false;false;false;162.0;0;0;0;0;0;false;46370;6269507694;-73.67938;45.616399;46598;6269507729;-73.68326;45.61414;0;47;48;9312763;Bus : 48 E - Direction Duvernay;"";STL;48E;Métro Cartier Quai:9;Terminus Haut-Saint-François
305086221;"{\"type\":\"LineString\",\"coordinates\":[[-73.6808796,45.6149506],[-73.68114,45.6149498]]}";4;Avenue des Aristocrates;1;50;false;true;true;false;false;false;21.0;0;0;0;0;0;false;46370;6269507694;-73.67938;45.616399;46598;6269507729;-73.68326;45.61414;0;47;48;9312763;Bus : 48 E - Direction Duvernay;"";STL;48E;Métro Cartier Quai:9;Terminus Haut-Saint-François
678143319;"{\"type\":\"LineString\",\"coordinates\":[[-73.68114,45.6149498],[-73.6811667,45.6149795],[-73.6812059,45.6150014],[-73.6812532,45.615013],[-73.6813033,45.6150132],[-73.6813507,45.6150018],[-73.6813901,45.6149802],[-73.6814172,45.6149507],[-73.6814289,45.6149166]]}";5;"";2;50;false;false;true;false;false;false;32.0;0;0;0;0;0;true;46370;6269507694;-73.67938;45.616399;46598;6269507729;-73.68326;45.61414;0;47;48;9312763;Bus : 48 E - Direction Duvernay;"";STL;48E;Métro Cartier Quai:9;Terminus Haut-Saint-François
32637554;"{\"type\":\"LineString\",\"coordinates\":[[-73.6814289,45.6149166],[-73.6816525,45.6148694],[-73.6818854,45.6147905],[-73.6823837,45.6145306],[-73.6832652,45.6140688],[-73.6833423,45.6140349],[-73.6836903,45.6138891],[-73.6839286,45.6137979],[-73.6845416,45.6136258],[-73.6846752,45.6135846],[-73.68483,45.6135314],[-73.6850436,45.6134568],[-73.6866904,45.6126954],[-73.68757,45.6122784],[-73.6877761,45.612168],[-73.6879278,45.6120917],[-73.6899699,45.6109996],[-73.6915405,45.610261],[-73.6931951,45.6095764],[-73.6941398,45.6092143],[-73.6953496,45.6087804],[-73.6956192,45.608681],[-73.6960899,45.6085477],[-73.6963501,45.6085055],[-73.6966545,45.6085051],[-73.6970267,45.6085559],[-73.6973373,45.6086388],[-73.6975882,45.6087477],[-73.6976779,45.6087961],[-73.6978479,45.6089141],[-73.6983624,45.6093716]]}";6;Boulevard Robert Bourassa;2;50;false;true;true;false;false;false;1564.0;0;0;0;0;0;false;46370;6269507694;-73.67938;45.616399;46598;6269507729;-73.68326;45.61414;2;47;48;9312763;Bus : 48 E - Direction Duvernay;"";STL;48E;Métro Cartier Quai:9;Terminus Haut-Saint-François
602589038;"{\"type\":\"LineString\",\"coordinates\":[[-73.6983624,45.6093716],[-73.6992136,45.6101502],[-73.7000561,45.6108999],[-73.7003416,45.6112242],[-73.7005156,45.6114369],[-73.7007242,45.6119261],[-73.7007827,45.6123985],[-73.7008329,45.6130193],[-73.7008434,45.6131751]]}";1;Boulevard Robert Bourassa;2;50;false;true;true;false;false;false;240.5;0;0;0;0;0;false;46548;6269507776;-73.70059;45.611811;46549;6269507676;-73.70066;45.615599;1;54;55;9312763;Bus : 48 E - Direction Duvernay;"";STL;48E;Métro Cartier Quai:9;Terminus Haut-Saint-François
574729807;"{\"type\":\"LineString\",\"coordinates\":[[-73.7008434,45.6131751],[-73.7008497,45.6132471]]}";2;Boulevard Robert Bourassa;2;50;false;true;true;false;false;false;9.0;0;0;0;0;0;false;46548;6269507776;-73.70059;45.611811;46549;6269507676;-73.70066;45.615599;0;54;55;9312763;Bus : 48 E - Direction Duvernay;"";STL;48E;Métro Cartier Quai:9;Terminus Haut-Saint-François
498760350;"{\"type\":\"LineString\",\"coordinates\":[[-73.7008497,45.6132471],[-73.7008628,45.6134601],[-73.7008695,45.6136215],[-73.7009289,45.6137366]]}";3;Boulevard Robert Bourassa;2;50;false;true;true;false;false;false;56.0;0;0;0;0;0;false;46548;6269507776;-73.70059;45.611811;46549;6269507676;-73.70066;45.615599;0;54;55;9312763;Bus : 48 E - Direction Duvernay;"";STL;48E;Métro Cartier Quai:9;Terminus Haut-Saint-François
52706360;"{\"type\":\"LineString\",\"coordinates\":[[-73.7008593,45.6156234],[-73.7007292,45.6155123],[-73.7005498,45.6153595],[-73.7003969,45.6151814],[-73.7003208,45.615052],[-73.7002903,45.6148633],[-73.7002819,45.6147574],[-73.7002974,45.6146479],[-73.7003141,45.6145369],[-73.7003717,45.6144619],[-73.7004641,45.6143268],[-73.7006866,45.6141093],[-73.7008239,45.6139569],[-73.7008563,45.6139036],[-73.7008818,45.6138605],[-73.7008995,45.6138196],[-73.7009145,45.6137861],[-73.7009289,45.6137366]]}";4;Rang du Haut-Saint-François;2;50;false;false;true;false;false;false;118.0;0;0;0;0;0;false;46548;6269507776;-73.70059;45.611811;46549;6269507676;-73.70066;45.615599;1;54;55;9312763;Bus : 48 E - Direction Duvernay;"";STL;48E;Métro Cartier Quai:9;Terminus Haut-Saint-François
52706360;"{\"type\":\"LineString\",\"coordinates\":[[-73.7008593,45.6156234],[-73.7007292,45.6155123],[-73.7005498,45.6153595],[-73.7003969,45.6151814],[-73.7003208,45.615052],[-73.7002903,45.6148633],[-73.7002819,45.6147574],[-73.7002974,45.6146479],[-73.7003141,45.6145369],[-73.7003717,45.6144619],[-73.7004641,45.6143268],[-73.7006866,45.6141093],[-73.7008239,45.6139569],[-73.7008563,45.6139036],[-73.7008818,45.6138605],[-73.7008995,45.6138196],[-73.7009145,45.6137861],[-73.7009289,45.6137366]]}";1;Rang du Haut-Saint-François;2;50;false;false;true;false;false;false;236.0;0;0;0;0;0;false;46549;6269507676;-73.70066;45.615599;46550;6269507742;-73.70259;45.613796;2;55;56;9312763;Bus : 48 E - Direction Duvernay;"";STL;48E;Métro Cartier Quai:9;Terminus Haut-Saint-François
678143318;"{\"type\":\"LineString\",\"coordinates\":[[-73.7024001,45.6139477],[-73.7019134,45.6144091],[-73.7008593,45.6156234]]}";2;Rang du Haut-Saint-François;2;50;false;false;true;false;false;false;222.0;0;0;0;0;0;false;46549;6269507676;-73.70066;45.615599;46550;6269507742;-73.70259;45.613796;0;55;56;9312763;Bus : 48 E - Direction Duvernay;"";STL;48E;Métro Cartier Quai:9;Terminus Haut-Saint-François
694211674;"{\"type\":\"LineString\",\"coordinates\":[[-73.7025804,45.6137878],[-73.7024001,45.6139477]]}";3;Rang du Haut-Saint-François;2;50;false;false;true;false;false;false;23.0;0;0;0;0;0;false;46549;6269507676;-73.70066;45.615599;46550;6269507742;-73.70259;45.613796;1;55;56;9312763;Bus : 48 E - Direction Duvernay;"";STL;48E;Métro Cartier Quai:9;Terminus Haut-Saint-François
