way_id;shape;index;name;nb_lanes;legal_speed;speed_zone_30;oneway;shares_bike;bike_box;bus_lane;dedicated_bus_lane;length;nb_traffic_signals;nb_crossings;nb_stops;nb_give_ways;nb_lvl_crossings;roundabout;stop_id_orig;node_id_orig;coord_x_orig;coord_y_orig;stop_id_dest;node_id_dest;coord_x_dest;coord_y_dest;nb_neighbouring_ways_bus_stop;ordre_orig;ordre_dest;id_line;line_name;colour;operator;ref;from;to
393666590;"{\"type\":\"LineString\",\"coordinates\":[[-73.5514258,45.5468155],[-73.5513869,45.5468822],[-73.55133,45.5469797]]}";1;Rue Hochelaga;4;50;false;false;true;false;false;false;20.0;1;1;0;0;0;false;53036;5199274621;-73.5514371;45.5469175;53011;6010964940;-73.552587;45.54512;1;0;1;5928861;Bus 67 : Saint-Michel Nord;"";STM;67-N;Station Joliette (Hochelaga / Joliette);Saint-Michel / Henri-Bourassa
393657319;"{\"type\":\"LineString\",\"coordinates\":[[-73.5517912,45.5462395],[-73.5514258,45.5468155]]}";2;Rue Hochelaga;4;50;false;false;true;false;false;false;71.0;1;0;0;0;0;false;53036;5199274621;-73.5514371;45.5469175;53011;6010964940;-73.552587;45.54512;0;0;1;5928861;Bus 67 : Saint-Michel Nord;"";STM;67-N;Station Joliette (Hochelaga / Joliette);Saint-Michel / Henri-Bourassa
395059474;"{\"type\":\"LineString\",\"coordinates\":[[-73.5525866,45.5449311],[-73.5521978,45.5455455],[-73.5517912,45.5462395]]}";3;Rue Hochelaga;4;50;false;false;true;false;false;false;159.0;1;0;0;0;0;false;53036;5199274621;-73.5514371;45.5469175;53011;6010964940;-73.552587;45.54512;2;0;1;5928861;Bus 67 : Saint-Michel Nord;"";STM;67-N;Station Joliette (Hochelaga / Joliette);Saint-Michel / Henri-Bourassa
142627903;"{\"type\":\"LineString\",\"coordinates\":[[-73.5525866,45.5449311],[-73.5531404,45.5451011]]}";1;Rue Davidson;1;50;false;true;true;false;false;false;48.0;1;0;0;0;0;false;53011;6010964940;-73.552587;45.54512;52922;6010974397;-73.55583;45.545944;2;1;2;5928861;Bus 67 : Saint-Michel Nord;"";STM;67-N;Station Joliette (Hochelaga / Joliette);Saint-Michel / Henri-Bourassa
165059036;"{\"type\":\"LineString\",\"coordinates\":[[-73.5531404,45.5451011],[-73.5553851,45.5457534],[-73.5560264,45.5459466]]}";2;Rue Davidson;1;50;false;true;true;false;false;false;244.0;1;0;0;0;0;false;53011;6010964940;-73.552587;45.54512;52922;6010974397;-73.55583;45.545944;2;1;2;5928861;Bus 67 : Saint-Michel Nord;"";STM;67-N;Station Joliette (Hochelaga / Joliette);Saint-Michel / Henri-Bourassa
90845857;"{\"type\":\"LineString\",\"coordinates\":[[-73.5570109,45.5462398],[-73.5566878,45.5461439],[-73.5560264,45.5459466]]}";1;Rue Davidson;1;30;false;false;true;false;false;false;84.0;1;0;0;0;0;false;52922;6010974397;-73.55583;45.545944;52815;6010964521;-73.559429;45.547016;2;2;3;5928861;Bus 67 : Saint-Michel Nord;"";STM;67-N;Station Joliette (Hochelaga / Joliette);Saint-Michel / Henri-Bourassa
165059037;"{\"type\":\"LineString\",\"coordinates\":[[-73.5596065,45.5470139],[-73.5591399,45.5468747],[-73.5580114,45.5465382],[-73.5570109,45.5462398]]}";2;Rue Davidson;1;30;false;false;true;false;false;false;221.0;0;0;0;0;0;false;52922;6010974397;-73.55583;45.545944;52815;6010964521;-73.559429;45.547016;2;2;3;5928861;Bus 67 : Saint-Michel Nord;"";STM;67-N;Station Joliette (Hochelaga / Joliette);Saint-Michel / Henri-Bourassa
393886970;"{\"type\":\"LineString\",\"coordinates\":[[-73.5648116,45.5486413],[-73.5661336,45.5490363],[-73.566778,45.5492288],[-73.5671625,45.5493117]]}";1;Boulevard Saint-Michel;1;50;false;true;true;false;false;false;199.0;0;0;0;0;0;false;52651;5042096822;-73.5647352;45.5486587;52520;5046380222;-73.5678825;45.5495961;2;5;6;5928861;Bus 67 : Saint-Michel Nord;"";STM;67-N;Station Joliette (Hochelaga / Joliette);Saint-Michel / Henri-Bourassa
463463452;"{\"type\":\"LineString\",\"coordinates\":[[-73.5671625,45.5493117],[-73.5675604,45.5493933],[-73.5681547,45.5495504]]}";2;Boulevard Saint-Michel;1;50;false;true;true;false;false;false;82.0;0;0;0;0;0;false;52651;5042096822;-73.5647352;45.5486587;52520;5046380222;-73.5678825;45.5495961;2;5;6;5928861;Bus 67 : Saint-Michel Nord;"";STM;67-N;Station Joliette (Hochelaga / Joliette);Saint-Michel / Henri-Bourassa
463463452;"{\"type\":\"LineString\",\"coordinates\":[[-73.5671625,45.5493117],[-73.5675604,45.5493933],[-73.5681547,45.5495504]]}";1;Boulevard Saint-Michel;1;50;false;true;true;false;false;false;41.0;0;0;0;0;0;false;52520;5046380222;-73.5678825;45.5495961;52431;5008527821;-73.5703353;45.5502161;1;6;7;5928861;Bus 67 : Saint-Michel Nord;"";STM;67-N;Station Joliette (Hochelaga / Joliette);Saint-Michel / Henri-Bourassa
463463451;"{\"type\":\"LineString\",\"coordinates\":[[-73.5681547,45.5495504],[-73.568335,45.5495504]]}";2;Boulevard Saint-Michel;1;50;false;true;true;false;false;false;15.0;0;0;0;0;0;false;52520;5046380222;-73.5678825;45.5495961;52431;5008527821;-73.5703353;45.5502161;0;6;7;5928861;Bus 67 : Saint-Michel Nord;"";STM;67-N;Station Joliette (Hochelaga / Joliette);Saint-Michel / Henri-Bourassa
454272012;"{\"type\":\"LineString\",\"coordinates\":[[-73.568335,45.5495504],[-73.5684631,45.549589]]}";3;Boulevard Saint-Michel;1;50;false;false;true;false;false;false;11.0;0;0;0;0;0;false;52520;5046380222;-73.5678825;45.5495961;52431;5008527821;-73.5703353;45.5502161;0;6;7;5928861;Bus 67 : Saint-Michel Nord;"";STM;67-N;Station Joliette (Hochelaga / Joliette);Saint-Michel / Henri-Bourassa
129640828;"{\"type\":\"LineString\",\"coordinates\":[[-73.5786894,45.5526424],[-73.5767407,45.55206],[-73.5762693,45.551919],[-73.5757487,45.5517635],[-73.5736463,45.5511352],[-73.5731437,45.5509897],[-73.5726024,45.5508288],[-73.5725054,45.5508013],[-73.5709107,45.5503199],[-73.5708264,45.5502944],[-73.5704741,45.550188],[-73.5700153,45.5500514],[-73.5684631,45.549589]]}";4;Boulevard Saint-Michel;3;50;false;false;true;false;false;false;433.5;0;0;0;0;0;false;52520;5046380222;-73.5678825;45.5495961;52431;5008527821;-73.5703353;45.5502161;1;6;7;5928861;Bus 67 : Saint-Michel Nord;"";STM;67-N;Station Joliette (Hochelaga / Joliette);Saint-Michel / Henri-Bourassa
452080871;"{\"type\":\"LineString\",\"coordinates\":[[-73.5804555,45.5532855],[-73.5802758,45.5531869]]}";1;Boulevard Saint-Michel;3;50;false;false;true;false;false;false;18.0;0;0;0;0;0;false;52107;6010977286;-73.580146;45.553227;52046;291483520;-73.582233;45.55393;2;11;12;5928861;Bus 67 : Saint-Michel Nord;"";STM;67-N;Station Joliette (Hochelaga / Joliette);Saint-Michel / Henri-Bourassa
129640829;"{\"type\":\"LineString\",\"coordinates\":[[-73.5809115,45.5534295],[-73.5808558,45.5534114],[-73.5804555,45.5532855]]}";2;Boulevard Saint-Michel;3;50;false;false;true;false;false;false;40.0;0;0;0;0;0;false;52107;6010977286;-73.580146;45.553227;52046;291483520;-73.582233;45.55393;0;11;12;5928861;Bus 67 : Saint-Michel Nord;"";STM;67-N;Station Joliette (Hochelaga / Joliette);Saint-Michel / Henri-Bourassa
512460696;"{\"type\":\"LineString\",\"coordinates\":[[-73.5811836,45.5535177],[-73.5809115,45.5534295]]}";3;Boulevard Saint-Michel;3;50;false;false;true;false;false;false;24.0;0;0;0;0;0;false;52107;6010977286;-73.580146;45.553227;52046;291483520;-73.582233;45.55393;0;11;12;5928861;Bus 67 : Saint-Michel Nord;"";STM;67-N;Station Joliette (Hochelaga / Joliette);Saint-Michel / Henri-Bourassa
455264694;"{\"type\":\"LineString\",\"coordinates\":[[-73.5825214,45.5539408],[-73.5819502,45.5537633],[-73.5818684,45.5537374],[-73.5811836,45.5535177]]}";4;Boulevard Saint-Michel;4;50;false;false;true;false;false;false;115.0;1;0;0;0;0;false;52107;6010977286;-73.580146;45.553227;52046;291483520;-73.582233;45.55393;2;11;12;5928861;Bus 67 : Saint-Michel Nord;"";STM;67-N;Station Joliette (Hochelaga / Joliette);Saint-Michel / Henri-Bourassa
455264694;"{\"type\":\"LineString\",\"coordinates\":[[-73.5825214,45.5539408],[-73.5819502,45.5537633],[-73.5818684,45.5537374],[-73.5811836,45.5535177]]}";1;Boulevard Saint-Michel;4;50;false;false;true;false;false;false;57.5;1;0;0;0;0;false;52046;291483520;-73.582233;45.55393;51943;602896866;-73.586049;45.555084;1;12;13;5928861;Bus 67 : Saint-Michel Nord;"";STM;67-N;Station Joliette (Hochelaga / Joliette);Saint-Michel / Henri-Bourassa
372886664;"{\"type\":\"LineString\",\"coordinates\":[[-73.5862661,45.5550867],[-73.5858038,45.554937],[-73.5837757,45.5543199],[-73.5825214,45.5539408]]}";2;Boulevard Saint-Michel;4;50;false;false;true;false;false;false;159.5;1;0;0;0;0;false;52046;291483520;-73.582233;45.55393;51943;602896866;-73.586049;45.555084;1;12;13;5928861;Bus 67 : Saint-Michel Nord;"";STM;67-N;Station Joliette (Hochelaga / Joliette);Saint-Michel / Henri-Bourassa
460738654;"{\"type\":\"LineString\",\"coordinates\":[[-73.5867973,45.5552413],[-73.5862661,45.5550867]]}";1;Boulevard Saint-Michel;4;50;false;false;true;false;false;false;45.0;0;0;0;0;0;false;51943;602896866;-73.586049;45.555084;51838;602896862;-73.589813;45.556211;2;13;14;5928861;Bus 67 : Saint-Michel Nord;"";STM;67-N;Station Joliette (Hochelaga / Joliette);Saint-Michel / Henri-Bourassa
167668722;"{\"type\":\"LineString\",\"coordinates\":[[-73.589588,45.5560701],[-73.5894628,45.5560329],[-73.5869246,45.5552788],[-73.5867973,45.5552413]]}";2;Boulevard Saint-Michel;4;50;false;false;true;false;false;false;237.0;0;0;0;0;0;false;51943;602896866;-73.586049;45.555084;51838;602896862;-73.589813;45.556211;0;13;14;5928861;Bus 67 : Saint-Michel Nord;"";STM;67-N;Station Joliette (Hochelaga / Joliette);Saint-Michel / Henri-Bourassa
460738653;"{\"type\":\"LineString\",\"coordinates\":[[-73.5900952,45.5562208],[-73.589588,45.5560701]]}";3;Boulevard Saint-Michel;4;50;false;false;true;false;false;false;43.0;1;0;0;0;0;false;51943;602896866;-73.586049;45.555084;51838;602896862;-73.589813;45.556211;2;13;14;5928861;Bus 67 : Saint-Michel Nord;"";STM;67-N;Station Joliette (Hochelaga / Joliette);Saint-Michel / Henri-Bourassa
460738653;"{\"type\":\"LineString\",\"coordinates\":[[-73.5900952,45.5562208],[-73.589588,45.5560701]]}";1;Boulevard Saint-Michel;4;50;false;false;true;false;false;false;21.5;1;0;0;0;0;false;51838;602896862;-73.589813;45.556211;51743;602894795;-73.593711;45.55739;1;14;15;5928861;Bus 67 : Saint-Michel Nord;"";STM;67-N;Station Joliette (Hochelaga / Joliette);Saint-Michel / Henri-Bourassa
455264692;"{\"type\":\"LineString\",\"coordinates\":[[-73.5933545,45.5571916],[-73.5906295,45.5563797],[-73.5900952,45.5562208]]}";2;Boulevard Saint-Michel;4;50;false;false;true;false;false;false;277.0;1;0;0;0;0;false;51838;602896862;-73.589813;45.556211;51743;602894795;-73.593711;45.55739;0;14;15;5928861;Bus 67 : Saint-Michel Nord;"";STM;67-N;Station Joliette (Hochelaga / Joliette);Saint-Michel / Henri-Bourassa
20216726;"{\"type\":\"LineString\",\"coordinates\":[[-73.5933545,45.5571916],[-73.5936027,45.5573141],[-73.5939226,45.5574176],[-73.5940393,45.5574569]]}";3;Boulevard Saint-Michel;3;50;false;true;true;false;false;false;31.0;1;0;0;0;0;false;51838;602896862;-73.589813;45.556211;51743;602894795;-73.593711;45.55739;1;14;15;5928861;Bus 67 : Saint-Michel Nord;"";STM;67-N;Station Joliette (Hochelaga / Joliette);Saint-Michel / Henri-Bourassa
20216726;"{\"type\":\"LineString\",\"coordinates\":[[-73.5933545,45.5571916],[-73.5936027,45.5573141],[-73.5939226,45.5574176],[-73.5940393,45.5574569]]}";1;Boulevard Saint-Michel;3;50;false;true;true;false;false;false;31.0;1;0;0;0;0;false;51743;602894795;-73.593711;45.55739;60617;602894796;-73.595068;45.557813;1;15;16;5928861;Bus 67 : Saint-Michel Nord;"";STM;67-N;Station Joliette (Hochelaga / Joliette);Saint-Michel / Henri-Bourassa
455264693;"{\"type\":\"LineString\",\"coordinates\":[[-73.5940393,45.5574569],[-73.5944007,45.5575693],[-73.5949547,45.5577416],[-73.5952644,45.5578379]]}";2;Boulevard Saint-Michel;2;50;false;true;true;false;false;false;52.5;0;0;0;0;0;false;51743;602894795;-73.593711;45.55739;60617;602894796;-73.595068;45.557813;1;15;16;5928861;Bus 67 : Saint-Michel Nord;"";STM;67-N;Station Joliette (Hochelaga / Joliette);Saint-Michel / Henri-Bourassa
460750933;"{\"type\":\"LineString\",\"coordinates\":[[-73.5952644,45.5578379],[-73.5955682,45.5579299]]}";1;Boulevard Saint-Michel;2;50;false;true;true;false;false;false;26.0;0;0;0;0;0;false;60617;602894796;-73.595068;45.557813;51630;282147647;-73.598117;45.558849;2;16;17;5928861;Bus 67 : Saint-Michel Nord;"";STM;67-N;Station Joliette (Hochelaga / Joliette);Saint-Michel / Henri-Bourassa
455264696;"{\"type\":\"LineString\",\"coordinates\":[[-73.5955682,45.5579299],[-73.5970962,45.5583924],[-73.5973765,45.5584832],[-73.5976222,45.5585888],[-73.5980652,45.5587848]]}";2;Boulevard Saint-Michel;2;50;false;true;true;false;false;false;218.0;0;0;0;0;0;false;60617;602894796;-73.595068;45.557813;51630;282147647;-73.598117;45.558849;0;16;17;5928861;Bus 67 : Saint-Michel Nord;"";STM;67-N;Station Joliette (Hochelaga / Joliette);Saint-Michel / Henri-Bourassa
460753676;"{\"type\":\"LineString\",\"coordinates\":[[-73.5980652,45.5587848],[-73.5982981,45.5588878]]}";3;Boulevard Saint-Michel;2;50;false;true;true;false;false;false;22.0;1;0;0;0;0;false;60617;602894796;-73.595068;45.557813;51630;282147647;-73.598117;45.558849;2;16;17;5928861;Bus 67 : Saint-Michel Nord;"";STM;67-N;Station Joliette (Hochelaga / Joliette);Saint-Michel / Henri-Bourassa
455264696;"{\"type\":\"LineString\",\"coordinates\":[[-73.5955682,45.5579299],[-73.5970962,45.5583924],[-73.5973765,45.5584832],[-73.5976222,45.5585888],[-73.5980652,45.5587848]]}";1;Boulevard Saint-Michel;2;50;false;true;true;false;false;false;218.0;0;0;0;0;0;false;51630;282147647;-73.598117;45.558849;51606;602894793;-73.600522;45.559939;2;17;18;5928861;Bus 67 : Saint-Michel Nord;"";STM;67-N;Station Joliette (Hochelaga / Joliette);Saint-Michel / Henri-Bourassa
460753676;"{\"type\":\"LineString\",\"coordinates\":[[-73.5980652,45.5587848],[-73.5982981,45.5588878]]}";2;Boulevard Saint-Michel;2;50;false;true;true;false;false;false;22.0;1;0;0;0;0;false;51630;282147647;-73.598117;45.558849;51606;602894793;-73.600522;45.559939;0;17;18;5928861;Bus 67 : Saint-Michel Nord;"";STM;67-N;Station Joliette (Hochelaga / Joliette);Saint-Michel / Henri-Bourassa
607795832;"{\"type\":\"LineString\",\"coordinates\":[[-73.5982981,45.5588878],[-73.5995442,45.5594467],[-73.6000058,45.5596527]]}";3;Boulevard Saint-Michel;2;50;false;true;true;false;false;false;158.0;1;0;0;0;0;false;51630;282147647;-73.598117;45.558849;51606;602894793;-73.600522;45.559939;0;17;18;5928861;Bus 67 : Saint-Michel Nord;"";STM;67-N;Station Joliette (Hochelaga / Joliette);Saint-Michel / Henri-Bourassa
455264695;"{\"type\":\"LineString\",\"coordinates\":[[-73.6000058,45.5596527],[-73.6007388,45.5599732],[-73.6014792,45.5602962],[-73.6022277,45.5606228],[-73.6030067,45.5609702]]}";4;Boulevard Saint-Michel;2;50;false;true;true;false;false;false;277.0;0;0;0;0;0;false;51630;282147647;-73.598117;45.558849;51606;602894793;-73.600522;45.559939;2;17;18;5928861;Bus 67 : Saint-Michel Nord;"";STM;67-N;Station Joliette (Hochelaga / Joliette);Saint-Michel / Henri-Bourassa
455264695;"{\"type\":\"LineString\",\"coordinates\":[[-73.6000058,45.5596527],[-73.6007388,45.5599732],[-73.6014792,45.5602962],[-73.6022277,45.5606228],[-73.6030067,45.5609702]]}";1;Boulevard Saint-Michel;2;50;false;true;true;false;false;false;138.5;0;0;0;0;0;false;51606;602894793;-73.600522;45.559939;51517;291487972;-73.603541;45.561245;1;18;19;5928861;Bus 67 : Saint-Michel Nord;"";STM;67-N;Station Joliette (Hochelaga / Joliette);Saint-Michel / Henri-Bourassa
455264690;"{\"type\":\"LineString\",\"coordinates\":[[-73.6030067,45.5609702],[-73.6037599,45.5612901]]}";2;Boulevard Saint-Michel;2;50;false;true;true;false;false;false;34.5;0;0;0;0;0;false;51606;602894793;-73.600522;45.559939;51517;291487972;-73.603541;45.561245;1;18;19;5928861;Bus 67 : Saint-Michel Nord;"";STM;67-N;Station Joliette (Hochelaga / Joliette);Saint-Michel / Henri-Bourassa
167668717;"{\"type\":\"LineString\",\"coordinates\":[[-73.6037599,45.5612901],[-73.6047136,45.5616838],[-73.6050931,45.5618405],[-73.6056248,45.5620766],[-73.6061908,45.5625525],[-73.6064961,45.562782],[-73.6067753,45.5628967],[-73.6069954,45.5629551],[-73.6075473,45.5630068],[-73.6079248,45.5631053]]}";1;Boulevard Saint-Michel;2;50;false;true;true;false;false;false;196.0;0;0;0;0;0;false;51469;602894799;-73.606652;45.56292;51392;602894786;-73.609293;45.56379;1;20;21;5928861;Bus 67 : Saint-Michel Nord;"";STM;67-N;Station Joliette (Hochelaga / Joliette);Saint-Michel / Henri-Bourassa
453242445;"{\"type\":\"LineString\",\"coordinates\":[[-73.6079248,45.5631053],[-73.6091838,45.5636693],[-73.6095775,45.5638467]]}";2;Boulevard Saint-Michel;2;50;false;true;true;false;false;false;76.5;1;0;0;0;0;false;51469;602894799;-73.606652;45.56292;51392;602894786;-73.609293;45.56379;1;20;21;5928861;Bus 67 : Saint-Michel Nord;"";STM;67-N;Station Joliette (Hochelaga / Joliette);Saint-Michel / Henri-Bourassa
453242445;"{\"type\":\"LineString\",\"coordinates\":[[-73.6079248,45.5631053],[-73.6091838,45.5636693],[-73.6095775,45.5638467]]}";1;Boulevard Saint-Michel;2;50;false;true;true;false;false;false;76.5;1;0;0;0;0;false;51392;602894786;-73.609293;45.56379;51359;602894788;-73.610884;45.564491;1;21;22;5928861;Bus 67 : Saint-Michel Nord;"";STM;67-N;Station Joliette (Hochelaga / Joliette);Saint-Michel / Henri-Bourassa
461311216;"{\"type\":\"LineString\",\"coordinates\":[[-73.6095775,45.5638467],[-73.6107666,45.5643792]]}";2;Boulevard Saint-Michel;2;50;false;true;true;false;false;false;111.0;1;0;0;0;0;false;51392;602894786;-73.609293;45.56379;51359;602894788;-73.610884;45.564491;0;21;22;5928861;Bus 67 : Saint-Michel Nord;"";STM;67-N;Station Joliette (Hochelaga / Joliette);Saint-Michel / Henri-Bourassa
461311215;"{\"type\":\"LineString\",\"coordinates\":[[-73.6107666,45.5643792],[-73.6110516,45.5645087]]}";3;Boulevard Saint-Michel;2;50;false;true;true;false;false;false;13.5;0;0;0;0;0;false;51392;602894786;-73.609293;45.56379;51359;602894788;-73.610884;45.564491;1;21;22;5928861;Bus 67 : Saint-Michel Nord;"";STM;67-N;Station Joliette (Hochelaga / Joliette);Saint-Michel / Henri-Bourassa
453242451;"{\"type\":\"LineString\",\"coordinates\":[[-73.6125417,45.565153],[-73.6126977,45.5652209],[-73.6135491,45.5655926]]}";1;Boulevard Saint-Michel;2;50;false;true;true;false;false;false;93.0;0;0;0;0;0;false;53968;602894785;-73.612369;45.565145;51276;602894791;-73.615298;45.566438;2;23;24;5928861;Bus 67 : Saint-Michel Nord;"";STM;67-N;Station Joliette (Hochelaga / Joliette);Saint-Michel / Henri-Bourassa
453242447;"{\"type\":\"LineString\",\"coordinates\":[[-73.6135491,45.5655926],[-73.6138719,45.5657321]]}";2;Boulevard Saint-Michel;2;50;false;true;true;false;false;false;30.0;0;0;0;0;0;false;53968;602894785;-73.612369;45.565145;51276;602894791;-73.615298;45.566438;0;23;24;5928861;Bus 67 : Saint-Michel Nord;"";STM;67-N;Station Joliette (Hochelaga / Joliette);Saint-Michel / Henri-Bourassa
461164150;"{\"type\":\"LineString\",\"coordinates\":[[-73.6138719,45.5657321],[-73.6154337,45.5664343],[-73.6155007,45.5664645]]}";3;Boulevard Saint-Michel;2;50;false;true;true;false;false;false;151.0;1;0;0;0;0;false;53968;602894785;-73.612369;45.565145;51276;602894791;-73.615298;45.566438;2;23;24;5928861;Bus 67 : Saint-Michel Nord;"";STM;67-N;Station Joliette (Hochelaga / Joliette);Saint-Michel / Henri-Bourassa
461164149;"{\"type\":\"LineString\",\"coordinates\":[[-73.6155007,45.5664645],[-73.6178167,45.5674752],[-73.6179014,45.5675115]]}";1;Boulevard Saint-Michel;2;50;false;true;true;false;false;false;221.0;1;0;0;0;0;false;51276;602894791;-73.615298;45.566438;54180;602894790;-73.618269;45.567745;2;24;25;5928861;Bus 67 : Saint-Michel Nord;"";STM;67-N;Station Joliette (Hochelaga / Joliette);Saint-Michel / Henri-Bourassa
453242452;"{\"type\":\"LineString\",\"coordinates\":[[-73.6179014,45.5675115],[-73.6184305,45.5677467],[-73.6185026,45.5677787],[-73.6197251,45.568315],[-73.6214333,45.5690711],[-73.6215339,45.5691156],[-73.6238255,45.5701433]]}";2;Boulevard Saint-Michel;2;50;false;true;true;false;false;false;547.0;2;0;0;0;0;false;51276;602894791;-73.615298;45.566438;54180;602894790;-73.618269;45.567745;2;24;25;5928861;Bus 67 : Saint-Michel Nord;"";STM;67-N;Station Joliette (Hochelaga / Joliette);Saint-Michel / Henri-Bourassa
453242452;"{\"type\":\"LineString\",\"coordinates\":[[-73.6179014,45.5675115],[-73.6184305,45.5677467],[-73.6185026,45.5677787],[-73.6197251,45.568315],[-73.6214333,45.5690711],[-73.6215339,45.5691156],[-73.6238255,45.5701433]]}";1;Boulevard Saint-Michel;2;50;false;true;true;false;false;false;273.5;2;0;0;0;0;false;51142;602894783;-73.621339;45.569098;51080;602894781;-73.62422;45.570372;1;26;27;5928861;Bus 67 : Saint-Michel Nord;"";STM;67-N;Station Joliette (Hochelaga / Joliette);Saint-Michel / Henri-Bourassa
461164008;"{\"type\":\"LineString\",\"coordinates\":[[-73.6238255,45.5701433],[-73.6243558,45.5703863],[-73.6244421,45.5704259]]}";2;Boulevard Saint-Michel;2;50;false;true;true;false;false;false;29.0;1;0;0;0;0;false;51142;602894783;-73.621339;45.569098;51080;602894781;-73.62422;45.570372;1;26;27;5928861;Bus 67 : Saint-Michel Nord;"";STM;67-N;Station Joliette (Hochelaga / Joliette);Saint-Michel / Henri-Bourassa
461164009;"{\"type\":\"LineString\",\"coordinates\":[[-73.6244421,45.5704259],[-73.6255839,45.5709201]]}";1;Boulevard Saint-Michel;2;50;false;true;true;false;false;false;105.0;0;0;0;0;0;false;51080;602894781;-73.62422;45.570372;51000;602894817;-73.627218;45.571691;2;27;28;5928861;Bus 67 : Saint-Michel Nord;"";STM;67-N;Station Joliette (Hochelaga / Joliette);Saint-Michel / Henri-Bourassa
452695791;"{\"type\":\"LineString\",\"coordinates\":[[-73.6255839,45.5709201],[-73.6273259,45.5716741],[-73.627406,45.5717088]]}";2;Boulevard Saint-Michel;2;50;false;true;true;false;false;false;167.0;1;0;0;0;0;false;51080;602894781;-73.62422;45.570372;51000;602894817;-73.627218;45.571691;2;27;28;5928861;Bus 67 : Saint-Michel Nord;"";STM;67-N;Station Joliette (Hochelaga / Joliette);Saint-Michel / Henri-Bourassa
452695795;"{\"type\":\"LineString\",\"coordinates\":[[-73.6328698,45.5741465],[-73.6334787,45.5744205],[-73.6337323,45.5746032],[-73.6340874,45.574867],[-73.6344527,45.5751511],[-73.634889,45.575354],[-73.6353411,45.575527],[-73.6353899,45.5755461],[-73.635546,45.5756108],[-73.6364164,45.5759821],[-73.6365182,45.5760255]]}";1;Boulevard Saint-Michel;2;50;false;true;true;false;false;false;178.0;2;0;0;0;0;false;50814;602894808;-73.635011;45.57547;50732;602894812;-73.638249;45.576824;1;31;32;5928861;Bus 67 : Saint-Michel Nord;"";STM;67-N;Station Joliette (Hochelaga / Joliette);Saint-Michel / Henri-Bourassa
452642003;"{\"type\":\"LineString\",\"coordinates\":[[-73.6365182,45.5760255],[-73.6371435,45.5762855]]}";2;Boulevard Saint-Michel;2;50;false;true;true;false;false;false;57.0;0;0;0;0;0;false;50814;602894808;-73.635011;45.57547;50732;602894812;-73.638249;45.576824;0;31;32;5928861;Bus 67 : Saint-Michel Nord;"";STM;67-N;Station Joliette (Hochelaga / Joliette);Saint-Michel / Henri-Bourassa
452642002;"{\"type\":\"LineString\",\"coordinates\":[[-73.6371435,45.5762855],[-73.6383984,45.5768074],[-73.6385123,45.5768548],[-73.6397187,45.5773869],[-73.6401243,45.5775658],[-73.6403839,45.5777389],[-73.6404444,45.5777792],[-73.6412151,45.5782674],[-73.6428425,45.5792952],[-73.6432459,45.5795521]]}";3;Boulevard Saint-Michel;2;50;false;true;true;false;false;false;301.0;2;0;0;0;0;false;50814;602894808;-73.635011;45.57547;50732;602894812;-73.638249;45.576824;1;31;32;5928861;Bus 67 : Saint-Michel Nord;"";STM;67-N;Station Joliette (Hochelaga / Joliette);Saint-Michel / Henri-Bourassa
462496329;"{\"type\":\"LineString\",\"coordinates\":[[-73.6432459,45.5795521],[-73.6433646,45.5796249],[-73.6434615,45.5796867]]}";1;Boulevard Saint-Michel;2;50;false;true;true;false;false;false;23.0;1;0;0;0;0;false;55057;602894800;-73.64317;45.579545;55046;602894801;-73.646077;45.581373;2;34;35;5928861;Bus 67 : Saint-Michel Nord;"";STM;67-N;Station Joliette (Hochelaga / Joliette);Saint-Michel / Henri-Bourassa
462496328;"{\"type\":\"LineString\",\"coordinates\":[[-73.6434615,45.5796867],[-73.6438481,45.5799356],[-73.6444549,45.5803307],[-73.6461488,45.5813896],[-73.6462274,45.581439],[-73.6489745,45.5831457],[-73.6490731,45.583207]]}";2;Boulevard Saint-Michel;2;50;false;true;true;false;false;false;587.0;2;0;0;0;0;false;55057;602894800;-73.64317;45.579545;55046;602894801;-73.646077;45.581373;2;34;35;5928861;Bus 67 : Saint-Michel Nord;"";STM;67-N;Station Joliette (Hochelaga / Joliette);Saint-Michel / Henri-Bourassa
462496328;"{\"type\":\"LineString\",\"coordinates\":[[-73.6434615,45.5796867],[-73.6438481,45.5799356],[-73.6444549,45.5803307],[-73.6461488,45.5813896],[-73.6462274,45.581439],[-73.6489745,45.5831457],[-73.6490731,45.583207]]}";1;Boulevard Saint-Michel;2;50;false;true;true;false;false;false;293.5;2;0;0;0;0;false;55046;602894801;-73.646077;45.581373;55333;602894814;-73.649799;45.583717;1;35;36;5928861;Bus 67 : Saint-Michel Nord;"";STM;67-N;Station Joliette (Hochelaga / Joliette);Saint-Michel / Henri-Bourassa
679446414;"{\"type\":\"LineString\",\"coordinates\":[[-73.6490731,45.583207],[-73.6501661,45.5838918],[-73.6504114,45.5840478]]}";2;Boulevard Saint-Michel;2;50;false;true;true;false;false;false;70.5;2;0;0;0;0;false;55046;602894801;-73.646077;45.581373;55333;602894814;-73.649799;45.583717;1;35;36;5928861;Bus 67 : Saint-Michel Nord;"";STM;67-N;Station Joliette (Hochelaga / Joliette);Saint-Michel / Henri-Bourassa
679446414;"{\"type\":\"LineString\",\"coordinates\":[[-73.6490731,45.583207],[-73.6501661,45.5838918],[-73.6504114,45.5840478]]}";1;Boulevard Saint-Michel;2;50;false;true;true;false;false;false;70.5;2;0;0;0;0;false;55333;602894814;-73.649799;45.583717;55334;1751357218;-73.6509032;45.5844567;1;36;37;5928861;Bus 67 : Saint-Michel Nord;"";STM;67-N;Station Joliette (Hochelaga / Joliette);Saint-Michel / Henri-Bourassa
395060685;"{\"type\":\"LineString\",\"coordinates\":[[-73.6504114,45.5840478],[-73.6509973,45.5843797]]}";2;Boulevard Saint-Michel;1;50;false;true;true;false;false;false;59.0;1;0;0;0;0;false;55333;602894814;-73.649799;45.583717;55334;1751357218;-73.6509032;45.5844567;1;36;37;5928861;Bus 67 : Saint-Michel Nord;"";STM;67-N;Station Joliette (Hochelaga / Joliette);Saint-Michel / Henri-Bourassa
