way_id;shape;index;name;nb_lanes;legal_speed;speed_zone_30;oneway;shares_bike;bike_box;bus_lane;dedicated_bus_lane;length;nb_traffic_signals;nb_crossings;nb_stops;nb_give_ways;nb_lvl_crossings;roundabout;stop_id_orig;node_id_orig;coord_x_orig;coord_y_orig;stop_id_dest;node_id_dest;coord_x_dest;coord_y_dest;nb_neighbouring_ways_bus_stop;ordre_orig;ordre_dest;id_line;line_name;colour;operator;ref;from;to
436178861;"{\"type\":\"LineString\",\"coordinates\":[[-70.6599658,-33.5167894],[-70.6598912,-33.5166599]]}";1;"";1;50;false;false;true;false;false;false;20.5;0;0;0;0;0;false;PG1585;1175284636;-70.6604456;-33.5169749;PG446;1175431391;-70.6627425;-33.5156047;1;0;1;6475739;Lo Ovalle - Diego Portales;#00c27f;Buses Vule;E02;Lo Ovalle;Diego Portales
436178827;"{\"type\":\"LineString\",\"coordinates\":[[-70.6598912,-33.5166599],[-70.6614287,-33.5161344],[-70.6629992,-33.5156022]]}";2;Carvajal;1;50;false;true;true;false;false;false;391.0;0;0;0;0;0;false;PG1585;1175284636;-70.6604456;-33.5169749;PG446;1175431391;-70.6627425;-33.5156047;1;0;1;6475739;Lo Ovalle - Diego Portales;#00c27f;Buses Vule;E02;Lo Ovalle;Diego Portales
436178827;"{\"type\":\"LineString\",\"coordinates\":[[-70.6598912,-33.5166599],[-70.6614287,-33.5161344],[-70.6629992,-33.5156022]]}";1;Carvajal;1;50;false;true;true;false;false;false;391.0;0;0;0;0;0;false;PG446;1175431391;-70.6627425;-33.5156047;PG425;1175432205;-70.6632681;-33.5166684;1;1;2;6475739;Lo Ovalle - Diego Portales;#00c27f;Buses Vule;E02;Lo Ovalle;Diego Portales
436178830;"{\"type\":\"LineString\",\"coordinates\":[[-70.6629992,-33.5156022],[-70.6633157,-33.5167829],[-70.6635517,-33.5177199],[-70.6637904,-33.5185674],[-70.6639547,-33.5191667],[-70.6639809,-33.5197794]]}";2;Ciencias;1;50;false;true;true;false;false;false;594.0;0;0;0;0;0;false;PG446;1175431391;-70.6627425;-33.5156047;PG425;1175432205;-70.6632681;-33.5166684;1;1;2;6475739;Lo Ovalle - Diego Portales;#00c27f;Buses Vule;E02;Lo Ovalle;Diego Portales
436178830;"{\"type\":\"LineString\",\"coordinates\":[[-70.6629992,-33.5156022],[-70.6633157,-33.5167829],[-70.6635517,-33.5177199],[-70.6637904,-33.5185674],[-70.6639547,-33.5191667],[-70.6639809,-33.5197794]]}";1;Ciencias;1;50;false;true;true;false;false;false;1188.0;0;0;0;0;0;false;PG426;1175432223;-70.6640267;-33.5188885;PG427;1175427132;-70.6616227;-33.5203291;1;3;4;6475739;Lo Ovalle - Diego Portales;#00c27f;Buses Vule;E02;Lo Ovalle;Diego Portales
436178837;"{\"type\":\"LineString\",\"coordinates\":[[-70.6639809,-33.5197794],[-70.6614723,-33.5202657]]}";2;General Freire;1;50;false;false;true;false;false;false;300.5;0;0;0;0;0;false;PG426;1175432223;-70.6640267;-33.5188885;PG427;1175427132;-70.6616227;-33.5203291;1;3;4;6475739;Lo Ovalle - Diego Portales;#00c27f;Buses Vule;E02;Lo Ovalle;Diego Portales
436178837;"{\"type\":\"LineString\",\"coordinates\":[[-70.6639809,-33.5197794],[-70.6614723,-33.5202657]]}";1;General Freire;1;50;false;false;true;false;false;false;300.5;0;0;0;0;0;false;PG427;1175427132;-70.6616227;-33.5203291;PG429;1175427184;-70.6566285;-33.5213103;1;4;5;6475739;Lo Ovalle - Diego Portales;#00c27f;Buses Vule;E02;Lo Ovalle;Diego Portales
436178838;"{\"type\":\"LineString\",\"coordinates\":[[-70.6614723,-33.5202657],[-70.6598241,-33.5205978]]}";2;General Freire;1;50;false;false;true;false;false;false;396.0;1;0;0;0;0;false;PG427;1175427132;-70.6616227;-33.5203291;PG429;1175427184;-70.6566285;-33.5213103;0;4;5;6475739;Lo Ovalle - Diego Portales;#00c27f;Buses Vule;E02;Lo Ovalle;Diego Portales
24755736;"{\"type\":\"LineString\",\"coordinates\":[[-70.6598241,-33.5205978],[-70.6596907,-33.5206258],[-70.6574439,-33.521075],[-70.6574007,-33.5210837],[-70.6571685,-33.5211291],[-70.6563855,-33.5212821],[-70.6552064,-33.5215244],[-70.6546774,-33.521623],[-70.6535514,-33.5218509],[-70.6529774,-33.5219671],[-70.6524276,-33.5220857],[-70.6507411,-33.5224147],[-70.6502672,-33.5225145],[-70.6498409,-33.5226053],[-70.6487953,-33.5228183],[-70.6485102,-33.5228728],[-70.6472289,-33.5231224],[-70.646781,-33.5232186],[-70.6463304,-33.5233259]]}";3;General Freire;2;30;false;false;true;false;false;false;1618.0;4;0;0;0;0;false;PG427;1175427132;-70.6616227;-33.5203291;PG429;1175427184;-70.6566285;-33.5213103;1;4;5;6475739;Lo Ovalle - Diego Portales;#00c27f;Buses Vule;E02;Lo Ovalle;Diego Portales
24755736;"{\"type\":\"LineString\",\"coordinates\":[[-70.6598241,-33.5205978],[-70.6596907,-33.5206258],[-70.6574439,-33.521075],[-70.6574007,-33.5210837],[-70.6571685,-33.5211291],[-70.6563855,-33.5212821],[-70.6552064,-33.5215244],[-70.6546774,-33.521623],[-70.6535514,-33.5218509],[-70.6529774,-33.5219671],[-70.6524276,-33.5220857],[-70.6507411,-33.5224147],[-70.6502672,-33.5225145],[-70.6498409,-33.5226053],[-70.6487953,-33.5228183],[-70.6485102,-33.5228728],[-70.6472289,-33.5231224],[-70.646781,-33.5232186],[-70.6463304,-33.5233259]]}";1;General Freire;2;30;false;false;true;false;false;false;1618.0;4;0;0;0;0;false;PG431;1175427267;-70.6465979;-33.5233635;PG432;1175417777;-70.6442529;-33.5242659;1;7;8;6475739;Lo Ovalle - Diego Portales;#00c27f;Buses Vule;E02;Lo Ovalle;Diego Portales
171939434;"{\"type\":\"LineString\",\"coordinates\":[[-70.6463304,-33.5233259],[-70.646156,-33.5233796],[-70.6455729,-33.5236276],[-70.6455048,-33.5236565],[-70.6447854,-33.5239811],[-70.6446492,-33.5240366],[-70.6443751,-33.5241354],[-70.6440934,-33.5242024],[-70.6436428,-33.5243053],[-70.6431976,-33.5243925],[-70.6428588,-33.524457],[-70.6424331,-33.5245423],[-70.6424,-33.524551],[-70.641811,-33.5246806],[-70.6416969,-33.5246977],[-70.6408949,-33.5248397],[-70.6403115,-33.5249179],[-70.6399274,-33.5249608],[-70.6394948,-33.5250186],[-70.6390989,-33.5250695],[-70.6386662,-33.5251251],[-70.6382785,-33.5251732],[-70.6381837,-33.5251872],[-70.637863,-33.5252284],[-70.6374473,-33.5252888],[-70.6367681,-33.5253886],[-70.6359168,-33.5255218],[-70.635913,-33.5255224]]}";2;Santa Ana;2;60;false;false;true;false;false;false;1260.5;3;0;0;0;0;false;PG431;1175427267;-70.6465979;-33.5233635;PG432;1175417777;-70.6442529;-33.5242659;1;7;8;6475739;Lo Ovalle - Diego Portales;#00c27f;Buses Vule;E02;Lo Ovalle;Diego Portales
171939434;"{\"type\":\"LineString\",\"coordinates\":[[-70.6463304,-33.5233259],[-70.646156,-33.5233796],[-70.6455729,-33.5236276],[-70.6455048,-33.5236565],[-70.6447854,-33.5239811],[-70.6446492,-33.5240366],[-70.6443751,-33.5241354],[-70.6440934,-33.5242024],[-70.6436428,-33.5243053],[-70.6431976,-33.5243925],[-70.6428588,-33.524457],[-70.6424331,-33.5245423],[-70.6424,-33.524551],[-70.641811,-33.5246806],[-70.6416969,-33.5246977],[-70.6408949,-33.5248397],[-70.6403115,-33.5249179],[-70.6399274,-33.5249608],[-70.6394948,-33.5250186],[-70.6390989,-33.5250695],[-70.6386662,-33.5251251],[-70.6382785,-33.5251732],[-70.6381837,-33.5251872],[-70.637863,-33.5252284],[-70.6374473,-33.5252888],[-70.6367681,-33.5253886],[-70.6359168,-33.5255218],[-70.635913,-33.5255224]]}";1;Santa Ana;2;60;false;false;true;false;false;false;1260.5;3;0;0;0;0;false;PG435;1175417876;-70.6364731;-33.5254599;PG113;1175640804;-70.6357625;-33.5278974;1;11;12;6475739;Lo Ovalle - Diego Portales;#00c27f;Buses Vule;E02;Lo Ovalle;Diego Portales
436487715;"{\"type\":\"LineString\",\"coordinates\":[[-70.635913,-33.5255224],[-70.635854,-33.5261519],[-70.6357896,-33.526722],[-70.6357092,-33.5273245],[-70.6356379,-33.5280479],[-70.6356022,-33.5282915]]}";2;Avenida Santa Rosa;2;50;false;true;true;false;false;false;387.5;4;0;0;0;0;false;PG435;1175417876;-70.6364731;-33.5254599;PG113;1175640804;-70.6357625;-33.5278974;1;11;12;6475739;Lo Ovalle - Diego Portales;#00c27f;Buses Vule;E02;Lo Ovalle;Diego Portales
436487715;"{\"type\":\"LineString\",\"coordinates\":[[-70.635913,-33.5255224],[-70.635854,-33.5261519],[-70.6357896,-33.526722],[-70.6357092,-33.5273245],[-70.6356379,-33.5280479],[-70.6356022,-33.5282915]]}";1;Avenida Santa Rosa;2;50;false;true;true;false;false;false;387.5;4;0;0;0;0;false;PG113;1175640804;-70.6357625;-33.5278974;PG114;1175640848;-70.634965;-33.5326234;1;12;13;6475739;Lo Ovalle - Diego Portales;#00c27f;Buses Vule;E02;Lo Ovalle;Diego Portales
436487712;"{\"type\":\"LineString\",\"coordinates\":[[-70.6356022,-33.5282915],[-70.6355208,-33.5289462]]}";2;Avenida Santa Rosa;2;50;false;true;true;false;false;false;184.0;2;0;0;0;0;false;PG113;1175640804;-70.6357625;-33.5278974;PG114;1175640848;-70.634965;-33.5326234;0;12;13;6475739;Lo Ovalle - Diego Portales;#00c27f;Buses Vule;E02;Lo Ovalle;Diego Portales
437095617;"{\"type\":\"LineString\",\"coordinates\":[[-70.6355208,-33.5289462],[-70.6355139,-33.5289963],[-70.6354723,-33.5292992],[-70.6354321,-33.5294625],[-70.6352819,-33.5300539],[-70.6351464,-33.5305646]]}";3;Avenida Santa Rosa;2;50;false;true;true;false;false;false;460.0;2;0;0;0;0;false;PG113;1175640804;-70.6357625;-33.5278974;PG114;1175640848;-70.634965;-33.5326234;0;12;13;6475739;Lo Ovalle - Diego Portales;#00c27f;Buses Vule;E02;Lo Ovalle;Diego Portales
373150926;"{\"type\":\"LineString\",\"coordinates\":[[-70.6351464,-33.5305646],[-70.6351052,-33.530762],[-70.635095,-33.5308109],[-70.63504,-33.5313397],[-70.6349407,-33.5321177],[-70.6348563,-33.5327638],[-70.6348426,-33.5328752],[-70.6348336,-33.5329541],[-70.6348295,-33.5330354],[-70.6348144,-33.5331535],[-70.634811,-33.5331804],[-70.6346837,-33.5341767],[-70.6346213,-33.5352986],[-70.6346153,-33.5355215],[-70.6345974,-33.5359689],[-70.6345558,-33.5372565],[-70.6345518,-33.5373564]]}";4;Avenida Santa Rosa;2;50;false;true;true;false;false;false;949.0;5;0;0;0;0;false;PG113;1175640804;-70.6357625;-33.5278974;PG114;1175640848;-70.634965;-33.5326234;1;12;13;6475739;Lo Ovalle - Diego Portales;#00c27f;Buses Vule;E02;Lo Ovalle;Diego Portales
373150926;"{\"type\":\"LineString\",\"coordinates\":[[-70.6351464,-33.5305646],[-70.6351052,-33.530762],[-70.635095,-33.5308109],[-70.63504,-33.5313397],[-70.6349407,-33.5321177],[-70.6348563,-33.5327638],[-70.6348426,-33.5328752],[-70.6348336,-33.5329541],[-70.6348295,-33.5330354],[-70.6348144,-33.5331535],[-70.634811,-33.5331804],[-70.6346837,-33.5341767],[-70.6346213,-33.5352986],[-70.6346153,-33.5355215],[-70.6345974,-33.5359689],[-70.6345558,-33.5372565],[-70.6345518,-33.5373564]]}";1;Avenida Santa Rosa;2;50;false;true;true;false;false;false;949.0;5;0;0;0;0;false;PG115;1175640876;-70.6346337;-33.5370603;PG423;1175640933;-70.6344209;-33.5412862;1;15;16;6475739;Lo Ovalle - Diego Portales;#00c27f;Buses Vule;E02;Lo Ovalle;Diego Portales
436178817;"{\"type\":\"LineString\",\"coordinates\":[[-70.6345518,-33.5373564],[-70.6345283,-33.537755],[-70.6344546,-33.5386586],[-70.6343962,-33.5396935],[-70.6343383,-33.5404822]]}";2;Avenida Santa Rosa;2;50;false;true;true;false;false;false;872.0;2;0;0;0;0;false;PG115;1175640876;-70.6346337;-33.5370603;PG423;1175640933;-70.6344209;-33.5412862;0;15;16;6475739;Lo Ovalle - Diego Portales;#00c27f;Buses Vule;E02;Lo Ovalle;Diego Portales
451475550;"{\"type\":\"LineString\",\"coordinates\":[[-70.6343383,-33.5404822],[-70.6343032,-33.5409603],[-70.6343066,-33.5412851],[-70.6343284,-33.5413982],[-70.6343291,-33.5414159],[-70.634332,-33.5414796],[-70.6343321,-33.5415099],[-70.6343324,-33.541669],[-70.6343324,-33.5416905],[-70.6343327,-33.5418179],[-70.6343334,-33.5421357]]}";3;Avenida Santa Rosa;2;40;false;true;true;false;false;false;231.0;1;0;0;0;0;false;PG115;1175640876;-70.6346337;-33.5370603;PG423;1175640933;-70.6344209;-33.5412862;1;15;16;6475739;Lo Ovalle - Diego Portales;#00c27f;Buses Vule;E02;Lo Ovalle;Diego Portales
451475550;"{\"type\":\"LineString\",\"coordinates\":[[-70.6343383,-33.5404822],[-70.6343032,-33.5409603],[-70.6343066,-33.5412851],[-70.6343284,-33.5413982],[-70.6343291,-33.5414159],[-70.634332,-33.5414796],[-70.6343321,-33.5415099],[-70.6343324,-33.541669],[-70.6343324,-33.5416905],[-70.6343327,-33.5418179],[-70.6343334,-33.5421357]]}";1;Avenida Santa Rosa;2;40;false;true;true;false;false;false;231.0;1;0;0;0;0;false;PG423;1175640933;-70.6344209;-33.5412862;PG219;1175281302;-70.6348122;-33.5426155;1;16;17;6475739;Lo Ovalle - Diego Portales;#00c27f;Buses Vule;E02;Lo Ovalle;Diego Portales
436178800;"{\"type\":\"LineString\",\"coordinates\":[[-70.6343334,-33.5421357],[-70.6346681,-33.5420889],[-70.6350754,-33.5420319]]}";2;Avenida Américo Vespucio;2;50;false;true;true;false;false;false;176.0;1;0;0;0;0;false;PG423;1175640933;-70.6344209;-33.5412862;PG219;1175281302;-70.6348122;-33.5426155;0;16;17;6475739;Lo Ovalle - Diego Portales;#00c27f;Buses Vule;E02;Lo Ovalle;Diego Portales
40997312;"{\"type\":\"LineString\",\"coordinates\":[[-70.6350754,-33.5420319],[-70.6351454,-33.5420389],[-70.6351883,-33.542049],[-70.6352124,-33.5420669],[-70.6352279,-33.5420941]]}";3;Avenida Américo Vespucio;1;50;false;true;true;false;false;false;43.0;0;0;0;0;0;false;PG423;1175640933;-70.6344209;-33.5412862;PG219;1175281302;-70.6348122;-33.5426155;0;16;17;6475739;Lo Ovalle - Diego Portales;#00c27f;Buses Vule;E02;Lo Ovalle;Diego Portales
268963346;"{\"type\":\"LineString\",\"coordinates\":[[-70.6352279,-33.5420941],[-70.6352846,-33.542424]]}";4;Avenida Américo Vespucio;1;50;false;true;true;false;false;false;93.0;0;0;0;0;0;false;PG423;1175640933;-70.6344209;-33.5412862;PG219;1175281302;-70.6348122;-33.5426155;0;16;17;6475739;Lo Ovalle - Diego Portales;#00c27f;Buses Vule;E02;Lo Ovalle;Diego Portales
268963358;"{\"type\":\"LineString\",\"coordinates\":[[-70.6352846,-33.542424],[-70.6352782,-33.5424603],[-70.6352621,-33.5424827],[-70.6352299,-33.5425051],[-70.6351748,-33.542524]]}";5;Avenida Américo Vespucio;1;50;false;true;true;false;false;false;42.0;0;0;0;0;0;false;PG423;1175640933;-70.6344209;-33.5412862;PG219;1175281302;-70.6348122;-33.5426155;0;16;17;6475739;Lo Ovalle - Diego Portales;#00c27f;Buses Vule;E02;Lo Ovalle;Diego Portales
438205671;"{\"type\":\"LineString\",\"coordinates\":[[-70.6351748,-33.542524],[-70.6345695,-33.5426054],[-70.6342887,-33.5426432]]}";6;Avenida Américo Vespucio;3;50;false;true;true;false;false;false;105.0;1;0;0;0;0;false;PG423;1175640933;-70.6344209;-33.5412862;PG219;1175281302;-70.6348122;-33.5426155;1;16;17;6475739;Lo Ovalle - Diego Portales;#00c27f;Buses Vule;E02;Lo Ovalle;Diego Portales
438205671;"{\"type\":\"LineString\",\"coordinates\":[[-70.6351748,-33.542524],[-70.6345695,-33.5426054],[-70.6342887,-33.5426432]]}";1;Avenida Américo Vespucio;3;50;false;true;true;false;false;false;105.0;1;0;0;0;0;false;PG219;1175281302;-70.6348122;-33.5426155;PE620;1175398707;-70.6293479;-33.5435026;1;17;18;6475739;Lo Ovalle - Diego Portales;#00c27f;Buses Vule;E02;Lo Ovalle;Diego Portales
436178805;"{\"type\":\"LineString\",\"coordinates\":[[-70.6342887,-33.5426432],[-70.6341167,-33.5426586],[-70.634026,-33.5426683],[-70.6339312,-33.5426797]]}";2;Avenida Américo Vespucio;2;50;false;true;true;false;false;false;84.0;4;0;0;0;0;false;PG219;1175281302;-70.6348122;-33.5426155;PE620;1175398707;-70.6293479;-33.5435026;0;17;18;6475739;Lo Ovalle - Diego Portales;#00c27f;Buses Vule;E02;Lo Ovalle;Diego Portales
437095583;"{\"type\":\"LineString\",\"coordinates\":[[-70.6339312,-33.5426797],[-70.6333483,-33.5427549],[-70.633098,-33.5427896]]}";3;Avenida Américo Vespucio;2;50;false;true;true;false;false;false;197.0;1;0;0;0;0;false;PG219;1175281302;-70.6348122;-33.5426155;PE620;1175398707;-70.6293479;-33.5435026;0;17;18;6475739;Lo Ovalle - Diego Portales;#00c27f;Buses Vule;E02;Lo Ovalle;Diego Portales
438205670;"{\"type\":\"LineString\",\"coordinates\":[[-70.633098,-33.5427896],[-70.6316276,-33.54299]]}";4;Avenida Américo Vespucio;2;50;false;true;true;false;false;false;348.0;0;0;0;0;0;false;PG219;1175281302;-70.6348122;-33.5426155;PE620;1175398707;-70.6293479;-33.5435026;0;17;18;6475739;Lo Ovalle - Diego Portales;#00c27f;Buses Vule;E02;Lo Ovalle;Diego Portales
484583362;"{\"type\":\"LineString\",\"coordinates\":[[-70.6316276,-33.54299],[-70.6305708,-33.5432066]]}";5;Avenida Manuel Rodríguez;1;50;false;true;true;false;false;false;254.0;0;0;0;0;0;false;PG219;1175281302;-70.6348122;-33.5426155;PE620;1175398707;-70.6293479;-33.5435026;0;17;18;6475739;Lo Ovalle - Diego Portales;#00c27f;Buses Vule;E02;Lo Ovalle;Diego Portales
437095657;"{\"type\":\"LineString\",\"coordinates\":[[-70.6305708,-33.5432066],[-70.6291444,-33.5434864],[-70.6289942,-33.5435194]]}";6;Avenida Manuel Rodríguez;1;50;false;true;true;false;false;false;189.0;0;0;0;0;0;false;PG219;1175281302;-70.6348122;-33.5426155;PE620;1175398707;-70.6293479;-33.5435026;1;17;18;6475739;Lo Ovalle - Diego Portales;#00c27f;Buses Vule;E02;Lo Ovalle;Diego Portales
437095657;"{\"type\":\"LineString\",\"coordinates\":[[-70.6305708,-33.5432066],[-70.6291444,-33.5434864],[-70.6289942,-33.5435194]]}";1;Avenida Manuel Rodríguez;1;50;false;true;true;false;false;false;189.0;0;0;0;0;0;false;PE620;1175398707;-70.6293479;-33.5435026;PE315;1175398715;-70.6273436;-33.5439761;1;18;19;6475739;Lo Ovalle - Diego Portales;#00c27f;Buses Vule;E02;Lo Ovalle;Diego Portales
200077560;"{\"type\":\"LineString\",\"coordinates\":[[-70.6289942,-33.5435194],[-70.6271511,-33.5438923],[-70.6265052,-33.5440323],[-70.6252165,-33.5443142],[-70.6245012,-33.5444691],[-70.6243614,-33.5444955],[-70.6236293,-33.5446529]]}";2;Avenida Manuel Rodríguez;2;50;false;true;true;false;false;false;645.5;2;0;0;0;0;false;PE620;1175398707;-70.6293479;-33.5435026;PE315;1175398715;-70.6273436;-33.5439761;1;18;19;6475739;Lo Ovalle - Diego Portales;#00c27f;Buses Vule;E02;Lo Ovalle;Diego Portales
200077560;"{\"type\":\"LineString\",\"coordinates\":[[-70.6289942,-33.5435194],[-70.6271511,-33.5438923],[-70.6265052,-33.5440323],[-70.6252165,-33.5443142],[-70.6245012,-33.5444691],[-70.6243614,-33.5444955],[-70.6236293,-33.5446529]]}";1;Avenida Manuel Rodríguez;2;50;false;true;true;false;false;false;645.5;2;0;0;0;0;false;PE316;1175398631;-70.6248196;-33.5444628;PE317;1175398646;-70.6194937;-33.5455945;1;20;21;6475739;Lo Ovalle - Diego Portales;#00c27f;Buses Vule;E02;Lo Ovalle;Diego Portales
450843911;"{\"type\":\"LineString\",\"coordinates\":[[-70.6236293,-33.5446529],[-70.6227661,-33.5448352],[-70.621025,-33.5451524]]}";2;Avenida Manuel Rodríguez;2;50;false;true;true;false;false;false;624.0;0;0;0;0;0;false;PE316;1175398631;-70.6248196;-33.5444628;PE317;1175398646;-70.6194937;-33.5455945;0;20;21;6475739;Lo Ovalle - Diego Portales;#00c27f;Buses Vule;E02;Lo Ovalle;Diego Portales
450843910;"{\"type\":\"LineString\",\"coordinates\":[[-70.621025,-33.5451524],[-70.6198847,-33.5454095],[-70.6191266,-33.5455782],[-70.6186514,-33.5456813],[-70.6184121,-33.5457329],[-70.6168726,-33.5461014],[-70.6151294,-33.5464265]]}";3;Avenida Manuel Rodríguez;2;50;false;true;true;false;false;false;710.5;3;0;0;0;0;false;PE316;1175398631;-70.6248196;-33.5444628;PE317;1175398646;-70.6194937;-33.5455945;1;20;21;6475739;Lo Ovalle - Diego Portales;#00c27f;Buses Vule;E02;Lo Ovalle;Diego Portales
450843910;"{\"type\":\"LineString\",\"coordinates\":[[-70.621025,-33.5451524],[-70.6198847,-33.5454095],[-70.6191266,-33.5455782],[-70.6186514,-33.5456813],[-70.6184121,-33.5457329],[-70.6168726,-33.5461014],[-70.6151294,-33.5464265]]}";1;Avenida Manuel Rodríguez;2;50;false;true;true;false;false;false;710.5;3;0;0;0;0;false;PE318;1175398681;-70.615508;-33.5463404;PE201;1175399609;-70.6146267;-33.5464693;1;22;23;6475739;Lo Ovalle - Diego Portales;#00c27f;Buses Vule;E02;Lo Ovalle;Diego Portales
438205743;"{\"type\":\"LineString\",\"coordinates\":[[-70.6151294,-33.5464265],[-70.6147092,-33.5464296]]}";2;Avenida Manuel Rodríguez;1;50;false;true;true;false;false;false;49.0;2;0;0;0;0;false;PE318;1175398681;-70.615508;-33.5463404;PE201;1175399609;-70.6146267;-33.5464693;1;22;23;6475739;Lo Ovalle - Diego Portales;#00c27f;Buses Vule;E02;Lo Ovalle;Diego Portales
54077982;"{\"type\":\"LineString\",\"coordinates\":[[-70.6144982,-33.5464752],[-70.6141478,-33.5465382],[-70.6138952,-33.5465688],[-70.6137742,-33.5465763],[-70.6129988,-33.5466044],[-70.6126368,-33.5466145],[-70.6125102,-33.5466181],[-70.6114078,-33.5466489],[-70.61095,-33.5466567]]}";1;Avenida Trinidad;1;50;false;false;true;false;false;false;415.5;1;0;0;0;0;false;PE319;1175526258;-70.6124458;-33.5467365;PE321;1175526192;-70.6085478;-33.5469098;1;24;25;6475739;Lo Ovalle - Diego Portales;#00c27f;Buses Vule;E02;Lo Ovalle;Diego Portales
438205708;"{\"type\":\"LineString\",\"coordinates\":[[-70.61095,-33.5466567],[-70.6108273,-33.5466588]]}";2;Avenida Trinidad;1;50;false;false;true;false;false;false;29.0;2;0;0;0;0;false;PE319;1175526258;-70.6124458;-33.5467365;PE321;1175526192;-70.6085478;-33.5469098;0;24;25;6475739;Lo Ovalle - Diego Portales;#00c27f;Buses Vule;E02;Lo Ovalle;Diego Portales
438205710;"{\"type\":\"LineString\",\"coordinates\":[[-70.6108273,-33.5466588],[-70.6106232,-33.5466622]]}";3;Avenida Trinidad;1;50;false;false;true;false;false;false;48.0;2;0;0;0;0;false;PE319;1175526258;-70.6124458;-33.5467365;PE321;1175526192;-70.6085478;-33.5469098;0;24;25;6475739;Lo Ovalle - Diego Portales;#00c27f;Buses Vule;E02;Lo Ovalle;Diego Portales
438205709;"{\"type\":\"LineString\",\"coordinates\":[[-70.6106232,-33.5466622],[-70.6105209,-33.546664]]}";4;Avenida Trinidad;1;50;false;false;true;false;false;false;24.0;2;0;0;0;0;false;PE319;1175526258;-70.6124458;-33.5467365;PE321;1175526192;-70.6085478;-33.5469098;0;24;25;6475739;Lo Ovalle - Diego Portales;#00c27f;Buses Vule;E02;Lo Ovalle;Diego Portales
438205711;"{\"type\":\"LineString\",\"coordinates\":[[-70.6105209,-33.546664],[-70.6100148,-33.5466726],[-70.6099537,-33.5466736],[-70.6091679,-33.546687],[-70.6084231,-33.5467051],[-70.6081305,-33.5467132],[-70.6075444,-33.5467264],[-70.6065373,-33.5467508],[-70.6060863,-33.5467663],[-70.6055915,-33.5467738],[-70.6044995,-33.5468002],[-70.6037723,-33.5468179]]}";5;Avenida Trinidad;1;50;false;false;true;false;false;false;787.5;1;0;0;0;0;false;PE319;1175526258;-70.6124458;-33.5467365;PE321;1175526192;-70.6085478;-33.5469098;1;24;25;6475739;Lo Ovalle - Diego Portales;#00c27f;Buses Vule;E02;Lo Ovalle;Diego Portales
438205711;"{\"type\":\"LineString\",\"coordinates\":[[-70.6105209,-33.546664],[-70.6100148,-33.5466726],[-70.6099537,-33.5466736],[-70.6091679,-33.546687],[-70.6084231,-33.5467051],[-70.6081305,-33.5467132],[-70.6075444,-33.5467264],[-70.6065373,-33.5467508],[-70.6060863,-33.5467663],[-70.6055915,-33.5467738],[-70.6044995,-33.5468002],[-70.6037723,-33.5468179]]}";1;Avenida Trinidad;1;50;false;false;true;false;false;false;787.5;1;0;0;0;0;false;PE323;1175526233;-70.6038862;-33.5469778;PE324;1175526282;-70.6015148;-33.5469891;1;27;28;6475739;Lo Ovalle - Diego Portales;#00c27f;Buses Vule;E02;Lo Ovalle;Diego Portales
436178820;"{\"type\":\"LineString\",\"coordinates\":[[-70.6037723,-33.5468179],[-70.6036911,-33.5468507],[-70.6036213,-33.5468609]]}";2;Avenida Trinidad;1;50;false;true;true;false;false;false;38.0;1;0;0;0;0;false;PE323;1175526233;-70.6038862;-33.5469778;PE324;1175526282;-70.6015148;-33.5469891;0;27;28;6475739;Lo Ovalle - Diego Portales;#00c27f;Buses Vule;E02;Lo Ovalle;Diego Portales
45862882;"{\"type\":\"LineString\",\"coordinates\":[[-70.6036213,-33.5468609],[-70.6034968,-33.5468654],[-70.6030705,-33.546861],[-70.6029716,-33.5468276]]}";3;Avenida Trinidad;2;50;false;true;true;false;false;false;154.0;2;0;0;0;0;false;PE323;1175526233;-70.6038862;-33.5469778;PE324;1175526282;-70.6015148;-33.5469891;0;27;28;6475739;Lo Ovalle - Diego Portales;#00c27f;Buses Vule;E02;Lo Ovalle;Diego Portales
452730904;"{\"type\":\"LineString\",\"coordinates\":[[-70.6029716,-33.5468276],[-70.6028484,-33.5468301],[-70.6024096,-33.546839],[-70.60219,-33.5468435],[-70.6018183,-33.546851]]}";4;Avenida Trinidad;1;50;false;false;true;false;false;false;269.0;0;0;0;0;0;false;PE323;1175526233;-70.6038862;-33.5469778;PE324;1175526282;-70.6015148;-33.5469891;0;27;28;6475739;Lo Ovalle - Diego Portales;#00c27f;Buses Vule;E02;Lo Ovalle;Diego Portales
452730902;"{\"type\":\"LineString\",\"coordinates\":[[-70.6018183,-33.546851],[-70.6017617,-33.5469026],[-70.6010513,-33.5469166],[-70.6008592,-33.546922],[-70.6007264,-33.5468898]]}";5;Avenida Trinidad;2;50;false;true;true;false;false;false;131.5;0;0;0;0;0;false;PE323;1175526233;-70.6038862;-33.5469778;PE324;1175526282;-70.6015148;-33.5469891;1;27;28;6475739;Lo Ovalle - Diego Portales;#00c27f;Buses Vule;E02;Lo Ovalle;Diego Portales
452730902;"{\"type\":\"LineString\",\"coordinates\":[[-70.6018183,-33.546851],[-70.6017617,-33.5469026],[-70.6010513,-33.5469166],[-70.6008592,-33.546922],[-70.6007264,-33.5468898]]}";1;Avenida Trinidad;2;50;false;true;true;false;false;false;131.5;0;0;0;0;0;false;PE324;1175526282;-70.6015148;-33.5469891;PE325;1175526298;-70.5985068;-33.5470628;1;28;29;6475739;Lo Ovalle - Diego Portales;#00c27f;Buses Vule;E02;Lo Ovalle;Diego Portales
452730906;"{\"type\":\"LineString\",\"coordinates\":[[-70.6007264,-33.5468898],[-70.6003053,-33.5468969],[-70.6000755,-33.5468985],[-70.5995654,-33.546902],[-70.5994917,-33.5469048],[-70.5988232,-33.5469195]]}";2;Avenida Trinidad;2;50;false;false;true;false;false;false;444.0;0;0;0;0;0;false;PE324;1175526282;-70.6015148;-33.5469891;PE325;1175526298;-70.5985068;-33.5470628;0;28;29;6475739;Lo Ovalle - Diego Portales;#00c27f;Buses Vule;E02;Lo Ovalle;Diego Portales
452730905;"{\"type\":\"LineString\",\"coordinates\":[[-70.5988232,-33.5469195],[-70.5986135,-33.5469664],[-70.5983558,-33.5469766],[-70.5980922,-33.5469784],[-70.5979248,-33.5469567]]}";3;Avenida Trinidad;2;50;false;true;true;false;false;false;106.0;0;0;0;0;0;false;PE324;1175526282;-70.6015148;-33.5469891;PE325;1175526298;-70.5985068;-33.5470628;1;28;29;6475739;Lo Ovalle - Diego Portales;#00c27f;Buses Vule;E02;Lo Ovalle;Diego Portales
452730905;"{\"type\":\"LineString\",\"coordinates\":[[-70.5988232,-33.5469195],[-70.5986135,-33.5469664],[-70.5983558,-33.5469766],[-70.5980922,-33.5469784],[-70.5979248,-33.5469567]]}";1;Avenida Trinidad;2;50;false;true;true;false;false;false;106.0;0;0;0;0;0;false;PE325;1175526298;-70.5985068;-33.5470628;PE326;1175526321;-70.5961522;-33.5471424;1;29;30;6475739;Lo Ovalle - Diego Portales;#00c27f;Buses Vule;E02;Lo Ovalle;Diego Portales
790948766;"{\"type\":\"LineString\",\"coordinates\":[[-70.5965707,-33.5469801],[-70.597599,-33.5469594],[-70.5979248,-33.5469567]]}";2;Avenida Trinidad;1;50;false;false;true;false;false;false;316.0;0;0;0;0;0;false;PE325;1175526298;-70.5985068;-33.5470628;PE326;1175526321;-70.5961522;-33.5471424;0;29;30;6475739;Lo Ovalle - Diego Portales;#00c27f;Buses Vule;E02;Lo Ovalle;Diego Portales
790948765;"{\"type\":\"LineString\",\"coordinates\":[[-70.5965707,-33.5469801],[-70.5963729,-33.5470108],[-70.5963059,-33.5470181],[-70.5962408,-33.547022],[-70.595919,-33.547031]]}";3;Avenida Trinidad;2;50;false;true;true;false;false;false;76.5;0;0;0;0;0;false;PE325;1175526298;-70.5985068;-33.5470628;PE326;1175526321;-70.5961522;-33.5471424;1;29;30;6475739;Lo Ovalle - Diego Portales;#00c27f;Buses Vule;E02;Lo Ovalle;Diego Portales
790948765;"{\"type\":\"LineString\",\"coordinates\":[[-70.5965707,-33.5469801],[-70.5963729,-33.5470108],[-70.5963059,-33.5470181],[-70.5962408,-33.547022],[-70.595919,-33.547031]]}";1;Avenida Trinidad;2;50;false;true;true;false;false;false;76.5;0;0;0;0;0;false;PE326;1175526321;-70.5961522;-33.5471424;PE327;1175526350;-70.5936448;-33.5472033;1;30;31;6475739;Lo Ovalle - Diego Portales;#00c27f;Buses Vule;E02;Lo Ovalle;Diego Portales
790948762;"{\"type\":\"LineString\",\"coordinates\":[[-70.595919,-33.547031],[-70.5954596,-33.5470421],[-70.5953792,-33.5470399],[-70.5953054,-33.547031],[-70.5952122,-33.5470058]]}";2;Avenida Trinidad;2;50;false;true;true;false;false;false;167.0;0;0;0;0;0;false;PE326;1175526321;-70.5961522;-33.5471424;PE327;1175526350;-70.5936448;-33.5472033;0;30;31;6475739;Lo Ovalle - Diego Portales;#00c27f;Buses Vule;E02;Lo Ovalle;Diego Portales
790948767;"{\"type\":\"LineString\",\"coordinates\":[[-70.5942539,-33.5470364],[-70.5945639,-33.5470279],[-70.5952122,-33.5470058]]}";3;Avenida Trinidad;1;50;false;false;true;false;false;false;224.0;0;0;0;0;0;false;PE326;1175526321;-70.5961522;-33.5471424;PE327;1175526350;-70.5936448;-33.5472033;0;30;31;6475739;Lo Ovalle - Diego Portales;#00c27f;Buses Vule;E02;Lo Ovalle;Diego Portales
452730909;"{\"type\":\"LineString\",\"coordinates\":[[-70.5942539,-33.5470364],[-70.5941094,-33.5470802],[-70.5938864,-33.5470865],[-70.5935619,-33.5470926],[-70.5928853,-33.5471075],[-70.5922508,-33.547124],[-70.5916406,-33.5471255]]}";4;Avenida Trinidad;2;50;false;true;true;false;false;false;306.0;2;0;0;0;0;false;PE326;1175526321;-70.5961522;-33.5471424;PE327;1175526350;-70.5936448;-33.5472033;1;30;31;6475739;Lo Ovalle - Diego Portales;#00c27f;Buses Vule;E02;Lo Ovalle;Diego Portales
452730909;"{\"type\":\"LineString\",\"coordinates\":[[-70.5942539,-33.5470364],[-70.5941094,-33.5470802],[-70.5938864,-33.5470865],[-70.5935619,-33.5470926],[-70.5928853,-33.5471075],[-70.5922508,-33.547124],[-70.5916406,-33.5471255]]}";1;Avenida Trinidad;2;50;false;true;true;false;false;false;306.0;2;0;0;0;0;false;PE328;1175526367;-70.5918364;-33.5471634;PE329;1175526173;-70.5880909;-33.5473051;1;32;33;6475739;Lo Ovalle - Diego Portales;#00c27f;Buses Vule;E02;Lo Ovalle;Diego Portales
45862880;"{\"type\":\"LineString\",\"coordinates\":[[-70.5916406,-33.5471255],[-70.5913867,-33.547131],[-70.5908697,-33.5471371],[-70.5904837,-33.547134],[-70.5900965,-33.5471392],[-70.5899635,-33.5471405],[-70.5896948,-33.5471445],[-70.589336,-33.547154],[-70.5891232,-33.5471539],[-70.5887729,-33.547163],[-70.5886848,-33.5471653]]}";2;Avenida Trinidad;2;50;false;false;true;false;false;false;690.0;1;0;0;0;0;false;PE328;1175526367;-70.5918364;-33.5471634;PE329;1175526173;-70.5880909;-33.5473051;0;32;33;6475739;Lo Ovalle - Diego Portales;#00c27f;Buses Vule;E02;Lo Ovalle;Diego Portales
436178818;"{\"type\":\"LineString\",\"coordinates\":[[-70.5886848,-33.5471653],[-70.5879014,-33.5472208],[-70.5878253,-33.5472222]]}";3;Avenida Trinidad;2;50;false;true;true;false;false;false;101.0;1;1;0;0;0;false;PE328;1175526367;-70.5918364;-33.5471634;PE329;1175526173;-70.5880909;-33.5473051;1;32;33;6475739;Lo Ovalle - Diego Portales;#00c27f;Buses Vule;E02;Lo Ovalle;Diego Portales
436178818;"{\"type\":\"LineString\",\"coordinates\":[[-70.5886848,-33.5471653],[-70.5879014,-33.5472208],[-70.5878253,-33.5472222]]}";1;Avenida Trinidad;2;50;false;true;true;false;false;false;101.0;1;1;0;0;0;false;PE329;1175526173;-70.5880909;-33.5473051;PE845;1175505971;-70.5874079;-33.5499785;1;33;34;6475739;Lo Ovalle - Diego Portales;#00c27f;Buses Vule;E02;Lo Ovalle;Diego Portales
436178824;"{\"type\":\"LineString\",\"coordinates\":[[-70.5878253,-33.5472222],[-70.5877756,-33.547352],[-70.5877434,-33.5474749],[-70.5876513,-33.5480004],[-70.587543,-33.5487337],[-70.5873918,-33.5495812],[-70.587327,-33.5499993],[-70.5872919,-33.5502134]]}";2;Avenida Vicuña Mackenna Poniente;3;60;false;true;true;false;false;false;421.5;2;0;0;0;0;false;PE329;1175526173;-70.5880909;-33.5473051;PE845;1175505971;-70.5874079;-33.5499785;1;33;34;6475739;Lo Ovalle - Diego Portales;#00c27f;Buses Vule;E02;Lo Ovalle;Diego Portales
436178824;"{\"type\":\"LineString\",\"coordinates\":[[-70.5878253,-33.5472222],[-70.5877756,-33.547352],[-70.5877434,-33.5474749],[-70.5876513,-33.5480004],[-70.587543,-33.5487337],[-70.5873918,-33.5495812],[-70.587327,-33.5499993],[-70.5872919,-33.5502134]]}";1;Avenida Vicuña Mackenna Poniente;3;60;false;true;true;false;false;false;421.5;2;0;0;0;0;false;PE845;1175505971;-70.5874079;-33.5499785;PE846;1175506062;-70.5868809;-33.5530658;1;34;35;6475739;Lo Ovalle - Diego Portales;#00c27f;Buses Vule;E02;Lo Ovalle;Diego Portales
429109747;"{\"type\":\"LineString\",\"coordinates\":[[-70.5872919,-33.5502134],[-70.5871913,-33.5508361],[-70.5870659,-33.5515185],[-70.5868976,-33.5525544],[-70.5868459,-33.5529079],[-70.5867703,-33.5533443],[-70.5867537,-33.5534346]]}";2;Avenida Vicuña Mackenna Poniente;3;60;false;true;true;false;false;false;453.0;3;0;0;0;0;false;PE845;1175505971;-70.5874079;-33.5499785;PE846;1175506062;-70.5868809;-33.5530658;1;34;35;6475739;Lo Ovalle - Diego Portales;#00c27f;Buses Vule;E02;Lo Ovalle;Diego Portales
429109747;"{\"type\":\"LineString\",\"coordinates\":[[-70.5872919,-33.5502134],[-70.5871913,-33.5508361],[-70.5870659,-33.5515185],[-70.5868976,-33.5525544],[-70.5868459,-33.5529079],[-70.5867703,-33.5533443],[-70.5867537,-33.5534346]]}";1;Avenida Vicuña Mackenna Poniente;3;60;false;true;true;false;false;false;453.0;3;0;0;0;0;false;PE846;1175506062;-70.5868809;-33.5530658;PE847;1175506092;-70.5861694;-33.5570452;1;35;36;6475739;Lo Ovalle - Diego Portales;#00c27f;Buses Vule;E02;Lo Ovalle;Diego Portales
436178825;"{\"type\":\"LineString\",\"coordinates\":[[-70.5867537,-33.5534346],[-70.5865101,-33.5548271],[-70.5864037,-33.5554155],[-70.5862357,-33.5563512],[-70.5860736,-33.5572978],[-70.5858771,-33.5584912],[-70.5856699,-33.5596557]]}";2;Avenida Vicuña Mackenna Poniente;3;50;false;true;true;false;false;false;876.0;3;0;0;0;0;false;PE846;1175506062;-70.5868809;-33.5530658;PE847;1175506092;-70.5861694;-33.5570452;1;35;36;6475739;Lo Ovalle - Diego Portales;#00c27f;Buses Vule;E02;Lo Ovalle;Diego Portales
436178825;"{\"type\":\"LineString\",\"coordinates\":[[-70.5867537,-33.5534346],[-70.5865101,-33.5548271],[-70.5864037,-33.5554155],[-70.5862357,-33.5563512],[-70.5860736,-33.5572978],[-70.5858771,-33.5584912],[-70.5856699,-33.5596557]]}";1;Avenida Vicuña Mackenna Poniente;3;50;false;true;true;false;false;false;876.0;3;0;0;0;0;false;PE847;1175506092;-70.5861694;-33.5570452;PE848;1175506172;-70.5854803;-33.5606053;1;36;37;6475739;Lo Ovalle - Diego Portales;#00c27f;Buses Vule;E02;Lo Ovalle;Diego Portales
438205712;"{\"type\":\"LineString\",\"coordinates\":[[-70.5856699,-33.5596557],[-70.5856499,-33.5597842]]}";2;Avenida Vicuña Mackenna Poniente;2;60;false;true;true;false;false;false;37.0;2;0;0;0;0;false;PE847;1175506092;-70.5861694;-33.5570452;PE848;1175506172;-70.5854803;-33.5606053;0;36;37;6475739;Lo Ovalle - Diego Portales;#00c27f;Buses Vule;E02;Lo Ovalle;Diego Portales
438205714;"{\"type\":\"LineString\",\"coordinates\":[[-70.5856499,-33.5597842],[-70.5854988,-33.5607677]]}";3;Avenida Vicuña Mackenna Poniente;3;50;false;true;true;false;false;false;138.5;2;0;0;0;0;false;PE847;1175506092;-70.5861694;-33.5570452;PE848;1175506172;-70.5854803;-33.5606053;1;36;37;6475739;Lo Ovalle - Diego Portales;#00c27f;Buses Vule;E02;Lo Ovalle;Diego Portales
438205714;"{\"type\":\"LineString\",\"coordinates\":[[-70.5856499,-33.5597842],[-70.5854988,-33.5607677]]}";1;Avenida Vicuña Mackenna Poniente;3;50;false;true;true;false;false;false;138.5;2;0;0;0;0;false;PE848;1175506172;-70.5854803;-33.5606053;PE330;1175528799;-70.5879384;-33.5626125;1;37;38;6475739;Lo Ovalle - Diego Portales;#00c27f;Buses Vule;E02;Lo Ovalle;Diego Portales
524208593;"{\"type\":\"LineString\",\"coordinates\":[[-70.5854988,-33.5607677],[-70.5861983,-33.5608495],[-70.5864521,-33.5608792],[-70.5869772,-33.5609408]]}";2;María Elena;3;50;false;false;true;false;false;false;349.0;1;0;0;0;0;false;PE848;1175506172;-70.5854803;-33.5606053;PE330;1175528799;-70.5879384;-33.5626125;0;37;38;6475739;Lo Ovalle - Diego Portales;#00c27f;Buses Vule;E02;Lo Ovalle;Diego Portales
438205713;"{\"type\":\"LineString\",\"coordinates\":[[-70.5854988,-33.5607677],[-70.585451,-33.561054],[-70.5853984,-33.5613689],[-70.5852448,-33.5622211],[-70.5852157,-33.5623853]]}";3;Avenida Vicuña Mackenna Poniente;3;50;false;true;true;false;false;false;456.0;1;0;0;0;0;false;PE848;1175506172;-70.5854803;-33.5606053;PE330;1175528799;-70.5879384;-33.5626125;0;37;38;6475739;Lo Ovalle - Diego Portales;#00c27f;Buses Vule;E02;Lo Ovalle;Diego Portales
436178854;"{\"type\":\"LineString\",\"coordinates\":[[-70.5874139,-33.5626078],[-70.5852486,-33.5623942],[-70.5852157,-33.5623853]]}";4;Tegualda;1;50;false;false;true;false;false;false;517.0;0;0;0;0;0;false;PE848;1175506172;-70.5854803;-33.5606053;PE330;1175528799;-70.5879384;-33.5626125;0;37;38;6475739;Lo Ovalle - Diego Portales;#00c27f;Buses Vule;E02;Lo Ovalle;Diego Portales
436178855;"{\"type\":\"LineString\",\"coordinates\":[[-70.5882303,-33.5626906],[-70.5876728,-33.562634],[-70.5874139,-33.5626078]]}";5;Tegualda;1;50;false;false;true;false;false;false;96.0;0;0;0;0;0;false;PE848;1175506172;-70.5854803;-33.5606053;PE330;1175528799;-70.5879384;-33.5626125;1;37;38;6475739;Lo Ovalle - Diego Portales;#00c27f;Buses Vule;E02;Lo Ovalle;Diego Portales
436178855;"{\"type\":\"LineString\",\"coordinates\":[[-70.5882303,-33.5626906],[-70.5876728,-33.562634],[-70.5874139,-33.5626078]]}";1;Tegualda;1;50;false;false;true;false;false;false;96.0;0;0;0;0;0;false;PE330;1175528799;-70.5879384;-33.5626125;PE331;1175528846;-70.5882881;-33.5613359;1;38;39;6475739;Lo Ovalle - Diego Portales;#00c27f;Buses Vule;E02;Lo Ovalle;Diego Portales
176195286;"{\"type\":\"LineString\",\"coordinates\":[[-70.5882303,-33.5626906],[-70.5884541,-33.5610883]]}";2;Millaray;1;50;false;true;true;false;false;false;225.0;0;0;0;0;0;false;PE330;1175528799;-70.5879384;-33.5626125;PE331;1175528846;-70.5882881;-33.5613359;1;38;39;6475739;Lo Ovalle - Diego Portales;#00c27f;Buses Vule;E02;Lo Ovalle;Diego Portales
176195286;"{\"type\":\"LineString\",\"coordinates\":[[-70.5882303,-33.5626906],[-70.5884541,-33.5610883]]}";1;Millaray;1;50;false;true;true;false;false;false;225.0;0;0;0;0;0;false;PE331;1175528846;-70.5882881;-33.5613359;PE332;1175518580;-70.5857566;-33.5608601;1;39;40;6475739;Lo Ovalle - Diego Portales;#00c27f;Buses Vule;E02;Lo Ovalle;Diego Portales
436178855;"{\"type\":\"LineString\",\"coordinates\":[[-70.5882303,-33.5626906],[-70.5876728,-33.562634],[-70.5874139,-33.5626078]]}";2;Tegualda;1;50;false;false;true;false;false;false;192.0;0;0;0;0;0;false;PE331;1175528846;-70.5882881;-33.5613359;PE332;1175518580;-70.5857566;-33.5608601;0;39;40;6475739;Lo Ovalle - Diego Portales;#00c27f;Buses Vule;E02;Lo Ovalle;Diego Portales
436178854;"{\"type\":\"LineString\",\"coordinates\":[[-70.5874139,-33.5626078],[-70.5852486,-33.5623942],[-70.5852157,-33.5623853]]}";3;Tegualda;1;50;false;false;true;false;false;false;517.0;0;0;0;0;0;false;PE331;1175528846;-70.5882881;-33.5613359;PE332;1175518580;-70.5857566;-33.5608601;0;39;40;6475739;Lo Ovalle - Diego Portales;#00c27f;Buses Vule;E02;Lo Ovalle;Diego Portales
438205713;"{\"type\":\"LineString\",\"coordinates\":[[-70.5854988,-33.5607677],[-70.585451,-33.561054],[-70.5853984,-33.5613689],[-70.5852448,-33.5622211],[-70.5852157,-33.5623853]]}";4;Avenida Vicuña Mackenna Poniente;3;50;false;true;true;false;false;false;456.0;1;0;0;0;0;false;PE331;1175528846;-70.5882881;-33.5613359;PE332;1175518580;-70.5857566;-33.5608601;0;39;40;6475739;Lo Ovalle - Diego Portales;#00c27f;Buses Vule;E02;Lo Ovalle;Diego Portales
524208593;"{\"type\":\"LineString\",\"coordinates\":[[-70.5854988,-33.5607677],[-70.5861983,-33.5608495],[-70.5864521,-33.5608792],[-70.5869772,-33.5609408]]}";5;María Elena;3;50;false;false;true;false;false;false;174.5;1;0;0;0;0;false;PE331;1175528846;-70.5882881;-33.5613359;PE332;1175518580;-70.5857566;-33.5608601;1;39;40;6475739;Lo Ovalle - Diego Portales;#00c27f;Buses Vule;E02;Lo Ovalle;Diego Portales
524208593;"{\"type\":\"LineString\",\"coordinates\":[[-70.5854988,-33.5607677],[-70.5861983,-33.5608495],[-70.5864521,-33.5608792],[-70.5869772,-33.5609408]]}";1;María Elena;3;50;false;false;true;false;false;false;174.5;1;0;0;0;0;false;PE332;1175518580;-70.5857566;-33.5608601;PE333;1175522644;-70.5833082;-33.559511;1;40;41;6475739;Lo Ovalle - Diego Portales;#00c27f;Buses Vule;E02;Lo Ovalle;Diego Portales
438205714;"{\"type\":\"LineString\",\"coordinates\":[[-70.5856499,-33.5597842],[-70.5854988,-33.5607677]]}";2;Avenida Vicuña Mackenna Poniente;3;50;false;true;true;false;false;false;277.0;2;0;0;0;0;false;PE332;1175518580;-70.5857566;-33.5608601;PE333;1175522644;-70.5833082;-33.559511;0;40;41;6475739;Lo Ovalle - Diego Portales;#00c27f;Buses Vule;E02;Lo Ovalle;Diego Portales
15089638;"{\"type\":\"LineString\",\"coordinates\":[[-70.5851655,-33.5607345],[-70.5852496,-33.5607414],[-70.5853565,-33.5607529],[-70.5854988,-33.5607677]]}";3;María Elena;2;50;false;false;true;false;false;false;79.0;3;0;0;0;0;false;PE332;1175518580;-70.5857566;-33.5608601;PE333;1175522644;-70.5833082;-33.559511;0;40;41;6475739;Lo Ovalle - Diego Portales;#00c27f;Buses Vule;E02;Lo Ovalle;Diego Portales
436178822;"{\"type\":\"LineString\",\"coordinates\":[[-70.5851655,-33.5607345],[-70.5852612,-33.5602096],[-70.5853672,-33.5596205]]}";4;Avenida Vicuña Mackenna Oriente;3;50;false;true;true;false;false;false;314.0;2;0;0;0;0;false;PE332;1175518580;-70.5857566;-33.5608601;PE333;1175522644;-70.5833082;-33.559511;0;40;41;6475739;Lo Ovalle - Diego Portales;#00c27f;Buses Vule;E02;Lo Ovalle;Diego Portales
436178849;"{\"type\":\"LineString\",\"coordinates\":[[-70.5853672,-33.5596205],[-70.584055,-33.5594596],[-70.5837015,-33.5594163],[-70.5832386,-33.5593673],[-70.5829153,-33.5593307],[-70.5824311,-33.5592714],[-70.5822205,-33.5592408],[-70.5816212,-33.5591631],[-70.58144,-33.5591392],[-70.5808088,-33.559071],[-70.5806419,-33.5590497],[-70.5799905,-33.558972],[-70.5796214,-33.5589191],[-70.5791477,-33.5588673],[-70.578313,-33.5587648],[-70.5775441,-33.5586681],[-70.5769956,-33.5586047],[-70.5767481,-33.5585759],[-70.5760176,-33.5584928]]}";5;San Jorge;2;50;false;false;true;false;false;false;1102.0;3;0;0;0;0;false;PE332;1175518580;-70.5857566;-33.5608601;PE333;1175522644;-70.5833082;-33.559511;1;40;41;6475739;Lo Ovalle - Diego Portales;#00c27f;Buses Vule;E02;Lo Ovalle;Diego Portales
436178849;"{\"type\":\"LineString\",\"coordinates\":[[-70.5853672,-33.5596205],[-70.584055,-33.5594596],[-70.5837015,-33.5594163],[-70.5832386,-33.5593673],[-70.5829153,-33.5593307],[-70.5824311,-33.5592714],[-70.5822205,-33.5592408],[-70.5816212,-33.5591631],[-70.58144,-33.5591392],[-70.5808088,-33.559071],[-70.5806419,-33.5590497],[-70.5799905,-33.558972],[-70.5796214,-33.5589191],[-70.5791477,-33.5588673],[-70.578313,-33.5587648],[-70.5775441,-33.5586681],[-70.5769956,-33.5586047],[-70.5767481,-33.5585759],[-70.5760176,-33.5584928]]}";1;San Jorge;2;50;false;false;true;false;false;false;1102.0;3;0;0;0;0;false;PE1280;1175522753;-70.5784495;-33.5588019;PE335;1175522765;-70.5761186;-33.5586304;1;43;44;6475739;Lo Ovalle - Diego Portales;#00c27f;Buses Vule;E02;Lo Ovalle;Diego Portales
436159387;"{\"type\":\"LineString\",\"coordinates\":[[-70.5760176,-33.5584928],[-70.575782,-33.5593356]]}";2;Santa Cecilia;1;50;false;true;true;false;false;false;121.0;1;0;0;0;0;false;PE1280;1175522753;-70.5784495;-33.5588019;PE335;1175522765;-70.5761186;-33.5586304;1;43;44;6475739;Lo Ovalle - Diego Portales;#00c27f;Buses Vule;E02;Lo Ovalle;Diego Portales
436159387;"{\"type\":\"LineString\",\"coordinates\":[[-70.5760176,-33.5584928],[-70.575782,-33.5593356]]}";1;Santa Cecilia;1;50;false;true;true;false;false;false;121.0;1;0;0;0;0;false;PE335;1175522765;-70.5761186;-33.5586304;PE336;1175525782;-70.5754664;-33.5619865;1;44;45;6475739;Lo Ovalle - Diego Portales;#00c27f;Buses Vule;E02;Lo Ovalle;Diego Portales
436159388;"{\"type\":\"LineString\",\"coordinates\":[[-70.575782,-33.5593356],[-70.5756552,-33.5596889],[-70.5755267,-33.5600371]]}";2;Santa Cecilia;1;50;false;true;true;false;false;false;205.0;0;0;0;0;0;false;PE335;1175522765;-70.5761186;-33.5586304;PE336;1175525782;-70.5754664;-33.5619865;0;44;45;6475739;Lo Ovalle - Diego Portales;#00c27f;Buses Vule;E02;Lo Ovalle;Diego Portales
220555431;"{\"type\":\"LineString\",\"coordinates\":[[-70.5755267,-33.5600371],[-70.5754755,-33.5601831],[-70.57546,-33.5602848],[-70.5754619,-33.5603606],[-70.5754782,-33.560438],[-70.5755869,-33.5607403],[-70.5756173,-33.5608422],[-70.5756319,-33.5609297],[-70.5756319,-33.5610299],[-70.5756148,-33.5611443],[-70.5755733,-33.5613141],[-70.5754873,-33.5616663],[-70.5753601,-33.5621481]]}";3;Santa Cecilia;1;50;false;true;true;false;false;false;301.0;1;0;0;0;0;false;PE335;1175522765;-70.5761186;-33.5586304;PE336;1175525782;-70.5754664;-33.5619865;1;44;45;6475739;Lo Ovalle - Diego Portales;#00c27f;Buses Vule;E02;Lo Ovalle;Diego Portales
220555431;"{\"type\":\"LineString\",\"coordinates\":[[-70.5755267,-33.5600371],[-70.5754755,-33.5601831],[-70.57546,-33.5602848],[-70.5754619,-33.5603606],[-70.5754782,-33.560438],[-70.5755869,-33.5607403],[-70.5756173,-33.5608422],[-70.5756319,-33.5609297],[-70.5756319,-33.5610299],[-70.5756148,-33.5611443],[-70.5755733,-33.5613141],[-70.5754873,-33.5616663],[-70.5753601,-33.5621481]]}";1;Santa Cecilia;1;50;false;true;true;false;false;false;301.0;1;0;0;0;0;false;PE336;1175525782;-70.5754664;-33.5619865;PE337;1175507423;-70.5725464;-33.5617846;1;45;46;6475739;Lo Ovalle - Diego Portales;#00c27f;Buses Vule;E02;Lo Ovalle;Diego Portales
433122086;"{\"type\":\"LineString\",\"coordinates\":[[-70.5753601,-33.5621481],[-70.5753153,-33.5621398]]}";2;Avenida Diego Portales;1;50;false;false;true;false;false;false;11.0;1;0;0;0;0;false;PE336;1175525782;-70.5754664;-33.5619865;PE337;1175507423;-70.5725464;-33.5617846;0;45;46;6475739;Lo Ovalle - Diego Portales;#00c27f;Buses Vule;E02;Lo Ovalle;Diego Portales
433122085;"{\"type\":\"LineString\",\"coordinates\":[[-70.5753153,-33.5621398],[-70.5742239,-33.5619403],[-70.573124,-33.5617397],[-70.5730849,-33.5617343],[-70.5727158,-33.5616672],[-70.5723839,-33.5616073],[-70.5722519,-33.5615836],[-70.571537,-33.5614685],[-70.5714445,-33.5614537],[-70.5712433,-33.5614224],[-70.5707353,-33.5613389],[-70.5706145,-33.5613191],[-70.5703976,-33.5612776],[-70.569815,-33.5611663],[-70.5697162,-33.5611489],[-70.569001,-33.5610312],[-70.5687717,-33.5609907],[-70.5683032,-33.560907],[-70.5681549,-33.5608805],[-70.5679672,-33.560847],[-70.5671252,-33.5606966],[-70.5667207,-33.5606244],[-70.5664948,-33.5605841]]}";3;Avenida Diego Portales;2;50;false;false;true;false;false;false;1051.5;0;0;0;0;0;false;PE336;1175525782;-70.5754664;-33.5619865;PE337;1175507423;-70.5725464;-33.5617846;1;45;46;6475739;Lo Ovalle - Diego Portales;#00c27f;Buses Vule;E02;Lo Ovalle;Diego Portales
