way_id;shape;index;name;nb_lanes;legal_speed;speed_zone_30;oneway;shares_bike;bike_box;bus_lane;dedicated_bus_lane;length;nb_traffic_signals;nb_crossings;nb_stops;nb_give_ways;nb_lvl_crossings;roundabout;stop_id_orig;node_id_orig;coord_x_orig;coord_y_orig;stop_id_dest;node_id_dest;coord_x_dest;coord_y_dest;nb_neighbouring_ways_bus_stop;ordre_orig;ordre_dest;id_line;line_name;colour;operator;ref;from;to
679314278;"{\"type\":\"LineString\",\"coordinates\":[[-73.6831224,45.5594735],[-73.6829266,45.5595727]]}";1;"";1;50;false;false;true;false;false;false;19.0;0;0;0;0;0;false;"47063;47037;47033;47131";6269510296;-73.68298;45.559647;41267;6269510310;-73.68853;45.559128;1;0;1;9312781;Bus : 37 N - Direction Sainte-Rose;"";STL;37N;Métro Cartier Quai:7;Industriel / Face Au 4177
676619309;"{\"type\":\"LineString\",\"coordinates\":[[-73.6832245,45.5594238],[-73.6831224,45.5594735]]}";2;"";1;50;false;false;true;false;false;false;10.0;0;0;0;0;0;false;"47063;47037;47033;47131";6269510296;-73.68298;45.559647;41267;6269510310;-73.68853;45.559128;0;0;1;9312781;Bus : 37 N - Direction Sainte-Rose;"";STL;37N;Métro Cartier Quai:7;Industriel / Face Au 4177
242652093;"{\"type\":\"LineString\",\"coordinates\":[[-73.6835499,45.5592626],[-73.6832245,45.5594238]]}";3;"";1;50;false;false;true;false;false;false;32.0;0;0;0;0;0;false;"47063;47037;47033;47131";6269510296;-73.68298;45.559647;41267;6269510310;-73.68853;45.559128;0;0;1;9312781;Bus : 37 N - Direction Sainte-Rose;"";STL;37N;Métro Cartier Quai:7;Industriel / Face Au 4177
258700561;"{\"type\":\"LineString\",\"coordinates\":[[-73.6835499,45.5592626],[-73.6836785,45.5593759],[-73.683829,45.5595086],[-73.6840984,45.5597503]]}";4;Montée Major;1;50;false;false;true;false;false;false;70.0;1;0;0;0;0;false;"47063;47037;47033;47131";6269510296;-73.68298;45.559647;41267;6269510310;-73.68853;45.559128;0;0;1;9312781;Bus : 37 N - Direction Sainte-Rose;"";STL;37N;Métro Cartier Quai:7;Industriel / Face Au 4177
258700560;"{\"type\":\"LineString\",\"coordinates\":[[-73.6840984,45.5597503],[-73.6842695,45.5598144]]}";5;Montée Major;1;50;false;false;true;false;false;false;16.0;2;0;0;0;0;false;"47063;47037;47033;47131";6269510296;-73.68298;45.559647;41267;6269510310;-73.68853;45.559128;0;0;1;9312781;Bus : 37 N - Direction Sainte-Rose;"";STL;37N;Métro Cartier Quai:7;Industriel / Face Au 4177
292502204;"{\"type\":\"LineString\",\"coordinates\":[[-73.6842695,45.5598144],[-73.6847803,45.5595467],[-73.6849169,45.559493],[-73.685059,45.5594492],[-73.6852482,45.5594071],[-73.685443,45.5594079],[-73.6858983,45.5594478],[-73.6862485,45.5594965],[-73.6864318,45.5595096],[-73.686591,45.5595199],[-73.6868166,45.5595173],[-73.6870141,45.5594981],[-73.6873336,45.5594385],[-73.6880356,45.5592182],[-73.6885217,45.5590859],[-73.6890175,45.5589962],[-73.690326,45.5588927],[-73.6906881,45.5588944],[-73.6912991,45.5588972],[-73.6917637,45.5588988],[-73.6927476,45.5588647]]}";6;Boulevard Cartier Ouest;2;50;false;true;true;false;false;false;343.5;1;0;0;0;0;false;"47063;47037;47033;47131";6269510296;-73.68298;45.559647;41267;6269510310;-73.68853;45.559128;1;0;1;9312781;Bus : 37 N - Direction Sainte-Rose;"";STL;37N;Métro Cartier Quai:7;Industriel / Face Au 4177
292502204;"{\"type\":\"LineString\",\"coordinates\":[[-73.6842695,45.5598144],[-73.6847803,45.5595467],[-73.6849169,45.559493],[-73.685059,45.5594492],[-73.6852482,45.5594071],[-73.685443,45.5594079],[-73.6858983,45.5594478],[-73.6862485,45.5594965],[-73.6864318,45.5595096],[-73.686591,45.5595199],[-73.6868166,45.5595173],[-73.6870141,45.5594981],[-73.6873336,45.5594385],[-73.6880356,45.5592182],[-73.6885217,45.5590859],[-73.6890175,45.5589962],[-73.690326,45.5588927],[-73.6906881,45.5588944],[-73.6912991,45.5588972],[-73.6917637,45.5588988],[-73.6927476,45.5588647]]}";1;Boulevard Cartier Ouest;2;50;false;true;true;false;false;false;343.5;1;0;0;0;0;false;41223;6269510284;-73.69243;45.558942;42749;6269510338;-73.69672;45.558098;1;3;4;9312781;Bus : 37 N - Direction Sainte-Rose;"";STL;37N;Métro Cartier Quai:7;Industriel / Face Au 4177
679942246;"{\"type\":\"LineString\",\"coordinates\":[[-73.6927476,45.5588647],[-73.6930429,45.5588346],[-73.6934796,45.5587504],[-73.6938947,45.5586504],[-73.6943658,45.5584974],[-73.6952847,45.5581678],[-73.6958761,45.557946],[-73.6965555,45.5576913]]}";2;Boulevard Cartier Ouest;2;50;false;true;true;false;false;false;327.0;1;0;0;0;0;false;41223;6269510284;-73.69243;45.558942;42749;6269510338;-73.69672;45.558098;0;3;4;9312781;Bus : 37 N - Direction Sainte-Rose;"";STL;37N;Métro Cartier Quai:7;Industriel / Face Au 4177
679942270;"{\"type\":\"LineString\",\"coordinates\":[[-73.6965555,45.5576913],[-73.697079,45.5583321],[-73.6972276,45.5584973],[-73.6984131,45.5595416],[-73.6985357,45.5596512]]}";3;15e Rue;1;50;false;true;false;false;false;false;134.0;1;0;0;0;0;false;41223;6269510284;-73.69243;45.558942;42749;6269510338;-73.69672;45.558098;1;3;4;9312781;Bus : 37 N - Direction Sainte-Rose;"";STL;37N;Métro Cartier Quai:7;Industriel / Face Au 4177
679942270;"{\"type\":\"LineString\",\"coordinates\":[[-73.6965555,45.5576913],[-73.697079,45.5583321],[-73.6972276,45.5584973],[-73.6984131,45.5595416],[-73.6985357,45.5596512]]}";1;15e Rue;1;50;false;true;false;false;false;false;134.0;1;0;0;0;0;false;42749;6269510338;-73.69672;45.558098;46083;6269510305;-73.69926;45.559353;1;4;5;9312781;Bus : 37 N - Direction Sainte-Rose;"";STL;37N;Métro Cartier Quai:7;Industriel / Face Au 4177
679942269;"{\"type\":\"LineString\",\"coordinates\":[[-73.6985357,45.5596512],[-73.6987052,45.5595541]]}";2;Boulevard Robin;1;50;false;true;false;false;false;false;18.0;0;0;0;0;0;false;42749;6269510338;-73.69672;45.558098;46083;6269510305;-73.69926;45.559353;0;4;5;9312781;Bus : 37 N - Direction Sainte-Rose;"";STL;37N;Métro Cartier Quai:7;Industriel / Face Au 4177
46088934;"{\"type\":\"LineString\",\"coordinates\":[[-73.6987052,45.5595541],[-73.7008933,45.5584623],[-73.7039051,45.5570316],[-73.7039696,45.5569206]]}";3;Boulevard Robin;1;50;false;true;false;false;false;false;253.5;0;0;0;0;0;false;42749;6269510338;-73.69672;45.558098;46083;6269510305;-73.69926;45.559353;1;4;5;9312781;Bus : 37 N - Direction Sainte-Rose;"";STL;37N;Métro Cartier Quai:7;Industriel / Face Au 4177
679942268;"{\"type\":\"LineString\",\"coordinates\":[[-73.7072061,45.5602182],[-73.706502,45.5595008],[-73.7045655,45.5575278],[-73.7039696,45.5569206]]}";1;Avenue Ampère;2;50;false;false;false;false;false;false;222.5;0;0;0;0;0;false;41008;6269510303;-73.70632;45.559476;41006;6269510254;-73.70785;45.561048;1;8;9;9312781;Bus : 37 N - Direction Sainte-Rose;"";STL;37N;Métro Cartier Quai:7;Industriel / Face Au 4177
289092141;"{\"type\":\"LineString\",\"coordinates\":[[-73.7086016,45.56164],[-73.7083689,45.561403],[-73.708335,45.5613684],[-73.7080214,45.5610489],[-73.7072061,45.5602182]]}";2;Avenue Ampère;1;50;false;false;true;false;false;false;96.0;0;0;0;0;0;false;41008;6269510303;-73.70632;45.559476;41006;6269510254;-73.70785;45.561048;1;8;9;9312781;Bus : 37 N - Direction Sainte-Rose;"";STL;37N;Métro Cartier Quai:7;Industriel / Face Au 4177
289092141;"{\"type\":\"LineString\",\"coordinates\":[[-73.7086016,45.56164],[-73.7083689,45.561403],[-73.708335,45.5613684],[-73.7080214,45.5610489],[-73.7072061,45.5602182]]}";1;Avenue Ampère;1;50;false;false;true;false;false;false;96.0;0;0;0;0;0;false;41006;6269510254;-73.70785;45.561048;41391;6269510300;-73.71266;45.559797;1;9;10;9312781;Bus : 37 N - Direction Sainte-Rose;"";STL;37N;Métro Cartier Quai:7;Industriel / Face Au 4177
679942257;"{\"type\":\"LineString\",\"coordinates\":[[-73.7087014,45.5617417],[-73.7086016,45.56164]]}";2;Avenue Ampère;1;50;false;false;true;false;false;false;14.0;0;0;0;0;0;false;41006;6269510254;-73.70785;45.561048;41391;6269510300;-73.71266;45.559797;0;9;10;9312781;Bus : 37 N - Direction Sainte-Rose;"";STL;37N;Métro Cartier Quai:7;Industriel / Face Au 4177
766599379;"{\"type\":\"LineString\",\"coordinates\":[[-73.7087014,45.5617417],[-73.7099965,45.5610408],[-73.7100917,45.5609945]]}";3;Boulevard de la Concorde Ouest;2;50;false;true;false;false;false;false;137.0;0;0;0;0;0;false;41006;6269510254;-73.70785;45.561048;41391;6269510300;-73.71266;45.559797;0;9;10;9312781;Bus : 37 N - Direction Sainte-Rose;"";STL;37N;Métro Cartier Quai:7;Industriel / Face Au 4177
766599377;"{\"type\":\"LineString\",\"coordinates\":[[-73.7100917,45.5609945],[-73.7103592,45.5608644]]}";4;Boulevard de la Concorde Ouest;2;50;false;true;false;false;false;false;26.0;0;0;0;0;0;false;41006;6269510254;-73.70785;45.561048;41391;6269510300;-73.71266;45.559797;0;9;10;9312781;Bus : 37 N - Direction Sainte-Rose;"";STL;37N;Métro Cartier Quai:7;Industriel / Face Au 4177
289092142;"{\"type\":\"LineString\",\"coordinates\":[[-73.7103592,45.5608644],[-73.7105432,45.5607749],[-73.7118734,45.5601274],[-73.7124596,45.5598442],[-73.7127109,45.5597165],[-73.7127672,45.5596899],[-73.7128358,45.5596589]]}";5;Boulevard de la Concorde Ouest;2;50;false;true;false;false;false;false;118.0;1;1;0;0;0;false;41006;6269510254;-73.70785;45.561048;41391;6269510300;-73.71266;45.559797;1;9;10;9312781;Bus : 37 N - Direction Sainte-Rose;"";STL;37N;Métro Cartier Quai:7;Industriel / Face Au 4177
165087571;"{\"type\":\"LineString\",\"coordinates\":[[-73.7128358,45.5596589],[-73.7128859,45.5597113],[-73.7129242,45.5597514],[-73.7134215,45.5602747],[-73.7145541,45.5614487],[-73.7156519,45.5625698],[-73.7166876,45.5636513],[-73.71696,45.5639357],[-73.7171169,45.564123]]}";1;Boulevard Laval;1;50;false;true;false;false;false;false;299.0;2;2;0;0;0;false;41913;6269510198;-73.71687;45.563937;41915;6269509992;-73.71857;45.565707;1;13;14;9312781;Bus : 37 N - Direction Sainte-Rose;"";STL;37N;Métro Cartier Quai:7;Industriel / Face Au 4177
475808337;"{\"type\":\"LineString\",\"coordinates\":[[-73.7171169,45.564123],[-73.717209,45.5642194]]}";2;Boulevard Laval;1;50;false;true;false;false;false;false;13.0;2;0;0;0;0;false;41913;6269510198;-73.71687;45.563937;41915;6269509992;-73.71857;45.565707;0;13;14;9312781;Bus : 37 N - Direction Sainte-Rose;"";STL;37N;Métro Cartier Quai:7;Industriel / Face Au 4177
32800153;"{\"type\":\"LineString\",\"coordinates\":[[-73.717209,45.5642194],[-73.7176013,45.5646133],[-73.7183009,45.5652706],[-73.7188819,45.5658078],[-73.7193851,45.5663167],[-73.7197311,45.566776],[-73.7198663,45.5670283],[-73.7199398,45.5672563],[-73.7200213,45.5675574],[-73.7200487,45.5679927],[-73.720075,45.5686366],[-73.720098,45.5690939],[-73.7201526,45.5700723],[-73.7201628,45.5701657],[-73.7202546,45.5705088],[-73.7203067,45.5706681],[-73.7203963,45.5708442],[-73.7205384,45.5710638],[-73.7206752,45.5712178]]}";3;Boulevard Laval;3;50;false;true;false;false;false;false;425.5;1;0;0;0;0;false;41913;6269510198;-73.71687;45.563937;41915;6269509992;-73.71857;45.565707;1;13;14;9312781;Bus : 37 N - Direction Sainte-Rose;"";STL;37N;Métro Cartier Quai:7;Industriel / Face Au 4177
32800153;"{\"type\":\"LineString\",\"coordinates\":[[-73.717209,45.5642194],[-73.7176013,45.5646133],[-73.7183009,45.5652706],[-73.7188819,45.5658078],[-73.7193851,45.5663167],[-73.7197311,45.566776],[-73.7198663,45.5670283],[-73.7199398,45.5672563],[-73.7200213,45.5675574],[-73.7200487,45.5679927],[-73.720075,45.5686366],[-73.720098,45.5690939],[-73.7201526,45.5700723],[-73.7201628,45.5701657],[-73.7202546,45.5705088],[-73.7203067,45.5706681],[-73.7203963,45.5708442],[-73.7205384,45.5710638],[-73.7206752,45.5712178]]}";1;Boulevard Laval;3;50;false;true;false;false;false;false;425.5;1;0;0;0;0;false;41921;6269509507;-73.72018;45.570847;41738;6269509291;-73.72184;45.572647;1;17;18;9312781;Bus : 37 N - Direction Sainte-Rose;"";STL;37N;Métro Cartier Quai:7;Industriel / Face Au 4177
452095372;"{\"type\":\"LineString\",\"coordinates\":[[-73.7206752,45.5712178],[-73.7210256,45.5715839]]}";2;Boulevard Laval;3;50;false;true;false;false;false;false;49.0;1;0;0;0;0;false;41921;6269509507;-73.72018;45.570847;41738;6269509291;-73.72184;45.572647;0;17;18;9312781;Bus : 37 N - Direction Sainte-Rose;"";STL;37N;Métro Cartier Quai:7;Industriel / Face Au 4177
37691523;"{\"type\":\"LineString\",\"coordinates\":[[-73.7210256,45.5715839],[-73.7211776,45.5717275]]}";3;Boulevard Industriel;1;50;false;true;true;false;false;false;20.0;2;0;0;0;0;false;41921;6269509507;-73.72018;45.570847;41738;6269509291;-73.72184;45.572647;0;17;18;9312781;Bus : 37 N - Direction Sainte-Rose;"";STL;37N;Métro Cartier Quai:7;Industriel / Face Au 4177
452095369;"{\"type\":\"LineString\",\"coordinates\":[[-73.7211776,45.5717275],[-73.7212715,45.5718162]]}";4;Boulevard Industriel;1;50;false;true;true;false;false;false;13.0;1;0;0;0;0;false;41921;6269509507;-73.72018;45.570847;41738;6269509291;-73.72184;45.572647;0;17;18;9312781;Bus : 37 N - Direction Sainte-Rose;"";STL;37N;Métro Cartier Quai:7;Industriel / Face Au 4177
37691524;"{\"type\":\"LineString\",\"coordinates\":[[-73.7212715,45.5718162],[-73.7214323,45.571968],[-73.7219231,45.5724317]]}";5;Boulevard Industriel;3;60;false;true;true;false;false;false;86.0;0;0;0;0;0;false;41921;6269509507;-73.72018;45.570847;41738;6269509291;-73.72184;45.572647;0;17;18;9312781;Bus : 37 N - Direction Sainte-Rose;"";STL;37N;Métro Cartier Quai:7;Industriel / Face Au 4177
95025473;"{\"type\":\"LineString\",\"coordinates\":[[-73.7219231,45.5724317],[-73.7220786,45.5725817],[-73.7225734,45.5730243],[-73.7236568,45.5741029],[-73.7239832,45.5747064]]}";6;Boulevard Industriel;3;60;false;true;false;false;false;false;151.0;0;0;0;0;0;false;41921;6269509507;-73.72018;45.570847;41738;6269509291;-73.72184;45.572647;1;17;18;9312781;Bus : 37 N - Direction Sainte-Rose;"";STL;37N;Métro Cartier Quai:7;Industriel / Face Au 4177
45287013;"{\"type\":\"LineString\",\"coordinates\":[[-73.7222502,45.576541],[-73.7220796,45.5767191],[-73.7202092,45.5778053]]}";1;Rue Salaberry;2;50;false;false;true;false;false;false;107.0;0;0;0;0;0;false;43013;6269508958;-73.72034;45.577644;41635;6269508917;-73.72236;45.5798;1;21;22;9312781;Bus : 37 N - Direction Sainte-Rose;"";STL;37N;Métro Cartier Quai:7;Industriel / Face Au 4177
45610494;"{\"type\":\"LineString\",\"coordinates\":[[-73.7202092,45.5778053],[-73.7225343,45.5798385]]}";2;Avenue Francis-Hughes;2;50;false;false;true;false;false;false;145.0;0;0;0;0;0;false;43013;6269508958;-73.72034;45.577644;41635;6269508917;-73.72236;45.5798;1;21;22;9312781;Bus : 37 N - Direction Sainte-Rose;"";STL;37N;Métro Cartier Quai:7;Industriel / Face Au 4177
45760363;"{\"type\":\"LineString\",\"coordinates\":[[-73.727678,45.5847835],[-73.7301151,45.5869889],[-73.7301507,45.5871153],[-73.7301225,45.587232],[-73.7300045,45.5873477],[-73.7298232,45.5874267],[-73.7277333,45.5880065],[-73.727655,45.5880687],[-73.7276306,45.5881407],[-73.7276644,45.5882218],[-73.7280647,45.5886583],[-73.728303,45.588895],[-73.728955,45.5895413],[-73.729121,45.5895701],[-73.732304,45.5882734],[-73.7323939,45.5882654],[-73.7324828,45.5883023],[-73.7334722,45.5893394],[-73.7346638,45.5905138]]}";1;Avenue Francis-Hughes;2;50;false;false;true;false;false;false;682.0;0;0;0;0;0;false;41643;6269508685;-73.73428;45.590259;41124;6269508714;-73.73758;45.589154;1;30;31;9312781;Bus : 37 N - Direction Sainte-Rose;"";STL;37N;Métro Cartier Quai:7;Industriel / Face Au 4177
45760364;"{\"type\":\"LineString\",\"coordinates\":[[-73.7395584,45.5880162],[-73.7386566,45.5885417],[-73.7380858,45.5888414],[-73.7346638,45.5905138]]}";2;Rue Berlier;2;50;false;false;true;false;false;false;236.5;0;0;0;0;0;false;41643;6269508685;-73.73428;45.590259;41124;6269508714;-73.73758;45.589154;1;30;31;9312781;Bus : 37 N - Direction Sainte-Rose;"";STL;37N;Métro Cartier Quai:7;Industriel / Face Au 4177
45760364;"{\"type\":\"LineString\",\"coordinates\":[[-73.7395584,45.5880162],[-73.7386566,45.5885417],[-73.7380858,45.5888414],[-73.7346638,45.5905138]]}";1;Rue Berlier;2;50;false;false;true;false;false;false;236.5;0;0;0;0;0;false;41126;6269508731;-73.7394;45.588173;41128;6269508782;-73.74184;45.586383;1;32;33;9312781;Bus : 37 N - Direction Sainte-Rose;"";STL;37N;Métro Cartier Quai:7;Industriel / Face Au 4177
45755728;"{\"type\":\"LineString\",\"coordinates\":[[-73.7454264,45.5833237],[-73.7404509,45.5874184],[-73.7400213,45.5877107],[-73.7399426,45.5877908],[-73.7397186,45.587921],[-73.7395584,45.5880162]]}";2;Rue Berlier;2;50;false;false;true;false;false;false;347.5;0;0;0;0;0;false;41126;6269508731;-73.7394;45.588173;41128;6269508782;-73.74184;45.586383;1;32;33;9312781;Bus : 37 N - Direction Sainte-Rose;"";STL;37N;Métro Cartier Quai:7;Industriel / Face Au 4177
45755728;"{\"type\":\"LineString\",\"coordinates\":[[-73.7454264,45.5833237],[-73.7404509,45.5874184],[-73.7400213,45.5877107],[-73.7399426,45.5877908],[-73.7397186,45.587921],[-73.7395584,45.5880162]]}";1;Rue Berlier;2;50;false;false;true;false;false;false;347.5;0;0;0;0;0;false;41121;6269508838;-73.74532;45.583523;41945;6269508859;-73.74844;45.582331;1;35;36;9312781;Bus : 37 N - Direction Sainte-Rose;"";STL;37N;Métro Cartier Quai:7;Industriel / Face Au 4177
45755862;"{\"type\":\"LineString\",\"coordinates\":[[-73.7479487,45.581755],[-73.7472998,45.5820841],[-73.7463909,45.5826052],[-73.7454264,45.5833237]]}";2;Rue Berlier;2;50;false;false;true;false;false;false;264.0;0;0;0;0;0;false;41121;6269508838;-73.74532;45.583523;41945;6269508859;-73.74844;45.582331;0;35;36;9312781;Bus : 37 N - Direction Sainte-Rose;"";STL;37N;Métro Cartier Quai:7;Industriel / Face Au 4177
679942267;"{\"type\":\"LineString\",\"coordinates\":[[-73.7479487,45.581755],[-73.7500123,45.5837519]]}";3;Boulevard Le Corbusier;1;60;false;true;false;false;false;false;137.0;0;0;0;0;0;false;41121;6269508838;-73.74532;45.583523;41945;6269508859;-73.74844;45.582331;1;35;36;9312781;Bus : 37 N - Direction Sainte-Rose;"";STL;37N;Métro Cartier Quai:7;Industriel / Face Au 4177
679942267;"{\"type\":\"LineString\",\"coordinates\":[[-73.7479487,45.581755],[-73.7500123,45.5837519]]}";1;Boulevard Le Corbusier;1;60;false;true;false;false;false;false;137.0;0;0;0;0;0;false;41945;6269508859;-73.74844;45.582331;41946;6269508817;-73.75033;45.584215;1;36;37;9312781;Bus : 37 N - Direction Sainte-Rose;"";STL;37N;Métro Cartier Quai:7;Industriel / Face Au 4177
679314314;"{\"type\":\"LineString\",\"coordinates\":[[-73.7500123,45.5837519],[-73.7501706,45.5838811],[-73.7517763,45.5852254],[-73.7533896,45.5866986]]}";2;Boulevard Le Corbusier;1;60;false;true;false;false;false;false;210.5;0;0;0;0;0;false;41945;6269508859;-73.74844;45.582331;41946;6269508817;-73.75033;45.584215;1;36;37;9312781;Bus : 37 N - Direction Sainte-Rose;"";STL;37N;Métro Cartier Quai:7;Industriel / Face Au 4177
679314314;"{\"type\":\"LineString\",\"coordinates\":[[-73.7500123,45.5837519],[-73.7501706,45.5838811],[-73.7517763,45.5852254],[-73.7533896,45.5866986]]}";1;Boulevard Le Corbusier;1;60;false;true;false;false;false;false;210.5;0;0;0;0;0;false;41948;6269508809;-73.75176;45.58539;41951;6269508778;-73.7536;45.587087;1;38;39;9312781;Bus : 37 N - Direction Sainte-Rose;"";STL;37N;Métro Cartier Quai:7;Industriel / Face Au 4177
164608937;"{\"type\":\"LineString\",\"coordinates\":[[-73.7533896,45.5866986],[-73.7558086,45.5888052],[-73.7559249,45.5889064],[-73.7584085,45.5911187],[-73.7592934,45.591907],[-73.7595141,45.5921036]]}";2;Boulevard Le Corbusier;1;60;false;true;false;false;false;false;384.0;1;0;0;0;0;false;41948;6269508809;-73.75176;45.58539;41951;6269508778;-73.7536;45.587087;1;38;39;9312781;Bus : 37 N - Direction Sainte-Rose;"";STL;37N;Métro Cartier Quai:7;Industriel / Face Au 4177
164608937;"{\"type\":\"LineString\",\"coordinates\":[[-73.7533896,45.5866986],[-73.7558086,45.5888052],[-73.7559249,45.5889064],[-73.7584085,45.5911187],[-73.7592934,45.591907],[-73.7595141,45.5921036]]}";1;Boulevard Le Corbusier;1;60;false;true;false;false;false;false;384.0;1;0;0;0;0;false;41953;6269508720;-73.75598;45.58918;46600;6269508645;-73.75903;45.592277;1;40;41;9312781;Bus : 37 N - Direction Sainte-Rose;"";STL;37N;Métro Cartier Quai:7;Industriel / Face Au 4177
45803425;"{\"type\":\"LineString\",\"coordinates\":[[-73.7595141,45.5921036],[-73.7576345,45.5932183],[-73.757053,45.5935632],[-73.7568499,45.5936836],[-73.7560809,45.5941396],[-73.7549874,45.594823],[-73.7545646,45.5951826],[-73.7538322,45.5960194],[-73.7532313,45.596578],[-73.7530568,45.5967012],[-73.7523044,45.5972326],[-73.7509701,45.5980598]]}";2;Boulevard Dagenais Ouest;1;60;false;true;false;false;false;false;472.5;1;0;0;0;0;false;41953;6269508720;-73.75598;45.58918;46600;6269508645;-73.75903;45.592277;1;40;41;9312781;Bus : 37 N - Direction Sainte-Rose;"";STL;37N;Métro Cartier Quai:7;Industriel / Face Au 4177
45803425;"{\"type\":\"LineString\",\"coordinates\":[[-73.7595141,45.5921036],[-73.7576345,45.5932183],[-73.757053,45.5935632],[-73.7568499,45.5936836],[-73.7560809,45.5941396],[-73.7549874,45.594823],[-73.7545646,45.5951826],[-73.7538322,45.5960194],[-73.7532313,45.596578],[-73.7530568,45.5967012],[-73.7523044,45.5972326],[-73.7509701,45.5980598]]}";1;Boulevard Dagenais Ouest;1;60;false;true;false;false;false;false;472.5;1;0;0;0;0;false;45024;6269508375;-73.75382;45.595877;46087;6269508330;-73.75128;45.598639;1;44;45;9312781;Bus : 37 N - Direction Sainte-Rose;"";STL;37N;Métro Cartier Quai:7;Industriel / Face Au 4177
672697660;"{\"type\":\"LineString\",\"coordinates\":[[-73.7509701,45.5980598],[-73.7508199,45.5981536]]}";2;Boulevard Dagenais Ouest;1;60;false;true;false;false;false;false;16.0;0;0;0;0;0;false;45024;6269508375;-73.75382;45.595877;46087;6269508330;-73.75128;45.598639;0;44;45;9312781;Bus : 37 N - Direction Sainte-Rose;"";STL;37N;Métro Cartier Quai:7;Industriel / Face Au 4177
672697662;"{\"type\":\"LineString\",\"coordinates\":[[-73.7508199,45.5981536],[-73.7509298,45.5982533]]}";3;Boulevard Industriel;2;60;false;true;false;false;false;false;14.0;0;0;0;0;0;false;45024;6269508375;-73.75382;45.595877;46087;6269508330;-73.75128;45.598639;0;44;45;9312781;Bus : 37 N - Direction Sainte-Rose;"";STL;37N;Métro Cartier Quai:7;Industriel / Face Au 4177
329445482;"{\"type\":\"LineString\",\"coordinates\":[[-73.7509298,45.5982533],[-73.7516659,45.5988408],[-73.7520701,45.599162]]}";4;Boulevard Industriel;1;60;false;true;true;false;false;false;67.5;0;0;0;0;0;false;45024;6269508375;-73.75382;45.595877;46087;6269508330;-73.75128;45.598639;1;44;45;9312781;Bus : 37 N - Direction Sainte-Rose;"";STL;37N;Métro Cartier Quai:7;Industriel / Face Au 4177
329445482;"{\"type\":\"LineString\",\"coordinates\":[[-73.7509298,45.5982533],[-73.7516659,45.5988408],[-73.7520701,45.599162]]}";1;Boulevard Industriel;1;60;false;true;true;false;false;false;67.5;0;0;0;0;0;false;46087;6269508330;-73.75128;45.598639;46088;6269508300;-73.75283;45.59997;1;45;46;9312781;Bus : 37 N - Direction Sainte-Rose;"";STL;37N;Métro Cartier Quai:7;Industriel / Face Au 4177
679942265;"{\"type\":\"LineString\",\"coordinates\":[[-73.7520701,45.599162],[-73.7540088,45.6008782]]}";2;Boulevard Industriel;1;50;false;false;true;false;false;false;122.0;0;0;0;0;0;false;46087;6269508330;-73.75128;45.598639;46088;6269508300;-73.75283;45.59997;1;45;46;9312781;Bus : 37 N - Direction Sainte-Rose;"";STL;37N;Métro Cartier Quai:7;Industriel / Face Au 4177
