way_id;shape;index;name;nb_lanes;legal_speed;speed_zone_30;oneway;shares_bike;bike_box;bus_lane;dedicated_bus_lane;length;nb_traffic_signals;nb_crossings;nb_stops;nb_give_ways;nb_lvl_crossings;roundabout;stop_id_orig;node_id_orig;coord_x_orig;coord_y_orig;stop_id_dest;node_id_dest;coord_x_dest;coord_y_dest;nb_neighbouring_ways_bus_stop;ordre_orig;ordre_dest;id_line;line_name;colour;operator;ref;from;to
393675016;"{\"type\":\"LineString\",\"coordinates\":[[-73.5527842,45.5243085],[-73.5527138,45.5242757],[-73.5514913,45.5237058],[-73.5514051,45.5236656]]}";1;Rue Dorion;1;50;false;true;true;false;false;false;130.0;1;2;0;0;0;false;54117;3081110389;-73.552379;45.5240216;53065;2976433550;-73.5503656;45.5247534;1;0;1;5926741;Bus 150 : René-Lévesque Ouest;"";STM;150-O;Station Papineau (Dorion / Sainte-Catherine);Station Atwater (Ste-Catherine / Lambert-Closse)
727856198;"{\"type\":\"LineString\",\"coordinates\":[[-73.5514051,45.5236656],[-73.551368,45.5237058],[-73.5507387,45.5243873],[-73.55044,45.5247108],[-73.5503558,45.5248019]]}";2;Rue Sainte-Catherine Est;1;50;false;true;true;false;false;false;75.5;1;2;0;0;0;false;54117;3081110389;-73.552379;45.5240216;53065;2976433550;-73.5503656;45.5247534;1;0;1;5926741;Bus 150 : René-Lévesque Ouest;"";STM;150-O;Station Papineau (Dorion / Sainte-Catherine);Station Atwater (Ste-Catherine / Lambert-Closse)
463433433;"{\"type\":\"LineString\",\"coordinates\":[[-73.5495221,45.52441],[-73.5502692,45.5247612],[-73.5503558,45.5248019]]}";1;Avenue De Lorimier;1;50;false;false;true;false;false;false;79.0;0;1;0;0;0;false;53065;2976433550;-73.5503656;45.5247534;53105;6010980546;-73.548126;45.523622;2;1;2;5926741;Bus 150 : René-Lévesque Ouest;"";STM;150-O;Station Papineau (Dorion / Sainte-Catherine);Station Atwater (Ste-Catherine / Lambert-Closse)
95213678;"{\"type\":\"LineString\",\"coordinates\":[[-73.5486303,45.5239908],[-73.5487394,45.5240421],[-73.5495221,45.52441]]}";2;Avenue De Lorimier;1;50;false;false;true;false;false;false;84.0;0;0;0;0;0;false;53065;2976433550;-73.5503656;45.5247534;53105;6010980546;-73.548126;45.523622;0;1;2;5926741;Bus 150 : René-Lévesque Ouest;"";STM;150-O;Station Papineau (Dorion / Sainte-Catherine);Station Atwater (Ste-Catherine / Lambert-Closse)
95213677;"{\"type\":\"LineString\",\"coordinates\":[[-73.5486303,45.5239908],[-73.5485613,45.5239055],[-73.5480255,45.5236328],[-73.5479763,45.5236095],[-73.5479111,45.5235787]]}";3;Avenue De Lorimier;1;50;false;true;true;false;false;false;74.0;1;0;0;0;0;false;53065;2976433550;-73.5503656;45.5247534;53105;6010980546;-73.548126;45.523622;2;1;2;5926741;Bus 150 : René-Lévesque Ouest;"";STM;150-O;Station Papineau (Dorion / Sainte-Catherine);Station Atwater (Ste-Catherine / Lambert-Closse)
455449056;"{\"type\":\"LineString\",\"coordinates\":[[-73.5479111,45.5235787],[-73.5489014,45.5224746],[-73.5492551,45.5221087]]}";1;Boulevard René-Lévesque Est;1;50;false;true;false;false;false;false;195.0;1;0;0;0;0;false;53105;6010980546;-73.548126;45.523622;53845;2430530453;-73.5505299;45.5209239;2;2;3;5926741;Bus 150 : René-Lévesque Ouest;"";STM;150-O;Station Papineau (Dorion / Sainte-Catherine);Station Atwater (Ste-Catherine / Lambert-Closse)
455449057;"{\"type\":\"LineString\",\"coordinates\":[[-73.5492551,45.5221087],[-73.5498686,45.5214492]]}";2;Boulevard René-Lévesque Est;1;50;false;true;true;false;false;false;88.0;1;0;0;0;0;false;53105;6010980546;-73.548126;45.523622;53845;2430530453;-73.5505299;45.5209239;0;2;3;5926741;Bus 150 : René-Lévesque Ouest;"";STM;150-O;Station Papineau (Dorion / Sainte-Catherine);Station Atwater (Ste-Catherine / Lambert-Closse)
457910427;"{\"type\":\"LineString\",\"coordinates\":[[-73.5498686,45.5214492],[-73.5505628,45.5207124]]}";3;Boulevard René-Lévesque Est;1;50;false;true;true;false;false;false;99.0;1;0;0;0;0;false;53105;6010980546;-73.548126;45.523622;53845;2430530453;-73.5505299;45.5209239;2;2;3;5926741;Bus 150 : René-Lévesque Ouest;"";STM;150-O;Station Papineau (Dorion / Sainte-Catherine);Station Atwater (Ste-Catherine / Lambert-Closse)
457910427;"{\"type\":\"LineString\",\"coordinates\":[[-73.5498686,45.5214492],[-73.5505628,45.5207124]]}";1;Boulevard René-Lévesque Est;1;50;false;true;true;false;false;false;49.5;1;0;0;0;0;false;53845;2430530453;-73.5505299;45.5209239;53031;6010965269;-73.552349;45.518929;1;3;4;5926741;Bus 150 : René-Lévesque Ouest;"";STM;150-O;Station Papineau (Dorion / Sainte-Catherine);Station Atwater (Ste-Catherine / Lambert-Closse)
457910426;"{\"type\":\"LineString\",\"coordinates\":[[-73.5505628,45.5207124],[-73.5511961,45.5200358]]}";2;Boulevard René-Lévesque Est;1;50;false;true;true;false;false;false;90.0;0;0;0;0;0;false;53845;2430530453;-73.5505299;45.5209239;53031;6010965269;-73.552349;45.518929;0;3;4;5926741;Bus 150 : René-Lévesque Ouest;"";STM;150-O;Station Papineau (Dorion / Sainte-Catherine);Station Atwater (Ste-Catherine / Lambert-Closse)
457911381;"{\"type\":\"LineString\",\"coordinates\":[[-73.5511961,45.5200358],[-73.5515183,45.5196814],[-73.5517987,45.5193717]]}";3;Boulevard René-Lévesque Est;1;50;false;true;true;false;false;false;88.0;0;0;0;0;0;false;53845;2430530453;-73.5505299;45.5209239;53031;6010965269;-73.552349;45.518929;0;3;4;5926741;Bus 150 : René-Lévesque Ouest;"";STM;150-O;Station Papineau (Dorion / Sainte-Catherine);Station Atwater (Ste-Catherine / Lambert-Closse)
454889964;"{\"type\":\"LineString\",\"coordinates\":[[-73.5517987,45.5193717],[-73.5521301,45.5189923],[-73.5523005,45.5188162],[-73.5523292,45.5187866]]}";4;Boulevard René-Lévesque Est;1;50;false;true;true;false;false;false;39.0;1;0;0;0;0;false;53845;2430530453;-73.5505299;45.5209239;53031;6010965269;-73.552349;45.518929;1;3;4;5926741;Bus 150 : René-Lévesque Ouest;"";STM;150-O;Station Papineau (Dorion / Sainte-Catherine);Station Atwater (Ste-Catherine / Lambert-Closse)
454889966;"{\"type\":\"LineString\",\"coordinates\":[[-73.5523292,45.5187866],[-73.5525597,45.518551],[-73.5529406,45.5181524],[-73.5529696,45.518122]]}";1;Boulevard René-Lévesque Est;1;50;false;true;true;false;false;false;90.0;1;0;0;0;0;false;53031;6010965269;-73.552349;45.518929;52980;2430632598;-73.5549099;45.5165725;2;4;5;5926741;Bus 150 : René-Lévesque Ouest;"";STM;150-O;Station Papineau (Dorion / Sainte-Catherine);Station Atwater (Ste-Catherine / Lambert-Closse)
454889965;"{\"type\":\"LineString\",\"coordinates\":[[-73.5529696,45.518122],[-73.5532245,45.5178442],[-73.5534203,45.5176866]]}";2;Boulevard René-Lévesque Est;1;50;false;true;true;false;false;false;60.0;0;0;0;0;0;false;53031;6010965269;-73.552349;45.518929;52980;2430632598;-73.5549099;45.5165725;0;4;5;5926741;Bus 150 : René-Lévesque Ouest;"";STM;150-O;Station Papineau (Dorion / Sainte-Catherine);Station Atwater (Ste-Catherine / Lambert-Closse)
394908447;"{\"type\":\"LineString\",\"coordinates\":[[-73.5534203,45.5176866],[-73.5539333,45.5173187],[-73.5539488,45.5173076],[-73.5541575,45.5171532],[-73.5544484,45.5169114],[-73.5546569,45.5167504],[-73.5546668,45.5167396],[-73.5547131,45.5166893],[-73.5547317,45.5166692],[-73.5547408,45.5166593],[-73.5548718,45.5165169],[-73.5549095,45.516476]]}";3;Boulevard René-Lévesque Est;3;50;false;true;true;false;false;false;179.0;1;0;0;0;0;false;53031;6010965269;-73.552349;45.518929;52980;2430632598;-73.5549099;45.5165725;2;4;5;5926741;Bus 150 : René-Lévesque Ouest;"";STM;150-O;Station Papineau (Dorion / Sainte-Catherine);Station Atwater (Ste-Catherine / Lambert-Closse)
454245380;"{\"type\":\"LineString\",\"coordinates\":[[-73.5567583,45.5144765],[-73.5571645,45.5140203]]}";1;Boulevard René-Lévesque Est;3;50;false;true;true;false;false;false;60.0;0;0;0;0;0;false;52930;5754525204;-73.556688;45.514643;52905;6010981704;-73.55742;45.513814;2;7;8;5926741;Bus 150 : René-Lévesque Ouest;"";STM;150-O;Station Papineau (Dorion / Sainte-Catherine);Station Atwater (Ste-Catherine / Lambert-Closse)
453999956;"{\"type\":\"LineString\",\"coordinates\":[[-73.5571645,45.5140203],[-73.557471,45.5136703],[-73.557488,45.5136508]]}";2;Boulevard René-Lévesque Est;3;50;false;true;true;false;false;false;49.0;1;0;0;0;0;false;52930;5754525204;-73.556688;45.514643;52905;6010981704;-73.55742;45.513814;2;7;8;5926741;Bus 150 : René-Lévesque Ouest;"";STM;150-O;Station Papineau (Dorion / Sainte-Catherine);Station Atwater (Ste-Catherine / Lambert-Closse)
454245382;"{\"type\":\"LineString\",\"coordinates\":[[-73.5583012,45.512741],[-73.5583516,45.5126875],[-73.5591815,45.5118047]]}";1;Boulevard René-Lévesque Est;3;50;false;true;true;false;false;false;125.0;1;1;0;0;0;false;52881;5036808623;-73.558316;45.512858;52834;6010980792;-73.560098;45.510872;2;9;10;5926741;Bus 150 : René-Lévesque Ouest;"";STM;150-O;Station Papineau (Dorion / Sainte-Catherine);Station Atwater (Ste-Catherine / Lambert-Closse)
454238784;"{\"type\":\"LineString\",\"coordinates\":[[-73.5591815,45.5118047],[-73.559724,45.5112258]]}";2;Boulevard René-Lévesque Est;3;50;false;true;true;false;false;false;77.0;1;0;0;0;0;false;52881;5036808623;-73.558316;45.512858;52834;6010980792;-73.560098;45.510872;0;9;10;5926741;Bus 150 : René-Lévesque Ouest;"";STM;150-O;Station Papineau (Dorion / Sainte-Catherine);Station Atwater (Ste-Catherine / Lambert-Closse)
454238787;"{\"type\":\"LineString\",\"coordinates\":[[-73.559724,45.5112258],[-73.5600819,45.5108283],[-73.5601208,45.5107852],[-73.5601401,45.5107638]]}";3;Boulevard René-Lévesque Est;3;50;false;true;true;false;false;false;61.0;1;1;0;0;0;false;52881;5036808623;-73.558316;45.512858;52834;6010980792;-73.560098;45.510872;2;9;10;5926741;Bus 150 : René-Lévesque Ouest;"";STM;150-O;Station Papineau (Dorion / Sainte-Catherine);Station Atwater (Ste-Catherine / Lambert-Closse)
454238785;"{\"type\":\"LineString\",\"coordinates\":[[-73.5601401,45.5107638],[-73.5601641,45.5107283],[-73.5605442,45.5101674]]}";1;Boulevard René-Lévesque Est;3;50;false;true;true;false;false;false;74.0;0;1;0;0;0;false;52834;6010980792;-73.560098;45.510872;52783;6010968448;-73.561941;45.508668;2;10;11;5926741;Bus 150 : René-Lévesque Ouest;"";STM;150-O;Station Papineau (Dorion / Sainte-Catherine);Station Atwater (Ste-Catherine / Lambert-Closse)
454215275;"{\"type\":\"LineString\",\"coordinates\":[[-73.5605442,45.5101674],[-73.5606311,45.5100682],[-73.561268,45.509341]]}";2;Boulevard René-Lévesque Est;3;50;false;true;true;false;false;false;108.0;0;0;0;0;0;false;52834;6010980792;-73.560098;45.510872;52783;6010968448;-73.561941;45.508668;0;10;11;5926741;Bus 150 : René-Lévesque Ouest;"";STM;150-O;Station Papineau (Dorion / Sainte-Catherine);Station Atwater (Ste-Catherine / Lambert-Closse)
454215277;"{\"type\":\"LineString\",\"coordinates\":[[-73.561268,45.509341],[-73.5616007,45.5089531],[-73.5616145,45.5089381],[-73.5616774,45.5088693]]}";3;Boulevard René-Lévesque Est;3;50;false;true;true;false;false;false;62.0;1;1;0;0;0;false;52834;6010980792;-73.560098;45.510872;52783;6010968448;-73.561941;45.508668;0;10;11;5926741;Bus 150 : René-Lévesque Ouest;"";STM;150-O;Station Papineau (Dorion / Sainte-Catherine);Station Atwater (Ste-Catherine / Lambert-Closse)
464936533;"{\"type\":\"LineString\",\"coordinates\":[[-73.5616774,45.5088693],[-73.5617224,45.5088157],[-73.5620044,45.5084802]]}";4;Boulevard René-Lévesque Ouest;3;50;false;true;true;false;false;false;51.0;0;1;0;0;0;false;52834;6010980792;-73.560098;45.510872;52783;6010968448;-73.561941;45.508668;2;10;11;5926741;Bus 150 : René-Lévesque Ouest;"";STM;150-O;Station Papineau (Dorion / Sainte-Catherine);Station Atwater (Ste-Catherine / Lambert-Closse)
464936533;"{\"type\":\"LineString\",\"coordinates\":[[-73.5616774,45.5088693],[-73.5617224,45.5088157],[-73.5620044,45.5084802]]}";1;Boulevard René-Lévesque Ouest;3;50;false;true;true;false;false;false;25.5;0;1;0;0;0;false;52783;6010968448;-73.561941;45.508668;52745;5036795426;-73.5625846;45.507963;1;11;12;5926741;Bus 150 : René-Lévesque Ouest;"";STM;150-O;Station Papineau (Dorion / Sainte-Catherine);Station Atwater (Ste-Catherine / Lambert-Closse)
464943212;"{\"type\":\"LineString\",\"coordinates\":[[-73.5620044,45.5084802],[-73.5625851,45.5078511],[-73.5626016,45.5078241],[-73.5626628,45.5077549]]}";2;Boulevard René-Lévesque Ouest;3;50;false;true;true;false;false;false;48.0;1;1;0;0;0;false;52783;6010968448;-73.561941;45.508668;52745;5036795426;-73.5625846;45.507963;1;11;12;5926741;Bus 150 : René-Lévesque Ouest;"";STM;150-O;Station Papineau (Dorion / Sainte-Catherine);Station Atwater (Ste-Catherine / Lambert-Closse)
464943212;"{\"type\":\"LineString\",\"coordinates\":[[-73.5620044,45.5084802],[-73.5625851,45.5078511],[-73.5626016,45.5078241],[-73.5626628,45.5077549]]}";1;Boulevard René-Lévesque Ouest;3;50;false;true;true;false;false;false;48.0;1;1;0;0;0;false;52745;5036795426;-73.5625846;45.507963;52697;988366391;-73.5643925;45.5058955;1;12;13;5926741;Bus 150 : René-Lévesque Ouest;"";STM;150-O;Station Papineau (Dorion / Sainte-Catherine);Station Atwater (Ste-Catherine / Lambert-Closse)
4687530;"{\"type\":\"LineString\",\"coordinates\":[[-73.5626628,45.5077549],[-73.5627243,45.5076878],[-73.5633897,45.506943],[-73.564033,45.5062246],[-73.5640701,45.5061831]]}";2;Boulevard René-Lévesque Ouest;3;50;false;true;true;false;false;false;207.0;1;1;0;0;0;false;52745;5036795426;-73.5625846;45.507963;52697;988366391;-73.5643925;45.5058955;0;12;13;5926741;Bus 150 : René-Lévesque Ouest;"";STM;150-O;Station Papineau (Dorion / Sainte-Catherine);Station Atwater (Ste-Catherine / Lambert-Closse)
456314146;"{\"type\":\"LineString\",\"coordinates\":[[-73.5640701,45.5061831],[-73.5643657,45.5058051]]}";3;Boulevard René-Lévesque Ouest;3;50;false;true;true;false;false;false;24.0;0;0;0;0;0;false;52745;5036795426;-73.5625846;45.507963;52697;988366391;-73.5643925;45.5058955;1;12;13;5926741;Bus 150 : René-Lévesque Ouest;"";STM;150-O;Station Papineau (Dorion / Sainte-Catherine);Station Atwater (Ste-Catherine / Lambert-Closse)
456314147;"{\"type\":\"LineString\",\"coordinates\":[[-73.5643657,45.5058051],[-73.5647329,45.5053354],[-73.5647756,45.5052808]]}";1;Boulevard René-Lévesque Ouest;3;50;false;true;true;false;false;false;67.0;1;0;0;0;0;false;52697;988366391;-73.5643925;45.5058955;52625;5036795427;-73.5665083;45.5032345;2;13;14;5926741;Bus 150 : René-Lévesque Ouest;"";STM;150-O;Station Papineau (Dorion / Sainte-Catherine);Station Atwater (Ste-Catherine / Lambert-Closse)
455083974;"{\"type\":\"LineString\",\"coordinates\":[[-73.5647756,45.5052808],[-73.5655065,45.504369],[-73.5655488,45.5043162]]}";2;Boulevard René-Lévesque Ouest;3;50;false;true;true;false;false;false;123.0;1;0;0;0;0;false;52697;988366391;-73.5643925;45.5058955;52625;5036795427;-73.5665083;45.5032345;0;13;14;5926741;Bus 150 : René-Lévesque Ouest;"";STM;150-O;Station Papineau (Dorion / Sainte-Catherine);Station Atwater (Ste-Catherine / Lambert-Closse)
546096658;"{\"type\":\"LineString\",\"coordinates\":[[-73.5655488,45.5043162],[-73.5663601,45.5032964]]}";3;Boulevard René-Lévesque Ouest;3;50;false;true;true;false;false;false;130.0;0;0;0;0;0;false;52697;988366391;-73.5643925;45.5058955;52625;5036795427;-73.5665083;45.5032345;0;13;14;5926741;Bus 150 : René-Lévesque Ouest;"";STM;150-O;Station Papineau (Dorion / Sainte-Catherine);Station Atwater (Ste-Catherine / Lambert-Closse)
455083978;"{\"type\":\"LineString\",\"coordinates\":[[-73.5663601,45.5032964],[-73.5664673,45.5031167],[-73.5664932,45.5030732]]}";4;Boulevard René-Lévesque Ouest;3;50;false;true;true;false;false;false;27.0;1;0;0;0;0;false;52697;988366391;-73.5643925;45.5058955;52625;5036795427;-73.5665083;45.5032345;2;13;14;5926741;Bus 150 : René-Lévesque Ouest;"";STM;150-O;Station Papineau (Dorion / Sainte-Catherine);Station Atwater (Ste-Catherine / Lambert-Closse)
546096658;"{\"type\":\"LineString\",\"coordinates\":[[-73.5655488,45.5043162],[-73.5663601,45.5032964]]}";1;Boulevard René-Lévesque Ouest;3;50;false;true;true;false;false;false;130.0;0;0;0;0;0;false;52625;5036795427;-73.5665083;45.5032345;52587;6010965523;-73.567338;45.502129;2;14;15;5926741;Bus 150 : René-Lévesque Ouest;"";STM;150-O;Station Papineau (Dorion / Sainte-Catherine);Station Atwater (Ste-Catherine / Lambert-Closse)
455083978;"{\"type\":\"LineString\",\"coordinates\":[[-73.5663601,45.5032964],[-73.5664673,45.5031167],[-73.5664932,45.5030732]]}";2;Boulevard René-Lévesque Ouest;3;50;false;true;true;false;false;false;27.0;1;0;0;0;0;false;52625;5036795427;-73.5665083;45.5032345;52587;6010965523;-73.567338;45.502129;0;14;15;5926741;Bus 150 : René-Lévesque Ouest;"";STM;150-O;Station Papineau (Dorion / Sainte-Catherine);Station Atwater (Ste-Catherine / Lambert-Closse)
453981161;"{\"type\":\"LineString\",\"coordinates\":[[-73.5664932,45.5030732],[-73.5667976,45.5026393],[-73.5668362,45.5025843]]}";3;Boulevard René-Lévesque Ouest;3;50;false;true;true;false;false;false;61.0;1;0;0;0;0;false;52625;5036795427;-73.5665083;45.5032345;52587;6010965523;-73.567338;45.502129;0;14;15;5926741;Bus 150 : René-Lévesque Ouest;"";STM;150-O;Station Papineau (Dorion / Sainte-Catherine);Station Atwater (Ste-Catherine / Lambert-Closse)
453963142;"{\"type\":\"LineString\",\"coordinates\":[[-73.5668362,45.5025843],[-73.5673805,45.5019964]]}";4;Boulevard René-Lévesque Ouest;3;50;false;true;true;false;false;false;78.0;1;0;0;0;0;false;52625;5036795427;-73.5665083;45.5032345;52587;6010965523;-73.567338;45.502129;2;14;15;5926741;Bus 150 : René-Lévesque Ouest;"";STM;150-O;Station Papineau (Dorion / Sainte-Catherine);Station Atwater (Ste-Catherine / Lambert-Closse)
453963143;"{\"type\":\"LineString\",\"coordinates\":[[-73.5673805,45.5019964],[-73.5674744,45.5019002]]}";1;Boulevard René-Lévesque Ouest;3;50;false;true;true;false;false;false;13.0;2;0;0;0;0;false;52587;6010965523;-73.567338;45.502129;52529;5036795429;-73.5691146;45.5002866;2;15;16;5926741;Bus 150 : René-Lévesque Ouest;"";STM;150-O;Station Papineau (Dorion / Sainte-Catherine);Station Atwater (Ste-Catherine / Lambert-Closse)
455083971;"{\"type\":\"LineString\",\"coordinates\":[[-73.5674744,45.5019002],[-73.5676539,45.5017095],[-73.5682225,45.5010922]]}";2;Boulevard René-Lévesque Ouest;3;50;false;true;true;false;false;false;108.0;1;0;0;0;0;false;52587;6010965523;-73.567338;45.502129;52529;5036795429;-73.5691146;45.5002866;0;15;16;5926741;Bus 150 : René-Lévesque Ouest;"";STM;150-O;Station Papineau (Dorion / Sainte-Catherine);Station Atwater (Ste-Catherine / Lambert-Closse)
385879098;"{\"type\":\"LineString\",\"coordinates\":[[-73.5682225,45.5010922],[-73.5683717,45.5009348],[-73.5685715,45.5007193],[-73.5690268,45.5002344],[-73.5691112,45.5001442]]}";3;Boulevard René-Lévesque Ouest;3;50;false;true;true;false;false;false;127.0;2;0;0;0;0;false;52587;6010965523;-73.567338;45.502129;52529;5036795429;-73.5691146;45.5002866;2;15;16;5926741;Bus 150 : René-Lévesque Ouest;"";STM;150-O;Station Papineau (Dorion / Sainte-Catherine);Station Atwater (Ste-Catherine / Lambert-Closse)
455083972;"{\"type\":\"LineString\",\"coordinates\":[[-73.5691112,45.5001442],[-73.5696662,45.4995386],[-73.5697469,45.4994538]]}";1;Boulevard René-Lévesque Ouest;3;50;false;true;true;false;false;false;92.0;3;0;0;0;0;false;52529;5036795429;-73.5691146;45.5002866;52483;427618239;-73.5703339;45.4990025;2;16;17;5926741;Bus 150 : René-Lévesque Ouest;"";STM;150-O;Station Papineau (Dorion / Sainte-Catherine);Station Atwater (Ste-Catherine / Lambert-Closse)
455083982;"{\"type\":\"LineString\",\"coordinates\":[[-73.5697469,45.4994538],[-73.5700322,45.4991525],[-73.5702845,45.4988861],[-73.5703788,45.4987866]]}";2;Boulevard René-Lévesque Ouest;3;50;false;true;true;false;false;false;90.0;2;0;0;0;0;false;52529;5036795429;-73.5691146;45.5002866;52483;427618239;-73.5703339;45.4990025;2;16;17;5926741;Bus 150 : René-Lévesque Ouest;"";STM;150-O;Station Papineau (Dorion / Sainte-Catherine);Station Atwater (Ste-Catherine / Lambert-Closse)
455083982;"{\"type\":\"LineString\",\"coordinates\":[[-73.5697469,45.4994538],[-73.5700322,45.4991525],[-73.5702845,45.4988861],[-73.5703788,45.4987866]]}";1;Boulevard René-Lévesque Ouest;3;50;false;true;true;false;false;false;45.0;2;0;0;0;0;false;52483;427618239;-73.5703339;45.4990025;52463;6010974550;-73.57101;45.498208;1;17;18;5926741;Bus 150 : René-Lévesque Ouest;"";STM;150-O;Station Papineau (Dorion / Sainte-Catherine);Station Atwater (Ste-Catherine / Lambert-Closse)
455083975;"{\"type\":\"LineString\",\"coordinates\":[[-73.5703788,45.4987866],[-73.5709935,45.4981374],[-73.5709662,45.4981662],[-73.5710365,45.498092]]}";2;Boulevard René-Lévesque Ouest;3;50;false;true;true;false;false;false;50.5;1;1;0;0;0;false;52483;427618239;-73.5703339;45.4990025;52463;6010974550;-73.57101;45.498208;1;17;18;5926741;Bus 150 : René-Lévesque Ouest;"";STM;150-O;Station Papineau (Dorion / Sainte-Catherine);Station Atwater (Ste-Catherine / Lambert-Closse)
465649964;"{\"type\":\"LineString\",\"coordinates\":[[-73.5710365,45.498092],[-73.5710965,45.4980286],[-73.5716173,45.4974788],[-73.5716304,45.4974649],[-73.5716907,45.4974013]]}";1;Boulevard René-Lévesque Ouest;3;50;false;true;true;false;false;false;93.0;1;2;0;0;0;false;52463;6010974550;-73.57101;45.498208;52416;5036795430;-73.5724184;45.4967944;2;18;19;5926741;Bus 150 : René-Lévesque Ouest;"";STM;150-O;Station Papineau (Dorion / Sainte-Catherine);Station Atwater (Ste-Catherine / Lambert-Closse)
465649965;"{\"type\":\"LineString\",\"coordinates\":[[-73.5716907,45.4974013],[-73.5717405,45.4973473],[-73.5723311,45.4967071],[-73.5723424,45.4966949],[-73.5723978,45.4966348]]}";2;Boulevard René-Lévesque Ouest;3;50;false;true;true;false;false;false;102.0;1;2;0;0;0;false;52463;6010974550;-73.57101;45.498208;52416;5036795430;-73.5724184;45.4967944;2;18;19;5926741;Bus 150 : René-Lévesque Ouest;"";STM;150-O;Station Papineau (Dorion / Sainte-Catherine);Station Atwater (Ste-Catherine / Lambert-Closse)
546047309;"{\"type\":\"LineString\",\"coordinates\":[[-73.5723978,45.4966348],[-73.57246,45.4965707],[-73.5727744,45.4962467],[-73.5730337,45.4959795],[-73.5730667,45.4959455],[-73.5731559,45.4958535]]}";1;Boulevard René-Lévesque Ouest;3;50;false;true;true;false;false;false;106.0;1;2;0;0;0;false;52416;5036795430;-73.5724184;45.4967944;52373;4030794085;-73.5737142;45.4954342;2;19;20;5926741;Bus 150 : René-Lévesque Ouest;"";STM;150-O;Station Papineau (Dorion / Sainte-Catherine);Station Atwater (Ste-Catherine / Lambert-Closse)
455083984;"{\"type\":\"LineString\",\"coordinates\":[[-73.5731559,45.4958535],[-73.5731948,45.495813],[-73.5733586,45.4956423],[-73.5736567,45.4953316],[-73.5737026,45.4952838]]}";2;Boulevard René-Lévesque Ouest;3;50;false;true;true;false;false;false;77.0;0;2;0;0;0;false;52416;5036795430;-73.5724184;45.4967944;52373;4030794085;-73.5737142;45.4954342;2;19;20;5926741;Bus 150 : René-Lévesque Ouest;"";STM;150-O;Station Papineau (Dorion / Sainte-Catherine);Station Atwater (Ste-Catherine / Lambert-Closse)
455083979;"{\"type\":\"LineString\",\"coordinates\":[[-73.5737026,45.4952838],[-73.5737403,45.4952406],[-73.5743308,45.4946389],[-73.5743471,45.4946222],[-73.5744019,45.494566]]}";1;Boulevard René-Lévesque Ouest;3;50;false;true;true;false;false;false;97.0;1;2;0;0;0;false;52373;4030794085;-73.5737142;45.4954342;52327;6010968827;-73.575009;45.494038;2;20;21;5926741;Bus 150 : René-Lévesque Ouest;"";STM;150-O;Station Papineau (Dorion / Sainte-Catherine);Station Atwater (Ste-Catherine / Lambert-Closse)
455083981;"{\"type\":\"LineString\",\"coordinates\":[[-73.5744019,45.494566],[-73.5744505,45.4945153],[-73.5749736,45.4939701],[-73.5749985,45.4939442],[-73.575081,45.4938582]]}";2;Boulevard René-Lévesque Ouest;3;50;false;true;true;false;false;false;95.0;1;2;0;0;0;false;52373;4030794085;-73.5737142;45.4954342;52327;6010968827;-73.575009;45.494038;2;20;21;5926741;Bus 150 : René-Lévesque Ouest;"";STM;150-O;Station Papineau (Dorion / Sainte-Catherine);Station Atwater (Ste-Catherine / Lambert-Closse)
455083981;"{\"type\":\"LineString\",\"coordinates\":[[-73.5744019,45.494566],[-73.5744505,45.4945153],[-73.5749736,45.4939701],[-73.5749985,45.4939442],[-73.575081,45.4938582]]}";1;Boulevard René-Lévesque Ouest;3;50;false;true;true;false;false;false;47.5;1;2;0;0;0;false;52327;6010968827;-73.575009;45.494038;52284;6010969566;-73.576541;45.492441;1;21;22;5926741;Bus 150 : René-Lévesque Ouest;"";STM;150-O;Station Papineau (Dorion / Sainte-Catherine);Station Atwater (Ste-Catherine / Lambert-Closse)
330153472;"{\"type\":\"LineString\",\"coordinates\":[[-73.575081,45.4938582],[-73.5751726,45.4937621],[-73.5758712,45.4930291],[-73.5765211,45.4923471],[-73.5765803,45.492285]]}";2;Boulevard René-Lévesque Ouest;3;50;false;true;true;false;false;false;105.5;0;2;0;0;0;false;52327;6010968827;-73.575009;45.494038;52284;6010969566;-73.576541;45.492441;1;21;22;5926741;Bus 150 : René-Lévesque Ouest;"";STM;150-O;Station Papineau (Dorion / Sainte-Catherine);Station Atwater (Ste-Catherine / Lambert-Closse)
465653665;"{\"type\":\"LineString\",\"coordinates\":[[-73.5765803,45.492285],[-73.5766455,45.4922166],[-73.5769057,45.4919436],[-73.5775586,45.4912584],[-73.5776007,45.4912143]]}";1;Boulevard René-Lévesque Ouest;3;50;false;true;true;false;false;false;144.0;1;2;0;0;0;false;52284;6010969566;-73.576541;45.492441;52198;445067518;-73.5794659;45.4898968;2;22;23;5926741;Bus 150 : René-Lévesque Ouest;"";STM;150-O;Station Papineau (Dorion / Sainte-Catherine);Station Atwater (Ste-Catherine / Lambert-Closse)
466885671;"{\"type\":\"LineString\",\"coordinates\":[[-73.5776007,45.4912143],[-73.5776604,45.4911576]]}";2;Boulevard René-Lévesque Ouest;3;50;false;true;true;false;false;false;8.0;1;0;0;0;0;false;52284;6010969566;-73.576541;45.492441;52198;445067518;-73.5794659;45.4898968;0;22;23;5926741;Bus 150 : René-Lévesque Ouest;"";STM;150-O;Station Papineau (Dorion / Sainte-Catherine);Station Atwater (Ste-Catherine / Lambert-Closse)
463825906;"{\"type\":\"LineString\",\"coordinates\":[[-73.5776604,45.4911576],[-73.5777288,45.4910895],[-73.5786113,45.4903037],[-73.578633,45.4902842],[-73.5786799,45.4902422]]}";3;Boulevard René-Lévesque Ouest;3;50;false;true;true;false;false;false;130.0;1;2;0;0;0;false;52284;6010969566;-73.576541;45.492441;52198;445067518;-73.5794659;45.4898968;0;22;23;5926741;Bus 150 : René-Lévesque Ouest;"";STM;150-O;Station Papineau (Dorion / Sainte-Catherine);Station Atwater (Ste-Catherine / Lambert-Closse)
463825907;"{\"type\":\"LineString\",\"coordinates\":[[-73.5786799,45.4902422],[-73.5787533,45.4901887],[-73.578815,45.4901525],[-73.5794533,45.4898017]]}";4;Boulevard René-Lévesque Ouest;3;50;false;true;true;false;false;false;78.0;0;1;0;0;0;false;52284;6010969566;-73.576541;45.492441;52198;445067518;-73.5794659;45.4898968;2;22;23;5926741;Bus 150 : René-Lévesque Ouest;"";STM;150-O;Station Papineau (Dorion / Sainte-Catherine);Station Atwater (Ste-Catherine / Lambert-Closse)
231387460;"{\"type\":\"LineString\",\"coordinates\":[[-73.5830741,45.4881391],[-73.5831349,45.4882019],[-73.5836037,45.4886862],[-73.5837049,45.4887907]]}";1;Avenue Atwater;1;50;false;true;true;false;false;false;88.0;1;1;0;0;0;false;52078;6010978235;-73.582891;45.488258;56297;6010968869;-73.584235;45.489262;2;25;26;5926741;Bus 150 : René-Lévesque Ouest;"";STM;150-O;Station Papineau (Dorion / Sainte-Catherine);Station Atwater (Ste-Catherine / Lambert-Closse)
329694558;"{\"type\":\"LineString\",\"coordinates\":[[-73.5837049,45.4887907],[-73.5839703,45.4889844]]}";2;Avenue Atwater;1;50;false;true;true;false;false;false;30.0;0;0;0;0;0;false;52078;6010978235;-73.582891;45.488258;56297;6010968869;-73.584235;45.489262;0;25;26;5926741;Bus 150 : René-Lévesque Ouest;"";STM;150-O;Station Papineau (Dorion / Sainte-Catherine);Station Atwater (Ste-Catherine / Lambert-Closse)
329694559;"{\"type\":\"LineString\",\"coordinates\":[[-73.5839703,45.4889844],[-73.5840821,45.489066],[-73.5841539,45.4891184],[-73.5841933,45.4891471],[-73.5843558,45.4892657],[-73.5844716,45.4893502]]}";3;Avenue Atwater;1;50;false;true;true;false;false;false;57.0;1;0;0;0;0;false;52078;6010978235;-73.582891;45.488258;56297;6010968869;-73.584235;45.489262;2;25;26;5926741;Bus 150 : René-Lévesque Ouest;"";STM;150-O;Station Papineau (Dorion / Sainte-Catherine);Station Atwater (Ste-Catherine / Lambert-Closse)
329694559;"{\"type\":\"LineString\",\"coordinates\":[[-73.5839703,45.4889844],[-73.5840821,45.489066],[-73.5841539,45.4891184],[-73.5841933,45.4891471],[-73.5843558,45.4892657],[-73.5844716,45.4893502]]}";1;Avenue Atwater;1;50;false;true;true;false;false;false;28.5;1;0;0;0;0;false;56297;6010968869;-73.584235;45.489262;54148;6010973662;-73.583756;45.489847;1;26;27;5926741;Bus 150 : René-Lévesque Ouest;"";STM;150-O;Station Papineau (Dorion / Sainte-Catherine);Station Atwater (Ste-Catherine / Lambert-Closse)
165217839;"{\"type\":\"LineString\",\"coordinates\":[[-73.5844716,45.4893502],[-73.5843783,45.4894309],[-73.5842306,45.4895586],[-73.5840326,45.4897267]]}";2;Rue Sainte-Catherine Ouest;1;50;false;true;true;false;false;false;55.0;1;0;0;0;0;false;56297;6010968869;-73.584235;45.489262;54148;6010973662;-73.583756;45.489847;1;26;27;5926741;Bus 150 : René-Lévesque Ouest;"";STM;150-O;Station Papineau (Dorion / Sainte-Catherine);Station Atwater (Ste-Catherine / Lambert-Closse)
