way_id;shape;index;name;nb_lanes;legal_speed;speed_zone_30;oneway;shares_bike;bike_box;bus_lane;dedicated_bus_lane;length;nb_traffic_signals;nb_crossings;nb_stops;nb_give_ways;nb_lvl_crossings;roundabout;stop_id_orig;node_id_orig;coord_x_orig;coord_y_orig;stop_id_dest;node_id_dest;coord_x_dest;coord_y_dest;nb_neighbouring_ways_bus_stop;ordre_orig;ordre_dest;id_line;line_name;colour;operator;ref;from;to
455482405;"{\"type\":\"LineString\",\"coordinates\":[[-73.6588368,45.7197388],[-73.65854,45.7199576],[-73.6584267,45.720093],[-73.6581919,45.7205731],[-73.6581229,45.7207252],[-73.6577839,45.7214124],[-73.6575015,45.7220883],[-73.6573852,45.7224202],[-73.6573539,45.7225413],[-73.6573368,45.7226724],[-73.6573555,45.7234229],[-73.657367,45.7238876]]}";1;Chemin des Anglais;4;50;false;false;true;false;false;false;486.0;0;0;0;0;0;false;84141;6129484955;-73.657658;45.721247;84619;6129484189;-73.65724;45.726224;1;1;2;9450768;Bus 41 : TERMINUS TERREBONNE / CHEMIN DES ANGLAIS;"";EXO;41;ch. des Anglais / ch. Gascon;Terminus Terrebonne
455482393;"{\"type\":\"LineString\",\"coordinates\":[[-73.657367,45.7238876],[-73.6573104,45.7239534]]}";2;Chemin des Anglais;1;50;false;true;true;false;false;false;9.0;0;0;0;0;0;false;84141;6129484955;-73.657658;45.721247;84619;6129484189;-73.65724;45.726224;0;1;2;9450768;Bus 41 : TERMINUS TERREBONNE / CHEMIN DES ANGLAIS;"";EXO;41;ch. des Anglais / ch. Gascon;Terminus Terrebonne
455482406;"{\"type\":\"LineString\",\"coordinates\":[[-73.6573104,45.7239534],[-73.6573158,45.7241622],[-73.6573078,45.7243504],[-73.6573103,45.7244466]]}";3;Chemin des Anglais;2;50;false;true;true;false;false;false;55.0;0;0;0;0;0;false;84141;6129484955;-73.657658;45.721247;84619;6129484189;-73.65724;45.726224;0;1;2;9450768;Bus 41 : TERMINUS TERREBONNE / CHEMIN DES ANGLAIS;"";EXO;41;ch. des Anglais / ch. Gascon;Terminus Terrebonne
680728728;"{\"type\":\"LineString\",\"coordinates\":[[-73.6573103,45.7244466],[-73.6573131,45.7246668],[-73.6573141,45.7253835]]}";4;Chemin des Anglais;2;50;false;true;true;false;false;false;105.0;0;0;0;0;0;false;84141;6129484955;-73.657658;45.721247;84619;6129484189;-73.65724;45.726224;0;1;2;9450768;Bus 41 : TERMINUS TERREBONNE / CHEMIN DES ANGLAIS;"";EXO;41;ch. des Anglais / ch. Gascon;Terminus Terrebonne
455482399;"{\"type\":\"LineString\",\"coordinates\":[[-73.6573141,45.7253835],[-73.6573209,45.7256136]]}";5;Chemin des Anglais;1;50;false;true;true;false;false;false;26.0;0;0;0;0;0;false;84141;6129484955;-73.657658;45.721247;84619;6129484189;-73.65724;45.726224;0;1;2;9450768;Bus 41 : TERMINUS TERREBONNE / CHEMIN DES ANGLAIS;"";EXO;41;ch. des Anglais / ch. Gascon;Terminus Terrebonne
680913802;"{\"type\":\"LineString\",\"coordinates\":[[-73.6573209,45.7256136],[-73.6573313,45.7265054]]}";6;Chemin des Anglais;1;50;false;true;true;false;false;false;50.0;1;0;0;0;0;false;84141;6129484955;-73.657658;45.721247;84619;6129484189;-73.65724;45.726224;1;1;2;9450768;Bus 41 : TERMINUS TERREBONNE / CHEMIN DES ANGLAIS;"";EXO;41;ch. des Anglais / ch. Gascon;Terminus Terrebonne
455498688;"{\"type\":\"LineString\",\"coordinates\":[[-73.667578,45.7255325],[-73.6668727,45.7250574],[-73.6663319,45.724704],[-73.6662021,45.7246192],[-73.6654699,45.7241221],[-73.6652089,45.72395]]}";1;Chemin Gascon;1;50;false;true;true;false;false;false;127.5;1;0;0;0;0;false;84924;6129482885;-73.665683;45.724038;84840;6129482954;-73.666405;45.723916;1;32;33;9450768;Bus 41 : TERMINUS TERREBONNE / CHEMIN DES ANGLAIS;"";EXO;41;ch. des Anglais / ch. Gascon;Terminus Terrebonne
678900137;"{\"type\":\"LineString\",\"coordinates\":[[-73.6680618,45.7250583],[-73.6679399,45.7250056],[-73.6674931,45.7247319],[-73.6673711,45.7246538],[-73.6669647,45.7243936],[-73.6668683,45.7243199],[-73.6667825,45.7242236],[-73.6665656,45.7238928],[-73.6664378,45.7237917],[-73.6662948,45.7237335],[-73.666114,45.7236892],[-73.6659218,45.7236773],[-73.6657911,45.7236879],[-73.6656017,45.7237322],[-73.6654379,45.7238168],[-73.6652089,45.72395]]}";2;Boulevard de la Pinière;1;50;false;false;true;false;false;false;150.0;0;0;0;0;0;false;84924;6129482885;-73.665683;45.724038;84840;6129482954;-73.666405;45.723916;1;32;33;9450768;Bus 41 : TERMINUS TERREBONNE / CHEMIN DES ANGLAIS;"";EXO;41;ch. des Anglais / ch. Gascon;Terminus Terrebonne
678900137;"{\"type\":\"LineString\",\"coordinates\":[[-73.6680618,45.7250583],[-73.6679399,45.7250056],[-73.6674931,45.7247319],[-73.6673711,45.7246538],[-73.6669647,45.7243936],[-73.6668683,45.7243199],[-73.6667825,45.7242236],[-73.6665656,45.7238928],[-73.6664378,45.7237917],[-73.6662948,45.7237335],[-73.666114,45.7236892],[-73.6659218,45.7236773],[-73.6657911,45.7236879],[-73.6656017,45.7237322],[-73.6654379,45.7238168],[-73.6652089,45.72395]]}";1;Boulevard de la Pinière;1;50;false;false;true;false;false;false;150.0;0;0;0;0;0;false;85441;6129481594;-73.667784;45.725039;84907;6129482895;-73.668768;45.724685;1;34;35;9450768;Bus 41 : TERMINUS TERREBONNE / CHEMIN DES ANGLAIS;"";EXO;41;ch. des Anglais / ch. Gascon;Terminus Terrebonne
220168369;"{\"type\":\"LineString\",\"coordinates\":[[-73.6748233,45.7236544],[-73.6737945,45.7236528],[-73.6728421,45.7236396],[-73.6718,45.7236293],[-73.6714163,45.7236601],[-73.6710473,45.7237175],[-73.669938,45.7240427],[-73.6693075,45.7242258],[-73.6690436,45.7243157],[-73.6689013,45.724403],[-73.66873,45.7245399],[-73.6680618,45.7250583]]}";2;Rue Jeanne-Mance;1;50;false;false;true;false;false;false;288.5;0;0;0;0;0;false;85441;6129481594;-73.667784;45.725039;84907;6129482895;-73.668768;45.724685;1;34;35;9450768;Bus 41 : TERMINUS TERREBONNE / CHEMIN DES ANGLAIS;"";EXO;41;ch. des Anglais / ch. Gascon;Terminus Terrebonne
220168458;"{\"type\":\"LineString\",\"coordinates\":[[-73.6748233,45.7236544],[-73.6748251,45.7238705],[-73.6748142,45.724087],[-73.674805,45.7241413],[-73.6748087,45.7241953],[-73.6748252,45.7242487],[-73.6748398,45.7242753]]}";1;Rue de Neuchâtel;1;50;false;false;true;false;false;false;70.0;0;0;0;0;0;false;84893;6129482909;-73.67467;45.723727;84748;6129483636;-73.676655;45.724209;2;37;38;9450768;Bus 41 : TERMINUS TERREBONNE / CHEMIN DES ANGLAIS;"";EXO;41;ch. des Anglais / ch. Gascon;Terminus Terrebonne
220168407;"{\"type\":\"LineString\",\"coordinates\":[[-73.677651,45.7219868],[-73.6776346,45.7239657],[-73.6767177,45.7240954],[-73.6757886,45.7242346],[-73.6755466,45.7242697],[-73.6752925,45.7243142],[-73.6751899,45.7243176],[-73.6751135,45.7243292],[-73.6750622,45.7243309],[-73.674959,45.7243253],[-73.6748802,45.7243009],[-73.6748398,45.7242753]]}";2;Rue d'Aragon;1;50;false;false;true;false;false;false;444.0;0;0;0;0;0;false;84893;6129482909;-73.67467;45.723727;84748;6129483636;-73.676655;45.724209;2;37;38;9450768;Bus 41 : TERMINUS TERREBONNE / CHEMIN DES ANGLAIS;"";EXO;41;ch. des Anglais / ch. Gascon;Terminus Terrebonne
220168407;"{\"type\":\"LineString\",\"coordinates\":[[-73.677651,45.7219868],[-73.6776346,45.7239657],[-73.6767177,45.7240954],[-73.6757886,45.7242346],[-73.6755466,45.7242697],[-73.6752925,45.7243142],[-73.6751899,45.7243176],[-73.6751135,45.7243292],[-73.6750622,45.7243309],[-73.674959,45.7243253],[-73.6748802,45.7243009],[-73.6748398,45.7242753]]}";1;Rue d'Aragon;1;50;false;false;true;false;false;false;222.0;0;0;0;0;0;false;84748;6129483636;-73.676655;45.724209;84843;6129482952;-73.67785;45.722108;1;38;39;9450768;Bus 41 : TERMINUS TERREBONNE / CHEMIN DES ANGLAIS;"";EXO;41;ch. des Anglais / ch. Gascon;Terminus Terrebonne
678900140;"{\"type\":\"LineString\",\"coordinates\":[[-73.6809601,45.7220043],[-73.6798928,45.7219987],[-73.6785942,45.7219918],[-73.677651,45.7219868]]}";2;rue de Verviers;1;50;false;false;true;false;false;false;129.0;0;0;0;0;0;false;84748;6129483636;-73.676655;45.724209;84843;6129482952;-73.67785;45.722108;1;38;39;9450768;Bus 41 : TERMINUS TERREBONNE / CHEMIN DES ANGLAIS;"";EXO;41;ch. des Anglais / ch. Gascon;Terminus Terrebonne
220168407;"{\"type\":\"LineString\",\"coordinates\":[[-73.677651,45.7219868],[-73.6776346,45.7239657],[-73.6767177,45.7240954],[-73.6757886,45.7242346],[-73.6755466,45.7242697],[-73.6752925,45.7243142],[-73.6751899,45.7243176],[-73.6751135,45.7243292],[-73.6750622,45.7243309],[-73.674959,45.7243253],[-73.6748802,45.7243009],[-73.6748398,45.7242753]]}";1;Rue d'Aragon;1;50;false;false;true;false;false;false;444.0;0;0;0;0;0;false;84843;6129482952;-73.67785;45.722108;84820;6129482969;-73.680807;45.722087;2;39;40;9450768;Bus 41 : TERMINUS TERREBONNE / CHEMIN DES ANGLAIS;"";EXO;41;ch. des Anglais / ch. Gascon;Terminus Terrebonne
678900140;"{\"type\":\"LineString\",\"coordinates\":[[-73.6809601,45.7220043],[-73.6798928,45.7219987],[-73.6785942,45.7219918],[-73.677651,45.7219868]]}";2;rue de Verviers;1;50;false;false;true;false;false;false;258.0;0;0;0;0;0;false;84843;6129482952;-73.67785;45.722108;84820;6129482969;-73.680807;45.722087;2;39;40;9450768;Bus 41 : TERMINUS TERREBONNE / CHEMIN DES ANGLAIS;"";EXO;41;ch. des Anglais / ch. Gascon;Terminus Terrebonne
678900126;"{\"type\":\"LineString\",\"coordinates\":[[-73.681057,45.7178423],[-73.6830681,45.7178544],[-73.6850098,45.7178661],[-73.6861952,45.7178733],[-73.687503,45.7178812],[-73.6894743,45.717893]]}";1;Boulevard des Seigneurs;2;50;false;false;false;false;false;false;327.5;0;0;1;0;0;false;84801;6129483587;-73.681302;45.717763;85043;6129482200;-73.677761;45.717787;1;49;50;9450768;Bus 41 : TERMINUS TERREBONNE / CHEMIN DES ANGLAIS;"";EXO;41;ch. des Anglais / ch. Gascon;Terminus Terrebonne
802292661;"{\"type\":\"LineString\",\"coordinates\":[[-73.6729312,45.7178284],[-73.6739068,45.7178241],[-73.6748909,45.7178266],[-73.6766901,45.7178313],[-73.6776433,45.7178337],[-73.6786218,45.7178362],[-73.681057,45.7178423]]}";2;Boulevard des Seigneurs;2;50;false;false;false;false;false;false;316.5;0;0;1;0;0;false;84801;6129483587;-73.681302;45.717763;85043;6129482200;-73.677761;45.717787;1;49;50;9450768;Bus 41 : TERMINUS TERREBONNE / CHEMIN DES ANGLAIS;"";EXO;41;ch. des Anglais / ch. Gascon;Terminus Terrebonne
802292661;"{\"type\":\"LineString\",\"coordinates\":[[-73.6729312,45.7178284],[-73.6739068,45.7178241],[-73.6748909,45.7178266],[-73.6766901,45.7178313],[-73.6776433,45.7178337],[-73.6786218,45.7178362],[-73.681057,45.7178423]]}";1;Boulevard des Seigneurs;2;50;false;false;false;false;false;false;316.5;0;0;1;0;0;false;85048;6129482196;-73.674981;45.717774;85046;6129482198;-73.67249;45.717619;1;51;52;9450768;Bus 41 : TERMINUS TERREBONNE / CHEMIN DES ANGLAIS;"";EXO;41;ch. des Anglais / ch. Gascon;Terminus Terrebonne
802297071;"{\"type\":\"LineString\",\"coordinates\":[[-73.6721875,45.7175511],[-73.6722816,45.7176117],[-73.6724371,45.7176974],[-73.6726201,45.7177849],[-73.6729312,45.7178284]]}";2;Boulevard des Seigneurs;2;50;false;false;true;false;false;false;34.0;0;0;0;0;0;false;85048;6129482196;-73.674981;45.717774;85046;6129482198;-73.67249;45.717619;1;51;52;9450768;Bus 41 : TERMINUS TERREBONNE / CHEMIN DES ANGLAIS;"";EXO;41;ch. des Anglais / ch. Gascon;Terminus Terrebonne
802297071;"{\"type\":\"LineString\",\"coordinates\":[[-73.6721875,45.7175511],[-73.6722816,45.7176117],[-73.6724371,45.7176974],[-73.6726201,45.7177849],[-73.6729312,45.7178284]]}";1;Boulevard des Seigneurs;2;50;false;false;true;false;false;false;34.0;0;0;0;0;0;false;85046;6129482198;-73.67249;45.717619;84781;6129483605;-73.67036;45.716283;1;52;53;9450768;Bus 41 : TERMINUS TERREBONNE / CHEMIN DES ANGLAIS;"";EXO;41;ch. des Anglais / ch. Gascon;Terminus Terrebonne
504903132;"{\"type\":\"LineString\",\"coordinates\":[[-73.6699152,45.714288],[-73.6698913,45.7153048],[-73.6698871,45.7157876],[-73.6699248,45.7160054],[-73.6699998,45.7161413],[-73.6701204,45.7162526],[-73.6701949,45.7163043],[-73.6705923,45.7165471],[-73.6709821,45.7167852],[-73.6712418,45.7169439],[-73.6721875,45.7175511]]}";2;Boulevard des Seigneurs;2;50;false;false;false;false;false;false;219.5;0;0;0;0;0;false;85046;6129482198;-73.67249;45.717619;84781;6129483605;-73.67036;45.716283;1;52;53;9450768;Bus 41 : TERMINUS TERREBONNE / CHEMIN DES ANGLAIS;"";EXO;41;ch. des Anglais / ch. Gascon;Terminus Terrebonne
504903132;"{\"type\":\"LineString\",\"coordinates\":[[-73.6699152,45.714288],[-73.6698913,45.7153048],[-73.6698871,45.7157876],[-73.6699248,45.7160054],[-73.6699998,45.7161413],[-73.6701204,45.7162526],[-73.6701949,45.7163043],[-73.6705923,45.7165471],[-73.6709821,45.7167852],[-73.6712418,45.7169439],[-73.6721875,45.7175511]]}";1;Boulevard des Seigneurs;2;50;false;false;false;false;false;false;219.5;0;0;0;0;0;false;84781;6129483605;-73.67036;45.716283;85058;6129482188;-73.670059;45.714273;1;53;54;9450768;Bus 41 : TERMINUS TERREBONNE / CHEMIN DES ANGLAIS;"";EXO;41;ch. des Anglais / ch. Gascon;Terminus Terrebonne
801677260;"{\"type\":\"LineString\",\"coordinates\":[[-73.6699207,45.71258],[-73.6699152,45.714288]]}";2;Boulevard des Seigneurs;2;50;false;false;false;false;false;false;95.0;0;0;0;0;0;false;84781;6129483605;-73.67036;45.716283;85058;6129482188;-73.670059;45.714273;1;53;54;9450768;Bus 41 : TERMINUS TERREBONNE / CHEMIN DES ANGLAIS;"";EXO;41;ch. des Anglais / ch. Gascon;Terminus Terrebonne
504903132;"{\"type\":\"LineString\",\"coordinates\":[[-73.6699152,45.714288],[-73.6698913,45.7153048],[-73.6698871,45.7157876],[-73.6699248,45.7160054],[-73.6699998,45.7161413],[-73.6701204,45.7162526],[-73.6701949,45.7163043],[-73.6705923,45.7165471],[-73.6709821,45.7167852],[-73.6712418,45.7169439],[-73.6721875,45.7175511]]}";1;Boulevard des Seigneurs;2;50;false;false;false;false;false;false;439.0;0;0;0;0;0;false;85058;6129482188;-73.670059;45.714273;85061;6129482186;-73.67007;45.712675;2;54;55;9450768;Bus 41 : TERMINUS TERREBONNE / CHEMIN DES ANGLAIS;"";EXO;41;ch. des Anglais / ch. Gascon;Terminus Terrebonne
801677260;"{\"type\":\"LineString\",\"coordinates\":[[-73.6699207,45.71258],[-73.6699152,45.714288]]}";2;Boulevard des Seigneurs;2;50;false;false;false;false;false;false;190.0;0;0;0;0;0;false;85058;6129482188;-73.670059;45.714273;85061;6129482186;-73.67007;45.712675;2;54;55;9450768;Bus 41 : TERMINUS TERREBONNE / CHEMIN DES ANGLAIS;"";EXO;41;ch. des Anglais / ch. Gascon;Terminus Terrebonne
801677259;"{\"type\":\"LineString\",\"coordinates\":[[-73.669854,45.7122067],[-73.6699161,45.7124072],[-73.6699207,45.71258]]}";1;Boulevard des Seigneurs;2;50;false;false;true;false;false;false;42.0;0;0;0;0;0;false;85061;6129482186;-73.67007;45.712675;84741;6129483642;-73.668437;45.709366;2;55;56;9450768;Bus 41 : TERMINUS TERREBONNE / CHEMIN DES ANGLAIS;"";EXO;41;ch. des Anglais / ch. Gascon;Terminus Terrebonne
679583076;"{\"type\":\"LineString\",\"coordinates\":[[-73.6682815,45.7093698],[-73.6685074,45.7100402],[-73.6686328,45.710431],[-73.6687469,45.7106686],[-73.6688939,45.710933],[-73.669122,45.7112701],[-73.6697375,45.7119656],[-73.669854,45.7122067]]}";2;Boulevard des Seigneurs;2;50;false;false;false;false;false;false;341.0;0;0;0;0;0;false;85061;6129482186;-73.67007;45.712675;84741;6129483642;-73.668437;45.709366;2;55;56;9450768;Bus 41 : TERMINUS TERREBONNE / CHEMIN DES ANGLAIS;"";EXO;41;ch. des Anglais / ch. Gascon;Terminus Terrebonne
164556095;"{\"type\":\"LineString\",\"coordinates\":[[-73.6669809,45.7017865],[-73.6672468,45.7019227],[-73.6675494,45.7021214],[-73.6677848,45.7023358],[-73.6679359,45.7025571],[-73.6680448,45.7029357],[-73.6679965,45.7046021],[-73.6680127,45.7051163],[-73.6680835,45.7056181],[-73.6680782,45.7058427],[-73.6680618,45.7065383],[-73.6680511,45.7074529],[-73.6680583,45.7085309],[-73.6681224,45.7088644],[-73.6682553,45.7092943],[-73.6682815,45.7093698]]}";1;Boulevard des Seigneurs;2;50;false;false;false;false;false;false;437.5;0;0;0;0;0;false;84760;6129483625;-73.668178;45.703051;85052;6129482192;-73.665519;45.700786;1;59;60;9450768;Bus 41 : TERMINUS TERREBONNE / CHEMIN DES ANGLAIS;"";EXO;41;ch. des Anglais / ch. Gascon;Terminus Terrebonne
473799697;"{\"type\":\"LineString\",\"coordinates\":[[-73.6669809,45.7017865],[-73.6668938,45.7016895],[-73.6663246,45.7013492],[-73.6652763,45.7007591],[-73.6639447,45.7002743],[-73.6621867,45.6997059],[-73.6613434,45.6995063],[-73.660385,45.6993348],[-73.6600777,45.6993028],[-73.6597079,45.6992564],[-73.659223,45.6992463],[-73.6580774,45.6992672],[-73.6578286,45.6992825],[-73.65682,45.6993495],[-73.6561833,45.699406]]}";2;Boulevard des Seigneurs;2;50;false;true;true;false;false;false;459.0;0;0;1;0;0;false;84760;6129483625;-73.668178;45.703051;85052;6129482192;-73.665519;45.700786;1;59;60;9450768;Bus 41 : TERMINUS TERREBONNE / CHEMIN DES ANGLAIS;"";EXO;41;ch. des Anglais / ch. Gascon;Terminus Terrebonne
473799697;"{\"type\":\"LineString\",\"coordinates\":[[-73.6669809,45.7017865],[-73.6668938,45.7016895],[-73.6663246,45.7013492],[-73.6652763,45.7007591],[-73.6639447,45.7002743],[-73.6621867,45.6997059],[-73.6613434,45.6995063],[-73.660385,45.6993348],[-73.6600777,45.6993028],[-73.6597079,45.6992564],[-73.659223,45.6992463],[-73.6580774,45.6992672],[-73.6578286,45.6992825],[-73.65682,45.6993495],[-73.6561833,45.699406]]}";1;Boulevard des Seigneurs;2;50;false;true;true;false;false;false;459.0;0;0;1;0;0;false;84945;6129482271;-73.656399;45.699289;85030;6129482210;-73.654591;45.699425;1;64;65;9450768;Bus 41 : TERMINUS TERREBONNE / CHEMIN DES ANGLAIS;"";EXO;41;ch. des Anglais / ch. Gascon;Terminus Terrebonne
679511681;"{\"type\":\"LineString\",\"coordinates\":[[-73.6561833,45.699406],[-73.6551489,45.6994642],[-73.6546246,45.6994917],[-73.6545361,45.6994958],[-73.6543935,45.6995058]]}";2;Boulevard des Seigneurs;2;50;false;true;true;false;false;false;70.0;1;1;1;0;0;false;84945;6129482271;-73.656399;45.699289;85030;6129482210;-73.654591;45.699425;1;64;65;9450768;Bus 41 : TERMINUS TERREBONNE / CHEMIN DES ANGLAIS;"";EXO;41;ch. des Anglais / ch. Gascon;Terminus Terrebonne
678900124;"{\"type\":\"LineString\",\"coordinates\":[[-73.6543935,45.6995058],[-73.6543959,45.6994455],[-73.6544061,45.6991935]]}";1;Côte de Terrebonne;2;50;false;true;true;false;false;false;35.0;0;1;0;0;0;false;85030;6129482210;-73.654591;45.699425;84875;6129482927;-73.652978;45.698038;2;65;66;9450768;Bus 41 : TERMINUS TERREBONNE / CHEMIN DES ANGLAIS;"";EXO;41;ch. des Anglais / ch. Gascon;Terminus Terrebonne
810018731;"{\"type\":\"LineString\",\"coordinates\":[[-73.6544061,45.6991935],[-73.6544516,45.6980667]]}";2;Côte de Terrebonne;2;50;false;true;false;false;false;false;126.0;0;0;0;0;0;false;85030;6129482210;-73.654591;45.699425;84875;6129482927;-73.652978;45.698038;0;65;66;9450768;Bus 41 : TERMINUS TERREBONNE / CHEMIN DES ANGLAIS;"";EXO;41;ch. des Anglais / ch. Gascon;Terminus Terrebonne
679579107;"{\"type\":\"LineString\",\"coordinates\":[[-73.6544516,45.6980667],[-73.6544536,45.6980164]]}";3;Côte de Terrebonne;1;50;false;true;false;false;false;false;6.0;0;0;0;0;0;false;85030;6129482210;-73.654591;45.699425;84875;6129482927;-73.652978;45.698038;0;65;66;9450768;Bus 41 : TERMINUS TERREBONNE / CHEMIN DES ANGLAIS;"";EXO;41;ch. des Anglais / ch. Gascon;Terminus Terrebonne
810021669;"{\"type\":\"LineString\",\"coordinates\":[[-73.6544536,45.6980164],[-73.6544566,45.6979421]]}";4;Côte de Terrebonne;1;50;false;true;false;false;false;false;9.0;0;0;0;0;0;false;85030;6129482210;-73.654591;45.699425;84875;6129482927;-73.652978;45.698038;0;65;66;9450768;Bus 41 : TERMINUS TERREBONNE / CHEMIN DES ANGLAIS;"";EXO;41;ch. des Anglais / ch. Gascon;Terminus Terrebonne
679579096;"{\"type\":\"LineString\",\"coordinates\":[[-73.6544566,45.6979421],[-73.6543098,45.6979415]]}";5;BUS;1;50;false;true;true;false;true;false;12.0;0;0;0;0;0;false;85030;6129482210;-73.654591;45.699425;84875;6129482927;-73.652978;45.698038;0;65;66;9450768;Bus 41 : TERMINUS TERREBONNE / CHEMIN DES ANGLAIS;"";EXO;41;ch. des Anglais / ch. Gascon;Terminus Terrebonne
678900150;"{\"type\":\"LineString\",\"coordinates\":[[-73.6543098,45.6979415],[-73.654154,45.6979414],[-73.6533204,45.6979395],[-73.6532321,45.6979644],[-73.6531831,45.6979995],[-73.6531647,45.6980517],[-73.6531659,45.6981074]]}";6;BUS;1;50;false;true;true;false;true;false;103.0;0;1;0;0;0;false;85030;6129482210;-73.654591;45.699425;84875;6129482927;-73.652978;45.698038;1;65;66;9450768;Bus 41 : TERMINUS TERREBONNE / CHEMIN DES ANGLAIS;"";EXO;41;ch. des Anglais / ch. Gascon;Terminus Terrebonne
