way_id;shape;index;name;nb_lanes;legal_speed;speed_zone_30;oneway;shares_bike;bike_box;bus_lane;dedicated_bus_lane;length;nb_traffic_signals;nb_crossings;nb_stops;nb_give_ways;nb_lvl_crossings;roundabout;stop_id_orig;node_id_orig;coord_x_orig;coord_y_orig;stop_id_dest;node_id_dest;coord_x_dest;coord_y_dest;nb_neighbouring_ways_bus_stop;ordre_orig;ordre_dest;id_line;line_name;colour;operator;ref;from;to
44334260;"{\"type\":\"LineString\",\"coordinates\":[[-74.0082633,45.3866527],[-74.0082951,45.3868],[-74.0083295,45.3868482],[-74.008457,45.3869776]]}";1;Avenue du Club;2;50;false;false;true;false;false;false;41.0;0;0;0;0;0;false;72946;5215346228;-74.008327;45.386603;72351;2186107594;-73.99324;45.384687;1;0;1;9479770;Bus 35 : Direction Sainte-Anne-de-Bellevue;"";EXO;35 E;Gare Dorion;Terminus Mcdonald
682297509;"{\"type\":\"LineString\",\"coordinates\":[[-74.008457,45.3869776],[-74.0090577,45.3876073],[-74.009738,45.3883109]]}";2;Avenue du Club;2;50;false;false;true;false;false;false;179.0;0;0;0;0;0;false;72946;5215346228;-74.008327;45.386603;72351;2186107594;-73.99324;45.384687;0;0;1;9479770;Bus 35 : Direction Sainte-Anne-de-Bellevue;"";EXO;35 E;Gare Dorion;Terminus Mcdonald
682126584;"{\"type\":\"LineString\",\"coordinates\":[[-74.009738,45.3883109],[-74.0107899,45.3878174]]}";3;Rue Adèle;2;50;false;false;true;false;false;false;99.0;0;0;0;0;0;false;72946;5215346228;-74.008327;45.386603;72351;2186107594;-73.99324;45.384687;0;0;1;9479770;Bus 35 : Direction Sainte-Anne-de-Bellevue;"";EXO;35 E;Gare Dorion;Terminus Mcdonald
387944984;"{\"type\":\"LineString\",\"coordinates\":[[-74.0107899,45.3878174],[-74.0119411,45.3872748]]}";4;Rue Adèle;1;50;false;true;true;false;false;false;109.0;0;0;0;0;0;false;72946;5215346228;-74.008327;45.386603;72351;2186107594;-73.99324;45.384687;0;0;1;9479770;Bus 35 : Direction Sainte-Anne-de-Bellevue;"";EXO;35 E;Gare Dorion;Terminus Mcdonald
196778892;"{\"type\":\"LineString\",\"coordinates\":[[-74.0119411,45.3872748],[-74.012677,45.3869375]]}";5;Rue Adèle;2;50;false;true;true;false;false;false;69.0;0;0;0;0;0;false;72946;5215346228;-74.008327;45.386603;72351;2186107594;-73.99324;45.384687;0;0;1;9479770;Bus 35 : Direction Sainte-Anne-de-Bellevue;"";EXO;35 E;Gare Dorion;Terminus Mcdonald
28771779;"{\"type\":\"LineString\",\"coordinates\":[[-74.012677,45.3869375],[-74.012342,45.3865874],[-74.0122539,45.3865255]]}";6;Avenue Saint-Charles;2;50;false;true;false;false;false;false;57.0;0;0;0;0;0;false;72946;5215346228;-74.008327;45.386603;72351;2186107594;-73.99324;45.384687;0;0;1;9479770;Bus 35 : Direction Sainte-Anne-de-Bellevue;"";EXO;35 E;Gare Dorion;Terminus Mcdonald
289484699;"{\"type\":\"LineString\",\"coordinates\":[[-74.0122539,45.3865255],[-74.0121182,45.386465],[-74.0119482,45.3864386],[-74.0116362,45.3864763]]}";7;Avenue Saint-Charles;2;50;false;true;true;false;false;false;51.0;0;0;0;0;0;false;72946;5215346228;-74.008327;45.386603;72351;2186107594;-73.99324;45.384687;0;0;1;9479770;Bus 35 : Direction Sainte-Anne-de-Bellevue;"";EXO;35 E;Gare Dorion;Terminus Mcdonald
218549327;"{\"type\":\"LineString\",\"coordinates\":[[-74.0116362,45.3864763],[-74.0113815,45.3865017],[-74.0111592,45.3864847],[-74.0110089,45.3864421],[-74.010889,45.3863825]]}";8;Avenue Saint-Charles;2;50;false;true;false;false;false;false;62.0;0;0;0;0;0;false;72946;5215346228;-74.008327;45.386603;72351;2186107594;-73.99324;45.384687;0;0;1;9479770;Bus 35 : Direction Sainte-Anne-de-Bellevue;"";EXO;35 E;Gare Dorion;Terminus Mcdonald
414517121;"{\"type\":\"LineString\",\"coordinates\":[[-74.010889,45.3863825],[-74.0104732,45.3858744]]}";9;Avenue Saint-Charles;2;50;false;true;false;false;false;false;66.0;1;0;0;0;0;false;72946;5215346228;-74.008327;45.386603;72351;2186107594;-73.99324;45.384687;0;0;1;9479770;Bus 35 : Direction Sainte-Anne-de-Bellevue;"";EXO;35 E;Gare Dorion;Terminus Mcdonald
196778910;"{\"type\":\"LineString\",\"coordinates\":[[-74.0104732,45.3858744],[-74.0101526,45.3854915],[-74.0100366,45.3853405],[-74.0099542,45.385228],[-74.009915,45.3851508],[-74.0098923,45.385057],[-74.0098959,45.3849544]]}";10;Avenue Saint-Charles;2;50;false;true;false;false;false;false;114.0;1;0;0;0;0;false;72946;5215346228;-74.008327;45.386603;72351;2186107594;-73.99324;45.384687;0;0;1;9479770;Bus 35 : Direction Sainte-Anne-de-Bellevue;"";EXO;35 E;Gare Dorion;Terminus Mcdonald
684251982;"{\"type\":\"LineString\",\"coordinates\":[[-74.0098959,45.3849544],[-74.0099429,45.3848422]]}";11;Avenue Saint-Charles;2;50;false;true;false;false;false;false;13.0;0;0;0;0;0;false;72946;5215346228;-74.008327;45.386603;72351;2186107594;-73.99324;45.384687;0;0;1;9479770;Bus 35 : Direction Sainte-Anne-de-Bellevue;"";EXO;35 E;Gare Dorion;Terminus Mcdonald
196778907;"{\"type\":\"LineString\",\"coordinates\":[[-74.0099429,45.3848422],[-74.0099746,45.3847114],[-74.0099769,45.3845395],[-74.0099657,45.3844399],[-74.0099258,45.3843149]]}";12;Avenue Saint-Charles;3;50;false;true;true;false;false;false;60.0;0;0;0;0;0;false;72946;5215346228;-74.008327;45.386603;72351;2186107594;-73.99324;45.384687;0;0;1;9479770;Bus 35 : Direction Sainte-Anne-de-Bellevue;"";EXO;35 E;Gare Dorion;Terminus Mcdonald
456569668;"{\"type\":\"LineString\",\"coordinates\":[[-74.0099258,45.3843149],[-74.0097784,45.384176]]}";13;Avenue Saint-Charles;3;50;false;true;true;false;false;false;20.0;1;0;0;0;0;false;72946;5215346228;-74.008327;45.386603;72351;2186107594;-73.99324;45.384687;0;0;1;9479770;Bus 35 : Direction Sainte-Anne-de-Bellevue;"";EXO;35 E;Gare Dorion;Terminus Mcdonald
44334286;"{\"type\":\"LineString\",\"coordinates\":[[-74.0097784,45.384176],[-74.009678,45.3840813]]}";14;Avenue Saint-Charles;1;50;false;true;true;false;false;false;14.0;2;0;0;0;0;false;72946;5215346228;-74.008327;45.386603;72351;2186107594;-73.99324;45.384687;0;0;1;9479770;Bus 35 : Direction Sainte-Anne-de-Bellevue;"";EXO;35 E;Gare Dorion;Terminus Mcdonald
104564061;"{\"type\":\"LineString\",\"coordinates\":[[-74.009678,45.3840813],[-74.0090034,45.3844294]]}";15;Boulevard Harwood;3;50;false;true;true;false;false;false;66.0;2;0;0;0;0;false;72946;5215346228;-74.008327;45.386603;72351;2186107594;-73.99324;45.384687;0;0;1;9479770;Bus 35 : Direction Sainte-Anne-de-Bellevue;"";EXO;35 E;Gare Dorion;Terminus Mcdonald
635888621;"{\"type\":\"LineString\",\"coordinates\":[[-74.0090034,45.3844294],[-74.0082802,45.3848066]]}";16;Boulevard Harwood;2;50;false;true;true;false;false;false;71.0;1;0;0;0;0;false;72946;5215346228;-74.008327;45.386603;72351;2186107594;-73.99324;45.384687;0;0;1;9479770;Bus 35 : Direction Sainte-Anne-de-Bellevue;"";EXO;35 E;Gare Dorion;Terminus Mcdonald
517292780;"{\"type\":\"LineString\",\"coordinates\":[[-74.0082802,45.3848066],[-74.0076188,45.3851516]]}";17;Boulevard Harwood;2;50;false;true;true;false;false;false;65.0;0;0;0;0;0;false;72946;5215346228;-74.008327;45.386603;72351;2186107594;-73.99324;45.384687;0;0;1;9479770;Bus 35 : Direction Sainte-Anne-de-Bellevue;"";EXO;35 E;Gare Dorion;Terminus Mcdonald
635888620;"{\"type\":\"LineString\",\"coordinates\":[[-74.0076188,45.3851516],[-74.0069169,45.3855177]]}";18;Boulevard Harwood;2;50;false;true;true;false;false;false;69.0;0;0;0;0;0;false;72946;5215346228;-74.008327;45.386603;72351;2186107594;-73.99324;45.384687;0;0;1;9479770;Bus 35 : Direction Sainte-Anne-de-Bellevue;"";EXO;35 E;Gare Dorion;Terminus Mcdonald
517292776;"{\"type\":\"LineString\",\"coordinates\":[[-74.0069169,45.3855177],[-74.0065575,45.3856463],[-74.0060783,45.3857845]]}";19;Boulevard Harwood;2;50;false;true;true;false;false;false;73.0;0;0;0;0;0;false;72946;5215346228;-74.008327;45.386603;72351;2186107594;-73.99324;45.384687;0;0;1;9479770;Bus 35 : Direction Sainte-Anne-de-Bellevue;"";EXO;35 E;Gare Dorion;Terminus Mcdonald
104564058;"{\"type\":\"LineString\",\"coordinates\":[[-74.0060783,45.3857845],[-74.0059714,45.3858133],[-74.0057429,45.3858645],[-74.0054858,45.3858996],[-74.0048349,45.3859414],[-74.0041226,45.3859683]]}";20;Boulevard Harwood;3;50;false;true;false;false;false;false;156.0;0;0;0;0;0;false;72946;5215346228;-74.008327;45.386603;72351;2186107594;-73.99324;45.384687;0;0;1;9479770;Bus 35 : Direction Sainte-Anne-de-Bellevue;"";EXO;35 E;Gare Dorion;Terminus Mcdonald
86578352;"{\"type\":\"LineString\",\"coordinates\":[[-74.0041226,45.3859683],[-73.9986969,45.3862052]]}";21;Autoroute du Souvenir;2;70;false;true;false;false;false;false;426.0;0;0;0;0;0;false;72946;5215346228;-74.008327;45.386603;72351;2186107594;-73.99324;45.384687;0;0;1;9479770;Bus 35 : Direction Sainte-Anne-de-Bellevue;"";EXO;35 E;Gare Dorion;Terminus Mcdonald
683402660;"{\"type\":\"LineString\",\"coordinates\":[[-73.9986969,45.3862052],[-73.9983043,45.3862204]]}";22;Autoroute du Souvenir;2;70;false;true;false;false;false;false;31.0;0;0;0;0;0;false;72946;5215346228;-74.008327;45.386603;72351;2186107594;-73.99324;45.384687;0;0;1;9479770;Bus 35 : Direction Sainte-Anne-de-Bellevue;"";EXO;35 E;Gare Dorion;Terminus Mcdonald
47459943;"{\"type\":\"LineString\",\"coordinates\":[[-73.9983043,45.3862204],[-73.996348,45.3862101],[-73.9954307,45.38622],[-73.9951174,45.3862203]]}";23;"";1;65;false;true;false;false;false;false;250.0;0;0;0;0;0;false;72946;5215346228;-74.008327;45.386603;72351;2186107594;-73.99324;45.384687;0;0;1;9479770;Bus 35 : Direction Sainte-Anne-de-Bellevue;"";EXO;35 E;Gare Dorion;Terminus Mcdonald
769937187;"{\"type\":\"LineString\",\"coordinates\":[[-73.9951174,45.3862203],[-73.994565,45.3862047]]}";24;"";2;50;false;true;false;false;false;false;44.0;0;0;0;0;0;false;72946;5215346228;-74.008327;45.386603;72351;2186107594;-73.99324;45.384687;0;0;1;9479770;Bus 35 : Direction Sainte-Anne-de-Bellevue;"";EXO;35 E;Gare Dorion;Terminus Mcdonald
769937188;"{\"type\":\"LineString\",\"coordinates\":[[-73.994565,45.3862047],[-73.9937034,45.3861902],[-73.9935928,45.3861911],[-73.9934289,45.3861925]]}";25;"";3;50;false;true;false;false;false;false;89.0;1;0;0;0;0;false;72946;5215346228;-74.008327;45.386603;72351;2186107594;-73.99324;45.384687;0;0;1;9479770;Bus 35 : Direction Sainte-Anne-de-Bellevue;"";EXO;35 E;Gare Dorion;Terminus Mcdonald
455057386;"{\"type\":\"LineString\",\"coordinates\":[[-73.9934289,45.3861925],[-73.9934972,45.3861132],[-73.9935014,45.3859889],[-73.9935006,45.3859294]]}";26;Boulevard Cardinal-Léger;2;50;false;true;true;false;false;false;31.0;0;0;0;0;0;false;72946;5215346228;-74.008327;45.386603;72351;2186107594;-73.99324;45.384687;0;0;1;9479770;Bus 35 : Direction Sainte-Anne-de-Bellevue;"";EXO;35 E;Gare Dorion;Terminus Mcdonald
769937208;"{\"type\":\"LineString\",\"coordinates\":[[-73.9935006,45.3859294],[-73.9934884,45.3858253],[-73.9934781,45.3857637]]}";27;Boulevard Cardinal-Léger;3;50;false;true;true;false;false;false;19.0;0;0;0;0;0;false;72946;5215346228;-74.008327;45.386603;72351;2186107594;-73.99324;45.384687;0;0;1;9479770;Bus 35 : Direction Sainte-Anne-de-Bellevue;"";EXO;35 E;Gare Dorion;Terminus Mcdonald
769937209;"{\"type\":\"LineString\",\"coordinates\":[[-73.9934781,45.3857637],[-73.9934504,45.3855986],[-73.9934255,45.3854818],[-73.9934163,45.3854463],[-73.9933994,45.3853596]]}";28;Boulevard Cardinal-Léger;4;50;false;true;true;false;false;false;46.0;1;0;0;0;0;false;72946;5215346228;-74.008327;45.386603;72351;2186107594;-73.99324;45.384687;0;0;1;9479770;Bus 35 : Direction Sainte-Anne-de-Bellevue;"";EXO;35 E;Gare Dorion;Terminus Mcdonald
683393905;"{\"type\":\"LineString\",\"coordinates\":[[-73.9933994,45.3853596],[-73.9933728,45.3852729]]}";29;Boulevard Cardinal-Léger;3;50;false;true;true;false;false;false;10.0;0;0;0;0;0;false;72946;5215346228;-74.008327;45.386603;72351;2186107594;-73.99324;45.384687;0;0;1;9479770;Bus 35 : Direction Sainte-Anne-de-Bellevue;"";EXO;35 E;Gare Dorion;Terminus Mcdonald
683402659;"{\"type\":\"LineString\",\"coordinates\":[[-73.9933728,45.3852729],[-73.9933521,45.3852162]]}";30;Boulevard Cardinal-Léger;2;50;false;true;true;false;false;false;7.0;0;1;0;0;0;false;72946;5215346228;-74.008327;45.386603;72351;2186107594;-73.99324;45.384687;0;0;1;9479770;Bus 35 : Direction Sainte-Anne-de-Bellevue;"";EXO;35 E;Gare Dorion;Terminus Mcdonald
778719200;"{\"type\":\"LineString\",\"coordinates\":[[-73.9933521,45.3852162],[-73.9930975,45.3846534],[-73.9930357,45.3845169],[-73.9928256,45.3840523],[-73.9928086,45.3840148],[-73.9927617,45.3839111]]}";31;Boulevard Cardinal-Léger;2;50;false;true;true;false;false;false;76.5;1;1;0;0;0;false;72946;5215346228;-74.008327;45.386603;72351;2186107594;-73.99324;45.384687;1;0;1;9479770;Bus 35 : Direction Sainte-Anne-de-Bellevue;"";EXO;35 E;Gare Dorion;Terminus Mcdonald
778719200;"{\"type\":\"LineString\",\"coordinates\":[[-73.9933521,45.3852162],[-73.9930975,45.3846534],[-73.9930357,45.3845169],[-73.9928256,45.3840523],[-73.9928086,45.3840148],[-73.9927617,45.3839111]]}";1;Boulevard Cardinal-Léger;2;50;false;true;true;false;false;false;76.5;1;1;0;0;0;false;72351;2186107594;-73.99324;45.384687;72332;2186107582;-73.995573;45.383788;1;1;2;9479770;Bus 35 : Direction Sainte-Anne-de-Bellevue;"";EXO;35 E;Gare Dorion;Terminus Mcdonald
47459933;"{\"type\":\"LineString\",\"coordinates\":[[-73.9927617,45.3839111],[-73.9927218,45.3838244],[-73.9926671,45.3837052],[-73.9925992,45.3835576],[-73.9924618,45.3832588],[-73.992397,45.3831178],[-73.9923667,45.3830519],[-73.9922401,45.3827764],[-73.9921707,45.3826254],[-73.9920653,45.3823961]]}";2;Boulevard Cardinal-Léger;2;50;false;true;true;false;false;false;177.0;0;0;0;0;0;false;72351;2186107594;-73.99324;45.384687;72332;2186107582;-73.995573;45.383788;0;1;2;9479770;Bus 35 : Direction Sainte-Anne-de-Bellevue;"";EXO;35 E;Gare Dorion;Terminus Mcdonald
42321612;"{\"type\":\"LineString\",\"coordinates\":[[-73.9927617,45.3839111],[-73.9928573,45.3838886],[-73.992871,45.3838854],[-73.9931795,45.3838137]]}";3;Avenue Joseph-Laflèche;2;50;false;false;true;false;false;false;35.0;1;0;0;0;0;false;72351;2186107594;-73.99324;45.384687;72332;2186107582;-73.995573;45.383788;0;1;2;9479770;Bus 35 : Direction Sainte-Anne-de-Bellevue;"";EXO;35 E;Gare Dorion;Terminus Mcdonald
769971318;"{\"type\":\"LineString\",\"coordinates\":[[-73.9931795,45.3838137],[-73.9932503,45.3837976],[-73.9934768,45.3837461],[-73.9938934,45.3836527],[-73.9940489,45.3836151],[-73.9946948,45.3834645],[-73.9950118,45.3833906],[-73.9953197,45.3833207]]}";4;Avenue Joseph-Laflèche;2;50;false;false;true;false;false;false;177.0;0;0;0;0;0;false;72351;2186107594;-73.99324;45.384687;72332;2186107582;-73.995573;45.383788;0;1;2;9479770;Bus 35 : Direction Sainte-Anne-de-Bellevue;"";EXO;35 E;Gare Dorion;Terminus Mcdonald
110998900;"{\"type\":\"LineString\",\"coordinates\":[[-73.9955211,45.3837542],[-73.9954988,45.3837059],[-73.9954885,45.3836838],[-73.9954037,45.3835007],[-73.9953885,45.383468],[-73.9953614,45.3834099],[-73.9953197,45.3833207]]}";5;"";1;50;false;false;true;false;true;false;51.0;0;0;3;0;0;false;72351;2186107594;-73.99324;45.384687;72332;2186107582;-73.995573;45.383788;0;1;2;9479770;Bus 35 : Direction Sainte-Anne-de-Bellevue;"";EXO;35 E;Gare Dorion;Terminus Mcdonald
110998887;"{\"type\":\"LineString\",\"coordinates\":[[-73.9955211,45.3837542],[-73.9955755,45.3837422],[-73.9956494,45.3837258],[-73.9958867,45.38367],[-73.9960938,45.3836217],[-73.9962573,45.3835829],[-73.9962974,45.3835735],[-73.9963174,45.3835687],[-73.9963676,45.3835574],[-73.9964979,45.3835281],[-73.9967025,45.3834821],[-73.9968642,45.3834457],[-73.9968839,45.3834413]]}";6;"";1;50;false;false;true;false;true;false;56.5;0;0;4;0;0;false;72351;2186107594;-73.99324;45.384687;72332;2186107582;-73.995573;45.383788;1;1;2;9479770;Bus 35 : Direction Sainte-Anne-de-Bellevue;"";EXO;35 E;Gare Dorion;Terminus Mcdonald
110998900;"{\"type\":\"LineString\",\"coordinates\":[[-73.9955211,45.3837542],[-73.9954988,45.3837059],[-73.9954885,45.3836838],[-73.9954037,45.3835007],[-73.9953885,45.383468],[-73.9953614,45.3834099],[-73.9953197,45.3833207]]}";1;"";1;50;false;false;true;false;true;false;51.0;0;0;3;0;0;false;72332;2186107582;-73.995573;45.383788;72335;6133274693;-73.996045;45.383074;2;2;3;9479770;Bus 35 : Direction Sainte-Anne-de-Bellevue;"";EXO;35 E;Gare Dorion;Terminus Mcdonald
683402662;"{\"type\":\"LineString\",\"coordinates\":[[-73.9953197,45.3833207],[-73.9954561,45.3832903],[-73.9956906,45.3832359],[-73.9960878,45.3831437],[-73.9965525,45.3830344],[-73.9967005,45.3829997]]}";2;Avenue Joseph-Laflèche;2;50;false;false;true;false;false;false;114.0;0;0;0;0;0;false;72332;2186107582;-73.995573;45.383788;72335;6133274693;-73.996045;45.383074;2;2;3;9479770;Bus 35 : Direction Sainte-Anne-de-Bellevue;"";EXO;35 E;Gare Dorion;Terminus Mcdonald
683402662;"{\"type\":\"LineString\",\"coordinates\":[[-73.9953197,45.3833207],[-73.9954561,45.3832903],[-73.9956906,45.3832359],[-73.9960878,45.3831437],[-73.9965525,45.3830344],[-73.9967005,45.3829997]]}";1;Avenue Joseph-Laflèche;2;50;false;false;true;false;false;false;57.0;0;0;0;0;0;false;72335;6133274693;-73.996045;45.383074;72309;2186107575;-73.992336;45.382942;1;3;4;9479770;Bus 35 : Direction Sainte-Anne-de-Bellevue;"";EXO;35 E;Gare Dorion;Terminus Mcdonald
110998900;"{\"type\":\"LineString\",\"coordinates\":[[-73.9955211,45.3837542],[-73.9954988,45.3837059],[-73.9954885,45.3836838],[-73.9954037,45.3835007],[-73.9953885,45.383468],[-73.9953614,45.3834099],[-73.9953197,45.3833207]]}";2;"";1;50;false;false;true;false;true;false;51.0;0;0;3;0;0;false;72335;6133274693;-73.996045;45.383074;72309;2186107575;-73.992336;45.382942;0;3;4;9479770;Bus 35 : Direction Sainte-Anne-de-Bellevue;"";EXO;35 E;Gare Dorion;Terminus Mcdonald
769971318;"{\"type\":\"LineString\",\"coordinates\":[[-73.9931795,45.3838137],[-73.9932503,45.3837976],[-73.9934768,45.3837461],[-73.9938934,45.3836527],[-73.9940489,45.3836151],[-73.9946948,45.3834645],[-73.9950118,45.3833906],[-73.9953197,45.3833207]]}";3;Avenue Joseph-Laflèche;2;50;false;false;true;false;false;false;177.0;0;0;0;0;0;false;72335;6133274693;-73.996045;45.383074;72309;2186107575;-73.992336;45.382942;0;3;4;9479770;Bus 35 : Direction Sainte-Anne-de-Bellevue;"";EXO;35 E;Gare Dorion;Terminus Mcdonald
42321612;"{\"type\":\"LineString\",\"coordinates\":[[-73.9927617,45.3839111],[-73.9928573,45.3838886],[-73.992871,45.3838854],[-73.9931795,45.3838137]]}";4;Avenue Joseph-Laflèche;2;50;false;false;true;false;false;false;35.0;1;0;0;0;0;false;72335;6133274693;-73.996045;45.383074;72309;2186107575;-73.992336;45.382942;0;3;4;9479770;Bus 35 : Direction Sainte-Anne-de-Bellevue;"";EXO;35 E;Gare Dorion;Terminus Mcdonald
47459933;"{\"type\":\"LineString\",\"coordinates\":[[-73.9927617,45.3839111],[-73.9927218,45.3838244],[-73.9926671,45.3837052],[-73.9925992,45.3835576],[-73.9924618,45.3832588],[-73.992397,45.3831178],[-73.9923667,45.3830519],[-73.9922401,45.3827764],[-73.9921707,45.3826254],[-73.9920653,45.3823961]]}";5;Boulevard Cardinal-Léger;2;50;false;true;true;false;false;false;88.5;0;0;0;0;0;false;72335;6133274693;-73.996045;45.383074;72309;2186107575;-73.992336;45.382942;1;3;4;9479770;Bus 35 : Direction Sainte-Anne-de-Bellevue;"";EXO;35 E;Gare Dorion;Terminus Mcdonald
47459933;"{\"type\":\"LineString\",\"coordinates\":[[-73.9927617,45.3839111],[-73.9927218,45.3838244],[-73.9926671,45.3837052],[-73.9925992,45.3835576],[-73.9924618,45.3832588],[-73.992397,45.3831178],[-73.9923667,45.3830519],[-73.9922401,45.3827764],[-73.9921707,45.3826254],[-73.9920653,45.3823961]]}";1;Boulevard Cardinal-Léger;2;50;false;true;true;false;false;false;88.5;0;0;0;0;0;false;72309;2186107575;-73.992336;45.382942;72342;6133274686;-73.991869;45.381805;1;4;5;9479770;Bus 35 : Direction Sainte-Anne-de-Bellevue;"";EXO;35 E;Gare Dorion;Terminus Mcdonald
770081682;"{\"type\":\"LineString\",\"coordinates\":[[-73.9920653,45.3823961],[-73.9919808,45.3822356],[-73.9918856,45.3820548],[-73.9918675,45.3820114],[-73.9918492,45.3819732]]}";2;Boulevard Cardinal-Léger;3;50;false;true;true;false;false;false;50.0;1;1;0;0;0;false;72309;2186107575;-73.992336;45.382942;72342;6133274686;-73.991869;45.381805;0;4;5;9479770;Bus 35 : Direction Sainte-Anne-de-Bellevue;"";EXO;35 E;Gare Dorion;Terminus Mcdonald
771079094;"{\"type\":\"LineString\",\"coordinates\":[[-73.9918492,45.3819732],[-73.9918286,45.3819289]]}";3;Boulevard Cardinal-Léger;3;50;false;true;true;false;false;false;6.0;0;0;0;0;0;false;72309;2186107575;-73.992336;45.382942;72342;6133274686;-73.991869;45.381805;0;4;5;9479770;Bus 35 : Direction Sainte-Anne-de-Bellevue;"";EXO;35 E;Gare Dorion;Terminus Mcdonald
770081683;"{\"type\":\"LineString\",\"coordinates\":[[-73.9918286,45.3819289],[-73.9917934,45.3818515],[-73.9917393,45.3817328],[-73.9916727,45.3815863],[-73.9915369,45.381288],[-73.9914873,45.3811789],[-73.9914617,45.3811268],[-73.9913334,45.3808594],[-73.9911578,45.3804729],[-73.9910175,45.3801641],[-73.99076,45.3796011],[-73.9907026,45.3795347],[-73.9906475,45.3794777]]}";4;Boulevard Cardinal-Léger;2;50;false;true;true;false;false;false;144.5;0;1;1;0;0;false;72309;2186107575;-73.992336;45.382942;72342;6133274686;-73.991869;45.381805;1;4;5;9479770;Bus 35 : Direction Sainte-Anne-de-Bellevue;"";EXO;35 E;Gare Dorion;Terminus Mcdonald
771079094;"{\"type\":\"LineString\",\"coordinates\":[[-73.9918492,45.3819732],[-73.9918286,45.3819289]]}";1;Boulevard Cardinal-Léger;3;50;false;true;true;false;false;false;6.0;0;0;0;0;0;false;72342;6133274686;-73.991869;45.381805;72317;6133274710;-73.991195;45.380265;2;5;6;9479770;Bus 35 : Direction Sainte-Anne-de-Bellevue;"";EXO;35 E;Gare Dorion;Terminus Mcdonald
770081683;"{\"type\":\"LineString\",\"coordinates\":[[-73.9918286,45.3819289],[-73.9917934,45.3818515],[-73.9917393,45.3817328],[-73.9916727,45.3815863],[-73.9915369,45.381288],[-73.9914873,45.3811789],[-73.9914617,45.3811268],[-73.9913334,45.3808594],[-73.9911578,45.3804729],[-73.9910175,45.3801641],[-73.99076,45.3796011],[-73.9907026,45.3795347],[-73.9906475,45.3794777]]}";2;Boulevard Cardinal-Léger;2;50;false;true;true;false;false;false;289.0;0;1;1;0;0;false;72342;6133274686;-73.991869;45.381805;72317;6133274710;-73.991195;45.380265;2;5;6;9479770;Bus 35 : Direction Sainte-Anne-de-Bellevue;"";EXO;35 E;Gare Dorion;Terminus Mcdonald
770081683;"{\"type\":\"LineString\",\"coordinates\":[[-73.9918286,45.3819289],[-73.9917934,45.3818515],[-73.9917393,45.3817328],[-73.9916727,45.3815863],[-73.9915369,45.381288],[-73.9914873,45.3811789],[-73.9914617,45.3811268],[-73.9913334,45.3808594],[-73.9911578,45.3804729],[-73.9910175,45.3801641],[-73.99076,45.3796011],[-73.9907026,45.3795347],[-73.9906475,45.3794777]]}";1;Boulevard Cardinal-Léger;2;50;false;true;true;false;false;false;144.5;0;1;1;0;0;false;72317;6133274710;-73.991195;45.380265;72349;6133274381;-73.989814;45.377472;1;6;7;9479770;Bus 35 : Direction Sainte-Anne-de-Bellevue;"";EXO;35 E;Gare Dorion;Terminus Mcdonald
201487488;"{\"type\":\"LineString\",\"coordinates\":[[-73.9906475,45.3794777],[-73.9906172,45.3794119],[-73.9905941,45.3793617],[-73.9896913,45.3773961],[-73.9887479,45.3753675],[-73.9887244,45.3753169],[-73.9886973,45.375258],[-73.9884057,45.3746229],[-73.9879879,45.3737229],[-73.987956,45.3736573],[-73.9879231,45.3735837]]}";2;Boulevard Cardinal-Léger;2;30;false;false;false;false;false;false;344.5;1;1;2;0;0;false;72317;6133274710;-73.991195;45.380265;72349;6133274381;-73.989814;45.377472;1;6;7;9479770;Bus 35 : Direction Sainte-Anne-de-Bellevue;"";EXO;35 E;Gare Dorion;Terminus Mcdonald
769506199;"{\"type\":\"LineString\",\"coordinates\":[[-73.9879231,45.3735837],[-73.9878893,45.373512]]}";1;Boulevard Cardinal-Léger;2;30;false;false;false;false;false;false;9.0;0;0;0;0;0;false;72334;6133274694;-73.988059;45.373654;72397;6133274346;-73.986202;45.369667;2;9;10;9479770;Bus 35 : Direction Sainte-Anne-de-Bellevue;"";EXO;35 E;Gare Dorion;Terminus Mcdonald
769506183;"{\"type\":\"LineString\",\"coordinates\":[[-73.9878893,45.373512],[-73.9878585,45.3734442],[-73.9875001,45.3726763]]}";2;Boulevard Cardinal-Léger;2;30;false;false;false;false;false;false;98.0;0;0;1;0;0;false;72334;6133274694;-73.988059;45.373654;72397;6133274346;-73.986202;45.369667;0;9;10;9479770;Bus 35 : Direction Sainte-Anne-de-Bellevue;"";EXO;35 E;Gare Dorion;Terminus Mcdonald
179377834;"{\"type\":\"LineString\",\"coordinates\":[[-73.9875001,45.3726763],[-73.9866288,45.3708633]]}";3;Boulevard Cardinal-Léger;2;30;false;false;true;false;false;false;213.0;0;0;0;0;0;false;72334;6133274694;-73.988059;45.373654;72397;6133274346;-73.986202;45.369667;0;9;10;9479770;Bus 35 : Direction Sainte-Anne-de-Bellevue;"";EXO;35 E;Gare Dorion;Terminus Mcdonald
682480344;"{\"type\":\"LineString\",\"coordinates\":[[-73.9866288,45.3708633],[-73.9860798,45.3696214],[-73.9860409,45.3695295],[-73.9855867,45.3685327],[-73.9853036,45.3679177],[-73.9846549,45.3665035],[-73.9846472,45.3664867],[-73.9846147,45.3664159]]}";4;Boulevard Cardinal-Léger;2;50;false;false;false;false;false;false;519.0;0;0;0;0;0;false;72334;6133274694;-73.988059;45.373654;72397;6133274346;-73.986202;45.369667;2;9;10;9479770;Bus 35 : Direction Sainte-Anne-de-Bellevue;"";EXO;35 E;Gare Dorion;Terminus Mcdonald
682480335;"{\"type\":\"LineString\",\"coordinates\":[[-73.9846147,45.3664159],[-73.9845772,45.3663348]]}";1;Boulevard Cardinal-Léger;2;50;false;false;false;false;false;false;10.0;0;0;0;0;0;false;72320;6133274707;-73.984699;45.366431;72285;2186107498;-73.98186;45.367466;2;11;12;9479770;Bus 35 : Direction Sainte-Anne-de-Bellevue;"";EXO;35 E;Gare Dorion;Terminus Mcdonald
42353751;"{\"type\":\"LineString\",\"coordinates\":[[-73.9845772,45.3663348],[-73.9844781,45.3663611],[-73.9844448,45.3663743],[-73.9843842,45.3663983],[-73.9840902,45.3665264],[-73.9839698,45.3665832],[-73.9838579,45.366644],[-73.9835984,45.3668063]]}";2;Boulevard de l'Île;1;50;false;true;false;false;false;false;94.0;0;0;0;0;0;false;72320;6133274707;-73.984699;45.366431;72285;2186107498;-73.98186;45.367466;0;11;12;9479770;Bus 35 : Direction Sainte-Anne-de-Bellevue;"";EXO;35 E;Gare Dorion;Terminus Mcdonald
769435629;"{\"type\":\"LineString\",\"coordinates\":[[-73.9835984,45.3668063],[-73.9834973,45.3668532]]}";3;Boulevard de l'Île;2;50;false;false;false;false;false;false;10.0;0;0;0;0;0;false;72320;6133274707;-73.984699;45.366431;72285;2186107498;-73.98186;45.367466;0;11;12;9479770;Bus 35 : Direction Sainte-Anne-de-Bellevue;"";EXO;35 E;Gare Dorion;Terminus Mcdonald
682480338;"{\"type\":\"LineString\",\"coordinates\":[[-73.9834973,45.3668532],[-73.9833677,45.36691],[-73.9826524,45.3672236],[-73.9825242,45.3672798],[-73.9819407,45.3675374],[-73.9817833,45.3676094]]}";4;Boulevard de l'Île;2;50;false;false;false;false;false;false;159.0;0;0;1;0;0;false;72320;6133274707;-73.984699;45.366431;72285;2186107498;-73.98186;45.367466;2;11;12;9479770;Bus 35 : Direction Sainte-Anne-de-Bellevue;"";EXO;35 E;Gare Dorion;Terminus Mcdonald
179378718;"{\"type\":\"LineString\",\"coordinates\":[[-73.9817833,45.3676094],[-73.9817005,45.3676457],[-73.9808406,45.3680218],[-73.9804368,45.3682021],[-73.9801801,45.3683155],[-73.9800687,45.3683678],[-73.9799862,45.3684099],[-73.9799064,45.3684568],[-73.979852,45.3684918],[-73.9798335,45.3685051]]}";1;Boulevard de l'Île;2;50;false;false;false;false;false;false;183.0;0;0;1;0;0;false;72285;2186107498;-73.98186;45.367466;72370;2186107443;-73.97928;45.369052;2;12;13;9479770;Bus 35 : Direction Sainte-Anne-de-Bellevue;"";EXO;35 E;Gare Dorion;Terminus Mcdonald
772208693;"{\"type\":\"LineString\",\"coordinates\":[[-73.9798335,45.3685051],[-73.9797579,45.3685593]]}";2;Boulevard de l'Île;2;50;false;false;true;false;false;false;9.0;0;0;0;0;0;false;72285;2186107498;-73.98186;45.367466;72370;2186107443;-73.97928;45.369052;0;12;13;9479770;Bus 35 : Direction Sainte-Anne-de-Bellevue;"";EXO;35 E;Gare Dorion;Terminus Mcdonald
208286762;"{\"type\":\"LineString\",\"coordinates\":[[-73.9797579,45.3685593],[-73.979657,45.3686348],[-73.9795799,45.3687054],[-73.9794956,45.3687948],[-73.9794235,45.3688917],[-73.9793675,45.368975],[-73.9793302,45.3690461],[-73.9792735,45.3691698]]}";3;Boulevard de l'Île;2;50;false;false;true;false;false;false;79.0;0;0;1;0;0;false;72285;2186107498;-73.98186;45.367466;72370;2186107443;-73.97928;45.369052;2;12;13;9479770;Bus 35 : Direction Sainte-Anne-de-Bellevue;"";EXO;35 E;Gare Dorion;Terminus Mcdonald
682480336;"{\"type\":\"LineString\",\"coordinates\":[[-73.9792735,45.3691698],[-73.9792303,45.3692797],[-73.9790792,45.3696522],[-73.9787529,45.3704859],[-73.9787033,45.3706135],[-73.9786254,45.3708175]]}";1;Boulevard de l'Île;2;50;false;false;true;false;false;false;190.0;0;0;1;0;0;false;72370;2186107443;-73.97928;45.369052;72321;6133274706;-73.97827;45.373882;2;13;14;9479770;Bus 35 : Direction Sainte-Anne-de-Bellevue;"";EXO;35 E;Gare Dorion;Terminus Mcdonald
208286760;"{\"type\":\"LineString\",\"coordinates\":[[-73.9786254,45.3708175],[-73.9786023,45.3708839],[-73.9785764,45.3709635],[-73.9785576,45.3710342],[-73.9785443,45.3711087],[-73.9785342,45.3711799],[-73.9785283,45.3712702],[-73.9785186,45.3713888],[-73.9785153,45.3714603],[-73.9785124,45.3714962],[-73.9785059,45.3715788],[-73.9784994,45.3716771],[-73.9784933,45.3717703],[-73.9784766,45.3719976],[-73.978409,45.3729967],[-73.9784009,45.3731123],[-73.9783922,45.3732326],[-73.9783419,45.3739361]]}";2;Boulevard de l'Île;2;50;false;false;false;false;false;false;348.0;0;0;0;0;0;false;72370;2186107443;-73.97928;45.369052;72321;6133274706;-73.97827;45.373882;2;13;14;9479770;Bus 35 : Direction Sainte-Anne-de-Bellevue;"";EXO;35 E;Gare Dorion;Terminus Mcdonald
774736183;"{\"type\":\"LineString\",\"coordinates\":[[-73.9731423,45.37839],[-73.9733642,45.3783462],[-73.9735355,45.3783143],[-73.9736562,45.3782908],[-73.9744328,45.3781438],[-73.9745338,45.3781237],[-73.9748247,45.3780709],[-73.9754784,45.3779472],[-73.9757648,45.3778943],[-73.9758693,45.3778746],[-73.9765962,45.3777374],[-73.9766946,45.3777188],[-73.977258,45.3776093],[-73.9776359,45.3775441],[-73.9776803,45.3775378],[-73.9777565,45.3775288],[-73.9778912,45.3775162],[-73.9781306,45.3774986],[-73.9785053,45.3774735],[-73.9786197,45.3774632],[-73.9786884,45.3774571]]}";1;Avenue Forest;2;50;false;false;false;false;false;false;448.0;0;0;0;0;0;false;72362;2186107437;-73.978608;45.377395;72366;2186107472;-73.98296;45.375171;2;15;16;9479770;Bus 35 : Direction Sainte-Anne-de-Bellevue;"";EXO;35 E;Gare Dorion;Terminus Mcdonald
683393900;"{\"type\":\"LineString\",\"coordinates\":[[-73.9783419,45.3739361],[-73.9783018,45.3745199],[-73.9782831,45.3746316],[-73.9782647,45.3747475],[-73.9782314,45.3751391],[-73.9782291,45.3752232],[-73.9782282,45.375384],[-73.9782399,45.3755664],[-73.9782507,45.3756722],[-73.9782707,45.3757938],[-73.9783103,45.3759828],[-73.9783858,45.3762728],[-73.9785373,45.3768791],[-73.9786679,45.3773813],[-73.9786747,45.3774063],[-73.9786884,45.3774571]]}";2;Boulevard de l'Île;2;50;false;false;false;false;false;false;395.0;0;0;1;0;0;false;72362;2186107437;-73.978608;45.377395;72366;2186107472;-73.98296;45.375171;0;15;16;9479770;Bus 35 : Direction Sainte-Anne-de-Bellevue;"";EXO;35 E;Gare Dorion;Terminus Mcdonald
683393897;"{\"type\":\"LineString\",\"coordinates\":[[-73.9786884,45.3774571],[-73.9787806,45.3774472],[-73.9788937,45.3774309],[-73.9790228,45.3774084],[-73.9791151,45.3773895],[-73.9792164,45.3773648],[-73.9793041,45.3773405],[-73.9794131,45.3773023],[-73.9794941,45.3772707],[-73.9795656,45.3772397],[-73.979633,45.3772038],[-73.9797005,45.3771635],[-73.9797642,45.3771259],[-73.9798441,45.3770759],[-73.9801084,45.3769038],[-73.9803145,45.37677],[-73.9805272,45.37663],[-73.9807818,45.3764633],[-73.9808829,45.3763969],[-73.9810946,45.3762588],[-73.9812672,45.3761457],[-73.9814424,45.3760304]]}";3;Avenue Forest;2;50;false;false;false;false;false;false;273.0;0;0;0;0;0;false;72362;2186107437;-73.978608;45.377395;72366;2186107472;-73.98296;45.375171;0;15;16;9479770;Bus 35 : Direction Sainte-Anne-de-Bellevue;"";EXO;35 E;Gare Dorion;Terminus Mcdonald
683393896;"{\"type\":\"LineString\",\"coordinates\":[[-73.9814424,45.3760304],[-73.9819428,45.3757101],[-73.9820731,45.3756259],[-73.9821862,45.3755541],[-73.9823139,45.3754758],[-73.9824452,45.3753981],[-73.982569,45.3753276],[-73.9826863,45.3752601],[-73.9828359,45.375179],[-73.9829918,45.3750974]]}";4;Avenue Forest;2;50;false;false;false;false;false;false;160.0;0;0;1;0;0;false;72362;2186107437;-73.978608;45.377395;72366;2186107472;-73.98296;45.375171;2;15;16;9479770;Bus 35 : Direction Sainte-Anne-de-Bellevue;"";EXO;35 E;Gare Dorion;Terminus Mcdonald
683402667;"{\"type\":\"LineString\",\"coordinates\":[[-73.9788132,45.3808526],[-73.9789478,45.3803773]]}";1;Boulevard de l'Île;2;50;false;false;false;false;false;false;54.0;0;0;0;0;0;false;72385;6133274358;-73.97894;45.380828;72364;2186107579;-73.978771;45.377537;2;20;21;9479770;Bus 35 : Direction Sainte-Anne-de-Bellevue;"";EXO;35 E;Gare Dorion;Terminus Mcdonald
683393886;"{\"type\":\"LineString\",\"coordinates\":[[-73.9789478,45.3803773],[-73.9790492,45.3799938],[-73.9790891,45.3798491],[-73.9791158,45.379729],[-73.9791353,45.3796313],[-73.9791464,45.3795365],[-73.9791546,45.3794405],[-73.9791563,45.3793317],[-73.9791495,45.3792181],[-73.9791376,45.3791132],[-73.9791146,45.3789875],[-73.9790096,45.3785918],[-73.9789745,45.378468],[-73.9787061,45.3775216],[-73.9786884,45.3774571]]}";2;Boulevard de l'Île;2;50;false;false;false;false;false;false;330.0;0;0;0;0;0;false;72385;6133274358;-73.97894;45.380828;72364;2186107579;-73.978771;45.377537;2;20;21;9479770;Bus 35 : Direction Sainte-Anne-de-Bellevue;"";EXO;35 E;Gare Dorion;Terminus Mcdonald
683393897;"{\"type\":\"LineString\",\"coordinates\":[[-73.9786884,45.3774571],[-73.9787806,45.3774472],[-73.9788937,45.3774309],[-73.9790228,45.3774084],[-73.9791151,45.3773895],[-73.9792164,45.3773648],[-73.9793041,45.3773405],[-73.9794131,45.3773023],[-73.9794941,45.3772707],[-73.9795656,45.3772397],[-73.979633,45.3772038],[-73.9797005,45.3771635],[-73.9797642,45.3771259],[-73.9798441,45.3770759],[-73.9801084,45.3769038],[-73.9803145,45.37677],[-73.9805272,45.37663],[-73.9807818,45.3764633],[-73.9808829,45.3763969],[-73.9810946,45.3762588],[-73.9812672,45.3761457],[-73.9814424,45.3760304]]}";1;Avenue Forest;2;50;false;false;false;false;false;false;273.0;0;0;0;0;0;false;72364;2186107579;-73.978771;45.377537;72294;6133274731;-73.975877;45.377814;2;21;22;9479770;Bus 35 : Direction Sainte-Anne-de-Bellevue;"";EXO;35 E;Gare Dorion;Terminus Mcdonald
683393900;"{\"type\":\"LineString\",\"coordinates\":[[-73.9783419,45.3739361],[-73.9783018,45.3745199],[-73.9782831,45.3746316],[-73.9782647,45.3747475],[-73.9782314,45.3751391],[-73.9782291,45.3752232],[-73.9782282,45.375384],[-73.9782399,45.3755664],[-73.9782507,45.3756722],[-73.9782707,45.3757938],[-73.9783103,45.3759828],[-73.9783858,45.3762728],[-73.9785373,45.3768791],[-73.9786679,45.3773813],[-73.9786747,45.3774063],[-73.9786884,45.3774571]]}";2;Boulevard de l'Île;2;50;false;false;false;false;false;false;395.0;0;0;1;0;0;false;72364;2186107579;-73.978771;45.377537;72294;6133274731;-73.975877;45.377814;0;21;22;9479770;Bus 35 : Direction Sainte-Anne-de-Bellevue;"";EXO;35 E;Gare Dorion;Terminus Mcdonald
774736183;"{\"type\":\"LineString\",\"coordinates\":[[-73.9731423,45.37839],[-73.9733642,45.3783462],[-73.9735355,45.3783143],[-73.9736562,45.3782908],[-73.9744328,45.3781438],[-73.9745338,45.3781237],[-73.9748247,45.3780709],[-73.9754784,45.3779472],[-73.9757648,45.3778943],[-73.9758693,45.3778746],[-73.9765962,45.3777374],[-73.9766946,45.3777188],[-73.977258,45.3776093],[-73.9776359,45.3775441],[-73.9776803,45.3775378],[-73.9777565,45.3775288],[-73.9778912,45.3775162],[-73.9781306,45.3774986],[-73.9785053,45.3774735],[-73.9786197,45.3774632],[-73.9786884,45.3774571]]}";3;Avenue Forest;2;50;false;false;false;false;false;false;448.0;0;0;0;0;0;false;72364;2186107579;-73.978771;45.377537;72294;6133274731;-73.975877;45.377814;2;21;22;9479770;Bus 35 : Direction Sainte-Anne-de-Bellevue;"";EXO;35 E;Gare Dorion;Terminus Mcdonald
774736183;"{\"type\":\"LineString\",\"coordinates\":[[-73.9731423,45.37839],[-73.9733642,45.3783462],[-73.9735355,45.3783143],[-73.9736562,45.3782908],[-73.9744328,45.3781438],[-73.9745338,45.3781237],[-73.9748247,45.3780709],[-73.9754784,45.3779472],[-73.9757648,45.3778943],[-73.9758693,45.3778746],[-73.9765962,45.3777374],[-73.9766946,45.3777188],[-73.977258,45.3776093],[-73.9776359,45.3775441],[-73.9776803,45.3775378],[-73.9777565,45.3775288],[-73.9778912,45.3775162],[-73.9781306,45.3774986],[-73.9785053,45.3774735],[-73.9786197,45.3774632],[-73.9786884,45.3774571]]}";1;Avenue Forest;2;50;false;false;false;false;false;false;224.0;0;0;0;0;0;false;72378;6133274365;-73.973657;45.378243;72382;6133274361;-73.970524;45.378862;1;23;24;9479770;Bus 35 : Direction Sainte-Anne-de-Bellevue;"";EXO;35 E;Gare Dorion;Terminus Mcdonald
42294473;"{\"type\":\"LineString\",\"coordinates\":[[-73.9654869,45.381174],[-73.9655684,45.3811576],[-73.966449,45.380992],[-73.9666888,45.3809477],[-73.9667671,45.380933],[-73.9672366,45.3808447],[-73.967419,45.3808042],[-73.9675409,45.3807737],[-73.9677713,45.3807018],[-73.9678417,45.3806744],[-73.9679027,45.3806507],[-73.9680278,45.3805998],[-73.9681779,45.3805358],[-73.9683262,45.380465],[-73.9684593,45.3803928],[-73.9685437,45.3803451],[-73.9686129,45.3803021],[-73.9686268,45.3802934],[-73.9687326,45.3802242],[-73.9689199,45.3800885],[-73.9690835,45.3799671],[-73.969207,45.3798738],[-73.9693003,45.3798041],[-73.9693586,45.3797606],[-73.9696362,45.3795521],[-73.9700227,45.3792767],[-73.9701018,45.3792259],[-73.9702123,45.3791549],[-73.9703564,45.3790783],[-73.9705009,45.3790088],[-73.9706142,45.3789615],[-73.9707304,45.3789148],[-73.9708694,45.3788695],[-73.9709575,45.3788436],[-73.9710426,45.378819],[-73.9711589,45.3787914],[-73.9712827,45.3787628],[-73.9714056,45.3787352],[-73.9715982,45.3786963],[-73.9717157,45.3786734],[-73.9718766,45.378642],[-73.972582,45.3785032],[-73.9726771,45.3784848],[-73.9728521,45.3784488],[-73.9729391,45.3784308],[-73.9731423,45.37839]]}";2;Avenue Forest;2;50;false;false;true;false;false;false;346.0;0;8;0;0;0;false;72378;6133274365;-73.973657;45.378243;72382;6133274361;-73.970524;45.378862;1;23;24;9479770;Bus 35 : Direction Sainte-Anne-de-Bellevue;"";EXO;35 E;Gare Dorion;Terminus Mcdonald
769425229;"{\"type\":\"LineString\",\"coordinates\":[[-73.966125,45.3828593],[-73.9661045,45.3828015],[-73.9660046,45.3825401],[-73.9658795,45.3822035],[-73.9658554,45.3821387],[-73.9657887,45.381962],[-73.9656861,45.3816902],[-73.9655821,45.3814147],[-73.9655654,45.3813723],[-73.9655271,45.3812751],[-73.9655106,45.3812334],[-73.9654869,45.381174]]}";1;Boulevard Pincourt;2;50;false;false;false;false;false;false;97.0;0;0;1;0;0;false;72291;6133274734;-73.965758;45.382072;72288;6133274737;-73.971517;45.386183;1;27;28;9479770;Bus 35 : Direction Sainte-Anne-de-Bellevue;"";EXO;35 E;Gare Dorion;Terminus Mcdonald
772239251;"{\"type\":\"LineString\",\"coordinates\":[[-73.9662689,45.3831055],[-73.9662522,45.3830833],[-73.9662081,45.3830187],[-73.96616,45.3829368],[-73.9661429,45.3829001],[-73.966125,45.3828593]]}";2;Boulevard Pincourt;2;50;false;false;false;false;false;false;30.0;0;0;0;0;0;false;72291;6133274734;-73.965758;45.382072;72288;6133274737;-73.971517;45.386183;0;27;28;9479770;Bus 35 : Direction Sainte-Anne-de-Bellevue;"";EXO;35 E;Gare Dorion;Terminus Mcdonald
772239249;"{\"type\":\"LineString\",\"coordinates\":[[-73.9681443,45.3842141],[-73.9681008,45.3841907],[-73.966698,45.3834362],[-73.9665487,45.3833507],[-73.966464,45.3832978],[-73.9663839,45.3832328],[-73.9663421,45.3831913],[-73.966298,45.3831414],[-73.9662689,45.3831055]]}";3;Boulevard Pincourt;2;50;false;false;true;false;false;false;193.0;0;0;0;0;0;false;72291;6133274734;-73.965758;45.382072;72288;6133274737;-73.971517;45.386183;0;27;28;9479770;Bus 35 : Direction Sainte-Anne-de-Bellevue;"";EXO;35 E;Gare Dorion;Terminus Mcdonald
110165912;"{\"type\":\"LineString\",\"coordinates\":[[-73.969002,45.3846752],[-73.9681443,45.3842141]]}";4;Boulevard Pincourt;2;50;false;false;true;false;false;false;85.0;0;0;0;0;0;false;72291;6133274734;-73.965758;45.382072;72288;6133274737;-73.971517;45.386183;0;27;28;9479770;Bus 35 : Direction Sainte-Anne-de-Bellevue;"";EXO;35 E;Gare Dorion;Terminus Mcdonald
110165913;"{\"type\":\"LineString\",\"coordinates\":[[-73.969002,45.3846752],[-73.9693412,45.3849023],[-73.9696125,45.3850538],[-73.9703865,45.3854701],[-73.9708229,45.3857067],[-73.9708989,45.3857478],[-73.9713316,45.3859823],[-73.9714283,45.3860351],[-73.9714973,45.3860721],[-73.9715492,45.3861003],[-73.9715783,45.3861173],[-73.9716417,45.3861544],[-73.9717056,45.3861956],[-73.9717251,45.3862082],[-73.9718405,45.386292]]}";5;Boulevard Pincourt;2;30;false;true;true;false;false;false;143.0;0;3;0;0;0;false;72291;6133274734;-73.965758;45.382072;72288;6133274737;-73.971517;45.386183;1;27;28;9479770;Bus 35 : Direction Sainte-Anne-de-Bellevue;"";EXO;35 E;Gare Dorion;Terminus Mcdonald
110165913;"{\"type\":\"LineString\",\"coordinates\":[[-73.969002,45.3846752],[-73.9693412,45.3849023],[-73.9696125,45.3850538],[-73.9703865,45.3854701],[-73.9708229,45.3857067],[-73.9708989,45.3857478],[-73.9713316,45.3859823],[-73.9714283,45.3860351],[-73.9714973,45.3860721],[-73.9715492,45.3861003],[-73.9715783,45.3861173],[-73.9716417,45.3861544],[-73.9717056,45.3861956],[-73.9717251,45.3862082],[-73.9718405,45.386292]]}";1;Boulevard Pincourt;2;30;false;true;true;false;false;false;143.0;0;3;0;0;0;false;72288;6133274737;-73.971517;45.386183;72101;6133275223;-73.967885;45.387597;1;28;29;9479770;Bus 35 : Direction Sainte-Anne-de-Bellevue;"";EXO;35 E;Gare Dorion;Terminus Mcdonald
110165915;"{\"type\":\"LineString\",\"coordinates\":[[-73.9718405,45.386292],[-73.9718697,45.3863477],[-73.9718919,45.386399],[-73.9719068,45.3864427],[-73.9719143,45.3864794],[-73.9719071,45.3865171],[-73.9718905,45.3865545],[-73.9718817,45.3865675]]}";2;Boulevard Pincourt;1;30;false;true;true;false;false;false;32.0;0;1;0;0;0;false;72288;6133274737;-73.971517;45.386183;72101;6133275223;-73.967885;45.387597;0;28;29;9479770;Bus 35 : Direction Sainte-Anne-de-Bellevue;"";EXO;35 E;Gare Dorion;Terminus Mcdonald
778422987;"{\"type\":\"LineString\",\"coordinates\":[[-73.9718817,45.3865675],[-73.9718601,45.38659],[-73.971818,45.3866245],[-73.9717711,45.3866529],[-73.9717259,45.3866742],[-73.9716744,45.3866937],[-73.9715341,45.3867389]]}";3;Boulevard Pincourt;1;30;false;true;true;false;false;false;34.0;0;1;0;0;0;false;72288;6133274737;-73.971517;45.386183;72101;6133275223;-73.967885;45.387597;0;28;29;9479770;Bus 35 : Direction Sainte-Anne-de-Bellevue;"";EXO;35 E;Gare Dorion;Terminus Mcdonald
473599643;"{\"type\":\"LineString\",\"coordinates\":[[-73.9715341,45.3867389],[-73.9707087,45.3869346],[-73.9706499,45.3869496],[-73.97027,45.3870413],[-73.9699116,45.3871279],[-73.9697865,45.387158],[-73.9695958,45.3872023]]}";4;5e Avenue;2;50;false;false;false;false;false;false;161.0;0;0;0;0;0;false;72288;6133274737;-73.971517;45.386183;72101;6133275223;-73.967885;45.387597;0;28;29;9479770;Bus 35 : Direction Sainte-Anne-de-Bellevue;"";EXO;35 E;Gare Dorion;Terminus Mcdonald
683964247;"{\"type\":\"LineString\",\"coordinates\":[[-73.9695958,45.3872023],[-73.9693394,45.3872635],[-73.9691844,45.3873006],[-73.9690995,45.3873209]]}";5;Grand Boulevard;2;50;false;false;false;false;false;false;42.0;0;1;0;0;0;false;72288;6133274737;-73.971517;45.386183;72101;6133275223;-73.967885;45.387597;0;28;29;9479770;Bus 35 : Direction Sainte-Anne-de-Bellevue;"";EXO;35 E;Gare Dorion;Terminus Mcdonald
746176282;"{\"type\":\"LineString\",\"coordinates\":[[-73.9690995,45.3873209],[-73.9687506,45.3874071]]}";6;Grand Boulevard;2;50;false;false;false;false;false;false;29.0;0;0;0;0;0;false;72288;6133274737;-73.971517;45.386183;72101;6133275223;-73.967885;45.387597;0;28;29;9479770;Bus 35 : Direction Sainte-Anne-de-Bellevue;"";EXO;35 E;Gare Dorion;Terminus Mcdonald
683964246;"{\"type\":\"LineString\",\"coordinates\":[[-73.9687506,45.3874071],[-73.9686618,45.3874289],[-73.9686101,45.3874416],[-73.968539,45.387459],[-73.9677689,45.3876474]]}";7;Grand Boulevard;2;30;false;false;false;false;false;false;41.0;0;1;0;0;0;false;72288;6133274737;-73.971517;45.386183;72101;6133275223;-73.967885;45.387597;1;28;29;9479770;Bus 35 : Direction Sainte-Anne-de-Bellevue;"";EXO;35 E;Gare Dorion;Terminus Mcdonald
113242157;"{\"type\":\"LineString\",\"coordinates\":[[-73.9677689,45.3876474],[-73.9676104,45.3876895],[-73.9671543,45.387804],[-73.9670745,45.3878239],[-73.9669249,45.3878601]]}";1;Grand Boulevard;3;30;false;false;false;false;false;false;71.0;0;1;0;0;0;false;72101;6133275223;-73.967885;45.387597;72042;1460579653;-73.963292;45.38976;2;29;30;9479770;Bus 35 : Direction Sainte-Anne-de-Bellevue;"";EXO;35 E;Gare Dorion;Terminus Mcdonald
771362654;"{\"type\":\"LineString\",\"coordinates\":[[-73.9669249,45.3878601],[-73.9668971,45.3878666],[-73.9668586,45.3878756],[-73.9667784,45.3878951],[-73.966407,45.3879857],[-73.9663445,45.388001],[-73.9662538,45.3880231],[-73.9659811,45.3880917],[-73.9659399,45.3881021],[-73.9655925,45.3881895],[-73.9654944,45.3882175],[-73.9654757,45.3882234],[-73.9654465,45.3882327],[-73.9653939,45.3882495],[-73.9653013,45.3882876],[-73.9652097,45.3883252],[-73.9651381,45.3883579],[-73.9650812,45.3883877],[-73.9650107,45.3884323],[-73.9649454,45.3884788],[-73.9649002,45.3885149],[-73.9648647,45.3885437],[-73.964797,45.3885987],[-73.9646433,45.3887349],[-73.9646186,45.3887566],[-73.9645071,45.388855]]}";2;Grand Boulevard;3;30;false;false;false;false;false;false;226.0;0;4;0;0;0;false;72101;6133275223;-73.967885;45.387597;72042;1460579653;-73.963292;45.38976;0;29;30;9479770;Bus 35 : Direction Sainte-Anne-de-Bellevue;"";EXO;35 E;Gare Dorion;Terminus Mcdonald
771364550;"{\"type\":\"LineString\",\"coordinates\":[[-73.9645071,45.388855],[-73.9644563,45.3888998],[-73.964417,45.3889345],[-73.9642783,45.3890575],[-73.9641716,45.389153],[-73.9641629,45.3891609],[-73.9640887,45.3892174]]}";3;Grand Boulevard;4;30;false;false;false;false;false;false;52.0;1;1;0;0;0;false;72101;6133275223;-73.967885;45.387597;72042;1460579653;-73.963292;45.38976;0;29;30;9479770;Bus 35 : Direction Sainte-Anne-de-Bellevue;"";EXO;35 E;Gare Dorion;Terminus Mcdonald
683964248;"{\"type\":\"LineString\",\"coordinates\":[[-73.9640887,45.3892174],[-73.9639188,45.3893407]]}";4;Grand Boulevard;2;50;false;false;false;false;false;false;20.0;0;0;0;0;0;false;72101;6133275223;-73.967885;45.387597;72042;1460579653;-73.963292;45.38976;0;29;30;9479770;Bus 35 : Direction Sainte-Anne-de-Bellevue;"";EXO;35 E;Gare Dorion;Terminus Mcdonald
455054803;"{\"type\":\"LineString\",\"coordinates\":[[-73.9639188,45.3893407],[-73.963866,45.3893844],[-73.9638127,45.3894285],[-73.9636571,45.3895572]]}";5;Grand Boulevard;2;50;false;false;false;false;false;false;32.0;1;1;0;0;0;false;72101;6133275223;-73.967885;45.387597;72042;1460579653;-73.963292;45.38976;0;29;30;9479770;Bus 35 : Direction Sainte-Anne-de-Bellevue;"";EXO;35 E;Gare Dorion;Terminus Mcdonald
455054804;"{\"type\":\"LineString\",\"coordinates\":[[-73.9636571,45.3895572],[-73.9635958,45.3896097],[-73.9635504,45.3896506],[-73.9634657,45.389724],[-73.9633912,45.3897871],[-73.9632828,45.38988],[-73.9631623,45.3899831],[-73.9630621,45.390069],[-73.962877,45.3902275],[-73.962776,45.3903159],[-73.9626642,45.3904139],[-73.9624777,45.3905713],[-73.9623083,45.3907142],[-73.9621138,45.3908837],[-73.9620816,45.3909118],[-73.9619235,45.3910496],[-73.9618468,45.3911165],[-73.9617755,45.3911786],[-73.9616902,45.3912526],[-73.9615073,45.3914111],[-73.9613152,45.3915777],[-73.9610574,45.3918012],[-73.961045,45.3918119],[-73.9610327,45.3918225],[-73.9609828,45.3918659],[-73.9609286,45.3919128]]}";6;Grand Boulevard;2;50;false;false;false;false;false;false;338.0;0;3;1;0;0;false;72101;6133275223;-73.967885;45.387597;72042;1460579653;-73.963292;45.38976;2;29;30;9479770;Bus 35 : Direction Sainte-Anne-de-Bellevue;"";EXO;35 E;Gare Dorion;Terminus Mcdonald
778719216;"{\"type\":\"LineString\",\"coordinates\":[[-73.95941,45.3932355],[-73.9593591,45.3932883],[-73.9593376,45.3933072],[-73.9592645,45.3933711],[-73.9592063,45.393422],[-73.9591686,45.3934547],[-73.9590422,45.3935644],[-73.9589691,45.3936278],[-73.9588283,45.3937523],[-73.9585832,45.393967],[-73.9584737,45.394061],[-73.958208,45.3942892],[-73.9581283,45.3943604],[-73.957998,45.3944767],[-73.9579832,45.3944913],[-73.9579719,45.3945023],[-73.9579449,45.3945311],[-73.9579164,45.3945621],[-73.9578743,45.3946188]]}";1;Grand Boulevard;2;30;false;false;false;false;false;false;196.0;1;1;1;0;0;false;72066;1460617142;-73.95946;45.393165;72070;6133275254;-73.957789;45.396158;2;32;33;9479770;Bus 35 : Direction Sainte-Anne-de-Bellevue;"";EXO;35 E;Gare Dorion;Terminus Mcdonald
683968389;"{\"type\":\"LineString\",\"coordinates\":[[-73.9576774,45.3955072],[-73.9576859,45.3954263],[-73.9576929,45.3953596],[-73.9577135,45.3951974],[-73.9577464,45.3950264],[-73.9577918,45.3948276],[-73.9578073,45.3947753],[-73.9578424,45.3946789],[-73.9578743,45.3946188]]}";2;Grand Boulevard;2;50;false;false;false;false;false;false;101.0;1;1;0;0;0;false;72066;1460617142;-73.95946;45.393165;72070;6133275254;-73.957789;45.396158;0;32;33;9479770;Bus 35 : Direction Sainte-Anne-de-Bellevue;"";EXO;35 E;Gare Dorion;Terminus Mcdonald
778423747;"{\"type\":\"LineString\",\"coordinates\":[[-73.958318,45.3967405],[-73.9582759,45.3966878],[-73.9581168,45.3964849],[-73.9580266,45.3963698],[-73.9578874,45.3961923],[-73.9578529,45.3961436],[-73.9577524,45.3959877],[-73.9577059,45.3958607],[-73.9577032,45.3958463],[-73.957687,45.3957582],[-73.9576828,45.3957148],[-73.9576744,45.3956273],[-73.9576725,45.3955832],[-73.9576774,45.3955072]]}";3;Grand Boulevard;2;50;false;false;false;false;false;false;149.0;0;3;0;0;0;false;72066;1460617142;-73.95946;45.393165;72070;6133275254;-73.957789;45.396158;2;32;33;9479770;Bus 35 : Direction Sainte-Anne-de-Bellevue;"";EXO;35 E;Gare Dorion;Terminus Mcdonald
778423747;"{\"type\":\"LineString\",\"coordinates\":[[-73.958318,45.3967405],[-73.9582759,45.3966878],[-73.9581168,45.3964849],[-73.9580266,45.3963698],[-73.9578874,45.3961923],[-73.9578529,45.3961436],[-73.9577524,45.3959877],[-73.9577059,45.3958607],[-73.9577032,45.3958463],[-73.957687,45.3957582],[-73.9576828,45.3957148],[-73.9576744,45.3956273],[-73.9576725,45.3955832],[-73.9576774,45.3955072]]}";1;Grand Boulevard;2;50;false;false;false;false;false;false;74.5;0;3;0;0;0;false;72070;6133275254;-73.957789;45.396158;72450;6133274301;-73.950817;45.40579;1;33;34;9479770;Bus 35 : Direction Sainte-Anne-de-Bellevue;"";EXO;35 E;Gare Dorion;Terminus Mcdonald
771655174;"{\"type\":\"LineString\",\"coordinates\":[[-73.9586853,45.3972182],[-73.9586304,45.3971468],[-73.9585702,45.3970685],[-73.95841,45.3968602],[-73.958318,45.3967405]]}";2;Grand Boulevard;2;50;false;false;false;false;false;false;61.0;0;1;0;0;0;false;72070;6133275254;-73.957789;45.396158;72450;6133274301;-73.950817;45.40579;0;33;34;9479770;Bus 35 : Direction Sainte-Anne-de-Bellevue;"";EXO;35 E;Gare Dorion;Terminus Mcdonald
110412015;"{\"type\":\"LineString\",\"coordinates\":[[-73.9592051,45.3978942],[-73.9589296,45.3975359],[-73.9588369,45.3974153],[-73.9587237,45.397268],[-73.9586853,45.3972182]]}";3;Grand Boulevard;2;50;false;false;false;false;false;false;86.0;0;1;0;0;0;false;72070;6133275254;-73.957789;45.396158;72450;6133274301;-73.950817;45.40579;0;33;34;9479770;Bus 35 : Direction Sainte-Anne-de-Bellevue;"";EXO;35 E;Gare Dorion;Terminus Mcdonald
108479383;"{\"type\":\"LineString\",\"coordinates\":[[-73.9593361,45.3980645],[-73.9592497,45.3979522],[-73.9592051,45.3978942]]}";4;Grand Boulevard;2;50;false;false;false;false;false;false;22.0;0;1;0;0;0;false;72070;6133275254;-73.957789;45.396158;72450;6133274301;-73.950817;45.40579;0;33;34;9479770;Bus 35 : Direction Sainte-Anne-de-Bellevue;"";EXO;35 E;Gare Dorion;Terminus Mcdonald
110165910;"{\"type\":\"LineString\",\"coordinates\":[[-73.9593361,45.3980645],[-73.9594129,45.398217],[-73.9594387,45.3982626],[-73.9594595,45.3982994],[-73.9595322,45.3984289],[-73.9595498,45.3984642],[-73.9595622,45.3985013],[-73.9595699,45.3985513],[-73.959571,45.398604],[-73.9595691,45.3986257]]}";5;"";1;65;false;true;false;false;false;false;66.0;0;0;0;0;0;false;72070;6133275254;-73.957789;45.396158;72450;6133274301;-73.950817;45.40579;0;33;34;9479770;Bus 35 : Direction Sainte-Anne-de-Bellevue;"";EXO;35 E;Gare Dorion;Terminus Mcdonald
770548037;"{\"type\":\"LineString\",\"coordinates\":[[-73.9595691,45.3986257],[-73.9595614,45.3986676],[-73.959552,45.3987044],[-73.9595216,45.3987643],[-73.959257,45.3991511]]}";6;"";1;65;false;true;false;false;false;false;64.0;0;0;0;0;0;false;72070;6133275254;-73.957789;45.396158;72450;6133274301;-73.950817;45.40579;0;33;34;9479770;Bus 35 : Direction Sainte-Anne-de-Bellevue;"";EXO;35 E;Gare Dorion;Terminus Mcdonald
110348651;"{\"type\":\"LineString\",\"coordinates\":[[-73.959257,45.3991511],[-73.9588074,45.3996696]]}";7;Autoroute du Souvenir;3;70;false;true;true;false;false;false;68.0;0;0;0;0;0;false;72070;6133275254;-73.957789;45.396158;72450;6133274301;-73.950817;45.40579;0;33;34;9479770;Bus 35 : Direction Sainte-Anne-de-Bellevue;"";EXO;35 E;Gare Dorion;Terminus Mcdonald
110348655;"{\"type\":\"LineString\",\"coordinates\":[[-73.9588074,45.3996696],[-73.9585301,45.399975]]}";8;Autoroute du Souvenir;3;70;false;true;true;false;false;false;41.0;0;0;0;0;0;false;72070;6133275254;-73.957789;45.396158;72450;6133274301;-73.950817;45.40579;0;33;34;9479770;Bus 35 : Direction Sainte-Anne-de-Bellevue;"";EXO;35 E;Gare Dorion;Terminus Mcdonald
440100863;"{\"type\":\"LineString\",\"coordinates\":[[-73.9585301,45.399975],[-73.9577582,45.4008088],[-73.957532,45.4010581],[-73.9573993,45.4012029]]}";9;Autoroute du Souvenir;3;70;false;true;true;false;false;false;163.0;0;0;0;0;0;false;72070;6133275254;-73.957789;45.396158;72450;6133274301;-73.950817;45.40579;0;33;34;9479770;Bus 35 : Direction Sainte-Anne-de-Bellevue;"";EXO;35 E;Gare Dorion;Terminus Mcdonald
19616012;"{\"type\":\"LineString\",\"coordinates\":[[-73.9573993,45.4012029],[-73.9547964,45.4042141]]}";10;Autoroute du Souvenir;3;70;false;true;true;false;false;false;392.0;0;0;0;0;0;false;72070;6133275254;-73.957789;45.396158;72450;6133274301;-73.950817;45.40579;0;33;34;9479770;Bus 35 : Direction Sainte-Anne-de-Bellevue;"";EXO;35 E;Gare Dorion;Terminus Mcdonald
770514602;"{\"type\":\"LineString\",\"coordinates\":[[-73.9547964,45.4042141],[-73.9546864,45.4043413]]}";11;Autoroute du Souvenir;2;70;false;true;true;false;false;false;17.0;0;0;0;0;0;false;72070;6133275254;-73.957789;45.396158;72450;6133274301;-73.950817;45.40579;0;33;34;9479770;Bus 35 : Direction Sainte-Anne-de-Bellevue;"";EXO;35 E;Gare Dorion;Terminus Mcdonald
770514603;"{\"type\":\"LineString\",\"coordinates\":[[-73.9546864,45.4043413],[-73.9541782,45.4049282]]}";12;Autoroute du Souvenir;2;70;false;true;true;false;false;false;77.0;0;0;0;0;0;false;72070;6133275254;-73.957789;45.396158;72450;6133274301;-73.950817;45.40579;0;33;34;9479770;Bus 35 : Direction Sainte-Anne-de-Bellevue;"";EXO;35 E;Gare Dorion;Terminus Mcdonald
21896632;"{\"type\":\"LineString\",\"coordinates\":[[-73.9541782,45.4049282],[-73.9535907,45.4053093],[-73.9528545,45.4057785],[-73.9523702,45.4061106],[-73.95186,45.4063931],[-73.9514664,45.4065841],[-73.9510869,45.4067557]]}";13;"";1;50;false;true;true;false;false;false;317.0;1;0;0;0;0;false;72070;6133275254;-73.957789;45.396158;72450;6133274301;-73.950817;45.40579;0;33;34;9479770;Bus 35 : Direction Sainte-Anne-de-Bellevue;"";EXO;35 E;Gare Dorion;Terminus Mcdonald
47460002;"{\"type\":\"LineString\",\"coordinates\":[[-73.9510869,45.4067557],[-73.951005,45.4064998],[-73.9509039,45.4063817]]}";14;Boulevard des Anciens-Combattants;2;50;false;true;true;false;false;false;45.0;1;0;0;0;0;false;72070;6133275254;-73.957789;45.396158;72450;6133274301;-73.950817;45.40579;0;33;34;9479770;Bus 35 : Direction Sainte-Anne-de-Bellevue;"";EXO;35 E;Gare Dorion;Terminus Mcdonald
21892523;"{\"type\":\"LineString\",\"coordinates\":[[-73.9509039,45.4063817],[-73.9508719,45.4062515],[-73.9507796,45.4058409],[-73.9507379,45.4056655],[-73.9507053,45.4055323],[-73.9506893,45.4054609]]}";15;Rue Saint-Pierre;1;50;false;true;true;false;false;false;52.0;0;0;0;0;0;false;72070;6133275254;-73.957789;45.396158;72450;6133274301;-73.950817;45.40579;1;33;34;9479770;Bus 35 : Direction Sainte-Anne-de-Bellevue;"";EXO;35 E;Gare Dorion;Terminus Mcdonald
21892523;"{\"type\":\"LineString\",\"coordinates\":[[-73.9509039,45.4063817],[-73.9508719,45.4062515],[-73.9507796,45.4058409],[-73.9507379,45.4056655],[-73.9507053,45.4055323],[-73.9506893,45.4054609]]}";1;Rue Saint-Pierre;1;50;false;true;true;false;false;false;52.0;0;0;0;0;0;false;72450;6133274301;-73.950817;45.40579;72447;6133274304;-73.949646;45.403054;1;34;35;9479770;Bus 35 : Direction Sainte-Anne-de-Bellevue;"";EXO;35 E;Gare Dorion;Terminus Mcdonald
21892522;"{\"type\":\"LineString\",\"coordinates\":[[-73.9506893,45.4054609],[-73.9505948,45.4050167],[-73.9505777,45.4049579],[-73.9504911,45.4044317],[-73.9504239,45.4037948],[-73.9504069,45.4036339],[-73.9503669,45.4032544]]}";2;Rue Saint-Pierre;1;50;false;true;true;false;false;false;247.0;0;0;0;0;0;false;72450;6133274301;-73.950817;45.40579;72447;6133274304;-73.949646;45.403054;0;34;35;9479770;Bus 35 : Direction Sainte-Anne-de-Bellevue;"";EXO;35 E;Gare Dorion;Terminus Mcdonald
106665038;"{\"type\":\"LineString\",\"coordinates\":[[-73.9445332,45.4027051],[-73.9450798,45.4026533],[-73.9458511,45.4026825],[-73.9465593,45.402717],[-73.9466304,45.4027164],[-73.9470194,45.4026908],[-73.9475878,45.4027103],[-73.9477027,45.4027214],[-73.94832,45.4028113],[-73.9483825,45.4028232],[-73.9485376,45.4028518],[-73.9497379,45.403117],[-73.9503669,45.4032544]]}";3;Rue Sainte-Anne;2;50;false;false;true;false;false;false;233.0;0;0;0;0;0;false;72450;6133274301;-73.950817;45.40579;72447;6133274304;-73.949646;45.403054;1;34;35;9479770;Bus 35 : Direction Sainte-Anne-de-Bellevue;"";EXO;35 E;Gare Dorion;Terminus Mcdonald
106665038;"{\"type\":\"LineString\",\"coordinates\":[[-73.9445332,45.4027051],[-73.9450798,45.4026533],[-73.9458511,45.4026825],[-73.9465593,45.402717],[-73.9466304,45.4027164],[-73.9470194,45.4026908],[-73.9475878,45.4027103],[-73.9477027,45.4027214],[-73.94832,45.4028113],[-73.9483825,45.4028232],[-73.9485376,45.4028518],[-73.9497379,45.403117],[-73.9503669,45.4032544]]}";1;Rue Sainte-Anne;2;50;false;false;true;false;false;false;233.0;0;0;0;0;0;false;72447;6133274304;-73.949646;45.403054;72449;6133274302;-73.941343;45.403568;1;35;36;9479770;Bus 35 : Direction Sainte-Anne-de-Bellevue;"";EXO;35 E;Gare Dorion;Terminus Mcdonald
37641503;"{\"type\":\"LineString\",\"coordinates\":[[-73.9409846,45.4034005],[-73.9413922,45.4033043],[-73.9417488,45.4032504],[-73.942646,45.4031772],[-73.9429904,45.4031006],[-73.9439653,45.4028382],[-73.9442647,45.4027639],[-73.9445332,45.4027051]]}";2;Rue Lakeshore;2;50;false;false;true;false;false;false;290.0;0;0;0;0;0;false;72447;6133274304;-73.949646;45.403054;72449;6133274302;-73.941343;45.403568;0;35;36;9479770;Bus 35 : Direction Sainte-Anne-de-Bellevue;"";EXO;35 E;Gare Dorion;Terminus Mcdonald
110168223;"{\"type\":\"LineString\",\"coordinates\":[[-73.9405954,45.4035725],[-73.9407105,45.4036313],[-73.9408699,45.4036513],[-73.940955,45.4036514],[-73.9410069,45.4036276],[-73.9410353,45.4035838],[-73.9410246,45.4035009],[-73.9409846,45.4034005]]}";3;STM Terminus d'Autobus Macdonald;1;50;false;false;true;false;false;false;62.0;0;0;0;0;0;false;72447;6133274304;-73.949646;45.403054;72449;6133274302;-73.941343;45.403568;1;35;36;9479770;Bus 35 : Direction Sainte-Anne-de-Bellevue;"";EXO;35 E;Gare Dorion;Terminus Mcdonald
