way_id;shape;index;name;nb_lanes;legal_speed;speed_zone_30;oneway;shares_bike;bike_box;bus_lane;dedicated_bus_lane;length;nb_traffic_signals;nb_crossings;nb_stops;nb_give_ways;nb_lvl_crossings;roundabout;stop_id_orig;node_id_orig;coord_x_orig;coord_y_orig;stop_id_dest;node_id_dest;coord_x_dest;coord_y_dest;nb_neighbouring_ways_bus_stop;order_orig;order_dest;id_line;line_name;colour;operator;ref;from;to
765801141;"{\"type\":\"LineString\",\"coordinates\":[[-6.3205602,53.3401126],[-6.3203933,53.3403268],[-6.3202755,53.3404852],[-6.3202126,53.3406314],[-6.3201617,53.3407537],[-6.3201504,53.3407705],[-6.3200831,53.340871],[-6.3199546,53.340988],[-6.3198079,53.3410915],[-6.3195441,53.3412396],[-6.3192433,53.341416],[-6.3191342,53.3414746]]}";1;Grattan Crescent;2;50;false;false;true;false;false;false;185.0;0;1;0;0;0;false;2642;475642378;-6.3197228;53.3412322;1987;667281708;-6.3258781;53.3363233;1;0;1;9386849;69 Rathcoole - Poolbeg St;"";Dublin Bus;69;Rathcoole;Poolbeg St
4571528;"{\"type\":\"LineString\",\"coordinates\":[[-6.321039,53.3395244],[-6.3209479,53.3396357],[-6.3208782,53.3397278],[-6.3205602,53.3401126]]}";2;Grattan Crescent;3;50;false;false;true;false;false;false;74.0;1;2;0;0;0;false;2642;475642378;-6.3197228;53.3412322;1987;667281708;-6.3258781;53.3363233;0;0;1;9386849;69 Rathcoole - Poolbeg St;"";Dublin Bus;69;Rathcoole;Poolbeg St
331390241;"{\"type\":\"LineString\",\"coordinates\":[[-6.3213091,53.3392418],[-6.3212598,53.3392891],[-6.3211794,53.3393675],[-6.321039,53.3395244]]}";3;Tyrconnell Road;3;50;false;false;true;false;false;false;37.0;1;1;0;0;0;false;2642;475642378;-6.3197228;53.3412322;1987;667281708;-6.3258781;53.3363233;0;0;1;9386849;69 Rathcoole - Poolbeg St;"";Dublin Bus;69;Rathcoole;Poolbeg St
685298297;"{\"type\":\"LineString\",\"coordinates\":[[-6.3250848,53.3368128],[-6.3250431,53.336843],[-6.3248884,53.3369551],[-6.3243161,53.3373198],[-6.3237598,53.3376646],[-6.3234988,53.3378264],[-6.3234031,53.3378885],[-6.3233238,53.3379354],[-6.3227579,53.3382879],[-6.3224467,53.3384884],[-6.3222125,53.3386393],[-6.3217893,53.3388941],[-6.3217329,53.3389301],[-6.3214372,53.3391188],[-6.3214195,53.3391358],[-6.3213633,53.3391898],[-6.3213091,53.3392418]]}";4;Tyrconnell Road;2;50;false;false;true;false;false;false;373.0;0;1;0;0;0;false;2642;475642378;-6.3197228;53.3412322;1987;667281708;-6.3258781;53.3363233;0;0;1;9386849;69 Rathcoole - Poolbeg St;"";Dublin Bus;69;Rathcoole;Poolbeg St
325924968;"{\"type\":\"LineString\",\"coordinates\":[[-6.3253907,53.3365912],[-6.3250848,53.3368128]]}";5;Tyrconnell Road;2;50;false;false;true;false;false;false;33.0;0;0;0;0;0;false;2642;475642378;-6.3197228;53.3412322;1987;667281708;-6.3258781;53.3363233;0;0;1;9386849;69 Rathcoole - Poolbeg St;"";Dublin Bus;69;Rathcoole;Poolbeg St
518591589;"{\"type\":\"LineString\",\"coordinates\":[[-6.3255755,53.3364568],[-6.3253907,53.3365912]]}";6;Tyrconnell Road;3;50;false;false;true;false;false;false;20.0;0;0;0;0;0;false;2642;475642378;-6.3197228;53.3412322;1987;667281708;-6.3258781;53.3363233;0;0;1;9386849;69 Rathcoole - Poolbeg St;"";Dublin Bus;69;Rathcoole;Poolbeg St
764347617;"{\"type\":\"LineString\",\"coordinates\":[[-6.3257465,53.3363334],[-6.3255755,53.3364568]]}";7;Tyrconnell Road;3;50;false;false;true;false;false;false;18.0;0;0;0;0;0;false;2642;475642378;-6.3197228;53.3412322;1987;667281708;-6.3258781;53.3363233;0;0;1;9386849;69 Rathcoole - Poolbeg St;"";Dublin Bus;69;Rathcoole;Poolbeg St
518591591;"{\"type\":\"LineString\",\"coordinates\":[[-6.3264629,53.3358142],[-6.3264135,53.3358501],[-6.3262241,53.3359873],[-6.3260188,53.336136],[-6.3257465,53.3363334]]}";8;Tyrconnell Road;2;50;false;false;true;false;false;false;76.0;0;0;0;0;0;false;2642;475642378;-6.3197228;53.3412322;1987;667281708;-6.3258781;53.3363233;1;0;1;9386849;69 Rathcoole - Poolbeg St;"";Dublin Bus;69;Rathcoole;Poolbeg St
