way_id;shape;index;name;nb_lanes;legal_speed;speed_zone_30;oneway;shares_bike;bike_box;bus_lane;dedicated_bus_lane;length;nb_traffic_signals;nb_crossings;nb_stops;nb_give_ways;nb_lvl_crossings;roundabout;stop_id_orig;node_id_orig;coord_x_orig;coord_y_orig;stop_id_dest;node_id_dest;coord_x_dest;coord_y_dest;nb_neighbouring_ways_bus_stop;ordre_orig;ordre_dest;id_line;line_name;colour;operator;ref;from;to
607795837;"{\"type\":\"LineString\",\"coordinates\":[[-73.5346163,45.5965395],[-73.5347398,45.5965795]]}";1;"";1;50;false;false;true;false;false;false;11.0;0;1;0;0;0;false;53876;5759326753;-73.534617;45.59655;53279;5759326752;-73.533602;45.59862;1;0;1;8447051;Bus 141 : Jean-Talon Est Ouest;"";STM;141-O;Station Honoré-Beaugrand / Terminus Sud;Station Saint-Michel (St-Michel / Shaughnessy)
27439795;"{\"type\":\"LineString\",\"coordinates\":[[-73.5347398,45.5965795],[-73.5348822,45.5966256]]}";2;"";1;50;false;false;true;false;false;false;13.0;0;1;0;0;0;false;53876;5759326753;-73.534617;45.59655;53279;5759326752;-73.533602;45.59862;0;0;1;8447051;Bus 141 : Jean-Talon Est Ouest;"";STM;141-O;Station Honoré-Beaugrand / Terminus Sud;Station Saint-Michel (St-Michel / Shaughnessy)
607795835;"{\"type\":\"LineString\",\"coordinates\":[[-73.5348822,45.5966256],[-73.5345788,45.5971111]]}";3;Rue Sherbrooke Est;1;50;false;true;true;false;false;false;59.0;0;0;0;0;0;false;53876;5759326753;-73.534617;45.59655;53279;5759326752;-73.533602;45.59862;0;0;1;8447051;Bus 141 : Jean-Talon Est Ouest;"";STM;141-O;Station Honoré-Beaugrand / Terminus Sud;Station Saint-Michel (St-Michel / Shaughnessy)
393698266;"{\"type\":\"LineString\",\"coordinates\":[[-73.5345788,45.5971111],[-73.5345724,45.5971208],[-73.534031,45.5980133]]}";4;Rue Sherbrooke Est;1;50;false;true;true;false;false;false;109.0;0;0;0;0;0;false;53876;5759326753;-73.534617;45.59655;53279;5759326752;-73.533602;45.59862;0;0;1;8447051;Bus 141 : Jean-Talon Est Ouest;"";STM;141-O;Station Honoré-Beaugrand / Terminus Sud;Station Saint-Michel (St-Michel / Shaughnessy)
459571181;"{\"type\":\"LineString\",\"coordinates\":[[-73.534031,45.5980133],[-73.5334875,45.5989074]]}";5;Rue Sherbrooke Est;1;50;false;true;true;false;false;false;108.0;0;0;0;0;0;false;53876;5759326753;-73.534617;45.59655;53279;5759326752;-73.533602;45.59862;2;0;1;8447051;Bus 141 : Jean-Talon Est Ouest;"";STM;141-O;Station Honoré-Beaugrand / Terminus Sud;Station Saint-Michel (St-Michel / Shaughnessy)
459571181;"{\"type\":\"LineString\",\"coordinates\":[[-73.534031,45.5980133],[-73.5334875,45.5989074]]}";1;Rue Sherbrooke Est;1;50;false;true;true;false;false;false;54.0;0;0;0;0;0;false;53279;5759326752;-73.533602;45.59862;53289;5759326751;-73.532279;45.60083;1;1;2;8447051;Bus 141 : Jean-Talon Est Ouest;"";STM;141-O;Station Honoré-Beaugrand / Terminus Sud;Station Saint-Michel (St-Michel / Shaughnessy)
459571184;"{\"type\":\"LineString\",\"coordinates\":[[-73.5334875,45.5989074],[-73.5331173,45.5995315]]}";2;Rue Sherbrooke Est;1;50;false;true;true;false;false;false;76.0;0;0;0;0;0;false;53279;5759326752;-73.533602;45.59862;53289;5759326751;-73.532279;45.60083;0;1;2;8447051;Bus 141 : Jean-Talon Est Ouest;"";STM;141-O;Station Honoré-Beaugrand / Terminus Sud;Station Saint-Michel (St-Michel / Shaughnessy)
459570317;"{\"type\":\"LineString\",\"coordinates\":[[-73.5331173,45.5995315],[-73.532694,45.6002454]]}";3;Rue Sherbrooke Est;1;50;false;true;true;false;false;false;86.0;0;0;0;0;0;false;53279;5759326752;-73.533602;45.59862;53289;5759326751;-73.532279;45.60083;0;1;2;8447051;Bus 141 : Jean-Talon Est Ouest;"";STM;141-O;Station Honoré-Beaugrand / Terminus Sud;Station Saint-Michel (St-Michel / Shaughnessy)
459570316;"{\"type\":\"LineString\",\"coordinates\":[[-73.532694,45.6002454],[-73.5322962,45.6009255],[-73.53228,45.6009533]]}";4;Rue Sherbrooke Est;1;50;false;true;true;false;false;false;42.5;0;1;0;0;0;false;53279;5759326752;-73.533602;45.59862;53289;5759326751;-73.532279;45.60083;1;1;2;8447051;Bus 141 : Jean-Talon Est Ouest;"";STM;141-O;Station Honoré-Beaugrand / Terminus Sud;Station Saint-Michel (St-Michel / Shaughnessy)
393698267;"{\"type\":\"LineString\",\"coordinates\":[[-73.53228,45.6009533],[-73.5322241,45.6010449],[-73.5318309,45.6016886],[-73.5314175,45.6024216]]}";1;Rue Sherbrooke Est;1;50;false;true;true;false;false;false;177.0;0;1;0;0;0;false;53289;5759326751;-73.532279;45.60083;53302;5759326750;-73.530943;45.603067;2;2;3;8447051;Bus 141 : Jean-Talon Est Ouest;"";STM;141-O;Station Honoré-Beaugrand / Terminus Sud;Station Saint-Michel (St-Michel / Shaughnessy)
459570323;"{\"type\":\"LineString\",\"coordinates\":[[-73.5314175,45.6024216],[-73.5309432,45.6031985]]}";2;Rue Sherbrooke Est;1;50;false;true;true;false;false;false;94.0;0;0;0;0;0;false;53289;5759326751;-73.532279;45.60083;53302;5759326750;-73.530943;45.603067;2;2;3;8447051;Bus 141 : Jean-Talon Est Ouest;"";STM;141-O;Station Honoré-Beaugrand / Terminus Sud;Station Saint-Michel (St-Michel / Shaughnessy)
459570322;"{\"type\":\"LineString\",\"coordinates\":[[-73.5309432,45.6031985],[-73.5305315,45.6038825],[-73.5301321,45.6045522]]}";1;Rue Sherbrooke Est;1;50;false;true;true;false;false;false;164.0;0;0;0;0;0;false;53302;5759326750;-73.530943;45.603067;53315;5759326749;-73.530853;45.604819;2;3;4;8447051;Bus 141 : Jean-Talon Est Ouest;"";STM;141-O;Station Honoré-Beaugrand / Terminus Sud;Station Saint-Michel (St-Michel / Shaughnessy)
607792122;"{\"type\":\"LineString\",\"coordinates\":[[-73.5302701,45.6045936],[-73.5301321,45.6045522]]}";2;Rue des Ormeaux;1;50;false;false;true;false;false;false;12.0;0;0;0;0;0;false;53302;5759326750;-73.530943;45.603067;53315;5759326749;-73.530853;45.604819;0;3;4;8447051;Bus 141 : Jean-Talon Est Ouest;"";STM;141-O;Station Honoré-Beaugrand / Terminus Sud;Station Saint-Michel (St-Michel / Shaughnessy)
152517068;"{\"type\":\"LineString\",\"coordinates\":[[-73.541507,45.6085439],[-73.5402136,45.6079784],[-73.538223,45.6070978],[-73.5372558,45.6066598],[-73.5363153,45.6063475],[-73.5342884,45.605749],[-73.5322193,45.6051521],[-73.5302701,45.6045936]]}";3;Rue des Ormeaux;1;50;false;false;true;false;false;false;983.0;0;0;0;0;0;false;53302;5759326750;-73.530943;45.603067;53315;5759326749;-73.530853;45.604819;2;3;4;8447051;Bus 141 : Jean-Talon Est Ouest;"";STM;141-O;Station Honoré-Beaugrand / Terminus Sud;Station Saint-Michel (St-Michel / Shaughnessy)
152517085;"{\"type\":\"LineString\",\"coordinates\":[[-73.5540002,45.6139596],[-73.5504335,45.6124389],[-73.5468327,45.6108891]]}";1;Rue des Ormeaux;1;50;false;false;false;false;false;false;327.5;0;0;0;0;0;false;54648;5759326741;-73.550237;45.612421;54624;5759326740;-73.554305;45.613703;1;12;13;8447051;Bus 141 : Jean-Talon Est Ouest;"";STM;141-O;Station Honoré-Beaugrand / Terminus Sud;Station Saint-Michel (St-Michel / Shaughnessy)
607792123;"{\"type\":\"LineString\",\"coordinates\":[[-73.5540002,45.6139596],[-73.5544662,45.6134358],[-73.5548725,45.6129791],[-73.5553212,45.6124747]]}";2;Boulevard de Châteauneuf;1;50;false;false;false;false;false;false;97.5;0;0;0;0;0;false;54648;5759326741;-73.550237;45.612421;54624;5759326740;-73.554305;45.613703;1;12;13;8447051;Bus 141 : Jean-Talon Est Ouest;"";STM;141-O;Station Honoré-Beaugrand / Terminus Sud;Station Saint-Michel (St-Michel / Shaughnessy)
476892428;"{\"type\":\"LineString\",\"coordinates\":[[-73.5553212,45.6124747],[-73.5553498,45.6123383]]}";1;Boulevard de Châteauneuf;1;50;false;false;false;false;false;false;16.0;0;0;0;0;0;false;54613;5759326739;-73.555241;45.612637;54614;5759326738;-73.555694;45.611966;2;14;15;8447051;Bus 141 : Jean-Talon Est Ouest;"";STM;141-O;Station Honoré-Beaugrand / Terminus Sud;Station Saint-Michel (St-Michel / Shaughnessy)
297679841;"{\"type\":\"LineString\",\"coordinates\":[[-73.5553498,45.6123383],[-73.5554779,45.612252],[-73.5559542,45.6117131],[-73.5569341,45.6105561],[-73.5573299,45.6099499],[-73.557694,45.6092593],[-73.5580034,45.6085912],[-73.5585379,45.6073079],[-73.558679,45.6068428],[-73.558724,45.60666],[-73.5588272,45.6062402],[-73.5589715,45.6054489],[-73.5589959,45.6053335]]}";2;Boulevard de Châteauneuf;1;50;false;true;false;false;false;false;839.0;0;0;0;0;0;false;54613;5759326739;-73.555241;45.612637;54614;5759326738;-73.555694;45.611966;2;14;15;8447051;Bus 141 : Jean-Talon Est Ouest;"";STM;141-O;Station Honoré-Beaugrand / Terminus Sud;Station Saint-Michel (St-Michel / Shaughnessy)
297679841;"{\"type\":\"LineString\",\"coordinates\":[[-73.5553498,45.6123383],[-73.5554779,45.612252],[-73.5559542,45.6117131],[-73.5569341,45.6105561],[-73.5573299,45.6099499],[-73.557694,45.6092593],[-73.5580034,45.6085912],[-73.5585379,45.6073079],[-73.558679,45.6068428],[-73.558724,45.60666],[-73.5588272,45.6062402],[-73.5589715,45.6054489],[-73.5589959,45.6053335]]}";1;Boulevard de Châteauneuf;1;50;false;true;false;false;false;false;419.5;0;0;0;0;0;false;54608;5759326736;-73.558614;45.606965;54604;5759326735;-73.559059;45.604651;1;17;18;8447051;Bus 141 : Jean-Talon Est Ouest;"";STM;141-O;Station Honoré-Beaugrand / Terminus Sud;Station Saint-Michel (St-Michel / Shaughnessy)
728821718;"{\"type\":\"LineString\",\"coordinates\":[[-73.5589959,45.6053335],[-73.5590921,45.6045285],[-73.5592046,45.6038315],[-73.5592708,45.6036056],[-73.5593039,45.6034928],[-73.5594167,45.6032234],[-73.5595921,45.6028492],[-73.5597689,45.6025897],[-73.5599907,45.6023108]]}";2;Boulevard de Châteauneuf;1;50;false;true;false;false;false;false;174.5;0;0;0;0;0;false;54608;5759326736;-73.558614;45.606965;54604;5759326735;-73.559059;45.604651;1;17;18;8447051;Bus 141 : Jean-Talon Est Ouest;"";STM;141-O;Station Honoré-Beaugrand / Terminus Sud;Station Saint-Michel (St-Michel / Shaughnessy)
728821718;"{\"type\":\"LineString\",\"coordinates\":[[-73.5589959,45.6053335],[-73.5590921,45.6045285],[-73.5592046,45.6038315],[-73.5592708,45.6036056],[-73.5593039,45.6034928],[-73.5594167,45.6032234],[-73.5595921,45.6028492],[-73.5597689,45.6025897],[-73.5599907,45.6023108]]}";1;Boulevard de Châteauneuf;1;50;false;true;false;false;false;false;174.5;0;0;0;0;0;false;54711;5759326734;-73.559529;45.602916;61264;5759326733;-73.560967;45.602836;1;19;20;8447051;Bus 141 : Jean-Talon Est Ouest;"";STM;141-O;Station Honoré-Beaugrand / Terminus Sud;Station Saint-Michel (St-Michel / Shaughnessy)
607795834;"{\"type\":\"LineString\",\"coordinates\":[[-73.5599907,45.6023108],[-73.5608844,45.6027132],[-73.5612168,45.6028761],[-73.5617195,45.6031676],[-73.5619644,45.6033397]]}";2;Boulevard Louis-H.-La Fontaine;3;50;false;true;true;false;false;false;96.5;0;0;0;0;0;false;54711;5759326734;-73.559529;45.602916;61264;5759326733;-73.560967;45.602836;1;19;20;8447051;Bus 141 : Jean-Talon Est Ouest;"";STM;141-O;Station Honoré-Beaugrand / Terminus Sud;Station Saint-Michel (St-Michel / Shaughnessy)
607795834;"{\"type\":\"LineString\",\"coordinates\":[[-73.5599907,45.6023108],[-73.5608844,45.6027132],[-73.5612168,45.6028761],[-73.5617195,45.6031676],[-73.5619644,45.6033397]]}";1;Boulevard Louis-H.-La Fontaine;3;50;false;true;true;false;false;false;96.5;0;0;0;0;0;false;61264;5759326733;-73.560967;45.602836;54718;5759326732;-73.5688005;45.6005772;1;20;21;8447051;Bus 141 : Jean-Talon Est Ouest;"";STM;141-O;Station Honoré-Beaugrand / Terminus Sud;Station Saint-Michel (St-Michel / Shaughnessy)
31015551;"{\"type\":\"LineString\",\"coordinates\":[[-73.5619644,45.6033397],[-73.5629871,45.6040054],[-73.5630664,45.6040515],[-73.5631587,45.6040803],[-73.563254,45.6040878],[-73.5633384,45.6040803],[-73.5634176,45.6040559],[-73.5634779,45.6040184],[-73.5635275,45.6039734],[-73.5635825,45.6039049],[-73.563813,45.6035879],[-73.5639897,45.6033328]]}";2;"";1;50;false;true;true;false;false;false;238.0;0;0;0;0;0;false;61264;5759326733;-73.560967;45.602836;54718;5759326732;-73.5688005;45.6005772;0;20;21;8447051;Bus 141 : Jean-Talon Est Ouest;"";STM;141-O;Station Honoré-Beaugrand / Terminus Sud;Station Saint-Michel (St-Michel / Shaughnessy)
31015554;"{\"type\":\"LineString\",\"coordinates\":[[-73.5639897,45.6033328],[-73.5640516,45.6032509],[-73.564109,45.6031597],[-73.564162,45.6030608],[-73.5642479,45.6027097]]}";3;"";1;50;false;true;true;false;false;false;73.0;0;0;0;0;0;false;61264;5759326733;-73.560967;45.602836;54718;5759326732;-73.5688005;45.6005772;0;20;21;8447051;Bus 141 : Jean-Talon Est Ouest;"";STM;141-O;Station Honoré-Beaugrand / Terminus Sud;Station Saint-Michel (St-Michel / Shaughnessy)
31015588;"{\"type\":\"LineString\",\"coordinates\":[[-73.5642479,45.6027097],[-73.5642976,45.6026906],[-73.5643156,45.6026813],[-73.5643612,45.6026624],[-73.5644481,45.602641],[-73.5645177,45.6026351],[-73.5646376,45.6026243]]}";4;"";1;50;false;true;true;false;false;false;33.0;0;0;0;0;0;false;61264;5759326733;-73.560967;45.602836;54718;5759326732;-73.5688005;45.6005772;0;20;21;8447051;Bus 141 : Jean-Talon Est Ouest;"";STM;141-O;Station Honoré-Beaugrand / Terminus Sud;Station Saint-Michel (St-Michel / Shaughnessy)
46688775;"{\"type\":\"LineString\",\"coordinates\":[[-73.5687069,45.6012037],[-73.5681229,45.601745],[-73.567646,45.6021823],[-73.5674664,45.6023277],[-73.5673456,45.6024],[-73.5671927,45.60246],[-73.5668939,45.6025339],[-73.5667528,45.6025633],[-73.5663237,45.6026027],[-73.5657953,45.6026327],[-73.565282,45.6026609],[-73.5649709,45.6026459],[-73.5647566,45.6026282],[-73.5646376,45.6026243]]}";5;"";2;50;false;false;true;false;false;false;386.0;0;0;0;0;0;false;61264;5759326733;-73.560967;45.602836;54718;5759326732;-73.5688005;45.6005772;0;20;21;8447051;Bus 141 : Jean-Talon Est Ouest;"";STM;141-O;Station Honoré-Beaugrand / Terminus Sud;Station Saint-Michel (St-Michel / Shaughnessy)
46688802;"{\"type\":\"LineString\",\"coordinates\":[[-73.5688103,45.6010747],[-73.5687069,45.6012037]]}";6;"";2;50;false;false;true;false;false;false;17.0;0;0;0;0;0;false;61264;5759326733;-73.560967;45.602836;54718;5759326732;-73.5688005;45.6005772;0;20;21;8447051;Bus 141 : Jean-Talon Est Ouest;"";STM;141-O;Station Honoré-Beaugrand / Terminus Sud;Station Saint-Michel (St-Michel / Shaughnessy)
46688805;"{\"type\":\"LineString\",\"coordinates\":[[-73.5687205,45.6005396],[-73.568821,45.6008368],[-73.5688194,45.6009812],[-73.5688103,45.6010747]]}";7;"";2;50;false;false;true;false;false;false;30.5;0;0;0;0;0;false;61264;5759326733;-73.560967;45.602836;54718;5759326732;-73.5688005;45.6005772;1;20;21;8447051;Bus 141 : Jean-Talon Est Ouest;"";STM;141-O;Station Honoré-Beaugrand / Terminus Sud;Station Saint-Michel (St-Michel / Shaughnessy)
46688796;"{\"type\":\"LineString\",\"coordinates\":[[-73.5687205,45.6005396],[-73.5689924,45.6004836]]}";1;"";2;50;false;true;true;false;false;false;23.0;0;0;0;0;0;false;54718;5759326732;-73.5688005;45.6005772;54583;303687964;-73.569344;45.598726;2;21;22;8447051;Bus 141 : Jean-Talon Est Ouest;"";STM;141-O;Station Honoré-Beaugrand / Terminus Sud;Station Saint-Michel (St-Michel / Shaughnessy)
607792928;"{\"type\":\"LineString\",\"coordinates\":[[-73.5689924,45.6004836],[-73.569133,45.600435]]}";2;"";2;50;false;true;true;false;false;false;13.0;0;0;0;0;0;false;54718;5759326732;-73.5688005;45.6005772;54583;303687964;-73.569344;45.598726;0;21;22;8447051;Bus 141 : Jean-Talon Est Ouest;"";STM;141-O;Station Honoré-Beaugrand / Terminus Sud;Station Saint-Michel (St-Michel / Shaughnessy)
315146502;"{\"type\":\"LineString\",\"coordinates\":[[-73.569133,45.600435],[-73.5692517,45.6002827]]}";3;"";2;50;false;true;true;false;false;false;20.0;0;0;0;0;0;false;54718;5759326732;-73.5688005;45.6005772;54583;303687964;-73.569344;45.598726;0;21;22;8447051;Bus 141 : Jean-Talon Est Ouest;"";STM;141-O;Station Honoré-Beaugrand / Terminus Sud;Station Saint-Michel (St-Michel / Shaughnessy)
284463125;"{\"type\":\"LineString\",\"coordinates\":[[-73.5692517,45.6002827],[-73.5690484,45.6000473],[-73.5689235,45.5996808],[-73.568914,45.5996029],[-73.5689187,45.5995281],[-73.568935,45.5994638]]}";4;Rue Jean-Talon Est;1;50;false;true;true;false;false;false;97.0;0;0;0;0;0;false;54718;5759326732;-73.5688005;45.6005772;54583;303687964;-73.569344;45.598726;0;21;22;8447051;Bus 141 : Jean-Talon Est Ouest;"";STM;141-O;Station Honoré-Beaugrand / Terminus Sud;Station Saint-Michel (St-Michel / Shaughnessy)
471504964;"{\"type\":\"LineString\",\"coordinates\":[[-73.568935,45.5994638],[-73.5689443,45.5994272],[-73.5689851,45.599318],[-73.5690189,45.5992295]]}";5;Rue Jean-Talon Est;1;50;false;true;true;false;false;false;27.0;1;0;0;0;0;false;54718;5759326732;-73.5688005;45.6005772;54583;303687964;-73.569344;45.598726;0;21;22;8447051;Bus 141 : Jean-Talon Est Ouest;"";STM;141-O;Station Honoré-Beaugrand / Terminus Sud;Station Saint-Michel (St-Michel / Shaughnessy)
471504963;"{\"type\":\"LineString\",\"coordinates\":[[-73.5690189,45.5992295],[-73.5690362,45.5991146]]}";6;Rue Jean-Talon Est;1;50;false;true;true;false;false;false;13.0;2;0;0;0;0;false;54718;5759326732;-73.5688005;45.6005772;54583;303687964;-73.569344;45.598726;0;21;22;8447051;Bus 141 : Jean-Talon Est Ouest;"";STM;141-O;Station Honoré-Beaugrand / Terminus Sud;Station Saint-Michel (St-Michel / Shaughnessy)
471505296;"{\"type\":\"LineString\",\"coordinates\":[[-73.5690362,45.5991146],[-73.5691777,45.5988732],[-73.5694138,45.5985617]]}";7;Rue Jean-Talon Est;1;50;false;false;true;false;false;false;69.0;1;0;0;0;0;false;54718;5759326732;-73.5688005;45.6005772;54583;303687964;-73.569344;45.598726;2;21;22;8447051;Bus 141 : Jean-Talon Est Ouest;"";STM;141-O;Station Honoré-Beaugrand / Terminus Sud;Station Saint-Michel (St-Michel / Shaughnessy)
471505548;"{\"type\":\"LineString\",\"coordinates\":[[-73.5694138,45.5985617],[-73.56962,45.5982985],[-73.5698472,45.5980295]]}";1;Rue Jean-Talon Est;1;50;false;false;true;false;false;false;69.0;0;0;0;0;0;false;54583;303687964;-73.569344;45.598726;54576;303687968;-73.570266;45.597644;2;22;23;8447051;Bus 141 : Jean-Talon Est Ouest;"";STM;141-O;Station Honoré-Beaugrand / Terminus Sud;Station Saint-Michel (St-Michel / Shaughnessy)
4883056;"{\"type\":\"LineString\",\"coordinates\":[[-73.5698472,45.5980295],[-73.5700007,45.5978447],[-73.5701144,45.5977164],[-73.5702896,45.597531],[-73.5706693,45.5971292],[-73.5707601,45.5970332]]}";2;Rue Jean-Talon Est;1;50;false;false;true;false;false;false;132.0;0;0;0;0;0;false;54583;303687964;-73.569344;45.598726;54576;303687968;-73.570266;45.597644;2;22;23;8447051;Bus 141 : Jean-Talon Est Ouest;"";STM;141-O;Station Honoré-Beaugrand / Terminus Sud;Station Saint-Michel (St-Michel / Shaughnessy)
4883056;"{\"type\":\"LineString\",\"coordinates\":[[-73.5698472,45.5980295],[-73.5700007,45.5978447],[-73.5701144,45.5977164],[-73.5702896,45.597531],[-73.5706693,45.5971292],[-73.5707601,45.5970332]]}";1;Rue Jean-Talon Est;1;50;false;false;true;false;false;false;66.0;0;0;0;0;0;false;54576;303687968;-73.570266;45.597644;54998;303687974;-73.572641;45.594932;1;23;24;8447051;Bus 141 : Jean-Talon Est Ouest;"";STM;141-O;Station Honoré-Beaugrand / Terminus Sud;Station Saint-Michel (St-Michel / Shaughnessy)
454843544;"{\"type\":\"LineString\",\"coordinates\":[[-73.5707601,45.5970332],[-73.5708339,45.5969539]]}";2;Rue Jean-Talon Est;1;50;false;false;true;false;false;false;11.0;0;0;0;0;0;false;54576;303687968;-73.570266;45.597644;54998;303687974;-73.572641;45.594932;0;23;24;8447051;Bus 141 : Jean-Talon Est Ouest;"";STM;141-O;Station Honoré-Beaugrand / Terminus Sud;Station Saint-Michel (St-Michel / Shaughnessy)
454843552;"{\"type\":\"LineString\",\"coordinates\":[[-73.5708339,45.5969539],[-73.5711161,45.5966482]]}";3;Rue Jean-Talon Est;1;50;false;false;true;false;false;false;41.0;0;0;0;0;0;false;54576;303687968;-73.570266;45.597644;54998;303687974;-73.572641;45.594932;0;23;24;8447051;Bus 141 : Jean-Talon Est Ouest;"";STM;141-O;Station Honoré-Beaugrand / Terminus Sud;Station Saint-Michel (St-Michel / Shaughnessy)
454843543;"{\"type\":\"LineString\",\"coordinates\":[[-73.5711161,45.5966482],[-73.5711416,45.5966231]]}";4;Rue Jean-Talon Est;1;50;false;false;true;false;false;false;4.0;0;0;0;0;0;false;54576;303687968;-73.570266;45.597644;54998;303687974;-73.572641;45.594932;0;23;24;8447051;Bus 141 : Jean-Talon Est Ouest;"";STM;141-O;Station Honoré-Beaugrand / Terminus Sud;Station Saint-Michel (St-Michel / Shaughnessy)
454843558;"{\"type\":\"LineString\",\"coordinates\":[[-73.5711416,45.5966231],[-73.5714398,45.5963027]]}";5;Rue Jean-Talon Est;1;50;false;false;true;false;false;false;43.0;0;0;0;0;0;false;54576;303687968;-73.570266;45.597644;54998;303687974;-73.572641;45.594932;0;23;24;8447051;Bus 141 : Jean-Talon Est Ouest;"";STM;141-O;Station Honoré-Beaugrand / Terminus Sud;Station Saint-Michel (St-Michel / Shaughnessy)
454843553;"{\"type\":\"LineString\",\"coordinates\":[[-73.5714398,45.5963027],[-73.5717789,45.5959]]}";6;Rue Jean-Talon Est;1;50;false;false;true;false;false;false;52.0;0;0;0;0;0;false;54576;303687968;-73.570266;45.597644;54998;303687974;-73.572641;45.594932;0;23;24;8447051;Bus 141 : Jean-Talon Est Ouest;"";STM;141-O;Station Honoré-Beaugrand / Terminus Sud;Station Saint-Michel (St-Michel / Shaughnessy)
454843560;"{\"type\":\"LineString\",\"coordinates\":[[-73.5717789,45.5959],[-73.5719387,45.5957349],[-73.5720028,45.5956574]]}";7;Rue Jean-Talon Est;1;50;false;false;true;false;false;false;33.0;0;0;0;0;0;false;54576;303687968;-73.570266;45.597644;54998;303687974;-73.572641;45.594932;0;23;24;8447051;Bus 141 : Jean-Talon Est Ouest;"";STM;141-O;Station Honoré-Beaugrand / Terminus Sud;Station Saint-Michel (St-Michel / Shaughnessy)
454843551;"{\"type\":\"LineString\",\"coordinates\":[[-73.5720028,45.5956574],[-73.572167,45.5954469],[-73.5722023,45.5954057]]}";8;Rue Jean-Talon Est;1;50;false;false;true;false;false;false;32.0;0;0;0;0;0;false;54576;303687968;-73.570266;45.597644;54998;303687974;-73.572641;45.594932;0;23;24;8447051;Bus 141 : Jean-Talon Est Ouest;"";STM;141-O;Station Honoré-Beaugrand / Terminus Sud;Station Saint-Michel (St-Michel / Shaughnessy)
454843548;"{\"type\":\"LineString\",\"coordinates\":[[-73.5722023,45.5954057],[-73.5727881,45.5947327]]}";9;Rue Jean-Talon Est;1;50;false;false;true;false;false;false;44.0;0;0;0;0;0;false;54576;303687968;-73.570266;45.597644;54998;303687974;-73.572641;45.594932;1;23;24;8447051;Bus 141 : Jean-Talon Est Ouest;"";STM;141-O;Station Honoré-Beaugrand / Terminus Sud;Station Saint-Michel (St-Michel / Shaughnessy)
454843548;"{\"type\":\"LineString\",\"coordinates\":[[-73.5722023,45.5954057],[-73.5727881,45.5947327]]}";1;Rue Jean-Talon Est;1;50;false;false;true;false;false;false;44.0;0;0;0;0;0;false;54998;303687974;-73.572641;45.594932;54995;303687975;-73.573622;45.593814;1;24;25;8447051;Bus 141 : Jean-Talon Est Ouest;"";STM;141-O;Station Honoré-Beaugrand / Terminus Sud;Station Saint-Michel (St-Michel / Shaughnessy)
454843557;"{\"type\":\"LineString\",\"coordinates\":[[-73.5727881,45.5947327],[-73.5731674,45.5942783],[-73.5733981,45.5940739]]}";2;Rue Jean-Talon Est;1;50;false;false;true;false;false;false;88.0;0;0;0;0;0;false;54998;303687974;-73.572641;45.594932;54995;303687975;-73.573622;45.593814;0;24;25;8447051;Bus 141 : Jean-Talon Est Ouest;"";STM;141-O;Station Honoré-Beaugrand / Terminus Sud;Station Saint-Michel (St-Michel / Shaughnessy)
309686817;"{\"type\":\"LineString\",\"coordinates\":[[-73.5733981,45.5940739],[-73.574084,45.5931702]]}";3;Rue Jean-Talon Est;1;50;false;false;true;false;false;false;57.0;0;0;0;0;0;false;54998;303687974;-73.572641;45.594932;54995;303687975;-73.573622;45.593814;1;24;25;8447051;Bus 141 : Jean-Talon Est Ouest;"";STM;141-O;Station Honoré-Beaugrand / Terminus Sud;Station Saint-Michel (St-Michel / Shaughnessy)
309686817;"{\"type\":\"LineString\",\"coordinates\":[[-73.5733981,45.5940739],[-73.574084,45.5931702]]}";1;Rue Jean-Talon Est;1;50;false;false;true;false;false;false;57.0;0;0;0;0;0;false;54995;303687975;-73.573622;45.593814;54992;303687980;-73.575055;45.592204;1;25;26;8447051;Bus 141 : Jean-Talon Est Ouest;"";STM;141-O;Station Honoré-Beaugrand / Terminus Sud;Station Saint-Michel (St-Michel / Shaughnessy)
131828404;"{\"type\":\"LineString\",\"coordinates\":[[-73.574084,45.5931702],[-73.5742829,45.5930404],[-73.5746846,45.5926103]]}";2;Rue Jean-Talon Est;1;50;false;true;true;false;false;false;79.0;0;0;0;0;0;false;54995;303687975;-73.573622;45.593814;54992;303687980;-73.575055;45.592204;0;25;26;8447051;Bus 141 : Jean-Talon Est Ouest;"";STM;141-O;Station Honoré-Beaugrand / Terminus Sud;Station Saint-Michel (St-Michel / Shaughnessy)
454837291;"{\"type\":\"LineString\",\"coordinates\":[[-73.5746846,45.5926103],[-73.5748966,45.5923786],[-73.5751502,45.5921062]]}";3;Rue Jean-Talon Est;1;50;false;true;true;false;false;false;33.5;1;0;0;0;0;false;54995;303687975;-73.573622;45.593814;54992;303687980;-73.575055;45.592204;1;25;26;8447051;Bus 141 : Jean-Talon Est Ouest;"";STM;141-O;Station Honoré-Beaugrand / Terminus Sud;Station Saint-Michel (St-Michel / Shaughnessy)
454837299;"{\"type\":\"LineString\",\"coordinates\":[[-73.5751502,45.5921062],[-73.5752238,45.5920203]]}";1;Rue Jean-Talon Est;1;50;false;true;true;false;false;false;12.0;2;0;0;0;0;false;54992;303687980;-73.575055;45.592204;54989;303687983;-73.576034;45.591086;2;26;27;8447051;Bus 141 : Jean-Talon Est Ouest;"";STM;141-O;Station Honoré-Beaugrand / Terminus Sud;Station Saint-Michel (St-Michel / Shaughnessy)
454837297;"{\"type\":\"LineString\",\"coordinates\":[[-73.5752238,45.5920203],[-73.5759798,45.5911598],[-73.5760889,45.5909259]]}";2;Rue Jean-Talon Est;1;50;false;true;true;false;false;false;140.0;1;0;0;0;0;false;54992;303687980;-73.575055;45.592204;54989;303687983;-73.576034;45.591086;2;26;27;8447051;Bus 141 : Jean-Talon Est Ouest;"";STM;141-O;Station Honoré-Beaugrand / Terminus Sud;Station Saint-Michel (St-Michel / Shaughnessy)
604484759;"{\"type\":\"LineString\",\"coordinates\":[[-73.5807121,45.5832095],[-73.5806842,45.5830875]]}";1;Rue Jean-Talon Est;1;50;false;false;true;false;false;false;14.0;0;0;0;0;0;false;54969;303688005;-73.580825;45.583296;54974;303688007;-73.580636;45.582617;2;31;32;8447051;Bus 141 : Jean-Talon Est Ouest;"";STM;141-O;Station Honoré-Beaugrand / Terminus Sud;Station Saint-Michel (St-Michel / Shaughnessy)
37859261;"{\"type\":\"LineString\",\"coordinates\":[[-73.5806842,45.5830875],[-73.5805209,45.5824601],[-73.5805209,45.5820608],[-73.5806032,45.5816146],[-73.5808311,45.5812102],[-73.5812632,45.5805566],[-73.5815433,45.5800299]]}";2;Rue Jean-Talon Est;1;50;false;false;true;false;false;false;356.0;0;0;0;0;0;false;54969;303688005;-73.580825;45.583296;54974;303688007;-73.580636;45.582617;2;31;32;8447051;Bus 141 : Jean-Talon Est Ouest;"";STM;141-O;Station Honoré-Beaugrand / Terminus Sud;Station Saint-Michel (St-Michel / Shaughnessy)
37859261;"{\"type\":\"LineString\",\"coordinates\":[[-73.5806842,45.5830875],[-73.5805209,45.5824601],[-73.5805209,45.5820608],[-73.5806032,45.5816146],[-73.5808311,45.5812102],[-73.5812632,45.5805566],[-73.5815433,45.5800299]]}";1;Rue Jean-Talon Est;1;50;false;false;true;false;false;false;178.0;0;0;0;0;0;false;54965;303688009;-73.580803;45.581418;54959;303688011;-73.581852;45.579613;1;33;34;8447051;Bus 141 : Jean-Talon Est Ouest;"";STM;141-O;Station Honoré-Beaugrand / Terminus Sud;Station Saint-Michel (St-Michel / Shaughnessy)
460939674;"{\"type\":\"LineString\",\"coordinates\":[[-73.5815433,45.5800299],[-73.5819149,45.5794107]]}";2;Rue Jean-Talon Est;1;50;false;false;true;false;false;false;37.5;0;0;0;0;0;false;54965;303688009;-73.580803;45.581418;54959;303688011;-73.581852;45.579613;1;33;34;8447051;Bus 141 : Jean-Talon Est Ouest;"";STM;141-O;Station Honoré-Beaugrand / Terminus Sud;Station Saint-Michel (St-Michel / Shaughnessy)
460939674;"{\"type\":\"LineString\",\"coordinates\":[[-73.5815433,45.5800299],[-73.5819149,45.5794107]]}";1;Rue Jean-Talon Est;1;50;false;false;true;false;false;false;37.5;0;0;0;0;0;false;54959;303688011;-73.581852;45.579613;54953;303688014;-73.582572;45.578388;1;34;35;8447051;Bus 141 : Jean-Talon Est Ouest;"";STM;141-O;Station Honoré-Beaugrand / Terminus Sud;Station Saint-Michel (St-Michel / Shaughnessy)
460939673;"{\"type\":\"LineString\",\"coordinates\":[[-73.5819149,45.5794107],[-73.5822531,45.5788417]]}";2;Rue Jean-Talon Est;1;50;false;false;true;false;false;false;69.0;0;0;0;0;0;false;54959;303688011;-73.581852;45.579613;54953;303688014;-73.582572;45.578388;0;34;35;8447051;Bus 141 : Jean-Talon Est Ouest;"";STM;141-O;Station Honoré-Beaugrand / Terminus Sud;Station Saint-Michel (St-Michel / Shaughnessy)
460919413;"{\"type\":\"LineString\",\"coordinates\":[[-73.5822531,45.5788417],[-73.5826201,45.5782375]]}";3;Rue Jean-Talon Est;1;50;false;false;true;false;false;false;36.5;1;0;0;0;0;false;54959;303688011;-73.581852;45.579613;54953;303688014;-73.582572;45.578388;1;34;35;8447051;Bus 141 : Jean-Talon Est Ouest;"";STM;141-O;Station Honoré-Beaugrand / Terminus Sud;Station Saint-Michel (St-Michel / Shaughnessy)
460919412;"{\"type\":\"LineString\",\"coordinates\":[[-73.5826201,45.5782375],[-73.5830259,45.5775459]]}";1;Rue Jean-Talon Est;1;50;false;false;true;false;false;false;84.0;1;0;0;0;0;false;54953;303688014;-73.582572;45.578388;54950;303688017;-73.583619;45.576588;2;35;36;8447051;Bus 141 : Jean-Talon Est Ouest;"";STM;141-O;Station Honoré-Beaugrand / Terminus Sud;Station Saint-Michel (St-Michel / Shaughnessy)
460919411;"{\"type\":\"LineString\",\"coordinates\":[[-73.5830259,45.5775459],[-73.5837122,45.5764025],[-73.5840608,45.5758297],[-73.5840793,45.5758005],[-73.5841401,45.5757084],[-73.5843726,45.5753097]]}";2;Rue Jean-Talon Est;1;50;false;false;true;false;false;false;270.0;0;0;0;0;0;false;54953;303688014;-73.582572;45.578388;54950;303688017;-73.583619;45.576588;2;35;36;8447051;Bus 141 : Jean-Talon Est Ouest;"";STM;141-O;Station Honoré-Beaugrand / Terminus Sud;Station Saint-Michel (St-Michel / Shaughnessy)
452080886;"{\"type\":\"LineString\",\"coordinates\":[[-73.5843726,45.5753097],[-73.5845374,45.575027]]}";1;Rue Jean-Talon Est;1;50;false;false;true;false;false;false;34.0;1;0;0;0;0;false;54946;303688020;-73.584316;45.575402;54943;303688024;-73.585051;45.574177;2;37;38;8447051;Bus 141 : Jean-Talon Est Ouest;"";STM;141-O;Station Honoré-Beaugrand / Terminus Sud;Station Saint-Michel (St-Michel / Shaughnessy)
452080887;"{\"type\":\"LineString\",\"coordinates\":[[-73.5845374,45.575027],[-73.584594,45.5749303]]}";2;Rue Jean-Talon Est;1;50;false;false;true;false;false;false;12.0;2;0;0;0;0;false;54946;303688020;-73.584316;45.575402;54943;303688024;-73.585051;45.574177;0;37;38;8447051;Bus 141 : Jean-Talon Est Ouest;"";STM;141-O;Station Honoré-Beaugrand / Terminus Sud;Station Saint-Michel (St-Michel / Shaughnessy)
452080885;"{\"type\":\"LineString\",\"coordinates\":[[-73.584594,45.5749303],[-73.5847747,45.5746419]]}";3;Rue Jean-Talon Est;1;50;false;false;true;false;false;false;35.0;1;0;0;0;0;false;54946;303688020;-73.584316;45.575402;54943;303688024;-73.585051;45.574177;0;37;38;8447051;Bus 141 : Jean-Talon Est Ouest;"";STM;141-O;Station Honoré-Beaugrand / Terminus Sud;Station Saint-Michel (St-Michel / Shaughnessy)
37859260;"{\"type\":\"LineString\",\"coordinates\":[[-73.5847747,45.5746419],[-73.5851804,45.5741267],[-73.5855151,45.5737017],[-73.5862666,45.5727474],[-73.5871315,45.5716492],[-73.5873908,45.5713199],[-73.5876532,45.5709867],[-73.5879274,45.5706385],[-73.5883917,45.5700489],[-73.5893042,45.5688418]]}";4;Rue Jean-Talon Est;1;50;false;false;true;false;false;false;735.0;1;0;0;0;0;false;54946;303688020;-73.584316;45.575402;54943;303688024;-73.585051;45.574177;2;37;38;8447051;Bus 141 : Jean-Talon Est Ouest;"";STM;141-O;Station Honoré-Beaugrand / Terminus Sud;Station Saint-Michel (St-Michel / Shaughnessy)
37859260;"{\"type\":\"LineString\",\"coordinates\":[[-73.5847747,45.5746419],[-73.5851804,45.5741267],[-73.5855151,45.5737017],[-73.5862666,45.5727474],[-73.5871315,45.5716492],[-73.5873908,45.5713199],[-73.5876532,45.5709867],[-73.5879274,45.5706385],[-73.5883917,45.5700489],[-73.5893042,45.5688418]]}";1;Rue Jean-Talon Est;1;50;false;false;true;false;false;false;367.5;1;0;0;0;0;false;54926;303688034;-73.588454;45.570017;51817;303688036;-73.590106;45.568055;1;41;42;8447051;Bus 141 : Jean-Talon Est Ouest;"";STM;141-O;Station Honoré-Beaugrand / Terminus Sud;Station Saint-Michel (St-Michel / Shaughnessy)
455264719;"{\"type\":\"LineString\",\"coordinates\":[[-73.5893042,45.5688418],[-73.589702,45.5683899],[-73.5899247,45.5681502]]}";2;Rue Jean-Talon Est;1;50;false;false;true;false;false;false;91.0;1;0;0;0;0;false;54926;303688034;-73.588454;45.570017;51817;303688036;-73.590106;45.568055;0;41;42;8447051;Bus 141 : Jean-Talon Est Ouest;"";STM;141-O;Station Honoré-Beaugrand / Terminus Sud;Station Saint-Michel (St-Michel / Shaughnessy)
455264716;"{\"type\":\"LineString\",\"coordinates\":[[-73.5899247,45.5681502],[-73.590145,45.567898]]}";3;Rue Jean-Talon Est;1;50;false;false;true;false;false;false;16.5;1;0;0;0;0;false;54926;303688034;-73.588454;45.570017;51817;303688036;-73.590106;45.568055;1;41;42;8447051;Bus 141 : Jean-Talon Est Ouest;"";STM;141-O;Station Honoré-Beaugrand / Terminus Sud;Station Saint-Michel (St-Michel / Shaughnessy)
455264719;"{\"type\":\"LineString\",\"coordinates\":[[-73.5893042,45.5688418],[-73.589702,45.5683899],[-73.5899247,45.5681502]]}";1;Rue Jean-Talon Est;1;50;false;false;true;false;false;false;91.0;1;0;0;0;0;false;51817;303688036;-73.590106;45.568055;51792;281870510;-73.591307;45.566715;2;42;43;8447051;Bus 141 : Jean-Talon Est Ouest;"";STM;141-O;Station Honoré-Beaugrand / Terminus Sud;Station Saint-Michel (St-Michel / Shaughnessy)
455264716;"{\"type\":\"LineString\",\"coordinates\":[[-73.5899247,45.5681502],[-73.590145,45.567898]]}";2;Rue Jean-Talon Est;1;50;false;false;true;false;false;false;33.0;1;0;0;0;0;false;51817;303688036;-73.590106;45.568055;51792;281870510;-73.591307;45.566715;0;42;43;8447051;Bus 141 : Jean-Talon Est Ouest;"";STM;141-O;Station Honoré-Beaugrand / Terminus Sud;Station Saint-Michel (St-Michel / Shaughnessy)
455264720;"{\"type\":\"LineString\",\"coordinates\":[[-73.590145,45.567898],[-73.5904545,45.5675483],[-73.5907311,45.5672377],[-73.5908576,45.5670878],[-73.5913219,45.5665836]]}";3;Rue Jean-Talon Est;1;50;false;false;true;false;false;false;173.0;2;0;0;0;0;false;51817;303688036;-73.590106;45.568055;51792;281870510;-73.591307;45.566715;2;42;43;8447051;Bus 141 : Jean-Talon Est Ouest;"";STM;141-O;Station Honoré-Beaugrand / Terminus Sud;Station Saint-Michel (St-Michel / Shaughnessy)
435636025;"{\"type\":\"LineString\",\"coordinates\":[[-73.5913219,45.5665836],[-73.591411,45.5664809]]}";1;Rue Jean-Talon Est;1;50;false;false;true;false;false;false;14.0;2;0;0;0;0;false;51792;281870510;-73.591307;45.566715;51757;281870513;-73.592836;45.565067;2;43;44;8447051;Bus 141 : Jean-Talon Est Ouest;"";STM;141-O;Station Honoré-Beaugrand / Terminus Sud;Station Saint-Michel (St-Michel / Shaughnessy)
37859259;"{\"type\":\"LineString\",\"coordinates\":[[-73.591411,45.5664809],[-73.5918899,45.565976],[-73.5923856,45.5654523],[-73.5928353,45.5649649],[-73.5933411,45.5644139],[-73.593747,45.5639528],[-73.5942126,45.5634239],[-73.5946811,45.5629225]]}";2;Rue Jean-Talon Est;1;50;false;false;true;false;false;false;471.0;1;0;0;0;0;false;51792;281870510;-73.591307;45.566715;51757;281870513;-73.592836;45.565067;2;43;44;8447051;Bus 141 : Jean-Talon Est Ouest;"";STM;141-O;Station Honoré-Beaugrand / Terminus Sud;Station Saint-Michel (St-Michel / Shaughnessy)
460751342;"{\"type\":\"LineString\",\"coordinates\":[[-73.5946811,45.5629225],[-73.5951617,45.5623873]]}";1;Rue Jean-Talon Est;1;50;false;false;true;false;false;false;71.0;0;0;0;0;0;false;51706;282143608;-73.594672;45.563045;51692;282143610;-73.595653;45.561949;2;45;46;8447051;Bus 141 : Jean-Talon Est Ouest;"";STM;141-O;Station Honoré-Beaugrand / Terminus Sud;Station Saint-Michel (St-Michel / Shaughnessy)
460751341;"{\"type\":\"LineString\",\"coordinates\":[[-73.5951617,45.5623873],[-73.5956361,45.5618546]]}";2;Rue Jean-Talon Est;1;50;false;false;true;false;false;false;70.0;0;0;0;0;0;false;51706;282143608;-73.594672;45.563045;51692;282143610;-73.595653;45.561949;2;45;46;8447051;Bus 141 : Jean-Talon Est Ouest;"";STM;141-O;Station Honoré-Beaugrand / Terminus Sud;Station Saint-Michel (St-Michel / Shaughnessy)
460751546;"{\"type\":\"LineString\",\"coordinates\":[[-73.5956361,45.5618546],[-73.5961278,45.5613255]]}";1;Rue Jean-Talon Est;1;50;false;false;true;false;false;false;71.0;0;0;0;0;0;false;51692;282143610;-73.595653;45.561949;51662;282147639;-73.597048;45.560397;2;46;47;8447051;Bus 141 : Jean-Talon Est Ouest;"";STM;141-O;Station Honoré-Beaugrand / Terminus Sud;Station Saint-Michel (St-Michel / Shaughnessy)
460751545;"{\"type\":\"LineString\",\"coordinates\":[[-73.5961278,45.5613255],[-73.5965874,45.5607904]]}";2;Rue Jean-Talon Est;1;50;false;false;true;false;false;false;70.0;0;0;0;0;0;false;51692;282143610;-73.595653;45.561949;51662;282147639;-73.597048;45.560397;0;46;47;8447051;Bus 141 : Jean-Talon Est Ouest;"";STM;141-O;Station Honoré-Beaugrand / Terminus Sud;Station Saint-Michel (St-Michel / Shaughnessy)
460751544;"{\"type\":\"LineString\",\"coordinates\":[[-73.5965874,45.5607904],[-73.597058,45.5602809]]}";3;Rue Jean-Talon Est;1;50;false;false;true;false;false;false;68.0;0;0;0;0;0;false;51692;282143610;-73.595653;45.561949;51662;282147639;-73.597048;45.560397;2;46;47;8447051;Bus 141 : Jean-Talon Est Ouest;"";STM;141-O;Station Honoré-Beaugrand / Terminus Sud;Station Saint-Michel (St-Michel / Shaughnessy)
460751543;"{\"type\":\"LineString\",\"coordinates\":[[-73.597058,45.5602809],[-73.5975207,45.5597713]]}";1;Rue Jean-Talon Est;1;50;false;false;true;false;false;false;68.0;0;0;0;0;0;false;51662;282147639;-73.597048;45.560397;51631;282147641;-73.598287;45.559015;2;47;48;8447051;Bus 141 : Jean-Talon Est Ouest;"";STM;141-O;Station Honoré-Beaugrand / Terminus Sud;Station Saint-Michel (St-Michel / Shaughnessy)
460751542;"{\"type\":\"LineString\",\"coordinates\":[[-73.5975207,45.5597713],[-73.5979782,45.5592552]]}";2;Rue Jean-Talon Est;1;50;false;false;true;false;false;false;68.0;0;0;0;0;0;false;51662;282147639;-73.597048;45.560397;51631;282147641;-73.598287;45.559015;0;47;48;8447051;Bus 141 : Jean-Talon Est Ouest;"";STM;141-O;Station Honoré-Beaugrand / Terminus Sud;Station Saint-Michel (St-Michel / Shaughnessy)
460751541;"{\"type\":\"LineString\",\"coordinates\":[[-73.5979782,45.5592552],[-73.5982981,45.5588878]]}";3;Rue Jean-Talon Est;1;50;false;false;true;false;false;false;48.0;1;0;0;0;0;false;51662;282147639;-73.597048;45.560397;51631;282147641;-73.598287;45.559015;2;47;48;8447051;Bus 141 : Jean-Talon Est Ouest;"";STM;141-O;Station Honoré-Beaugrand / Terminus Sud;Station Saint-Michel (St-Michel / Shaughnessy)
