way_id;shape;index;name;nb_lanes;legal_speed;speed_zone_30;oneway;shares_bike;bike_box;bus_lane;dedicated_bus_lane;length;nb_traffic_signals;nb_crossings;nb_stops;nb_give_ways;nb_lvl_crossings;roundabout;stop_id_orig;node_id_orig;coord_x_orig;coord_y_orig;stop_id_dest;node_id_dest;coord_x_dest;coord_y_dest;nb_neighbouring_ways_bus_stop;ordre_orig;ordre_dest;id_line;line_name;colour;operator;ref;from;to
117742195;"{\"type\":\"LineString\",\"coordinates\":[[3.2638484,36.6854728],[3.2629869,36.6843592],[3.2626867,36.6839564],[3.2617504,36.6827392],[3.2607395,36.6814102]]}";1;"";1;50;false;false;true;false;false;false;537.0;0;0;0;0;0;false;Hamadi bus;2523344793;3.2609332;36.6812962;MOUAÏCIA;3021822772;3.2709407;36.6980858;1;0;1;8731260;Bus: Hammadi => El Harrach;green;ETUSA;630;Hammadi;El Harrach
117742196;"{\"type\":\"LineString\",\"coordinates\":[[3.2642059,36.6859363],[3.2638484,36.6854728]]}";2;"";1;50;false;false;true;false;false;false;62.0;0;0;0;0;0;false;Hamadi bus;2523344793;3.2609332;36.6812962;MOUAÏCIA;3021822772;3.2709407;36.6980858;0;0;1;8731260;Bus: Hammadi => El Harrach;green;ETUSA;630;Hammadi;El Harrach
245081914;"{\"type\":\"LineString\",\"coordinates\":[[3.2653258,36.68697],[3.2650376,36.6867518],[3.2646296,36.6864161],[3.2642059,36.6859363]]}";3;"";1;50;false;false;true;false;false;false;155.0;0;0;0;0;0;false;Hamadi bus;2523344793;3.2609332;36.6812962;MOUAÏCIA;3021822772;3.2709407;36.6980858;0;0;1;8731260;Bus: Hammadi => El Harrach;green;ETUSA;630;Hammadi;El Harrach
117742200;"{\"type\":\"LineString\",\"coordinates\":[[3.2649678,36.688173],[3.2654639,36.6875907],[3.2655205,36.6874702],[3.2655247,36.6873549],[3.2655139,36.6872516],[3.265471,36.687114],[3.2653258,36.68697]]}";4;"";1;50;false;false;true;false;false;false;156.0;0;0;0;0;0;false;Hamadi bus;2523344793;3.2609332;36.6812962;MOUAÏCIA;3021822772;3.2709407;36.6980858;0;0;1;8731260;Bus: Hammadi => El Harrach;green;ETUSA;630;Hammadi;El Harrach
627689989;"{\"type\":\"LineString\",\"coordinates\":[[3.2649678,36.688173],[3.2649634,36.6883231],[3.26506,36.6885036]]}";5;"";1;50;false;false;true;false;false;false;39.0;0;0;0;0;0;false;Hamadi bus;2523344793;3.2609332;36.6812962;MOUAÏCIA;3021822772;3.2709407;36.6980858;0;0;1;8731260;Bus: Hammadi => El Harrach;green;ETUSA;630;Hammadi;El Harrach
28775289;"{\"type\":\"LineString\",\"coordinates\":[[3.26506,36.6885036],[3.2662073,36.689229],[3.2677318,36.6902083],[3.2709741,36.6923164],[3.2722626,36.6931462],[3.2725647,36.6935036],[3.2727476,36.6938447],[3.2729104,36.6942689],[3.2729321,36.6945078],[3.2729354,36.6946326],[3.2729172,36.6947402],[3.272838,36.6949726],[3.2724543,36.6956364],[3.2724268,36.6956797],[3.2722906,36.6958838],[3.2717058,36.6967602],[3.2716111,36.6969028],[3.2714617,36.6971279],[3.2712164,36.6975235],[3.2711136,36.6976892],[3.270962,36.697933],[3.2708689,36.6980486],[3.2704618,36.6985542],[3.2702209,36.6988592],[3.2698862,36.6993271],[3.2697317,36.6996299],[3.2694313,36.7002974],[3.2692706,36.7006842],[3.269191,36.7008411],[3.2687961,36.7015499],[3.2685355,36.7020316],[3.2684871,36.7021211],[3.2682728,36.7024038],[3.2682211,36.702472],[3.2679207,36.7028436],[3.2675208,36.7033393],[3.2671825,36.7037588],[3.2671304,36.7038158],[3.26641,36.7046052],[3.2654144,36.7056512],[3.2641294,36.7070151],[3.2641032,36.7070411],[3.2629253,36.708211],[3.2615961,36.7096847],[3.2614607,36.7098681],[3.2612926,36.7101714],[3.2612476,36.7102549],[3.2611898,36.7103623]]}";6;"";2;50;false;false;true;false;false;false;1546.5;0;0;0;0;0;false;Hamadi bus;2523344793;3.2609332;36.6812962;MOUAÏCIA;3021822772;3.2709407;36.6980858;1;0;1;8731260;Bus: Hammadi => El Harrach;green;ETUSA;630;Hammadi;El Harrach
320428530;"{\"type\":\"LineString\",\"coordinates\":[[3.2611898,36.7103623],[3.2611887,36.7105551]]}";1;"";1;40;false;true;true;false;false;false;22.0;0;0;0;0;0;false;STATION SERVICES;5925693681;3.2612691;36.7102623;CITE CONOR - DAR EL BEIDA;5925693679;3.2251303;36.7142671;2;3;4;8731260;Bus: Hammadi => El Harrach;green;ETUSA;630;Hammadi;El Harrach
43570875;"{\"type\":\"LineString\",\"coordinates\":[[3.2612112,36.710593],[3.2612196,36.7106345],[3.2612124,36.7106782],[3.2611897,36.7107183],[3.2611532,36.7107514],[3.2611063,36.7107744],[3.2610531,36.7107854],[3.260994,36.7107827],[3.2609389,36.7107653],[3.2608935,36.7107348],[3.2608624,36.7106944],[3.2608513,36.7106646],[3.2608482,36.7106336],[3.260857,36.7105917],[3.2608803,36.7105535],[3.2609161,36.7105222],[3.2609337,36.7105137],[3.2609615,36.7105002],[3.2609924,36.7104945],[3.2610239,36.7104886],[3.2610874,36.7104947],[3.2611446,36.7105178],[3.2611887,36.7105551],[3.2612112,36.710593]]}";2;"";2;30;false;false;true;false;false;false;105.0;0;0;0;0;0;true;STATION SERVICES;5925693681;3.2612691;36.7102623;CITE CONOR - DAR EL BEIDA;5925693679;3.2251303;36.7142671;0;3;4;8731260;Bus: Hammadi => El Harrach;green;ETUSA;630;Hammadi;El Harrach
43570848;"{\"type\":\"LineString\",\"coordinates\":[[3.2610531,36.7107854],[3.2608847,36.7109014],[3.2607023,36.711087]]}";3;"";1;40;false;true;true;false;false;false;47.0;0;0;0;0;0;false;STATION SERVICES;5925693681;3.2612691;36.7102623;CITE CONOR - DAR EL BEIDA;5925693679;3.2251303;36.7142671;0;3;4;8731260;Bus: Hammadi => El Harrach;green;ETUSA;630;Hammadi;El Harrach
43570830;"{\"type\":\"LineString\",\"coordinates\":[[3.2606238,36.7125152],[3.2605353,36.7121521],[3.2605105,36.7120131],[3.2605035,36.7118712],[3.260507,36.7117662],[3.2605306,36.7116321],[3.2605558,36.7114994],[3.2605847,36.7113898],[3.260628,36.7112456],[3.2607023,36.711087]]}";4;"";2;50;false;false;true;false;false;false;164.0;0;0;0;0;0;false;STATION SERVICES;5925693681;3.2612691;36.7102623;CITE CONOR - DAR EL BEIDA;5925693679;3.2251303;36.7142671;0;3;4;8731260;Bus: Hammadi => El Harrach;green;ETUSA;630;Hammadi;El Harrach
43570832;"{\"type\":\"LineString\",\"coordinates\":[[3.2607742,36.7131027],[3.2606238,36.7125152]]}";5;"";1;50;false;false;true;false;false;false;68.0;0;0;0;0;0;false;STATION SERVICES;5925693681;3.2612691;36.7102623;CITE CONOR - DAR EL BEIDA;5925693679;3.2251303;36.7142671;0;3;4;8731260;Bus: Hammadi => El Harrach;green;ETUSA;630;Hammadi;El Harrach
43570786;"{\"type\":\"LineString\",\"coordinates\":[[3.2607,36.7145477],[3.2607386,36.7144788],[3.2607975,36.7143617],[3.2608371,36.7142579],[3.2608695,36.7141483],[3.2608948,36.7140329],[3.2609003,36.7139001],[3.260905,36.7137653],[3.2608892,36.7136104],[3.2607742,36.7131027]]}";6;Hamadi - Bordj El Bahri;2;60;false;false;true;false;false;false;167.0;0;0;0;0;0;false;STATION SERVICES;5925693681;3.2612691;36.7102623;CITE CONOR - DAR EL BEIDA;5925693679;3.2251303;36.7142671;0;3;4;8731260;Bus: Hammadi => El Harrach;green;ETUSA;630;Hammadi;El Harrach
404275928;"{\"type\":\"LineString\",\"coordinates\":[[3.2607,36.7145477],[3.2605966,36.7147864],[3.2603948,36.7149824],[3.2603051,36.715055],[3.2601842,36.7151362],[3.2600763,36.7151964],[3.259939,36.7152671],[3.2597951,36.7153325],[3.2592034,36.7155524],[3.2570341,36.7163207],[3.2562459,36.7165927]]}";7;Hamadi - Bordj El Bahri;2;60;false;true;true;false;false;false;476.0;0;0;0;0;0;false;STATION SERVICES;5925693681;3.2612691;36.7102623;CITE CONOR - DAR EL BEIDA;5925693679;3.2251303;36.7142671;0;3;4;8731260;Bus: Hammadi => El Harrach;green;ETUSA;630;Hammadi;El Harrach
263617555;"{\"type\":\"LineString\",\"coordinates\":[[3.2562459,36.7165927],[3.2560595,36.7166608],[3.2559353,36.7167105],[3.2558241,36.7167576],[3.2557326,36.7168021],[3.2556084,36.7168702],[3.2554939,36.7169382],[3.2553566,36.7170351],[3.2552225,36.7171399],[3.2550427,36.7173022],[3.2547102,36.7176866],[3.2543886,36.7181156]]}";8;Hamadi - Bordj El Bahri;2;60;false;true;true;false;false;false;246.0;0;0;0;0;0;false;STATION SERVICES;5925693681;3.2612691;36.7102623;CITE CONOR - DAR EL BEIDA;5925693679;3.2251303;36.7142671;0;3;4;8731260;Bus: Hammadi => El Harrach;green;ETUSA;630;Hammadi;El Harrach
404275934;"{\"type\":\"LineString\",\"coordinates\":[[3.2543886,36.7181156],[3.2540023,36.7186729],[3.2535635,36.7192931]]}";9;Hamadi - Bordj El Bahri;2;60;false;true;true;false;false;false;152.0;0;0;0;0;0;false;STATION SERVICES;5925693681;3.2612691;36.7102623;CITE CONOR - DAR EL BEIDA;5925693679;3.2251303;36.7142671;0;3;4;8731260;Bus: Hammadi => El Harrach;green;ETUSA;630;Hammadi;El Harrach
565774367;"{\"type\":\"LineString\",\"coordinates\":[[3.2535635,36.7192931],[3.2531826,36.7198521]]}";10;Hamadi - Bordj El Bahri;2;60;false;true;true;false;false;false;72.0;0;0;0;0;0;false;STATION SERVICES;5925693681;3.2612691;36.7102623;CITE CONOR - DAR EL BEIDA;5925693679;3.2251303;36.7142671;0;3;4;8731260;Bus: Hammadi => El Harrach;green;ETUSA;630;Hammadi;El Harrach
23548358;"{\"type\":\"LineString\",\"coordinates\":[[3.2531826,36.7198521],[3.2528983,36.7202777]]}";11;"";2;60;false;true;true;false;false;false;55.0;0;0;0;0;0;false;STATION SERVICES;5925693681;3.2612691;36.7102623;CITE CONOR - DAR EL BEIDA;5925693679;3.2251303;36.7142671;0;3;4;8731260;Bus: Hammadi => El Harrach;green;ETUSA;630;Hammadi;El Harrach
404275930;"{\"type\":\"LineString\",\"coordinates\":[[3.2528983,36.7202777],[3.2526623,36.7206389]]}";12;Hamadi - Bordj El Bahri;2;80;false;true;true;false;false;false;46.0;0;0;0;0;0;false;STATION SERVICES;5925693681;3.2612691;36.7102623;CITE CONOR - DAR EL BEIDA;5925693679;3.2251303;36.7142671;0;3;4;8731260;Bus: Hammadi => El Harrach;green;ETUSA;630;Hammadi;El Harrach
23548538;"{\"type\":\"LineString\",\"coordinates\":[[3.2526623,36.7206389],[3.2526194,36.7208539],[3.2526462,36.7209485],[3.2527052,36.7210388],[3.2528393,36.7211162],[3.2530539,36.7211721],[3.2532738,36.7212065],[3.253483,36.7212065],[3.2536815,36.7211807],[3.2538961,36.7210861],[3.2540197,36.7209316],[3.2540678,36.7207464],[3.2540708,36.7206061],[3.2540241,36.7205013],[3.2539354,36.7204152],[3.253856,36.7203478],[3.2536972,36.7202692],[3.2532094,36.7201444]]}";13;"";1;40;false;true;true;false;false;false;319.0;0;0;0;0;0;false;STATION SERVICES;5925693681;3.2612691;36.7102623;CITE CONOR - DAR EL BEIDA;5925693679;3.2251303;36.7142671;0;3;4;8731260;Bus: Hammadi => El Harrach;green;ETUSA;630;Hammadi;El Harrach
627689987;"{\"type\":\"LineString\",\"coordinates\":[[3.2532094,36.7201444],[3.2523619,36.720037],[3.2515281,36.7198876]]}";14;Première Rocade Sud;3;80;false;true;true;false;false;false;155.0;0;0;0;0;0;false;STATION SERVICES;5925693681;3.2612691;36.7102623;CITE CONOR - DAR EL BEIDA;5925693679;3.2251303;36.7142671;0;3;4;8731260;Bus: Hammadi => El Harrach;green;ETUSA;630;Hammadi;El Harrach
404275939;"{\"type\":\"LineString\",\"coordinates\":[[3.2515281,36.7198876],[3.2510064,36.7197559],[3.2505867,36.7196323],[3.2500346,36.7194394],[3.2494329,36.7192465],[3.2488819,36.7190561],[3.2481432,36.7187944],[3.2480787,36.7187716],[3.2469859,36.7183972],[3.2460706,36.718079],[3.2447033,36.7175708]]}";15;Première Rocade Sud;3;80;false;true;true;false;false;false;671.0;0;0;0;0;0;false;STATION SERVICES;5925693681;3.2612691;36.7102623;CITE CONOR - DAR EL BEIDA;5925693679;3.2251303;36.7142671;0;3;4;8731260;Bus: Hammadi => El Harrach;green;ETUSA;630;Hammadi;El Harrach
354421033;"{\"type\":\"LineString\",\"coordinates\":[[3.2447033,36.7175708],[3.2413963,36.7163816]]}";16;Autoroute Est-Ouest الطريق السيار شرق-غرب;5;80;false;true;true;false;false;false;328.0;0;0;0;0;0;false;STATION SERVICES;5925693681;3.2612691;36.7102623;CITE CONOR - DAR EL BEIDA;5925693679;3.2251303;36.7142671;0;3;4;8731260;Bus: Hammadi => El Harrach;green;ETUSA;630;Hammadi;El Harrach
316797406;"{\"type\":\"LineString\",\"coordinates\":[[3.2413963,36.7163816],[3.2405893,36.7160866]]}";17;Pont du Oued El Hamiz;5;80;false;true;true;false;false;false;81.0;0;0;0;0;0;false;STATION SERVICES;5925693681;3.2612691;36.7102623;CITE CONOR - DAR EL BEIDA;5925693679;3.2251303;36.7142671;0;3;4;8731260;Bus: Hammadi => El Harrach;green;ETUSA;630;Hammadi;El Harrach
316795630;"{\"type\":\"LineString\",\"coordinates\":[[3.2405893,36.7160866],[3.2399027,36.7158256],[3.2396196,36.7157291],[3.2391524,36.7155589],[3.238034,36.7151901],[3.2369371,36.71486]]}";18;التجنب الجنوبي الأول;5;80;false;true;true;false;false;false;359.0;0;0;0;0;0;false;STATION SERVICES;5925693681;3.2612691;36.7102623;CITE CONOR - DAR EL BEIDA;5925693679;3.2251303;36.7142671;0;3;4;8731260;Bus: Hammadi => El Harrach;green;ETUSA;630;Hammadi;El Harrach
316795629;"{\"type\":\"LineString\",\"coordinates\":[[3.2369371,36.71486],[3.2361572,36.7146828],[3.2352098,36.7145092],[3.2342895,36.7143844],[3.2326094,36.7142705],[3.2288675,36.7142708]]}";19;Autoroute Est-Ouest الطريق السيار شرق-غرب;4;80;false;true;true;false;false;false;738.0;0;0;0;0;0;false;STATION SERVICES;5925693681;3.2612691;36.7102623;CITE CONOR - DAR EL BEIDA;5925693679;3.2251303;36.7142671;0;3;4;8731260;Bus: Hammadi => El Harrach;green;ETUSA;630;Hammadi;El Harrach
404275919;"{\"type\":\"LineString\",\"coordinates\":[[3.2288675,36.7142708],[3.2266874,36.7142481]]}";20;Première Rocade Sud;3;80;false;true;true;false;false;false;198.0;0;0;0;0;0;false;STATION SERVICES;5925693681;3.2612691;36.7102623;CITE CONOR - DAR EL BEIDA;5925693679;3.2251303;36.7142671;0;3;4;8731260;Bus: Hammadi => El Harrach;green;ETUSA;630;Hammadi;El Harrach
354423283;"{\"type\":\"LineString\",\"coordinates\":[[3.2266874,36.7142481],[3.2256893,36.7142425],[3.2251862,36.7142274],[3.2232867,36.7141705],[3.222769,36.7141482],[3.2222428,36.7140913],[3.2216693,36.7140299],[3.2210551,36.7139296],[3.220317,36.7137715],[3.2196526,36.7136095],[3.2189308,36.7134136],[3.2179485,36.7131034],[3.2175319,36.7129457],[3.2171313,36.7127959],[3.2164944,36.712518],[3.2159485,36.7122519],[3.2155341,36.7120409],[3.2146018,36.7114845]]}";21;Première Rocade Sud;4;80;false;true;true;false;false;false;1163.0;0;0;0;0;0;false;STATION SERVICES;5925693681;3.2612691;36.7102623;CITE CONOR - DAR EL BEIDA;5925693679;3.2251303;36.7142671;2;3;4;8731260;Bus: Hammadi => El Harrach;green;ETUSA;630;Hammadi;El Harrach
354423283;"{\"type\":\"LineString\",\"coordinates\":[[3.2266874,36.7142481],[3.2256893,36.7142425],[3.2251862,36.7142274],[3.2232867,36.7141705],[3.222769,36.7141482],[3.2222428,36.7140913],[3.2216693,36.7140299],[3.2210551,36.7139296],[3.220317,36.7137715],[3.2196526,36.7136095],[3.2189308,36.7134136],[3.2179485,36.7131034],[3.2175319,36.7129457],[3.2171313,36.7127959],[3.2164944,36.712518],[3.2159485,36.7122519],[3.2155341,36.7120409],[3.2146018,36.7114845]]}";1;Première Rocade Sud;4;80;false;true;true;false;false;false;581.5;0;0;0;0;0;false;CITE CONOR - DAR EL BEIDA;5925693679;3.2251303;36.7142671;Cité 5 Juillet;691098526;3.2018576;36.7204389;1;4;5;8731260;Bus: Hammadi => El Harrach;green;ETUSA;630;Hammadi;El Harrach
316797797;"{\"type\":\"LineString\",\"coordinates\":[[3.2146018,36.7114845],[3.2143551,36.7113276]]}";2;Autoroute Est-Ouest Première Rocade Sud;3;80;false;true;true;false;false;false;29.0;0;0;0;0;0;false;CITE CONOR - DAR EL BEIDA;5925693679;3.2251303;36.7142671;Cité 5 Juillet;691098526;3.2018576;36.7204389;0;4;5;8731260;Bus: Hammadi => El Harrach;green;ETUSA;630;Hammadi;El Harrach
316797798;"{\"type\":\"LineString\",\"coordinates\":[[3.2143551,36.7113276],[3.2129012,36.7103173],[3.2119134,36.7095605],[3.2116052,36.7093284]]}";3;Première Rocade Sud;3;80;false;true;true;false;false;false;336.0;0;0;0;0;0;false;CITE CONOR - DAR EL BEIDA;5925693679;3.2251303;36.7142671;Cité 5 Juillet;691098526;3.2018576;36.7204389;0;4;5;8731260;Bus: Hammadi => El Harrach;green;ETUSA;630;Hammadi;El Harrach
316798548;"{\"type\":\"LineString\",\"coordinates\":[[3.2116052,36.7093284],[3.2109934,36.7088542]]}";4;Première Rocade Sud;3;80;false;true;true;false;false;false;77.0;0;0;0;0;0;false;CITE CONOR - DAR EL BEIDA;5925693679;3.2251303;36.7142671;Cité 5 Juillet;691098526;3.2018576;36.7204389;0;4;5;8731260;Bus: Hammadi => El Harrach;green;ETUSA;630;Hammadi;El Harrach
404275920;"{\"type\":\"LineString\",\"coordinates\":[[3.2109934,36.7088542],[3.2093923,36.7076783]]}";5;Première Rocade Sud;3;80;false;true;true;false;false;false;197.0;0;0;0;0;0;false;CITE CONOR - DAR EL BEIDA;5925693679;3.2251303;36.7142671;Cité 5 Juillet;691098526;3.2018576;36.7204389;0;4;5;8731260;Bus: Hammadi => El Harrach;green;ETUSA;630;Hammadi;El Harrach
25984426;"{\"type\":\"LineString\",\"coordinates\":[[3.2093923,36.7076783],[3.2090264,36.7075446],[3.2087153,36.7074362],[3.2085806,36.7074136],[3.2084444,36.7074071],[3.2082459,36.7074168],[3.2079803,36.7074716],[3.2076357,36.707563],[3.2073608,36.7076544],[3.2071682,36.7077479],[3.2069363,36.7079096],[3.2068343,36.7080567],[3.2067728,36.7081834],[3.2067232,36.7083275],[3.2066511,36.7086062]]}";6;Branchement A1-N5E;1;40;false;true;true;false;false;false;326.0;0;0;0;0;0;false;CITE CONOR - DAR EL BEIDA;5925693679;3.2251303;36.7142671;Cité 5 Juillet;691098526;3.2018576;36.7204389;0;4;5;8731260;Bus: Hammadi => El Harrach;green;ETUSA;630;Hammadi;El Harrach
316790806;"{\"type\":\"LineString\",\"coordinates\":[[3.2066511,36.7086062],[3.20666,36.7090076]]}";7;Route de l'aéroport;2;60;false;true;true;false;false;false;46.0;0;0;0;0;0;false;CITE CONOR - DAR EL BEIDA;5925693679;3.2251303;36.7142671;Cité 5 Juillet;691098526;3.2018576;36.7204389;0;4;5;8731260;Bus: Hammadi => El Harrach;green;ETUSA;630;Hammadi;El Harrach
316790805;"{\"type\":\"LineString\",\"coordinates\":[[3.20666,36.7090076],[3.2067126,36.7100553],[3.2066996,36.7106819],[3.2066442,36.7114991],[3.2065822,36.7120311],[3.2065193,36.7124382],[3.2064879,36.7126348],[3.2064005,36.7130285]]}";8;Route de l'aéroport طريق المطار;2;80;false;true;true;false;false;false;454.0;0;0;0;0;0;false;CITE CONOR - DAR EL BEIDA;5925693679;3.2251303;36.7142671;Cité 5 Juillet;691098526;3.2018576;36.7204389;0;4;5;8731260;Bus: Hammadi => El Harrach;green;ETUSA;630;Hammadi;El Harrach
316789355;"{\"type\":\"LineString\",\"coordinates\":[[3.2064005,36.7130285],[3.2062608,36.7135581]]}";9;"";2;80;false;true;true;false;false;false;61.0;0;0;0;0;0;false;CITE CONOR - DAR EL BEIDA;5925693679;3.2251303;36.7142671;Cité 5 Juillet;691098526;3.2018576;36.7204389;0;4;5;8731260;Bus: Hammadi => El Harrach;green;ETUSA;630;Hammadi;El Harrach
404276000;"{\"type\":\"LineString\",\"coordinates\":[[3.2062608,36.7135581],[3.2061047,36.7140707],[3.2054449,36.7157857],[3.2053403,36.7160641],[3.205189,36.7164299],[3.2049879,36.7169094],[3.2047062,36.7175677]]}";10;Route de l'aéroport طريق المطار;2;80;false;true;true;false;false;false;473.0;0;0;0;0;0;false;CITE CONOR - DAR EL BEIDA;5925693679;3.2251303;36.7142671;Cité 5 Juillet;691098526;3.2018576;36.7204389;0;4;5;8731260;Bus: Hammadi => El Harrach;green;ETUSA;630;Hammadi;El Harrach
404275996;"{\"type\":\"LineString\",\"coordinates\":[[3.2047062,36.7175677],[3.204569,36.7178576],[3.2044833,36.7180382],[3.204376,36.7182317],[3.2042499,36.7184295],[3.2041293,36.7185822],[3.2039923,36.7187456],[3.2038208,36.7189283],[3.2035954,36.7191337]]}";11;Route de l'aéroport طريق المطار;2;80;false;true;true;false;false;false;205.0;0;0;0;0;0;false;CITE CONOR - DAR EL BEIDA;5925693679;3.2251303;36.7142671;Cité 5 Juillet;691098526;3.2018576;36.7204389;0;4;5;8731260;Bus: Hammadi => El Harrach;green;ETUSA;630;Hammadi;El Harrach
567134596;"{\"type\":\"LineString\",\"coordinates\":[[3.2035954,36.7191337],[3.2028558,36.7196728],[3.2018113,36.7204142]]}";12;Route de l'aéroport طريق المطار;2;80;false;true;true;false;false;false;108.5;0;0;0;0;0;false;CITE CONOR - DAR EL BEIDA;5925693679;3.2251303;36.7142671;Cité 5 Juillet;691098526;3.2018576;36.7204389;1;4;5;8731260;Bus: Hammadi => El Harrach;green;ETUSA;630;Hammadi;El Harrach
567134596;"{\"type\":\"LineString\",\"coordinates\":[[3.2035954,36.7191337],[3.2028558,36.7196728],[3.2018113,36.7204142]]}";1;Route de l'aéroport طريق المطار;2;80;false;true;true;false;false;false;217.0;0;0;0;0;0;false;Cité 5 Juillet;691098526;3.2018576;36.7204389;DG PROTECTION CIVILE;3321711393;3.1985974;36.7228028;2;5;6;8731260;Bus: Hammadi => El Harrach;green;ETUSA;630;Hammadi;El Harrach
564986165;"{\"type\":\"LineString\",\"coordinates\":[[3.2018113,36.7204142],[3.2014955,36.7206463],[3.2012968,36.7207883],[3.200618,36.7212814],[3.2005837,36.721306]]}";2;Route de l'aéroport طريق المطار;2;80;false;true;true;false;false;false;150.0;0;0;0;0;0;false;Cité 5 Juillet;691098526;3.2018576;36.7204389;DG PROTECTION CIVILE;3321711393;3.1985974;36.7228028;0;5;6;8731260;Bus: Hammadi => El Harrach;green;ETUSA;630;Hammadi;El Harrach
404276003;"{\"type\":\"LineString\",\"coordinates\":[[3.2005837,36.721306],[3.1996166,36.7220017],[3.1994215,36.7221372],[3.1984395,36.7228313],[3.1980223,36.7231196],[3.1979145,36.7232176],[3.1978486,36.7232775],[3.1976515,36.7234762]]}";3;Route de l'aéroport طريق المطار;2;80;false;true;true;false;false;false;361.0;0;0;0;0;0;false;Cité 5 Juillet;691098526;3.2018576;36.7204389;DG PROTECTION CIVILE;3321711393;3.1985974;36.7228028;2;5;6;8731260;Bus: Hammadi => El Harrach;green;ETUSA;630;Hammadi;El Harrach
404276003;"{\"type\":\"LineString\",\"coordinates\":[[3.2005837,36.721306],[3.1996166,36.7220017],[3.1994215,36.7221372],[3.1984395,36.7228313],[3.1980223,36.7231196],[3.1979145,36.7232176],[3.1978486,36.7232775],[3.1976515,36.7234762]]}";1;Route de l'aéroport طريق المطار;2;80;false;true;true;false;false;false;180.5;0;0;0;0;0;false;DG PROTECTION CIVILE;3321711393;3.1985974;36.7228028;Soumam;3551013432;3.1902446;36.7261214;1;6;7;8731260;Bus: Hammadi => El Harrach;green;ETUSA;630;Hammadi;El Harrach
316789351;"{\"type\":\"LineString\",\"coordinates\":[[3.1976515,36.7234762],[3.1974561,36.7236956],[3.1971945,36.7241539],[3.1970657,36.7244428],[3.1969885,36.7247386],[3.196937,36.7250344],[3.1968528,36.7255633]]}";2;Route de l'aéroport طريق المطار;2;80;false;true;true;false;false;false;250.0;0;0;0;0;0;false;DG PROTECTION CIVILE;3321711393;3.1985974;36.7228028;Soumam;3551013432;3.1902446;36.7261214;0;6;7;8731260;Bus: Hammadi => El Harrach;green;ETUSA;630;Hammadi;El Harrach
25985027;"{\"type\":\"LineString\",\"coordinates\":[[3.1968528,36.7255633],[3.1968804,36.7261564],[3.196904,36.7263254],[3.1969344,36.7264045],[3.1969795,36.7264784],[3.1970683,36.726552],[3.1972334,36.7266251],[3.1973421,36.726641],[3.1974469,36.7266331],[3.1975459,36.7266206],[3.1976209,36.7265868],[3.1977095,36.7265389],[3.1977813,36.7264767],[3.1978208,36.7263863],[3.1978484,36.726288],[3.1978664,36.7261649],[3.1978632,36.7260341],[3.1978544,36.7259208],[3.1978339,36.7258146],[3.1977994,36.7257413],[3.1977361,36.7256607],[3.1976733,36.7256102],[3.1975913,36.7255678],[3.1973106,36.7254589]]}";3;Branchement N5-N5E;1;40;false;true;true;false;false;false;329.0;0;0;0;1;0;false;DG PROTECTION CIVILE;3321711393;3.1985974;36.7228028;Soumam;3551013432;3.1902446;36.7261214;0;6;7;8731260;Bus: Hammadi => El Harrach;green;ETUSA;630;Hammadi;El Harrach
564986164;"{\"type\":\"LineString\",\"coordinates\":[[3.1973106,36.7254589],[3.1971749,36.7254417]]}";4;"";2;60;false;true;true;false;false;false;13.0;0;0;0;0;0;false;DG PROTECTION CIVILE;3321711393;3.1985974;36.7228028;Soumam;3551013432;3.1902446;36.7261214;0;6;7;8731260;Bus: Hammadi => El Harrach;green;ETUSA;630;Hammadi;El Harrach
40732639;"{\"type\":\"LineString\",\"coordinates\":[[3.1971749,36.7254417],[3.1967949,36.7253941],[3.196498,36.7253627]]}";5;Pont Dar ElBaida;2;60;false;true;true;false;false;false;62.0;0;0;0;0;0;false;DG PROTECTION CIVILE;3321711393;3.1985974;36.7228028;Soumam;3551013432;3.1902446;36.7261214;0;6;7;8731260;Bus: Hammadi => El Harrach;green;ETUSA;630;Hammadi;El Harrach
405278061;"{\"type\":\"LineString\",\"coordinates\":[[3.196498,36.7253627],[3.1961504,36.7253365]]}";6;"";2;60;false;true;true;false;false;false;32.0;0;0;0;0;0;false;DG PROTECTION CIVILE;3321711393;3.1985974;36.7228028;Soumam;3551013432;3.1902446;36.7261214;0;6;7;8731260;Bus: Hammadi => El Harrach;green;ETUSA;630;Hammadi;El Harrach
25985012;"{\"type\":\"LineString\",\"coordinates\":[[3.1961504,36.7253365],[3.1959408,36.7253411],[3.1955705,36.7253457],[3.1952558,36.725357],[3.195009,36.7253795],[3.1943835,36.725456],[3.1940078,36.7255122],[3.1934829,36.7255978],[3.1931946,36.7256449],[3.1928135,36.725707],[3.1925391,36.7257518],[3.1913763,36.7259408],[3.1909093,36.7260138],[3.190447,36.7260699],[3.1902788,36.7260886],[3.190029,36.7261092],[3.1896507,36.7261429],[3.1892771,36.726171],[3.1873274,36.7262826],[3.1868784,36.7262962],[3.1860415,36.7262538],[3.1853259,36.726192],[3.1847141,36.7261321],[3.1840953,36.7260685],[3.1840432,36.7260636],[3.1831473,36.7259786],[3.1830399,36.7259637]]}";7;"";2;60;false;true;true;false;false;false;599.0;0;0;0;0;0;false;DG PROTECTION CIVILE;3321711393;3.1985974;36.7228028;Soumam;3551013432;3.1902446;36.7261214;1;6;7;8731260;Bus: Hammadi => El Harrach;green;ETUSA;630;Hammadi;El Harrach
25985012;"{\"type\":\"LineString\",\"coordinates\":[[3.1961504,36.7253365],[3.1959408,36.7253411],[3.1955705,36.7253457],[3.1952558,36.725357],[3.195009,36.7253795],[3.1943835,36.725456],[3.1940078,36.7255122],[3.1934829,36.7255978],[3.1931946,36.7256449],[3.1928135,36.725707],[3.1925391,36.7257518],[3.1913763,36.7259408],[3.1909093,36.7260138],[3.190447,36.7260699],[3.1902788,36.7260886],[3.190029,36.7261092],[3.1896507,36.7261429],[3.1892771,36.726171],[3.1873274,36.7262826],[3.1868784,36.7262962],[3.1860415,36.7262538],[3.1853259,36.726192],[3.1847141,36.7261321],[3.1840953,36.7260685],[3.1840432,36.7260636],[3.1831473,36.7259786],[3.1830399,36.7259637]]}";1;"";2;60;false;true;true;false;false;false;599.0;0;0;0;0;0;false;Bab Ezzouar vers El-Harrach et Alger;707130778;3.1841522;36.7261348;FITAL;5437109960;3.1692129;36.7245931;1;8;9;8731260;Bus: Hammadi => El Harrach;green;ETUSA;630;Hammadi;El Harrach
330776500;"{\"type\":\"LineString\",\"coordinates\":[[3.1830399,36.7259637],[3.1829185,36.7259581],[3.1824935,36.7259113],[3.1820682,36.7258669],[3.1815778,36.7258157],[3.1814246,36.7257998],[3.1809465,36.7257524],[3.1769387,36.7253293]]}";2;"";2;60;false;true;true;false;false;false;557.0;0;0;0;0;0;false;Bab Ezzouar vers El-Harrach et Alger;707130778;3.1841522;36.7261348;FITAL;5437109960;3.1692129;36.7245931;0;8;9;8731260;Bus: Hammadi => El Harrach;green;ETUSA;630;Hammadi;El Harrach
205630243;"{\"type\":\"LineString\",\"coordinates\":[[3.1769387,36.7253293],[3.1762141,36.7252493]]}";3;Trémie de Bab Ezzouar;1;50;false;true;true;false;false;false;67.0;0;0;0;0;0;false;Bab Ezzouar vers El-Harrach et Alger;707130778;3.1841522;36.7261348;FITAL;5437109960;3.1692129;36.7245931;0;8;9;8731260;Bus: Hammadi => El Harrach;green;ETUSA;630;Hammadi;El Harrach
205630244;"{\"type\":\"LineString\",\"coordinates\":[[3.1762141,36.7252493],[3.1751933,36.7251457],[3.1749104,36.7251273],[3.1732659,36.7249713],[3.1724639,36.7248836],[3.1713551,36.7247612],[3.170349,36.7246501],[3.1690353,36.7245127],[3.1684355,36.7244526],[3.1674431,36.7243564],[3.1668404,36.7242945],[3.1657683,36.7241907],[3.1633444,36.7239612],[3.1624259,36.7238671],[3.1622547,36.7238496],[3.1621191,36.7238458],[3.162008,36.7238716],[3.1619356,36.7238974],[3.1618764,36.7239328]]}";4;Avenue Bekri Bouguerra;2;60;false;true;true;false;false;false;655.0;0;0;0;0;0;false;Bab Ezzouar vers El-Harrach et Alger;707130778;3.1841522;36.7261348;FITAL;5437109960;3.1692129;36.7245931;1;8;9;8731260;Bus: Hammadi => El Harrach;green;ETUSA;630;Hammadi;El Harrach
