way_id;shape;index;name;nb_lanes;legal_speed;speed_zone_30;oneway;shares_bike;bike_box;bus_lane;dedicated_bus_lane;length;nb_traffic_signals;nb_crossings;nb_stops;nb_give_ways;nb_lvl_crossings;roundabout;stop_id_orig;node_id_orig;coord_x_orig;coord_y_orig;stop_id_dest;node_id_dest;coord_x_dest;coord_y_dest;nb_neighbouring_ways_bus_stop;ordre_orig;ordre_dest;id_line;line_name;colour;operator;ref;from;to
725167101;"{\"type\":\"LineString\",\"coordinates\":[[-73.5225083,45.5239595],[-73.5224879,45.524182]]}";1;"";1;50;false;false;true;false;true;false;25.0;0;0;0;0;0;false;70000;3395466650;-73.522601;45.524188;70040;6133410505;-73.420358;45.656914;1;0;1;9630883;Bus 724 : Direction Varennes;"";EXO;724 E;Terminus Longueuil;route Marie-Victorin / face à l'école Labarre
685121058;"{\"type\":\"LineString\",\"coordinates\":[[-73.522529,45.5237433],[-73.5225083,45.5239595]]}";2;"";1;50;false;false;true;false;true;false;25.0;0;0;0;0;0;false;70000;3395466650;-73.522601;45.524188;70040;6133410505;-73.420358;45.656914;0;0;1;9630883;Bus 724 : Direction Varennes;"";EXO;724 E;Terminus Longueuil;route Marie-Victorin / face à l'école Labarre
725167102;"{\"type\":\"LineString\",\"coordinates\":[[-73.5225484,45.5235009],[-73.5225444,45.5235685],[-73.522529,45.5237433]]}";3;"";1;50;false;false;true;false;true;false;27.0;0;0;1;0;0;false;70000;3395466650;-73.522601;45.524188;70040;6133410505;-73.420358;45.656914;0;0;1;9630883;Bus 724 : Direction Varennes;"";EXO;724 E;Terminus Longueuil;route Marie-Victorin / face à l'école Labarre
752960449;"{\"type\":\"LineString\",\"coordinates\":[[-73.5227183,45.5235079],[-73.5225484,45.5235009]]}";4;Rue du Terminus;1;50;false;false;true;false;true;false;14.0;0;0;0;0;0;false;70000;3395466650;-73.522601;45.524188;70040;6133410505;-73.420358;45.656914;0;0;1;9630883;Bus 724 : Direction Varennes;"";EXO;724 E;Terminus Longueuil;route Marie-Victorin / face à l'école Labarre
752960450;"{\"type\":\"LineString\",\"coordinates\":[[-73.522771,45.5235103],[-73.5227183,45.5235079]]}";5;Rue du Terminus;1;50;false;false;true;false;true;false;5.0;0;0;0;0;0;false;70000;3395466650;-73.522601;45.524188;70040;6133410505;-73.420358;45.656914;0;0;1;9630883;Bus 724 : Direction Varennes;"";EXO;724 E;Terminus Longueuil;route Marie-Victorin / face à l'école Labarre
725167106;"{\"type\":\"LineString\",\"coordinates\":[[-73.522922,45.5235181],[-73.522771,45.5235103]]}";6;Rue du Terminus;1;50;false;false;true;false;true;false;12.0;0;0;0;0;0;false;70000;3395466650;-73.522601;45.524188;70040;6133410505;-73.420358;45.656914;0;0;1;9630883;Bus 724 : Direction Varennes;"";EXO;724 E;Terminus Longueuil;route Marie-Victorin / face à l'école Labarre
95440147;"{\"type\":\"LineString\",\"coordinates\":[[-73.522922,45.5235181],[-73.5229592,45.5235205],[-73.5229905,45.5235222],[-73.5231463,45.5235287],[-73.5231654,45.5235295],[-73.5234861,45.5235431],[-73.5237384,45.5235538],[-73.5237671,45.523555],[-73.5238773,45.5235597]]}";7;Rue De Sérigny;2;50;false;false;true;false;false;false;75.0;0;2;1;0;0;false;70000;3395466650;-73.522601;45.524188;70040;6133410505;-73.420358;45.656914;0;0;1;9630883;Bus 724 : Direction Varennes;"";EXO;724 E;Terminus Longueuil;route Marie-Victorin / face à l'école Labarre
40260927;"{\"type\":\"LineString\",\"coordinates\":[[-73.5238773,45.5235597],[-73.5240157,45.524321],[-73.5240625,45.5246541],[-73.5240674,45.5247116],[-73.5240695,45.5247383],[-73.5240765,45.5248239],[-73.5240816,45.5248905],[-73.5240969,45.5250884],[-73.5241026,45.5252772],[-73.5240988,45.5253911]]}";8;Boulevard La Fayette;2;50;false;true;true;false;false;false;205.0;0;0;0;0;0;false;70000;3395466650;-73.522601;45.524188;70040;6133410505;-73.420358;45.656914;0;0;1;9630883;Bus 724 : Direction Varennes;"";EXO;724 E;Terminus Longueuil;route Marie-Victorin / face à l'école Labarre
686674270;"{\"type\":\"LineString\",\"coordinates\":[[-73.5240988,45.5253911],[-73.5240887,45.5256978],[-73.5240925,45.5258177]]}";9;Boulevard La Fayette;1;50;false;true;true;false;false;false;48.0;0;0;0;0;0;false;70000;3395466650;-73.522601;45.524188;70040;6133410505;-73.420358;45.656914;0;0;1;9630883;Bus 724 : Direction Varennes;"";EXO;724 E;Terminus Longueuil;route Marie-Victorin / face à l'école Labarre
88568136;"{\"type\":\"LineString\",\"coordinates\":[[-73.5240925,45.5258177],[-73.524062,45.5262395],[-73.524038,45.5264385],[-73.5239766,45.5268022]]}";10;"";1;50;false;true;true;false;false;false;110.0;0;0;0;0;0;false;70000;3395466650;-73.522601;45.524188;70040;6133410505;-73.420358;45.656914;0;0;1;9630883;Bus 724 : Direction Varennes;"";EXO;724 E;Terminus Longueuil;route Marie-Victorin / face à l'école Labarre
458506767;"{\"type\":\"LineString\",\"coordinates\":[[-73.5239766,45.5268022],[-73.5237269,45.5275019]]}";11;"";1;50;false;true;true;false;false;false;81.0;0;0;0;0;0;false;70000;3395466650;-73.522601;45.524188;70040;6133410505;-73.420358;45.656914;0;0;1;9630883;Bus 724 : Direction Varennes;"";EXO;724 E;Terminus Longueuil;route Marie-Victorin / face à l'école Labarre
149309514;"{\"type\":\"LineString\",\"coordinates\":[[-73.5237269,45.5275019],[-73.5234179,45.5282294],[-73.5227818,45.5292436]]}";12;"";1;50;false;true;true;false;false;false;208.0;0;0;0;0;0;false;70000;3395466650;-73.522601;45.524188;70040;6133410505;-73.420358;45.656914;0;0;1;9630883;Bus 724 : Direction Varennes;"";EXO;724 E;Terminus Longueuil;route Marie-Victorin / face à l'école Labarre
39282832;"{\"type\":\"LineString\",\"coordinates\":[[-73.5227818,45.5292436],[-73.5217483,45.5304856]]}";13;Autoroute René-Levesque;3;100;false;true;true;false;false;false;160.0;0;0;0;0;0;false;70000;3395466650;-73.522601;45.524188;70040;6133410505;-73.420358;45.656914;0;0;1;9630883;Bus 724 : Direction Varennes;"";EXO;724 E;Terminus Longueuil;route Marie-Victorin / face à l'école Labarre
238828079;"{\"type\":\"LineString\",\"coordinates\":[[-73.5217483,45.5304856],[-73.5214542,45.5308329]]}";14;Autoroute René-Levesque;4;100;false;true;true;false;false;false;45.0;0;0;0;0;0;false;70000;3395466650;-73.522601;45.524188;70040;6133410505;-73.420358;45.656914;0;0;1;9630883;Bus 724 : Direction Varennes;"";EXO;724 E;Terminus Longueuil;route Marie-Victorin / face à l'école Labarre
690027043;"{\"type\":\"LineString\",\"coordinates\":[[-73.5214542,45.5308329],[-73.5203867,45.5321018],[-73.5189361,45.5337492]]}";15;Autoroute René-Levesque;4;100;false;true;true;false;false;false;379.0;0;0;0;0;0;false;70000;3395466650;-73.522601;45.524188;70040;6133410505;-73.420358;45.656914;0;0;1;9630883;Bus 724 : Direction Varennes;"";EXO;724 E;Terminus Longueuil;route Marie-Victorin / face à l'école Labarre
685121030;"{\"type\":\"LineString\",\"coordinates\":[[-73.5189361,45.5337492],[-73.5184343,45.5343584],[-73.5164809,45.5367298],[-73.5159267,45.5372513],[-73.5154513,45.5376974],[-73.5144288,45.5384947],[-73.5134266,45.5392042],[-73.5125767,45.5398063],[-73.5111153,45.5408415],[-73.5101194,45.5416388],[-73.5093653,45.5423616],[-73.5082466,45.5434521],[-73.5069701,45.5448196],[-73.5060791,45.5457608],[-73.5053017,45.5465953],[-73.5043728,45.5475398]]}";16;Autoroute René-Levesque;4;100;false;true;true;false;false;false;1916.0;0;0;0;0;0;false;70000;3395466650;-73.522601;45.524188;70040;6133410505;-73.420358;45.656914;0;0;1;9630883;Bus 724 : Direction Varennes;"";EXO;724 E;Terminus Longueuil;route Marie-Victorin / face à l'école Labarre
687150625;"{\"type\":\"LineString\",\"coordinates\":[[-73.5043728,45.5475398],[-73.5034705,45.5485197],[-73.5023889,45.5496907],[-73.5009696,45.5513767],[-73.5000308,45.552516],[-73.4988603,45.553917]]}";17;Autoroute René-Levesque;4;100;false;true;true;false;false;false;829.0;0;0;0;0;0;false;70000;3395466650;-73.522601;45.524188;70040;6133410505;-73.420358;45.656914;0;0;1;9630883;Bus 724 : Direction Varennes;"";EXO;724 E;Terminus Longueuil;route Marie-Victorin / face à l'école Labarre
40202381;"{\"type\":\"LineString\",\"coordinates\":[[-73.4988603,45.553917],[-73.4978832,45.5551367],[-73.4961409,45.5572008],[-73.4949991,45.5585747],[-73.4938852,45.5599149],[-73.4937105,45.5601252],[-73.4930699,45.5610046],[-73.4926119,45.5616335],[-73.4919551,45.562636],[-73.4908427,45.5642586],[-73.4905872,45.5646408],[-73.49005,45.5654354],[-73.4894461,45.5663285],[-73.4885929,45.5673591],[-73.4882312,45.5677671],[-73.4872633,45.5688016],[-73.4864214,45.5696019],[-73.4859215,45.5701],[-73.4850889,45.5708295],[-73.4844332,45.5714186],[-73.4837182,45.5720383],[-73.4823663,45.5731955],[-73.4807253,45.5746089],[-73.4784679,45.5765194],[-73.4779584,45.5769449]]}";18;Autoroute René-Levesque;4;100;false;true;true;false;false;false;3047.0;0;0;0;0;0;false;70000;3395466650;-73.522601;45.524188;70040;6133410505;-73.420358;45.656914;0;0;1;9630883;Bus 724 : Direction Varennes;"";EXO;724 E;Terminus Longueuil;route Marie-Victorin / face à l'école Labarre
39452094;"{\"type\":\"LineString\",\"coordinates\":[[-73.4779584,45.5769449],[-73.4772676,45.5775727],[-73.4766162,45.5781632],[-73.4759511,45.5787252],[-73.4756177,45.5789774],[-73.4753258,45.5791779]]}";19;Autoroute René-Levesque;3;100;false;true;true;false;false;false;323.0;0;0;0;0;0;false;70000;3395466650;-73.522601;45.524188;70040;6133410505;-73.420358;45.656914;0;0;1;9630883;Bus 724 : Direction Varennes;"";EXO;724 E;Terminus Longueuil;route Marie-Victorin / face à l'école Labarre
128169280;"{\"type\":\"LineString\",\"coordinates\":[[-73.4753258,45.5791779],[-73.4746398,45.5796553],[-73.4742556,45.5799003],[-73.4736493,45.5802965],[-73.4731695,45.5806498],[-73.4729094,45.5808638],[-73.4726572,45.5810971],[-73.4722888,45.5815181],[-73.4720439,45.5818422],[-73.4718959,45.5820612],[-73.471718,45.5823666],[-73.4710641,45.5834974],[-73.4706483,45.5841497],[-73.4703753,45.5846082],[-73.4701121,45.5850802],[-73.4696505,45.5857256],[-73.469044,45.5864068],[-73.4665593,45.5885461]]}";20;Route 132;3;100;false;true;true;false;false;false;1260.0;0;0;0;0;0;false;70000;3395466650;-73.522601;45.524188;70040;6133410505;-73.420358;45.656914;0;0;1;9630883;Bus 724 : Direction Varennes;"";EXO;724 E;Terminus Longueuil;route Marie-Victorin / face à l'école Labarre
39452095;"{\"type\":\"LineString\",\"coordinates\":[[-73.4665593,45.5885461],[-73.4657768,45.5892014],[-73.4605841,45.5935259],[-73.459134,45.5944521],[-73.4563212,45.5961498],[-73.4534141,45.5978802]]}";21;Route 132;1;100;false;true;true;false;false;false;1463.0;0;0;0;0;0;false;70000;3395466650;-73.522601;45.524188;70040;6133410505;-73.420358;45.656914;0;0;1;9630883;Bus 724 : Direction Varennes;"";EXO;724 E;Terminus Longueuil;route Marie-Victorin / face à l'école Labarre
39563222;"{\"type\":\"LineString\",\"coordinates\":[[-73.4534141,45.5978802],[-73.448695,45.6007208],[-73.4480783,45.60109],[-73.4476768,45.6013303]]}";22;Route 132;1;100;false;true;true;false;false;false;589.0;0;0;0;0;0;false;70000;3395466650;-73.522601;45.524188;70040;6133410505;-73.420358;45.656914;0;0;1;9630883;Bus 724 : Direction Varennes;"";EXO;724 E;Terminus Longueuil;route Marie-Victorin / face à l'école Labarre
690006343;"{\"type\":\"LineString\",\"coordinates\":[[-73.4476768,45.6013303],[-73.4473646,45.6015093]]}";23;Route 132;1;100;false;true;true;false;false;false;32.0;0;0;0;0;0;false;70000;3395466650;-73.522601;45.524188;70040;6133410505;-73.420358;45.656914;0;0;1;9630883;Bus 724 : Direction Varennes;"";EXO;724 E;Terminus Longueuil;route Marie-Victorin / face à l'école Labarre
567727179;"{\"type\":\"LineString\",\"coordinates\":[[-73.4473646,45.6015093],[-73.4467292,45.601898],[-73.4462289,45.6021936],[-73.4458142,45.6024415]]}";24;Route 132;2;100;false;true;true;false;false;false;160.0;0;0;0;0;0;false;70000;3395466650;-73.522601;45.524188;70040;6133410505;-73.420358;45.656914;0;0;1;9630883;Bus 724 : Direction Varennes;"";EXO;724 E;Terminus Longueuil;route Marie-Victorin / face à l'école Labarre
39283471;"{\"type\":\"LineString\",\"coordinates\":[[-73.4458142,45.6024415],[-73.4454796,45.6026382],[-73.4451939,45.6028194],[-73.4449549,45.6029696],[-73.4444998,45.6032672],[-73.4442496,45.6034443],[-73.444077,45.603576],[-73.4439634,45.603664],[-73.4438017,45.6038015],[-73.4436565,45.6039424],[-73.4435219,45.6040813],[-73.4433627,45.6042649],[-73.4432054,45.6044565],[-73.4430901,45.6046146],[-73.4429834,45.6047708],[-73.4428939,45.6049301],[-73.4428046,45.6051093],[-73.4427535,45.6052139],[-73.4426818,45.6053821],[-73.442627,45.605523],[-73.4425841,45.6056713],[-73.442539,45.6058394],[-73.4424987,45.6060326],[-73.4424739,45.6062018],[-73.4424605,45.6063664],[-73.4424561,45.6065268],[-73.4424608,45.6067286],[-73.4424743,45.606891],[-73.4424959,45.6070548],[-73.4425267,45.6072326],[-73.4425586,45.6074818],[-73.4425664,45.6076433],[-73.4425705,45.6078113],[-73.442567,45.6079634],[-73.4425561,45.6081126],[-73.4425413,45.6082622],[-73.4425091,45.6084606],[-73.4424734,45.6086222],[-73.4424254,45.6088106],[-73.4423429,45.6090606],[-73.442259,45.6092763],[-73.4421805,45.609441],[-73.442087,45.609624],[-73.4419793,45.6098163],[-73.4418358,45.6100391],[-73.4416686,45.6102691],[-73.441268,45.6107365],[-73.4408645,45.6112004]]}";25;Route 132;2;90;false;true;true;false;false;false;1093.0;0;0;0;0;0;false;70000;3395466650;-73.522601;45.524188;70040;6133410505;-73.420358;45.656914;0;0;1;9630883;Bus 724 : Direction Varennes;"";EXO;724 E;Terminus Longueuil;route Marie-Victorin / face à l'école Labarre
751932231;"{\"type\":\"LineString\",\"coordinates\":[[-73.4408645,45.6112004],[-73.4405395,45.6115766],[-73.4402025,45.6119571],[-73.4399931,45.6122023],[-73.4398936,45.6123118]]}";26;Route 132;3;90;false;true;true;false;false;false;145.0;1;0;0;0;0;false;70000;3395466650;-73.522601;45.524188;70040;6133410505;-73.420358;45.656914;0;0;1;9630883;Bus 724 : Direction Varennes;"";EXO;724 E;Terminus Longueuil;route Marie-Victorin / face à l'école Labarre
24351600;"{\"type\":\"LineString\",\"coordinates\":[[-73.4398936,45.6123118],[-73.4397661,45.61245],[-73.4394687,45.6127907],[-73.4388018,45.6135663]]}";27;Route 132;3;50;false;true;true;false;false;false;164.0;0;0;0;0;0;false;70000;3395466650;-73.522601;45.524188;70040;6133410505;-73.420358;45.656914;0;0;1;9630883;Bus 724 : Direction Varennes;"";EXO;724 E;Terminus Longueuil;route Marie-Victorin / face à l'école Labarre
751863586;"{\"type\":\"LineString\",\"coordinates\":[[-73.4388018,45.6135663],[-73.4375078,45.6150582],[-73.4370775,45.6155515],[-73.4354022,45.6174767],[-73.4337245,45.6194129],[-73.4324421,45.6208884],[-73.4309816,45.6225589],[-73.4292519,45.6245464],[-73.4274207,45.6266515],[-73.4262227,45.6280328],[-73.4256544,45.6286995],[-73.4253094,45.6291377],[-73.4251865,45.6293047],[-73.4250442,45.6295151],[-73.4249525,45.6296569],[-73.4248422,45.62983],[-73.424713,45.6300575],[-73.4246162,45.630232],[-73.4245264,45.6304038],[-73.4243727,45.6307364]]}";28;Route 132;2;50;false;true;true;false;false;false;2217.0;0;0;0;0;0;false;70000;3395466650;-73.522601;45.524188;70040;6133410505;-73.420358;45.656914;0;0;1;9630883;Bus 724 : Direction Varennes;"";EXO;724 E;Terminus Longueuil;route Marie-Victorin / face à l'école Labarre
751928534;"{\"type\":\"LineString\",\"coordinates\":[[-73.4243727,45.6307364],[-73.4242189,45.6310689],[-73.4240819,45.6314205],[-73.4240081,45.6316462],[-73.4239621,45.6317867],[-73.4238716,45.6320841]]}";29;Route 132;4;50;false;true;true;false;false;false;155.0;0;0;0;0;0;false;70000;3395466650;-73.522601;45.524188;70040;6133410505;-73.420358;45.656914;0;0;1;9630883;Bus 724 : Direction Varennes;"";EXO;724 E;Terminus Longueuil;route Marie-Victorin / face à l'école Labarre
472637016;"{\"type\":\"LineString\",\"coordinates\":[[-73.4238716,45.6320841],[-73.4236937,45.6327439],[-73.4236067,45.6334024],[-73.4234018,45.6349525],[-73.4229415,45.6387568],[-73.4226465,45.6411157],[-73.4217453,45.6474882],[-73.4208698,45.6539861],[-73.4207754,45.654604]]}";30;Route 132;2;50;false;true;true;false;false;false;2513.0;0;0;0;0;0;false;70000;3395466650;-73.522601;45.524188;70040;6133410505;-73.420358;45.656914;0;0;1;9630883;Bus 724 : Direction Varennes;"";EXO;724 E;Terminus Longueuil;route Marie-Victorin / face à l'école Labarre
317731363;"{\"type\":\"LineString\",\"coordinates\":[[-73.4207754,45.654604],[-73.4206935,45.6551071],[-73.4206784,45.6551997]]}";31;Boulevard Marie-Victorin;2;50;false;true;true;false;false;false;67.0;1;0;0;0;0;false;70000;3395466650;-73.522601;45.524188;70040;6133410505;-73.420358;45.656914;0;0;1;9630883;Bus 724 : Direction Varennes;"";EXO;724 E;Terminus Longueuil;route Marie-Victorin / face à l'école Labarre
472637874;"{\"type\":\"LineString\",\"coordinates\":[[-73.4206784,45.6551997],[-73.4206592,45.6553484]]}";32;Boulevard Marie-Victorin;2;50;false;true;true;false;false;false;17.0;0;0;0;0;0;false;70000;3395466650;-73.522601;45.524188;70040;6133410505;-73.420358;45.656914;0;0;1;9630883;Bus 724 : Direction Varennes;"";EXO;724 E;Terminus Longueuil;route Marie-Victorin / face à l'école Labarre
317731362;"{\"type\":\"LineString\",\"coordinates\":[[-73.4206592,45.6553484],[-73.4206433,45.6554481],[-73.42059,45.6557835],[-73.4204149,45.6572017],[-73.4203634,45.6579696],[-73.4204407,45.6587734],[-73.42056,45.6592519],[-73.4207091,45.659648],[-73.4208718,45.659977],[-73.4211731,45.6604964],[-73.4215338,45.6609823],[-73.4220867,45.661556],[-73.4224148,45.6618568],[-73.4238825,45.6630385],[-73.4292298,45.6671594],[-73.4303138,45.6680019],[-73.4304802,45.6681312]]}";33;Boulevard Marie-Victorin;2;50;false;true;true;false;false;false;850.0;1;0;0;0;0;false;70000;3395466650;-73.522601;45.524188;70040;6133410505;-73.420358;45.656914;1;0;1;9630883;Bus 724 : Direction Varennes;"";EXO;724 E;Terminus Longueuil;route Marie-Victorin / face à l'école Labarre
692275240;"{\"type\":\"LineString\",\"coordinates\":[[-73.4304802,45.6681312],[-73.433524,45.6704641],[-73.4342058,45.6710012]]}";1;Boulevard Marie-Victorin;2;50;false;true;true;false;false;false;431.0;0;0;0;0;0;false;70054;6133410493;-73.430306;45.668024;70070;6133409879;-73.43695;45.673624;2;2;3;9630883;Bus 724 : Direction Varennes;"";EXO;724 E;Terminus Longueuil;route Marie-Victorin / face à l'école Labarre
690319736;"{\"type\":\"LineString\",\"coordinates\":[[-73.4342058,45.6710012],[-73.4343233,45.6709086]]}";2;Rue du Saint-Laurent;2;50;false;false;true;false;false;false;14.0;0;0;0;0;0;false;70054;6133410493;-73.430306;45.668024;70070;6133409879;-73.43695;45.673624;0;2;3;9630883;Bus 724 : Direction Varennes;"";EXO;724 E;Terminus Longueuil;route Marie-Victorin / face à l'école Labarre
690319737;"{\"type\":\"LineString\",\"coordinates\":[[-73.4343233,45.6709086],[-73.4348475,45.6705678],[-73.4352517,45.6703965]]}";3;Rue du Saint-Laurent;2;50;false;false;true;false;false;false;93.0;0;0;0;0;0;false;70054;6133410493;-73.430306;45.668024;70070;6133409879;-73.43695;45.673624;0;2;3;9630883;Bus 724 : Direction Varennes;"";EXO;724 E;Terminus Longueuil;route Marie-Victorin / face à l'école Labarre
690319738;"{\"type\":\"LineString\",\"coordinates\":[[-73.4352517,45.6703965],[-73.4356149,45.670887]]}";4;Route Marie-Victorin;2;50;false;false;false;false;false;false;62.0;0;0;0;0;0;false;70054;6133410493;-73.430306;45.668024;70070;6133409879;-73.43695;45.673624;0;2;3;9630883;Bus 724 : Direction Varennes;"";EXO;724 E;Terminus Longueuil;route Marie-Victorin / face à l'école Labarre
44955738;"{\"type\":\"LineString\",\"coordinates\":[[-73.4356149,45.670887],[-73.4358986,45.6712944]]}";5;Route Marie-Victorin;1;50;false;false;false;false;false;false;51.0;0;0;0;0;0;false;70054;6133410493;-73.430306;45.668024;70070;6133409879;-73.43695;45.673624;0;2;3;9630883;Bus 724 : Direction Varennes;"";EXO;724 E;Terminus Longueuil;route Marie-Victorin / face à l'école Labarre
44955739;"{\"type\":\"LineString\",\"coordinates\":[[-73.4358986,45.6712944],[-73.4368507,45.6726142],[-73.4372996,45.6732317],[-73.4375614,45.6735918]]}";6;Route Marie-Victorin;2;50;false;false;false;false;false;false;287.0;0;0;0;0;0;false;70054;6133410493;-73.430306;45.668024;70070;6133409879;-73.43695;45.673624;0;2;3;9630883;Bus 724 : Direction Varennes;"";EXO;724 E;Terminus Longueuil;route Marie-Victorin / face à l'école Labarre
45667725;"{\"type\":\"LineString\",\"coordinates\":[[-73.4375614,45.6735918],[-73.4374318,45.6736347],[-73.4373021,45.6736776]]}";7;Route Marie-Victorin;2;50;false;false;false;false;false;false;23.0;1;0;0;0;0;false;70054;6133410493;-73.430306;45.668024;70070;6133409879;-73.43695;45.673624;0;2;3;9630883;Bus 724 : Direction Varennes;"";EXO;724 E;Terminus Longueuil;route Marie-Victorin / face à l'école Labarre
690319731;"{\"type\":\"LineString\",\"coordinates\":[[-73.4371404,45.6737311],[-73.4373021,45.6736776]]}";8;Rue de l'Aqueduc;2;50;false;false;false;false;false;false;14.0;0;0;0;0;0;false;70054;6133410493;-73.430306;45.668024;70070;6133409879;-73.43695;45.673624;0;2;3;9630883;Bus 724 : Direction Varennes;"";EXO;724 E;Terminus Longueuil;route Marie-Victorin / face à l'école Labarre
690319730;"{\"type\":\"LineString\",\"coordinates\":[[-73.4371404,45.6737311],[-73.4373882,45.6741511],[-73.4376095,45.674569],[-73.4377532,45.6747791]]}";9;Boulevard Marie-Victorin;2;70;false;true;true;false;false;false;126.0;0;0;0;0;0;false;70054;6133410493;-73.430306;45.668024;70070;6133409879;-73.43695;45.673624;2;2;3;9630883;Bus 724 : Direction Varennes;"";EXO;724 E;Terminus Longueuil;route Marie-Victorin / face à l'école Labarre
690319731;"{\"type\":\"LineString\",\"coordinates\":[[-73.4371404,45.6737311],[-73.4373021,45.6736776]]}";1;Rue de l'Aqueduc;2;50;false;false;false;false;false;false;14.0;0;0;0;0;0;false;70070;6133409879;-73.43695;45.673624;70098;6133409854;-73.436867;45.682623;2;3;4;9630883;Bus 724 : Direction Varennes;"";EXO;724 E;Terminus Longueuil;route Marie-Victorin / face à l'école Labarre
690319730;"{\"type\":\"LineString\",\"coordinates\":[[-73.4371404,45.6737311],[-73.4373882,45.6741511],[-73.4376095,45.674569],[-73.4377532,45.6747791]]}";2;Boulevard Marie-Victorin;2;70;false;true;true;false;false;false;126.0;0;0;0;0;0;false;70070;6133409879;-73.43695;45.673624;70098;6133409854;-73.436867;45.682623;0;3;4;9630883;Bus 724 : Direction Varennes;"";EXO;724 E;Terminus Longueuil;route Marie-Victorin / face à l'école Labarre
43765032;"{\"type\":\"LineString\",\"coordinates\":[[-73.4377532,45.6747791],[-73.4377892,45.6749215],[-73.4379078,45.6754298],[-73.4379593,45.6758916],[-73.4379715,45.6763952],[-73.4379626,45.6764873],[-73.437939,45.676733],[-73.4379202,45.6770105],[-73.4376509,45.6793123],[-73.4375473,45.6802214],[-73.4375318,45.6804404],[-73.4374454,45.6810686],[-73.4373499,45.6818045],[-73.4370915,45.6824632],[-73.4369894,45.6826383]]}";3;Route Marie-Victorin;2;50;false;false;true;false;false;false;881.0;1;0;0;0;0;false;70070;6133409879;-73.43695;45.673624;70098;6133409854;-73.436867;45.682623;1;3;4;9630883;Bus 724 : Direction Varennes;"";EXO;724 E;Terminus Longueuil;route Marie-Victorin / face à l'école Labarre
