way_id;shape;index;name;nb_lanes;legal_speed;speed_zone_30;oneway;shares_bike;bike_box;bus_lane;dedicated_bus_lane;length;nb_traffic_signals;nb_crossings;nb_stops;nb_give_ways;nb_lvl_crossings;roundabout;stop_id_orig;node_id_orig;coord_x_orig;coord_y_orig;stop_id_dest;node_id_dest;coord_x_dest;coord_y_dest;nb_neighbouring_ways_bus_stop;ordre_orig;ordre_dest;id_line;line_name;colour;operator;ref;from;to
679314278;"{\"type\":\"LineString\",\"coordinates\":[[-73.6831224,45.5594735],[-73.6829266,45.5595727]]}";1;"";1;50;false;false;true;false;false;false;19.0;0;0;0;0;0;false;"47063;47037;47033;47131";6269510296;-73.68298;45.559647;41267;6269510310;-73.68853;45.559128;1;0;1;9312747;Bus : 63 N - Direction Sainte-Rose;"";STL;63N;Métro Cartier Quai:7;Gare Sainte-Rose
676619309;"{\"type\":\"LineString\",\"coordinates\":[[-73.6832245,45.5594238],[-73.6831224,45.5594735]]}";2;"";1;50;false;false;true;false;false;false;10.0;0;0;0;0;0;false;"47063;47037;47033;47131";6269510296;-73.68298;45.559647;41267;6269510310;-73.68853;45.559128;0;0;1;9312747;Bus : 63 N - Direction Sainte-Rose;"";STL;63N;Métro Cartier Quai:7;Gare Sainte-Rose
242652093;"{\"type\":\"LineString\",\"coordinates\":[[-73.6835499,45.5592626],[-73.6832245,45.5594238]]}";3;"";1;50;false;false;true;false;false;false;32.0;0;0;0;0;0;false;"47063;47037;47033;47131";6269510296;-73.68298;45.559647;41267;6269510310;-73.68853;45.559128;0;0;1;9312747;Bus : 63 N - Direction Sainte-Rose;"";STL;63N;Métro Cartier Quai:7;Gare Sainte-Rose
258700561;"{\"type\":\"LineString\",\"coordinates\":[[-73.6835499,45.5592626],[-73.6836785,45.5593759],[-73.683829,45.5595086],[-73.6840984,45.5597503]]}";4;Montée Major;1;50;false;false;true;false;false;false;70.0;1;0;0;0;0;false;"47063;47037;47033;47131";6269510296;-73.68298;45.559647;41267;6269510310;-73.68853;45.559128;0;0;1;9312747;Bus : 63 N - Direction Sainte-Rose;"";STL;63N;Métro Cartier Quai:7;Gare Sainte-Rose
258700560;"{\"type\":\"LineString\",\"coordinates\":[[-73.6840984,45.5597503],[-73.6842695,45.5598144]]}";5;Montée Major;1;50;false;false;true;false;false;false;16.0;2;0;0;0;0;false;"47063;47037;47033;47131";6269510296;-73.68298;45.559647;41267;6269510310;-73.68853;45.559128;0;0;1;9312747;Bus : 63 N - Direction Sainte-Rose;"";STL;63N;Métro Cartier Quai:7;Gare Sainte-Rose
292502204;"{\"type\":\"LineString\",\"coordinates\":[[-73.6842695,45.5598144],[-73.6847803,45.5595467],[-73.6849169,45.559493],[-73.685059,45.5594492],[-73.6852482,45.5594071],[-73.685443,45.5594079],[-73.6858983,45.5594478],[-73.6862485,45.5594965],[-73.6864318,45.5595096],[-73.686591,45.5595199],[-73.6868166,45.5595173],[-73.6870141,45.5594981],[-73.6873336,45.5594385],[-73.6880356,45.5592182],[-73.6885217,45.5590859],[-73.6890175,45.5589962],[-73.690326,45.5588927],[-73.6906881,45.5588944],[-73.6912991,45.5588972],[-73.6917637,45.5588988],[-73.6927476,45.5588647]]}";6;Boulevard Cartier Ouest;2;50;false;true;true;false;false;false;343.5;1;0;0;0;0;false;"47063;47037;47033;47131";6269510296;-73.68298;45.559647;41267;6269510310;-73.68853;45.559128;1;0;1;9312747;Bus : 63 N - Direction Sainte-Rose;"";STL;63N;Métro Cartier Quai:7;Gare Sainte-Rose
292502204;"{\"type\":\"LineString\",\"coordinates\":[[-73.6842695,45.5598144],[-73.6847803,45.5595467],[-73.6849169,45.559493],[-73.685059,45.5594492],[-73.6852482,45.5594071],[-73.685443,45.5594079],[-73.6858983,45.5594478],[-73.6862485,45.5594965],[-73.6864318,45.5595096],[-73.686591,45.5595199],[-73.6868166,45.5595173],[-73.6870141,45.5594981],[-73.6873336,45.5594385],[-73.6880356,45.5592182],[-73.6885217,45.5590859],[-73.6890175,45.5589962],[-73.690326,45.5588927],[-73.6906881,45.5588944],[-73.6912991,45.5588972],[-73.6917637,45.5588988],[-73.6927476,45.5588647]]}";1;Boulevard Cartier Ouest;2;50;false;true;true;false;false;false;343.5;1;0;0;0;0;false;41223;6269510284;-73.69243;45.558942;41225;6269510352;-73.69712;45.557548;1;3;4;9312747;Bus : 63 N - Direction Sainte-Rose;"";STL;63N;Métro Cartier Quai:7;Gare Sainte-Rose
679942246;"{\"type\":\"LineString\",\"coordinates\":[[-73.6927476,45.5588647],[-73.6930429,45.5588346],[-73.6934796,45.5587504],[-73.6938947,45.5586504],[-73.6943658,45.5584974],[-73.6952847,45.5581678],[-73.6958761,45.557946],[-73.6965555,45.5576913]]}";2;Boulevard Cartier Ouest;2;50;false;true;true;false;false;false;327.0;1;0;0;0;0;false;41223;6269510284;-73.69243;45.558942;41225;6269510352;-73.69712;45.557548;0;3;4;9312747;Bus : 63 N - Direction Sainte-Rose;"";STL;63N;Métro Cartier Quai:7;Gare Sainte-Rose
679942272;"{\"type\":\"LineString\",\"coordinates\":[[-73.6965555,45.5576913],[-73.6967166,45.5576261],[-73.6989962,45.5567692],[-73.6996117,45.5564997],[-73.6999006,45.5563743],[-73.6999754,45.5563333],[-73.7002858,45.5561807],[-73.7007995,45.5558492],[-73.700846,45.5558192],[-73.7020388,45.5549532]]}";3;Boulevard Cartier Ouest;2;50;false;true;true;false;false;false;265.0;3;0;0;0;0;false;41223;6269510284;-73.69243;45.558942;41225;6269510352;-73.69712;45.557548;1;3;4;9312747;Bus : 63 N - Direction Sainte-Rose;"";STL;63N;Métro Cartier Quai:7;Gare Sainte-Rose
763182075;"{\"type\":\"LineString\",\"coordinates\":[[-73.7020388,45.5549532],[-73.7029136,45.5543581],[-73.7030177,45.5542438]]}";1;Boulevard Cartier Ouest;1;50;false;true;false;false;false;false;111.0;1;0;0;0;0;false;41229;6269510489;-73.70192;45.555101;41232;6269510554;-73.70638;45.552682;2;6;7;9312747;Bus : 63 N - Direction Sainte-Rose;"";STL;63N;Métro Cartier Quai:7;Gare Sainte-Rose
37764769;"{\"type\":\"LineString\",\"coordinates\":[[-73.7056663,45.5529608],[-73.7044051,45.5535708],[-73.7030177,45.5542438]]}";2;Boulevard Cartier Ouest;2;50;false;false;false;false;false;false;252.0;0;0;0;0;0;false;41229;6269510489;-73.70192;45.555101;41232;6269510554;-73.70638;45.552682;0;6;7;9312747;Bus : 63 N - Direction Sainte-Rose;"";STL;63N;Métro Cartier Quai:7;Gare Sainte-Rose
464970740;"{\"type\":\"LineString\",\"coordinates\":[[-73.7144278,45.548748],[-73.7143982,45.5487622],[-73.7141504,45.5488814],[-73.7136385,45.5491275],[-73.7127511,45.5495542],[-73.7120532,45.5498898],[-73.7114251,45.5501918],[-73.7107932,45.5504957],[-73.710165,45.5507977],[-73.709916,45.5509175],[-73.7095469,45.5510949],[-73.7089394,45.551387],[-73.7086494,45.5515265],[-73.7081364,45.5517731],[-73.707264,45.5521926],[-73.7064495,45.5525842],[-73.7056663,45.5529608]]}";3;Boulevard Cartier Ouest;2;50;false;false;true;false;false;false;829.0;0;0;0;0;0;false;41229;6269510489;-73.70192;45.555101;41232;6269510554;-73.70638;45.552682;2;6;7;9312747;Bus : 63 N - Direction Sainte-Rose;"";STL;63N;Métro Cartier Quai:7;Gare Sainte-Rose
29082136;"{\"type\":\"LineString\",\"coordinates\":[[-73.7111951,45.5561987],[-73.7116572,45.5559728],[-73.7128693,45.5553804],[-73.7134655,45.555089],[-73.7140842,45.5547866],[-73.714668,45.5545012],[-73.7153674,45.5541593],[-73.7158593,45.5539263],[-73.7160724,45.5537866],[-73.7166542,45.5532265],[-73.7170761,45.5528359],[-73.7172177,45.5527322],[-73.7179642,45.5523533]]}";1;Rue D'Argenteuil;2;50;false;false;true;false;false;false;342.5;0;0;0;0;0;false;41519;6269510498;-73.71288;45.555315;41513;6269510362;-73.71042;45.556517;1;17;18;9312747;Bus : 63 N - Direction Sainte-Rose;"";STL;63N;Métro Cartier Quai:7;Gare Sainte-Rose
476005016;"{\"type\":\"LineString\",\"coordinates\":[[-73.7103478,45.5566012],[-73.7111951,45.5561987]]}";2;Rue D'Argenteuil;2;50;false;false;true;false;false;false;40.0;0;0;0;0;0;false;41519;6269510498;-73.71288;45.555315;41513;6269510362;-73.71042;45.556517;1;17;18;9312747;Bus : 63 N - Direction Sainte-Rose;"";STL;63N;Métro Cartier Quai:7;Gare Sainte-Rose
165090585;"{\"type\":\"LineString\",\"coordinates\":[[-73.7103478,45.5566012],[-73.7103473,45.5567305],[-73.7106117,45.5569919],[-73.7107576,45.5573705],[-73.7108692,45.557653],[-73.7112094,45.5580285],[-73.7123576,45.5591683],[-73.712679,45.5594847],[-73.7127512,45.559559]]}";1;Boulevard Laval;1;50;false;true;false;false;false;false;192.0;1;1;0;0;0;false;41924;6269510343;-73.71105;45.557919;41370;6269510324;-73.71475;45.558704;1;19;20;9312747;Bus : 63 N - Direction Sainte-Rose;"";STL;63N;Métro Cartier Quai:7;Gare Sainte-Rose
740573102;"{\"type\":\"LineString\",\"coordinates\":[[-73.7127512,45.559559],[-73.7128358,45.5596589]]}";2;Boulevard Laval;1;50;false;true;false;false;false;false;13.0;2;0;0;0;0;false;41924;6269510343;-73.71105;45.557919;41370;6269510324;-73.71475;45.558704;0;19;20;9312747;Bus : 63 N - Direction Sainte-Rose;"";STL;63N;Métro Cartier Quai:7;Gare Sainte-Rose
476096576;"{\"type\":\"LineString\",\"coordinates\":[[-73.7128358,45.5596589],[-73.7129896,45.5595835]]}";3;Boulevard de la Concorde Ouest;1;60;false;true;false;false;false;false;15.0;2;0;0;0;0;false;41924;6269510343;-73.71105;45.557919;41370;6269510324;-73.71475;45.558704;0;19;20;9312747;Bus : 63 N - Direction Sainte-Rose;"";STL;63N;Métro Cartier Quai:7;Gare Sainte-Rose
452222558;"{\"type\":\"LineString\",\"coordinates\":[[-73.7129896,45.5595835],[-73.7130758,45.5595368],[-73.7134814,45.5593215],[-73.713783,45.5591613],[-73.7138247,45.5591392],[-73.7142037,45.5589379],[-73.7149235,45.5585557],[-73.7153543,45.558327],[-73.7158799,45.5580479],[-73.7164947,45.5577214],[-73.7179234,45.5569627]]}";4;Boulevard de la Concorde Ouest;1;60;false;true;true;false;false;false;241.5;2;1;0;0;0;false;41924;6269510343;-73.71105;45.557919;41370;6269510324;-73.71475;45.558704;1;19;20;9312747;Bus : 63 N - Direction Sainte-Rose;"";STL;63N;Métro Cartier Quai:7;Gare Sainte-Rose
452222558;"{\"type\":\"LineString\",\"coordinates\":[[-73.7129896,45.5595835],[-73.7130758,45.5595368],[-73.7134814,45.5593215],[-73.713783,45.5591613],[-73.7138247,45.5591392],[-73.7142037,45.5589379],[-73.7149235,45.5585557],[-73.7153543,45.558327],[-73.7158799,45.5580479],[-73.7164947,45.5577214],[-73.7179234,45.5569627]]}";1;Boulevard de la Concorde Ouest;1;60;false;true;true;false;false;false;241.5;2;1;0;0;0;false;41351;6269510346;-73.71631;45.557873;43510;6269510215;-73.71902;45.558237;1;21;22;9312747;Bus : 63 N - Direction Sainte-Rose;"";STL;63N;Métro Cartier Quai:7;Gare Sainte-Rose
452222557;"{\"type\":\"LineString\",\"coordinates\":[[-73.7179234,45.5569627],[-73.7194731,45.5586204],[-73.7195653,45.558719]]}";2;Boulevard de l'Avenir;3;50;false;true;true;false;false;false;117.0;1;1;0;0;0;false;41351;6269510346;-73.71631;45.557873;43510;6269510215;-73.71902;45.558237;1;21;22;9312747;Bus : 63 N - Direction Sainte-Rose;"";STL;63N;Métro Cartier Quai:7;Gare Sainte-Rose
452222557;"{\"type\":\"LineString\",\"coordinates\":[[-73.7179234,45.5569627],[-73.7194731,45.5586204],[-73.7195653,45.558719]]}";1;Boulevard de l'Avenir;3;50;false;true;true;false;false;false;117.0;1;1;0;0;0;false;43510;6269510215;-73.71902;45.558237;43506;6269510308;-73.72025;45.559517;1;22;23;9312747;Bus : 63 N - Direction Sainte-Rose;"";STL;63N;Métro Cartier Quai:7;Gare Sainte-Rose
29081977;"{\"type\":\"LineString\",\"coordinates\":[[-73.7195653,45.558719],[-73.7196614,45.5588173],[-73.7199922,45.5591559],[-73.7204185,45.5595948]]}";2;Boulevard de l'Avenir;3;50;false;true;true;false;false;false;59.0;0;1;0;0;0;false;43510;6269510215;-73.71902;45.558237;43506;6269510308;-73.72025;45.559517;1;22;23;9312747;Bus : 63 N - Direction Sainte-Rose;"";STL;63N;Métro Cartier Quai:7;Gare Sainte-Rose
475848924;"{\"type\":\"LineString\",\"coordinates\":[[-73.7204185,45.5595948],[-73.7210127,45.5602042],[-73.7212014,45.5603978],[-73.7213245,45.560524],[-73.7225737,45.5618077]]}";1;Boulevard de l'Avenir;3;50;false;true;true;false;false;false;298.0;1;0;0;0;0;false;43506;6269510308;-73.72025;45.559517;43343;6269510224;-73.72369;45.561728;2;23;24;9312747;Bus : 63 N - Direction Sainte-Rose;"";STL;63N;Métro Cartier Quai:7;Gare Sainte-Rose
669709383;"{\"type\":\"LineString\",\"coordinates\":[[-73.7225737,45.5618077],[-73.7227201,45.561963]]}";2;Boulevard de l'Avenir;3;50;false;true;true;false;false;false;21.0;2;0;0;0;0;false;43506;6269510308;-73.72025;45.559517;43343;6269510224;-73.72369;45.561728;0;23;24;9312747;Bus : 63 N - Direction Sainte-Rose;"";STL;63N;Métro Cartier Quai:7;Gare Sainte-Rose
669709379;"{\"type\":\"LineString\",\"coordinates\":[[-73.7227201,45.561963],[-73.7228972,45.5619121]]}";3;Boulevard du Souvenir;3;50;false;true;true;false;false;false;15.0;2;0;0;0;0;false;43506;6269510308;-73.72025;45.559517;43343;6269510224;-73.72369;45.561728;0;23;24;9312747;Bus : 63 N - Direction Sainte-Rose;"";STL;63N;Métro Cartier Quai:7;Gare Sainte-Rose
29155370;"{\"type\":\"LineString\",\"coordinates\":[[-73.7228972,45.5619121],[-73.7235527,45.5617088],[-73.7240778,45.5615486],[-73.7242731,45.561489],[-73.7254238,45.5611379],[-73.7256335,45.561069]]}";4;Boulevard du Souvenir;3;50;false;true;true;false;false;false;234.0;1;0;0;0;0;false;43506;6269510308;-73.72025;45.559517;43343;6269510224;-73.72369;45.561728;2;23;24;9312747;Bus : 63 N - Direction Sainte-Rose;"";STL;63N;Métro Cartier Quai:7;Gare Sainte-Rose
29155370;"{\"type\":\"LineString\",\"coordinates\":[[-73.7228972,45.5619121],[-73.7235527,45.5617088],[-73.7240778,45.5615486],[-73.7242731,45.561489],[-73.7254238,45.5611379],[-73.7256335,45.561069]]}";1;Boulevard du Souvenir;3;50;false;true;true;false;false;false;117.0;1;0;0;0;0;false;43343;6269510224;-73.72369;45.561728;43146;6269510272;-73.72619;45.560951;1;24;25;9312747;Bus : 63 N - Direction Sainte-Rose;"";STL;63N;Métro Cartier Quai:7;Gare Sainte-Rose
475237533;"{\"type\":\"LineString\",\"coordinates\":[[-73.7256335,45.561069],[-73.7270604,45.5605708]]}";2;Boulevard du Souvenir;3;50;false;true;true;false;false;false;62.5;1;0;0;0;0;false;43343;6269510224;-73.72369;45.561728;43146;6269510272;-73.72619;45.560951;1;24;25;9312747;Bus : 63 N - Direction Sainte-Rose;"";STL;63N;Métro Cartier Quai:7;Gare Sainte-Rose
475237533;"{\"type\":\"LineString\",\"coordinates\":[[-73.7256335,45.561069],[-73.7270604,45.5605708]]}";1;Boulevard du Souvenir;3;50;false;true;true;false;false;false;62.5;1;0;0;0;0;false;43146;6269510272;-73.72619;45.560951;41957;6269510226;-73.72908;45.562299;1;25;26;9312747;Bus : 63 N - Direction Sainte-Rose;"";STL;63N;Métro Cartier Quai:7;Gare Sainte-Rose
673264011;"{\"type\":\"LineString\",\"coordinates\":[[-73.7270604,45.5605708],[-73.7271245,45.5605454]]}";2;Boulevard du Souvenir;3;50;false;true;true;false;false;false;6.0;1;0;0;0;0;false;43146;6269510272;-73.72619;45.560951;41957;6269510226;-73.72908;45.562299;0;25;26;9312747;Bus : 63 N - Direction Sainte-Rose;"";STL;63N;Métro Cartier Quai:7;Gare Sainte-Rose
672433263;"{\"type\":\"LineString\",\"coordinates\":[[-73.7271245,45.5605454],[-73.7273615,45.5607671],[-73.7274278,45.5608101],[-73.7275097,45.560869],[-73.7288457,45.5620823],[-73.7311728,45.5641376],[-73.7324492,45.5653114],[-73.7325997,45.5654018]]}";3;Voie réservée - boulevard Le Corbusier;1;50;false;true;true;false;true;false;344.5;0;0;0;0;0;false;43146;6269510272;-73.72619;45.560951;41957;6269510226;-73.72908;45.562299;1;25;26;9312747;Bus : 63 N - Direction Sainte-Rose;"";STL;63N;Métro Cartier Quai:7;Gare Sainte-Rose
672433263;"{\"type\":\"LineString\",\"coordinates\":[[-73.7271245,45.5605454],[-73.7273615,45.5607671],[-73.7274278,45.5608101],[-73.7275097,45.560869],[-73.7288457,45.5620823],[-73.7311728,45.5641376],[-73.7324492,45.5653114],[-73.7325997,45.5654018]]}";1;Voie réservée - boulevard Le Corbusier;1;50;false;true;true;false;true;false;344.5;0;0;0;0;0;false;41952;6269510189;-73.73143;45.564352;41942;6269509996;-73.73452;45.567098;1;27;28;9312747;Bus : 63 N - Direction Sainte-Rose;"";STL;63N;Métro Cartier Quai:7;Gare Sainte-Rose
679314341;"{\"type\":\"LineString\",\"coordinates\":[[-73.7325997,45.5654018],[-73.7338863,45.5665063],[-73.7343941,45.5669377],[-73.7348605,45.5673423],[-73.7350629,45.5675728]]}";2;Voie réservée - boulevard Le Corbusier;1;50;false;true;true;false;true;false;154.5;0;0;0;0;0;false;41952;6269510189;-73.73143;45.564352;41942;6269509996;-73.73452;45.567098;1;27;28;9312747;Bus : 63 N - Direction Sainte-Rose;"";STL;63N;Métro Cartier Quai:7;Gare Sainte-Rose
679314341;"{\"type\":\"LineString\",\"coordinates\":[[-73.7325997,45.5654018],[-73.7338863,45.5665063],[-73.7343941,45.5669377],[-73.7348605,45.5673423],[-73.7350629,45.5675728]]}";1;Voie réservée - boulevard Le Corbusier;1;50;false;true;true;false;true;false;154.5;0;0;0;0;0;false;41942;6269509996;-73.73452;45.567098;41965;6269509534;-73.73817;45.570131;1;28;29;9312747;Bus : 63 N - Direction Sainte-Rose;"";STL;63N;Métro Cartier Quai:7;Gare Sainte-Rose
45755903;"{\"type\":\"LineString\",\"coordinates\":[[-73.7350629,45.5675728],[-73.7354327,45.567807],[-73.7359482,45.5681334],[-73.7362641,45.5683683],[-73.7364145,45.5684806],[-73.7383828,45.5702326]]}";2;Boulevard Le Corbusier;2;60;false;true;false;false;false;false;197.0;1;0;0;0;0;false;41942;6269509996;-73.73452;45.567098;41965;6269509534;-73.73817;45.570131;1;28;29;9312747;Bus : 63 N - Direction Sainte-Rose;"";STL;63N;Métro Cartier Quai:7;Gare Sainte-Rose
45755903;"{\"type\":\"LineString\",\"coordinates\":[[-73.7350629,45.5675728],[-73.7354327,45.567807],[-73.7359482,45.5681334],[-73.7362641,45.5683683],[-73.7364145,45.5684806],[-73.7383828,45.5702326]]}";1;Boulevard Le Corbusier;2;60;false;true;false;false;false;false;197.0;1;0;0;0;0;false;41965;6269509534;-73.73817;45.570131;"41018;41932";6269509381;-73.74198;45.572102;1;29;30;9312747;Bus : 63 N - Direction Sainte-Rose;"";STL;63N;Métro Cartier Quai:7;Gare Sainte-Rose
45755730;"{\"type\":\"LineString\",\"coordinates\":[[-73.7383828,45.5702326],[-73.7391621,45.5709218],[-73.7401317,45.5717803],[-73.740957,45.5725111]]}";2;Boulevard Le Corbusier;2;60;false;true;false;false;false;false;324.0;2;0;0;0;0;false;41965;6269509534;-73.73817;45.570131;"41018;41932";6269509381;-73.74198;45.572102;0;29;30;9312747;Bus : 63 N - Direction Sainte-Rose;"";STL;63N;Métro Cartier Quai:7;Gare Sainte-Rose
604585123;"{\"type\":\"LineString\",\"coordinates\":[[-73.7411171,45.5724204],[-73.740957,45.5725111]]}";3;Boulevard Le Carrefour;2;50;false;true;false;false;false;false;17.0;2;0;0;0;0;false;41965;6269509534;-73.73817;45.570131;"41018;41932";6269509381;-73.74198;45.572102;0;29;30;9312747;Bus : 63 N - Direction Sainte-Rose;"";STL;63N;Métro Cartier Quai:7;Gare Sainte-Rose
678350784;"{\"type\":\"LineString\",\"coordinates\":[[-73.740957,45.5725111],[-73.7410251,45.5725718]]}";4;Boulevard Le Corbusier;2;60;false;true;false;false;false;false;9.0;2;0;0;0;0;false;41965;6269509534;-73.73817;45.570131;"41018;41932";6269509381;-73.74198;45.572102;0;29;30;9312747;Bus : 63 N - Direction Sainte-Rose;"";STL;63N;Métro Cartier Quai:7;Gare Sainte-Rose
455474953;"{\"type\":\"LineString\",\"coordinates\":[[-73.7410251,45.5725718],[-73.7411952,45.572484]]}";5;Boulevard Le Carrefour;1;50;false;true;false;false;false;false;17.0;2;0;0;0;0;false;41965;6269509534;-73.73817;45.570131;"41018;41932";6269509381;-73.74198;45.572102;0;29;30;9312747;Bus : 63 N - Direction Sainte-Rose;"";STL;63N;Métro Cartier Quai:7;Gare Sainte-Rose
455474952;"{\"type\":\"LineString\",\"coordinates\":[[-73.7411952,45.572484],[-73.7413653,45.5723882]]}";6;Boulevard Le Carrefour;1;50;false;true;false;false;false;false;18.0;1;0;0;0;0;false;41965;6269509534;-73.73817;45.570131;"41018;41932";6269509381;-73.74198;45.572102;0;29;30;9312747;Bus : 63 N - Direction Sainte-Rose;"";STL;63N;Métro Cartier Quai:7;Gare Sainte-Rose
165086150;"{\"type\":\"LineString\",\"coordinates\":[[-73.7413653,45.5723882],[-73.7414679,45.5723304],[-73.7430271,45.5714652],[-73.7435379,45.5712004],[-73.7438052,45.5710788],[-73.7441104,45.5709491],[-73.7444843,45.5708292]]}";7;Boulevard Le Carrefour;1;50;false;true;false;false;false;false;150.0;0;0;0;0;0;false;41965;6269509534;-73.73817;45.570131;"41018;41932";6269509381;-73.74198;45.572102;1;29;30;9312747;Bus : 63 N - Direction Sainte-Rose;"";STL;63N;Métro Cartier Quai:7;Gare Sainte-Rose
45755729;"{\"type\":\"LineString\",\"coordinates\":[[-73.7443762,45.5707482],[-73.7438228,45.5709423],[-73.7438005,45.5709526],[-73.7433719,45.5711499],[-73.7431441,45.5712668],[-73.7429955,45.5713431],[-73.7420247,45.571886],[-73.7418024,45.5720154],[-73.7414375,45.5722279],[-73.7413885,45.5722574]]}";1;Boulevard Le Carrefour;2;50;false;true;false;false;false;false;288.0;0;0;0;0;0;false;"41018;41932";6269509381;-73.74198;45.572102;"44063;44061";6269509574;-73.74791;45.568916;2;30;31;9312747;Bus : 63 N - Direction Sainte-Rose;"";STL;63N;Métro Cartier Quai:7;Gare Sainte-Rose
45755858;"{\"type\":\"LineString\",\"coordinates\":[[-73.7460729,45.5701116],[-73.7443762,45.5707482]]}";2;Boulevard Le Carrefour;2;50;false;true;false;false;false;false;151.0;0;0;0;0;0;false;"41018;41932";6269509381;-73.74198;45.572102;"44063;44061";6269509574;-73.74791;45.568916;0;30;31;9312747;Bus : 63 N - Direction Sainte-Rose;"";STL;63N;Métro Cartier Quai:7;Gare Sainte-Rose
652937897;"{\"type\":\"LineString\",\"coordinates\":[[-73.7480536,45.5693169],[-73.747605,45.5695129],[-73.7471654,45.5696881],[-73.7460729,45.5701116]]}";3;Boulevard Le Carrefour;2;50;false;true;false;false;false;false;178.0;1;0;0;0;0;false;"41018;41932";6269509381;-73.74198;45.572102;"44063;44061";6269509574;-73.74791;45.568916;0;30;31;9312747;Bus : 63 N - Direction Sainte-Rose;"";STL;63N;Métro Cartier Quai:7;Gare Sainte-Rose
678350781;"{\"type\":\"LineString\",\"coordinates\":[[-73.7482256,45.5693738],[-73.7480536,45.5693169]]}";4;"";1;50;false;true;false;false;false;false;15.0;2;0;0;0;0;false;"41018;41932";6269509381;-73.74198;45.572102;"44063;44061";6269509574;-73.74791;45.568916;0;30;31;9312747;Bus : 63 N - Direction Sainte-Rose;"";STL;63N;Métro Cartier Quai:7;Gare Sainte-Rose
45760900;"{\"type\":\"LineString\",\"coordinates\":[[-73.7480536,45.5693169],[-73.7477738,45.569102],[-73.7477012,45.5690397],[-73.7476345,45.569001],[-73.747466,45.5689034],[-73.7473901,45.5688594],[-73.7472267,45.5687802],[-73.7470932,45.5687155]]}";5;Avenue Terry Fox;2;50;false;false;false;false;false;false;101.0;1;0;0;0;0;false;"41018;41932";6269509381;-73.74198;45.572102;"44063;44061";6269509574;-73.74791;45.568916;0;30;31;9312747;Bus : 63 N - Direction Sainte-Rose;"";STL;63N;Métro Cartier Quai:7;Gare Sainte-Rose
662152608;"{\"type\":\"LineString\",\"coordinates\":[[-73.7475508,45.5684635],[-73.7470932,45.5687155]]}";6;"";1;50;false;false;true;false;false;false;46.0;0;0;0;0;0;false;"41018;41932";6269509381;-73.74198;45.572102;"44063;44061";6269509574;-73.74791;45.568916;0;30;31;9312747;Bus : 63 N - Direction Sainte-Rose;"";STL;63N;Métro Cartier Quai:7;Gare Sainte-Rose
694409796;"{\"type\":\"LineString\",\"coordinates\":[[-73.7475508,45.5684635],[-73.7478552,45.5687373]]}";7;"";1;50;false;true;true;false;false;false;39.0;0;0;0;0;0;false;"41018;41932";6269509381;-73.74198;45.572102;"44063;44061";6269509574;-73.74791;45.568916;0;30;31;9312747;Bus : 63 N - Direction Sainte-Rose;"";STL;63N;Métro Cartier Quai:7;Gare Sainte-Rose
695760828;"{\"type\":\"LineString\",\"coordinates\":[[-73.7478552,45.5687373],[-73.7480061,45.5688715]]}";8;"";1;50;false;true;true;false;false;false;19.0;0;0;0;0;0;false;"41018;41932";6269509381;-73.74198;45.572102;"44063;44061";6269509574;-73.74791;45.568916;2;30;31;9312747;Bus : 63 N - Direction Sainte-Rose;"";STL;63N;Métro Cartier Quai:7;Gare Sainte-Rose
292376886;"{\"type\":\"LineString\",\"coordinates\":[[-73.7480061,45.5688715],[-73.7480552,45.5689096],[-73.7481617,45.5689162],[-73.7483174,45.5688443]]}";1;"";1;50;false;true;true;false;false;false;29.0;0;0;0;0;0;false;"44063;44061";6269509574;-73.74791;45.568916;41962;6269509333;-73.74213;45.573914;2;31;32;9312747;Bus : 63 N - Direction Sainte-Rose;"";STL;63N;Métro Cartier Quai:7;Gare Sainte-Rose
695760828;"{\"type\":\"LineString\",\"coordinates\":[[-73.7478552,45.5687373],[-73.7480061,45.5688715]]}";2;"";1;50;false;true;true;false;false;false;19.0;0;0;0;0;0;false;"44063;44061";6269509574;-73.74791;45.568916;41962;6269509333;-73.74213;45.573914;0;31;32;9312747;Bus : 63 N - Direction Sainte-Rose;"";STL;63N;Métro Cartier Quai:7;Gare Sainte-Rose
694409796;"{\"type\":\"LineString\",\"coordinates\":[[-73.7475508,45.5684635],[-73.7478552,45.5687373]]}";3;"";1;50;false;true;true;false;false;false;39.0;0;0;0;0;0;false;"44063;44061";6269509574;-73.74791;45.568916;41962;6269509333;-73.74213;45.573914;0;31;32;9312747;Bus : 63 N - Direction Sainte-Rose;"";STL;63N;Métro Cartier Quai:7;Gare Sainte-Rose
662152609;"{\"type\":\"LineString\",\"coordinates\":[[-73.7477706,45.5683413],[-73.7475508,45.5684635]]}";4;"";1;50;false;false;true;false;false;false;22.0;0;0;0;0;0;false;"44063;44061";6269509574;-73.74791;45.568916;41962;6269509333;-73.74213;45.573914;0;31;32;9312747;Bus : 63 N - Direction Sainte-Rose;"";STL;63N;Métro Cartier Quai:7;Gare Sainte-Rose
662152608;"{\"type\":\"LineString\",\"coordinates\":[[-73.7475508,45.5684635],[-73.7470932,45.5687155]]}";5;"";1;50;false;false;true;false;false;false;46.0;0;0;0;0;0;false;"44063;44061";6269509574;-73.74791;45.568916;41962;6269509333;-73.74213;45.573914;0;31;32;9312747;Bus : 63 N - Direction Sainte-Rose;"";STL;63N;Métro Cartier Quai:7;Gare Sainte-Rose
45760900;"{\"type\":\"LineString\",\"coordinates\":[[-73.7480536,45.5693169],[-73.7477738,45.569102],[-73.7477012,45.5690397],[-73.7476345,45.569001],[-73.747466,45.5689034],[-73.7473901,45.5688594],[-73.7472267,45.5687802],[-73.7470932,45.5687155]]}";6;Avenue Terry Fox;2;50;false;false;false;false;false;false;101.0;1;0;0;0;0;false;"44063;44061";6269509574;-73.74791;45.568916;41962;6269509333;-73.74213;45.573914;0;31;32;9312747;Bus : 63 N - Direction Sainte-Rose;"";STL;63N;Métro Cartier Quai:7;Gare Sainte-Rose
652937897;"{\"type\":\"LineString\",\"coordinates\":[[-73.7480536,45.5693169],[-73.747605,45.5695129],[-73.7471654,45.5696881],[-73.7460729,45.5701116]]}";7;Boulevard Le Carrefour;2;50;false;true;false;false;false;false;178.0;1;0;0;0;0;false;"44063;44061";6269509574;-73.74791;45.568916;41962;6269509333;-73.74213;45.573914;0;31;32;9312747;Bus : 63 N - Direction Sainte-Rose;"";STL;63N;Métro Cartier Quai:7;Gare Sainte-Rose
45755858;"{\"type\":\"LineString\",\"coordinates\":[[-73.7460729,45.5701116],[-73.7443762,45.5707482]]}";8;Boulevard Le Carrefour;2;50;false;true;false;false;false;false;151.0;0;0;0;0;0;false;"44063;44061";6269509574;-73.74791;45.568916;41962;6269509333;-73.74213;45.573914;0;31;32;9312747;Bus : 63 N - Direction Sainte-Rose;"";STL;63N;Métro Cartier Quai:7;Gare Sainte-Rose
45755729;"{\"type\":\"LineString\",\"coordinates\":[[-73.7443762,45.5707482],[-73.7438228,45.5709423],[-73.7438005,45.5709526],[-73.7433719,45.5711499],[-73.7431441,45.5712668],[-73.7429955,45.5713431],[-73.7420247,45.571886],[-73.7418024,45.5720154],[-73.7414375,45.5722279],[-73.7413885,45.5722574]]}";9;Boulevard Le Carrefour;2;50;false;true;false;false;false;false;288.0;0;0;0;0;0;false;"44063;44061";6269509574;-73.74791;45.568916;41962;6269509333;-73.74213;45.573914;0;31;32;9312747;Bus : 63 N - Direction Sainte-Rose;"";STL;63N;Métro Cartier Quai:7;Gare Sainte-Rose
455474955;"{\"type\":\"LineString\",\"coordinates\":[[-73.7413885,45.5722574],[-73.7411171,45.5724204]]}";10;Boulevard Le Carrefour;2;50;false;true;false;false;false;false;28.0;1;0;0;0;0;false;"44063;44061";6269509574;-73.74791;45.568916;41962;6269509333;-73.74213;45.573914;0;31;32;9312747;Bus : 63 N - Direction Sainte-Rose;"";STL;63N;Métro Cartier Quai:7;Gare Sainte-Rose
604585123;"{\"type\":\"LineString\",\"coordinates\":[[-73.7411171,45.5724204],[-73.740957,45.5725111]]}";11;Boulevard Le Carrefour;2;50;false;true;false;false;false;false;17.0;2;0;0;0;0;false;"44063;44061";6269509574;-73.74791;45.568916;41962;6269509333;-73.74213;45.573914;0;31;32;9312747;Bus : 63 N - Direction Sainte-Rose;"";STL;63N;Métro Cartier Quai:7;Gare Sainte-Rose
678350784;"{\"type\":\"LineString\",\"coordinates\":[[-73.740957,45.5725111],[-73.7410251,45.5725718]]}";12;Boulevard Le Corbusier;2;60;false;true;false;false;false;false;9.0;2;0;0;0;0;false;"44063;44061";6269509574;-73.74791;45.568916;41962;6269509333;-73.74213;45.573914;0;31;32;9312747;Bus : 63 N - Direction Sainte-Rose;"";STL;63N;Métro Cartier Quai:7;Gare Sainte-Rose
54264597;"{\"type\":\"LineString\",\"coordinates\":[[-73.7410251,45.5725718],[-73.7415542,45.5730379],[-73.7417796,45.5732744],[-73.7419918,45.5735287],[-73.7420618,45.5736443],[-73.742087,45.5736859],[-73.7421791,45.5738381],[-73.7422311,45.573924],[-73.7423007,45.5740452]]}";13;Boulevard Le Corbusier;2;60;false;true;false;false;false;false;193.0;1;0;0;0;0;false;"44063;44061";6269509574;-73.74791;45.568916;41962;6269509333;-73.74213;45.573914;2;31;32;9312747;Bus : 63 N - Direction Sainte-Rose;"";STL;63N;Métro Cartier Quai:7;Gare Sainte-Rose
45755876;"{\"type\":\"LineString\",\"coordinates\":[[-73.7423007,45.5740452],[-73.7424352,45.5743347],[-73.7425481,45.5747571],[-73.7425535,45.5747771],[-73.7427324,45.5760975],[-73.7427608,45.5762398],[-73.742764,45.5762556]]}";1;Boulevard Le Corbusier;2;60;false;true;false;false;false;false;124.5;1;0;0;0;0;false;41950;6269508977;-73.74259;45.575974;41943;6269508961;-73.7435;45.577694;1;33;34;9312747;Bus : 63 N - Direction Sainte-Rose;"";STL;63N;Métro Cartier Quai:7;Gare Sainte-Rose
45755864;"{\"type\":\"LineString\",\"coordinates\":[[-73.742764,45.5762556],[-73.7429204,45.5767163],[-73.7430305,45.5769516],[-73.743179,45.5771872],[-73.7434783,45.5775596],[-73.7448889,45.5788691]]}";2;Boulevard Le Corbusier;2;60;false;true;false;false;false;false;169.5;1;0;0;0;0;false;41950;6269508977;-73.74259;45.575974;41943;6269508961;-73.7435;45.577694;1;33;34;9312747;Bus : 63 N - Direction Sainte-Rose;"";STL;63N;Métro Cartier Quai:7;Gare Sainte-Rose
45755864;"{\"type\":\"LineString\",\"coordinates\":[[-73.742764,45.5762556],[-73.7429204,45.5767163],[-73.7430305,45.5769516],[-73.743179,45.5771872],[-73.7434783,45.5775596],[-73.7448889,45.5788691]]}";1;Boulevard Le Corbusier;2;60;false;true;false;false;false;false;169.5;1;0;0;0;0;false;41943;6269508961;-73.7435;45.577694;41945;6269508859;-73.74844;45.582331;1;34;35;9312747;Bus : 63 N - Direction Sainte-Rose;"";STL;63N;Métro Cartier Quai:7;Gare Sainte-Rose
45755878;"{\"type\":\"LineString\",\"coordinates\":[[-73.7448889,45.5788691],[-73.7458776,45.5797825]]}";2;Boulevard Le Corbusier;2;60;false;true;false;false;false;false;128.0;0;0;0;0;0;false;41943;6269508961;-73.7435;45.577694;41945;6269508859;-73.74844;45.582331;0;34;35;9312747;Bus : 63 N - Direction Sainte-Rose;"";STL;63N;Métro Cartier Quai:7;Gare Sainte-Rose
45755879;"{\"type\":\"LineString\",\"coordinates\":[[-73.7458776,45.5797825],[-73.7470575,45.5808753]]}";3;Boulevard Le Corbusier;2;60;false;true;false;false;false;false;153.0;0;0;0;0;0;false;41943;6269508961;-73.7435;45.577694;41945;6269508859;-73.74844;45.582331;0;34;35;9312747;Bus : 63 N - Direction Sainte-Rose;"";STL;63N;Métro Cartier Quai:7;Gare Sainte-Rose
679314317;"{\"type\":\"LineString\",\"coordinates\":[[-73.7470575,45.5808753],[-73.7475571,45.5813684],[-73.7479487,45.581755]]}";4;Boulevard Le Corbusier;1;60;false;true;false;false;false;false;120.0;0;0;0;0;0;false;41943;6269508961;-73.7435;45.577694;41945;6269508859;-73.74844;45.582331;0;34;35;9312747;Bus : 63 N - Direction Sainte-Rose;"";STL;63N;Métro Cartier Quai:7;Gare Sainte-Rose
679942267;"{\"type\":\"LineString\",\"coordinates\":[[-73.7479487,45.581755],[-73.7500123,45.5837519]]}";5;Boulevard Le Corbusier;1;60;false;true;false;false;false;false;137.0;0;0;0;0;0;false;41943;6269508961;-73.7435;45.577694;41945;6269508859;-73.74844;45.582331;1;34;35;9312747;Bus : 63 N - Direction Sainte-Rose;"";STL;63N;Métro Cartier Quai:7;Gare Sainte-Rose
679942267;"{\"type\":\"LineString\",\"coordinates\":[[-73.7479487,45.581755],[-73.7500123,45.5837519]]}";1;Boulevard Le Corbusier;1;60;false;true;false;false;false;false;137.0;0;0;0;0;0;false;41945;6269508859;-73.74844;45.582331;41946;6269508817;-73.75033;45.584215;1;35;36;9312747;Bus : 63 N - Direction Sainte-Rose;"";STL;63N;Métro Cartier Quai:7;Gare Sainte-Rose
679314314;"{\"type\":\"LineString\",\"coordinates\":[[-73.7500123,45.5837519],[-73.7501706,45.5838811],[-73.7517763,45.5852254],[-73.7533896,45.5866986]]}";2;Boulevard Le Corbusier;1;60;false;true;false;false;false;false;210.5;0;0;0;0;0;false;41945;6269508859;-73.74844;45.582331;41946;6269508817;-73.75033;45.584215;1;35;36;9312747;Bus : 63 N - Direction Sainte-Rose;"";STL;63N;Métro Cartier Quai:7;Gare Sainte-Rose
679314314;"{\"type\":\"LineString\",\"coordinates\":[[-73.7500123,45.5837519],[-73.7501706,45.5838811],[-73.7517763,45.5852254],[-73.7533896,45.5866986]]}";1;Boulevard Le Corbusier;1;60;false;true;false;false;false;false;210.5;0;0;0;0;0;false;41948;6269508809;-73.75176;45.58539;46187;6269508761;-73.75418;45.586329;1;37;38;9312747;Bus : 63 N - Direction Sainte-Rose;"";STL;63N;Métro Cartier Quai:7;Gare Sainte-Rose
679314311;"{\"type\":\"LineString\",\"coordinates\":[[-73.7533896,45.5866986],[-73.7535043,45.5866293]]}";2;Rue Michelin;2;50;false;false;true;false;false;false;12.0;0;0;0;0;0;false;41948;6269508809;-73.75176;45.58539;46187;6269508761;-73.75418;45.586329;0;37;38;9312747;Bus : 63 N - Direction Sainte-Rose;"";STL;63N;Métro Cartier Quai:7;Gare Sainte-Rose
679314261;"{\"type\":\"LineString\",\"coordinates\":[[-73.7535043,45.5866293],[-73.7554988,45.5855273]]}";3;Rue Michelin;2;50;false;false;true;false;false;false;99.0;0;0;0;0;0;false;41948;6269508809;-73.75176;45.58539;46187;6269508761;-73.75418;45.586329;1;37;38;9312747;Bus : 63 N - Direction Sainte-Rose;"";STL;63N;Métro Cartier Quai:7;Gare Sainte-Rose
679314261;"{\"type\":\"LineString\",\"coordinates\":[[-73.7535043,45.5866293],[-73.7554988,45.5855273]]}";1;Rue Michelin;2;50;false;false;true;false;false;false;99.0;0;0;0;0;0;false;46187;6269508761;-73.75418;45.586329;46315;6269508807;-73.75606;45.585326;1;38;39;9312747;Bus : 63 N - Direction Sainte-Rose;"";STL;63N;Métro Cartier Quai:7;Gare Sainte-Rose
45760854;"{\"type\":\"LineString\",\"coordinates\":[[-73.7584699,45.5847533],[-73.7579448,45.5847296],[-73.7575982,45.5847529],[-73.7573155,45.5847858],[-73.756787,45.584915],[-73.7558157,45.5853635],[-73.7554988,45.5855273]]}";2;Rue Michelin;2;50;false;false;true;false;false;false;128.0;0;0;0;0;0;false;46187;6269508761;-73.75418;45.586329;46315;6269508807;-73.75606;45.585326;1;38;39;9312747;Bus : 63 N - Direction Sainte-Rose;"";STL;63N;Métro Cartier Quai:7;Gare Sainte-Rose
45760854;"{\"type\":\"LineString\",\"coordinates\":[[-73.7584699,45.5847533],[-73.7579448,45.5847296],[-73.7575982,45.5847529],[-73.7573155,45.5847858],[-73.756787,45.584915],[-73.7558157,45.5853635],[-73.7554988,45.5855273]]}";1;Rue Michelin;2;50;false;false;true;false;false;false;128.0;0;0;0;0;0;false;46189;6269508823;-73.75822;45.584799;46190;6269508826;-73.76213;45.585006;1;40;41;9312747;Bus : 63 N - Direction Sainte-Rose;"";STL;63N;Métro Cartier Quai:7;Gare Sainte-Rose
45760847;"{\"type\":\"LineString\",\"coordinates\":[[-73.7584699,45.5847533],[-73.7596973,45.5849017],[-73.7607984,45.5849586],[-73.7614523,45.5849567],[-73.7623762,45.5849127]]}";2;Rue Michelin;2;50;false;false;true;false;false;false;153.5;0;0;0;0;0;false;46189;6269508823;-73.75822;45.584799;46190;6269508826;-73.76213;45.585006;1;40;41;9312747;Bus : 63 N - Direction Sainte-Rose;"";STL;63N;Métro Cartier Quai:7;Gare Sainte-Rose
45760847;"{\"type\":\"LineString\",\"coordinates\":[[-73.7584699,45.5847533],[-73.7596973,45.5849017],[-73.7607984,45.5849586],[-73.7614523,45.5849567],[-73.7623762,45.5849127]]}";1;Rue Michelin;2;50;false;false;true;false;false;false;153.5;0;0;0;0;0;false;46190;6269508826;-73.76213;45.585006;46191;6269508819;-73.76517;45.584358;1;41;42;9312747;Bus : 63 N - Direction Sainte-Rose;"";STL;63N;Métro Cartier Quai:7;Gare Sainte-Rose
45760849;"{\"type\":\"LineString\",\"coordinates\":[[-73.7679582,45.5825875],[-73.7669491,45.5827299],[-73.7665363,45.5828515],[-73.7662772,45.5829747],[-73.7660428,45.5831432],[-73.765872,45.5833304],[-73.7653943,45.5840723],[-73.7650678,45.5843478],[-73.7648335,45.5845073],[-73.7645742,45.5846395],[-73.7644193,45.5846918],[-73.7637881,45.584829],[-73.7632743,45.5848775],[-73.7623762,45.5849127]]}";2;Rue Michelin;2;50;false;false;true;false;false;false;273.5;0;0;0;0;0;false;46190;6269508826;-73.76213;45.585006;46191;6269508819;-73.76517;45.584358;1;41;42;9312747;Bus : 63 N - Direction Sainte-Rose;"";STL;63N;Métro Cartier Quai:7;Gare Sainte-Rose
25193749;"{\"type\":\"LineString\",\"coordinates\":[[-73.7679582,45.5825875],[-73.7682383,45.5836795],[-73.7686211,45.5851722],[-73.768829,45.5858131]]}";1;Boulevard des Rossignols;4;50;false;false;true;false;false;false;182.5;0;0;0;0;0;false;46193;6269508806;-73.76862;45.585533;46402;6269508780;-73.76962;45.587113;1;44;45;9312747;Bus : 63 N - Direction Sainte-Rose;"";STL;63N;Métro Cartier Quai:7;Gare Sainte-Rose
455472236;"{\"type\":\"LineString\",\"coordinates\":[[-73.768829,45.5858131],[-73.768917,45.5860845],[-73.7691115,45.5863741]]}";2;Boulevard des Rossignols;4;50;false;false;true;false;false;false;67.0;0;0;0;0;0;false;46193;6269508806;-73.76862;45.585533;46402;6269508780;-73.76962;45.587113;0;44;45;9312747;Bus : 63 N - Direction Sainte-Rose;"";STL;63N;Métro Cartier Quai:7;Gare Sainte-Rose
111542784;"{\"type\":\"LineString\",\"coordinates\":[[-73.7691115,45.5863741],[-73.7692178,45.5865055]]}";3;Boulevard des Rossignols;4;50;false;false;false;false;false;false;17.0;0;0;0;0;0;false;46193;6269508806;-73.76862;45.585533;46402;6269508780;-73.76962;45.587113;0;44;45;9312747;Bus : 63 N - Direction Sainte-Rose;"";STL;63N;Métro Cartier Quai:7;Gare Sainte-Rose
46204399;"{\"type\":\"LineString\",\"coordinates\":[[-73.7692178,45.5865055],[-73.7705157,45.5880521],[-73.7705744,45.5881221],[-73.7710492,45.5886878],[-73.7712642,45.5889298],[-73.7713414,45.5891073],[-73.7713728,45.5892435],[-73.7714457,45.5895401],[-73.771479,45.5896611],[-73.7716024,45.5901253],[-73.7716388,45.5902574],[-73.7717938,45.5908387],[-73.7719239,45.5912947],[-73.7721329,45.5920454],[-73.7723529,45.5928343],[-73.7723952,45.5930114],[-73.7724843,45.5934033],[-73.7725279,45.5935913],[-73.7725406,45.5936616],[-73.7725439,45.5936799],[-73.7726165,45.5940518],[-73.7726448,45.5943745],[-73.7726655,45.5948031],[-73.7726757,45.5950212],[-73.772682,45.5953439],[-73.772711,45.5957788],[-73.772748,45.59647],[-73.7728047,45.5972162],[-73.7728729,45.5976066],[-73.7729483,45.5979092],[-73.7732252,45.5989377]]}";4;Boulevard des Rossignols;2;50;false;false;false;false;false;false;719.0;0;0;3;0;0;false;46193;6269508806;-73.76862;45.585533;46402;6269508780;-73.76962;45.587113;1;44;45;9312747;Bus : 63 N - Direction Sainte-Rose;"";STL;63N;Métro Cartier Quai:7;Gare Sainte-Rose
46278153;"{\"type\":\"LineString\",\"coordinates\":[[-73.7732252,45.5989377],[-73.7737392,45.6009956],[-73.7739891,45.6018704]]}";1;Boulevard des Rossignols;2;50;false;false;false;false;false;false;166.0;0;0;2;0;0;false;46199;6269508306;-73.7736;45.600915;46200;6269507979;-73.77412;45.602561;1;53;54;9312747;Bus : 63 N - Direction Sainte-Rose;"";STL;63N;Métro Cartier Quai:7;Gare Sainte-Rose
42934493;"{\"type\":\"LineString\",\"coordinates\":[[-73.7739891,45.6018704],[-73.7740328,45.602026],[-73.7742028,45.6026416],[-73.7742656,45.6028631],[-73.7743268,45.6030635],[-73.7743487,45.6031269],[-73.7743782,45.6031874],[-73.7744171,45.6032413],[-73.7744668,45.603291],[-73.7745338,45.6033431],[-73.7746089,45.6033905],[-73.7746947,45.6034262],[-73.7747863,45.603455],[-73.7749026,45.6034825],[-73.7750266,45.6034923],[-73.77514,45.6034923],[-73.7752499,45.6034801],[-73.775466,45.6034267],[-73.7755725,45.6033985],[-73.7756737,45.6033643],[-73.7757757,45.6033263],[-73.7758576,45.6032887],[-73.7759259,45.603254],[-73.7759909,45.6032123],[-73.7761092,45.6031193],[-73.7762397,45.6030025],[-73.7763758,45.602867],[-73.7766217,45.6026478],[-73.7768526,45.6024795],[-73.7770799,45.6023345],[-73.7772878,45.6022177],[-73.7774711,45.6021318],[-73.7775969,45.6020943],[-73.7777311,45.6020704],[-73.7778597,45.6020624],[-73.7779871,45.6020544],[-73.7781072,45.6020361],[-73.7782251,45.6020105]]}";2;Boulevard de la Renaissance;2;50;false;false;false;false;false;false;262.5;0;0;0;0;0;false;46199;6269508306;-73.7736;45.600915;46200;6269507979;-73.77412;45.602561;1;53;54;9312747;Bus : 63 N - Direction Sainte-Rose;"";STL;63N;Métro Cartier Quai:7;Gare Sainte-Rose
45762723;"{\"type\":\"LineString\",\"coordinates\":[[-73.7816654,45.6040313],[-73.7817926,45.6040776],[-73.7819814,45.6042417],[-73.7819929,45.6042613],[-73.7820556,45.6043685],[-73.7821265,45.6046483],[-73.7821856,45.6048754],[-73.7823076,45.6053445],[-73.7824705,45.6059707],[-73.7824833,45.60602],[-73.7825285,45.6061936]]}";1;Rue Arthur-Buies;2;50;false;false;false;false;false;false;128.0;0;0;0;0;0;false;46205;6269507905;-73.78234;45.605951;41658;6269507871;-73.78024;45.606919;1;59;60;9312747;Bus : 63 N - Direction Sainte-Rose;"";STL;63N;Métro Cartier Quai:7;Gare Sainte-Rose
343271683;"{\"type\":\"LineString\",\"coordinates\":[[-73.7825285,45.6061936],[-73.7825535,45.6062859],[-73.7826478,45.606634]]}";2;Rue Arthur-Buies;2;50;false;false;true;false;false;false;50.0;0;0;0;0;0;false;46205;6269507905;-73.78234;45.605951;41658;6269507871;-73.78024;45.606919;0;59;60;9312747;Bus : 63 N - Direction Sainte-Rose;"";STL;63N;Métro Cartier Quai:7;Gare Sainte-Rose
45762807;"{\"type\":\"LineString\",\"coordinates\":[[-73.7826478,45.606634],[-73.7821463,45.606701],[-73.7801527,45.6069675]]}";3;Boulevard Marc-Aurèle-Fortin;1;50;false;true;true;false;false;false;99.0;0;0;0;0;0;false;46205;6269507905;-73.78234;45.605951;41658;6269507871;-73.78024;45.606919;1;59;60;9312747;Bus : 63 N - Direction Sainte-Rose;"";STL;63N;Métro Cartier Quai:7;Gare Sainte-Rose
45762798;"{\"type\":\"LineString\",\"coordinates\":[[-73.7801527,45.6069675],[-73.780189,45.6070669]]}";1;Rue des Patriotes;2;50;false;false;true;false;false;false;12.0;0;0;0;0;0;false;41658;6269507871;-73.78024;45.606919;42574;6269507836;-73.78076;45.609527;2;60;61;9312747;Bus : 63 N - Direction Sainte-Rose;"";STL;63N;Métro Cartier Quai:7;Gare Sainte-Rose
45762829;"{\"type\":\"LineString\",\"coordinates\":[[-73.780189,45.6070669],[-73.7803613,45.6077174],[-73.7806771,45.6089098],[-73.7808541,45.6095779],[-73.7808757,45.6096594],[-73.7810424,45.6102887]]}";2;Rue des Patriotes;2;50;false;false;true;false;false;false;364.0;0;0;0;0;0;false;41658;6269507871;-73.78024;45.606919;42574;6269507836;-73.78076;45.609527;2;60;61;9312747;Bus : 63 N - Direction Sainte-Rose;"";STL;63N;Métro Cartier Quai:7;Gare Sainte-Rose
45762829;"{\"type\":\"LineString\",\"coordinates\":[[-73.780189,45.6070669],[-73.7803613,45.6077174],[-73.7806771,45.6089098],[-73.7808541,45.6095779],[-73.7808757,45.6096594],[-73.7810424,45.6102887]]}";1;Rue des Patriotes;2;50;false;false;true;false;false;false;182.0;0;0;0;0;0;false;42574;6269507836;-73.78076;45.609527;42576;6269507795;-73.78134;45.611794;1;61;62;9312747;Bus : 63 N - Direction Sainte-Rose;"";STL;63N;Métro Cartier Quai:7;Gare Sainte-Rose
164608795;"{\"type\":\"LineString\",\"coordinates\":[[-73.7810424,45.6102887],[-73.781199,45.6109159],[-73.7813261,45.6114253],[-73.7814291,45.6118383],[-73.781451,45.6119212],[-73.7817403,45.6129698],[-73.7820788,45.6141893],[-73.7822597,45.6148409],[-73.7823206,45.6150602],[-73.7826897,45.6163173],[-73.7827799,45.6166246]]}";2;Rue des Patriotes;1;50;false;false;true;false;false;false;358.5;0;0;0;0;0;false;42574;6269507836;-73.78076;45.609527;42576;6269507795;-73.78134;45.611794;1;61;62;9312747;Bus : 63 N - Direction Sainte-Rose;"";STL;63N;Métro Cartier Quai:7;Gare Sainte-Rose
686625322;"{\"type\":\"LineString\",\"coordinates\":[[-73.7799208,45.6195081],[-73.7791092,45.6206056],[-73.7784988,45.6217753],[-73.7781236,45.6223447],[-73.7778562,45.6226052],[-73.7776665,45.6227348],[-73.7775552,45.6228108],[-73.7775123,45.6228401],[-73.7770884,45.6230575],[-73.7769398,45.6231308],[-73.7764692,45.6233455]]}";1;Boulevard Sainte-Rose;2;50;false;false;true;false;false;false;259.0;0;0;0;0;0;false;42893;6269507637;-73.77707;45.622962;42897;6269507617;-73.77449;45.623796;1;68;69;9312747;Bus : 63 N - Direction Sainte-Rose;"";STL;63N;Métro Cartier Quai:7;Gare Sainte-Rose
50954633;"{\"type\":\"LineString\",\"coordinates\":[[-73.7764692,45.6233455],[-73.7763815,45.6233851],[-73.7761611,45.6234926],[-73.7758347,45.6236145],[-73.7754153,45.6237441]]}";2;Boulevard Sainte-Rose;2;50;false;false;false;false;false;false;94.0;0;0;0;0;0;false;42893;6269507637;-73.77707;45.622962;42897;6269507617;-73.77449;45.623796;0;68;69;9312747;Bus : 63 N - Direction Sainte-Rose;"";STL;63N;Métro Cartier Quai:7;Gare Sainte-Rose
45289895;"{\"type\":\"LineString\",\"coordinates\":[[-73.7754153,45.6237441],[-73.7753045,45.6237622],[-73.774985,45.6238109],[-73.7747332,45.6238493],[-73.7743284,45.6239111],[-73.7737998,45.6239978],[-73.7732648,45.6240856],[-73.772866,45.6241701],[-73.7722445,45.6243455],[-73.7714635,45.6245698],[-73.7703596,45.6249104],[-73.7697405,45.625107],[-73.7695794,45.6251581],[-73.7693165,45.6252399],[-73.7679537,45.6256642],[-73.767057,45.6259343]]}";3;Boulevard Sainte-Rose Est;2;50;false;false;false;false;false;false;349.0;0;0;0;0;0;false;42893;6269507637;-73.77707;45.622962;42897;6269507617;-73.77449;45.623796;1;68;69;9312747;Bus : 63 N - Direction Sainte-Rose;"";STL;63N;Métro Cartier Quai:7;Gare Sainte-Rose
45289895;"{\"type\":\"LineString\",\"coordinates\":[[-73.7754153,45.6237441],[-73.7753045,45.6237622],[-73.774985,45.6238109],[-73.7747332,45.6238493],[-73.7743284,45.6239111],[-73.7737998,45.6239978],[-73.7732648,45.6240856],[-73.772866,45.6241701],[-73.7722445,45.6243455],[-73.7714635,45.6245698],[-73.7703596,45.6249104],[-73.7697405,45.625107],[-73.7695794,45.6251581],[-73.7693165,45.6252399],[-73.7679537,45.6256642],[-73.767057,45.6259343]]}";1;Boulevard Sainte-Rose Est;2;50;false;false;false;false;false;false;349.0;0;0;0;0;0;false;42898;6269507609;-73.77156;45.624487;"46330;49063";6219942215;-73.76582;45.625801;1;70;71;9312747;Bus : 63 N - Direction Sainte-Rose;"";STL;63N;Métro Cartier Quai:7;Gare Sainte-Rose
673264002;"{\"type\":\"LineString\",\"coordinates\":[[-73.767057,45.6259343],[-73.7668398,45.6256794]]}";2;"";1;50;false;false;true;false;false;false;33.0;0;0;0;0;0;false;42898;6269507609;-73.77156;45.624487;"46330;49063";6219942215;-73.76582;45.625801;0;70;71;9312747;Bus : 63 N - Direction Sainte-Rose;"";STL;63N;Métro Cartier Quai:7;Gare Sainte-Rose
233446233;"{\"type\":\"LineString\",\"coordinates\":[[-73.7668398,45.6256794],[-73.7667738,45.6255985],[-73.7666944,45.6255481],[-73.7665534,45.6254867],[-73.7660289,45.6252864]]}";3;"";1;50;false;false;true;false;false;false;79.0;0;0;0;0;0;false;42898;6269507609;-73.77156;45.624487;"46330;49063";6219942215;-73.76582;45.625801;0;70;71;9312747;Bus : 63 N - Direction Sainte-Rose;"";STL;63N;Métro Cartier Quai:7;Gare Sainte-Rose
673264004;"{\"type\":\"LineString\",\"coordinates\":[[-73.7660289,45.6252864],[-73.7658127,45.625458],[-73.7657909,45.6255141],[-73.7658018,45.6255721],[-73.7658079,45.625585],[-73.7658419,45.6256679]]}";4;"";1;50;false;true;true;false;false;false;50.0;0;0;0;0;0;false;42898;6269507609;-73.77156;45.624487;"46330;49063";6219942215;-73.76582;45.625801;0;70;71;9312747;Bus : 63 N - Direction Sainte-Rose;"";STL;63N;Métro Cartier Quai:7;Gare Sainte-Rose
673264003;"{\"type\":\"LineString\",\"coordinates\":[[-73.7658419,45.6256679],[-73.7659065,45.6257936]]}";5;"";1;50;false;true;true;false;false;false;15.0;0;0;0;0;0;false;42898;6269507609;-73.77156;45.624487;"46330;49063";6219942215;-73.76582;45.625801;1;70;71;9312747;Bus : 63 N - Direction Sainte-Rose;"";STL;63N;Métro Cartier Quai:7;Gare Sainte-Rose
