way_id;shape;index;name;nb_lanes;legal_speed;speed_zone_30;oneway;shares_bike;bike_box;bus_lane;dedicated_bus_lane;length;nb_traffic_signals;nb_crossings;nb_stops;nb_give_ways;nb_lvl_crossings;roundabout;stop_id_orig;node_id_orig;coord_x_orig;coord_y_orig;stop_id_dest;node_id_dest;coord_x_dest;coord_y_dest;nb_neighbouring_ways_bus_stop;ordre_orig;ordre_dest;id_line;line_name;colour;operator;ref;from;to
395060695;"{\"type\":\"LineString\",\"coordinates\":[[-73.6509973,45.5843797],[-73.651536,45.5847148],[-73.6516481,45.5847853]]}";1;Boulevard Saint-Michel;1;50;false;true;true;false;false;false;68.0;1;0;0;0;0;false;55334;1751357218;-73.6509032;45.5844567;60505;1751370190;-73.6506028;45.583856;1;0;1;7446095;Bus 67 : Saint-Michel Sud;"";STM;67-S;Saint-Michel / Henri-Bourassa;Station Joliette (Hochelaga / Joliette)
512994845;"{\"type\":\"LineString\",\"coordinates\":[[-73.6517184,45.5846361],[-73.6516481,45.5847853]]}";2;Boulevard Gouin Est;1;50;false;false;true;false;false;false;18.0;0;0;0;0;0;false;55334;1751357218;-73.6509032;45.5844567;60505;1751370190;-73.6506028;45.583856;0;0;1;7446095;Bus 67 : Saint-Michel Sud;"";STM;67-S;Saint-Michel / Henri-Bourassa;Station Joliette (Hochelaga / Joliette)
453265900;"{\"type\":\"LineString\",\"coordinates\":[[-73.6517184,45.5846361],[-73.6504783,45.5838741]]}";3;Boulevard Saint-Michel;2;50;false;true;true;false;false;false;64.5;1;0;0;0;0;false;55334;1751357218;-73.6509032;45.5844567;60505;1751370190;-73.6506028;45.583856;1;0;1;7446095;Bus 67 : Saint-Michel Sud;"";STM;67-S;Saint-Michel / Henri-Bourassa;Station Joliette (Hochelaga / Joliette)
453265899;"{\"type\":\"LineString\",\"coordinates\":[[-73.6504783,45.5838741],[-73.6502302,45.5837298]]}";1;Boulevard Saint-Michel;2;50;false;true;true;false;false;false;26.0;2;0;0;0;0;false;60505;1751370190;-73.6506028;45.583856;55335;602894813;-73.649796;45.583451;2;1;2;7446095;Bus 67 : Saint-Michel Sud;"";STM;67-S;Saint-Michel / Henri-Bourassa;Station Joliette (Hochelaga / Joliette)
678635373;"{\"type\":\"LineString\",\"coordinates\":[[-73.6502302,45.5837298],[-73.6492524,45.58313],[-73.6491573,45.5830713]]}";2;Boulevard Saint-Michel;2;50;false;true;true;false;false;false;112.0;2;0;0;0;0;false;60505;1751370190;-73.6506028;45.583856;55335;602894813;-73.649796;45.583451;2;1;2;7446095;Bus 67 : Saint-Michel Sud;"";STM;67-S;Saint-Michel / Henri-Bourassa;Station Joliette (Hochelaga / Joliette)
678635373;"{\"type\":\"LineString\",\"coordinates\":[[-73.6502302,45.5837298],[-73.6492524,45.58313],[-73.6491573,45.5830713]]}";1;Boulevard Saint-Michel;2;50;false;true;true;false;false;false;56.0;2;0;0;0;0;false;55335;602894813;-73.649796;45.583451;55047;602894802;-73.646509;45.581381;1;2;3;7446095;Bus 67 : Saint-Michel Sud;"";STM;67-S;Saint-Michel / Henri-Bourassa;Station Joliette (Hochelaga / Joliette)
462496331;"{\"type\":\"LineString\",\"coordinates\":[[-73.6491573,45.5830713],[-73.6469534,45.5817188],[-73.6464193,45.5813911],[-73.6463315,45.5813372],[-73.6445904,45.5802277],[-73.6439547,45.5798398]]}";2;Boulevard Saint-Michel;2;50;false;true;true;false;false;false;271.0;1;0;0;0;0;false;55335;602894813;-73.649796;45.583451;55047;602894802;-73.646509;45.581381;1;2;3;7446095;Bus 67 : Saint-Michel Sud;"";STM;67-S;Saint-Michel / Henri-Bourassa;Station Joliette (Hochelaga / Joliette)
462496331;"{\"type\":\"LineString\",\"coordinates\":[[-73.6491573,45.5830713],[-73.6469534,45.5817188],[-73.6464193,45.5813911],[-73.6463315,45.5813372],[-73.6445904,45.5802277],[-73.6439547,45.5798398]]}";1;Boulevard Saint-Michel;2;50;false;true;true;false;false;false;271.0;1;0;0;0;0;false;55047;602894802;-73.646509;45.581381;55059;602894803;-73.643947;45.579763;1;3;4;7446095;Bus 67 : Saint-Michel Sud;"";STM;67-S;Saint-Michel / Henri-Bourassa;Station Joliette (Hochelaga / Joliette)
462496330;"{\"type\":\"LineString\",\"coordinates\":[[-73.6439547,45.5798398],[-73.6437586,45.5797146],[-73.6436332,45.5796346]]}";2;Boulevard Saint-Michel;2;50;false;true;true;false;false;false;17.0;1;0;0;0;0;false;55047;602894802;-73.646509;45.581381;55059;602894803;-73.643947;45.579763;1;3;4;7446095;Bus 67 : Saint-Michel Sud;"";STM;67-S;Saint-Michel / Henri-Bourassa;Station Joliette (Hochelaga / Joliette)
462496331;"{\"type\":\"LineString\",\"coordinates\":[[-73.6491573,45.5830713],[-73.6469534,45.5817188],[-73.6464193,45.5813911],[-73.6463315,45.5813372],[-73.6445904,45.5802277],[-73.6439547,45.5798398]]}";1;Boulevard Saint-Michel;2;50;false;true;true;false;false;false;542.0;1;0;0;0;0;false;55059;602894803;-73.643947;45.579763;55079;602894811;-73.640691;45.577711;2;4;5;7446095;Bus 67 : Saint-Michel Sud;"";STM;67-S;Saint-Michel / Henri-Bourassa;Station Joliette (Hochelaga / Joliette)
462496330;"{\"type\":\"LineString\",\"coordinates\":[[-73.6439547,45.5798398],[-73.6437586,45.5797146],[-73.6436332,45.5796346]]}";2;Boulevard Saint-Michel;2;50;false;true;true;false;false;false;34.0;1;0;0;0;0;false;55059;602894803;-73.643947;45.579763;55079;602894811;-73.640691;45.577711;0;4;5;7446095;Bus 67 : Saint-Michel Sud;"";STM;67-S;Saint-Michel / Henri-Bourassa;Station Joliette (Hochelaga / Joliette)
167668713;"{\"type\":\"LineString\",\"coordinates\":[[-73.6436332,45.5796346],[-73.641304,45.578145],[-73.6406481,45.5777436],[-73.6405588,45.577689],[-73.6401695,45.5774554],[-73.6386093,45.5768445],[-73.6385484,45.5768167],[-73.6377799,45.5764985],[-73.6366737,45.5759661],[-73.6365533,45.5759146],[-73.6365519,45.5759138],[-73.6357456,45.5755722],[-73.6356222,45.5755204],[-73.6349307,45.575242],[-73.6345526,45.5750529],[-73.6341967,45.5747637],[-73.6338518,45.5744857],[-73.633596,45.5743299],[-73.6333768,45.5742102],[-73.6330889,45.5740986],[-73.6329611,45.5740431]]}";3;Boulevard Saint-Michel;2;50;false;true;true;false;false;false;1045.0;5;0;0;0;0;false;55059;602894803;-73.643947;45.579763;55079;602894811;-73.640691;45.577711;2;4;5;7446095;Bus 67 : Saint-Michel Sud;"";STM;67-S;Saint-Michel / Henri-Bourassa;Station Joliette (Hochelaga / Joliette)
167668713;"{\"type\":\"LineString\",\"coordinates\":[[-73.6436332,45.5796346],[-73.641304,45.578145],[-73.6406481,45.5777436],[-73.6405588,45.577689],[-73.6401695,45.5774554],[-73.6386093,45.5768445],[-73.6385484,45.5768167],[-73.6377799,45.5764985],[-73.6366737,45.5759661],[-73.6365533,45.5759146],[-73.6365519,45.5759138],[-73.6357456,45.5755722],[-73.6356222,45.5755204],[-73.6349307,45.575242],[-73.6345526,45.5750529],[-73.6341967,45.5747637],[-73.6338518,45.5744857],[-73.633596,45.5743299],[-73.6333768,45.5742102],[-73.6330889,45.5740986],[-73.6329611,45.5740431]]}";1;Boulevard Saint-Michel;2;50;false;true;true;false;false;false;522.5;5;0;0;0;0;false;50815;602894807;-73.635028;45.575242;50880;602894805;-73.632717;45.57387;1;7;8;7446095;Bus 67 : Saint-Michel Sud;"";STM;67-S;Saint-Michel / Henri-Bourassa;Station Joliette (Hochelaga / Joliette)
452695802;"{\"type\":\"LineString\",\"coordinates\":[[-73.6329611,45.5740431],[-73.631343,45.5733083],[-73.6306018,45.5729717],[-73.630493,45.5729223]]}";2;Boulevard Saint-Michel;2;50;false;true;true;false;false;false;115.0;1;0;0;0;0;false;50815;602894807;-73.635028;45.575242;50880;602894805;-73.632717;45.57387;1;7;8;7446095;Bus 67 : Saint-Michel Sud;"";STM;67-S;Saint-Michel / Henri-Bourassa;Station Joliette (Hochelaga / Joliette)
461164007;"{\"type\":\"LineString\",\"coordinates\":[[-73.6245611,45.570291],[-73.6241939,45.5701322]]}";1;Boulevard Saint-Michel;2;50;false;true;true;false;false;false;34.0;0;0;0;0;0;false;51079;602894782;-73.624686;45.570336;51143;602894784;-73.621702;45.569022;2;11;12;7446095;Bus 67 : Saint-Michel Sud;"";STM;67-S;Saint-Michel / Henri-Bourassa;Station Joliette (Hochelaga / Joliette)
452695799;"{\"type\":\"LineString\",\"coordinates\":[[-73.6241939,45.5701322],[-73.6216747,45.569036],[-73.6215805,45.568995],[-73.6210086,45.568749],[-73.6186736,45.5677109],[-73.6185931,45.5676752],[-73.6180667,45.5674586],[-73.6179798,45.5674228],[-73.6156696,45.566402],[-73.6155891,45.5663664],[-73.6139541,45.565641]]}";2;Boulevard Saint-Michel;2;50;false;true;true;false;false;false;942.0;4;0;0;0;0;false;51079;602894782;-73.624686;45.570336;51143;602894784;-73.621702;45.569022;2;11;12;7446095;Bus 67 : Saint-Michel Sud;"";STM;67-S;Saint-Michel / Henri-Bourassa;Station Joliette (Hochelaga / Joliette)
452695799;"{\"type\":\"LineString\",\"coordinates\":[[-73.6241939,45.5701322],[-73.6216747,45.569036],[-73.6215805,45.568995],[-73.6210086,45.568749],[-73.6186736,45.5677109],[-73.6185931,45.5676752],[-73.6180667,45.5674586],[-73.6179798,45.5674228],[-73.6156696,45.566402],[-73.6155891,45.5663664],[-73.6139541,45.565641]]}";1;Boulevard Saint-Michel;2;50;false;true;true;false;false;false;471.0;4;0;0;0;0;false;51277;602894792;-73.615728;45.566392;51360;602896858;-73.612781;45.565093;1;14;15;7446095;Bus 67 : Saint-Michel Sud;"";STM;67-S;Saint-Michel / Henri-Bourassa;Station Joliette (Hochelaga / Joliette)
453242449;"{\"type\":\"LineString\",\"coordinates\":[[-73.6139541,45.565641],[-73.6127733,45.5651121],[-73.6126337,45.5650495]]}";2;Boulevard Saint-Michel;2;50;false;true;true;false;false;false;61.5;1;0;0;0;0;false;51277;602894792;-73.615728;45.566392;51360;602896858;-73.612781;45.565093;1;14;15;7446095;Bus 67 : Saint-Michel Sud;"";STM;67-S;Saint-Michel / Henri-Bourassa;Station Joliette (Hochelaga / Joliette)
461311219;"{\"type\":\"LineString\",\"coordinates\":[[-73.6126337,45.5650495],[-73.611146,45.5644048]]}";1;Boulevard Saint-Michel;2;50;false;true;true;false;false;false;137.0;0;0;0;0;0;false;51360;602896858;-73.612781;45.565093;51394;602894787;-73.609845;45.563801;2;15;16;7446095;Bus 67 : Saint-Michel Sud;"";STM;67-S;Saint-Michel / Henri-Bourassa;Station Joliette (Hochelaga / Joliette)
461311218;"{\"type\":\"LineString\",\"coordinates\":[[-73.611146,45.5644048],[-73.610855,45.5642806]]}";2;Boulevard Saint-Michel;2;50;false;true;true;false;false;false;27.0;0;0;0;0;0;false;51360;602896858;-73.612781;45.565093;51394;602894787;-73.609845;45.563801;0;15;16;7446095;Bus 67 : Saint-Michel Sud;"";STM;67-S;Saint-Michel / Henri-Bourassa;Station Joliette (Hochelaga / Joliette)
461311217;"{\"type\":\"LineString\",\"coordinates\":[[-73.610855,45.5642806],[-73.6096708,45.5637407]]}";3;Boulevard Saint-Michel;2;50;false;true;true;false;false;false;111.0;1;0;0;0;0;false;51360;602896858;-73.612781;45.565093;51394;602894787;-73.609845;45.563801;2;15;16;7446095;Bus 67 : Saint-Michel Sud;"";STM;67-S;Saint-Michel / Henri-Bourassa;Station Joliette (Hochelaga / Joliette)
452044768;"{\"type\":\"LineString\",\"coordinates\":[[-73.6066564,45.562076],[-73.606266,45.5620701],[-73.6060226,45.5620597],[-73.6058194,45.5620248],[-73.605654,45.5619722]]}";1;Boulevard Saint-Michel;2;50;false;true;true;false;false;false;80.0;0;0;0;0;0;false;51473;602894798;-73.606817;45.562074;51519;291487974;-73.604116;45.561266;2;18;19;7446095;Bus 67 : Saint-Michel Sud;"";STM;67-S;Saint-Michel / Henri-Bourassa;Station Joliette (Hochelaga / Joliette)
460764909;"{\"type\":\"LineString\",\"coordinates\":[[-73.605654,45.5619722],[-73.6038631,45.5611834]]}";2;Boulevard Saint-Michel;2;50;false;true;true;false;false;false;165.0;0;0;0;0;0;false;51473;602894798;-73.606817;45.562074;51519;291487974;-73.604116;45.561266;2;18;19;7446095;Bus 67 : Saint-Michel Sud;"";STM;67-S;Saint-Michel / Henri-Bourassa;Station Joliette (Hochelaga / Joliette)
460764909;"{\"type\":\"LineString\",\"coordinates\":[[-73.605654,45.5619722],[-73.6038631,45.5611834]]}";1;Boulevard Saint-Michel;2;50;false;true;true;false;false;false;82.5;0;0;0;0;0;false;51519;291487974;-73.604116;45.561266;51557;602896864;-73.602006;45.560332;1;19;20;7446095;Bus 67 : Saint-Michel Sud;"";STM;67-S;Saint-Michel / Henri-Bourassa;Station Joliette (Hochelaga / Joliette)
452044764;"{\"type\":\"LineString\",\"coordinates\":[[-73.6038631,45.5611834],[-73.6031071,45.5608599],[-73.6024066,45.5605515],[-73.6023212,45.5605139],[-73.6015777,45.5601815],[-73.6010406,45.5599493],[-73.6008494,45.5598667],[-73.6001681,45.5595804],[-73.6000924,45.5595474],[-73.6000199,45.5595166],[-73.5995156,45.5593024]]}";2;Boulevard Saint-Michel;2;50;false;true;true;false;false;false;199.5;0;0;0;0;0;false;51519;291487974;-73.604116;45.561266;51557;602896864;-73.602006;45.560332;1;19;20;7446095;Bus 67 : Saint-Michel Sud;"";STM;67-S;Saint-Michel / Henri-Bourassa;Station Joliette (Hochelaga / Joliette)
452044765;"{\"type\":\"LineString\",\"coordinates\":[[-73.5995156,45.5593024],[-73.5983839,45.5587967]]}";1;Boulevard Saint-Michel;2;50;false;true;true;false;false;false;52.5;1;0;0;0;0;false;51632;282147649;-73.598745;45.55889;54364;301299432;-73.59571;45.557791;1;22;23;7446095;Bus 67 : Saint-Michel Sud;"";STM;67-S;Saint-Michel / Henri-Bourassa;Station Joliette (Hochelaga / Joliette)
460753675;"{\"type\":\"LineString\",\"coordinates\":[[-73.5983839,45.5587967],[-73.5977413,45.5585151]]}";2;Boulevard Saint-Michel;2;50;false;true;true;false;false;false;60.0;1;0;0;0;0;false;51632;282147649;-73.598745;45.55889;54364;301299432;-73.59571;45.557791;0;22;23;7446095;Bus 67 : Saint-Michel Sud;"";STM;67-S;Saint-Michel / Henri-Bourassa;Station Joliette (Hochelaga / Joliette)
452044767;"{\"type\":\"LineString\",\"coordinates\":[[-73.5977413,45.5585151],[-73.5974801,45.5583988],[-73.5963964,45.5580623]]}";3;Boulevard Saint-Michel;2;50;false;true;true;false;false;false;117.0;0;0;0;0;0;false;51632;282147649;-73.598745;45.55889;54364;301299432;-73.59571;45.557791;0;22;23;7446095;Bus 67 : Saint-Michel Sud;"";STM;67-S;Saint-Michel / Henri-Bourassa;Station Joliette (Hochelaga / Joliette)
460750934;"{\"type\":\"LineString\",\"coordinates\":[[-73.5963964,45.5580623],[-73.595337,45.5577407]]}";4;Boulevard Saint-Michel;2;50;false;true;true;false;false;false;45.5;0;0;0;0;0;false;51632;282147649;-73.598745;45.55889;54364;301299432;-73.59571;45.557791;1;22;23;7446095;Bus 67 : Saint-Michel Sud;"";STM;67-S;Saint-Michel / Henri-Bourassa;Station Joliette (Hochelaga / Joliette)
460750934;"{\"type\":\"LineString\",\"coordinates\":[[-73.5963964,45.5580623],[-73.595337,45.5577407]]}";1;Boulevard Saint-Michel;2;50;false;true;true;false;false;false;45.5;0;0;0;0;0;false;54364;301299432;-73.59571;45.557791;51745;602896860;-73.594228;45.557335;1;23;24;7446095;Bus 67 : Saint-Michel Sud;"";STM;67-S;Saint-Michel / Henri-Bourassa;Station Joliette (Hochelaga / Joliette)
452044766;"{\"type\":\"LineString\",\"coordinates\":[[-73.595337,45.5577407],[-73.5948007,45.5575732],[-73.5941229,45.5573614]]}";2;Boulevard Saint-Michel;2;50;false;true;true;false;false;false;52.0;0;0;0;0;0;false;54364;301299432;-73.59571;45.557791;51745;602896860;-73.594228;45.557335;1;23;24;7446095;Bus 67 : Saint-Michel Sud;"";STM;67-S;Saint-Michel / Henri-Bourassa;Station Joliette (Hochelaga / Joliette)
450699992;"{\"type\":\"LineString\",\"coordinates\":[[-73.5941229,45.5573614],[-73.5939984,45.5573254]]}";1;Boulevard Saint-Michel;2;50;false;true;true;false;false;false;11.0;1;0;0;0;0;false;51745;602896860;-73.594228;45.557335;51839;602896861;-73.59036;45.556193;2;24;25;7446095;Bus 67 : Saint-Michel Sud;"";STM;67-S;Saint-Michel / Henri-Bourassa;Station Joliette (Hochelaga / Joliette)
167668719;"{\"type\":\"LineString\",\"coordinates\":[[-73.5939984,45.5573254],[-73.5936745,45.5572344],[-73.5933545,45.5571916]]}";2;Boulevard Saint-Michel;2;50;false;true;true;false;false;false;53.0;1;0;0;0;0;false;51745;602896860;-73.594228;45.557335;51839;602896861;-73.59036;45.556193;0;24;25;7446095;Bus 67 : Saint-Michel Sud;"";STM;67-S;Saint-Michel / Henri-Bourassa;Station Joliette (Hochelaga / Joliette)
455264692;"{\"type\":\"LineString\",\"coordinates\":[[-73.5933545,45.5571916],[-73.5906295,45.5563797],[-73.5900952,45.5562208]]}";3;Boulevard Saint-Michel;4;50;false;false;true;false;false;false;277.0;1;0;0;0;0;false;51745;602896860;-73.594228;45.557335;51839;602896861;-73.59036;45.556193;2;24;25;7446095;Bus 67 : Saint-Michel Sud;"";STM;67-S;Saint-Michel / Henri-Bourassa;Station Joliette (Hochelaga / Joliette)
455264692;"{\"type\":\"LineString\",\"coordinates\":[[-73.5933545,45.5571916],[-73.5906295,45.5563797],[-73.5900952,45.5562208]]}";1;Boulevard Saint-Michel;4;50;false;false;true;false;false;false;138.5;1;0;0;0;0;false;51839;602896861;-73.59036;45.556193;51945;602896865;-73.58651;45.555042;1;25;26;7446095;Bus 67 : Saint-Michel Sud;"";STM;67-S;Saint-Michel / Henri-Bourassa;Station Joliette (Hochelaga / Joliette)
460738653;"{\"type\":\"LineString\",\"coordinates\":[[-73.5900952,45.5562208],[-73.589588,45.5560701]]}";2;Boulevard Saint-Michel;4;50;false;false;true;false;false;false;43.0;1;0;0;0;0;false;51839;602896861;-73.59036;45.556193;51945;602896865;-73.58651;45.555042;0;25;26;7446095;Bus 67 : Saint-Michel Sud;"";STM;67-S;Saint-Michel / Henri-Bourassa;Station Joliette (Hochelaga / Joliette)
167668722;"{\"type\":\"LineString\",\"coordinates\":[[-73.589588,45.5560701],[-73.5894628,45.5560329],[-73.5869246,45.5552788],[-73.5867973,45.5552413]]}";3;Boulevard Saint-Michel;4;50;false;false;true;false;false;false;237.0;0;0;0;0;0;false;51839;602896861;-73.59036;45.556193;51945;602896865;-73.58651;45.555042;0;25;26;7446095;Bus 67 : Saint-Michel Sud;"";STM;67-S;Saint-Michel / Henri-Bourassa;Station Joliette (Hochelaga / Joliette)
460738654;"{\"type\":\"LineString\",\"coordinates\":[[-73.5867973,45.5552413],[-73.5862661,45.5550867]]}";4;Boulevard Saint-Michel;4;50;false;false;true;false;false;false;22.5;0;0;0;0;0;false;51839;602896861;-73.59036;45.556193;51945;602896865;-73.58651;45.555042;1;25;26;7446095;Bus 67 : Saint-Michel Sud;"";STM;67-S;Saint-Michel / Henri-Bourassa;Station Joliette (Hochelaga / Joliette)
455264694;"{\"type\":\"LineString\",\"coordinates\":[[-73.5825214,45.5539408],[-73.5819502,45.5537633],[-73.5818684,45.5537374],[-73.5811836,45.5535177]]}";1;Boulevard Saint-Michel;4;50;false;false;true;false;false;false;115.0;1;0;0;0;0;false;52047;286298271;-73.582713;45.553894;52109;291483512;-73.580646;45.553206;2;27;28;7446095;Bus 67 : Saint-Michel Sud;"";STM;67-S;Saint-Michel / Henri-Bourassa;Station Joliette (Hochelaga / Joliette)
512460696;"{\"type\":\"LineString\",\"coordinates\":[[-73.5811836,45.5535177],[-73.5809115,45.5534295]]}";2;Boulevard Saint-Michel;3;50;false;false;true;false;false;false;24.0;0;0;0;0;0;false;52047;286298271;-73.582713;45.553894;52109;291483512;-73.580646;45.553206;0;27;28;7446095;Bus 67 : Saint-Michel Sud;"";STM;67-S;Saint-Michel / Henri-Bourassa;Station Joliette (Hochelaga / Joliette)
129640829;"{\"type\":\"LineString\",\"coordinates\":[[-73.5809115,45.5534295],[-73.5808558,45.5534114],[-73.5804555,45.5532855]]}";3;Boulevard Saint-Michel;3;50;false;false;true;false;false;false;40.0;0;0;0;0;0;false;52047;286298271;-73.582713;45.553894;52109;291483512;-73.580646;45.553206;2;27;28;7446095;Bus 67 : Saint-Michel Sud;"";STM;67-S;Saint-Michel / Henri-Bourassa;Station Joliette (Hochelaga / Joliette)
452080871;"{\"type\":\"LineString\",\"coordinates\":[[-73.5804555,45.5532855],[-73.5802758,45.5531869]]}";1;Boulevard Saint-Michel;3;50;false;false;true;false;false;false;18.0;0;0;0;0;0;false;52109;291483512;-73.580646;45.553206;52159;6010979134;-73.578868;45.552593;2;28;29;7446095;Bus 67 : Saint-Michel Sud;"";STM;67-S;Saint-Michel / Henri-Bourassa;Station Joliette (Hochelaga / Joliette)
450699993;"{\"type\":\"LineString\",\"coordinates\":[[-73.5802758,45.5531869],[-73.5799508,45.553029],[-73.5794772,45.5528778],[-73.5786894,45.5526424]]}";2;Boulevard Saint-Michel;3;50;false;false;true;false;false;false;139.0;0;0;0;0;0;false;52109;291483512;-73.580646;45.553206;52159;6010979134;-73.578868;45.552593;2;28;29;7446095;Bus 67 : Saint-Michel Sud;"";STM;67-S;Saint-Michel / Henri-Bourassa;Station Joliette (Hochelaga / Joliette)
129640828;"{\"type\":\"LineString\",\"coordinates\":[[-73.5786894,45.5526424],[-73.5767407,45.55206],[-73.5762693,45.551919],[-73.5757487,45.5517635],[-73.5736463,45.5511352],[-73.5731437,45.5509897],[-73.5726024,45.5508288],[-73.5725054,45.5508013],[-73.5709107,45.5503199],[-73.5708264,45.5502944],[-73.5704741,45.550188],[-73.5700153,45.5500514],[-73.5684631,45.549589]]}";1;Boulevard Saint-Michel;3;50;false;false;true;false;false;false;433.5;0;0;0;0;0;false;52432;5008527921;-73.5705419;45.550159;52522;5046380421;-73.5684586;45.5495196;1;32;33;7446095;Bus 67 : Saint-Michel Sud;"";STM;67-S;Saint-Michel / Henri-Bourassa;Station Joliette (Hochelaga / Joliette)
454272012;"{\"type\":\"LineString\",\"coordinates\":[[-73.568335,45.5495504],[-73.5684631,45.549589]]}";2;Boulevard Saint-Michel;1;50;false;false;true;false;false;false;5.5;0;0;0;0;0;false;52432;5008527921;-73.5705419;45.550159;52522;5046380421;-73.5684586;45.5495196;1;32;33;7446095;Bus 67 : Saint-Michel Sud;"";STM;67-S;Saint-Michel / Henri-Bourassa;Station Joliette (Hochelaga / Joliette)
129640828;"{\"type\":\"LineString\",\"coordinates\":[[-73.5786894,45.5526424],[-73.5767407,45.55206],[-73.5762693,45.551919],[-73.5757487,45.5517635],[-73.5736463,45.5511352],[-73.5731437,45.5509897],[-73.5726024,45.5508288],[-73.5725054,45.5508013],[-73.5709107,45.5503199],[-73.5708264,45.5502944],[-73.5704741,45.550188],[-73.5700153,45.5500514],[-73.5684631,45.549589]]}";1;Boulevard Saint-Michel;3;50;false;false;true;false;false;false;867.0;0;0;0;0;0;false;52522;5046380421;-73.5684586;45.5495196;52628;5042096823;-73.5649661;45.5485108;2;33;34;7446095;Bus 67 : Saint-Michel Sud;"";STM;67-S;Saint-Michel / Henri-Bourassa;Station Joliette (Hochelaga / Joliette)
454272012;"{\"type\":\"LineString\",\"coordinates\":[[-73.568335,45.5495504],[-73.5684631,45.549589]]}";2;Boulevard Saint-Michel;1;50;false;false;true;false;false;false;11.0;0;0;0;0;0;false;52522;5046380421;-73.5684586;45.5495196;52628;5042096823;-73.5649661;45.5485108;0;33;34;7446095;Bus 67 : Saint-Michel Sud;"";STM;67-S;Saint-Michel / Henri-Bourassa;Station Joliette (Hochelaga / Joliette)
463463454;"{\"type\":\"LineString\",\"coordinates\":[[-73.568335,45.5495504],[-73.56821,45.5494563]]}";3;Boulevard Saint-Michel;1;50;false;true;true;false;false;false;15.0;0;0;0;0;0;false;52522;5046380421;-73.5684586;45.5495196;52628;5042096823;-73.5649661;45.5485108;0;33;34;7446095;Bus 67 : Saint-Michel Sud;"";STM;67-S;Saint-Michel / Henri-Bourassa;Station Joliette (Hochelaga / Joliette)
463463453;"{\"type\":\"LineString\",\"coordinates\":[[-73.56821,45.5494563],[-73.5676857,45.5493123],[-73.5672149,45.5492173]]}";4;Boulevard Saint-Michel;1;50;false;true;true;false;false;false;83.0;0;0;0;0;0;false;52522;5046380421;-73.5684586;45.5495196;52628;5042096823;-73.5649661;45.5485108;0;33;34;7446095;Bus 67 : Saint-Michel Sud;"";STM;67-S;Saint-Michel / Henri-Bourassa;Station Joliette (Hochelaga / Joliette)
20216729;"{\"type\":\"LineString\",\"coordinates\":[[-73.5672149,45.5492173],[-73.5668272,45.5491341],[-73.5661337,45.5489235],[-73.5655592,45.5487491],[-73.5648734,45.5485409]]}";5;Boulevard Saint-Michel;1;50;false;true;true;false;false;false;198.0;0;0;0;0;0;false;52522;5046380421;-73.5684586;45.5495196;52628;5042096823;-73.5649661;45.5485108;2;33;34;7446095;Bus 67 : Saint-Michel Sud;"";STM;67-S;Saint-Michel / Henri-Bourassa;Station Joliette (Hochelaga / Joliette)
393884071;"{\"type\":\"LineString\",\"coordinates\":[[-73.5648734,45.5485409],[-73.5640984,45.5483085],[-73.5634026,45.5480999],[-73.5627069,45.5478913],[-73.5619346,45.5476597],[-73.5597654,45.5469955],[-73.5596663,45.547007],[-73.5596065,45.5470139]]}";1;Boulevard Saint-Michel;1;50;false;true;true;false;false;false;223.5;0;0;0;0;0;false;53826;6010973963;-73.562118;45.54767;61046;6010981700;-73.55919;45.547521;1;35;36;7446095;Bus 67 : Saint-Michel Sud;"";STM;67-S;Saint-Michel / Henri-Bourassa;Station Joliette (Hochelaga / Joliette)
461358557;"{\"type\":\"LineString\",\"coordinates\":[[-73.5584408,45.5489095],[-73.558781,45.5483563],[-73.5588479,45.5482476],[-73.5592297,45.5476267],[-73.5596065,45.5470139]]}";2;Rue Rachel Est;4;40;false;false;true;false;false;false;115.0;0;0;0;0;0;false;53826;6010973963;-73.562118;45.54767;61046;6010981700;-73.55919;45.547521;1;35;36;7446095;Bus 67 : Saint-Michel Sud;"";STM;67-S;Saint-Michel / Henri-Bourassa;Station Joliette (Hochelaga / Joliette)
461358557;"{\"type\":\"LineString\",\"coordinates\":[[-73.5584408,45.5489095],[-73.558781,45.5483563],[-73.5588479,45.5482476],[-73.5592297,45.5476267],[-73.5596065,45.5470139]]}";1;Rue Rachel Est;4;40;false;false;true;false;false;false;115.0;0;0;0;0;0;false;61046;6010981700;-73.55919;45.547521;52865;6010973614;-73.557915;45.549604;1;36;37;7446095;Bus 67 : Saint-Michel Sud;"";STM;67-S;Saint-Michel / Henri-Bourassa;Station Joliette (Hochelaga / Joliette)
461358558;"{\"type\":\"LineString\",\"coordinates\":[[-73.5579637,45.5497057],[-73.5584408,45.5489095]]}";2;Rue Rachel Est;4;40;false;false;true;false;false;false;48.0;0;0;0;0;0;false;61046;6010981700;-73.55919;45.547521;52865;6010973614;-73.557915;45.549604;1;36;37;7446095;Bus 67 : Saint-Michel Sud;"";STM;67-S;Saint-Michel / Henri-Bourassa;Station Joliette (Hochelaga / Joliette)
512994847;"{\"type\":\"LineString\",\"coordinates\":[[-73.5570742,45.5512051],[-73.5572568,45.5508973],[-73.5579637,45.5497057]]}";1;Rue Rachel Est;4;40;false;false;true;false;false;false;181.0;0;0;0;0;0;false;52865;6010973614;-73.557915;45.549604;52952;5208230725;-73.5553389;45.5505775;2;37;38;7446095;Bus 67 : Saint-Michel Sud;"";STM;67-S;Saint-Michel / Henri-Bourassa;Station Joliette (Hochelaga / Joliette)
20213160;"{\"type\":\"LineString\",\"coordinates\":[[-73.5570742,45.5512051],[-73.5565995,45.5510669],[-73.556101,45.5509217],[-73.5557345,45.5508127],[-73.554961,45.5505828]]}";2;Avenue Valois;1;50;false;false;true;false;false;false;179.0;0;0;0;0;0;false;52865;6010973614;-73.557915;45.549604;52952;5208230725;-73.5553389;45.5505775;2;37;38;7446095;Bus 67 : Saint-Michel Sud;"";STM;67-S;Saint-Michel / Henri-Bourassa;Station Joliette (Hochelaga / Joliette)
20213160;"{\"type\":\"LineString\",\"coordinates\":[[-73.5570742,45.5512051],[-73.5565995,45.5510669],[-73.556101,45.5509217],[-73.5557345,45.5508127],[-73.554961,45.5505828]]}";1;Avenue Valois;1;50;false;false;true;false;false;false;89.5;0;0;0;0;0;false;52952;5208230725;-73.5553389;45.5505775;53053;6010973422;-73.550759;45.548446;1;38;39;7446095;Bus 67 : Saint-Michel Sud;"";STM;67-S;Saint-Michel / Henri-Bourassa;Station Joliette (Hochelaga / Joliette)
512994848;"{\"type\":\"LineString\",\"coordinates\":[[-73.554961,45.5505828],[-73.5549755,45.5504022],[-73.5549795,45.5503702],[-73.5549869,45.5503315],[-73.5550656,45.549781]]}";2;Rue Sherbrooke Est;3;50;false;false;true;false;false;false;90.0;0;0;0;0;0;false;52952;5208230725;-73.5553389;45.5505775;53053;6010973422;-73.550759;45.548446;0;38;39;7446095;Bus 67 : Saint-Michel Sud;"";STM;67-S;Saint-Michel / Henri-Bourassa;Station Joliette (Hochelaga / Joliette)
243245575;"{\"type\":\"LineString\",\"coordinates\":[[-73.5550656,45.549781],[-73.5541403,45.5495104],[-73.5535137,45.5493251],[-73.5534962,45.5493199],[-73.5532026,45.549233],[-73.5524682,45.5490157],[-73.5519478,45.5488618],[-73.5516355,45.5487694],[-73.5510599,45.5485991],[-73.55102,45.5485854],[-73.5504607,45.5484245]]}";3;Rue Nicolet;1;50;false;true;true;false;false;false;195.0;0;0;0;0;0;false;52952;5208230725;-73.5553389;45.5505775;53053;6010973422;-73.550759;45.548446;1;38;39;7446095;Bus 67 : Saint-Michel Sud;"";STM;67-S;Saint-Michel / Henri-Bourassa;Station Joliette (Hochelaga / Joliette)
243245575;"{\"type\":\"LineString\",\"coordinates\":[[-73.5550656,45.549781],[-73.5541403,45.5495104],[-73.5535137,45.5493251],[-73.5534962,45.5493199],[-73.5532026,45.549233],[-73.5524682,45.5490157],[-73.5519478,45.5488618],[-73.5516355,45.5487694],[-73.5510599,45.5485991],[-73.55102,45.5485854],[-73.5504607,45.5484245]]}";1;Rue Nicolet;1;50;false;true;true;false;false;false;195.0;0;0;0;0;0;false;53053;6010973422;-73.550759;45.548446;53036;5199274621;-73.5514371;45.5469175;1;39;40;7446095;Bus 67 : Saint-Michel Sud;"";STM;67-S;Saint-Michel / Henri-Bourassa;Station Joliette (Hochelaga / Joliette)
395059146;"{\"type\":\"LineString\",\"coordinates\":[[-73.550964,45.5476073],[-73.5504607,45.5484245]]}";2;Rue Hochelaga;4;50;false;false;true;false;false;false;99.0;1;0;0;0;0;false;53053;6010973422;-73.550759;45.548446;53036;5199274621;-73.5514371;45.5469175;0;39;40;7446095;Bus 67 : Saint-Michel Sud;"";STM;67-S;Saint-Michel / Henri-Bourassa;Station Joliette (Hochelaga / Joliette)
395059145;"{\"type\":\"LineString\",\"coordinates\":[[-73.55118,45.5472369],[-73.5509907,45.5475614],[-73.550964,45.5476073]]}";3;Rue Hochelaga;4;50;false;false;true;false;false;false;45.0;1;1;0;0;0;false;53053;6010973422;-73.550759;45.548446;53036;5199274621;-73.5514371;45.5469175;0;39;40;7446095;Bus 67 : Saint-Michel Sud;"";STM;67-S;Saint-Michel / Henri-Bourassa;Station Joliette (Hochelaga / Joliette)
514055845;"{\"type\":\"LineString\",\"coordinates\":[[-73.55133,45.5469797],[-73.55118,45.5472369]]}";4;Rue Hochelaga;4;50;false;false;true;false;false;false;31.0;0;0;0;0;0;false;53053;6010973422;-73.550759;45.548446;53036;5199274621;-73.5514371;45.5469175;0;39;40;7446095;Bus 67 : Saint-Michel Sud;"";STM;67-S;Saint-Michel / Henri-Bourassa;Station Joliette (Hochelaga / Joliette)
393666590;"{\"type\":\"LineString\",\"coordinates\":[[-73.5514258,45.5468155],[-73.5513869,45.5468822],[-73.55133,45.5469797]]}";5;Rue Hochelaga;4;50;false;false;true;false;false;false;20.0;1;1;0;0;0;false;53053;6010973422;-73.550759;45.548446;53036;5199274621;-73.5514371;45.5469175;1;39;40;7446095;Bus 67 : Saint-Michel Sud;"";STM;67-S;Saint-Michel / Henri-Bourassa;Station Joliette (Hochelaga / Joliette)
