way_id;shape;index;name;nb_lanes;legal_speed;speed_zone_30;oneway;shares_bike;bike_box;bus_lane;dedicated_bus_lane;length;nb_traffic_signals;nb_crossings;nb_stops;nb_give_ways;nb_lvl_crossings;roundabout;stop_id_orig;node_id_orig;coord_x_orig;coord_y_orig;stop_id_dest;node_id_dest;coord_x_dest;coord_y_dest;nb_neighbouring_ways_bus_stop;ordre_orig;ordre_dest;id_line;line_name;colour;operator;ref;from;to
48921999;"{\"type\":\"LineString\",\"coordinates\":[[-73.5687289,45.5083728],[-73.5687737,45.5083224],[-73.569233,45.5078064],[-73.5694423,45.5075713],[-73.5695002,45.5075062]]}";1;Avenue du Président-Kennedy;1;50;false;false;true;false;false;false;114.0;2;2;0;0;0;false;52517;6010972948;-73.569604;45.507283;61049;6010965275;-73.569153;45.508638;1;0;1;4611130;Bus 125 : Ontario Est;"";STM;125-E;Station Place-des-Arts / De Bleury;Station Viau
274693147;"{\"type\":\"LineString\",\"coordinates\":[[-73.5687289,45.5083728],[-73.5688102,45.508412],[-73.5692763,45.5086369],[-73.5701342,45.5090352],[-73.5702985,45.5091137],[-73.5708138,45.5093327]]}";2;Rue Jeanne-Mance;2;50;false;true;true;false;false;false;97.5;2;1;0;0;0;false;52517;6010972948;-73.569604;45.507283;61049;6010965275;-73.569153;45.508638;1;0;1;4611130;Bus 125 : Ontario Est;"";STM;125-E;Station Place-des-Arts / De Bleury;Station Viau
274693147;"{\"type\":\"LineString\",\"coordinates\":[[-73.5687289,45.5083728],[-73.5688102,45.508412],[-73.5692763,45.5086369],[-73.5701342,45.5090352],[-73.5702985,45.5091137],[-73.5708138,45.5093327]]}";1;Rue Jeanne-Mance;2;50;false;true;true;false;false;false;97.5;2;1;0;0;0;false;61049;6010965275;-73.569153;45.508638;52488;6010975378;-73.569989;45.510933;1;1;2;4611130;Bus 125 : Ontario Est;"";STM;125-E;Station Place-des-Arts / De Bleury;Station Viau
465586024;"{\"type\":\"LineString\",\"coordinates\":[[-73.5708138,45.5093327],[-73.5705686,45.5099301]]}";2;Rue Sherbrooke Ouest;6;50;false;false;true;false;false;false;70.0;1;0;0;0;0;false;61049;6010965275;-73.569153;45.508638;52488;6010975378;-73.569989;45.510933;0;1;2;4611130;Bus 125 : Ontario Est;"";STM;125-E;Station Place-des-Arts / De Bleury;Station Viau
465586406;"{\"type\":\"LineString\",\"coordinates\":[[-73.5705686,45.5099301],[-73.5704703,45.5101761],[-73.5703798,45.5103827],[-73.5703565,45.5104359]]}";3;Rue Sherbrooke Ouest;6;50;false;false;true;false;false;false;59.0;0;0;0;0;0;false;61049;6010965275;-73.569153;45.508638;52488;6010975378;-73.569989;45.510933;0;1;2;4611130;Bus 125 : Ontario Est;"";STM;125-E;Station Place-des-Arts / De Bleury;Station Viau
41258632;"{\"type\":\"LineString\",\"coordinates\":[[-73.5703565,45.5104359],[-73.5703354,45.5104787],[-73.5701129,45.5109609],[-73.5700748,45.5110427],[-73.5700462,45.5111045]]}";4;Rue Sherbrooke Ouest;6;50;false;false;true;false;false;false;39.5;1;1;0;0;0;false;61049;6010965275;-73.569153;45.508638;52488;6010975378;-73.569989;45.510933;1;1;2;4611130;Bus 125 : Ontario Est;"";STM;125-E;Station Place-des-Arts / De Bleury;Station Viau
48921991;"{\"type\":\"LineString\",\"coordinates\":[[-73.5700462,45.5111045],[-73.5699109,45.5110432],[-73.5695359,45.5108734],[-73.5688808,45.5105768],[-73.5686116,45.5104549],[-73.5679028,45.5101339],[-73.5675215,45.5099612],[-73.5674252,45.5099176]]}";1;Rue Saint-Urbain;2;50;false;true;false;false;false;false;244.0;2;2;0;0;0;false;52488;6010975378;-73.569989;45.510933;61726;6010981177;-73.566413;45.512032;2;2;3;4611130;Bus 125 : Ontario Est;"";STM;125-E;Station Place-des-Arts / De Bleury;Station Viau
165334552;"{\"type\":\"LineString\",\"coordinates\":[[-73.5670131,45.5107558],[-73.5673671,45.5100358],[-73.5673709,45.5100282],[-73.5674252,45.5099176]]}";2;Rue Ontario Ouest;1;50;false;false;true;false;false;false;99.0;1;2;0;0;0;false;52488;6010975378;-73.569989;45.510933;61726;6010981177;-73.566413;45.512032;0;2;3;4611130;Bus 125 : Ontario Est;"";STM;125-E;Station Place-des-Arts / De Bleury;Station Viau
165334553;"{\"type\":\"LineString\",\"coordinates\":[[-73.5667781,45.5112631],[-73.5668824,45.5110365],[-73.5670131,45.5107558]]}";3;Rue Ontario Ouest;1;50;false;false;false;false;false;false;60.0;1;0;0;0;0;false;52488;6010975378;-73.569989;45.510933;61726;6010981177;-73.566413;45.512032;0;2;3;4611130;Bus 125 : Ontario Est;"";STM;125-E;Station Place-des-Arts / De Bleury;Station Viau
165334551;"{\"type\":\"LineString\",\"coordinates\":[[-73.5667781,45.5112631],[-73.5665937,45.5118122]]}";4;Rue Ontario Est;1;50;false;false;false;false;false;false;63.0;1;0;0;0;0;false;52488;6010975378;-73.569989;45.510933;61726;6010981177;-73.566413;45.512032;0;2;3;4611130;Bus 125 : Ontario Est;"";STM;125-E;Station Place-des-Arts / De Bleury;Station Viau
41551807;"{\"type\":\"LineString\",\"coordinates\":[[-73.5665937,45.5118122],[-73.5662895,45.5127689],[-73.566255,45.5128819],[-73.5660536,45.5134643]]}";5;Rue Ontario Est;2;50;false;false;true;false;false;false;189.0;1;0;0;0;0;false;52488;6010975378;-73.569989;45.510933;61726;6010981177;-73.566413;45.512032;2;2;3;4611130;Bus 125 : Ontario Est;"";STM;125-E;Station Place-des-Arts / De Bleury;Station Viau
465381271;"{\"type\":\"LineString\",\"coordinates\":[[-73.5660536,45.5134643],[-73.5656213,45.5147585]]}";1;Rue Ontario Est;2;50;false;false;true;false;false;false;148.0;2;0;0;0;0;false;52630;6010973676;-73.565995;45.513339;52646;4723311657;-73.5652245;45.5157416;2;4;5;4611130;Bus 125 : Ontario Est;"";STM;125-E;Station Place-des-Arts / De Bleury;Station Viau
465381269;"{\"type\":\"LineString\",\"coordinates\":[[-73.5656213,45.5147585],[-73.5654854,45.5152392],[-73.5653937,45.5154914]]}";2;Rue Ontario Est;2;50;false;false;true;false;false;false;84.0;1;0;0;0;0;false;52630;6010973676;-73.565995;45.513339;52646;4723311657;-73.5652245;45.5157416;0;4;5;4611130;Bus 125 : Ontario Est;"";STM;125-E;Station Place-des-Arts / De Bleury;Station Viau
465380605;"{\"type\":\"LineString\",\"coordinates\":[[-73.5653937,45.5154914],[-73.5652511,45.5159088]]}";3;Rue Ontario Est;2;50;false;false;true;false;false;false;48.0;1;0;0;0;0;false;52630;6010973676;-73.565995;45.513339;52646;4723311657;-73.5652245;45.5157416;2;4;5;4611130;Bus 125 : Ontario Est;"";STM;125-E;Station Place-des-Arts / De Bleury;Station Viau
453989316;"{\"type\":\"LineString\",\"coordinates\":[[-73.5648378,45.5169067],[-73.5648157,45.5169535],[-73.5647676,45.5170554]]}";1;Rue Ontario Est;2;50;false;false;true;false;false;false;18.0;1;0;0;0;0;false;52664;5337275421;-73.5647495;45.5168229;52681;6010965441;-73.564285;45.517755;2;6;7;4611130;Bus 125 : Ontario Est;"";STM;125-E;Station Place-des-Arts / De Bleury;Station Viau
329795964;"{\"type\":\"LineString\",\"coordinates\":[[-73.5647676,45.5170554],[-73.5645727,45.5173962],[-73.5643223,45.5178339],[-73.5642865,45.5178966]]}";2;Rue Ontario Est;2;50;false;false;true;false;false;false;101.0;2;1;0;0;0;false;52664;5337275421;-73.5647495;45.5168229;52681;6010965441;-73.564285;45.517755;2;6;7;4611130;Bus 125 : Ontario Est;"";STM;125-E;Station Place-des-Arts / De Bleury;Station Viau
457924060;"{\"type\":\"LineString\",\"coordinates\":[[-73.5642865,45.5178966],[-73.5642425,45.517968],[-73.5639736,45.5184044]]}";1;Rue Ontario Est;2;50;false;false;true;false;false;false;62.0;1;1;0;0;0;false;52681;6010965441;-73.564285;45.517755;52731;5182204221;-73.5629612;45.5200409;2;7;8;4611130;Bus 125 : Ontario Est;"";STM;125-E;Station Place-des-Arts / De Bleury;Station Viau
458438683;"{\"type\":\"LineString\",\"coordinates\":[[-73.5639736,45.5184044],[-73.5636925,45.5189004]]}";2;Rue Ontario Est;2;50;false;false;true;false;false;false;60.0;1;0;0;0;0;false;52681;6010965441;-73.564285;45.517755;52731;5182204221;-73.5629612;45.5200409;0;7;8;4611130;Bus 125 : Ontario Est;"";STM;125-E;Station Place-des-Arts / De Bleury;Station Viau
458438675;"{\"type\":\"LineString\",\"coordinates\":[[-73.5636925,45.5189004],[-73.5633954,45.5193965]]}";3;Rue Ontario Est;2;50;false;false;true;false;false;false;60.0;1;0;0;0;0;false;52681;6010965441;-73.564285;45.517755;52731;5182204221;-73.5629612;45.5200409;0;7;8;4611130;Bus 125 : Ontario Est;"";STM;125-E;Station Place-des-Arts / De Bleury;Station Viau
458450994;"{\"type\":\"LineString\",\"coordinates\":[[-73.5633954,45.5193965],[-73.5632666,45.5196255],[-73.5629432,45.5201602]]}";4;Rue Ontario Est;2;50;false;false;true;false;false;false;92.0;1;0;0;0;0;false;52681;6010965441;-73.564285;45.517755;52731;5182204221;-73.5629612;45.5200409;2;7;8;4611130;Bus 125 : Ontario Est;"";STM;125-E;Station Place-des-Arts / De Bleury;Station Viau
458450993;"{\"type\":\"LineString\",\"coordinates\":[[-73.5629432,45.5201602],[-73.5627817,45.5204311]]}";1;Rue Ontario Est;2;50;false;false;true;false;false;false;33.0;1;0;0;0;0;false;52731;5182204221;-73.5629612;45.5200409;52763;5182175723;-73.5617204;45.5220895;2;8;9;4611130;Bus 125 : Ontario Est;"";STM;125-E;Station Place-des-Arts / De Bleury;Station Viau
329989911;"{\"type\":\"LineString\",\"coordinates\":[[-73.5627817,45.5204311],[-73.5626481,45.5206595],[-73.5623706,45.5211174]]}";2;Rue Ontario Est;2;50;false;false;true;false;false;false;83.0;0;0;0;0;0;false;52731;5182204221;-73.5629612;45.5200409;52763;5182175723;-73.5617204;45.5220895;0;8;9;4611130;Bus 125 : Ontario Est;"";STM;125-E;Station Place-des-Arts / De Bleury;Station Viau
458454760;"{\"type\":\"LineString\",\"coordinates\":[[-73.5623706,45.5211174],[-73.5621296,45.521532]]}";3;Rue Ontario Est;2;50;false;false;true;false;false;false;50.0;1;0;0;0;0;false;52731;5182204221;-73.5629612;45.5200409;52763;5182175723;-73.5617204;45.5220895;0;8;9;4611130;Bus 125 : Ontario Est;"";STM;125-E;Station Place-des-Arts / De Bleury;Station Viau
458454763;"{\"type\":\"LineString\",\"coordinates\":[[-73.5621296,45.521532],[-73.5617376,45.5221891]]}";4;Rue Ontario Est;2;50;false;false;true;false;false;false;80.0;1;0;0;0;0;false;52731;5182204221;-73.5629612;45.5200409;52763;5182175723;-73.5617204;45.5220895;2;8;9;4611130;Bus 125 : Ontario Est;"";STM;125-E;Station Place-des-Arts / De Bleury;Station Viau
455478683;"{\"type\":\"LineString\",\"coordinates\":[[-73.5599473,45.5250279],[-73.5599013,45.5251048],[-73.5594755,45.5258171],[-73.5594376,45.5258805]]}";1;Rue Ontario Est;2;50;false;false;true;false;false;false;103.0;2;1;0;0;0;false;52821;6010969183;-73.559958;45.524893;52843;6010977634;-73.559137;45.526113;2;11;12;4611130;Bus 125 : Ontario Est;"";STM;125-E;Station Place-des-Arts / De Bleury;Station Viau
242961308;"{\"type\":\"LineString\",\"coordinates\":[[-73.5594376,45.5258805],[-73.559366,45.5259565],[-73.559162,45.5261731],[-73.5591326,45.5262042],[-73.5588054,45.5265516],[-73.5584266,45.5269537],[-73.5583889,45.5269937]]}";2;Rue Ontario Est;2;50;false;false;true;false;false;false;149.0;1;2;0;0;0;false;52821;6010969183;-73.559958;45.524893;52843;6010977634;-73.559137;45.526113;2;11;12;4611130;Bus 125 : Ontario Est;"";STM;125-E;Station Place-des-Arts / De Bleury;Station Viau
463433444;"{\"type\":\"LineString\",\"coordinates\":[[-73.5583889,45.5269937],[-73.5583495,45.5270355],[-73.5579627,45.5274461],[-73.5579024,45.5275102]]}";1;Rue Ontario Est;2;50;false;false;true;false;false;false;69.0;0;2;0;0;0;false;52869;6010969866;-73.55839;45.526909;52897;6010964950;-73.557441;45.527916;2;13;14;4611130;Bus 125 : Ontario Est;"";STM;125-E;Station Place-des-Arts / De Bleury;Station Viau
463433443;"{\"type\":\"LineString\",\"coordinates\":[[-73.5579024,45.5275102],[-73.5578583,45.527557],[-73.5574568,45.5279832],[-73.5573761,45.5280688]]}";2;Rue Ontario Est;2;50;false;false;true;false;false;false;75.0;0;2;0;0;0;false;52869;6010969866;-73.55839;45.526909;52897;6010964950;-73.557441;45.527916;2;13;14;4611130;Bus 125 : Ontario Est;"";STM;125-E;Station Place-des-Arts / De Bleury;Station Viau
463433448;"{\"type\":\"LineString\",\"coordinates\":[[-73.555098,45.5304287],[-73.5542934,45.5312621],[-73.5541192,45.5314427],[-73.553884,45.5316863],[-73.5536078,45.5319723],[-73.5531552,45.5324412]]}";1;Rue Ontario Est;2;50;false;false;true;false;false;false;135.5;1;0;0;0;0;false;52994;6010975907;-73.554272;45.531162;53015;1725688121;-73.5522313;45.5333266;1;17;18;4611130;Bus 125 : Ontario Est;"";STM;125-E;Station Place-des-Arts / De Bleury;Station Viau
463433447;"{\"type\":\"LineString\",\"coordinates\":[[-73.5531552,45.5324412],[-73.5529283,45.532702],[-73.5527108,45.5329522],[-73.5526755,45.5329927]]}";2;Rue Ontario Est;2;50;false;false;true;false;false;false;72.0;2;1;0;0;0;false;52994;6010975907;-73.554272;45.531162;53015;1725688121;-73.5522313;45.5333266;0;17;18;4611130;Bus 125 : Ontario Est;"";STM;125-E;Station Place-des-Arts / De Bleury;Station Viau
341093395;"{\"type\":\"LineString\",\"coordinates\":[[-73.5526755,45.5329927],[-73.5526018,45.5330742],[-73.5522709,45.5334598],[-73.5522318,45.5335053],[-73.5521722,45.5335951],[-73.5519393,45.5339459],[-73.5518304,45.53411],[-73.551441,45.5346966],[-73.5510386,45.5353027],[-73.5509025,45.5355078],[-73.5506802,45.5358428],[-73.5503952,45.5362721],[-73.5503057,45.5364068]]}";3;Rue Ontario Est;2;50;false;false;true;false;false;false;211.5;1;3;0;0;0;false;52994;6010975907;-73.554272;45.531162;53015;1725688121;-73.5522313;45.5333266;1;17;18;4611130;Bus 125 : Ontario Est;"";STM;125-E;Station Place-des-Arts / De Bleury;Station Viau
560960814;"{\"type\":\"LineString\",\"coordinates\":[[-73.5494861,45.5376415],[-73.5493288,45.5377801],[-73.5492625,45.537894],[-73.5489245,45.5384749]]}";1;Rue Ontario Est;1;50;false;true;false;false;false;false;104.0;0;0;0;0;0;false;61359;6010969827;-73.5494721;45.5374716;54091;6010981707;-73.547856;45.540182;2;21;22;4611130;Bus 125 : Ontario Est;"";STM;125-E;Station Place-des-Arts / De Bleury;Station Viau
83895950;"{\"type\":\"LineString\",\"coordinates\":[[-73.5489245,45.5384749],[-73.5488815,45.5385502],[-73.5486428,45.5389523]]}";2;Rue Ontario Est;1;50;false;true;false;false;false;false;58.0;0;0;0;0;0;false;61359;6010969827;-73.5494721;45.5374716;54091;6010981707;-73.547856;45.540182;0;21;22;4611130;Bus 125 : Ontario Est;"";STM;125-E;Station Place-des-Arts / De Bleury;Station Viau
455302189;"{\"type\":\"LineString\",\"coordinates\":[[-73.5486428,45.5389523],[-73.5483237,45.5395114],[-73.5483239,45.5396113]]}";3;Rue Ontario Est;1;50;false;true;false;false;false;false;78.0;0;0;0;0;0;false;61359;6010969827;-73.5494721;45.5374716;54091;6010981707;-73.547856;45.540182;0;21;22;4611130;Bus 125 : Ontario Est;"";STM;125-E;Station Place-des-Arts / De Bleury;Station Viau
83895946;"{\"type\":\"LineString\",\"coordinates\":[[-73.5483239,45.5396113],[-73.548127,45.5399297],[-73.5479193,45.5402604],[-73.5479042,45.5402845]]}";4;Rue Ontario Est;1;50;false;false;true;false;false;false;82.0;0;1;0;0;0;false;61359;6010969827;-73.5494721;45.5374716;54091;6010981707;-73.547856;45.540182;2;21;22;4611130;Bus 125 : Ontario Est;"";STM;125-E;Station Place-des-Arts / De Bleury;Station Viau
461162993;"{\"type\":\"LineString\",\"coordinates\":[[-73.5479042,45.5402845],[-73.5478346,45.5403872],[-73.5476044,45.5407273],[-73.5473953,45.541036]]}";1;Rue Ontario Est;1;50;false;false;true;false;false;false;93.0;0;1;0;0;0;false;54091;6010981707;-73.547856;45.540182;53109;6010975897;-73.546944;45.541563;2;22;23;4611130;Bus 125 : Ontario Est;"";STM;125-E;Station Place-des-Arts / De Bleury;Station Viau
461162998;"{\"type\":\"LineString\",\"coordinates\":[[-73.5473953,45.541036],[-73.5469708,45.5416873],[-73.5467477,45.5420297],[-73.5465204,45.5423784],[-73.5461162,45.5429986]]}";2;Rue Ontario Est;1;50;false;false;true;false;false;false;240.0;1;0;0;0;0;false;54091;6010981707;-73.547856;45.540182;53109;6010975897;-73.546944;45.541563;2;22;23;4611130;Bus 125 : Ontario Est;"";STM;125-E;Station Place-des-Arts / De Bleury;Station Viau
461162995;"{\"type\":\"LineString\",\"coordinates\":[[-73.5461162,45.5429986],[-73.5457342,45.5436246]]}";1;Rue Ontario Est;1;50;false;false;true;false;false;false;76.0;0;0;0;0;0;false;53115;6010974432;-73.546108;45.542873;53123;6010967035;-73.545297;45.544183;2;24;25;4611130;Bus 125 : Ontario Est;"";STM;125-E;Station Place-des-Arts / De Bleury;Station Viau
461163002;"{\"type\":\"LineString\",\"coordinates\":[[-73.5457342,45.5436246],[-73.5453303,45.5442865],[-73.5449738,45.5448707]]}";2;Rue Ontario Est;1;50;false;false;true;false;false;false;151.0;0;0;0;0;0;false;53115;6010974432;-73.546108;45.542873;53123;6010967035;-73.545297;45.544183;2;24;25;4611130;Bus 125 : Ontario Est;"";STM;125-E;Station Place-des-Arts / De Bleury;Station Viau
461163002;"{\"type\":\"LineString\",\"coordinates\":[[-73.5457342,45.5436246],[-73.5453303,45.5442865],[-73.5449738,45.5448707]]}";1;Rue Ontario Est;1;50;false;false;true;false;false;false;75.5;0;0;0;0;0;false;53123;6010967035;-73.545297;45.544183;53141;6010969820;-73.544457;45.545555;1;25;26;4611130;Bus 125 : Ontario Est;"";STM;125-E;Station Place-des-Arts / De Bleury;Station Viau
461163000;"{\"type\":\"LineString\",\"coordinates\":[[-73.5449738,45.5448707],[-73.5444878,45.5456671],[-73.5439968,45.5464715],[-73.543579,45.5471562]]}";2;Rue Ontario Est;1;50;false;false;true;false;false;false;138.5;0;0;0;0;0;false;53123;6010967035;-73.545297;45.544183;53141;6010969820;-73.544457;45.545555;1;25;26;4611130;Bus 125 : Ontario Est;"";STM;125-E;Station Place-des-Arts / De Bleury;Station Viau
461163000;"{\"type\":\"LineString\",\"coordinates\":[[-73.5449738,45.5448707],[-73.5444878,45.5456671],[-73.5439968,45.5464715],[-73.543579,45.5471562]]}";1;Rue Ontario Est;1;50;false;false;true;false;false;false;138.5;0;0;0;0;0;false;53141;6010969820;-73.544457;45.545555;53155;5337275221;-73.5434748;45.5472461;1;26;27;4611130;Bus 125 : Ontario Est;"";STM;125-E;Station Place-des-Arts / De Bleury;Station Viau
461163009;"{\"type\":\"LineString\",\"coordinates\":[[-73.543579,45.5471562],[-73.543331,45.5475221],[-73.5432892,45.5475883],[-73.5430562,45.5478714],[-73.5429781,45.5479784]]}";2;Rue Ontario Est;1;50;false;false;true;false;false;false;51.5;1;0;0;0;0;false;53141;6010969820;-73.544457;45.545555;53155;5337275221;-73.5434748;45.5472461;1;26;27;4611130;Bus 125 : Ontario Est;"";STM;125-E;Station Place-des-Arts / De Bleury;Station Viau
461163000;"{\"type\":\"LineString\",\"coordinates\":[[-73.5449738,45.5448707],[-73.5444878,45.5456671],[-73.5439968,45.5464715],[-73.543579,45.5471562]]}";1;Rue Ontario Est;1;50;false;false;true;false;false;false;277.0;0;0;0;0;0;false;53155;5337275221;-73.5434748;45.5472461;53170;6010973922;-73.542382;45.548544;2;27;28;4611130;Bus 125 : Ontario Est;"";STM;125-E;Station Place-des-Arts / De Bleury;Station Viau
461163009;"{\"type\":\"LineString\",\"coordinates\":[[-73.543579,45.5471562],[-73.543331,45.5475221],[-73.5432892,45.5475883],[-73.5430562,45.5478714],[-73.5429781,45.5479784]]}";2;Rue Ontario Est;1;50;false;false;true;false;false;false;103.0;1;0;0;0;0;false;53155;5337275221;-73.5434748;45.5472461;53170;6010973922;-73.542382;45.548544;0;27;28;4611130;Bus 125 : Ontario Est;"";STM;125-E;Station Place-des-Arts / De Bleury;Station Viau
461163008;"{\"type\":\"LineString\",\"coordinates\":[[-73.5429781,45.5479784],[-73.5425124,45.5484949],[-73.5423529,45.5486662],[-73.5420346,45.5490459],[-73.541737,45.5495073],[-73.5412585,45.5502492],[-73.5411969,45.5503447],[-73.5407067,45.5511047],[-73.5404932,45.5514357],[-73.5402459,45.5518191],[-73.5397922,45.5525225],[-73.5395273,45.5529332],[-73.5394672,45.5530264],[-73.5392775,45.5533204],[-73.5391947,45.5534488],[-73.5390183,45.5537223]]}";3;Rue Ontario Est;1;50;false;false;true;false;false;false;710.0;4;0;0;0;0;false;53155;5337275221;-73.5434748;45.5472461;53170;6010973922;-73.542382;45.548544;2;27;28;4611130;Bus 125 : Ontario Est;"";STM;125-E;Station Place-des-Arts / De Bleury;Station Viau
461163008;"{\"type\":\"LineString\",\"coordinates\":[[-73.5429781,45.5479784],[-73.5425124,45.5484949],[-73.5423529,45.5486662],[-73.5420346,45.5490459],[-73.541737,45.5495073],[-73.5412585,45.5502492],[-73.5411969,45.5503447],[-73.5407067,45.5511047],[-73.5404932,45.5514357],[-73.5402459,45.5518191],[-73.5397922,45.5525225],[-73.5395273,45.5529332],[-73.5394672,45.5530264],[-73.5392775,45.5533204],[-73.5391947,45.5534488],[-73.5390183,45.5537223]]}";1;Rue Ontario Est;1;50;false;false;true;false;false;false;355.0;4;0;0;0;0;false;53217;6010981203;-73.539794;45.552377;54214;6010966421;-73.538412;45.554519;1;30;31;4611130;Bus 125 : Ontario Est;"";STM;125-E;Station Place-des-Arts / De Bleury;Station Viau
460543946;"{\"type\":\"LineString\",\"coordinates\":[[-73.5390183,45.5537223],[-73.5386862,45.5542372]]}";2;Rue Ontario Est;1;50;false;false;true;false;false;false;63.0;0;0;0;0;0;false;53217;6010981203;-73.539794;45.552377;54214;6010966421;-73.538412;45.554519;0;30;31;4611130;Bus 125 : Ontario Est;"";STM;125-E;Station Place-des-Arts / De Bleury;Station Viau
460543944;"{\"type\":\"LineString\",\"coordinates\":[[-73.5386862,45.5542372],[-73.5386493,45.5542944],[-73.5384613,45.5545859]]}";3;Rue Ontario Est;1;50;false;false;true;false;false;false;21.5;0;0;0;0;0;false;53217;6010981203;-73.539794;45.552377;54214;6010966421;-73.538412;45.554519;1;30;31;4611130;Bus 125 : Ontario Est;"";STM;125-E;Station Place-des-Arts / De Bleury;Station Viau
460543943;"{\"type\":\"LineString\",\"coordinates\":[[-73.5384613,45.5545859],[-73.5382479,45.5549166]]}";1;Rue Ontario Est;1;50;false;false;true;false;false;false;41.0;0;0;0;0;0;false;54214;6010966421;-73.538412;45.554519;54309;6010970033;-73.537732;45.555527;2;31;32;4611130;Bus 125 : Ontario Est;"";STM;125-E;Station Place-des-Arts / De Bleury;Station Viau
460541670;"{\"type\":\"LineString\",\"coordinates\":[[-73.5382479,45.5549166],[-73.5377672,45.5556618]]}";2;Rue Ontario Est;1;50;false;false;true;false;false;false;91.0;0;0;0;0;0;false;54214;6010966421;-73.538412;45.554519;54309;6010970033;-73.537732;45.555527;2;31;32;4611130;Bus 125 : Ontario Est;"";STM;125-E;Station Place-des-Arts / De Bleury;Station Viau
460541669;"{\"type\":\"LineString\",\"coordinates\":[[-73.5377672,45.5556618],[-73.5372938,45.5563957]]}";1;Rue Ontario Est;1;50;false;false;true;false;false;false;90.0;0;0;0;0;0;false;54309;6010970033;-73.537732;45.555527;53246;6010973592;-73.536811;45.556952;2;32;33;4611130;Bus 125 : Ontario Est;"";STM;125-E;Station Place-des-Arts / De Bleury;Station Viau
460541668;"{\"type\":\"LineString\",\"coordinates\":[[-73.5372938,45.5563957],[-73.5368533,45.5570786],[-73.5363936,45.5577912]]}";2;Rue Ontario Est;1;50;false;false;true;false;false;false;171.0;0;0;0;0;0;false;54309;6010970033;-73.537732;45.555527;53246;6010973592;-73.536811;45.556952;2;32;33;4611130;Bus 125 : Ontario Est;"";STM;125-E;Station Place-des-Arts / De Bleury;Station Viau
460541668;"{\"type\":\"LineString\",\"coordinates\":[[-73.5372938,45.5563957],[-73.5368533,45.5570786],[-73.5363936,45.5577912]]}";1;Rue Ontario Est;1;50;false;false;true;false;false;false;85.5;0;0;0;0;0;false;53246;6010973592;-73.536811;45.556952;53262;6010977608;-73.535938;45.55831;1;33;34;4611130;Bus 125 : Ontario Est;"";STM;125-E;Station Place-des-Arts / De Bleury;Station Viau
460536607;"{\"type\":\"LineString\",\"coordinates\":[[-73.5363936,45.5577912],[-73.5359351,45.558502]]}";2;Rue Ontario Est;1;50;false;false;true;false;false;false;43.5;1;0;0;0;0;false;53246;6010973592;-73.536811;45.556952;53262;6010977608;-73.535938;45.55831;1;33;34;4611130;Bus 125 : Ontario Est;"";STM;125-E;Station Place-des-Arts / De Bleury;Station Viau
460536607;"{\"type\":\"LineString\",\"coordinates\":[[-73.5363936,45.5577912],[-73.5359351,45.558502]]}";1;Rue Ontario Est;1;50;false;false;true;false;false;false;43.5;1;0;0;0;0;false;53262;6010977608;-73.535938;45.55831;53274;2414796070;-73.5357555;45.5593706;1;34;35;4611130;Bus 125 : Ontario Est;"";STM;125-E;Station Place-des-Arts / De Bleury;Station Viau
728802373;"{\"type\":\"LineString\",\"coordinates\":[[-73.5359351,45.558502],[-73.5354751,45.5592151]]}";2;Rue Ontario Est;1;50;false;false;true;false;false;false;87.0;2;0;0;0;0;false;53262;6010977608;-73.535938;45.55831;53274;2414796070;-73.5357555;45.5593706;0;34;35;4611130;Bus 125 : Ontario Est;"";STM;125-E;Station Place-des-Arts / De Bleury;Station Viau
451902822;"{\"type\":\"LineString\",\"coordinates\":[[-73.5354751,45.5592151],[-73.5379385,45.5600345],[-73.5379741,45.560046],[-73.5389977,45.5603774]]}";3;Rue Viau;1;50;false;false;true;false;false;false;152.0;2;0;0;0;0;false;53262;6010977608;-73.535938;45.55831;53274;2414796070;-73.5357555;45.5593706;1;34;35;4611130;Bus 125 : Ontario Est;"";STM;125-E;Station Place-des-Arts / De Bleury;Station Viau
465355500;"{\"type\":\"LineString\",\"coordinates\":[[-73.5423834,45.5614595],[-73.5424789,45.5615076]]}";1;Rue Viau;1;50;false;true;false;false;false;false;10.0;2;0;0;0;0;false;53166;6010978170;-73.54221;45.561474;54200;6010965427;-73.546797;45.561475;2;37;38;4611130;Bus 125 : Ontario Est;"";STM;125-E;Station Place-des-Arts / De Bleury;Station Viau
20218627;"{\"type\":\"LineString\",\"coordinates\":[[-73.5424789,45.5615076],[-73.5433545,45.5617929],[-73.5442184,45.5620744],[-73.544348,45.562113],[-73.5458675,45.5626093]]}";2;Rue Viau;1;50;false;true;false;false;false;false;292.0;1;0;0;0;0;false;53166;6010978170;-73.54221;45.561474;54200;6010965427;-73.546797;45.561475;0;37;38;4611130;Bus 125 : Ontario Est;"";STM;125-E;Station Place-des-Arts / De Bleury;Station Viau
20447057;"{\"type\":\"LineString\",\"coordinates\":[[-73.5458675,45.5626093],[-73.5460361,45.5625442]]}";3;Avenue Pierre-De Coubertin;1;40;false;true;false;false;false;false;16.0;0;0;0;0;0;false;53166;6010978170;-73.54221;45.561474;54200;6010965427;-73.546797;45.561475;0;37;38;4611130;Bus 125 : Ontario Est;"";STM;125-E;Station Place-des-Arts / De Bleury;Station Viau
755645658;"{\"type\":\"LineString\",\"coordinates\":[[-73.5460361,45.5625442],[-73.5467705,45.5614112]]}";4;Avenue Pierre-De Coubertin;1;40;false;true;false;false;false;false;139.0;0;0;0;0;0;false;53166;6010978170;-73.54221;45.561474;54200;6010965427;-73.546797;45.561475;1;37;38;4611130;Bus 125 : Ontario Est;"";STM;125-E;Station Place-des-Arts / De Bleury;Station Viau
