way_id;shape;index;name;nb_lanes;legal_speed;speed_zone_30;oneway;shares_bike;bike_box;bus_lane;dedicated_bus_lane;length;nb_traffic_signals;nb_crossings;nb_stops;nb_give_ways;nb_lvl_crossings;roundabout;stop_id_orig;node_id_orig;coord_x_orig;coord_y_orig;stop_id_dest;node_id_dest;coord_x_dest;coord_y_dest;nb_neighbouring_ways_bus_stop;ordre_orig;ordre_dest;id_line;line_name;colour;operator;ref;from;to
683821958;"{\"type\":\"LineString\",\"coordinates\":[[-73.667132,45.5562148],[-73.667224,45.5560572]]}";1;"";1;50;false;false;true;false;true;false;19.0;0;0;0;0;0;false;53827;1751311131;-73.667093;45.556172;50318;1751309740;-73.6667604;45.5581402;1;0;1;4619223;Bus 30 : Saint-Denis / Saint-Hubert Sud;"";STM;30-S;Station Henri-Bourassa;Amherst / Viger
144841881;"{\"type\":\"LineString\",\"coordinates\":[[-73.6670617,45.55654],[-73.667003,45.5564705],[-73.6670078,45.5564192],[-73.667132,45.5562148]]}";2;"";1;50;false;false;true;false;true;false;40.0;0;0;0;0;0;false;53827;1751311131;-73.667093;45.556172;50318;1751309740;-73.6667604;45.5581402;0;0;1;4619223;Bus 30 : Saint-Denis / Saint-Hubert Sud;"";STM;30-S;Station Henri-Bourassa;Amherst / Viger
144838921;"{\"type\":\"LineString\",\"coordinates\":[[-73.6670617,45.55654],[-73.6671454,45.5566037],[-73.6672641,45.556694]]}";3;"";1;50;false;true;true;false;true;false;24.0;1;1;0;0;0;false;53827;1751311131;-73.667093;45.556172;50318;1751309740;-73.6667604;45.5581402;0;0;1;4619223;Bus 30 : Saint-Denis / Saint-Hubert Sud;"";STM;30-S;Station Henri-Bourassa;Amherst / Viger
18562834;"{\"type\":\"LineString\",\"coordinates\":[[-73.6672641,45.556694],[-73.6672573,45.5567257],[-73.6672024,45.5569526],[-73.6671924,45.5571544],[-73.6672015,45.5573201],[-73.6672016,45.557437],[-73.6672017,45.5577511],[-73.667168,45.5580414],[-73.667071,45.558251],[-73.6670392,45.5583198]]}";4;Boulevard Henri-Bourassa Est;3;50;false;true;true;false;false;false;183.0;2;1;0;0;0;false;53827;1751311131;-73.667093;45.556172;50318;1751309740;-73.6667604;45.5581402;0;0;1;4619223;Bus 30 : Saint-Denis / Saint-Hubert Sud;"";STM;30-S;Station Henri-Bourassa;Amherst / Viger
452383555;"{\"type\":\"LineString\",\"coordinates\":[[-73.663294,45.5572285],[-73.6645405,45.5575943],[-73.6647383,45.5576517],[-73.6651858,45.5577817],[-73.665263,45.5578041],[-73.6658031,45.5579609],[-73.665887,45.5579853],[-73.6664385,45.5581454],[-73.6670392,45.5583198]]}";5;Rue Saint-Hubert;1;50;false;false;true;false;false;false;317.0;2;0;0;0;0;false;53827;1751311131;-73.667093;45.556172;50318;1751309740;-73.6667604;45.5581402;2;0;1;4619223;Bus 30 : Saint-Denis / Saint-Hubert Sud;"";STM;30-S;Station Henri-Bourassa;Amherst / Viger
455699700;"{\"type\":\"LineString\",\"coordinates\":[[-73.6376911,45.5498839],[-73.6386168,45.5501464],[-73.6402208,45.5506013]]}";1;Rue Saint-Hubert;4;50;false;false;true;false;false;false;213.0;1;0;0;0;0;false;50709;1751227801;-73.6404211;45.5505749;50858;6010977895;-73.635603;45.549206;2;9;10;4619223;Bus 30 : Saint-Denis / Saint-Hubert Sud;"";STM;30-S;Station Henri-Bourassa;Amherst / Viger
455693004;"{\"type\":\"LineString\",\"coordinates\":[[-73.6361298,45.5494411],[-73.6376911,45.5498839]]}";2;Rue Saint-Hubert;4;50;false;false;true;false;false;false;132.0;0;0;0;0;0;false;50709;1751227801;-73.6404211;45.5505749;50858;6010977895;-73.635603;45.549206;0;9;10;4619223;Bus 30 : Saint-Denis / Saint-Hubert Sud;"";STM;30-S;Station Henri-Bourassa;Amherst / Viger
451862139;"{\"type\":\"LineString\",\"coordinates\":[[-73.635393,45.5492054],[-73.6355157,45.5492706],[-73.6359029,45.5493804],[-73.6361298,45.5494411]]}";3;Rue Saint-Hubert;1;50;false;true;true;false;false;false;64.0;1;0;0;0;0;false;50709;1751227801;-73.6404211;45.5505749;50858;6010977895;-73.635603;45.549206;2;9;10;4619223;Bus 30 : Saint-Denis / Saint-Hubert Sud;"";STM;30-S;Station Henri-Bourassa;Amherst / Viger
18562833;"{\"type\":\"LineString\",\"coordinates\":[[-73.6347406,45.5490302],[-73.635393,45.5492054]]}";1;Rue Saint-Hubert;1;50;false;false;true;false;false;false;55.0;2;0;0;0;0;false;50858;6010977895;-73.635603;45.549206;50862;6010973447;-73.634238;45.548807;2;10;11;4619223;Bus 30 : Saint-Denis / Saint-Hubert Sud;"";STM;30-S;Station Henri-Bourassa;Amherst / Viger
451862138;"{\"type\":\"LineString\",\"coordinates\":[[-73.6344181,45.5489394],[-73.6347406,45.5490302]]}";2;Rue Saint-Hubert;1;50;false;false;true;false;false;false;28.0;1;0;0;0;0;false;50858;6010977895;-73.635603;45.549206;50862;6010973447;-73.634238;45.548807;0;10;11;4619223;Bus 30 : Saint-Denis / Saint-Hubert Sud;"";STM;30-S;Station Henri-Bourassa;Amherst / Viger
460016954;"{\"type\":\"LineString\",\"coordinates\":[[-73.6327976,45.5484652],[-73.6341328,45.5488559],[-73.6344181,45.5489394]]}";3;Rue Saint-Hubert;1;50;false;false;true;false;false;false;137.0;1;0;0;0;0;false;50858;6010977895;-73.635603;45.549206;50862;6010973447;-73.634238;45.548807;2;10;11;4619223;Bus 30 : Saint-Denis / Saint-Hubert Sud;"";STM;30-S;Station Henri-Bourassa;Amherst / Viger
460016953;"{\"type\":\"LineString\",\"coordinates\":[[-73.6323862,45.5483361],[-73.6326753,45.5484278],[-73.6327976,45.5484652]]}";1;Rue Saint-Hubert;1;50;false;false;true;false;false;false;36.0;1;0;0;0;0;false;50909;6010974331;-73.632915;45.548426;50949;6010969847;-73.630818;45.547764;2;12;13;4619223;Bus 30 : Saint-Denis / Saint-Hubert Sud;"";STM;30-S;Station Henri-Bourassa;Amherst / Viger
463875423;"{\"type\":\"LineString\",\"coordinates\":[[-73.6285174,45.5471151],[-73.6306378,45.5477816],[-73.6323862,45.5483361]]}";2;Rue Saint-Hubert;1;50;false;false;true;false;false;false;331.0;2;0;0;0;0;false;50909;6010974331;-73.632915;45.548426;50949;6010969847;-73.630818;45.547764;2;12;13;4619223;Bus 30 : Saint-Denis / Saint-Hubert Sud;"";STM;30-S;Station Henri-Bourassa;Amherst / Viger
463875425;"{\"type\":\"LineString\",\"coordinates\":[[-73.6263415,45.5464245],[-73.6266922,45.5465372],[-73.6267949,45.5465697],[-73.6285174,45.5471151]]}";1;Rue Saint-Hubert;1;50;false;false;true;false;false;false;93.5;2;0;0;0;0;false;51042;6010977633;-73.626623;45.546442;51098;6010981274;-73.624375;45.545495;1;15;16;4619223;Bus 30 : Saint-Denis / Saint-Hubert Sud;"";STM;30-S;Station Henri-Bourassa;Amherst / Viger
132220915;"{\"type\":\"LineString\",\"coordinates\":[[-73.6228978,45.5449126],[-73.6242178,45.5455034],[-73.6260545,45.5463003],[-73.6263415,45.5464245]]}";2;Rue Saint-Hubert;1;50;false;false;true;false;false;false;158.5;2;0;0;0;0;false;51042;6010977633;-73.626623;45.546442;51098;6010981274;-73.624375;45.545495;1;15;16;4619223;Bus 30 : Saint-Denis / Saint-Hubert Sud;"";STM;30-S;Station Henri-Bourassa;Amherst / Viger
132220915;"{\"type\":\"LineString\",\"coordinates\":[[-73.6228978,45.5449126],[-73.6242178,45.5455034],[-73.6260545,45.5463003],[-73.6263415,45.5464245]]}";1;Rue Saint-Hubert;1;50;false;false;true;false;false;false;158.5;2;0;0;0;0;false;51098;6010981274;-73.624375;45.545495;53781;291488017;-73.621147;45.54338;1;16;17;4619223;Bus 30 : Saint-Denis / Saint-Hubert Sud;"";STM;30-S;Station Henri-Bourassa;Amherst / Viger
20291838;"{\"type\":\"LineString\",\"coordinates\":[[-73.6228978,45.5449126],[-73.622544,45.5448041],[-73.6224236,45.5447419],[-73.622364,45.5446606],[-73.622339,45.5446308]]}";2;Rue Saint-Hubert;1;50;false;true;true;false;false;false;56.0;1;0;0;0;0;false;51098;6010981274;-73.624375;45.545495;53781;291488017;-73.621147;45.54338;0;16;17;4619223;Bus 30 : Saint-Denis / Saint-Hubert Sud;"";STM;30-S;Station Henri-Bourassa;Amherst / Viger
328986919;"{\"type\":\"LineString\",\"coordinates\":[[-73.622339,45.5446308],[-73.6224495,45.5445026],[-73.6225365,45.5444017],[-73.6227441,45.5441609]]}";3;Rue du Rosaire;1;50;false;true;true;false;false;false;62.0;0;0;0;0;0;false;51098;6010981274;-73.624375;45.545495;53781;291488017;-73.621147;45.54338;0;16;17;4619223;Bus 30 : Saint-Denis / Saint-Hubert Sud;"";STM;30-S;Station Henri-Bourassa;Amherst / Viger
463427613;"{\"type\":\"LineString\",\"coordinates\":[[-73.6227441,45.5441609],[-73.6217919,45.543759],[-73.6215211,45.5436361],[-73.621347,45.5435567],[-73.6185719,45.5423081],[-73.6171435,45.541645],[-73.6164349,45.5413113],[-73.6157427,45.5410082],[-73.6144256,45.5404209],[-73.6142399,45.5403381],[-73.6139859,45.5402248],[-73.6137983,45.5400881],[-73.6136082,45.5399559]]}";4;Avenue De Chateaubriand;2;50;false;true;true;false;false;false;427.0;3;0;0;0;0;false;51098;6010981274;-73.624375;45.545495;53781;291488017;-73.621147;45.54338;1;16;17;4619223;Bus 30 : Saint-Denis / Saint-Hubert Sud;"";STM;30-S;Station Henri-Bourassa;Amherst / Viger
463427613;"{\"type\":\"LineString\",\"coordinates\":[[-73.6227441,45.5441609],[-73.6217919,45.543759],[-73.6215211,45.5436361],[-73.621347,45.5435567],[-73.6185719,45.5423081],[-73.6171435,45.541645],[-73.6164349,45.5413113],[-73.6157427,45.5410082],[-73.6144256,45.5404209],[-73.6142399,45.5403381],[-73.6139859,45.5402248],[-73.6137983,45.5400881],[-73.6136082,45.5399559]]}";1;Avenue De Chateaubriand;2;50;false;true;true;false;false;false;427.0;3;0;0;0;0;false;51289;291488022;-73.615934;45.540996;51331;291488023;-73.613106;45.539605;1;19;20;4619223;Bus 30 : Saint-Denis / Saint-Hubert Sud;"";STM;30-S;Station Henri-Bourassa;Amherst / Viger
463427612;"{\"type\":\"LineString\",\"coordinates\":[[-73.6136082,45.5399559],[-73.6135001,45.5398858]]}";2;Avenue De Chateaubriand;2;50;false;true;true;false;false;false;12.0;1;0;0;0;0;false;51289;291488022;-73.615934;45.540996;51331;291488023;-73.613106;45.539605;0;19;20;4619223;Bus 30 : Saint-Denis / Saint-Hubert Sud;"";STM;30-S;Station Henri-Bourassa;Amherst / Viger
132220911;"{\"type\":\"LineString\",\"coordinates\":[[-73.6135001,45.5398858],[-73.6133529,45.5397908],[-73.6131568,45.5397026],[-73.6124519,45.5393856],[-73.6107913,45.5386387],[-73.6106325,45.5385673]]}";3;Avenue De Chateaubriand;2;50;false;true;true;false;false;false;134.0;2;1;0;0;0;false;51289;291488022;-73.615934;45.540996;51331;291488023;-73.613106;45.539605;1;19;20;4619223;Bus 30 : Saint-Denis / Saint-Hubert Sud;"";STM;30-S;Station Henri-Bourassa;Amherst / Viger
722837153;"{\"type\":\"LineString\",\"coordinates\":[[-73.6106325,45.5385673],[-73.6105817,45.5385444],[-73.6071734,45.5370055],[-73.6045064,45.5358012]]}";1;Avenue De Chateaubriand;1;50;false;true;false;false;false;false;284.5;2;1;0;0;0;false;51459;291488029;-73.607356;45.536999;51533;670902936;-73.6039517;45.5354471;1;22;23;4619223;Bus 30 : Saint-Denis / Saint-Hubert Sud;"";STM;30-S;Station Henri-Bourassa;Amherst / Viger
607207185;"{\"type\":\"LineString\",\"coordinates\":[[-73.6045064,45.5358012],[-73.6041646,45.5356469],[-73.6037107,45.535442]]}";2;Avenue De Chateaubriand;1;50;false;true;false;false;false;false;37.0;1;0;0;0;0;false;51459;291488029;-73.607356;45.536999;51533;670902936;-73.6039517;45.5354471;1;22;23;4619223;Bus 30 : Saint-Denis / Saint-Hubert Sud;"";STM;30-S;Station Henri-Bourassa;Amherst / Viger
464735541;"{\"type\":\"LineString\",\"coordinates\":[[-73.6005751,45.5340261],[-73.597215,45.5325089],[-73.5971659,45.5324867]]}";1;Avenue De Chateaubriand;1;50;false;true;false;false;false;false;158.5;3;0;0;0;0;false;51672;6010978133;-73.597533;45.532556;51649;286302646;-73.597706;45.530575;1;25;26;4619223;Bus 30 : Saint-Denis / Saint-Hubert Sud;"";STM;30-S;Station Henri-Bourassa;Amherst / Viger
393726762;"{\"type\":\"LineString\",\"coordinates\":[[-73.5977939,45.5317884],[-73.597734,45.531855],[-73.5974854,45.5321314],[-73.597186,45.5324645],[-73.5971659,45.5324867]]}";2;Boulevard Rosemont;2;50;false;false;true;false;false;false;92.0;3;1;0;0;0;false;51672;6010978133;-73.597533;45.532556;51649;286302646;-73.597706;45.530575;0;25;26;4619223;Bus 30 : Saint-Denis / Saint-Hubert Sud;"";STM;30-S;Station Henri-Bourassa;Amherst / Viger
454833822;"{\"type\":\"LineString\",\"coordinates\":[[-73.5981462,45.5313991],[-73.5978597,45.5317157],[-73.5977939,45.5317884]]}";3;Boulevard Rosemont;2;50;false;false;true;false;false;false;52.0;1;1;0;0;0;false;51672;6010978133;-73.597533;45.532556;51649;286302646;-73.597706;45.530575;0;25;26;4619223;Bus 30 : Saint-Denis / Saint-Hubert Sud;"";STM;30-S;Station Henri-Bourassa;Amherst / Viger
121183812;"{\"type\":\"LineString\",\"coordinates\":[[-73.5985011,45.531047],[-73.5984406,45.531107],[-73.5984134,45.531134],[-73.5981462,45.5313991]]}";4;Boulevard Rosemont;2;50;false;false;true;false;false;false;48.0;1;2;0;0;0;false;51672;6010978133;-73.597533;45.532556;51649;286302646;-73.597706;45.530575;0;25;26;4619223;Bus 30 : Saint-Denis / Saint-Hubert Sud;"";STM;30-S;Station Henri-Bourassa;Amherst / Viger
454833821;"{\"type\":\"LineString\",\"coordinates\":[[-73.5985011,45.531047],[-73.5983918,45.5309644],[-73.5983828,45.5309568],[-73.5983469,45.5309265]]}";5;Rue Saint-Denis;2;50;false;true;true;false;false;false;19.0;1;2;0;0;0;false;51672;6010978133;-73.597533;45.532556;51649;286302646;-73.597706;45.530575;0;25;26;4619223;Bus 30 : Saint-Denis / Saint-Hubert Sud;"";STM;30-S;Station Henri-Bourassa;Amherst / Viger
68455614;"{\"type\":\"LineString\",\"coordinates\":[[-73.5983469,45.5309265],[-73.5980477,45.5307929],[-73.5975046,45.5305489],[-73.595334,45.5295738],[-73.595264,45.5295424],[-73.5943715,45.5291737]]}";6;Rue Saint-Denis;2;50;false;true;true;false;false;false;183.5;0;0;0;0;0;false;51672;6010978133;-73.597533;45.532556;51649;286302646;-73.597706;45.530575;1;25;26;4619223;Bus 30 : Saint-Denis / Saint-Hubert Sud;"";STM;30-S;Station Henri-Bourassa;Amherst / Viger
68455614;"{\"type\":\"LineString\",\"coordinates\":[[-73.5983469,45.5309265],[-73.5980477,45.5307929],[-73.5975046,45.5305489],[-73.595334,45.5295738],[-73.595264,45.5295424],[-73.5943715,45.5291737]]}";1;Rue Saint-Denis;2;50;false;true;true;false;false;false;183.5;0;0;0;0;0;false;51649;286302646;-73.597706;45.530575;51761;286302650;-73.594056;45.528927;1;26;27;4619223;Bus 30 : Saint-Denis / Saint-Hubert Sud;"";STM;30-S;Station Henri-Bourassa;Amherst / Viger
39368333;"{\"type\":\"LineString\",\"coordinates\":[[-73.5941974,45.5290964],[-73.5942208,45.5291071],[-73.5943715,45.5291737]]}";2;Rue Saint-Denis;2;50;false;false;true;false;false;false;17.0;0;0;0;0;0;false;51649;286302646;-73.597706;45.530575;51761;286302650;-73.594056;45.528927;0;26;27;4619223;Bus 30 : Saint-Denis / Saint-Hubert Sud;"";STM;30-S;Station Henri-Bourassa;Amherst / Viger
361481497;"{\"type\":\"LineString\",\"coordinates\":[[-73.5938881,45.528959],[-73.5939516,45.5289872],[-73.5941974,45.5290964]]}";3;Rue Saint-Denis;2;50;false;false;true;false;false;false;14.5;1;1;0;0;0;false;51649;286302646;-73.597706;45.530575;51761;286302650;-73.594056;45.528927;1;26;27;4619223;Bus 30 : Saint-Denis / Saint-Hubert Sud;"";STM;30-S;Station Henri-Bourassa;Amherst / Viger
330301759;"{\"type\":\"LineString\",\"coordinates\":[[-73.5932347,45.5286653],[-73.5933047,45.5286968],[-73.5937855,45.5289129],[-73.5938881,45.528959]]}";1;Rue Saint-Denis;2;50;false;false;true;false;false;false;61.0;2;2;0;0;0;false;51761;286302650;-73.594056;45.528927;51816;286302653;-73.591899;45.527952;2;27;28;4619223;Bus 30 : Saint-Denis / Saint-Hubert Sud;"";STM;30-S;Station Henri-Bourassa;Amherst / Viger
361481225;"{\"type\":\"LineString\",\"coordinates\":[[-73.5917477,45.5279921],[-73.5918097,45.5280202],[-73.5931811,45.528641],[-73.5932162,45.5286569],[-73.5932347,45.5286653]]}";2;Rue Saint-Denis;2;50;false;false;true;false;false;false;139.0;2;2;0;0;0;false;51761;286302650;-73.594056;45.528927;51816;286302653;-73.591899;45.527952;2;27;28;4619223;Bus 30 : Saint-Denis / Saint-Hubert Sud;"";STM;30-S;Station Henri-Bourassa;Amherst / Viger
454880675;"{\"type\":\"LineString\",\"coordinates\":[[-73.5883818,45.5264701],[-73.5894026,45.5269303],[-73.5894116,45.5269344],[-73.5894463,45.52695]]}";1;Rue Saint-Denis;2;50;false;false;true;false;false;false;99.0;1;2;0;0;0;false;51864;286302661;-73.589662;45.52694;51920;286302664;-73.588139;45.526246;2;29;30;4619223;Bus 30 : Saint-Denis / Saint-Hubert Sud;"";STM;30-S;Station Henri-Bourassa;Amherst / Viger
330153474;"{\"type\":\"LineString\",\"coordinates\":[[-73.5879488,45.5262705],[-73.5879872,45.5262862],[-73.5880245,45.5263034],[-73.5880379,45.5263096],[-73.5883525,45.5264548],[-73.5883818,45.5264701]]}";2;Rue Saint-Denis;2;50;false;false;true;false;false;false;41.0;1;2;0;0;0;false;51864;286302661;-73.589662;45.52694;51920;286302664;-73.588139;45.526246;2;29;30;4619223;Bus 30 : Saint-Denis / Saint-Hubert Sud;"";STM;30-S;Station Henri-Bourassa;Amherst / Viger
330153476;"{\"type\":\"LineString\",\"coordinates\":[[-73.5878266,45.526216],[-73.5878867,45.5262428],[-73.5879488,45.5262705]]}";1;Rue Saint-Denis;2;50;false;false;true;false;false;false;12.0;0;0;0;0;0;false;51920;286302664;-73.588139;45.526246;52011;286302667;-73.585394;45.524987;2;30;31;4619223;Bus 30 : Saint-Denis / Saint-Hubert Sud;"";STM;30-S;Station Henri-Bourassa;Amherst / Viger
337509253;"{\"type\":\"LineString\",\"coordinates\":[[-73.5860436,45.5254036],[-73.5861453,45.5254503],[-73.5862516,45.525499],[-73.586771,45.5257339],[-73.5874079,45.526024],[-73.5877458,45.5261779],[-73.5877547,45.5261819],[-73.5877974,45.5262013],[-73.5878266,45.526216]]}";2;Rue Saint-Denis;2;50;false;false;true;false;false;false;166.0;1;2;0;0;0;false;51920;286302664;-73.588139;45.526246;52011;286302667;-73.585394;45.524987;0;30;31;4619223;Bus 30 : Saint-Denis / Saint-Hubert Sud;"";STM;30-S;Station Henri-Bourassa;Amherst / Viger
463886944;"{\"type\":\"LineString\",\"coordinates\":[[-73.5858322,45.525304],[-73.5860436,45.5254036]]}";3;Rue Saint-Denis;2;50;false;false;true;false;false;false;20.0;0;0;0;0;0;false;51920;286302664;-73.588139;45.526246;52011;286302667;-73.585394;45.524987;0;30;31;4619223;Bus 30 : Saint-Denis / Saint-Hubert Sud;"";STM;30-S;Station Henri-Bourassa;Amherst / Viger
463886943;"{\"type\":\"LineString\",\"coordinates\":[[-73.5856724,45.5252171],[-73.5858095,45.5252934],[-73.5858322,45.525304]]}";4;Rue Saint-Denis;2;50;false;false;true;false;false;false;16.0;0;0;0;0;0;false;51920;286302664;-73.588139;45.526246;52011;286302667;-73.585394;45.524987;0;30;31;4619223;Bus 30 : Saint-Denis / Saint-Hubert Sud;"";STM;30-S;Station Henri-Bourassa;Amherst / Viger
463886945;"{\"type\":\"LineString\",\"coordinates\":[[-73.5847324,45.5248028],[-73.584796,45.5248308],[-73.5856724,45.5252171]]}";5;Rue Saint-Denis;2;50;false;false;true;false;false;false;87.0;1;1;0;0;0;false;51920;286302664;-73.588139;45.526246;52011;286302667;-73.585394;45.524987;2;30;31;4619223;Bus 30 : Saint-Denis / Saint-Hubert Sud;"";STM;30-S;Station Henri-Bourassa;Amherst / Viger
463886945;"{\"type\":\"LineString\",\"coordinates\":[[-73.5847324,45.5248028],[-73.584796,45.5248308],[-73.5856724,45.5252171]]}";1;Rue Saint-Denis;2;50;false;false;true;false;false;false;43.5;1;1;0;0;0;false;52011;286302667;-73.585394;45.524987;52056;286307022;-73.583107;45.523941;1;31;32;4619223;Bus 30 : Saint-Denis / Saint-Hubert Sud;"";STM;30-S;Station Henri-Bourassa;Amherst / Viger
337509254;"{\"type\":\"LineString\",\"coordinates\":[[-73.5829023,45.5239741],[-73.5829988,45.5240185],[-73.5846541,45.5247791],[-73.5847324,45.5248028]]}";2;Rue Saint-Denis;2;50;false;false;true;false;false;false;85.5;2;1;0;0;0;false;52011;286302667;-73.585394;45.524987;52056;286307022;-73.583107;45.523941;1;31;32;4619223;Bus 30 : Saint-Denis / Saint-Hubert Sud;"";STM;30-S;Station Henri-Bourassa;Amherst / Viger
452049818;"{\"type\":\"LineString\",\"coordinates\":[[-73.5825141,45.5238037],[-73.582813,45.5239349],[-73.5829023,45.5239741]]}";1;Rue Saint-Denis;4;50;false;false;true;false;false;false;36.0;1;0;0;0;0;false;52056;286307022;-73.583107;45.523941;52136;286307025;-73.580725;45.522862;2;32;33;4619223;Bus 30 : Saint-Denis / Saint-Hubert Sud;"";STM;30-S;Station Henri-Bourassa;Amherst / Viger
452269046;"{\"type\":\"LineString\",\"coordinates\":[[-73.5805813,45.5228868],[-73.5806628,45.5229254],[-73.5825141,45.5238037]]}";2;Rue Saint-Denis;4;50;false;false;true;false;false;false;183.0;1;1;0;0;0;false;52056;286307022;-73.583107;45.523941;52136;286307025;-73.580725;45.522862;2;32;33;4619223;Bus 30 : Saint-Denis / Saint-Hubert Sud;"";STM;30-S;Station Henri-Bourassa;Amherst / Viger
453998195;"{\"type\":\"LineString\",\"coordinates\":[[-73.5758948,45.5207519],[-73.5781665,45.521794]]}";1;Rue Saint-Denis;4;50;false;false;true;false;false;false;212.0;2;0;0;0;0;false;52207;286307029;-73.578387;45.521796;52288;286307030;-73.575704;45.520574;2;34;35;4619223;Bus 30 : Saint-Denis / Saint-Hubert Sud;"";STM;30-S;Station Henri-Bourassa;Amherst / Viger
329915132;"{\"type\":\"LineString\",\"coordinates\":[[-73.572592,45.5192529],[-73.5758948,45.5207519]]}";2;Rue Saint-Denis;4;50;false;false;true;false;false;false;307.0;2;0;0;0;0;false;52207;286307029;-73.578387;45.521796;52288;286307030;-73.575704;45.520574;2;34;35;4619223;Bus 30 : Saint-Denis / Saint-Hubert Sud;"";STM;30-S;Station Henri-Bourassa;Amherst / Viger
329915132;"{\"type\":\"LineString\",\"coordinates\":[[-73.572592,45.5192529],[-73.5758948,45.5207519]]}";1;Rue Saint-Denis;4;50;false;false;true;false;false;false;153.5;2;0;0;0;0;false;52288;286307030;-73.575704;45.520574;52422;286307040;-73.572101;45.518933;1;35;36;4619223;Bus 30 : Saint-Denis / Saint-Hubert Sud;"";STM;30-S;Station Henri-Bourassa;Amherst / Viger
329692108;"{\"type\":\"LineString\",\"coordinates\":[[-73.57179,45.5188833],[-73.572592,45.5192529]]}";2;Rue Saint-Denis;4;50;false;false;true;false;false;false;37.5;2;0;0;0;0;false;52288;286307030;-73.575704;45.520574;52422;286307040;-73.572101;45.518933;1;35;36;4619223;Bus 30 : Saint-Denis / Saint-Hubert Sud;"";STM;30-S;Station Henri-Bourassa;Amherst / Viger
329692108;"{\"type\":\"LineString\",\"coordinates\":[[-73.57179,45.5188833],[-73.572592,45.5192529]]}";1;Rue Saint-Denis;4;50;false;false;true;false;false;false;37.5;2;0;0;0;0;false;52422;286307040;-73.572101;45.518933;52507;286307052;-73.569428;45.51877;1;36;37;4619223;Bus 30 : Saint-Denis / Saint-Hubert Sud;"";STM;30-S;Station Henri-Bourassa;Amherst / Viger
329693415;"{\"type\":\"LineString\",\"coordinates\":[[-73.5703476,45.5182391],[-73.5703883,45.5182573],[-73.5710165,45.5185378],[-73.5713854,45.5187026],[-73.57179,45.5188833]]}";2;Rue Saint-Denis;4;50;false;false;true;false;false;false;134.0;2;0;0;0;0;false;52422;286307040;-73.572101;45.518933;52507;286307052;-73.569428;45.51877;0;36;37;4619223;Bus 30 : Saint-Denis / Saint-Hubert Sud;"";STM;30-S;Station Henri-Bourassa;Amherst / Viger
465196292;"{\"type\":\"LineString\",\"coordinates\":[[-73.5700965,45.5181261],[-73.5703476,45.5182391]]}";3;Rue Saint-Denis;4;50;false;false;true;false;false;false;24.0;0;0;0;0;0;false;52422;286307040;-73.572101;45.518933;52507;286307052;-73.569428;45.51877;0;36;37;4619223;Bus 30 : Saint-Denis / Saint-Hubert Sud;"";STM;30-S;Station Henri-Bourassa;Amherst / Viger
19903928;"{\"type\":\"LineString\",\"coordinates\":[[-73.5700965,45.5181261],[-73.5693419,45.5188669],[-73.5693363,45.5189712]]}";4;Rue Cherrier;1;50;false;true;true;false;false;false;56.5;0;0;0;0;0;false;52422;286307040;-73.572101;45.518933;52507;286307052;-73.569428;45.51877;1;36;37;4619223;Bus 30 : Saint-Denis / Saint-Hubert Sud;"";STM;30-S;Station Henri-Bourassa;Amherst / Viger
19903928;"{\"type\":\"LineString\",\"coordinates\":[[-73.5700965,45.5181261],[-73.5693419,45.5188669],[-73.5693363,45.5189712]]}";1;Rue Cherrier;1;50;false;true;true;false;false;false;56.5;0;0;0;0;0;false;52507;286307052;-73.569428;45.51877;52665;5036808921;-73.5644811;45.5168201;1;37;38;4619223;Bus 30 : Saint-Denis / Saint-Hubert Sud;"";STM;30-S;Station Henri-Bourassa;Amherst / Viger
26143978;"{\"type\":\"LineString\",\"coordinates\":[[-73.5693363,45.5189712],[-73.5693004,45.5190052],[-73.5692823,45.5190266]]}";2;Rue Cherrier;1;50;false;false;true;false;false;false;8.0;1;0;0;0;0;false;52507;286307052;-73.569428;45.51877;52665;5036808921;-73.5644811;45.5168201;0;37;38;4619223;Bus 30 : Saint-Denis / Saint-Hubert Sud;"";STM;30-S;Station Henri-Bourassa;Amherst / Viger
127790962;"{\"type\":\"LineString\",\"coordinates\":[[-73.5692823,45.5190266],[-73.5691378,45.5189524],[-73.5649082,45.5170531],[-73.5647676,45.5170554]]}";3;Rue Berri;2;50;false;true;true;false;false;false;417.0;1;0;0;0;0;false;52507;286307052;-73.569428;45.51877;52665;5036808921;-73.5644811;45.5168201;0;37;38;4619223;Bus 30 : Saint-Denis / Saint-Hubert Sud;"";STM;30-S;Station Henri-Bourassa;Amherst / Viger
36675287;"{\"type\":\"LineString\",\"coordinates\":[[-73.5647676,45.5170554],[-73.5644267,45.5168897]]}";4;Rue Berri;4;50;false;false;true;false;false;false;33.0;1;0;0;0;0;false;52507;286307052;-73.569428;45.51877;52665;5036808921;-73.5644811;45.5168201;0;37;38;4619223;Bus 30 : Saint-Denis / Saint-Hubert Sud;"";STM;30-S;Station Henri-Bourassa;Amherst / Viger
741889016;"{\"type\":\"LineString\",\"coordinates\":[[-73.5644267,45.5168897],[-73.5637954,45.5165827]]}";5;Rue Berri;4;50;false;false;true;false;false;false;30.0;0;0;0;0;0;false;52507;286307052;-73.569428;45.51877;52665;5036808921;-73.5644811;45.5168201;1;37;38;4619223;Bus 30 : Saint-Denis / Saint-Hubert Sud;"";STM;30-S;Station Henri-Bourassa;Amherst / Viger
36675287;"{\"type\":\"LineString\",\"coordinates\":[[-73.5647676,45.5170554],[-73.5644267,45.5168897]]}";1;Rue Berri;4;50;false;false;true;false;false;false;33.0;1;0;0;0;0;false;52665;5036808921;-73.5644811;45.5168201;52793;5036795425;-73.561276;45.5153055;2;38;39;4619223;Bus 30 : Saint-Denis / Saint-Hubert Sud;"";STM;30-S;Station Henri-Bourassa;Amherst / Viger
741889016;"{\"type\":\"LineString\",\"coordinates\":[[-73.5644267,45.5168897],[-73.5637954,45.5165827]]}";2;Rue Berri;4;50;false;false;true;false;false;false;60.0;0;0;0;0;0;false;52665;5036808921;-73.5644811;45.5168201;52793;5036795425;-73.561276;45.5153055;0;38;39;4619223;Bus 30 : Saint-Denis / Saint-Hubert Sud;"";STM;30-S;Station Henri-Bourassa;Amherst / Viger
366701672;"{\"type\":\"LineString\",\"coordinates\":[[-73.5637954,45.5165827],[-73.5634349,45.516409]]}";3;Rue Berri;4;50;false;false;true;false;false;false;35.0;0;0;0;0;0;false;52665;5036808921;-73.5644811;45.5168201;52793;5036795425;-73.561276;45.5153055;0;38;39;4619223;Bus 30 : Saint-Denis / Saint-Hubert Sud;"";STM;30-S;Station Henri-Bourassa;Amherst / Viger
561726591;"{\"type\":\"LineString\",\"coordinates\":[[-73.5634349,45.516409],[-73.5634197,45.5163457],[-73.5632324,45.5162602],[-73.5632057,45.516248]]}";4;Rue Berri;2;50;false;true;true;false;false;false;28.0;0;1;0;0;0;false;52665;5036808921;-73.5644811;45.5168201;52793;5036795425;-73.561276;45.5153055;0;38;39;4619223;Bus 30 : Saint-Denis / Saint-Hubert Sud;"";STM;30-S;Station Henri-Bourassa;Amherst / Viger
561726592;"{\"type\":\"LineString\",\"coordinates\":[[-73.5632057,45.516248],[-73.5631071,45.5162031],[-73.5629804,45.5161453],[-73.5628951,45.5161529]]}";5;Rue Berri;2;50;false;true;true;false;false;false;28.0;0;1;0;0;0;false;52665;5036808921;-73.5644811;45.5168201;52793;5036795425;-73.561276;45.5153055;0;38;39;4619223;Bus 30 : Saint-Denis / Saint-Hubert Sud;"";STM;30-S;Station Henri-Bourassa;Amherst / Viger
561733176;"{\"type\":\"LineString\",\"coordinates\":[[-73.5628951,45.5161529],[-73.5623666,45.5159138]]}";6;Rue Berri;4;50;false;false;true;false;false;false;50.0;0;0;0;0;0;false;52665;5036808921;-73.5644811;45.5168201;52793;5036795425;-73.561276;45.5153055;0;38;39;4619223;Bus 30 : Saint-Denis / Saint-Hubert Sud;"";STM;30-S;Station Henri-Bourassa;Amherst / Viger
741889015;"{\"type\":\"LineString\",\"coordinates\":[[-73.5623666,45.5159138],[-73.5613203,45.5154196]]}";7;Rue Berri;4;50;false;false;true;false;false;false;99.0;0;0;0;0;0;false;52665;5036808921;-73.5644811;45.5168201;52793;5036795425;-73.561276;45.5153055;0;38;39;4619223;Bus 30 : Saint-Denis / Saint-Hubert Sud;"";STM;30-S;Station Henri-Bourassa;Amherst / Viger
561733177;"{\"type\":\"LineString\",\"coordinates\":[[-73.5613203,45.5154196],[-73.5612862,45.5153706],[-73.5612174,45.5153389],[-73.5611768,45.51532],[-73.5610772,45.5153171]]}";8;Rue Berri;2;50;false;true;true;false;false;false;25.0;1;1;0;0;0;false;52665;5036808921;-73.5644811;45.5168201;52793;5036795425;-73.561276;45.5153055;2;38;39;4619223;Bus 30 : Saint-Denis / Saint-Hubert Sud;"";STM;30-S;Station Henri-Bourassa;Amherst / Viger
741889015;"{\"type\":\"LineString\",\"coordinates\":[[-73.5623666,45.5159138],[-73.5613203,45.5154196]]}";1;Rue Berri;4;50;false;false;true;false;false;false;99.0;0;0;0;0;0;false;52793;5036795425;-73.561276;45.5153055;52844;6010971994;-73.559885;45.514657;2;39;40;4619223;Bus 30 : Saint-Denis / Saint-Hubert Sud;"";STM;30-S;Station Henri-Bourassa;Amherst / Viger
561733177;"{\"type\":\"LineString\",\"coordinates\":[[-73.5613203,45.5154196],[-73.5612862,45.5153706],[-73.5612174,45.5153389],[-73.5611768,45.51532],[-73.5610772,45.5153171]]}";2;Rue Berri;2;50;false;true;true;false;false;false;25.0;1;1;0;0;0;false;52793;5036795425;-73.561276;45.5153055;52844;6010971994;-73.559885;45.514657;0;39;40;4619223;Bus 30 : Saint-Denis / Saint-Hubert Sud;"";STM;30-S;Station Henri-Bourassa;Amherst / Viger
329989914;"{\"type\":\"LineString\",\"coordinates\":[[-73.5610772,45.5153171],[-73.5609923,45.5152764],[-73.559774,45.5146921],[-73.5596855,45.5146493]]}";3;Rue Berri;4;50;false;false;true;false;false;false;132.0;2;1;0;0;0;false;52793;5036795425;-73.561276;45.5153055;52844;6010971994;-73.559885;45.514657;2;39;40;4619223;Bus 30 : Saint-Denis / Saint-Hubert Sud;"";STM;30-S;Station Henri-Bourassa;Amherst / Viger
464893055;"{\"type\":\"LineString\",\"coordinates\":[[-73.5575129,45.5136624],[-73.557488,45.5136508]]}";1;Rue Berri;1;50;false;false;false;false;false;false;3.0;1;0;0;0;0;false;52906;6010980511;-73.557687;45.513648;52977;6010980428;-73.554566;45.512247;2;41;42;4619223;Bus 30 : Saint-Denis / Saint-Hubert Sud;"";STM;30-S;Station Henri-Bourassa;Amherst / Viger
329989227;"{\"type\":\"LineString\",\"coordinates\":[[-73.557488,45.5136508],[-73.5573188,45.5135765]]}";2;Rue Berri;4;50;false;false;true;false;false;false;16.0;0;0;0;0;0;false;52906;6010980511;-73.557687;45.513648;52977;6010980428;-73.554566;45.512247;0;41;42;4619223;Bus 30 : Saint-Denis / Saint-Hubert Sud;"";STM;30-S;Station Henri-Bourassa;Amherst / Viger
133750660;"{\"type\":\"LineString\",\"coordinates\":[[-73.5573188,45.5135765],[-73.5572747,45.5135563],[-73.5561337,45.5130345],[-73.5556036,45.512792],[-73.5554409,45.5127176]]}";3;Rue Berri;4;50;false;false;true;false;false;false;175.0;2;0;0;0;0;false;52906;6010980511;-73.557687;45.513648;52977;6010980428;-73.554566;45.512247;0;41;42;4619223;Bus 30 : Saint-Denis / Saint-Hubert Sud;"";STM;30-S;Station Henri-Bourassa;Amherst / Viger
561718402;"{\"type\":\"LineString\",\"coordinates\":[[-73.5554409,45.5127176],[-73.5553101,45.5125916],[-73.5550521,45.5124674]]}";4;Rue Berri;1;50;false;true;true;false;false;false;42.0;0;0;0;0;0;false;52906;6010980511;-73.557687;45.513648;52977;6010980428;-73.554566;45.512247;0;41;42;4619223;Bus 30 : Saint-Denis / Saint-Hubert Sud;"";STM;30-S;Station Henri-Bourassa;Amherst / Viger
454844393;"{\"type\":\"LineString\",\"coordinates\":[[-73.5550521,45.5124674],[-73.5549367,45.5124197],[-73.5539966,45.5121143],[-73.5539592,45.5121145],[-73.5538092,45.5121153]]}";5;Rue Berri;1;50;false;true;true;false;false;false;106.0;1;1;0;0;0;false;52906;6010980511;-73.557687;45.513648;52977;6010980428;-73.554566;45.512247;2;41;42;4619223;Bus 30 : Saint-Denis / Saint-Hubert Sud;"";STM;30-S;Station Henri-Bourassa;Amherst / Viger
454844393;"{\"type\":\"LineString\",\"coordinates\":[[-73.5550521,45.5124674],[-73.5549367,45.5124197],[-73.5539966,45.5121143],[-73.5539592,45.5121145],[-73.5538092,45.5121153]]}";1;Rue Berri;1;50;false;true;true;false;false;false;53.0;1;1;0;0;0;false;52977;6010980428;-73.554566;45.512247;60613;6010972100;-73.553269;45.512869;1;42;43;4619223;Bus 30 : Saint-Denis / Saint-Hubert Sud;"";STM;30-S;Station Henri-Bourassa;Amherst / Viger
329796314;"{\"type\":\"LineString\",\"coordinates\":[[-73.5538092,45.5121153],[-73.5537607,45.5121962],[-73.5532798,45.5129978],[-73.5528329,45.5135788],[-73.5524494,45.5140674]]}";2;Rue Saint-Antoine Est;1;50;false;true;true;false;false;false;121.0;3;1;0;0;0;false;52977;6010980428;-73.554566;45.512247;60613;6010972100;-73.553269;45.512869;1;42;43;4619223;Bus 30 : Saint-Denis / Saint-Hubert Sud;"";STM;30-S;Station Henri-Bourassa;Amherst / Viger
329796314;"{\"type\":\"LineString\",\"coordinates\":[[-73.5538092,45.5121153],[-73.5537607,45.5121962],[-73.5532798,45.5129978],[-73.5528329,45.5135788],[-73.5524494,45.5140674]]}";1;Rue Saint-Antoine Est;1;50;false;true;true;false;false;false;121.0;3;1;0;0;0;false;60613;6010972100;-73.553269;45.512869;60614;6010970607;-73.552096;45.515254;1;43;44;4619223;Bus 30 : Saint-Denis / Saint-Hubert Sud;"";STM;30-S;Station Henri-Bourassa;Amherst / Viger
374956189;"{\"type\":\"LineString\",\"coordinates\":[[-73.5524494,45.5140674],[-73.5521155,45.5145489],[-73.5517743,45.5150089]]}";2;Rue Saint-Antoine Est;1;50;false;true;true;false;false;false;118.0;2;0;0;0;0;false;60613;6010972100;-73.553269;45.512869;60614;6010970607;-73.552096;45.515254;0;43;44;4619223;Bus 30 : Saint-Denis / Saint-Hubert Sud;"";STM;30-S;Station Henri-Bourassa;Amherst / Viger
329796315;"{\"type\":\"LineString\",\"coordinates\":[[-73.5517743,45.5150089],[-73.5518712,45.5150608]]}";3;Rue Atateken;2;50;false;false;true;false;false;false;10.0;1;0;0;0;0;false;60613;6010972100;-73.553269;45.512869;60614;6010970607;-73.552096;45.515254;0;43;44;4619223;Bus 30 : Saint-Denis / Saint-Hubert Sud;"";STM;30-S;Station Henri-Bourassa;Amherst / Viger
181866866;"{\"type\":\"LineString\",\"coordinates\":[[-73.5518712,45.5150608],[-73.5522462,45.5152496]]}";4;Rue Atateken;2;50;false;false;true;false;false;false;37.0;0;0;0;0;0;false;60613;6010972100;-73.553269;45.512869;60614;6010970607;-73.552096;45.515254;1;43;44;4619223;Bus 30 : Saint-Denis / Saint-Hubert Sud;"";STM;30-S;Station Henri-Bourassa;Amherst / Viger
