way_id;shape;index;name;nb_lanes;legal_speed;speed_zone_30;oneway;shares_bike;bike_box;bus_lane;dedicated_bus_lane;length;nb_traffic_signals;nb_crossings;nb_stops;nb_give_ways;nb_lvl_crossings;roundabout;stop_id_orig;node_id_orig;coord_x_orig;coord_y_orig;stop_id_dest;node_id_dest;coord_x_dest;coord_y_dest;nb_neighbouring_ways_bus_stop;ordre_orig;ordre_dest;id_line;line_name;colour;operator;ref;from;to
680744998;"{\"type\":\"LineString\",\"coordinates\":[[-73.6686291,45.5547181],[-73.6687585,45.5545094]]}";1;Boulevard Henri-Bourassa Est;3;50;false;true;true;false;false;false;26.0;1;0;0;0;0;false;84657;6129483669;-73.668832;45.554709;84650;6129483670;-73.661926;45.562788;1;0;1;9447768;Bus 25 : TERMINUS TERREBONNE;"";EXO;25 N;Terminus Henri-Bourassa;Terminus Terrebonne
460561577;"{\"type\":\"LineString\",\"coordinates\":[[-73.6687585,45.5545094],[-73.6685353,45.5544473]]}";2;Rue Berri;2;50;false;true;false;false;false;false;19.0;2;0;0;0;0;false;84657;6129483669;-73.668832;45.554709;84650;6129483670;-73.661926;45.562788;0;0;1;9447768;Bus 25 : TERMINUS TERREBONNE;"";EXO;25 N;Terminus Henri-Bourassa;Terminus Terrebonne
607076616;"{\"type\":\"LineString\",\"coordinates\":[[-73.6685353,45.5544473],[-73.6683093,45.5548502],[-73.6681526,45.5551297],[-73.668112,45.5552021]]}";3;Boulevard Henri-Bourassa Est;3;50;false;true;true;false;false;false;91.0;2;1;0;0;0;false;84657;6129483669;-73.668832;45.554709;84650;6129483670;-73.661926;45.562788;0;0;1;9447768;Bus 25 : TERMINUS TERREBONNE;"";EXO;25 N;Terminus Henri-Bourassa;Terminus Terrebonne
460561575;"{\"type\":\"LineString\",\"coordinates\":[[-73.668112,45.5552021],[-73.6680741,45.555268],[-73.6679619,45.555463],[-73.6677031,45.555913],[-73.6673629,45.5565046],[-73.6673252,45.5565701]]}";4;Boulevard Henri-Bourassa Est;3;50;false;true;true;false;false;false;164.0;2;2;0;0;0;false;84657;6129483669;-73.668832;45.554709;84650;6129483670;-73.661926;45.562788;0;0;1;9447768;Bus 25 : TERMINUS TERREBONNE;"";EXO;25 N;Terminus Henri-Bourassa;Terminus Terrebonne
607079705;"{\"type\":\"LineString\",\"coordinates\":[[-73.6673252,45.5565701],[-73.6672641,45.556694]]}";5;Boulevard Henri-Bourassa Est;3;50;false;true;true;false;false;false;15.0;2;0;0;0;0;false;84657;6129483669;-73.668832;45.554709;84650;6129483670;-73.661926;45.562788;0;0;1;9447768;Bus 25 : TERMINUS TERREBONNE;"";EXO;25 N;Terminus Henri-Bourassa;Terminus Terrebonne
18562834;"{\"type\":\"LineString\",\"coordinates\":[[-73.6672641,45.556694],[-73.6672573,45.5567257],[-73.6672024,45.5569526],[-73.6671924,45.5571544],[-73.6672015,45.5573201],[-73.6672016,45.557437],[-73.6672017,45.5577511],[-73.667168,45.5580414],[-73.667071,45.558251],[-73.6670392,45.5583198]]}";6;Boulevard Henri-Bourassa Est;3;50;false;true;true;false;false;false;183.0;2;1;0;0;0;false;84657;6129483669;-73.668832;45.554709;84650;6129483670;-73.661926;45.562788;0;0;1;9447768;Bus 25 : TERMINUS TERREBONNE;"";EXO;25 N;Terminus Henri-Bourassa;Terminus Terrebonne
311420893;"{\"type\":\"LineString\",\"coordinates\":[[-73.6670392,45.5583198],[-73.6665235,45.559035],[-73.6660507,45.5596908],[-73.6655916,45.5603275],[-73.6655683,45.5603598]]}";7;Boulevard Henri-Bourassa Est;3;50;false;true;true;false;false;false;254.0;2;0;0;0;0;false;84657;6129483669;-73.668832;45.554709;84650;6129483670;-73.661926;45.562788;0;0;1;9447768;Bus 25 : TERMINUS TERREBONNE;"";EXO;25 N;Terminus Henri-Bourassa;Terminus Terrebonne
452268400;"{\"type\":\"LineString\",\"coordinates\":[[-73.6655683,45.5603598],[-73.6651495,45.5609214],[-73.6651202,45.5609607],[-73.6646306,45.5616173],[-73.6646004,45.5616577]]}";8;Boulevard Henri-Bourassa Est;3;50;false;true;true;false;false;false;163.0;2;0;0;0;0;false;84657;6129483669;-73.668832;45.554709;84650;6129483670;-73.661926;45.562788;0;0;1;9447768;Bus 25 : TERMINUS TERREBONNE;"";EXO;25 N;Terminus Henri-Bourassa;Terminus Terrebonne
452267144;"{\"type\":\"LineString\",\"coordinates\":[[-73.6646004,45.5616577],[-73.6645841,45.5616647],[-73.6643919,45.5617803],[-73.664147,45.5618862],[-73.6635448,45.5621109],[-73.6629308,45.5623148],[-73.6624084,45.5625063],[-73.6623694,45.5625242],[-73.6622979,45.5625571]]}";9;Boulevard Henri-Bourassa Est;3;50;false;true;true;false;false;false;207.0;1;0;0;0;0;false;84657;6129483669;-73.668832;45.554709;84650;6129483670;-73.661926;45.562788;0;0;1;9447768;Bus 25 : TERMINUS TERREBONNE;"";EXO;25 N;Terminus Henri-Bourassa;Terminus Terrebonne
460561552;"{\"type\":\"LineString\",\"coordinates\":[[-73.6622979,45.5625571],[-73.6620234,45.5628087],[-73.6618007,45.5632638],[-73.6614168,45.5639852]]}";10;Boulevard Henri-Bourassa Est;3;50;false;true;true;false;false;false;87.5;0;0;0;0;0;false;84657;6129483669;-73.668832;45.554709;84650;6129483670;-73.661926;45.562788;1;0;1;9447768;Bus 25 : TERMINUS TERREBONNE;"";EXO;25 N;Terminus Henri-Bourassa;Terminus Terrebonne
460561552;"{\"type\":\"LineString\",\"coordinates\":[[-73.6622979,45.5625571],[-73.6620234,45.5628087],[-73.6618007,45.5632638],[-73.6614168,45.5639852]]}";1;Boulevard Henri-Bourassa Est;3;50;false;true;true;false;false;false;87.5;0;0;0;0;0;false;84650;6129483670;-73.661926;45.562788;84631;6129483678;-73.6598;45.567145;1;1;2;9447768;Bus 25 : TERMINUS TERREBONNE;"";EXO;25 N;Terminus Henri-Bourassa;Terminus Terrebonne
460561551;"{\"type\":\"LineString\",\"coordinates\":[[-73.6614168,45.5639852],[-73.6611083,45.5646332],[-73.6608077,45.5652646],[-73.6607793,45.5653242]]}";2;Boulevard Henri-Bourassa Est;3;50;false;true;true;false;false;false;157.0;1;0;0;0;0;false;84650;6129483670;-73.661926;45.562788;84631;6129483678;-73.6598;45.567145;0;1;2;9447768;Bus 25 : TERMINUS TERREBONNE;"";EXO;25 N;Terminus Henri-Bourassa;Terminus Terrebonne
460561538;"{\"type\":\"LineString\",\"coordinates\":[[-73.6607793,45.5653242],[-73.6601473,45.5666523],[-73.6599042,45.5672141],[-73.6597761,45.5675723],[-73.6597373,45.5676584]]}";3;Boulevard Henri-Bourassa Est;3;50;false;true;true;false;false;false;136.0;1;0;0;0;0;false;84650;6129483670;-73.661926;45.562788;84631;6129483678;-73.6598;45.567145;1;1;2;9447768;Bus 25 : TERMINUS TERREBONNE;"";EXO;25 N;Terminus Henri-Bourassa;Terminus Terrebonne
460561538;"{\"type\":\"LineString\",\"coordinates\":[[-73.6607793,45.5653242],[-73.6601473,45.5666523],[-73.6599042,45.5672141],[-73.6597761,45.5675723],[-73.6597373,45.5676584]]}";1;Boulevard Henri-Bourassa Est;3;50;false;true;true;false;false;false;136.0;1;0;0;0;0;false;84631;6129483678;-73.6598;45.567145;84633;6129483676;-73.656789;45.57302;1;2;3;9447768;Bus 25 : TERMINUS TERREBONNE;"";EXO;25 N;Terminus Henri-Bourassa;Terminus Terrebonne
436682108;"{\"type\":\"LineString\",\"coordinates\":[[-73.6597373,45.5676584],[-73.6594847,45.5681617],[-73.6587163,45.5696888],[-73.658532,45.5700551],[-73.6584781,45.5701494]]}";2;Boulevard Henri-Bourassa Est;3;50;false;true;true;false;false;false;294.0;1;0;0;0;0;false;84631;6129483678;-73.6598;45.567145;84633;6129483676;-73.656789;45.57302;0;2;3;9447768;Bus 25 : TERMINUS TERREBONNE;"";EXO;25 N;Terminus Henri-Bourassa;Terminus Terrebonne
436682107;"{\"type\":\"LineString\",\"coordinates\":[[-73.6584781,45.5701494],[-73.6584129,45.5702881]]}";3;Boulevard Henri-Bourassa Est;3;50;false;true;true;false;false;false;17.0;0;0;0;0;0;false;84631;6129483678;-73.6598;45.567145;84633;6129483676;-73.656789;45.57302;0;2;3;9447768;Bus 25 : TERMINUS TERREBONNE;"";EXO;25 N;Terminus Henri-Bourassa;Terminus Terrebonne
460561514;"{\"type\":\"LineString\",\"coordinates\":[[-73.6584129,45.5702881],[-73.6578078,45.5713289],[-73.65744,45.5719959]]}";4;Boulevard Henri-Bourassa Est;3;50;false;true;true;false;false;false;205.0;0;1;0;0;0;false;84631;6129483678;-73.6598;45.567145;84633;6129483676;-73.656789;45.57302;0;2;3;9447768;Bus 25 : TERMINUS TERREBONNE;"";EXO;25 N;Terminus Henri-Bourassa;Terminus Terrebonne
461097294;"{\"type\":\"LineString\",\"coordinates\":[[-73.65744,45.5719959],[-73.6570616,45.5727226],[-73.6570267,45.5727895]]}";5;Boulevard Henri-Bourassa Est;3;50;false;true;true;false;false;false;94.0;1;0;0;0;0;false;84631;6129483678;-73.6598;45.567145;84633;6129483676;-73.656789;45.57302;0;2;3;9447768;Bus 25 : TERMINUS TERREBONNE;"";EXO;25 N;Terminus Henri-Bourassa;Terminus Terrebonne
461097295;"{\"type\":\"LineString\",\"coordinates\":[[-73.6570267,45.5727895],[-73.6566543,45.5735405],[-73.6566194,45.5736259]]}";6;Boulevard Henri-Bourassa Est;3;50;false;true;true;false;false;false;49.5;1;0;0;0;0;false;84631;6129483678;-73.6598;45.567145;84633;6129483676;-73.656789;45.57302;1;2;3;9447768;Bus 25 : TERMINUS TERREBONNE;"";EXO;25 N;Terminus Henri-Bourassa;Terminus Terrebonne
461097295;"{\"type\":\"LineString\",\"coordinates\":[[-73.6570267,45.5727895],[-73.6566543,45.5735405],[-73.6566194,45.5736259]]}";1;Boulevard Henri-Bourassa Est;3;50;false;true;true;false;false;false;49.5;1;0;0;0;0;false;84633;6129483676;-73.656789;45.57302;84670;6129483665;-73.650467;45.582839;1;3;4;9447768;Bus 25 : TERMINUS TERREBONNE;"";EXO;25 N;Terminus Henri-Bourassa;Terminus Terrebonne
588096972;"{\"type\":\"LineString\",\"coordinates\":[[-73.6566194,45.5736259],[-73.6564207,45.5739729],[-73.6561565,45.5743436]]}";2;Boulevard Henri-Bourassa Est;3;50;false;true;true;false;false;false;88.0;0;0;0;0;0;false;84633;6129483676;-73.656789;45.57302;84670;6129483665;-73.650467;45.582839;0;3;4;9447768;Bus 25 : TERMINUS TERREBONNE;"";EXO;25 N;Terminus Henri-Bourassa;Terminus Terrebonne
317988203;"{\"type\":\"LineString\",\"coordinates\":[[-73.6561565,45.5743436],[-73.6557535,45.574875],[-73.6553289,45.5754349],[-73.654866,45.5760453],[-73.6544697,45.5765679],[-73.6544068,45.5766508],[-73.6539408,45.5772653],[-73.653397,45.5779824]]}";3;Boulevard Henri-Bourassa Est;3;50;false;true;true;false;false;false;458.0;1;0;0;0;0;false;84633;6129483676;-73.656789;45.57302;84670;6129483665;-73.650467;45.582839;0;3;4;9447768;Bus 25 : TERMINUS TERREBONNE;"";EXO;25 N;Terminus Henri-Bourassa;Terminus Terrebonne
460561525;"{\"type\":\"LineString\",\"coordinates\":[[-73.653397,45.5779824],[-73.6531659,45.5782766],[-73.6528827,45.5786344],[-73.6524459,45.5791961],[-73.6523523,45.5793282]]}";4;Boulevard Henri-Bourassa Est;3;50;false;true;true;false;false;false;171.0;1;0;0;0;0;false;84633;6129483676;-73.656789;45.57302;84670;6129483665;-73.650467;45.582839;0;3;4;9447768;Bus 25 : TERMINUS TERREBONNE;"";EXO;25 N;Terminus Henri-Bourassa;Terminus Terrebonne
588286864;"{\"type\":\"LineString\",\"coordinates\":[[-73.6523523,45.5793282],[-73.6521174,45.5797117],[-73.6518778,45.5800985]]}";5;Boulevard Henri-Bourassa Est;3;50;false;true;true;false;false;false;94.0;0;0;0;0;0;false;84633;6129483676;-73.656789;45.57302;84670;6129483665;-73.650467;45.582839;0;3;4;9447768;Bus 25 : TERMINUS TERREBONNE;"";EXO;25 N;Terminus Henri-Bourassa;Terminus Terrebonne
460942364;"{\"type\":\"LineString\",\"coordinates\":[[-73.6518778,45.5800985],[-73.6515082,45.5806959],[-73.6514517,45.5808094]]}";6;Boulevard Henri-Bourassa Est;3;50;false;true;true;false;false;false;86.0;1;0;0;0;0;false;84633;6129483676;-73.656789;45.57302;84670;6129483665;-73.650467;45.582839;0;3;4;9447768;Bus 25 : TERMINUS TERREBONNE;"";EXO;25 N;Terminus Henri-Bourassa;Terminus Terrebonne
460942363;"{\"type\":\"LineString\",\"coordinates\":[[-73.6514517,45.5808094],[-73.651087,45.5815537]]}";7;Boulevard Henri-Bourassa Est;3;50;false;true;true;false;false;false;88.0;0;0;0;0;0;false;84633;6129483676;-73.656789;45.57302;84670;6129483665;-73.650467;45.582839;0;3;4;9447768;Bus 25 : TERMINUS TERREBONNE;"";EXO;25 N;Terminus Henri-Bourassa;Terminus Terrebonne
607076170;"{\"type\":\"LineString\",\"coordinates\":[[-73.651087,45.5815537],[-73.6508244,45.5822095]]}";8;Boulevard Henri-Bourassa Est;3;50;false;true;true;false;false;false;76.0;0;0;0;0;0;false;84633;6129483676;-73.656789;45.57302;84670;6129483665;-73.650467;45.582839;0;3;4;9447768;Bus 25 : TERMINUS TERREBONNE;"";EXO;25 N;Terminus Henri-Bourassa;Terminus Terrebonne
460561528;"{\"type\":\"LineString\",\"coordinates\":[[-73.6508244,45.5822095],[-73.6506897,45.5825928],[-73.650527,45.583056],[-73.6502302,45.5837298]]}";9;Boulevard Henri-Bourassa Est;3;50;false;true;true;false;false;false;88.0;1;0;0;0;0;false;84633;6129483676;-73.656789;45.57302;84670;6129483665;-73.650467;45.582839;1;3;4;9447768;Bus 25 : TERMINUS TERREBONNE;"";EXO;25 N;Terminus Henri-Bourassa;Terminus Terrebonne
460561528;"{\"type\":\"LineString\",\"coordinates\":[[-73.6508244,45.5822095],[-73.6506897,45.5825928],[-73.650527,45.583056],[-73.6502302,45.5837298]]}";1;Boulevard Henri-Bourassa Est;3;50;false;true;true;false;false;false;88.0;1;0;0;0;0;false;84670;6129483665;-73.650467;45.582839;84635;6129483674;-73.647253;45.589811;1;4;5;9447768;Bus 25 : TERMINUS TERREBONNE;"";EXO;25 N;Terminus Henri-Bourassa;Terminus Terrebonne
453265898;"{\"type\":\"LineString\",\"coordinates\":[[-73.6502302,45.5837298],[-73.6501661,45.5838918]]}";2;Boulevard Henri-Bourassa Est;3;50;false;true;true;false;false;false;19.0;2;0;0;0;0;false;84670;6129483665;-73.650467;45.582839;84635;6129483674;-73.647253;45.589811;0;4;5;9447768;Bus 25 : TERMINUS TERREBONNE;"";EXO;25 N;Terminus Henri-Bourassa;Terminus Terrebonne
453265895;"{\"type\":\"LineString\",\"coordinates\":[[-73.6501661,45.5838918],[-73.6494975,45.5854811],[-73.6491276,45.5863695],[-73.6487548,45.587304],[-73.6484012,45.587993],[-73.6480337,45.5886605],[-73.6476557,45.5893401],[-73.6472721,45.589934],[-73.6467756,45.5905331],[-73.6462485,45.5911551],[-73.6458127,45.5916938],[-73.6453239,45.5923015],[-73.6448804,45.5928616],[-73.6444423,45.5934028],[-73.6439519,45.5940143],[-73.6437188,45.5943076],[-73.6436579,45.5943841],[-73.6426759,45.5955477],[-73.6425328,45.5957277]]}";3;Boulevard Henri-Bourassa Est;3;50;false;true;true;false;false;false;725.5;3;0;0;0;0;false;84670;6129483665;-73.650467;45.582839;84635;6129483674;-73.647253;45.589811;1;4;5;9447768;Bus 25 : TERMINUS TERREBONNE;"";EXO;25 N;Terminus Henri-Bourassa;Terminus Terrebonne
453265895;"{\"type\":\"LineString\",\"coordinates\":[[-73.6501661,45.5838918],[-73.6494975,45.5854811],[-73.6491276,45.5863695],[-73.6487548,45.587304],[-73.6484012,45.587993],[-73.6480337,45.5886605],[-73.6476557,45.5893401],[-73.6472721,45.589934],[-73.6467756,45.5905331],[-73.6462485,45.5911551],[-73.6458127,45.5916938],[-73.6453239,45.5923015],[-73.6448804,45.5928616],[-73.6444423,45.5934028],[-73.6439519,45.5940143],[-73.6437188,45.5943076],[-73.6436579,45.5943841],[-73.6426759,45.5955477],[-73.6425328,45.5957277]]}";1;Boulevard Henri-Bourassa Est;3;50;false;true;true;false;false;false;725.5;3;0;0;0;0;false;84668;6129483667;-73.64441;45.593265;84671;6129483664;-73.640613;45.595008;1;6;7;9447768;Bus 25 : TERMINUS TERREBONNE;"";EXO;25 N;Terminus Henri-Bourassa;Terminus Terrebonne
468708395;"{\"type\":\"LineString\",\"coordinates\":[[-73.6425328,45.5957277],[-73.6424251,45.595848]]}";2;Boulevard Henri-Bourassa Est;3;50;false;true;true;false;false;false;16.0;2;0;0;0;0;false;84668;6129483667;-73.64441;45.593265;84671;6129483664;-73.640613;45.595008;0;6;7;9447768;Bus 25 : TERMINUS TERREBONNE;"";EXO;25 N;Terminus Henri-Bourassa;Terminus Terrebonne
680744997;"{\"type\":\"LineString\",\"coordinates\":[[-73.6424251,45.595848],[-73.6423231,45.5959734],[-73.6419808,45.5963944]]}";3;Boulevard Henri-Bourassa Est;1;50;false;true;true;false;false;false;70.0;1;0;0;0;0;false;84668;6129483667;-73.64441;45.593265;84671;6129483664;-73.640613;45.595008;0;6;7;9447768;Bus 25 : TERMINUS TERREBONNE;"";EXO;25 N;Terminus Henri-Bourassa;Terminus Terrebonne
680744996;"{\"type\":\"LineString\",\"coordinates\":[[-73.6419808,45.5963944],[-73.6404444,45.5949621]]}";4;Avenue Saint-Julien;1;50;false;true;true;false;false;false;100.0;0;0;0;0;0;false;84668;6129483667;-73.64441;45.593265;84671;6129483664;-73.640613;45.595008;1;6;7;9447768;Bus 25 : TERMINUS TERREBONNE;"";EXO;25 N;Terminus Henri-Bourassa;Terminus Terrebonne
560711166;"{\"type\":\"LineString\",\"coordinates\":[[-73.6386336,45.5958667],[-73.6392438,45.5955618],[-73.6398601,45.595254],[-73.6404444,45.5949621]]}";1;Rue D'Amos;1;50;false;false;true;false;false;false;174.0;0;0;0;0;0;false;84671;6129483664;-73.640613;45.595008;84672;6129483663;-73.640553;45.597779;2;7;8;9447768;Bus 25 : TERMINUS TERREBONNE;"";EXO;25 N;Terminus Henri-Bourassa;Terminus Terrebonne
680744995;"{\"type\":\"LineString\",\"coordinates\":[[-73.6386336,45.5958667],[-73.6407451,45.59787]]}";2;Avenue Garon;1;50;false;false;true;false;false;false;277.0;0;0;0;0;0;false;84671;6129483664;-73.640613;45.595008;84672;6129483663;-73.640553;45.597779;2;7;8;9447768;Bus 25 : TERMINUS TERREBONNE;"";EXO;25 N;Terminus Henri-Bourassa;Terminus Terrebonne
575467394;"{\"type\":\"LineString\",\"coordinates\":[[-73.6407451,45.59787],[-73.640922,45.5980227]]}";1;Avenue Garon;1;50;false;false;true;false;false;false;22.0;0;0;0;0;0;false;84672;6129483663;-73.640553;45.597779;84393;6129484558;-73.651144;45.603853;2;8;9;9447768;Bus 25 : TERMINUS TERREBONNE;"";EXO;25 N;Terminus Henri-Bourassa;Terminus Terrebonne
237846322;"{\"type\":\"LineString\",\"coordinates\":[[-73.640922,45.5980227],[-73.6413364,45.5975157],[-73.641533,45.5972714]]}";2;Boulevard Henri-Bourassa Est;1;50;false;true;true;false;false;false;97.0;0;0;0;0;0;false;84672;6129483663;-73.640553;45.597779;84393;6129484558;-73.651144;45.603853;0;8;9;9447768;Bus 25 : TERMINUS TERREBONNE;"";EXO;25 N;Terminus Henri-Bourassa;Terminus Terrebonne
30176401;"{\"type\":\"LineString\",\"coordinates\":[[-73.641533,45.5972714],[-73.641615,45.5972144],[-73.6416808,45.5971697],[-73.6417843,45.5971143],[-73.6418453,45.5970873],[-73.6419151,45.5970563],[-73.6420549,45.5970368],[-73.6422173,45.5970256],[-73.6423851,45.596999],[-73.6425987,45.5969302],[-73.642877,45.5968479],[-73.6430025,45.5968102],[-73.6430739,45.5967991],[-73.6431882,45.5967952],[-73.6432848,45.5968072],[-73.6433567,45.5968269],[-73.6434249,45.5968439],[-73.6436967,45.5969954]]}";3;"";1;50;false;true;false;false;false;false;190.0;0;0;0;0;0;false;84672;6129483663;-73.640553;45.597779;84393;6129484558;-73.651144;45.603853;0;8;9;9447768;Bus 25 : TERMINUS TERREBONNE;"";EXO;25 N;Terminus Henri-Bourassa;Terminus Terrebonne
376874058;"{\"type\":\"LineString\",\"coordinates\":[[-73.6436967,45.5969954],[-73.6440982,45.5973637],[-73.6443106,45.59754],[-73.6445729,45.5977429],[-73.6460424,45.5986813]]}";4;Pont Pie-IX;3;50;false;true;false;false;false;false;263.0;0;0;0;0;0;false;84672;6129483663;-73.640553;45.597779;84393;6129484558;-73.651144;45.603853;0;8;9;9447768;Bus 25 : TERMINUS TERREBONNE;"";EXO;25 N;Terminus Henri-Bourassa;Terminus Terrebonne
622991911;"{\"type\":\"LineString\",\"coordinates\":[[-73.6460424,45.5986813],[-73.6490065,45.6006688]]}";5;Pont Pie-IX;3;80;false;true;false;false;false;false;320.0;0;0;0;0;0;false;84672;6129483663;-73.640553;45.597779;84393;6129484558;-73.651144;45.603853;0;8;9;9447768;Bus 25 : TERMINUS TERREBONNE;"";EXO;25 N;Terminus Henri-Bourassa;Terminus Terrebonne
678635372;"{\"type\":\"LineString\",\"coordinates\":[[-73.6490065,45.6006688],[-73.6494006,45.6009193],[-73.649599,45.6010568]]}";6;Boulevard Pie-IX;1;80;false;true;false;false;false;false;64.0;0;0;0;0;0;false;84672;6129483663;-73.640553;45.597779;84393;6129484558;-73.651144;45.603853;0;8;9;9447768;Bus 25 : TERMINUS TERREBONNE;"";EXO;25 N;Terminus Henri-Bourassa;Terminus Terrebonne
29156508;"{\"type\":\"LineString\",\"coordinates\":[[-73.649599,45.6010568],[-73.6501095,45.6015652],[-73.650277,45.601793],[-73.6503324,45.6020012],[-73.6503417,45.6033406],[-73.6503715,45.6034665]]}";7;"";1;50;false;true;false;false;false;false;284.0;0;0;0;0;0;false;84672;6129483663;-73.640553;45.597779;84393;6129484558;-73.651144;45.603853;0;8;9;9447768;Bus 25 : TERMINUS TERREBONNE;"";EXO;25 N;Terminus Henri-Bourassa;Terminus Terrebonne
488475375;"{\"type\":\"LineString\",\"coordinates\":[[-73.6503715,45.6034665],[-73.6505219,45.6036503],[-73.6506943,45.6037957]]}";8;"";1;50;false;true;false;false;false;false;45.0;1;0;0;0;0;false;84672;6129483663;-73.640553;45.597779;84393;6129484558;-73.651144;45.603853;0;8;9;9447768;Bus 25 : TERMINUS TERREBONNE;"";EXO;25 N;Terminus Henri-Bourassa;Terminus Terrebonne
29156490;"{\"type\":\"LineString\",\"coordinates\":[[-73.6508189,45.6039037],[-73.6506943,45.6037957]]}";9;Boulevard Vanier;1;50;false;false;true;false;false;false;16.0;2;0;0;0;0;false;84672;6129483663;-73.640553;45.597779;84393;6129484558;-73.651144;45.603853;0;8;9;9447768;Bus 25 : TERMINUS TERREBONNE;"";EXO;25 N;Terminus Henri-Bourassa;Terminus Terrebonne
680744992;"{\"type\":\"LineString\",\"coordinates\":[[-73.6508189,45.6039037],[-73.6512173,45.6036981]]}";10;Boulevard de la Concorde Est;1;50;false;true;true;false;false;false;39.0;1;0;0;0;0;false;84672;6129483663;-73.640553;45.597779;84393;6129484558;-73.651144;45.603853;2;8;9;9447768;Bus 25 : TERMINUS TERREBONNE;"";EXO;25 N;Terminus Henri-Bourassa;Terminus Terrebonne
45797851;"{\"type\":\"LineString\",\"coordinates\":[[-73.6512173,45.6036981],[-73.6514805,45.6035676],[-73.651905,45.6035096],[-73.6521992,45.6035401],[-73.6524033,45.6035875]]}";1;"";1;50;false;true;false;false;false;false;99.0;0;0;0;0;0;false;84393;6129484558;-73.651144;45.603853;84936;6129482276;-73.650114;45.692142;2;9;10;9447768;Bus 25 : TERMINUS TERREBONNE;"";EXO;25 N;Terminus Henri-Bourassa;Terminus Terrebonne
45797876;"{\"type\":\"LineString\",\"coordinates\":[[-73.6524033,45.6035875],[-73.6526451,45.6036623],[-73.6529365,45.6038098],[-73.6533121,45.6040509],[-73.6538298,45.6044693]]}";2;"";1;50;false;true;false;false;false;false;150.0;0;0;0;0;0;false;84393;6129484558;-73.651144;45.603853;84936;6129482276;-73.650114;45.692142;0;9;10;9447768;Bus 25 : TERMINUS TERREBONNE;"";EXO;25 N;Terminus Henri-Bourassa;Terminus Terrebonne
680744991;"{\"type\":\"LineString\",\"coordinates\":[[-73.6538298,45.6044693],[-73.6549867,45.6055637]]}";3;Boulevard Pie-IX;1;80;false;true;false;false;false;false;152.0;0;0;0;0;0;false;84393;6129484558;-73.651144;45.603853;84936;6129482276;-73.650114;45.692142;0;9;10;9447768;Bus 25 : TERMINUS TERREBONNE;"";EXO;25 N;Terminus Henri-Bourassa;Terminus Terrebonne
546059663;"{\"type\":\"LineString\",\"coordinates\":[[-73.6549867,45.6055637],[-73.6556623,45.6061912]]}";4;Boulevard Pie-IX;1;80;false;true;true;false;false;false;88.0;0;0;0;0;0;false;84393;6129484558;-73.651144;45.603853;84936;6129482276;-73.650114;45.692142;0;9;10;9447768;Bus 25 : TERMINUS TERREBONNE;"";EXO;25 N;Terminus Henri-Bourassa;Terminus Terrebonne
459524117;"{\"type\":\"LineString\",\"coordinates\":[[-73.6556623,45.6061912],[-73.6573728,45.6077373],[-73.6574576,45.6078055]]}";5;Boulevard Pie-IX;1;80;false;true;false;false;false;false;228.0;0;0;0;0;0;false;84393;6129484558;-73.651144;45.603853;84936;6129482276;-73.650114;45.692142;0;9;10;9447768;Bus 25 : TERMINUS TERREBONNE;"";EXO;25 N;Terminus Henri-Bourassa;Terminus Terrebonne
459524118;"{\"type\":\"LineString\",\"coordinates\":[[-73.6574576,45.6078055],[-73.6609892,45.6108452],[-73.6620029,45.611716]]}";6;Boulevard Pie-IX;1;80;false;true;false;false;false;false;561.0;0;0;0;0;0;false;84393;6129484558;-73.651144;45.603853;84936;6129482276;-73.650114;45.692142;0;9;10;9447768;Bus 25 : TERMINUS TERREBONNE;"";EXO;25 N;Terminus Henri-Bourassa;Terminus Terrebonne
258700564;"{\"type\":\"LineString\",\"coordinates\":[[-73.6620029,45.611716],[-73.6628655,45.6124254],[-73.663016,45.6125492]]}";7;Boulevard Pie-IX;1;80;false;true;false;false;false;false;122.0;0;0;0;0;0;false;84393;6129484558;-73.651144;45.603853;84936;6129482276;-73.650114;45.692142;0;9;10;9447768;Bus 25 : TERMINUS TERREBONNE;"";EXO;25 N;Terminus Henri-Bourassa;Terminus Terrebonne
37956725;"{\"type\":\"LineString\",\"coordinates\":[[-73.663016,45.6125492],[-73.6637843,45.6132111]]}";8;Boulevard Pie-IX;1;80;false;true;false;false;false;false;95.0;0;0;0;0;0;false;84393;6129484558;-73.651144;45.603853;84936;6129482276;-73.650114;45.692142;0;9;10;9447768;Bus 25 : TERMINUS TERREBONNE;"";EXO;25 N;Terminus Henri-Bourassa;Terminus Terrebonne
37956726;"{\"type\":\"LineString\",\"coordinates\":[[-73.6637843,45.6132111],[-73.6657019,45.6150934]]}";9;Boulevard Pie-IX;1;80;false;true;false;false;false;false;257.0;0;0;0;0;0;false;84393;6129484558;-73.651144;45.603853;84936;6129482276;-73.650114;45.692142;0;9;10;9447768;Bus 25 : TERMINUS TERREBONNE;"";EXO;25 N;Terminus Henri-Bourassa;Terminus Terrebonne
488464878;"{\"type\":\"LineString\",\"coordinates\":[[-73.6657019,45.6150934],[-73.6663954,45.615907],[-73.6664719,45.6160121],[-73.6665094,45.6161174],[-73.6665155,45.6162492]]}";10;"";1;50;false;true;true;false;false;false;146.0;0;0;0;0;0;false;84393;6129484558;-73.651144;45.603853;84936;6129482276;-73.650114;45.692142;0;9;10;9447768;Bus 25 : TERMINUS TERREBONNE;"";EXO;25 N;Terminus Henri-Bourassa;Terminus Terrebonne
32637120;"{\"type\":\"LineString\",\"coordinates\":[[-73.6665155,45.6162492],[-73.6664555,45.6165854],[-73.6659322,45.6182671],[-73.665758,45.6189289],[-73.6656625,45.6191388],[-73.6654713,45.6193618],[-73.6648397,45.6200069]]}";11;"";1;50;false;true;true;false;false;false;444.0;0;0;0;0;0;false;84393;6129484558;-73.651144;45.603853;84936;6129482276;-73.650114;45.692142;0;9;10;9447768;Bus 25 : TERMINUS TERREBONNE;"";EXO;25 N;Terminus Henri-Bourassa;Terminus Terrebonne
375975910;"{\"type\":\"LineString\",\"coordinates\":[[-73.6648397,45.6200069],[-73.6642934,45.620482],[-73.6637051,45.6210355],[-73.6631525,45.6216122]]}";12;"";1;70;false;true;true;false;false;false;222.0;0;0;0;0;0;false;84393;6129484558;-73.651144;45.603853;84936;6129482276;-73.650114;45.692142;0;9;10;9447768;Bus 25 : TERMINUS TERREBONNE;"";EXO;25 N;Terminus Henri-Bourassa;Terminus Terrebonne
692476663;"{\"type\":\"LineString\",\"coordinates\":[[-73.6631525,45.6216122],[-73.662475,45.6223216],[-73.6620347,45.6229538],[-73.6617827,45.6233019],[-73.6610112,45.624454]]}";13;"";1;50;false;true;true;false;false;false;358.0;0;0;0;0;0;false;84393;6129484558;-73.651144;45.603853;84936;6129482276;-73.650114;45.692142;0;9;10;9447768;Bus 25 : TERMINUS TERREBONNE;"";EXO;25 N;Terminus Henri-Bourassa;Terminus Terrebonne
692476666;"{\"type\":\"LineString\",\"coordinates\":[[-73.6610112,45.624454],[-73.6606264,45.6249744],[-73.6604735,45.625147],[-73.6602402,45.6253946],[-73.6599961,45.625706],[-73.6598244,45.6259817],[-73.6597225,45.6262293],[-73.6596179,45.6265163],[-73.6594785,45.6268663]]}";14;"";1;50;false;true;true;false;false;false;296.0;0;0;0;0;0;false;84393;6129484558;-73.651144;45.603853;84936;6129482276;-73.650114;45.692142;0;9;10;9447768;Bus 25 : TERMINUS TERREBONNE;"";EXO;25 N;Terminus Henri-Bourassa;Terminus Terrebonne
692476662;"{\"type\":\"LineString\",\"coordinates\":[[-73.6594785,45.6268663],[-73.6593304,45.6271616],[-73.6583875,45.6285662],[-73.6579525,45.6293068]]}";15;"";1;50;false;true;true;false;false;false;297.0;0;0;0;0;0;false;84393;6129484558;-73.651144;45.603853;84936;6129482276;-73.650114;45.692142;0;9;10;9447768;Bus 25 : TERMINUS TERREBONNE;"";EXO;25 N;Terminus Henri-Bourassa;Terminus Terrebonne
116598394;"{\"type\":\"LineString\",\"coordinates\":[[-73.6579525,45.6293068],[-73.657827,45.629491],[-73.654643,45.634019],[-73.6529337,45.6364418],[-73.650769,45.63951],[-73.6492742,45.6416293]]}";16;Autoroute Jean-Noël-Lavoie;2;100;false;true;true;false;false;false;1527.0;0;0;0;0;0;false;84393;6129484558;-73.651144;45.603853;84936;6129482276;-73.650114;45.692142;0;9;10;9447768;Bus 25 : TERMINUS TERREBONNE;"";EXO;25 N;Terminus Henri-Bourassa;Terminus Terrebonne
119082396;"{\"type\":\"LineString\",\"coordinates\":[[-73.6492742,45.6416293],[-73.647504,45.6441383],[-73.647073,45.644888],[-73.6468152,45.6454979],[-73.6462863,45.6470237],[-73.6456607,45.6492745],[-73.6454558,45.6500313],[-73.6453658,45.6505748],[-73.6453093,45.6513918]]}";17;Autoroute Jean-Noël-Lavoie;2;100;false;true;true;false;false;false;1138.0;0;0;0;0;0;false;84393;6129484558;-73.651144;45.603853;84936;6129482276;-73.650114;45.692142;0;9;10;9447768;Bus 25 : TERMINUS TERREBONNE;"";EXO;25 N;Terminus Henri-Bourassa;Terminus Terrebonne
119082395;"{\"type\":\"LineString\",\"coordinates\":[[-73.6453093,45.6513918],[-73.645308,45.6521177]]}";18;Autoroute Jean-Noël-Lavoie;2;100;false;true;true;false;false;false;81.0;0;0;0;0;0;false;84393;6129484558;-73.651144;45.603853;84936;6129482276;-73.650114;45.692142;0;9;10;9447768;Bus 25 : TERMINUS TERREBONNE;"";EXO;25 N;Terminus Henri-Bourassa;Terminus Terrebonne
119082380;"{\"type\":\"LineString\",\"coordinates\":[[-73.645308,45.6521177],[-73.6453265,45.6526804]]}";19;Autoroute Jean-Noël-Lavoie;2;100;false;true;true;false;false;false;63.0;0;0;0;0;0;false;84393;6129484558;-73.651144;45.603853;84936;6129482276;-73.650114;45.692142;0;9;10;9447768;Bus 25 : TERMINUS TERREBONNE;"";EXO;25 N;Terminus Henri-Bourassa;Terminus Terrebonne
51966554;"{\"type\":\"LineString\",\"coordinates\":[[-73.6453265,45.6526804],[-73.6453453,45.653116]]}";20;Autoroute Jean-Noël-Lavoie;2;100;false;true;true;false;false;false;49.0;0;0;0;0;0;false;84393;6129484558;-73.651144;45.603853;84936;6129482276;-73.650114;45.692142;0;9;10;9447768;Bus 25 : TERMINUS TERREBONNE;"";EXO;25 N;Terminus Henri-Bourassa;Terminus Terrebonne
51966555;"{\"type\":\"LineString\",\"coordinates\":[[-73.6453453,45.653116],[-73.645372,45.654121],[-73.6454676,45.6552435],[-73.6456142,45.6563784]]}";21;Autoroute Jean-Noël-Lavoie;2;100;false;true;true;false;false;false;364.0;0;0;0;0;0;false;84393;6129484558;-73.651144;45.603853;84936;6129482276;-73.650114;45.692142;0;9;10;9447768;Bus 25 : TERMINUS TERREBONNE;"";EXO;25 N;Terminus Henri-Bourassa;Terminus Terrebonne
119082378;"{\"type\":\"LineString\",\"coordinates\":[[-73.6456142,45.6563784],[-73.6458006,45.6572513],[-73.6461668,45.6582717]]}";22;Autoroute Jean-Noël-Lavoie;2;100;false;true;true;false;false;false;215.0;0;0;0;0;0;false;84393;6129484558;-73.651144;45.603853;84936;6129482276;-73.650114;45.692142;0;9;10;9447768;Bus 25 : TERMINUS TERREBONNE;"";EXO;25 N;Terminus Henri-Bourassa;Terminus Terrebonne
116595051;"{\"type\":\"LineString\",\"coordinates\":[[-73.6461668,45.6582717],[-73.6466283,45.6592978],[-73.6470109,45.6599447],[-73.64727,45.6603698],[-73.6476264,45.661065],[-73.647995,45.661918],[-73.6488307,45.6642303],[-73.6495852,45.6665732],[-73.6499507,45.6676529]]}";23;Autoroute Jean-Noël-Lavoie;2;100;false;true;true;false;false;false;1085.0;0;0;0;0;0;false;84393;6129484558;-73.651144;45.603853;84936;6129482276;-73.650114;45.692142;0;9;10;9447768;Bus 25 : TERMINUS TERREBONNE;"";EXO;25 N;Terminus Henri-Bourassa;Terminus Terrebonne
128169284;"{\"type\":\"LineString\",\"coordinates\":[[-73.6499507,45.6676529],[-73.6500628,45.6684715],[-73.6500786,45.6694105],[-73.650005,45.6715739],[-73.649794,45.67777],[-73.6497305,45.6804681],[-73.6496756,45.682791],[-73.6496776,45.6833557],[-73.6497442,45.6848436],[-73.6498149,45.6857043],[-73.649898,45.686337],[-73.6500132,45.687547]]}";24;Autoroute 25;3;100;false;true;true;false;false;false;2211.0;0;0;0;0;0;false;84393;6129484558;-73.651144;45.603853;84936;6129482276;-73.650114;45.692142;0;9;10;9447768;Bus 25 : TERMINUS TERREBONNE;"";EXO;25 N;Terminus Henri-Bourassa;Terminus Terrebonne
32823759;"{\"type\":\"LineString\",\"coordinates\":[[-73.6500132,45.687547],[-73.6501823,45.6888167],[-73.650222,45.6891151]]}";25;Pont Lepage;3;100;false;true;true;false;false;false;175.0;0;0;0;0;0;false;84393;6129484558;-73.651144;45.603853;84936;6129482276;-73.650114;45.692142;0;9;10;9447768;Bus 25 : TERMINUS TERREBONNE;"";EXO;25 N;Terminus Henri-Bourassa;Terminus Terrebonne
98502617;"{\"type\":\"LineString\",\"coordinates\":[[-73.650222,45.6891151],[-73.650323,45.6898174],[-73.6503375,45.6899864],[-73.6503494,45.6901618],[-73.650362,45.6903265],[-73.6503718,45.6904945],[-73.6503809,45.6906518],[-73.6503905,45.6908154],[-73.6503976,45.6909868],[-73.6503999,45.6911357],[-73.6503988,45.6912772],[-73.6503886,45.6914212],[-73.650371,45.691544],[-73.6503421,45.6916597],[-73.6503158,45.6917239],[-73.6502889,45.6917784],[-73.6502297,45.6918532]]}";26;"";1;50;false;true;true;false;false;false;307.0;0;0;0;0;0;false;84393;6129484558;-73.651144;45.603853;84936;6129482276;-73.650114;45.692142;0;9;10;9447768;Bus 25 : TERMINUS TERREBONNE;"";EXO;25 N;Terminus Henri-Bourassa;Terminus Terrebonne
98502640;"{\"type\":\"LineString\",\"coordinates\":[[-73.6502297,45.6918532],[-73.6502121,45.691887],[-73.6501985,45.6919346],[-73.6501942,45.6919627],[-73.6501981,45.6919969],[-73.6502114,45.69208],[-73.6502212,45.6921569],[-73.6502304,45.6922263],[-73.6502387,45.6922806],[-73.6502401,45.6922908],[-73.6502448,45.6923255],[-73.6502501,45.6923585],[-73.6502599,45.6923903]]}";27;"";1;50;false;true;true;false;false;false;61.0;0;0;0;0;0;false;84393;6129484558;-73.651144;45.603853;84936;6129482276;-73.650114;45.692142;2;9;10;9447768;Bus 25 : TERMINUS TERREBONNE;"";EXO;25 N;Terminus Henri-Bourassa;Terminus Terrebonne
98502640;"{\"type\":\"LineString\",\"coordinates\":[[-73.6502297,45.6918532],[-73.6502121,45.691887],[-73.6501985,45.6919346],[-73.6501942,45.6919627],[-73.6501981,45.6919969],[-73.6502114,45.69208],[-73.6502212,45.6921569],[-73.6502304,45.6922263],[-73.6502387,45.6922806],[-73.6502401,45.6922908],[-73.6502448,45.6923255],[-73.6502501,45.6923585],[-73.6502599,45.6923903]]}";1;"";1;50;false;true;true;false;false;false;30.5;0;0;0;0;0;false;84936;6129482276;-73.650114;45.692142;84875;6129482927;-73.652978;45.698038;1;10;11;9447768;Bus 25 : TERMINUS TERREBONNE;"";EXO;25 N;Terminus Henri-Bourassa;Terminus Terrebonne
98502613;"{\"type\":\"LineString\",\"coordinates\":[[-73.6502599,45.6923903],[-73.6502853,45.692426],[-73.6503431,45.692468],[-73.6504151,45.6925139],[-73.6504913,45.6925778],[-73.6505606,45.6926527],[-73.6506152,45.6927367],[-73.6506613,45.6928284],[-73.6507003,45.69293],[-73.6507239,45.6930419],[-73.6507482,45.6931874],[-73.650907,45.6943664],[-73.6509557,45.6945167],[-73.6510826,45.6948813]]}";2;"";1;50;false;true;true;false;false;false;290.0;0;0;0;0;0;false;84936;6129482276;-73.650114;45.692142;84875;6129482927;-73.652978;45.698038;0;10;11;9447768;Bus 25 : TERMINUS TERREBONNE;"";EXO;25 N;Terminus Henri-Bourassa;Terminus Terrebonne
680430217;"{\"type\":\"LineString\",\"coordinates\":[[-73.6510826,45.6948813],[-73.6511773,45.6954263]]}";3;Autoroute 25;1;100;false;true;true;false;false;false;61.0;0;0;0;0;0;false;84936;6129482276;-73.650114;45.692142;84875;6129482927;-73.652978;45.698038;0;10;11;9447768;Bus 25 : TERMINUS TERREBONNE;"";EXO;25 N;Terminus Henri-Bourassa;Terminus Terrebonne
138383580;"{\"type\":\"LineString\",\"coordinates\":[[-73.6511773,45.6954263],[-73.6514065,45.69715]]}";4;Autoroute 25;3;100;false;true;true;false;false;false;193.0;0;0;0;0;0;false;84936;6129482276;-73.650114;45.692142;84875;6129482927;-73.652978;45.698038;0;10;11;9447768;Bus 25 : TERMINUS TERREBONNE;"";EXO;25 N;Terminus Henri-Bourassa;Terminus Terrebonne
680430216;"{\"type\":\"LineString\",\"coordinates\":[[-73.6514065,45.69715],[-73.6514683,45.6976101],[-73.6518955,45.7007928]]}";5;Autoroute 25;1;100;false;true;true;false;false;false;407.0;0;0;0;0;0;false;84936;6129482276;-73.650114;45.692142;84875;6129482927;-73.652978;45.698038;0;10;11;9447768;Bus 25 : TERMINUS TERREBONNE;"";EXO;25 N;Terminus Henri-Bourassa;Terminus Terrebonne
26142171;"{\"type\":\"LineString\",\"coordinates\":[[-73.6518955,45.7007928],[-73.651843,45.7011363],[-73.6517118,45.7014415],[-73.6514715,45.7017472],[-73.6510939,45.701981],[-73.6506561,45.7020769],[-73.6502356,45.7020769],[-73.6499437,45.7020169],[-73.6496605,45.7018671],[-73.6494727,45.7016997],[-73.6493472,45.7014865],[-73.6492914,45.7013276],[-73.6493086,45.7010039],[-73.6494132,45.6999961]]}";6;"";1;50;false;true;true;false;false;false;488.0;1;0;0;0;0;false;84936;6129482276;-73.650114;45.692142;84875;6129482927;-73.652978;45.698038;0;10;11;9447768;Bus 25 : TERMINUS TERREBONNE;"";EXO;25 N;Terminus Henri-Bourassa;Terminus Terrebonne
460511882;"{\"type\":\"LineString\",\"coordinates\":[[-73.6494132,45.6999961],[-73.6515641,45.6998436]]}";7;Boulevard des Seigneurs;1;50;false;true;false;false;false;false;169.0;1;0;0;0;0;false;84936;6129482276;-73.650114;45.692142;84875;6129482927;-73.652978;45.698038;0;10;11;9447768;Bus 25 : TERMINUS TERREBONNE;"";EXO;25 N;Terminus Henri-Bourassa;Terminus Terrebonne
177354202;"{\"type\":\"LineString\",\"coordinates\":[[-73.6515641,45.6998436],[-73.6522207,45.6997971]]}";8;Boulevard des Seigneurs;1;50;false;true;false;false;false;false;52.0;0;0;0;0;0;false;84936;6129482276;-73.650114;45.692142;84875;6129482927;-73.652978;45.698038;0;10;11;9447768;Bus 25 : TERMINUS TERREBONNE;"";EXO;25 N;Terminus Henri-Bourassa;Terminus Terrebonne
177354201;"{\"type\":\"LineString\",\"coordinates\":[[-73.6522207,45.6997971],[-73.6541584,45.6996598],[-73.6541994,45.6996569],[-73.6543243,45.699648]]}";9;Boulevard des Seigneurs;3;50;false;true;false;false;false;false;165.0;1;1;0;0;0;false;84936;6129482276;-73.650114;45.692142;84875;6129482927;-73.652978;45.698038;0;10;11;9447768;Bus 25 : TERMINUS TERREBONNE;"";EXO;25 N;Terminus Henri-Bourassa;Terminus Terrebonne
678903376;"{\"type\":\"LineString\",\"coordinates\":[[-73.6543243,45.699648],[-73.6543935,45.6995058]]}";10;Côte de Terrebonne;1;50;false;true;true;false;false;false;17.0;0;0;0;0;0;false;84936;6129482276;-73.650114;45.692142;84875;6129482927;-73.652978;45.698038;0;10;11;9447768;Bus 25 : TERMINUS TERREBONNE;"";EXO;25 N;Terminus Henri-Bourassa;Terminus Terrebonne
678900124;"{\"type\":\"LineString\",\"coordinates\":[[-73.6543935,45.6995058],[-73.6543959,45.6994455],[-73.6544061,45.6991935]]}";11;Côte de Terrebonne;2;50;false;true;true;false;false;false;35.0;0;1;0;0;0;false;84936;6129482276;-73.650114;45.692142;84875;6129482927;-73.652978;45.698038;0;10;11;9447768;Bus 25 : TERMINUS TERREBONNE;"";EXO;25 N;Terminus Henri-Bourassa;Terminus Terrebonne
810018731;"{\"type\":\"LineString\",\"coordinates\":[[-73.6544061,45.6991935],[-73.6544516,45.6980667]]}";12;Côte de Terrebonne;2;50;false;true;false;false;false;false;126.0;0;0;0;0;0;false;84936;6129482276;-73.650114;45.692142;84875;6129482927;-73.652978;45.698038;0;10;11;9447768;Bus 25 : TERMINUS TERREBONNE;"";EXO;25 N;Terminus Henri-Bourassa;Terminus Terrebonne
679579107;"{\"type\":\"LineString\",\"coordinates\":[[-73.6544516,45.6980667],[-73.6544536,45.6980164]]}";13;Côte de Terrebonne;1;50;false;true;false;false;false;false;6.0;0;0;0;0;0;false;84936;6129482276;-73.650114;45.692142;84875;6129482927;-73.652978;45.698038;0;10;11;9447768;Bus 25 : TERMINUS TERREBONNE;"";EXO;25 N;Terminus Henri-Bourassa;Terminus Terrebonne
810021669;"{\"type\":\"LineString\",\"coordinates\":[[-73.6544536,45.6980164],[-73.6544566,45.6979421]]}";14;Côte de Terrebonne;1;50;false;true;false;false;false;false;9.0;0;0;0;0;0;false;84936;6129482276;-73.650114;45.692142;84875;6129482927;-73.652978;45.698038;0;10;11;9447768;Bus 25 : TERMINUS TERREBONNE;"";EXO;25 N;Terminus Henri-Bourassa;Terminus Terrebonne
679579096;"{\"type\":\"LineString\",\"coordinates\":[[-73.6544566,45.6979421],[-73.6543098,45.6979415]]}";15;BUS;1;50;false;true;true;false;true;false;12.0;0;0;0;0;0;false;84936;6129482276;-73.650114;45.692142;84875;6129482927;-73.652978;45.698038;0;10;11;9447768;Bus 25 : TERMINUS TERREBONNE;"";EXO;25 N;Terminus Henri-Bourassa;Terminus Terrebonne
678900150;"{\"type\":\"LineString\",\"coordinates\":[[-73.6543098,45.6979415],[-73.654154,45.6979414],[-73.6533204,45.6979395],[-73.6532321,45.6979644],[-73.6531831,45.6979995],[-73.6531647,45.6980517],[-73.6531659,45.6981074]]}";16;BUS;1;50;false;true;true;false;true;false;103.0;0;1;0;0;0;false;84936;6129482276;-73.650114;45.692142;84875;6129482927;-73.652978;45.698038;1;10;11;9447768;Bus 25 : TERMINUS TERREBONNE;"";EXO;25 N;Terminus Henri-Bourassa;Terminus Terrebonne
