way_id;shape;index;name;nb_lanes;legal_speed;speed_zone_30;oneway;shares_bike;bike_box;bus_lane;dedicated_bus_lane;length;nb_traffic_signals;nb_crossings;nb_stops;nb_give_ways;nb_lvl_crossings;roundabout;stop_id_orig;node_id_orig;coord_x_orig;coord_y_orig;stop_id_dest;node_id_dest;coord_x_dest;coord_y_dest;nb_neighbouring_ways_bus_stop;ordre_orig;ordre_dest;id_line;line_name;colour;operator;ref;from;to
455261196;"{\"type\":\"LineString\",\"coordinates\":[[-73.7867045,45.5916674],[-73.7868001,45.5920206],[-73.7868208,45.5920969]]}";1;Boulevard Curé-Labelle;3;60;false;true;true;false;false;false;49.0;1;0;0;0;0;false;82562;6119523955;-73.786632;45.591687;82587;6119523934;-73.78753;45.595251;1;0;1;9084228;Bus 11 : GARE STE-THÉRÈSE;"";EXO;11 N;Curé-Labelle / des Oiseaux;Gare Sainte-Thérèse
45762596;"{\"type\":\"LineString\",\"coordinates\":[[-73.7868208,45.5920969],[-73.7868327,45.5921429],[-73.786908,45.5924344],[-73.7871494,45.5933686],[-73.7873475,45.5941351],[-73.7874575,45.5945608],[-73.7876592,45.5953415],[-73.7894525,45.601817]]}";2;Boulevard Curé-Labelle;3;60;false;true;true;false;false;false;549.5;1;0;0;0;0;false;82562;6119523955;-73.786632;45.591687;82587;6119523934;-73.78753;45.595251;1;0;1;9084228;Bus 11 : GARE STE-THÉRÈSE;"";EXO;11 N;Curé-Labelle / des Oiseaux;Gare Sainte-Thérèse
673264008;"{\"type\":\"LineString\",\"coordinates\":[[-73.7905568,45.6055399],[-73.7905683,45.605603],[-73.790885,45.6066154],[-73.791008,45.606829]]}";1;Boulevard Curé-Labelle;3;60;false;true;true;false;false;false;148.0;0;0;0;0;0;false;82589;6119523932;-73.790366;45.605429;82590;6119523931;-73.791218;45.608036;2;3;4;9084228;Bus 11 : GARE STE-THÉRÈSE;"";EXO;11 N;Curé-Labelle / des Oiseaux;Gare Sainte-Thérèse
46203717;"{\"type\":\"LineString\",\"coordinates\":[[-73.7913849,45.6081997],[-73.7913678,45.6081374],[-73.791008,45.606829]]}";2;Boulevard Curé-Labelle;5;60;false;false;true;false;false;false;156.0;0;0;0;0;0;false;82589;6119523932;-73.790366;45.605429;82590;6119523931;-73.791218;45.608036;2;3;4;9084228;Bus 11 : GARE STE-THÉRÈSE;"";EXO;11 N;Curé-Labelle / des Oiseaux;Gare Sainte-Thérèse
46203717;"{\"type\":\"LineString\",\"coordinates\":[[-73.7913849,45.6081997],[-73.7913678,45.6081374],[-73.791008,45.606829]]}";1;Boulevard Curé-Labelle;5;60;false;false;true;false;false;false;78.0;0;0;0;0;0;false;82590;6119523931;-73.791218;45.608036;82591;6119523930;-73.792059;45.610964;1;4;5;9084228;Bus 11 : GARE STE-THÉRÈSE;"";EXO;11 N;Curé-Labelle / des Oiseaux;Gare Sainte-Thérèse
45800323;"{\"type\":\"LineString\",\"coordinates\":[[-73.7913849,45.6081997],[-73.7914173,45.6083176],[-73.7920258,45.6105302],[-73.7921736,45.6110677]]}";2;Boulevard Curé-Labelle;4;60;false;false;true;false;false;false;162.5;1;0;0;0;0;false;82590;6119523931;-73.791218;45.608036;82591;6119523930;-73.792059;45.610964;1;4;5;9084228;Bus 11 : GARE STE-THÉRÈSE;"";EXO;11 N;Curé-Labelle / des Oiseaux;Gare Sainte-Thérèse
455259030;"{\"type\":\"LineString\",\"coordinates\":[[-73.7922827,45.6114106],[-73.7921736,45.6110677]]}";1;Boulevard Curé-Labelle;1;60;false;false;true;false;false;false;40.0;1;0;0;0;0;false;82591;6119523930;-73.792059;45.610964;82592;6119523929;-73.796159;45.619265;2;5;6;9084228;Bus 11 : GARE STE-THÉRÈSE;"";EXO;11 N;Curé-Labelle / des Oiseaux;Gare Sainte-Thérèse
25599913;"{\"type\":\"LineString\",\"coordinates\":[[-73.7927184,45.6126796],[-73.7926396,45.6124821],[-73.7925509,45.6122601],[-73.7925066,45.6121492],[-73.7924988,45.6121192],[-73.792308,45.6115077],[-73.7922827,45.6114106]]}";2;Boulevard Curé-Labelle;1;60;false;false;true;false;false;false;146.0;0;0;0;0;0;false;82591;6119523930;-73.792059;45.610964;82592;6119523929;-73.796159;45.619265;0;5;6;9084228;Bus 11 : GARE STE-THÉRÈSE;"";EXO;11 N;Curé-Labelle / des Oiseaux;Gare Sainte-Thérèse
40610492;"{\"type\":\"LineString\",\"coordinates\":[[-73.7929347,45.6131674],[-73.7927184,45.6126796]]}";3;Boulevard Curé-Labelle;4;60;false;false;false;false;false;false;57.0;0;0;0;0;0;false;82591;6119523930;-73.792059;45.610964;82592;6119523929;-73.796159;45.619265;0;5;6;9084228;Bus 11 : GARE STE-THÉRÈSE;"";EXO;11 N;Curé-Labelle / des Oiseaux;Gare Sainte-Thérèse
40610491;"{\"type\":\"LineString\",\"coordinates\":[[-73.7951116,45.617372],[-73.7929347,45.6131674]]}";4;Pont Marius-Dufresne;4;50;false;false;false;false;false;false;497.0;0;0;0;0;0;false;82591;6119523930;-73.792059;45.610964;82592;6119523929;-73.796159;45.619265;0;5;6;9084228;Bus 11 : GARE STE-THÉRÈSE;"";EXO;11 N;Curé-Labelle / des Oiseaux;Gare Sainte-Thérèse
40610833;"{\"type\":\"LineString\",\"coordinates\":[[-73.797518,45.620493],[-73.7967234,45.6197799],[-73.7963082,45.6193112],[-73.7960033,45.618967],[-73.7958107,45.6186851],[-73.7957766,45.6186351],[-73.7957286,45.6185648],[-73.7955327,45.618186],[-73.7951116,45.617372]]}";5;Boulevard Curé-Labelle;4;50;false;false;false;false;false;false;398.0;0;0;0;0;0;false;82591;6119523930;-73.792059;45.610964;82592;6119523929;-73.796159;45.619265;2;5;6;9084228;Bus 11 : GARE STE-THÉRÈSE;"";EXO;11 N;Curé-Labelle / des Oiseaux;Gare Sainte-Thérèse
40610833;"{\"type\":\"LineString\",\"coordinates\":[[-73.797518,45.620493],[-73.7967234,45.6197799],[-73.7963082,45.6193112],[-73.7960033,45.618967],[-73.7958107,45.6186851],[-73.7957766,45.6186351],[-73.7957286,45.6185648],[-73.7955327,45.618186],[-73.7951116,45.617372]]}";1;Boulevard Curé-Labelle;4;50;false;false;false;false;false;false;199.0;0;0;0;0;0;false;82592;6119523929;-73.796159;45.619265;82593;6119523928;-73.798339;45.62122;1;6;7;9084228;Bus 11 : GARE STE-THÉRÈSE;"";EXO;11 N;Curé-Labelle / des Oiseaux;Gare Sainte-Thérèse
40610839;"{\"type\":\"LineString\",\"coordinates\":[[-73.7978534,45.6207704],[-73.797518,45.620493]]}";2;Boulevard Curé-Labelle;4;50;false;false;false;false;false;false;41.0;0;0;0;0;0;false;82592;6119523929;-73.796159;45.619265;82593;6119523928;-73.798339;45.62122;0;6;7;9084228;Bus 11 : GARE STE-THÉRÈSE;"";EXO;11 N;Curé-Labelle / des Oiseaux;Gare Sainte-Thérèse
58939606;"{\"type\":\"LineString\",\"coordinates\":[[-73.7985287,45.6212558],[-73.7978534,45.6207704]]}";3;Boulevard Curé-Labelle;4;50;false;false;true;false;false;false;38.0;0;0;0;0;0;false;82592;6119523929;-73.796159;45.619265;82593;6119523928;-73.798339;45.62122;1;6;7;9084228;Bus 11 : GARE STE-THÉRÈSE;"";EXO;11 N;Curé-Labelle / des Oiseaux;Gare Sainte-Thérèse
40587266;"{\"type\":\"LineString\",\"coordinates\":[[-73.7985287,45.6212558],[-73.7985585,45.6213316],[-73.7986167,45.6213729],[-73.7988766,45.6215572],[-73.7990062,45.6216491],[-73.7995845,45.622059],[-73.7996483,45.6221038],[-73.8001972,45.622489],[-73.8002475,45.6225243],[-73.8009055,45.6229861],[-73.8010526,45.6230848],[-73.8014408,45.6233466],[-73.8016148,45.6234607],[-73.8018644,45.6236296],[-73.8021785,45.6238404]]}";1;Boulevard Curé-Labelle;2;60;false;true;true;false;false;false;203.0;0;0;0;0;0;false;82594;6119523927;-73.799421;45.621967;82029;6119525323;-73.803085;45.624434;1;8;9;9084228;Bus 11 : GARE STE-THÉRÈSE;"";EXO;11 N;Curé-Labelle / des Oiseaux;Gare Sainte-Thérèse
455283549;"{\"type\":\"LineString\",\"coordinates\":[[-73.8021785,45.6238404],[-73.802258,45.6238946],[-73.8026784,45.6241811]]}";2;Boulevard Curé-Labelle;2;60;false;true;true;false;false;false;55.0;1;0;0;0;0;false;82594;6119523927;-73.799421;45.621967;82029;6119525323;-73.803085;45.624434;0;8;9;9084228;Bus 11 : GARE STE-THÉRÈSE;"";EXO;11 N;Curé-Labelle / des Oiseaux;Gare Sainte-Thérèse
455283552;"{\"type\":\"LineString\",\"coordinates\":[[-73.8026784,45.6241811],[-73.8030858,45.6244425]]}";3;Boulevard Curé-Labelle;2;60;false;true;true;false;false;false;22.0;1;0;0;0;0;false;82594;6119523927;-73.799421;45.621967;82029;6119525323;-73.803085;45.624434;1;8;9;9084228;Bus 11 : GARE STE-THÉRÈSE;"";EXO;11 N;Curé-Labelle / des Oiseaux;Gare Sainte-Thérèse
378150293;"{\"type\":\"LineString\",\"coordinates\":[[-73.8085225,45.6279624],[-73.8086614,45.6280536]]}";1;Boulevard Curé-Labelle;2;60;false;true;true;false;false;false;15.0;0;0;0;0;0;false;82030;6119525322;-73.808356;45.627859;82606;6119523919;-73.816473;45.629825;2;10;11;9084228;Bus 11 : GARE STE-THÉRÈSE;"";EXO;11 N;Curé-Labelle / des Oiseaux;Gare Sainte-Thérèse
233925637;"{\"type\":\"LineString\",\"coordinates\":[[-73.8086614,45.6280536],[-73.8090241,45.6283237]]}";2;Boulevard Curé-Labelle;2;60;false;true;true;false;false;false;42.0;1;0;0;0;0;false;82030;6119525322;-73.808356;45.627859;82606;6119523919;-73.816473;45.629825;0;10;11;9084228;Bus 11 : GARE STE-THÉRÈSE;"";EXO;11 N;Curé-Labelle / des Oiseaux;Gare Sainte-Thérèse
233925634;"{\"type\":\"LineString\",\"coordinates\":[[-73.8090241,45.6283237],[-73.8113108,45.6298851]]}";3;Boulevard Curé-Labelle;2;60;false;true;true;false;false;false;249.0;1;0;0;0;0;false;82030;6119525322;-73.808356;45.627859;82606;6119523919;-73.816473;45.629825;0;10;11;9084228;Bus 11 : GARE STE-THÉRÈSE;"";EXO;11 N;Curé-Labelle / des Oiseaux;Gare Sainte-Thérèse
545998052;"{\"type\":\"LineString\",\"coordinates\":[[-73.8113108,45.6298851],[-73.8122775,45.6305023]]}";4;Boulevard Curé-Labelle;2;60;false;true;true;false;false;false;102.0;0;0;0;0;0;false;82030;6119525322;-73.808356;45.627859;82606;6119523919;-73.816473;45.629825;0;10;11;9084228;Bus 11 : GARE STE-THÉRÈSE;"";EXO;11 N;Curé-Labelle / des Oiseaux;Gare Sainte-Thérèse
545998051;"{\"type\":\"LineString\",\"coordinates\":[[-73.8122775,45.6305023],[-73.8137408,45.6315006]]}";5;Boulevard Curé-Labelle;2;60;false;true;true;false;false;false;160.0;0;0;0;0;0;false;82030;6119525322;-73.808356;45.627859;82606;6119523919;-73.816473;45.629825;0;10;11;9084228;Bus 11 : GARE STE-THÉRÈSE;"";EXO;11 N;Curé-Labelle / des Oiseaux;Gare Sainte-Thérèse
455451810;"{\"type\":\"LineString\",\"coordinates\":[[-73.8137408,45.6315006],[-73.8138666,45.6315787]]}";6;Boulevard Curé-Labelle;2;60;false;true;true;false;false;false;14.0;1;0;0;0;0;false;82030;6119525322;-73.808356;45.627859;82606;6119523919;-73.816473;45.629825;0;10;11;9084228;Bus 11 : GARE STE-THÉRÈSE;"";EXO;11 N;Curé-Labelle / des Oiseaux;Gare Sainte-Thérèse
455451817;"{\"type\":\"LineString\",\"coordinates\":[[-73.8138666,45.6315787],[-73.8139963,45.6314839]]}";7;Boulevard Bouthillier;2;50;false;true;true;false;false;false;15.0;1;0;0;0;0;false;82030;6119525322;-73.808356;45.627859;82606;6119523919;-73.816473;45.629825;0;10;11;9084228;Bus 11 : GARE STE-THÉRÈSE;"";EXO;11 N;Curé-Labelle / des Oiseaux;Gare Sainte-Thérèse
455451816;"{\"type\":\"LineString\",\"coordinates\":[[-73.8139963,45.6314839],[-73.8143567,45.6312132]]}";8;Rue Bouthillier;2;50;false;true;true;false;false;false;42.0;0;0;0;0;0;false;82030;6119525322;-73.808356;45.627859;82606;6119523919;-73.816473;45.629825;0;10;11;9084228;Bus 11 : GARE STE-THÉRÈSE;"";EXO;11 N;Curé-Labelle / des Oiseaux;Gare Sainte-Thérèse
23456068;"{\"type\":\"LineString\",\"coordinates\":[[-73.8143567,45.6312132],[-73.8145668,45.6310512],[-73.8152662,45.6305522],[-73.8158587,45.6301898],[-73.8164081,45.629851],[-73.8168792,45.6295655]]}";9;Rue Bouthillier;2;50;false;true;true;false;false;false;269.0;1;0;1;0;0;false;82030;6119525322;-73.808356;45.627859;82606;6119523919;-73.816473;45.629825;2;10;11;9084228;Bus 11 : GARE STE-THÉRÈSE;"";EXO;11 N;Curé-Labelle / des Oiseaux;Gare Sainte-Thérèse
23456068;"{\"type\":\"LineString\",\"coordinates\":[[-73.8143567,45.6312132],[-73.8145668,45.6310512],[-73.8152662,45.6305522],[-73.8158587,45.6301898],[-73.8164081,45.629851],[-73.8168792,45.6295655]]}";1;Rue Bouthillier;2;50;false;true;true;false;false;false;134.5;1;0;1;0;0;false;82606;6119523919;-73.816473;45.629825;83083;6119523037;-73.822935;45.628796;1;11;12;9084228;Bus 11 : GARE STE-THÉRÈSE;"";EXO;11 N;Curé-Labelle / des Oiseaux;Gare Sainte-Thérèse
40433757;"{\"type\":\"LineString\",\"coordinates\":[[-73.8174863,45.6300936],[-73.8168792,45.6295655]]}";2;"";1;50;false;false;true;false;false;false;76.0;1;0;0;0;0;false;82606;6119523919;-73.816473;45.629825;83083;6119523037;-73.822935;45.628796;0;11;12;9084228;Bus 11 : GARE STE-THÉRÈSE;"";EXO;11 N;Curé-Labelle / des Oiseaux;Gare Sainte-Thérèse
653254443;"{\"type\":\"LineString\",\"coordinates\":[[-73.8174863,45.6300936],[-73.8176771,45.629994],[-73.8178406,45.6299087],[-73.8180198,45.6298152],[-73.8182052,45.6297184],[-73.8183953,45.6296192],[-73.8185853,45.6295201],[-73.8187717,45.6294228],[-73.8189754,45.6293165],[-73.8191635,45.6292183],[-73.8193744,45.6291083],[-73.8196624,45.628958]]}";3;"";1;50;false;false;true;false;false;false;212.0;0;0;1;0;0;false;82606;6119523919;-73.816473;45.629825;83083;6119523037;-73.822935;45.628796;0;11;12;9084228;Bus 11 : GARE STE-THÉRÈSE;"";EXO;11 N;Curé-Labelle / des Oiseaux;Gare Sainte-Thérèse
40435183;"{\"type\":\"LineString\",\"coordinates\":[[-73.8196624,45.628958],[-73.818775,45.6283719]]}";4;"";1;50;false;false;true;false;false;false;95.0;0;0;2;0;0;false;82606;6119523919;-73.816473;45.629825;83083;6119523037;-73.822935;45.628796;0;11;12;9084228;Bus 11 : GARE STE-THÉRÈSE;"";EXO;11 N;Curé-Labelle / des Oiseaux;Gare Sainte-Thérèse
653254441;"{\"type\":\"LineString\",\"coordinates\":[[-73.818775,45.6283719],[-73.8191652,45.628157],[-73.8194422,45.6280765],[-73.8197404,45.628039],[-73.8199924,45.6280405],[-73.8202673,45.6280814],[-73.8204872,45.6281407],[-73.8208583,45.6282826],[-73.822002,45.6286926],[-73.8221992,45.6287431],[-73.822402,45.6287771],[-73.8226941,45.6287812],[-73.8229587,45.6287733],[-73.8230817,45.6287534],[-73.8232844,45.6286951],[-73.823469,45.6286206],[-73.8236482,45.6285306],[-73.8238913,45.6283489],[-73.8246517,45.6277027]]}";5;Rue Bouthillier;2;50;false;true;true;false;false;false;268.0;1;0;1;0;0;false;82606;6119523919;-73.816473;45.629825;83083;6119523037;-73.822935;45.628796;1;11;12;9084228;Bus 11 : GARE STE-THÉRÈSE;"";EXO;11 N;Curé-Labelle / des Oiseaux;Gare Sainte-Thérèse
653254441;"{\"type\":\"LineString\",\"coordinates\":[[-73.818775,45.6283719],[-73.8191652,45.628157],[-73.8194422,45.6280765],[-73.8197404,45.628039],[-73.8199924,45.6280405],[-73.8202673,45.6280814],[-73.8204872,45.6281407],[-73.8208583,45.6282826],[-73.822002,45.6286926],[-73.8221992,45.6287431],[-73.822402,45.6287771],[-73.8226941,45.6287812],[-73.8229587,45.6287733],[-73.8230817,45.6287534],[-73.8232844,45.6286951],[-73.823469,45.6286206],[-73.8236482,45.6285306],[-73.8238913,45.6283489],[-73.8246517,45.6277027]]}";1;Rue Bouthillier;2;50;false;true;true;false;false;false;268.0;1;0;1;0;0;false;83083;6119523037;-73.822935;45.628796;82819;6119523792;-73.824681;45.627817;1;12;13;9084228;Bus 11 : GARE STE-THÉRÈSE;"";EXO;11 N;Curé-Labelle / des Oiseaux;Gare Sainte-Thérèse
459568604;"{\"type\":\"LineString\",\"coordinates\":[[-73.8249199,45.6278924],[-73.8246517,45.6277027]]}";2;Montée Sanche;1;50;false;false;false;false;false;false;15.0;0;0;0;0;0;false;83083;6119523037;-73.822935;45.628796;82819;6119523792;-73.824681;45.627817;1;12;13;9084228;Bus 11 : GARE STE-THÉRÈSE;"";EXO;11 N;Curé-Labelle / des Oiseaux;Gare Sainte-Thérèse
653254441;"{\"type\":\"LineString\",\"coordinates\":[[-73.818775,45.6283719],[-73.8191652,45.628157],[-73.8194422,45.6280765],[-73.8197404,45.628039],[-73.8199924,45.6280405],[-73.8202673,45.6280814],[-73.8204872,45.6281407],[-73.8208583,45.6282826],[-73.822002,45.6286926],[-73.8221992,45.6287431],[-73.822402,45.6287771],[-73.8226941,45.6287812],[-73.8229587,45.6287733],[-73.8230817,45.6287534],[-73.8232844,45.6286951],[-73.823469,45.6286206],[-73.8236482,45.6285306],[-73.8238913,45.6283489],[-73.8246517,45.6277027]]}";1;Rue Bouthillier;2;50;false;true;true;false;false;false;536.0;1;0;1;0;0;false;82819;6119523792;-73.824681;45.627817;82260;6119524743;-73.825464;45.628289;2;13;14;9084228;Bus 11 : GARE STE-THÉRÈSE;"";EXO;11 N;Curé-Labelle / des Oiseaux;Gare Sainte-Thérèse
459568604;"{\"type\":\"LineString\",\"coordinates\":[[-73.8249199,45.6278924],[-73.8246517,45.6277027]]}";2;Montée Sanche;1;50;false;false;false;false;false;false;30.0;0;0;0;0;0;false;82819;6119523792;-73.824681;45.627817;82260;6119524743;-73.825464;45.628289;0;13;14;9084228;Bus 11 : GARE STE-THÉRÈSE;"";EXO;11 N;Curé-Labelle / des Oiseaux;Gare Sainte-Thérèse
407527845;"{\"type\":\"LineString\",\"coordinates\":[[-73.8249199,45.6278924],[-73.8250223,45.6280269],[-73.8255064,45.6283364],[-73.8262278,45.6288223],[-73.8269493,45.6293031],[-73.8276534,45.6297727]]}";3;Montée Sanche;1;50;false;true;true;false;false;false;300.0;0;0;0;0;0;false;82819;6119523792;-73.824681;45.627817;82260;6119524743;-73.825464;45.628289;2;13;14;9084228;Bus 11 : GARE STE-THÉRÈSE;"";EXO;11 N;Curé-Labelle / des Oiseaux;Gare Sainte-Thérèse
458698301;"{\"type\":\"LineString\",\"coordinates\":[[-73.8276534,45.6297727],[-73.8280974,45.630064],[-73.8282493,45.630082]]}";1;Montée Sanche;1;50;false;true;true;false;false;false;60.0;0;0;0;0;0;false;82862;6119523268;-73.8275375;45.6297584;82261;6119524742;-73.829449;45.630922;2;16;17;9084228;Bus 11 : GARE STE-THÉRÈSE;"";EXO;11 N;Curé-Labelle / des Oiseaux;Gare Sainte-Thérèse
380080892;"{\"type\":\"LineString\",\"coordinates\":[[-73.828573,45.6303082],[-73.8282493,45.630082]]}";2;Montée Sanche;1;50;false;false;false;false;false;false;36.0;0;0;0;0;0;false;82862;6119523268;-73.8275375;45.6297584;82261;6119524742;-73.829449;45.630922;0;16;17;9084228;Bus 11 : GARE STE-THÉRÈSE;"";EXO;11 N;Curé-Labelle / des Oiseaux;Gare Sainte-Thérèse
350600818;"{\"type\":\"LineString\",\"coordinates\":[[-73.828746,45.6304259],[-73.828573,45.6303082]]}";3;Rue Turgeon;1;50;false;false;false;false;false;false;19.0;0;0;0;0;0;false;82862;6119523268;-73.8275375;45.6297584;82261;6119524742;-73.829449;45.630922;0;16;17;9084228;Bus 11 : GARE STE-THÉRÈSE;"";EXO;11 N;Curé-Labelle / des Oiseaux;Gare Sainte-Thérèse
25599779;"{\"type\":\"LineString\",\"coordinates\":[[-73.8296082,45.6310128],[-73.8293238,45.6308192],[-73.828746,45.6304259]]}";4;Rue Turgeon;1;50;false;false;false;false;false;false;94.0;0;0;0;0;0;false;82862;6119523268;-73.8275375;45.6297584;82261;6119524742;-73.829449;45.630922;2;16;17;9084228;Bus 11 : GARE STE-THÉRÈSE;"";EXO;11 N;Curé-Labelle / des Oiseaux;Gare Sainte-Thérèse
298125041;"{\"type\":\"LineString\",\"coordinates\":[[-73.8296644,45.6310504],[-73.8296344,45.6310304],[-73.8296082,45.6310128]]}";1;Rue Turgeon;1;50;false;false;false;false;false;false;7.0;0;0;0;0;0;false;82261;6119524742;-73.829449;45.630922;82262;6119524741;-73.83249;45.63297;2;17;18;9084228;Bus 11 : GARE STE-THÉRÈSE;"";EXO;11 N;Curé-Labelle / des Oiseaux;Gare Sainte-Thérèse
653254439;"{\"type\":\"LineString\",\"coordinates\":[[-73.8327634,45.6330896],[-73.8326858,45.6330384],[-73.8326035,45.6329841],[-73.8323607,45.6328221],[-73.8322559,45.6327532],[-73.8321544,45.6326864],[-73.8320944,45.632647],[-73.8318851,45.6325094],[-73.8318354,45.6324768],[-73.8314656,45.632236],[-73.8314507,45.6322259],[-73.8310387,45.6319483],[-73.8306556,45.6316902],[-73.8303825,45.6315174],[-73.8301718,45.6313841],[-73.8300231,45.63129],[-73.8297656,45.631118],[-73.8296644,45.6310504]]}";2;Rue Turgeon;2;50;false;false;true;false;false;false;332.0;1;0;0;0;0;false;82261;6119524742;-73.829449;45.630922;82262;6119524741;-73.83249;45.63297;2;17;18;9084228;Bus 11 : GARE STE-THÉRÈSE;"";EXO;11 N;Curé-Labelle / des Oiseaux;Gare Sainte-Thérèse
653254439;"{\"type\":\"LineString\",\"coordinates\":[[-73.8327634,45.6330896],[-73.8326858,45.6330384],[-73.8326035,45.6329841],[-73.8323607,45.6328221],[-73.8322559,45.6327532],[-73.8321544,45.6326864],[-73.8320944,45.632647],[-73.8318851,45.6325094],[-73.8318354,45.6324768],[-73.8314656,45.632236],[-73.8314507,45.6322259],[-73.8310387,45.6319483],[-73.8306556,45.6316902],[-73.8303825,45.6315174],[-73.8301718,45.6313841],[-73.8300231,45.63129],[-73.8297656,45.631118],[-73.8296644,45.6310504]]}";1;Rue Turgeon;2;50;false;false;true;false;false;false;166.0;1;0;0;0;0;false;82262;6119524741;-73.83249;45.63297;82035;6119525317;-73.834747;45.635784;1;18;19;9084228;Bus 11 : GARE STE-THÉRÈSE;"";EXO;11 N;Curé-Labelle / des Oiseaux;Gare Sainte-Thérèse
458155264;"{\"type\":\"LineString\",\"coordinates\":[[-73.8327634,45.6330896],[-73.8324339,45.633354],[-73.8323213,45.6334444],[-73.8322436,45.6335067],[-73.8321506,45.6335814],[-73.8319864,45.6337131],[-73.8313895,45.6341921],[-73.8312677,45.6342898],[-73.8312133,45.6343318]]}";2;Boulevard Desjardins Est;2;40;false;true;true;false;false;false;184.0;0;0;0;0;0;false;82262;6119524741;-73.83249;45.63297;82035;6119525317;-73.834747;45.635784;0;18;19;9084228;Bus 11 : GARE STE-THÉRÈSE;"";EXO;11 N;Curé-Labelle / des Oiseaux;Gare Sainte-Thérèse
42904463;"{\"type\":\"LineString\",\"coordinates\":[[-73.8312133,45.6343318],[-73.8312914,45.6343832]]}";3;Rue Saint-Alphonse;1;50;false;false;true;false;false;false;9.0;0;0;0;0;0;false;82262;6119524741;-73.83249;45.63297;82035;6119525317;-73.834747;45.635784;0;18;19;9084228;Bus 11 : GARE STE-THÉRÈSE;"";EXO;11 N;Curé-Labelle / des Oiseaux;Gare Sainte-Thérèse
653256415;"{\"type\":\"LineString\",\"coordinates\":[[-73.8312914,45.6343832],[-73.8319665,45.6348309],[-73.8321067,45.6349239],[-73.8322795,45.6350385],[-73.8326436,45.6352799],[-73.8329976,45.6355146]]}";4;Rue Saint-Alphonse;1;50;false;false;true;false;false;false;183.0;0;0;0;0;0;false;82262;6119524741;-73.83249;45.63297;82035;6119525317;-73.834747;45.635784;0;18;19;9084228;Bus 11 : GARE STE-THÉRÈSE;"";EXO;11 N;Curé-Labelle / des Oiseaux;Gare Sainte-Thérèse
529203724;"{\"type\":\"LineString\",\"coordinates\":[[-73.8339481,45.6356843],[-73.8337953,45.6356449],[-73.8337255,45.6356355],[-73.8335183,45.6356418],[-73.8331872,45.6356518],[-73.8329976,45.6355146]]}";5;"";1;50;false;false;true;false;false;false;82.0;0;0;0;0;0;false;82262;6119524741;-73.83249;45.63297;82035;6119525317;-73.834747;45.635784;0;18;19;9084228;Bus 11 : GARE STE-THÉRÈSE;"";EXO;11 N;Curé-Labelle / des Oiseaux;Gare Sainte-Thérèse
529203723;"{\"type\":\"LineString\",\"coordinates\":[[-73.8339481,45.6356843],[-73.8343198,45.635673],[-73.8355432,45.6356357],[-73.835722,45.6356303],[-73.8358794,45.6356222],[-73.8360357,45.6356141]]}";6;"";1;50;false;true;true;false;false;false;163.0;0;0;0;0;0;false;82262;6119524741;-73.83249;45.63297;82035;6119525317;-73.834747;45.635784;0;18;19;9084228;Bus 11 : GARE STE-THÉRÈSE;"";EXO;11 N;Curé-Labelle / des Oiseaux;Gare Sainte-Thérèse
293537867;"{\"type\":\"LineString\",\"coordinates\":[[-73.8360357,45.6356141],[-73.8360384,45.635693],[-73.8360089,45.6357774],[-73.8359547,45.6358045],[-73.8358842,45.6358399]]}";7;"";1;50;false;true;true;false;false;false;31.0;0;0;0;0;0;false;82262;6119524741;-73.83249;45.63297;82035;6119525317;-73.834747;45.635784;0;18;19;9084228;Bus 11 : GARE STE-THÉRÈSE;"";EXO;11 N;Curé-Labelle / des Oiseaux;Gare Sainte-Thérèse
676299802;"{\"type\":\"LineString\",\"coordinates\":[[-73.8358842,45.6358399],[-73.8355794,45.6358509],[-73.834757,45.6358805]]}";8;"";1;50;false;true;true;false;false;false;88.0;0;0;0;0;0;false;82262;6119524741;-73.83249;45.63297;82035;6119525317;-73.834747;45.635784;1;18;19;9084228;Bus 11 : GARE STE-THÉRÈSE;"";EXO;11 N;Curé-Labelle / des Oiseaux;Gare Sainte-Thérèse
