way_id;shape;index;name;nb_lanes;legal_speed;speed_zone_30;oneway;shares_bike;bike_box;bus_lane;dedicated_bus_lane;length;nb_traffic_signals;nb_crossings;nb_stops;nb_give_ways;nb_lvl_crossings;roundabout;stop_id_orig;node_id_orig;coord_x_orig;coord_y_orig;stop_id_dest;node_id_dest;coord_x_dest;coord_y_dest;nb_neighbouring_ways_bus_stop;ordre_orig;ordre_dest;id_line;line_name;colour;operator;ref;from;to
114875722;"{\"type\":\"LineString\",\"coordinates\":[[-73.5660382,45.4978987],[-73.5665157,45.4981355],[-73.5665292,45.4981543],[-73.5665399,45.4981825],[-73.5665292,45.4982276],[-73.5663897,45.4983743],[-73.5663334,45.4983912],[-73.5662851,45.4984006],[-73.5662368,45.4983874],[-73.5659569,45.4982563]]}";1;"";1;50;false;true;true;false;true;false;115.0;0;0;0;0;0;false;75263;6133323059;-73.566056;45.498377;75466;6133322816;-73.557793;45.496306;1;0;1;9513132;Bus 323 : Direction Candiac;"";EXO;323 S;Terminus Centre-Ville;Stationnement incitatif Candiac
114875709;"{\"type\":\"LineString\",\"coordinates\":[[-73.5660382,45.4978987],[-73.5661483,45.4977952],[-73.5662099,45.4977103]]}";2;"";1;50;false;true;true;false;true;false;25.0;0;0;0;0;0;false;75263;6133323059;-73.566056;45.498377;75466;6133322816;-73.557793;45.496306;0;0;1;9513132;Bus 323 : Direction Candiac;"";EXO;323 S;Terminus Centre-Ville;Stationnement incitatif Candiac
114875719;"{\"type\":\"LineString\",\"coordinates\":[[-73.5662099,45.4977103],[-73.5662723,45.4976542]]}";3;"";1;50;false;true;true;false;true;false;8.0;0;0;0;0;0;false;75263;6133323059;-73.566056;45.498377;75466;6133322816;-73.557793;45.496306;0;0;1;9513132;Bus 323 : Direction Candiac;"";EXO;323 S;Terminus Centre-Ville;Stationnement incitatif Candiac
685493151;"{\"type\":\"LineString\",\"coordinates\":[[-73.5662723,45.4976542],[-73.566035,45.497542]]}";4;Rue de la Cathédrale;1;50;false;true;true;false;false;false;23.0;1;0;0;0;0;false;75263;6133323059;-73.566056;45.498377;75466;6133322816;-73.557793;45.496306;0;0;1;9513132;Bus 323 : Direction Candiac;"";EXO;323 S;Terminus Centre-Ville;Stationnement incitatif Candiac
465653669;"{\"type\":\"LineString\",\"coordinates\":[[-73.565584,45.4979128],[-73.566035,45.497542]]}";5;Rue Saint-Antoine Ouest;4;50;false;false;true;false;false;false;55.0;1;0;0;0;0;false;75263;6133323059;-73.566056;45.498377;75466;6133322816;-73.557793;45.496306;0;0;1;9513132;Bus 323 : Direction Candiac;"";EXO;323 S;Terminus Centre-Ville;Stationnement incitatif Candiac
465653670;"{\"type\":\"LineString\",\"coordinates\":[[-73.5651977,45.4982305],[-73.565584,45.4979128]]}";6;Rue Saint-Antoine Ouest;4;50;false;false;true;false;false;false;47.0;1;0;0;0;0;false;75263;6133323059;-73.566056;45.498377;75466;6133322816;-73.557793;45.496306;0;0;1;9513132;Bus 323 : Direction Candiac;"";EXO;323 S;Terminus Centre-Ville;Stationnement incitatif Candiac
465653668;"{\"type\":\"LineString\",\"coordinates\":[[-73.5647776,45.4985685],[-73.5651977,45.4982305]]}";7;Rue Saint-Antoine Ouest;4;50;false;false;true;false;false;false;50.0;1;0;0;0;0;false;75263;6133323059;-73.566056;45.498377;75466;6133322816;-73.557793;45.496306;0;0;1;9513132;Bus 323 : Direction Candiac;"";EXO;323 S;Terminus Centre-Ville;Stationnement incitatif Candiac
114875712;"{\"type\":\"LineString\",\"coordinates\":[[-73.5646367,45.4986819],[-73.5647776,45.4985685]]}";8;Rue Saint-Antoine Ouest;4;50;false;false;true;false;false;false;17.0;0;0;0;0;0;false;75263;6133323059;-73.566056;45.498377;75466;6133322816;-73.557793;45.496306;0;0;1;9513132;Bus 323 : Direction Candiac;"";EXO;323 S;Terminus Centre-Ville;Stationnement incitatif Candiac
114875727;"{\"type\":\"LineString\",\"coordinates\":[[-73.5638176,45.4993408],[-73.5646367,45.4986819]]}";9;Rue Saint-Antoine Ouest;1;50;false;false;true;false;false;false;98.0;0;0;0;0;0;false;75263;6133323059;-73.566056;45.498377;75466;6133322816;-73.557793;45.496306;0;0;1;9513132;Bus 323 : Direction Candiac;"";EXO;323 S;Terminus Centre-Ville;Stationnement incitatif Candiac
456318009;"{\"type\":\"LineString\",\"coordinates\":[[-73.5635034,45.4995899],[-73.5638176,45.4993408]]}";10;Rue Saint-Antoine Ouest;1;50;false;false;true;false;false;false;37.0;1;0;0;0;0;false;75263;6133323059;-73.566056;45.498377;75466;6133322816;-73.557793;45.496306;0;0;1;9513132;Bus 323 : Direction Candiac;"";EXO;323 S;Terminus Centre-Ville;Stationnement incitatif Candiac
456321034;"{\"type\":\"LineString\",\"coordinates\":[[-73.5635034,45.4995899],[-73.5626665,45.4990006]]}";11;Boulevard Robert-Bourassa;4;50;false;true;true;false;false;false;93.0;2;0;0;0;0;false;75263;6133323059;-73.566056;45.498377;75466;6133322816;-73.557793;45.496306;0;0;1;9513132;Bus 323 : Direction Candiac;"";EXO;323 S;Terminus Centre-Ville;Stationnement incitatif Candiac
300627773;"{\"type\":\"LineString\",\"coordinates\":[[-73.5626665,45.4990006],[-73.5623547,45.4987872],[-73.5621626,45.4986172],[-73.5620042,45.4984483],[-73.5618002,45.4982427],[-73.5616856,45.4981447],[-73.5616582,45.4981239],[-73.5615338,45.4980295]]}";12;Boulevard Robert-Bourassa;4;50;false;true;true;false;false;false;140.0;2;0;0;0;0;false;75263;6133323059;-73.566056;45.498377;75466;6133322816;-73.557793;45.496306;0;0;1;9513132;Bus 323 : Direction Candiac;"";EXO;323 S;Terminus Centre-Ville;Stationnement incitatif Candiac
352392847;"{\"type\":\"LineString\",\"coordinates\":[[-73.5615338,45.4980295],[-73.5614113,45.4979602],[-73.5610365,45.4977732],[-73.5606297,45.4975779],[-73.5601383,45.4973487],[-73.5594743,45.4970519],[-73.5591756,45.4969344]]}";13;Boulevard Robert-Bourassa;3;50;false;true;true;false;false;false;221.0;2;0;0;0;0;false;75263;6133323059;-73.566056;45.498377;75466;6133322816;-73.557793;45.496306;0;0;1;9513132;Bus 323 : Direction Candiac;"";EXO;323 S;Terminus Centre-Ville;Stationnement incitatif Candiac
664696778;"{\"type\":\"LineString\",\"coordinates\":[[-73.5591756,45.4969344],[-73.5576146,45.4963618],[-73.5566334,45.4960019],[-73.5557327,45.4956715]]}";14;Boulevard Robert-Bourassa;5;50;false;true;true;false;false;false;152.0;3;0;0;0;0;false;75263;6133323059;-73.566056;45.498377;75466;6133322816;-73.557793;45.496306;1;0;1;9513132;Bus 323 : Direction Candiac;"";EXO;323 S;Terminus Centre-Ville;Stationnement incitatif Candiac
664696778;"{\"type\":\"LineString\",\"coordinates\":[[-73.5591756,45.4969344],[-73.5576146,45.4963618],[-73.5566334,45.4960019],[-73.5557327,45.4956715]]}";1;Boulevard Robert-Bourassa;5;50;false;true;true;false;false;false;152.0;3;0;0;0;0;false;75466;6133322816;-73.557793;45.496306;75017;6133324641;-73.46574;45.454576;1;1;2;9513132;Bus 323 : Direction Candiac;"";EXO;323 S;Terminus Centre-Ville;Stationnement incitatif Candiac
428978765;"{\"type\":\"LineString\",\"coordinates\":[[-73.5557327,45.4956715],[-73.5554185,45.4955444],[-73.5552568,45.4954742],[-73.5551287,45.4953983],[-73.5549327,45.4952567],[-73.5548013,45.4951309],[-73.5547029,45.495014],[-73.5546166,45.494885],[-73.554546,45.494732],[-73.5544449,45.4944655],[-73.5543449,45.4942123],[-73.5542567,45.4939794],[-73.5541868,45.4937959],[-73.5541179,45.4936077],[-73.5540485,45.4934289],[-73.5539834,45.4932646]]}";2;Autoroute Bonaventure Expressway;3;50;false;true;false;false;false;false;314.0;1;0;0;0;0;false;75466;6133322816;-73.557793;45.496306;75017;6133324641;-73.46574;45.454576;0;1;2;9513132;Bus 323 : Direction Candiac;"";EXO;323 S;Terminus Centre-Ville;Stationnement incitatif Candiac
428978767;"{\"type\":\"LineString\",\"coordinates\":[[-73.5539834,45.4932646],[-73.5538717,45.4930299],[-73.5537919,45.4928613],[-73.5537005,45.492684],[-73.5536109,45.492534],[-73.55351,45.4923856],[-73.5533999,45.4922211],[-73.5532714,45.4920547],[-73.5531387,45.4919071],[-73.5529876,45.4917566],[-73.5528396,45.4916157]]}";3;Autoroute Bonaventure Expressway;3;50;false;true;false;false;false;false;206.0;0;0;0;0;0;false;75466;6133322816;-73.557793;45.496306;75017;6133324641;-73.46574;45.454576;0;1;2;9513132;Bus 323 : Direction Candiac;"";EXO;323 S;Terminus Centre-Ville;Stationnement incitatif Candiac
385754237;"{\"type\":\"LineString\",\"coordinates\":[[-73.5528396,45.4916157],[-73.5526701,45.4914689],[-73.5524864,45.4913215],[-73.5523393,45.4912103],[-73.5521897,45.4911082],[-73.5520308,45.4910079],[-73.5518578,45.4909001],[-73.5516631,45.4907954],[-73.5514593,45.4906906]]}";4;Autoroute Bonaventure Expressway;4;50;false;true;false;false;false;false;150.0;0;0;0;0;0;false;75466;6133322816;-73.557793;45.496306;75017;6133324641;-73.46574;45.454576;0;1;2;9513132;Bus 323 : Direction Candiac;"";EXO;323 S;Terminus Centre-Ville;Stationnement incitatif Candiac
361815169;"{\"type\":\"LineString\",\"coordinates\":[[-73.5514593,45.4906906],[-73.5512408,45.4905856],[-73.5509789,45.4904728],[-73.5507265,45.4903708]]}";5;Autoroute Bonaventure Expressway;4;50;false;true;false;false;false;false;68.0;0;0;0;0;0;false;75466;6133322816;-73.557793;45.496306;75017;6133324641;-73.46574;45.454576;0;1;2;9513132;Bus 323 : Direction Candiac;"";EXO;323 S;Terminus Centre-Ville;Stationnement incitatif Candiac
385754241;"{\"type\":\"LineString\",\"coordinates\":[[-73.5507265,45.4903708],[-73.5505125,45.4902942],[-73.5503197,45.4902333],[-73.5500927,45.4901664],[-73.5498345,45.4901],[-73.5495773,45.4900379],[-73.5492978,45.489978],[-73.5490171,45.4899238],[-73.5461765,45.4893863]]}";6;Autoroute Bonaventure Expressway;3;50;false;true;false;false;false;false;373.0;0;0;0;0;0;false;75466;6133322816;-73.557793;45.496306;75017;6133324641;-73.46574;45.454576;0;1;2;9513132;Bus 323 : Direction Candiac;"";EXO;323 S;Terminus Centre-Ville;Stationnement incitatif Candiac
567717687;"{\"type\":\"LineString\",\"coordinates\":[[-73.5461765,45.4893863],[-73.5427334,45.4887242]]}";7;Autoroute Bonaventure Expressway;3;70;false;true;false;false;false;false;279.0;0;0;0;0;0;false;75466;6133322816;-73.557793;45.496306;75017;6133324641;-73.46574;45.454576;0;1;2;9513132;Bus 323 : Direction Candiac;"";EXO;323 S;Terminus Centre-Ville;Stationnement incitatif Candiac
48666271;"{\"type\":\"LineString\",\"coordinates\":[[-73.5427334,45.4887242],[-73.5422116,45.488558],[-73.542016,45.4884998]]}";8;"";1;50;false;true;true;false;false;false;62.0;0;0;0;0;0;false;75466;6133322816;-73.557793;45.496306;75017;6133324641;-73.46574;45.454576;0;1;2;9513132;Bus 323 : Direction Candiac;"";EXO;323 S;Terminus Centre-Ville;Stationnement incitatif Candiac
48666298;"{\"type\":\"LineString\",\"coordinates\":[[-73.542016,45.4884998],[-73.5418275,45.4884538]]}";9;"";1;50;false;true;true;false;false;false;16.0;0;0;0;0;0;false;75466;6133322816;-73.557793;45.496306;75017;6133324641;-73.46574;45.454576;0;1;2;9513132;Bus 323 : Direction Candiac;"";EXO;323 S;Terminus Centre-Ville;Stationnement incitatif Candiac
48666297;"{\"type\":\"LineString\",\"coordinates\":[[-73.5418275,45.4884538],[-73.5415554,45.488395],[-73.5411811,45.4883256],[-73.5409718,45.488284],[-73.5407814,45.4882388],[-73.54059,45.4881754],[-73.5404113,45.4881063]]}";10;"";1;50;false;true;true;false;false;false;118.0;0;0;0;0;0;false;75466;6133322816;-73.557793;45.496306;75017;6133324641;-73.46574;45.454576;0;1;2;9513132;Bus 323 : Direction Candiac;"";EXO;323 S;Terminus Centre-Ville;Stationnement incitatif Candiac
23027190;"{\"type\":\"LineString\",\"coordinates\":[[-73.5404113,45.4881063],[-73.5402157,45.48804],[-73.5400108,45.4879566],[-73.5398209,45.4878687],[-73.5396416,45.4877795],[-73.5394706,45.4876852],[-73.539289,45.4875746],[-73.5391318,45.4874685],[-73.5389634,45.4873398],[-73.5388076,45.4872055],[-73.5386646,45.4870673],[-73.5385313,45.4869226],[-73.5384158,45.4867854],[-73.5383118,45.4866546],[-73.5382178,45.4865288],[-73.5381429,45.4864193],[-73.5380756,45.4863127],[-73.5380134,45.4861965],[-73.5379497,45.4860576],[-73.5378929,45.4859065],[-73.5378527,45.4857565],[-73.5378202,45.4856055],[-73.5377921,45.4854451],[-73.5377756,45.4852961],[-73.5377689,45.4851382],[-73.5377729,45.4849658],[-73.5377873,45.4847776],[-73.5378115,45.4846227],[-73.5378426,45.4844612],[-73.5380341,45.4836661]]}";11;"";1;50;false;true;false;false;false;false;575.0;0;0;0;0;0;false;75466;6133322816;-73.557793;45.496306;75017;6133324641;-73.46574;45.454576;0;1;2;9513132;Bus 323 : Direction Candiac;"";EXO;323 S;Terminus Centre-Ville;Stationnement incitatif Candiac
685468121;"{\"type\":\"LineString\",\"coordinates\":[[-73.5380341,45.4836661],[-73.5382816,45.4829689],[-73.5384797,45.4824157],[-73.5387112,45.481754],[-73.5389705,45.4810329],[-73.5392547,45.4801208],[-73.5397419,45.478817],[-73.5400333,45.4781293],[-73.5404144,45.4773194]]}";12;Autoroute Bonaventure Expressway;1;70;false;true;false;false;false;false;730.0;0;0;0;0;0;false;75466;6133322816;-73.557793;45.496306;75017;6133324641;-73.46574;45.454576;0;1;2;9513132;Bus 323 : Direction Candiac;"";EXO;323 S;Terminus Centre-Ville;Stationnement incitatif Candiac
677782935;"{\"type\":\"LineString\",\"coordinates\":[[-73.5404144,45.4773194],[-73.5406017,45.4769354],[-73.5411113,45.4759718],[-73.5413755,45.4754887],[-73.5416588,45.4750109]]}";13;Pont Clément Bridge;2;70;false;true;false;false;false;false;275.0;0;0;0;0;0;false;75466;6133322816;-73.557793;45.496306;75017;6133324641;-73.46574;45.454576;0;1;2;9513132;Bus 323 : Direction Candiac;"";EXO;323 S;Terminus Centre-Ville;Stationnement incitatif Candiac
567717682;"{\"type\":\"LineString\",\"coordinates\":[[-73.5416588,45.4750109],[-73.5420724,45.4743571]]}";14;Pont Clément Bridge;2;50;false;true;false;false;false;false;80.0;0;0;0;0;0;false;75466;6133322816;-73.557793;45.496306;75017;6133324641;-73.46574;45.454576;0;1;2;9513132;Bus 323 : Direction Candiac;"";EXO;323 S;Terminus Centre-Ville;Stationnement incitatif Candiac
39180623;"{\"type\":\"LineString\",\"coordinates\":[[-73.5420724,45.4743571],[-73.5422524,45.4740884],[-73.5424157,45.4738315],[-73.5425961,45.4735652],[-73.5430496,45.4729449]]}";15;Autoroute Bonaventure;2;50;false;true;true;false;false;false;175.0;0;0;0;0;0;false;75466;6133322816;-73.557793;45.496306;75017;6133324641;-73.46574;45.454576;0;1;2;9513132;Bus 323 : Direction Candiac;"";EXO;323 S;Terminus Centre-Ville;Stationnement incitatif Candiac
43068386;"{\"type\":\"LineString\",\"coordinates\":[[-73.5430496,45.4729449],[-73.5432928,45.4726092]]}";16;Autoroute Bonaventure;2;50;false;true;true;false;false;false;42.0;0;0;0;0;0;false;75466;6133322816;-73.557793;45.496306;75017;6133324641;-73.46574;45.454576;0;1;2;9513132;Bus 323 : Direction Candiac;"";EXO;323 S;Terminus Centre-Ville;Stationnement incitatif Candiac
43068385;"{\"type\":\"LineString\",\"coordinates\":[[-73.5432928,45.4726092],[-73.5436727,45.4721223],[-73.5442333,45.4714332],[-73.5445429,45.4710827],[-73.5450373,45.4705371],[-73.5451519,45.470368],[-73.5451963,45.4702037],[-73.5451777,45.4700648],[-73.5451347,45.4699397],[-73.5450208,45.4697568],[-73.544847,45.4696114],[-73.5446799,45.4695157],[-73.5445055,45.4694536],[-73.5443311,45.4694183],[-73.5441751,45.4694066],[-73.5439949,45.4694138],[-73.5437722,45.4694511],[-73.5436193,45.4694983],[-73.54315,45.469709],[-73.5426519,45.4698258],[-73.542304,45.4699265],[-73.5418403,45.4699973],[-73.541601,45.4700149],[-73.540742,45.4700409],[-73.5400245,45.4700565]]}";17;Autoroute Bonaventure;3;50;false;true;true;false;false;false;777.0;0;0;0;0;0;false;75466;6133322816;-73.557793;45.496306;75017;6133324641;-73.46574;45.454576;0;1;2;9513132;Bus 323 : Direction Candiac;"";EXO;323 S;Terminus Centre-Ville;Stationnement incitatif Candiac
728797117;"{\"type\":\"LineString\",\"coordinates\":[[-73.5400245,45.4700565],[-73.5382768,45.4700942]]}";18;Autoroute Bonaventure;2;50;false;true;true;false;false;false;137.0;0;0;0;0;0;false;75466;6133322816;-73.557793;45.496306;75017;6133324641;-73.46574;45.454576;0;1;2;9513132;Bus 323 : Direction Candiac;"";EXO;323 S;Terminus Centre-Ville;Stationnement incitatif Candiac
728797118;"{\"type\":\"LineString\",\"coordinates\":[[-73.5382768,45.4700942],[-73.5378255,45.4701167]]}";19;Autoroute Bonaventure;2;50;false;true;true;false;false;false;36.0;0;0;0;0;0;false;75466;6133322816;-73.557793;45.496306;75017;6133324641;-73.46574;45.454576;0;1;2;9513132;Bus 323 : Direction Candiac;"";EXO;323 S;Terminus Centre-Ville;Stationnement incitatif Candiac
708682529;"{\"type\":\"LineString\",\"coordinates\":[[-73.5378255,45.4701167],[-73.536113,45.4701171]]}";20;Autoroute 15;5;80;false;true;true;false;false;false;134.0;0;0;0;0;0;false;75466;6133322816;-73.557793;45.496306;75017;6133324641;-73.46574;45.454576;0;1;2;9513132;Bus 323 : Direction Candiac;"";EXO;323 S;Terminus Centre-Ville;Stationnement incitatif Candiac
364775281;"{\"type\":\"LineString\",\"coordinates\":[[-73.536113,45.4701171],[-73.5335206,45.4700904],[-73.5293215,45.4699928],[-73.5256685,45.4698606],[-73.5246415,45.4698106],[-73.5211502,45.4696112],[-73.5196763,45.4695143],[-73.5181633,45.4694048],[-73.5163826,45.4692646],[-73.5145853,45.4691035],[-73.5082364,45.4684851]]}";21;Pont Samuel-De Champlain;3;80;false;true;true;false;false;false;2188.0;0;0;0;0;0;false;75466;6133322816;-73.557793;45.496306;75017;6133324641;-73.46574;45.454576;0;1;2;9513132;Bus 323 : Direction Candiac;"";EXO;323 S;Terminus Centre-Ville;Stationnement incitatif Candiac
646417293;"{\"type\":\"LineString\",\"coordinates\":[[-73.5082364,45.4684851],[-73.5072787,45.4683745],[-73.5044923,45.4680805],[-73.5015577,45.4677715]]}";22;Pont Samuel-De Champlain;3;80;false;true;true;false;false;false;528.0;0;0;0;0;0;false;75466;6133322816;-73.557793;45.496306;75017;6133324641;-73.46574;45.454576;0;1;2;9513132;Bus 323 : Direction Candiac;"";EXO;323 S;Terminus Centre-Ville;Stationnement incitatif Candiac
646417307;"{\"type\":\"LineString\",\"coordinates\":[[-73.5015577,45.4677715],[-73.4986974,45.4674663],[-73.4969674,45.4672651],[-73.4952108,45.4670394],[-73.4920054,45.4666495]]}";23;Pont Samuel-De Champlain;4;80;false;true;true;false;false;false;757.0;0;0;0;0;0;false;75466;6133322816;-73.557793;45.496306;75017;6133324641;-73.46574;45.454576;0;1;2;9513132;Bus 323 : Direction Candiac;"";EXO;323 S;Terminus Centre-Ville;Stationnement incitatif Candiac
698922475;"{\"type\":\"LineString\",\"coordinates\":[[-73.4920054,45.4666495],[-73.4890674,45.4662312]]}";24;Autoroute des Cantons-de-l'Est;4;80;false;true;true;false;false;false;235.0;0;0;0;0;0;false;75466;6133322816;-73.557793;45.496306;75017;6133324641;-73.46574;45.454576;0;1;2;9513132;Bus 323 : Direction Candiac;"";EXO;323 S;Terminus Centre-Ville;Stationnement incitatif Candiac
724437661;"{\"type\":\"LineString\",\"coordinates\":[[-73.4890674,45.4662312],[-73.4873281,45.4659783],[-73.4856025,45.4657592],[-73.4848513,45.4656558],[-73.4833534,45.4654796]]}";25;Autoroute des Cantons-de-l'Est;3;80;false;true;true;false;false;false;455.0;0;0;0;0;0;false;75466;6133322816;-73.557793;45.496306;75017;6133324641;-73.46574;45.454576;0;1;2;9513132;Bus 323 : Direction Candiac;"";EXO;323 S;Terminus Centre-Ville;Stationnement incitatif Candiac
699232599;"{\"type\":\"LineString\",\"coordinates\":[[-73.4833534,45.4654796],[-73.482022,45.4653559],[-73.4802248,45.4652297],[-73.4791933,45.4651729],[-73.4781865,45.4651216],[-73.474282,45.4649227],[-73.4725575,45.4648665]]}";26;Autoroute des Cantons-de-l'Est;1;80;false;true;true;false;false;false;847.0;0;0;0;0;0;false;75466;6133322816;-73.557793;45.496306;75017;6133324641;-73.46574;45.454576;0;1;2;9513132;Bus 323 : Direction Candiac;"";EXO;323 S;Terminus Centre-Ville;Stationnement incitatif Candiac
8289420;"{\"type\":\"LineString\",\"coordinates\":[[-73.4725575,45.4648665],[-73.4719735,45.4648082],[-73.4712459,45.46474],[-73.4703174,45.4646608],[-73.4692837,45.4645546],[-73.4687007,45.4644601],[-73.4682854,45.4643283],[-73.4677692,45.4640481],[-73.4674681,45.4638296],[-73.4671112,45.4636309],[-73.4668634,45.4635538],[-73.4665806,45.4635239]]}";27;"";1;50;false;true;true;false;false;false;505.0;0;0;0;0;0;false;75466;6133322816;-73.557793;45.496306;75017;6133324641;-73.46574;45.454576;0;1;2;9513132;Bus 323 : Direction Candiac;"";EXO;323 S;Terminus Centre-Ville;Stationnement incitatif Candiac
458455128;"{\"type\":\"LineString\",\"coordinates\":[[-73.4665806,45.4635239],[-73.4660691,45.4636232],[-73.4658502,45.4636921],[-73.465718,45.4637337]]}";28;"";1;50;false;true;true;false;false;false;72.0;1;0;0;0;0;false;75466;6133322816;-73.557793;45.496306;75017;6133324641;-73.46574;45.454576;0;1;2;9513132;Bus 323 : Direction Candiac;"";EXO;323 S;Terminus Centre-Ville;Stationnement incitatif Candiac
39239393;"{\"type\":\"LineString\",\"coordinates\":[[-73.465718,45.4637337],[-73.4656681,45.4634008],[-73.4656181,45.4629646]]}";29;Boulevard Taschereau;1;50;false;true;false;false;false;false;86.0;0;0;0;0;0;false;75466;6133322816;-73.557793;45.496306;75017;6133324641;-73.46574;45.454576;0;1;2;9513132;Bus 323 : Direction Candiac;"";EXO;323 S;Terminus Centre-Ville;Stationnement incitatif Candiac
468682401;"{\"type\":\"LineString\",\"coordinates\":[[-73.4656181,45.4629646],[-73.465593,45.4627206]]}";30;Boulevard Taschereau;1;50;false;true;false;false;false;false;28.0;0;0;0;0;0;false;75466;6133322816;-73.557793;45.496306;75017;6133324641;-73.46574;45.454576;0;1;2;9513132;Bus 323 : Direction Candiac;"";EXO;323 S;Terminus Centre-Ville;Stationnement incitatif Candiac
39239296;"{\"type\":\"LineString\",\"coordinates\":[[-73.465593,45.4627206],[-73.4655024,45.4617011],[-73.4653704,45.4604573]]}";31;Boulevard Taschereau;1;50;false;true;false;false;false;false;252.0;0;0;0;0;0;false;75466;6133322816;-73.557793;45.496306;75017;6133324641;-73.46574;45.454576;0;1;2;9513132;Bus 323 : Direction Candiac;"";EXO;323 S;Terminus Centre-Ville;Stationnement incitatif Candiac
479473733;"{\"type\":\"LineString\",\"coordinates\":[[-73.4653704,45.4604573],[-73.465268,45.4594547],[-73.4652581,45.4593577],[-73.465248,45.459259]]}";32;Boulevard Taschereau;1;50;false;true;false;false;false;false;134.0;1;0;0;0;0;false;75466;6133322816;-73.557793;45.496306;75017;6133324641;-73.46574;45.454576;0;1;2;9513132;Bus 323 : Direction Candiac;"";EXO;323 S;Terminus Centre-Ville;Stationnement incitatif Candiac
39239295;"{\"type\":\"LineString\",\"coordinates\":[[-73.465248,45.459259],[-73.4652378,45.4591592]]}";33;Boulevard Taschereau;1;50;false;true;true;false;false;false;12.0;0;0;0;0;0;false;75466;6133322816;-73.557793;45.496306;75017;6133324641;-73.46574;45.454576;0;1;2;9513132;Bus 323 : Direction Candiac;"";EXO;323 S;Terminus Centre-Ville;Stationnement incitatif Candiac
39239297;"{\"type\":\"LineString\",\"coordinates\":[[-73.4652378,45.4591592],[-73.4651641,45.458438],[-73.4651599,45.4580786],[-73.4651555,45.4576992]]}";34;Boulevard Taschereau;1;70;false;true;true;false;true;false;163.0;0;0;0;0;0;false;75466;6133322816;-73.557793;45.496306;75017;6133324641;-73.46574;45.454576;0;1;2;9513132;Bus 323 : Direction Candiac;"";EXO;323 S;Terminus Centre-Ville;Stationnement incitatif Candiac
39505955;"{\"type\":\"LineString\",\"coordinates\":[[-73.4651555,45.4576992],[-73.4651494,45.4571803],[-73.465147,45.4569751],[-73.4652296,45.4563722],[-73.4652389,45.4563045],[-73.4653351,45.4556025]]}";35;Boulevard Taschereau;1;70;false;true;true;false;true;false;234.0;0;0;0;0;0;false;75466;6133322816;-73.557793;45.496306;75017;6133324641;-73.46574;45.454576;0;1;2;9513132;Bus 323 : Direction Candiac;"";EXO;323 S;Terminus Centre-Ville;Stationnement incitatif Candiac
34686231;"{\"type\":\"LineString\",\"coordinates\":[[-73.4653351,45.4556025],[-73.4653773,45.4554101],[-73.4654037,45.4552894]]}";36;Boulevard Taschereau;1;50;false;true;true;false;true;false;36.0;1;0;0;0;0;false;75466;6133322816;-73.557793;45.496306;75017;6133324641;-73.46574;45.454576;0;1;2;9513132;Bus 323 : Direction Candiac;"";EXO;323 S;Terminus Centre-Ville;Stationnement incitatif Candiac
34686234;"{\"type\":\"LineString\",\"coordinates\":[[-73.4654037,45.4552894],[-73.4654588,45.455122]]}";37;Boulevard Taschereau;1;50;false;true;false;false;false;false;20.0;0;0;0;0;0;false;75466;6133322816;-73.557793;45.496306;75017;6133324641;-73.46574;45.454576;0;1;2;9513132;Bus 323 : Direction Candiac;"";EXO;323 S;Terminus Centre-Ville;Stationnement incitatif Candiac
34686242;"{\"type\":\"LineString\",\"coordinates\":[[-73.4654588,45.455122],[-73.4654987,45.4549964],[-73.4655396,45.4548863],[-73.4656108,45.4546946]]}";38;Boulevard Taschereau;1;50;false;true;true;false;true;false;49.0;0;0;0;0;0;false;75466;6133322816;-73.557793;45.496306;75017;6133324641;-73.46574;45.454576;0;1;2;9513132;Bus 323 : Direction Candiac;"";EXO;323 S;Terminus Centre-Ville;Stationnement incitatif Candiac
34686241;"{\"type\":\"LineString\",\"coordinates\":[[-73.4656108,45.4546946],[-73.4657271,45.4544569],[-73.4659177,45.4540673],[-73.4660334,45.4538306],[-73.4660716,45.4537526],[-73.4661096,45.4536855],[-73.4665351,45.4529338],[-73.4668097,45.4524642],[-73.4668527,45.45241],[-73.4671831,45.451862],[-73.467386,45.4515255],[-73.467659,45.4510727],[-73.4679344,45.4506159],[-73.4680709,45.4503896],[-73.4683587,45.4499122],[-73.4685955,45.4495195],[-73.4690265,45.4488046],[-73.4691831,45.4485796],[-73.4693538,45.4483342],[-73.4697811,45.4477202],[-73.469882,45.4476001],[-73.4699725,45.4474452]]}";39;Boulevard Taschereau;1;50;false;true;true;false;true;false;437.5;0;0;0;0;0;false;75466;6133322816;-73.557793;45.496306;75017;6133324641;-73.46574;45.454576;1;1;2;9513132;Bus 323 : Direction Candiac;"";EXO;323 S;Terminus Centre-Ville;Stationnement incitatif Candiac
34686242;"{\"type\":\"LineString\",\"coordinates\":[[-73.4654588,45.455122],[-73.4654987,45.4549964],[-73.4655396,45.4548863],[-73.4656108,45.4546946]]}";1;Boulevard Taschereau;1;50;false;true;true;false;true;false;49.0;0;0;0;0;0;false;75017;6133324641;-73.46574;45.454576;75643;6133322652;-73.517101;45.393388;2;2;3;9513132;Bus 323 : Direction Candiac;"";EXO;323 S;Terminus Centre-Ville;Stationnement incitatif Candiac
34686241;"{\"type\":\"LineString\",\"coordinates\":[[-73.4656108,45.4546946],[-73.4657271,45.4544569],[-73.4659177,45.4540673],[-73.4660334,45.4538306],[-73.4660716,45.4537526],[-73.4661096,45.4536855],[-73.4665351,45.4529338],[-73.4668097,45.4524642],[-73.4668527,45.45241],[-73.4671831,45.451862],[-73.467386,45.4515255],[-73.467659,45.4510727],[-73.4679344,45.4506159],[-73.4680709,45.4503896],[-73.4683587,45.4499122],[-73.4685955,45.4495195],[-73.4690265,45.4488046],[-73.4691831,45.4485796],[-73.4693538,45.4483342],[-73.4697811,45.4477202],[-73.469882,45.4476001],[-73.4699725,45.4474452]]}";2;Boulevard Taschereau;1;50;false;true;true;false;true;false;875.0;0;0;0;0;0;false;75017;6133324641;-73.46574;45.454576;75643;6133322652;-73.517101;45.393388;0;2;3;9513132;Bus 323 : Direction Candiac;"";EXO;323 S;Terminus Centre-Ville;Stationnement incitatif Candiac
34686271;"{\"type\":\"LineString\",\"coordinates\":[[-73.4699725,45.4474452],[-73.4701602,45.4471672],[-73.4701861,45.447123],[-73.4702214,45.4470719]]}";3;Boulevard Taschereau;1;70;false;true;true;false;true;false;46.0;1;1;0;0;0;false;75017;6133324641;-73.46574;45.454576;75643;6133322652;-73.517101;45.393388;0;2;3;9513132;Bus 323 : Direction Candiac;"";EXO;323 S;Terminus Centre-Ville;Stationnement incitatif Candiac
34686262;"{\"type\":\"LineString\",\"coordinates\":[[-73.4702214,45.4470719],[-73.4703,45.4469665]]}";4;Boulevard Taschereau;1;70;false;true;false;false;false;false;14.0;0;0;0;0;0;false;75017;6133324641;-73.46574;45.454576;75643;6133322652;-73.517101;45.393388;0;2;3;9513132;Bus 323 : Direction Candiac;"";EXO;323 S;Terminus Centre-Ville;Stationnement incitatif Candiac
34686263;"{\"type\":\"LineString\",\"coordinates\":[[-73.4703,45.4469665],[-73.4703262,45.4469232],[-73.4704877,45.4466565]]}";5;Boulevard Taschereau;1;70;false;true;false;false;false;false;38.0;0;1;0;0;0;false;75017;6133324641;-73.46574;45.454576;75643;6133322652;-73.517101;45.393388;0;2;3;9513132;Bus 323 : Direction Candiac;"";EXO;323 S;Terminus Centre-Ville;Stationnement incitatif Candiac
34686270;"{\"type\":\"LineString\",\"coordinates\":[[-73.4704877,45.4466565],[-73.4705549,45.4465401],[-73.4708483,45.4460787],[-73.4709511,45.445923],[-73.4711461,45.4456198],[-73.471297,45.4453984],[-73.4714655,45.4451338],[-73.4717001,45.4447787],[-73.4718666,45.4445153],[-73.4720107,45.444287],[-73.4721274,45.444118],[-73.4723873,45.4436764],[-73.4725355,45.4433814],[-73.4727728,45.4427801],[-73.4728951,45.4423268],[-73.4729616,45.4420169],[-73.4730196,45.4415789],[-73.4730798,45.4411476],[-73.4730969,45.44104],[-73.4731931,45.4406584],[-73.4733522,45.4402278],[-73.4735003,45.4398844],[-73.4736484,45.4395779],[-73.4738427,45.4392269],[-73.4739526,45.4390662],[-73.4742897,45.4385447]]}";6;Boulevard Taschereau;1;70;false;true;false;false;true;false;956.0;0;0;0;0;0;false;75017;6133324641;-73.46574;45.454576;75643;6133322652;-73.517101;45.393388;0;2;3;9513132;Bus 323 : Direction Candiac;"";EXO;323 S;Terminus Centre-Ville;Stationnement incitatif Candiac
34686309;"{\"type\":\"LineString\",\"coordinates\":[[-73.4742897,45.4385447],[-73.4743994,45.4383854],[-73.474472,45.4382665],[-73.4745151,45.4382053],[-73.474553,45.4381499]]}";7;Boulevard Taschereau;1;70;false;true;false;false;false;false;49.0;1;0;0;0;0;false;75017;6133324641;-73.46574;45.454576;75643;6133322652;-73.517101;45.393388;0;2;3;9513132;Bus 323 : Direction Candiac;"";EXO;323 S;Terminus Centre-Ville;Stationnement incitatif Candiac
34686308;"{\"type\":\"LineString\",\"coordinates\":[[-73.474553,45.4381499],[-73.4746148,45.4380539],[-73.4748345,45.4377182],[-73.4748829,45.4376394],[-73.4754036,45.4368308],[-73.475643,45.4364611],[-73.4757522,45.4362905],[-73.4760404,45.4358349]]}";8;Boulevard Taschereau;2;70;false;true;false;false;false;false;283.0;0;0;0;0;0;false;75017;6133324641;-73.46574;45.454576;75643;6133322652;-73.517101;45.393388;0;2;3;9513132;Bus 323 : Direction Candiac;"";EXO;323 S;Terminus Centre-Ville;Stationnement incitatif Candiac
751199291;"{\"type\":\"LineString\",\"coordinates\":[[-73.4760404,45.4358349],[-73.4762745,45.4354709]]}";9;Boulevard Taschereau;5;70;false;true;false;false;false;false;45.0;0;0;0;0;0;false;75017;6133324641;-73.46574;45.454576;75643;6133322652;-73.517101;45.393388;0;2;3;9513132;Bus 323 : Direction Candiac;"";EXO;323 S;Terminus Centre-Ville;Stationnement incitatif Candiac
751199292;"{\"type\":\"LineString\",\"coordinates\":[[-73.4762745,45.4354709],[-73.4764629,45.4352049]]}";10;Boulevard Taschereau;5;70;false;true;false;false;false;false;34.0;0;0;0;0;0;false;75017;6133324641;-73.46574;45.454576;75643;6133322652;-73.517101;45.393388;0;2;3;9513132;Bus 323 : Direction Candiac;"";EXO;323 S;Terminus Centre-Ville;Stationnement incitatif Candiac
24380719;"{\"type\":\"LineString\",\"coordinates\":[[-73.4764629,45.4352049],[-73.4765644,45.4351258],[-73.4766224,45.4350806],[-73.4766692,45.4350481],[-73.4767345,45.4350222],[-73.4768379,45.4350039],[-73.476896,45.4349982],[-73.4769734,45.4349964],[-73.4770995,45.4350068]]}";11;"";1;50;false;true;true;false;false;false;59.0;0;0;0;0;0;false;75017;6133324641;-73.46574;45.454576;75643;6133322652;-73.517101;45.393388;0;2;3;9513132;Bus 323 : Direction Candiac;"";EXO;323 S;Terminus Centre-Ville;Stationnement incitatif Candiac
40317955;"{\"type\":\"LineString\",\"coordinates\":[[-73.4770995,45.4350068],[-73.4775797,45.4351613]]}";12;Boulevard Matte;3;50;false;true;true;false;false;false;42.0;0;0;0;0;0;false;75017;6133324641;-73.46574;45.454576;75643;6133322652;-73.517101;45.393388;0;2;3;9513132;Bus 323 : Direction Candiac;"";EXO;323 S;Terminus Centre-Ville;Stationnement incitatif Candiac
749266245;"{\"type\":\"LineString\",\"coordinates\":[[-73.4775797,45.4351613],[-73.4776849,45.4351886],[-73.4779389,45.4352488],[-73.4782136,45.4353007]]}";13;Boulevard Matte;3;50;false;true;true;false;false;false;52.0;0;0;0;0;0;false;75017;6133324641;-73.46574;45.454576;75643;6133322652;-73.517101;45.393388;0;2;3;9513132;Bus 323 : Direction Candiac;"";EXO;323 S;Terminus Centre-Ville;Stationnement incitatif Candiac
749260188;"{\"type\":\"LineString\",\"coordinates\":[[-73.4782136,45.4353007],[-73.4784309,45.435332],[-73.4788251,45.4353778],[-73.4792372,45.4354],[-73.4800141,45.435405]]}";14;Boulevard Matte;2;50;false;true;true;false;false;false;142.0;0;0;0;0;0;false;75017;6133324641;-73.46574;45.454576;75643;6133322652;-73.517101;45.393388;0;2;3;9513132;Bus 323 : Direction Candiac;"";EXO;323 S;Terminus Centre-Ville;Stationnement incitatif Candiac
749265808;"{\"type\":\"LineString\",\"coordinates\":[[-73.4800141,45.435405],[-73.481235,45.4354128],[-73.4813072,45.4354133],[-73.4814052,45.4354139]]}";15;Boulevard Matte;4;50;false;true;true;false;false;false;109.0;1;1;0;0;0;false;75017;6133324641;-73.46574;45.454576;75643;6133322652;-73.517101;45.393388;0;2;3;9513132;Bus 323 : Direction Candiac;"";EXO;323 S;Terminus Centre-Ville;Stationnement incitatif Candiac
501583479;"{\"type\":\"LineString\",\"coordinates\":[[-73.4814052,45.4354139],[-73.4815997,45.4354104]]}";16;Boulevard Matte;3;50;false;true;true;false;false;false;16.0;0;0;0;0;0;false;75017;6133324641;-73.46574;45.454576;75643;6133322652;-73.517101;45.393388;0;2;3;9513132;Bus 323 : Direction Candiac;"";EXO;323 S;Terminus Centre-Ville;Stationnement incitatif Candiac
749265809;"{\"type\":\"LineString\",\"coordinates\":[[-73.4815997,45.4354104],[-73.4816955,45.4354094],[-73.48348,45.4353905],[-73.4845845,45.4353805],[-73.4847063,45.4353762],[-73.4868932,45.4353586]]}";17;Boulevard Matte;2;50;false;true;true;false;false;false;414.0;1;2;0;0;0;false;75017;6133324641;-73.46574;45.454576;75643;6133322652;-73.517101;45.393388;0;2;3;9513132;Bus 323 : Direction Candiac;"";EXO;323 S;Terminus Centre-Ville;Stationnement incitatif Candiac
749265807;"{\"type\":\"LineString\",\"coordinates\":[[-73.4868932,45.4353586],[-73.4876245,45.4353529],[-73.4876831,45.4353522],[-73.487788,45.435351]]}";18;Boulevard Matte;3;50;false;true;true;false;false;false;70.0;1;1;0;0;0;false;75017;6133324641;-73.46574;45.454576;75643;6133322652;-73.517101;45.393388;0;2;3;9513132;Bus 323 : Direction Candiac;"";EXO;323 S;Terminus Centre-Ville;Stationnement incitatif Candiac
775620596;"{\"type\":\"LineString\",\"coordinates\":[[-73.487788,45.435351],[-73.4885063,45.4353457]]}";19;Boulevard Matte;2;50;false;true;true;false;false;false;57.0;0;0;0;0;0;false;75017;6133324641;-73.46574;45.454576;75643;6133322652;-73.517101;45.393388;0;2;3;9513132;Bus 323 : Direction Candiac;"";EXO;323 S;Terminus Centre-Ville;Stationnement incitatif Candiac
749252660;"{\"type\":\"LineString\",\"coordinates\":[[-73.4885063,45.4353457],[-73.4895198,45.4353383]]}";20;Boulevard Matte;3;50;false;true;true;false;false;false;80.0;0;0;0;0;0;false;75017;6133324641;-73.46574;45.454576;75643;6133322652;-73.517101;45.393388;0;2;3;9513132;Bus 323 : Direction Candiac;"";EXO;323 S;Terminus Centre-Ville;Stationnement incitatif Candiac
749252661;"{\"type\":\"LineString\",\"coordinates\":[[-73.4895198,45.4353383],[-73.4901213,45.435332]]}";21;Boulevard Matte;2;50;false;true;true;false;false;false;48.0;0;0;0;0;0;false;75017;6133324641;-73.46574;45.454576;75643;6133322652;-73.517101;45.393388;0;2;3;9513132;Bus 323 : Direction Candiac;"";EXO;323 S;Terminus Centre-Ville;Stationnement incitatif Candiac
452652078;"{\"type\":\"LineString\",\"coordinates\":[[-73.4901213,45.435332],[-73.490461,45.4353159],[-73.4907425,45.4353167],[-73.4908654,45.4352858]]}";22;Boulevard Matte;1;50;false;true;true;false;false;false;59.0;0;0;0;0;0;false;75017;6133324641;-73.46574;45.454576;75643;6133322652;-73.517101;45.393388;0;2;3;9513132;Bus 323 : Direction Candiac;"";EXO;323 S;Terminus Centre-Ville;Stationnement incitatif Candiac
26732830;"{\"type\":\"LineString\",\"coordinates\":[[-73.4908654,45.4352858],[-73.4909342,45.4352827],[-73.4912879,45.4352582],[-73.4915159,45.4352388],[-73.491613,45.4352305],[-73.4916915,45.4352246]]}";23;Boulevard Matte;4;50;false;false;true;false;false;false;65.0;0;0;2;0;0;false;75017;6133324641;-73.46574;45.454576;75643;6133322652;-73.517101;45.393388;0;2;3;9513132;Bus 323 : Direction Candiac;"";EXO;323 S;Terminus Centre-Ville;Stationnement incitatif Candiac
450994097;"{\"type\":\"LineString\",\"coordinates\":[[-73.4916915,45.4352246],[-73.4916655,45.4350225]]}";24;Boulevard Marie-Victorin;2;50;false;true;true;false;false;false;23.0;0;0;0;0;0;false;75017;6133324641;-73.46574;45.454576;75643;6133322652;-73.517101;45.393388;0;2;3;9513132;Bus 323 : Direction Candiac;"";EXO;323 S;Terminus Centre-Ville;Stationnement incitatif Candiac
804781774;"{\"type\":\"LineString\",\"coordinates\":[[-73.4916655,45.4350225],[-73.4915893,45.4344203],[-73.4915146,45.4338777]]}";25;Boulevard Marie-Victorin;2;50;false;true;true;false;false;false;128.0;0;0;0;0;0;false;75017;6133324641;-73.46574;45.454576;75643;6133322652;-73.517101;45.393388;0;2;3;9513132;Bus 323 : Direction Candiac;"";EXO;323 S;Terminus Centre-Ville;Stationnement incitatif Candiac
24220394;"{\"type\":\"LineString\",\"coordinates\":[[-73.4915146,45.4338777],[-73.4914774,45.4335928],[-73.4914618,45.4334845]]}";26;"";2;65;false;true;true;false;false;false;44.0;0;0;0;0;0;false;75017;6133324641;-73.46574;45.454576;75643;6133322652;-73.517101;45.393388;0;2;3;9513132;Bus 323 : Direction Candiac;"";EXO;323 S;Terminus Centre-Ville;Stationnement incitatif Candiac
784953101;"{\"type\":\"LineString\",\"coordinates\":[[-73.4914618,45.4334845],[-73.4914345,45.4333654],[-73.4913872,45.4332132],[-73.4912086,45.4326842],[-73.4911501,45.4324666],[-73.4910825,45.4321582],[-73.4909932,45.4317561]]}";27;"";1;65;false;true;true;false;false;false;196.0;0;0;0;0;0;false;75017;6133324641;-73.46574;45.454576;75643;6133322652;-73.517101;45.393388;0;2;3;9513132;Bus 323 : Direction Candiac;"";EXO;323 S;Terminus Centre-Ville;Stationnement incitatif Candiac
34395233;"{\"type\":\"LineString\",\"coordinates\":[[-73.4909932,45.4317561],[-73.4909481,45.4314542]]}";28;"";1;65;false;true;true;false;false;false;34.0;0;0;0;0;0;false;75017;6133324641;-73.46574;45.454576;75643;6133322652;-73.517101;45.393388;0;2;3;9513132;Bus 323 : Direction Candiac;"";EXO;323 S;Terminus Centre-Ville;Stationnement incitatif Candiac
34395234;"{\"type\":\"LineString\",\"coordinates\":[[-73.4909481,45.4314542],[-73.490824,45.4306379],[-73.4907042,45.4295976]]}";29;"";1;65;false;true;true;false;false;false;208.0;0;0;0;0;0;false;75017;6133324641;-73.46574;45.454576;75643;6133322652;-73.517101;45.393388;0;2;3;9513132;Bus 323 : Direction Candiac;"";EXO;323 S;Terminus Centre-Ville;Stationnement incitatif Candiac
13511250;"{\"type\":\"LineString\",\"coordinates\":[[-73.4907042,45.4295976],[-73.4907159,45.4294696],[-73.4907325,45.4293173],[-73.4907543,45.429176],[-73.4907932,45.4289653],[-73.4908414,45.4287416],[-73.4908962,45.4285468],[-73.4909584,45.4283457],[-73.4910317,45.4281458],[-73.4910934,45.4279931],[-73.4911698,45.4278108],[-73.4912637,45.4276162],[-73.4913816,45.42739],[-73.4914855,45.4272115],[-73.4915933,45.4270385],[-73.4916972,45.4268827],[-73.4918373,45.4266838],[-73.4919801,45.426498],[-73.4921056,45.4263428],[-73.492252,45.4261773],[-73.4923593,45.4260603],[-73.4924942,45.4259184],[-73.4926208,45.4257946],[-73.4927942,45.4256294],[-73.492961,45.4254788],[-73.4930792,45.4253813],[-73.4932886,45.4252119],[-73.4938419,45.4247857],[-73.4945819,45.4242095],[-73.4948498,45.4239914],[-73.4950456,45.4238263],[-73.4952036,45.4236904],[-73.4954983,45.4234241]]}";30;Autoroute René-Levesque;3;100;false;true;true;false;false;false;801.0;0;0;0;0;0;false;75017;6133324641;-73.46574;45.454576;75643;6133322652;-73.517101;45.393388;0;2;3;9513132;Bus 323 : Direction Candiac;"";EXO;323 S;Terminus Centre-Ville;Stationnement incitatif Candiac
800146073;"{\"type\":\"LineString\",\"coordinates\":[[-73.4954983,45.4234241],[-73.4959169,45.4230327],[-73.4962695,45.4226778],[-73.4964583,45.4224811],[-73.4968249,45.422074],[-73.4971408,45.4216995],[-73.4974,45.4213777],[-73.4976032,45.4211087],[-73.4977741,45.4208694],[-73.4979737,45.4205847],[-73.4981175,45.4203698],[-73.498257,45.4201474],[-73.4984084,45.4198946],[-73.4985968,45.4195686],[-73.498685,45.4194095],[-73.4987977,45.4191968],[-73.4998854,45.4169966],[-73.500022,45.4167161],[-73.500251,45.4162527],[-73.5004272,45.4158945],[-73.5005974,45.4155613],[-73.500777,45.4151976],[-73.5009105,45.4149411],[-73.501016,45.4147568],[-73.5011274,45.4145886],[-73.5012502,45.4144124],[-73.5013956,45.4142223],[-73.5015364,45.4140513],[-73.5017,45.4138688],[-73.5018777,45.4136831],[-73.5020738,45.4134938],[-73.5022541,45.4133336],[-73.502453,45.413167]]}";31;Autoroute René-Levesque;3;100;false;true;true;false;false;false;1271.0;0;0;0;0;0;false;75017;6133324641;-73.46574;45.454576;75643;6133322652;-73.517101;45.393388;0;2;3;9513132;Bus 323 : Direction Candiac;"";EXO;323 S;Terminus Centre-Ville;Stationnement incitatif Candiac
25336992;"{\"type\":\"LineString\",\"coordinates\":[[-73.502453,45.413167],[-73.5027774,45.4129338],[-73.5029836,45.4127816],[-73.5032421,45.4125868],[-73.5035147,45.4123763],[-73.5036214,45.4122862],[-73.5037729,45.4121546],[-73.5039782,45.4119749],[-73.5040761,45.4118844],[-73.5042181,45.4117529],[-73.5043296,45.4116407],[-73.5044694,45.4114938],[-73.5045881,45.411364],[-73.5047754,45.4111403],[-73.5049384,45.4109396],[-73.5050554,45.4107771],[-73.505167,45.4106054],[-73.5052848,45.4103979],[-73.5054457,45.4100983],[-73.5056041,45.4098093],[-73.5058565,45.4093357],[-73.5059964,45.4090776],[-73.5061621,45.4087666]]}";32;"";1;65;false;true;true;false;false;false;576.0;0;0;0;0;0;false;75017;6133324641;-73.46574;45.454576;75643;6133322652;-73.517101;45.393388;0;2;3;9513132;Bus 323 : Direction Candiac;"";EXO;323 S;Terminus Centre-Ville;Stationnement incitatif Candiac
477422449;"{\"type\":\"LineString\",\"coordinates\":[[-73.5061621,45.4087666],[-73.50631,45.4084444],[-73.5063223,45.4084195],[-73.50633,45.4084047],[-73.5063769,45.4083142]]}";33;"";1;50;false;true;true;false;false;false;53.0;1;1;0;0;0;false;75017;6133324641;-73.46574;45.454576;75643;6133322652;-73.517101;45.393388;0;2;3;9513132;Bus 323 : Direction Candiac;"";EXO;323 S;Terminus Centre-Ville;Stationnement incitatif Candiac
25336993;"{\"type\":\"LineString\",\"coordinates\":[[-73.5063769,45.4083142],[-73.5064406,45.4082067],[-73.5064587,45.4081762],[-73.5065593,45.4079632],[-73.5066573,45.4077559],[-73.5067425,45.4075709],[-73.5069629,45.4070533],[-73.5072506,45.4063152],[-73.5074071,45.4059166],[-73.5074428,45.405827],[-73.5074762,45.4057389],[-73.507493,45.4056941],[-73.5074961,45.4056859],[-73.5075795,45.4054421],[-73.5076587,45.4051899],[-73.5076863,45.4050922],[-73.5077111,45.4050001],[-73.5077903,45.4046646],[-73.5078918,45.404109],[-73.5080083,45.4033805]]}";34;Boulevard de l'Industrie;2;50;false;false;true;false;false;false;565.0;0;1;2;0;0;false;75017;6133324641;-73.46574;45.454576;75643;6133322652;-73.517101;45.393388;0;2;3;9513132;Bus 323 : Direction Candiac;"";EXO;323 S;Terminus Centre-Ville;Stationnement incitatif Candiac
13467528;"{\"type\":\"LineString\",\"coordinates\":[[-73.5080083,45.4033805],[-73.5082877,45.4016781]]}";35;Boulevard de l'Industrie;2;50;false;false;true;false;false;false;191.0;0;0;0;0;0;false;75017;6133324641;-73.46574;45.454576;75643;6133322652;-73.517101;45.393388;0;2;3;9513132;Bus 323 : Direction Candiac;"";EXO;323 S;Terminus Centre-Ville;Stationnement incitatif Candiac
797168239;"{\"type\":\"LineString\",\"coordinates\":[[-73.5082877,45.4016781],[-73.5087011,45.3991588],[-73.5087078,45.3991289],[-73.5087365,45.3989712],[-73.5087653,45.3988318],[-73.5087929,45.3987153],[-73.5088226,45.3985878],[-73.5088617,45.3984591],[-73.5089002,45.3983381],[-73.5089335,45.3982344],[-73.5089765,45.3981202],[-73.5090214,45.3980058],[-73.5091012,45.3978154],[-73.5091676,45.3976627],[-73.5092039,45.3975843],[-73.5092417,45.3975069],[-73.5092813,45.3974253],[-73.5092881,45.3974128],[-73.5093219,45.397351],[-73.5093596,45.3972868],[-73.5094487,45.3971437],[-73.5095335,45.397009],[-73.5096259,45.3968749],[-73.5097184,45.396745],[-73.5097928,45.3966427],[-73.5098892,45.3965254],[-73.5101757,45.3961876],[-73.5102593,45.3960933],[-73.5103417,45.3960076],[-73.5104537,45.395892],[-73.5105806,45.3957755],[-73.510716,45.3956601],[-73.5109034,45.3954958],[-73.510968,45.3954405]]}";36;Boulevard de l'Industrie;2;40;false;false;true;false;false;false;739.0;0;0;0;0;0;false;75017;6133324641;-73.46574;45.454576;75643;6133322652;-73.517101;45.393388;0;2;3;9513132;Bus 323 : Direction Candiac;"";EXO;323 S;Terminus Centre-Ville;Stationnement incitatif Candiac
473034310;"{\"type\":\"LineString\",\"coordinates\":[[-73.510968,45.3954405],[-73.5111959,45.3952534],[-73.5112511,45.3952089]]}";37;Boulevard de l'Industrie;2;40;false;false;true;false;false;false;34.0;1;0;0;0;0;false;75017;6133324641;-73.46574;45.454576;75643;6133322652;-73.517101;45.393388;0;2;3;9513132;Bus 323 : Direction Candiac;"";EXO;323 S;Terminus Centre-Ville;Stationnement incitatif Candiac
685450490;"{\"type\":\"LineString\",\"coordinates\":[[-73.5112511,45.3952089],[-73.5113167,45.3951552]]}";38;Boulevard de l'Industrie;2;40;false;false;true;false;false;false;8.0;0;0;0;0;0;false;75017;6133324641;-73.46574;45.454576;75643;6133322652;-73.517101;45.393388;0;2;3;9513132;Bus 323 : Direction Candiac;"";EXO;323 S;Terminus Centre-Ville;Stationnement incitatif Candiac
340489001;"{\"type\":\"LineString\",\"coordinates\":[[-73.5113167,45.3951552],[-73.5114811,45.3950144],[-73.511504,45.3949951],[-73.5117437,45.3947928],[-73.5123356,45.3942932],[-73.5125987,45.3940711],[-73.512702,45.393984],[-73.5128758,45.3938373],[-73.5130231,45.3937171],[-73.5131858,45.3935816],[-73.5132606,45.3935219],[-73.5133386,45.3934652],[-73.5134762,45.3933733],[-73.5136858,45.3932368],[-73.5141613,45.3929359],[-73.5143221,45.3928326],[-73.514421,45.3927649],[-73.5146117,45.3926242],[-73.5147392,45.3925194],[-73.5148433,45.3924191],[-73.5149275,45.3923345]]}";39;Boulevard de l'Industrie;2;40;false;false;true;false;false;false;423.0;1;0;0;0;0;false;75017;6133324641;-73.46574;45.454576;75643;6133322652;-73.517101;45.393388;0;2;3;9513132;Bus 323 : Direction Candiac;"";EXO;323 S;Terminus Centre-Ville;Stationnement incitatif Candiac
798029076;"{\"type\":\"LineString\",\"coordinates\":[[-73.5149275,45.3923345],[-73.515353,45.3920699],[-73.5154086,45.3920424],[-73.5154414,45.3920309],[-73.5154821,45.3920209],[-73.5155392,45.3920113],[-73.5156008,45.3920042],[-73.5156518,45.3920033],[-73.515706,45.3920053],[-73.5157574,45.3920093],[-73.5158016,45.3920153],[-73.5158382,45.3920236]]}";40;Boulevard de l'Industrie;1;40;false;true;true;false;false;false;85.0;0;1;0;0;0;false;75017;6133324641;-73.46574;45.454576;75643;6133322652;-73.517101;45.393388;0;2;3;9513132;Bus 323 : Direction Candiac;"";EXO;323 S;Terminus Centre-Ville;Stationnement incitatif Candiac
798085677;"{\"type\":\"LineString\",\"coordinates\":[[-73.5158382,45.3920236],[-73.516085,45.3921339],[-73.5162099,45.3921965]]}";41;Boulevard Montcalm Nord;2;50;false;true;true;false;false;false;35.0;0;0;0;0;0;false;75017;6133324641;-73.46574;45.454576;75643;6133322652;-73.517101;45.393388;0;2;3;9513132;Bus 323 : Direction Candiac;"";EXO;323 S;Terminus Centre-Ville;Stationnement incitatif Candiac
798085667;"{\"type\":\"LineString\",\"coordinates\":[[-73.5162099,45.3921965],[-73.5163098,45.3922543],[-73.5163777,45.3922964],[-73.5164572,45.3923478],[-73.516498,45.392386]]}";42;Boulevard Montcalm Nord;2;50;false;true;true;false;false;false;31.0;1;0;0;0;0;false;75017;6133324641;-73.46574;45.454576;75643;6133322652;-73.517101;45.393388;0;2;3;9513132;Bus 323 : Direction Candiac;"";EXO;323 S;Terminus Centre-Ville;Stationnement incitatif Candiac
798085657;"{\"type\":\"LineString\",\"coordinates\":[[-73.516498,45.392386],[-73.5165496,45.3924353]]}";43;Boulevard Montcalm Nord;2;50;false;true;true;false;false;false;7.0;0;0;0;0;0;false;75017;6133324641;-73.46574;45.454576;75643;6133322652;-73.517101;45.393388;0;2;3;9513132;Bus 323 : Direction Candiac;"";EXO;323 S;Terminus Centre-Ville;Stationnement incitatif Candiac
798085664;"{\"type\":\"LineString\",\"coordinates\":[[-73.5165496,45.3924353],[-73.5165799,45.3924623],[-73.5166109,45.3924898],[-73.5166726,45.3925413],[-73.5167319,45.3925949],[-73.5167666,45.3926286],[-73.5169504,45.3927919]]}";44;Boulevard Montcalm Nord;1;50;false;true;true;false;false;false;51.0;0;1;0;0;0;false;75017;6133324641;-73.46574;45.454576;75643;6133322652;-73.517101;45.393388;0;2;3;9513132;Bus 323 : Direction Candiac;"";EXO;323 S;Terminus Centre-Ville;Stationnement incitatif Candiac
798090940;"{\"type\":\"LineString\",\"coordinates\":[[-73.517012,45.3928653],[-73.5169504,45.3927919]]}";45;Boulevard Montcalm Nord;2;50;false;false;true;false;false;false;10.0;0;0;0;0;0;false;75017;6133324641;-73.46574;45.454576;75643;6133322652;-73.517101;45.393388;0;2;3;9513132;Bus 323 : Direction Candiac;"";EXO;323 S;Terminus Centre-Ville;Stationnement incitatif Candiac
685125003;"{\"type\":\"LineString\",\"coordinates\":[[-73.5171372,45.3930185],[-73.5170727,45.3929397],[-73.517012,45.3928653]]}";46;Boulevard Montcalm Nord;2;50;false;false;true;false;false;false;20.0;0;1;0;0;0;false;75017;6133324641;-73.46574;45.454576;75643;6133322652;-73.517101;45.393388;0;2;3;9513132;Bus 323 : Direction Candiac;"";EXO;323 S;Terminus Centre-Ville;Stationnement incitatif Candiac
397170172;"{\"type\":\"LineString\",\"coordinates\":[[-73.5171372,45.3930185],[-73.517154,45.3930789],[-73.5171621,45.3931279],[-73.5171602,45.3931627],[-73.5171562,45.3931751],[-73.5171441,45.3931984],[-73.517116,45.3932253],[-73.517086,45.3932456],[-73.517048,45.3932638],[-73.5169849,45.3932805],[-73.5166644,45.393351]]}";47;"";1;50;false;true;true;false;true;false;63.0;0;1;0;0;0;false;75017;6133324641;-73.46574;45.454576;75643;6133322652;-73.517101;45.393388;0;2;3;9513132;Bus 323 : Direction Candiac;"";EXO;323 S;Terminus Centre-Ville;Stationnement incitatif Candiac
573205707;"{\"type\":\"LineString\",\"coordinates\":[[-73.5166644,45.393351],[-73.5169161,45.3933324],[-73.5170041,45.3933282],[-73.5171998,45.3933179],[-73.5172392,45.3933119],[-73.5172645,45.3933059],[-73.5172914,45.3932977],[-73.5173378,45.393281]]}";48;"";1;50;false;true;true;false;true;false;54.0;0;1;1;0;0;false;75017;6133324641;-73.46574;45.454576;75643;6133322652;-73.517101;45.393388;1;2;3;9513132;Bus 323 : Direction Candiac;"";EXO;323 S;Terminus Centre-Ville;Stationnement incitatif Candiac
