way_id;shape;index;name;nb_lanes;legal_speed;speed_zone_30;oneway;shares_bike;bike_box;bus_lane;dedicated_bus_lane;length;nb_traffic_signals;nb_crossings;nb_stops;nb_give_ways;nb_lvl_crossings;roundabout;stop_id_orig;node_id_orig;coord_x_orig;coord_y_orig;stop_id_dest;node_id_dest;coord_x_dest;coord_y_dest;nb_neighbouring_ways_bus_stop;ordre_orig;ordre_dest;id_line;line_name;colour;operator;ref;from;to
533292442;"{\"type\":\"LineString\",\"coordinates\":[[-74.031247,45.4039365],[-74.0309326,45.4035858],[-74.0306473,45.4032862],[-74.0305876,45.4032202],[-74.030186,45.4027811],[-74.0294047,45.4019246],[-74.0284928,45.4011535]]}";1;Avenue Saint-Charles;1;50;false;false;true;false;false;false;378.0;0;0;0;0;0;false;72753;6133272902;-74.02861;45.401152;72908;6133272249;-74.027349;45.399792;1;10;11;9492811;Bus 115 : Direction gare Dorion;"";EXO;115 E;Gare Vaudreuil;avenue de la Fabrique / École du Papillon-Bleu
682131490;"{\"type\":\"LineString\",\"coordinates\":[[-74.0284928,45.4011535],[-74.0281457,45.4008248],[-74.0276984,45.4003466],[-74.0271883,45.3998139],[-74.0267233,45.3993225],[-74.0264398,45.3990318]]}";2;Avenue Saint-Charles;1;50;false;false;true;false;false;false;286.0;1;0;0;0;0;false;72753;6133272902;-74.02861;45.401152;72908;6133272249;-74.027349;45.399792;2;10;11;9492811;Bus 115 : Direction gare Dorion;"";EXO;115 E;Gare Vaudreuil;avenue de la Fabrique / École du Papillon-Bleu
682131490;"{\"type\":\"LineString\",\"coordinates\":[[-74.0284928,45.4011535],[-74.0281457,45.4008248],[-74.0276984,45.4003466],[-74.0271883,45.3998139],[-74.0267233,45.3993225],[-74.0264398,45.3990318]]}";1;Avenue Saint-Charles;1;50;false;false;true;false;false;false;143.0;1;0;0;0;0;false;72908;6133272249;-74.027349;45.399792;72866;6133272590;-74.029037;45.398002;1;11;12;9492811;Bus 115 : Direction gare Dorion;"";EXO;115 E;Gare Vaudreuil;avenue de la Fabrique / École du Papillon-Bleu
416486437;"{\"type\":\"LineString\",\"coordinates\":[[-74.0324062,45.3963449],[-74.0321652,45.3963387],[-74.0320951,45.3963387],[-74.0319971,45.3963551],[-74.0319037,45.3963945],[-74.0315487,45.396624],[-74.031446,45.3966896],[-74.0313666,45.3967322],[-74.030686,45.3970462],[-74.0301188,45.397288],[-74.0298406,45.3974066],[-74.029793,45.3974269],[-74.0294297,45.3975987],[-74.0290034,45.3978004],[-74.0286026,45.39799],[-74.0285072,45.3980352],[-74.0282068,45.3981773],[-74.027439,45.3985405],[-74.0264398,45.3990318]]}";2;Rue Jeannotte;1;50;false;false;true;false;false;false;280.0;1;0;1;0;0;false;72908;6133272249;-74.027349;45.399792;72866;6133272590;-74.029037;45.398002;1;11;12;9492811;Bus 115 : Direction gare Dorion;"";EXO;115 E;Gare Vaudreuil;avenue de la Fabrique / École du Papillon-Bleu
682164954;"{\"type\":\"LineString\",\"coordinates\":[[-74.0289905,45.3911822],[-74.0294926,45.3912314],[-74.029893,45.3912759],[-74.0302176,45.3913164],[-74.0303914,45.3913602],[-74.0305761,45.3914443],[-74.0307151,45.3915386],[-74.0307873,45.3916062],[-74.0308344,45.3916691],[-74.0309024,45.3917582],[-74.0309604,45.3918812],[-74.0310383,45.3921202],[-74.0312699,45.3928499],[-74.0312961,45.3929243],[-74.0314801,45.3934732],[-74.0315595,45.3937161],[-74.0316526,45.3938782],[-74.0317078,45.393935]]}";1;Rue Paul-Gérin-Lajoie;2;50;false;false;true;false;false;false;424.0;0;0;0;0;0;false;72686;6133272967;-74.029103;45.391178;72555;6133273498;-74.024821;45.391573;2;15;16;9492811;Bus 115 : Direction gare Dorion;"";EXO;115 E;Gare Vaudreuil;avenue de la Fabrique / École du Papillon-Bleu
389512189;"{\"type\":\"LineString\",\"coordinates\":[[-74.0248687,45.3916394],[-74.0250346,45.3914537],[-74.0251568,45.3913302],[-74.0252881,45.3912132],[-74.0254513,45.3911122],[-74.0255925,45.3910325],[-74.0258239,45.3909565],[-74.0260337,45.3909302],[-74.0263046,45.390933],[-74.0269854,45.3909909],[-74.028649,45.391151],[-74.0289905,45.3911822]]}";2;Rue Paul-Gérin-Lajoie;2;50;false;false;true;false;false;false;359.0;0;0;0;0;0;false;72686;6133272967;-74.029103;45.391178;72555;6133273498;-74.024821;45.391573;0;15;16;9492811;Bus 115 : Direction gare Dorion;"";EXO;115 E;Gare Vaudreuil;avenue de la Fabrique / École du Papillon-Bleu
44334207;"{\"type\":\"LineString\",\"coordinates\":[[-74.0248687,45.3916394],[-74.0241213,45.3912978],[-74.0238064,45.3911949],[-74.0237316,45.3911423],[-74.0237017,45.3910617],[-74.0237103,45.3909773],[-74.0237639,45.3906283],[-74.0239736,45.3895573],[-74.0239373,45.3894589],[-74.0236475,45.3891616]]}";3;Rue du Bicentenaire;2;50;false;false;true;false;false;false;335.0;0;0;0;0;0;false;72686;6133272967;-74.029103;45.391178;72555;6133273498;-74.024821;45.391573;2;15;16;9492811;Bus 115 : Direction gare Dorion;"";EXO;115 E;Gare Vaudreuil;avenue de la Fabrique / École du Papillon-Bleu
389512189;"{\"type\":\"LineString\",\"coordinates\":[[-74.0248687,45.3916394],[-74.0250346,45.3914537],[-74.0251568,45.3913302],[-74.0252881,45.3912132],[-74.0254513,45.3911122],[-74.0255925,45.3910325],[-74.0258239,45.3909565],[-74.0260337,45.3909302],[-74.0263046,45.390933],[-74.0269854,45.3909909],[-74.028649,45.391151],[-74.0289905,45.3911822]]}";1;Rue Paul-Gérin-Lajoie;2;50;false;false;true;false;false;false;359.0;0;0;0;0;0;false;72555;6133273498;-74.024821;45.391573;72684;6133272969;-74.023726;45.389143;2;16;17;9492811;Bus 115 : Direction gare Dorion;"";EXO;115 E;Gare Vaudreuil;avenue de la Fabrique / École du Papillon-Bleu
44334207;"{\"type\":\"LineString\",\"coordinates\":[[-74.0248687,45.3916394],[-74.0241213,45.3912978],[-74.0238064,45.3911949],[-74.0237316,45.3911423],[-74.0237017,45.3910617],[-74.0237103,45.3909773],[-74.0237639,45.3906283],[-74.0239736,45.3895573],[-74.0239373,45.3894589],[-74.0236475,45.3891616]]}";2;Rue du Bicentenaire;2;50;false;false;true;false;false;false;335.0;0;0;0;0;0;false;72555;6133273498;-74.024821;45.391573;72684;6133272969;-74.023726;45.389143;2;16;17;9492811;Bus 115 : Direction gare Dorion;"";EXO;115 E;Gare Vaudreuil;avenue de la Fabrique / École du Papillon-Bleu
44334218;"{\"type\":\"LineString\",\"coordinates\":[[-74.0218237,45.3899851],[-74.0220668,45.3899126],[-74.0225563,45.3896884],[-74.0236475,45.3891616]]}";1;Rue Lefebvre;2;50;false;false;true;false;false;false;170.0;0;0;0;0;0;false;72684;6133272969;-74.023726;45.389143;72556;6133273497;-74.02184;45.389899;2;17;18;9492811;Bus 115 : Direction gare Dorion;"";EXO;115 E;Gare Vaudreuil;avenue de la Fabrique / École du Papillon-Bleu
44334238;"{\"type\":\"LineString\",\"coordinates\":[[-74.0193469,45.3874087],[-74.019946,45.388032],[-74.0205859,45.3886976],[-74.021177,45.3893229],[-74.0218237,45.3899851]]}";2;Avenue Béique;2;50;false;false;true;false;false;false;346.0;0;0;1;0;0;false;72684;6133272969;-74.023726;45.389143;72556;6133273497;-74.02184;45.389899;2;17;18;9492811;Bus 115 : Direction gare Dorion;"";EXO;115 E;Gare Vaudreuil;avenue de la Fabrique / École du Papillon-Bleu
44334218;"{\"type\":\"LineString\",\"coordinates\":[[-74.0218237,45.3899851],[-74.0220668,45.3899126],[-74.0225563,45.3896884],[-74.0236475,45.3891616]]}";1;Rue Lefebvre;2;50;false;false;true;false;false;false;170.0;0;0;0;0;0;false;72556;6133273497;-74.02184;45.389899;72559;6133273494;-74.020749;45.388742;2;18;19;9492811;Bus 115 : Direction gare Dorion;"";EXO;115 E;Gare Vaudreuil;avenue de la Fabrique / École du Papillon-Bleu
44334238;"{\"type\":\"LineString\",\"coordinates\":[[-74.0193469,45.3874087],[-74.019946,45.388032],[-74.0205859,45.3886976],[-74.021177,45.3893229],[-74.0218237,45.3899851]]}";2;Avenue Béique;2;50;false;false;true;false;false;false;346.0;0;0;1;0;0;false;72556;6133273497;-74.02184;45.389899;72559;6133273494;-74.020749;45.388742;2;18;19;9492811;Bus 115 : Direction gare Dorion;"";EXO;115 E;Gare Vaudreuil;avenue de la Fabrique / École du Papillon-Bleu
682131497;"{\"type\":\"LineString\",\"coordinates\":[[-74.012677,45.3869375],[-74.013399,45.3876418]]}";1;Avenue Saint-Charles;2;50;false;false;false;false;false;false;97.0;0;0;0;0;0;false;72742;6133272913;-74.013544;45.387674;72586;6133273267;-74.012171;45.386356;2;23;24;9492811;Bus 115 : Direction gare Dorion;"";EXO;115 E;Gare Vaudreuil;avenue de la Fabrique / École du Papillon-Bleu
28771779;"{\"type\":\"LineString\",\"coordinates\":[[-74.012677,45.3869375],[-74.012342,45.3865874],[-74.0122539,45.3865255]]}";2;Avenue Saint-Charles;2;50;false;true;false;false;false;false;57.0;0;0;0;0;0;false;72742;6133272913;-74.013544;45.387674;72586;6133273267;-74.012171;45.386356;0;23;24;9492811;Bus 115 : Direction gare Dorion;"";EXO;115 E;Gare Vaudreuil;avenue de la Fabrique / École du Papillon-Bleu
289484699;"{\"type\":\"LineString\",\"coordinates\":[[-74.0122539,45.3865255],[-74.0121182,45.386465],[-74.0119482,45.3864386],[-74.0116362,45.3864763]]}";3;Avenue Saint-Charles;2;50;false;true;true;false;false;false;51.0;0;0;0;0;0;false;72742;6133272913;-74.013544;45.387674;72586;6133273267;-74.012171;45.386356;2;23;24;9492811;Bus 115 : Direction gare Dorion;"";EXO;115 E;Gare Vaudreuil;avenue de la Fabrique / École du Papillon-Bleu
28771779;"{\"type\":\"LineString\",\"coordinates\":[[-74.012677,45.3869375],[-74.012342,45.3865874],[-74.0122539,45.3865255]]}";1;Avenue Saint-Charles;2;50;false;true;false;false;false;false;57.0;0;0;0;0;0;false;72586;6133273267;-74.012171;45.386356;72553;6133273500;-74.01897;45.383388;2;24;25;9492811;Bus 115 : Direction gare Dorion;"";EXO;115 E;Gare Vaudreuil;avenue de la Fabrique / École du Papillon-Bleu
289484699;"{\"type\":\"LineString\",\"coordinates\":[[-74.0122539,45.3865255],[-74.0121182,45.386465],[-74.0119482,45.3864386],[-74.0116362,45.3864763]]}";2;Avenue Saint-Charles;2;50;false;true;true;false;false;false;51.0;0;0;0;0;0;false;72586;6133273267;-74.012171;45.386356;72553;6133273500;-74.01897;45.383388;0;24;25;9492811;Bus 115 : Direction gare Dorion;"";EXO;115 E;Gare Vaudreuil;avenue de la Fabrique / École du Papillon-Bleu
218549327;"{\"type\":\"LineString\",\"coordinates\":[[-74.0116362,45.3864763],[-74.0113815,45.3865017],[-74.0111592,45.3864847],[-74.0110089,45.3864421],[-74.010889,45.3863825]]}";3;Avenue Saint-Charles;2;50;false;true;false;false;false;false;62.0;0;0;0;0;0;false;72586;6133273267;-74.012171;45.386356;72553;6133273500;-74.01897;45.383388;0;24;25;9492811;Bus 115 : Direction gare Dorion;"";EXO;115 E;Gare Vaudreuil;avenue de la Fabrique / École du Papillon-Bleu
414517121;"{\"type\":\"LineString\",\"coordinates\":[[-74.010889,45.3863825],[-74.0104732,45.3858744]]}";4;Avenue Saint-Charles;2;50;false;true;false;false;false;false;66.0;1;0;0;0;0;false;72586;6133273267;-74.012171;45.386356;72553;6133273500;-74.01897;45.383388;0;24;25;9492811;Bus 115 : Direction gare Dorion;"";EXO;115 E;Gare Vaudreuil;avenue de la Fabrique / École du Papillon-Bleu
44334263;"{\"type\":\"LineString\",\"coordinates\":[[-74.0104732,45.3858744],[-74.0107399,45.3857784],[-74.0111776,45.3856163],[-74.011261,45.3856122],[-74.0113144,45.3856203],[-74.0113678,45.3856427]]}";5;Rue Valois;2;50;false;false;true;false;false;false;78.0;1;0;0;0;0;false;72586;6133273267;-74.012171;45.386356;72553;6133273500;-74.01897;45.383388;0;24;25;9492811;Bus 115 : Direction gare Dorion;"";EXO;115 E;Gare Vaudreuil;avenue de la Fabrique / École du Papillon-Bleu
289484698;"{\"type\":\"LineString\",\"coordinates\":[[-74.0113678,45.3856427],[-74.0117593,45.3860396],[-74.0118208,45.3860651],[-74.0118906,45.3860633]]}";6;Rue Valois;1;40;false;true;true;false;false;false;65.0;0;0;0;0;0;false;72586;6133273267;-74.012171;45.386356;72553;6133273500;-74.01897;45.383388;0;24;25;9492811;Bus 115 : Direction gare Dorion;"";EXO;115 E;Gare Vaudreuil;avenue de la Fabrique / École du Papillon-Bleu
690197281;"{\"type\":\"LineString\",\"coordinates\":[[-74.0118906,45.3860633],[-74.01311,45.3860125],[-74.0132576,45.3860101],[-74.0133409,45.3859963],[-74.0133852,45.385989],[-74.0135815,45.3859003],[-74.013708,45.385842],[-74.0137979,45.3858006],[-74.0138996,45.3857537],[-74.0141512,45.3856377]]}";7;Rue Valois;1;40;false;true;false;false;false;false;189.0;0;0;0;0;0;false;72586;6133273267;-74.012171;45.386356;72553;6133273500;-74.01897;45.383388;0;24;25;9492811;Bus 115 : Direction gare Dorion;"";EXO;115 E;Gare Vaudreuil;avenue de la Fabrique / École du Papillon-Bleu
198485237;"{\"type\":\"LineString\",\"coordinates\":[[-74.0141512,45.3856377],[-74.0146768,45.3853832],[-74.0150179,45.3852181],[-74.0159419,45.3847708],[-74.0173984,45.3840656],[-74.0176075,45.3839644]]}";8;Rue Valois;2;40;false;false;true;false;false;false;329.0;0;0;0;0;0;false;72586;6133273267;-74.012171;45.386356;72553;6133273500;-74.01897;45.383388;0;24;25;9492811;Bus 115 : Direction gare Dorion;"";EXO;115 E;Gare Vaudreuil;avenue de la Fabrique / École du Papillon-Bleu
690197287;"{\"type\":\"LineString\",\"coordinates\":[[-74.0176075,45.3839644],[-74.0180612,45.3837494],[-74.0190234,45.3832934],[-74.0192122,45.3832012],[-74.0201984,45.3827247],[-74.0214646,45.3821185]]}";9;Rue Valois;2;40;false;false;true;false;false;false;365.0;0;0;0;0;0;false;72586;6133273267;-74.012171;45.386356;72553;6133273500;-74.01897;45.383388;2;24;25;9492811;Bus 115 : Direction gare Dorion;"";EXO;115 E;Gare Vaudreuil;avenue de la Fabrique / École du Papillon-Bleu
690197287;"{\"type\":\"LineString\",\"coordinates\":[[-74.0176075,45.3839644],[-74.0180612,45.3837494],[-74.0190234,45.3832934],[-74.0192122,45.3832012],[-74.0201984,45.3827247],[-74.0214646,45.3821185]]}";1;Rue Valois;2;40;false;false;true;false;false;false;182.5;0;0;0;0;0;false;72553;6133273500;-74.01897;45.383388;72934;6133272223;-74.021534;45.382124;1;25;26;9492811;Bus 115 : Direction gare Dorion;"";EXO;115 E;Gare Vaudreuil;avenue de la Fabrique / École du Papillon-Bleu
682126567;"{\"type\":\"LineString\",\"coordinates\":[[-74.0214646,45.3821185],[-74.0223138,45.3817085],[-74.0227807,45.3814831],[-74.0237543,45.381013]]}";2;Rue Valois;2;40;false;false;true;false;false;false;109.0;0;0;0;0;0;false;72553;6133273500;-74.01897;45.383388;72934;6133272223;-74.021534;45.382124;1;25;26;9492811;Bus 115 : Direction gare Dorion;"";EXO;115 E;Gare Vaudreuil;avenue de la Fabrique / École du Papillon-Bleu
690197287;"{\"type\":\"LineString\",\"coordinates\":[[-74.0176075,45.3839644],[-74.0180612,45.3837494],[-74.0190234,45.3832934],[-74.0192122,45.3832012],[-74.0201984,45.3827247],[-74.0214646,45.3821185]]}";1;Rue Valois;2;40;false;false;true;false;false;false;365.0;0;0;0;0;0;false;72934;6133272223;-74.021534;45.382124;72923;6133272234;-74.024509;45.380671;2;26;27;9492811;Bus 115 : Direction gare Dorion;"";EXO;115 E;Gare Vaudreuil;avenue de la Fabrique / École du Papillon-Bleu
682126567;"{\"type\":\"LineString\",\"coordinates\":[[-74.0214646,45.3821185],[-74.0223138,45.3817085],[-74.0227807,45.3814831],[-74.0237543,45.381013]]}";2;Rue Valois;2;40;false;false;true;false;false;false;218.0;0;0;0;0;0;false;72934;6133272223;-74.021534;45.382124;72923;6133272234;-74.024509;45.380671;0;26;27;9492811;Bus 115 : Direction gare Dorion;"";EXO;115 E;Gare Vaudreuil;avenue de la Fabrique / École du Papillon-Bleu
682126571;"{\"type\":\"LineString\",\"coordinates\":[[-74.0237543,45.381013],[-74.0244995,45.3806517],[-74.024606,45.3806001]]}";3;Rue Valois;2;40;false;false;true;false;false;false;81.0;0;0;0;0;0;false;72934;6133272223;-74.021534;45.382124;72923;6133272234;-74.024509;45.380671;2;26;27;9492811;Bus 115 : Direction gare Dorion;"";EXO;115 E;Gare Vaudreuil;avenue de la Fabrique / École du Papillon-Bleu
682297482;"{\"type\":\"LineString\",\"coordinates\":[[-74.02455,45.3754698],[-74.0239293,45.3746914]]}";1;Avenue Brown;2;50;false;false;true;false;false;false;100.0;0;0;0;0;0;false;72638;6133273215;-74.024;45.37462;72609;6133273244;-74.022276;45.376513;2;41;42;9492811;Bus 115 : Direction gare Dorion;"";EXO;115 E;Gare Vaudreuil;avenue de la Fabrique / École du Papillon-Bleu
682297480;"{\"type\":\"LineString\",\"coordinates\":[[-74.0169538,45.3791496],[-74.0221674,45.3766422],[-74.0222066,45.3766234],[-74.0232216,45.3761237],[-74.02455,45.3754698]]}";2;Rue Chicoine;2;50;false;false;true;false;false;false;722.0;0;0;1;0;0;false;72638;6133273215;-74.024;45.37462;72609;6133273244;-74.022276;45.376513;2;41;42;9492811;Bus 115 : Direction gare Dorion;"";EXO;115 E;Gare Vaudreuil;avenue de la Fabrique / École du Papillon-Bleu
682307705;"{\"type\":\"LineString\",\"coordinates\":[[-74.0177673,45.3800269],[-74.0173163,45.3795405],[-74.0169538,45.3791496]]}";1;Avenue Ranger;2;50;false;false;true;false;false;false;117.0;0;0;1;0;0;false;72611;6133273242;-74.017036;45.379055;72737;6133272918;-74.015176;45.381231;2;44;45;9492811;Bus 115 : Direction gare Dorion;"";EXO;115 E;Gare Vaudreuil;avenue de la Fabrique / École du Papillon-Bleu
452010759;"{\"type\":\"LineString\",\"coordinates\":[[-74.0177673,45.3800269],[-74.0155537,45.3810959]]}";2;Boulevard Harwood;1;50;false;true;true;false;false;false;211.0;0;0;0;0;0;false;72611;6133273242;-74.017036;45.379055;72737;6133272918;-74.015176;45.381231;0;44;45;9492811;Bus 115 : Direction gare Dorion;"";EXO;115 E;Gare Vaudreuil;avenue de la Fabrique / École du Papillon-Bleu
452010760;"{\"type\":\"LineString\",\"coordinates\":[[-74.0155537,45.3810959],[-74.0149365,45.3813981]]}";3;Boulevard Harwood;1;50;false;true;true;false;false;false;59.0;0;0;0;0;0;false;72611;6133273242;-74.017036;45.379055;72737;6133272918;-74.015176;45.381231;2;44;45;9492811;Bus 115 : Direction gare Dorion;"";EXO;115 E;Gare Vaudreuil;avenue de la Fabrique / École du Papillon-Bleu
452010760;"{\"type\":\"LineString\",\"coordinates\":[[-74.0155537,45.3810959],[-74.0149365,45.3813981]]}";1;Boulevard Harwood;1;50;false;true;true;false;false;false;29.5;0;0;0;0;0;false;72737;6133272918;-74.015176;45.381231;72600;6133273253;-74.010554;45.383963;1;45;46;9492811;Bus 115 : Direction gare Dorion;"";EXO;115 E;Gare Vaudreuil;avenue de la Fabrique / École du Papillon-Bleu
452010955;"{\"type\":\"LineString\",\"coordinates\":[[-74.0149365,45.3813981],[-74.0144161,45.3816435]]}";2;Boulevard Harwood;1;50;false;true;true;false;false;false;50.0;1;0;0;0;0;false;72737;6133272918;-74.015176;45.381231;72600;6133273253;-74.010554;45.383963;0;45;46;9492811;Bus 115 : Direction gare Dorion;"";EXO;115 E;Gare Vaudreuil;avenue de la Fabrique / École du Papillon-Bleu
452011158;"{\"type\":\"LineString\",\"coordinates\":[[-74.0144161,45.3816435],[-74.0136214,45.3820338]]}";3;Boulevard Harwood;1;50;false;true;true;false;false;false;76.0;1;0;0;0;0;false;72737;6133272918;-74.015176;45.381231;72600;6133273253;-74.010554;45.383963;0;45;46;9492811;Bus 115 : Direction gare Dorion;"";EXO;115 E;Gare Vaudreuil;avenue de la Fabrique / École du Papillon-Bleu
196778901;"{\"type\":\"LineString\",\"coordinates\":[[-74.0136214,45.3820338],[-74.0132333,45.382228],[-74.0127993,45.3824329],[-74.0107014,45.3835653]]}";4;Boulevard Harwood;1;50;false;true;true;false;false;false;285.0;1;0;0;0;0;false;72737;6133272918;-74.015176;45.381231;72600;6133273253;-74.010554;45.383963;0;45;46;9492811;Bus 115 : Direction gare Dorion;"";EXO;115 E;Gare Vaudreuil;avenue de la Fabrique / École du Papillon-Bleu
429701465;"{\"type\":\"LineString\",\"coordinates\":[[-74.0107014,45.3835653],[-74.0102254,45.3838053],[-74.009678,45.3840813]]}";5;Boulevard Harwood;2;50;false;true;true;false;false;false;99.0;2;0;0;0;0;false;72737;6133272918;-74.015176;45.381231;72600;6133273253;-74.010554;45.383963;0;45;46;9492811;Bus 115 : Direction gare Dorion;"";EXO;115 E;Gare Vaudreuil;avenue de la Fabrique / École du Papillon-Bleu
104564061;"{\"type\":\"LineString\",\"coordinates\":[[-74.009678,45.3840813],[-74.0090034,45.3844294]]}";6;Boulevard Harwood;3;50;false;true;true;false;false;false;66.0;2;0;0;0;0;false;72737;6133272918;-74.015176;45.381231;72600;6133273253;-74.010554;45.383963;0;45;46;9492811;Bus 115 : Direction gare Dorion;"";EXO;115 E;Gare Vaudreuil;avenue de la Fabrique / École du Papillon-Bleu
44334285;"{\"type\":\"LineString\",\"coordinates\":[[-74.0090034,45.3844294],[-74.0091028,45.3845246]]}";7;Avenue Saint-Henri;2;50;false;false;true;false;false;false;14.0;2;0;0;0;0;false;72737;6133272918;-74.015176;45.381231;72600;6133273253;-74.010554;45.383963;0;45;46;9492811;Bus 115 : Direction gare Dorion;"";EXO;115 E;Gare Vaudreuil;avenue de la Fabrique / École du Papillon-Bleu
28771729;"{\"type\":\"LineString\",\"coordinates\":[[-74.0091028,45.3845246],[-74.0095283,45.3849608]]}";8;Avenue Saint-Henri;2;50;false;true;true;false;false;false;59.0;1;0;0;0;0;false;72737;6133272918;-74.015176;45.381231;72600;6133273253;-74.010554;45.383963;0;45;46;9492811;Bus 115 : Direction gare Dorion;"";EXO;115 E;Gare Vaudreuil;avenue de la Fabrique / École du Papillon-Bleu
198481388;"{\"type\":\"LineString\",\"coordinates\":[[-74.0095283,45.3849608],[-74.0096369,45.3849911],[-74.0097152,45.3849911],[-74.0097882,45.3849898],[-74.0098464,45.3849825],[-74.0098959,45.3849544]]}";9;"";1;50;false;true;true;false;false;false;31.0;0;0;0;0;0;false;72737;6133272918;-74.015176;45.381231;72600;6133273253;-74.010554;45.383963;0;45;46;9492811;Bus 115 : Direction gare Dorion;"";EXO;115 E;Gare Vaudreuil;avenue de la Fabrique / École du Papillon-Bleu
684251982;"{\"type\":\"LineString\",\"coordinates\":[[-74.0098959,45.3849544],[-74.0099429,45.3848422]]}";10;Avenue Saint-Charles;2;50;false;true;false;false;false;false;13.0;0;0;0;0;0;false;72737;6133272918;-74.015176;45.381231;72600;6133273253;-74.010554;45.383963;0;45;46;9492811;Bus 115 : Direction gare Dorion;"";EXO;115 E;Gare Vaudreuil;avenue de la Fabrique / École du Papillon-Bleu
44334279;"{\"type\":\"LineString\",\"coordinates\":[[-74.0099429,45.3848422],[-74.0100448,45.3847514],[-74.0101343,45.3846723],[-74.0102263,45.3845937]]}";11;Rue Dumont;1;50;false;true;true;false;false;false;36.0;0;0;0;0;0;false;72737;6133272918;-74.015176;45.381231;72600;6133273253;-74.010554;45.383963;0;45;46;9492811;Bus 115 : Direction gare Dorion;"";EXO;115 E;Gare Vaudreuil;avenue de la Fabrique / École du Papillon-Bleu
44334282;"{\"type\":\"LineString\",\"coordinates\":[[-74.0102263,45.3845937],[-74.0103518,45.3843314],[-74.0104129,45.3841242],[-74.0104122,45.3840737],[-74.0103801,45.3839957],[-74.0103055,45.3839103]]}";12;Rue Dumont;1;50;false;true;true;false;false;false;40.5;0;0;0;0;0;false;72737;6133272918;-74.015176;45.381231;72600;6133273253;-74.010554;45.383963;1;45;46;9492811;Bus 115 : Direction gare Dorion;"";EXO;115 E;Gare Vaudreuil;avenue de la Fabrique / École du Papillon-Bleu
682297501;"{\"type\":\"LineString\",\"coordinates\":[[-74.0103055,45.3839103],[-74.0107969,45.3836519]]}";1;Boulevard Harwood;2;50;false;true;true;false;false;false;48.0;1;0;0;0;0;false;72600;6133273253;-74.010554;45.383963;72917;6133272240;-74.01226;45.383959;2;46;47;9492811;Bus 115 : Direction gare Dorion;"";EXO;115 E;Gare Vaudreuil;avenue de la Fabrique / École du Papillon-Bleu
44334288;"{\"type\":\"LineString\",\"coordinates\":[[-74.0107969,45.3836519],[-74.0111361,45.3839185],[-74.0113048,45.3841017],[-74.0113721,45.3841747],[-74.0114196,45.3842297],[-74.0115049,45.3842759],[-74.0115779,45.3842985],[-74.0116941,45.384318],[-74.01182,45.3843025],[-74.0119379,45.3842705],[-74.0123549,45.384015]]}";2;Avenue de la Fabrique;2;50;false;false;true;false;false;false;168.0;1;0;0;0;0;false;72600;6133273253;-74.010554;45.383963;72917;6133272240;-74.01226;45.383959;1;46;47;9492811;Bus 115 : Direction gare Dorion;"";EXO;115 E;Gare Vaudreuil;avenue de la Fabrique / École du Papillon-Bleu
