way_id;shape;index;name;nb_lanes;legal_speed;speed_zone_30;oneway;shares_bike;bike_box;bus_lane;dedicated_bus_lane;length;nb_traffic_signals;nb_crossings;nb_stops;nb_give_ways;nb_lvl_crossings;roundabout;stop_id_orig;node_id_orig;coord_x_orig;coord_y_orig;stop_id_dest;node_id_dest;coord_x_dest;coord_y_dest;nb_neighbouring_ways_bus_stop;ordre_orig;ordre_dest;id_line;line_name;colour;operator;ref;from;to
128245128;"{\"type\":\"LineString\",\"coordinates\":[[-73.7871221,45.3547028],[-73.7875944,45.3544607],[-73.7894133,45.3535923],[-73.7901506,45.3532034],[-73.7937984,45.3514059],[-73.7958602,45.3504401],[-73.7973214,45.3497152],[-73.7997464,45.3484684],[-73.8004841,45.3480562],[-73.8022153,45.3470093],[-73.802493,45.3468397]]}";1;Boulevard de Léry;1;70;false;false;true;false;false;false;1489.0;0;0;0;0;0;false;78300;6190671057;-73.790613;45.35292;78729;6190668869;-73.785277;45.355682;1;30;31;8908783;Bus 28 : Châteauguay - Montréal (Centre-Ville);"";EXO;28 E;Terminus Salaberry-de-Valleyfield;Terminus Mansfield
20491548;"{\"type\":\"LineString\",\"coordinates\":[[-73.7871221,45.3547028],[-73.7861143,45.3551998],[-73.7858406,45.3553577],[-73.7851299,45.3558793]]}";2;Boulevard de Léry;1;50;false;true;true;false;false;false;102.5;0;0;0;0;0;false;78300;6190671057;-73.790613;45.35292;78729;6190668869;-73.785277;45.355682;1;30;31;8908783;Bus 28 : Châteauguay - Montréal (Centre-Ville);"";EXO;28 E;Terminus Salaberry-de-Valleyfield;Terminus Mansfield
20491548;"{\"type\":\"LineString\",\"coordinates\":[[-73.7871221,45.3547028],[-73.7861143,45.3551998],[-73.7858406,45.3553577],[-73.7851299,45.3558793]]}";1;Boulevard de Léry;1;50;false;true;true;false;false;false;102.5;0;0;0;0;0;false;78729;6190668869;-73.785277;45.355682;78214;6190671722;-73.764969;45.356198;1;31;32;8908783;Bus 28 : Châteauguay - Montréal (Centre-Ville);"";EXO;28 E;Terminus Salaberry-de-Valleyfield;Terminus Mansfield
492764989;"{\"type\":\"LineString\",\"coordinates\":[[-73.7851299,45.3558793],[-73.7846241,45.3562603],[-73.7844218,45.3564127]]}";2;Boulevard de Léry;2;50;false;true;true;false;false;false;82.0;1;0;0;0;0;false;78729;6190668869;-73.785277;45.355682;78214;6190671722;-73.764969;45.356198;0;31;32;8908783;Bus 28 : Châteauguay - Montréal (Centre-Ville);"";EXO;28 E;Terminus Salaberry-de-Valleyfield;Terminus Mansfield
462343342;"{\"type\":\"LineString\",\"coordinates\":[[-73.7839807,45.3562542],[-73.7844218,45.3564127]]}";3;Boulevard René-Lévesque;2;70;false;false;true;false;false;false;39.0;0;0;0;0;0;false;78729;6190668869;-73.785277;45.355682;78214;6190671722;-73.764969;45.356198;0;31;32;8908783;Bus 28 : Châteauguay - Montréal (Centre-Ville);"";EXO;28 E;Terminus Salaberry-de-Valleyfield;Terminus Mansfield
43350540;"{\"type\":\"LineString\",\"coordinates\":[[-73.7779217,45.3540134],[-73.7829543,45.3558746],[-73.783806,45.3561896],[-73.7839338,45.3562369],[-73.7839807,45.3562542]]}";4;Boulevard René-Lévesque;2;70;false;false;true;false;false;false;536.0;1;0;0;0;0;false;78729;6190668869;-73.785277;45.355682;78214;6190671722;-73.764969;45.356198;0;31;32;8908783;Bus 28 : Châteauguay - Montréal (Centre-Ville);"";EXO;28 E;Terminus Salaberry-de-Valleyfield;Terminus Mansfield
128245120;"{\"type\":\"LineString\",\"coordinates\":[[-73.7779217,45.3540134],[-73.776572,45.3533847]]}";5;Boulevard René-Lévesque;1;70;false;true;true;false;false;false;127.0;0;0;0;0;0;false;78729;6190668869;-73.785277;45.355682;78214;6190671722;-73.764969;45.356198;0;31;32;8908783;Bus 28 : Châteauguay - Montréal (Centre-Ville);"";EXO;28 E;Terminus Salaberry-de-Valleyfield;Terminus Mansfield
782796058;"{\"type\":\"LineString\",\"coordinates\":[[-73.776572,45.3533847],[-73.7763651,45.3532962],[-73.7760879,45.3531537],[-73.7757621,45.3529755],[-73.7755561,45.3528508],[-73.7753352,45.3527206],[-73.7752126,45.3526436],[-73.77517,45.3526166],[-73.7751525,45.3526061]]}";6;Boulevard René-Lévesque;2;70;false;true;true;false;false;false;142.0;0;0;1;0;0;false;78729;6190668869;-73.785277;45.355682;78214;6190671722;-73.764969;45.356198;0;31;32;8908783;Bus 28 : Châteauguay - Montréal (Centre-Ville);"";EXO;28 E;Terminus Salaberry-de-Valleyfield;Terminus Mansfield
475122382;"{\"type\":\"LineString\",\"coordinates\":[[-73.7751525,45.3526061],[-73.775079,45.3526604]]}";7;Rue Principale;1;50;false;true;true;false;false;false;9.0;0;0;0;0;0;false;78729;6190668869;-73.785277;45.355682;78214;6190671722;-73.764969;45.356198;0;31;32;8908783;Bus 28 : Châteauguay - Montréal (Centre-Ville);"";EXO;28 E;Terminus Salaberry-de-Valleyfield;Terminus Mansfield
475122381;"{\"type\":\"LineString\",\"coordinates\":[[-73.775079,45.3526604],[-73.7748199,45.3528685],[-73.7747205,45.3529451],[-73.7746148,45.3530162]]}";8;Rue Principale;1;50;false;true;true;false;false;false;54.0;0;0;0;0;0;false;78729;6190668869;-73.785277;45.355682;78214;6190671722;-73.764969;45.356198;0;31;32;8908783;Bus 28 : Châteauguay - Montréal (Centre-Ville);"";EXO;28 E;Terminus Salaberry-de-Valleyfield;Terminus Mansfield
678449238;"{\"type\":\"LineString\",\"coordinates\":[[-73.7746148,45.3530162],[-73.7740154,45.3534647],[-73.7739206,45.3535985]]}";9;Rue Principale;1;50;false;true;true;false;false;false;86.0;0;0;0;0;0;false;78729;6190668869;-73.785277;45.355682;78214;6190671722;-73.764969;45.356198;0;31;32;8908783;Bus 28 : Châteauguay - Montréal (Centre-Ville);"";EXO;28 E;Terminus Salaberry-de-Valleyfield;Terminus Mansfield
423686448;"{\"type\":\"LineString\",\"coordinates\":[[-73.7739206,45.3535985],[-73.7738767,45.3536326],[-73.7737024,45.353756],[-73.7735513,45.3538589],[-73.7733566,45.3539716],[-73.77322,45.3540477],[-73.773165,45.3540736],[-73.7730844,45.3541117],[-73.7730406,45.3541311],[-73.7729586,45.3541673],[-73.7727593,45.354247],[-73.7725445,45.3543214],[-73.7723492,45.354379],[-73.7721052,45.3544415],[-73.7719152,45.3544904],[-73.7717617,45.3545296],[-73.7714614,45.3546034]]}";10;Rue Principale;3;30;false;false;true;false;false;false;226.0;0;0;0;0;0;false;78729;6190668869;-73.785277;45.355682;78214;6190671722;-73.764969;45.356198;0;31;32;8908783;Bus 28 : Châteauguay - Montréal (Centre-Ville);"";EXO;28 E;Terminus Salaberry-de-Valleyfield;Terminus Mansfield
783180527;"{\"type\":\"LineString\",\"coordinates\":[[-73.7685078,45.3553365],[-73.7687023,45.3552895],[-73.7689327,45.3552338],[-73.7690467,45.3552049],[-73.7697607,45.355024],[-73.7698773,45.3549979],[-73.7701674,45.354925],[-73.7707343,45.3547843],[-73.7713683,45.354627],[-73.7714614,45.3546034]]}";11;Rue Principale;3;30;false;false;true;false;false;false;246.0;0;2;0;0;0;false;78729;6190668869;-73.785277;45.355682;78214;6190671722;-73.764969;45.356198;0;31;32;8908783;Bus 28 : Châteauguay - Montréal (Centre-Ville);"";EXO;28 E;Terminus Salaberry-de-Valleyfield;Terminus Mansfield
783180523;"{\"type\":\"LineString\",\"coordinates\":[[-73.7685078,45.3553365],[-73.7684194,45.3553362],[-73.7681575,45.3553996],[-73.7681144,45.3554101],[-73.7679155,45.3554606]]}";12;Rue Principale;1;30;false;true;true;false;false;false;49.0;0;1;0;0;0;false;78729;6190668869;-73.785277;45.355682;78214;6190671722;-73.764969;45.356198;0;31;32;8908783;Bus 28 : Châteauguay - Montréal (Centre-Ville);"";EXO;28 E;Terminus Salaberry-de-Valleyfield;Terminus Mansfield
783180528;"{\"type\":\"LineString\",\"coordinates\":[[-73.7679155,45.3554606],[-73.7676995,45.3555136],[-73.7676058,45.3555366],[-73.7674959,45.3556007]]}";13;Rue Principale;2;30;false;true;true;false;false;false;37.0;0;0;0;0;0;false;78729;6190668869;-73.785277;45.355682;78214;6190671722;-73.764969;45.356198;0;31;32;8908783;Bus 28 : Châteauguay - Montréal (Centre-Ville);"";EXO;28 E;Terminus Salaberry-de-Valleyfield;Terminus Mansfield
128837225;"{\"type\":\"LineString\",\"coordinates\":[[-73.7650196,45.3562098],[-73.765343,45.3561294],[-73.7654894,45.356093],[-73.7656881,45.3560436],[-73.7658303,45.3560082],[-73.7659485,45.3559788],[-73.7660326,45.3559579],[-73.7663352,45.3558827],[-73.7664071,45.3558648],[-73.7664906,45.3558441],[-73.7666847,45.3557958],[-73.7671379,45.355682],[-73.7672166,45.3556641],[-73.7673534,45.3556331],[-73.7674959,45.3556007]]}";14;Rue Principale;3;50;false;false;true;false;false;false;206.0;0;0;0;0;0;false;78729;6190668869;-73.785277;45.355682;78214;6190671722;-73.764969;45.356198;0;31;32;8908783;Bus 28 : Châteauguay - Montréal (Centre-Ville);"";EXO;28 E;Terminus Salaberry-de-Valleyfield;Terminus Mansfield
666126654;"{\"type\":\"LineString\",\"coordinates\":[[-73.7650196,45.3562098],[-73.7648725,45.3562439]]}";15;Rue Principale;3;50;false;false;true;false;false;false;6.5;0;1;0;0;0;false;78729;6190668869;-73.785277;45.355682;78214;6190671722;-73.764969;45.356198;1;31;32;8908783;Bus 28 : Châteauguay - Montréal (Centre-Ville);"";EXO;28 E;Terminus Salaberry-de-Valleyfield;Terminus Mansfield
128837225;"{\"type\":\"LineString\",\"coordinates\":[[-73.7650196,45.3562098],[-73.765343,45.3561294],[-73.7654894,45.356093],[-73.7656881,45.3560436],[-73.7658303,45.3560082],[-73.7659485,45.3559788],[-73.7660326,45.3559579],[-73.7663352,45.3558827],[-73.7664071,45.3558648],[-73.7664906,45.3558441],[-73.7666847,45.3557958],[-73.7671379,45.355682],[-73.7672166,45.3556641],[-73.7673534,45.3556331],[-73.7674959,45.3556007]]}";1;Rue Principale;3;50;false;false;true;false;false;false;206.0;0;0;0;0;0;false;78214;6190671722;-73.764969;45.356198;78145;6190671776;-73.756682;45.358169;2;32;33;8908783;Bus 28 : Châteauguay - Montréal (Centre-Ville);"";EXO;28 E;Terminus Salaberry-de-Valleyfield;Terminus Mansfield
666126654;"{\"type\":\"LineString\",\"coordinates\":[[-73.7650196,45.3562098],[-73.7648725,45.3562439]]}";2;Rue Principale;3;50;false;false;true;false;false;false;13.0;0;1;0;0;0;false;78214;6190671722;-73.764969;45.356198;78145;6190671776;-73.756682;45.358169;0;32;33;8908783;Bus 28 : Châteauguay - Montréal (Centre-Ville);"";EXO;28 E;Terminus Salaberry-de-Valleyfield;Terminus Mansfield
789022471;"{\"type\":\"LineString\",\"coordinates\":[[-73.7643707,45.356397],[-73.7644792,45.3563695],[-73.7646932,45.3563153],[-73.7648229,45.3562825],[-73.7648725,45.3562439]]}";3;Rue Principale;2;50;false;true;true;false;false;false;44.0;0;1;0;0;0;false;78214;6190671722;-73.764969;45.356198;78145;6190671776;-73.756682;45.358169;0;32;33;8908783;Bus 28 : Châteauguay - Montréal (Centre-Ville);"";EXO;28 E;Terminus Salaberry-de-Valleyfield;Terminus Mansfield
789022469;"{\"type\":\"LineString\",\"coordinates\":[[-73.7638272,45.3565066],[-73.7640416,45.3564912],[-73.7642832,45.356422],[-73.7643707,45.356397]]}";4;Rue Principale;1;50;false;true;true;false;false;false;45.0;0;0;0;0;0;false;78214;6190671722;-73.764969;45.356198;78145;6190671776;-73.756682;45.358169;0;32;33;8908783;Bus 28 : Châteauguay - Montréal (Centre-Ville);"";EXO;28 E;Terminus Salaberry-de-Valleyfield;Terminus Mansfield
789022468;"{\"type\":\"LineString\",\"coordinates\":[[-73.7638272,45.3565066],[-73.7636243,45.3565578],[-73.7633324,45.3566315],[-73.7632352,45.3566552],[-73.7621723,45.3569143],[-73.7618156,45.3570012],[-73.7613293,45.3571197],[-73.7602531,45.3573781],[-73.7596934,45.3575127],[-73.7594356,45.3575747],[-73.7593009,45.3576071]]}";5;Rue Principale;3;50;false;false;true;false;false;false;375.0;0;2;0;0;0;false;78214;6190671722;-73.764969;45.356198;78145;6190671776;-73.756682;45.358169;0;32;33;8908783;Bus 28 : Châteauguay - Montréal (Centre-Ville);"";EXO;28 E;Terminus Salaberry-de-Valleyfield;Terminus Mansfield
788885532;"{\"type\":\"LineString\",\"coordinates\":[[-73.7593009,45.3576071],[-73.7591829,45.3576344],[-73.759058,45.3576643],[-73.7590034,45.3576774],[-73.7588878,45.3577051],[-73.7584846,45.3578018],[-73.7580866,45.3578972],[-73.7578553,45.3579526]]}";6;Rue Principale;3;50;false;false;true;false;false;false;120.0;0;1;0;0;0;false;78214;6190671722;-73.764969;45.356198;78145;6190671776;-73.756682;45.358169;0;32;33;8908783;Bus 28 : Châteauguay - Montréal (Centre-Ville);"";EXO;28 E;Terminus Salaberry-de-Valleyfield;Terminus Mansfield
789022472;"{\"type\":\"LineString\",\"coordinates\":[[-73.7578553,45.3579526],[-73.757636,45.3579733],[-73.7574889,45.3580058],[-73.7573858,45.3580283]]}";7;Rue Principale;1;50;false;true;true;false;false;false;38.0;0;0;0;0;0;false;78214;6190671722;-73.764969;45.356198;78145;6190671776;-73.756682;45.358169;0;32;33;8908783;Bus 28 : Châteauguay - Montréal (Centre-Ville);"";EXO;28 E;Terminus Salaberry-de-Valleyfield;Terminus Mansfield
789022473;"{\"type\":\"LineString\",\"coordinates\":[[-73.7573858,45.3580283],[-73.7571601,45.3580784]]}";8;Rue Principale;2;50;false;true;true;false;false;false;19.0;0;0;0;0;0;false;78214;6190671722;-73.764969;45.356198;78145;6190671776;-73.756682;45.358169;0;32;33;8908783;Bus 28 : Châteauguay - Montréal (Centre-Ville);"";EXO;28 E;Terminus Salaberry-de-Valleyfield;Terminus Mansfield
789022474;"{\"type\":\"LineString\",\"coordinates\":[[-73.7571601,45.3580784],[-73.7568353,45.3581546],[-73.7568094,45.3581604],[-73.7566354,45.3581975]]}";9;Rue Principale;3;50;false;true;true;false;false;false;44.0;1;1;0;0;0;false;78214;6190671722;-73.764969;45.356198;78145;6190671776;-73.756682;45.358169;2;32;33;8908783;Bus 28 : Châteauguay - Montréal (Centre-Ville);"";EXO;28 E;Terminus Salaberry-de-Valleyfield;Terminus Mansfield
164862472;"{\"type\":\"LineString\",\"coordinates\":[[-73.7566354,45.3581975],[-73.7565166,45.3582207],[-73.7564676,45.3582305],[-73.7561995,45.3582987],[-73.7559743,45.3583577],[-73.7550106,45.3585903],[-73.7547612,45.3586505],[-73.7542962,45.3587683],[-73.7541248,45.3588218]]}";1;Rue Principale;1;50;false;true;true;false;false;false;209.0;0;1;0;0;0;false;78145;6190671776;-73.756682;45.358169;78024;6190672478;-73.753616;45.358959;2;33;34;8908783;Bus 28 : Châteauguay - Montréal (Centre-Ville);"";EXO;28 E;Terminus Salaberry-de-Valleyfield;Terminus Mansfield
790003861;"{\"type\":\"LineString\",\"coordinates\":[[-73.7541248,45.3588218],[-73.753672,45.3589312],[-73.7536211,45.3589444],[-73.7535492,45.3589608]]}";2;Rue Principale;2;50;false;true;true;false;false;false;48.0;0;1;1;0;0;false;78145;6190671776;-73.756682;45.358169;78024;6190672478;-73.753616;45.358959;2;33;34;8908783;Bus 28 : Châteauguay - Montréal (Centre-Ville);"";EXO;28 E;Terminus Salaberry-de-Valleyfield;Terminus Mansfield
339617752;"{\"type\":\"LineString\",\"coordinates\":[[-73.7535492,45.3589608],[-73.7534649,45.3589749],[-73.7534071,45.3589837],[-73.7512496,45.3595205],[-73.751146,45.3595462],[-73.7506054,45.3596826]]}";1;Rue Principale;1;30;false;true;true;false;false;false;122.5;0;2;0;0;0;false;78131;6190672389;-73.751789;45.35938;78162;6190671762;-73.748566;45.360168;1;35;36;8908783;Bus 28 : Châteauguay - Montréal (Centre-Ville);"";EXO;28 E;Terminus Salaberry-de-Valleyfield;Terminus Mansfield
44339177;"{\"type\":\"LineString\",\"coordinates\":[[-73.7506054,45.3596826],[-73.7503556,45.3597543]]}";2;Rue Principale;1;30;false;true;true;false;false;false;22.0;0;0;0;0;0;false;78131;6190672389;-73.751789;45.35938;78162;6190671762;-73.748566;45.360168;0;35;36;8908783;Bus 28 : Châteauguay - Montréal (Centre-Ville);"";EXO;28 E;Terminus Salaberry-de-Valleyfield;Terminus Mansfield
44339178;"{\"type\":\"LineString\",\"coordinates\":[[-73.7503556,45.3597543],[-73.7500159,45.3598421],[-73.7498751,45.3598965]]}";3;Rue Principale;1;30;false;true;true;false;false;false;41.0;0;0;0;0;0;false;78131;6190672389;-73.751789;45.35938;78162;6190671762;-73.748566;45.360168;0;35;36;8908783;Bus 28 : Châteauguay - Montréal (Centre-Ville);"";EXO;28 E;Terminus Salaberry-de-Valleyfield;Terminus Mansfield
789683139;"{\"type\":\"LineString\",\"coordinates\":[[-73.7498751,45.3598965],[-73.749635,45.3599612],[-73.7494106,45.3600217],[-73.7493161,45.3600431],[-73.7492575,45.3600573],[-73.7491738,45.3600764]]}";4;Rue Principale;2;30;false;true;true;false;false;false;59.0;1;1;0;0;0;false;78131;6190672389;-73.751789;45.35938;78162;6190671762;-73.748566;45.360168;0;35;36;8908783;Bus 28 : Châteauguay - Montréal (Centre-Ville);"";EXO;28 E;Terminus Salaberry-de-Valleyfield;Terminus Mansfield
529095088;"{\"type\":\"LineString\",\"coordinates\":[[-73.7491738,45.3600764],[-73.7490754,45.3600995],[-73.7489449,45.3601312],[-73.7488245,45.3601655],[-73.7487634,45.3601827],[-73.748699,45.360202],[-73.7485554,45.3602402],[-73.748338,45.360313],[-73.7482877,45.3603299],[-73.7481254,45.3603885],[-73.7478805,45.3605301],[-73.7475111,45.3607961],[-73.7474601,45.3608532]]}";5;Rue Principale;1;50;false;true;true;false;false;false;81.5;0;2;0;0;0;false;78131;6190672389;-73.751789;45.35938;78162;6190671762;-73.748566;45.360168;1;35;36;8908783;Bus 28 : Châteauguay - Montréal (Centre-Ville);"";EXO;28 E;Terminus Salaberry-de-Valleyfield;Terminus Mansfield
529095088;"{\"type\":\"LineString\",\"coordinates\":[[-73.7491738,45.3600764],[-73.7490754,45.3600995],[-73.7489449,45.3601312],[-73.7488245,45.3601655],[-73.7487634,45.3601827],[-73.748699,45.360202],[-73.7485554,45.3602402],[-73.748338,45.360313],[-73.7482877,45.3603299],[-73.7481254,45.3603885],[-73.7478805,45.3605301],[-73.7475111,45.3607961],[-73.7474601,45.3608532]]}";1;Rue Principale;1;50;false;true;true;false;false;false;81.5;0;2;0;0;0;false;78162;6190671762;-73.748566;45.360168;78172;6190671758;-73.745015;45.361785;1;36;37;8908783;Bus 28 : Châteauguay - Montréal (Centre-Ville);"";EXO;28 E;Terminus Salaberry-de-Valleyfield;Terminus Mansfield
806543246;"{\"type\":\"LineString\",\"coordinates\":[[-73.7469966,45.3611616],[-73.7474601,45.3608532]]}";2;Pont Arthur-Laberge;1;50;false;false;true;false;false;false;50.0;0;0;0;0;0;false;78162;6190671762;-73.748566;45.360168;78172;6190671758;-73.745015;45.361785;0;36;37;8908783;Bus 28 : Châteauguay - Montréal (Centre-Ville);"";EXO;28 E;Terminus Salaberry-de-Valleyfield;Terminus Mansfield
352177603;"{\"type\":\"LineString\",\"coordinates\":[[-73.746412,45.361533],[-73.7464608,45.3615025],[-73.7465485,45.3614467],[-73.7466175,45.3614028],[-73.7469966,45.3611616]]}";3;Pont Arthur-Laberge;3;50;false;false;true;false;false;false;62.0;1;1;0;0;0;false;78162;6190671762;-73.748566;45.360168;78172;6190671758;-73.745015;45.361785;0;36;37;8908783;Bus 28 : Châteauguay - Montréal (Centre-Ville);"";EXO;28 E;Terminus Salaberry-de-Valleyfield;Terminus Mansfield
473814502;"{\"type\":\"LineString\",\"coordinates\":[[-73.746412,45.361533],[-73.7462948,45.3616017]]}";4;Boulevard D'anjou;2;50;false;false;true;false;false;false;12.0;0;1;0;0;0;false;78162;6190671762;-73.748566;45.360168;78172;6190671758;-73.745015;45.361785;0;36;37;8908783;Bus 28 : Châteauguay - Montréal (Centre-Ville);"";EXO;28 E;Terminus Salaberry-de-Valleyfield;Terminus Mansfield
339067977;"{\"type\":\"LineString\",\"coordinates\":[[-73.7453264,45.3618588],[-73.7454376,45.361844],[-73.7456289,45.361831],[-73.7457602,45.361818],[-73.7458581,45.3617981],[-73.745938,45.3617777],[-73.7460306,45.3617452],[-73.7461032,45.3617176],[-73.7461671,45.36169],[-73.7462948,45.3616017]]}";5;Boulevard d'Anjou;1;50;false;true;true;false;false;false;84.0;1;0;0;0;0;false;78162;6190671762;-73.748566;45.360168;78172;6190671758;-73.745015;45.361785;0;36;37;8908783;Bus 28 : Châteauguay - Montréal (Centre-Ville);"";EXO;28 E;Terminus Salaberry-de-Valleyfield;Terminus Mansfield
13811756;"{\"type\":\"LineString\",\"coordinates\":[[-73.7449581,45.3618424],[-73.7450896,45.3618577],[-73.7452276,45.3618584],[-73.7453264,45.3618588]]}";6;Boulevard d'Anjou;2;50;false;true;true;false;false;false;14.5;0;0;0;0;0;false;78162;6190671762;-73.748566;45.360168;78172;6190671758;-73.745015;45.361785;1;36;37;8908783;Bus 28 : Châteauguay - Montréal (Centre-Ville);"";EXO;28 E;Terminus Salaberry-de-Valleyfield;Terminus Mansfield
44339145;"{\"type\":\"LineString\",\"coordinates\":[[-73.7446161,45.3618175],[-73.7449581,45.3618424]]}";1;Boulevard d'Anjou;3;50;false;true;true;false;false;false;27.0;0;0;0;0;0;false;78172;6190671758;-73.745015;45.361785;78176;6190671754;-73.738997;45.361172;2;37;38;8908783;Bus 28 : Châteauguay - Montréal (Centre-Ville);"";EXO;28 E;Terminus Salaberry-de-Valleyfield;Terminus Mansfield
806553363;"{\"type\":\"LineString\",\"coordinates\":[[-73.7443609,45.3617766],[-73.7446161,45.3618175]]}";2;Boulevard d'Anjou;4;50;false;true;true;false;false;false;21.0;0;0;0;0;0;false;78172;6190671758;-73.745015;45.361785;78176;6190671754;-73.738997;45.361172;0;37;38;8908783;Bus 28 : Châteauguay - Montréal (Centre-Ville);"";EXO;28 E;Terminus Salaberry-de-Valleyfield;Terminus Mansfield
806555421;"{\"type\":\"LineString\",\"coordinates\":[[-73.7443609,45.3617766],[-73.7440524,45.3617408],[-73.7437166,45.3617021],[-73.7431063,45.3616327],[-73.7430071,45.3616212]]}";3;Boulevard d'Anjou;4;50;false;false;true;false;false;false;108.0;0;0;0;0;0;false;78172;6190671758;-73.745015;45.361785;78176;6190671754;-73.738997;45.361172;0;37;38;8908783;Bus 28 : Châteauguay - Montréal (Centre-Ville);"";EXO;28 E;Terminus Salaberry-de-Valleyfield;Terminus Mansfield
376030272;"{\"type\":\"LineString\",\"coordinates\":[[-73.7430071,45.3616212],[-73.7410139,45.3613889],[-73.7399877,45.3612946],[-73.7389788,45.3611854]]}";4;Boulevard d'Anjou;4;50;false;false;true;false;false;false;320.0;1;0;0;0;0;false;78172;6190671758;-73.745015;45.361785;78176;6190671754;-73.738997;45.361172;2;37;38;8908783;Bus 28 : Châteauguay - Montréal (Centre-Ville);"";EXO;28 E;Terminus Salaberry-de-Valleyfield;Terminus Mansfield
678228603;"{\"type\":\"LineString\",\"coordinates\":[[-73.7327633,45.3604634],[-73.7326048,45.3604467]]}";1;Boulevard d'Anjou;5;50;false;false;true;false;false;false;13.0;0;0;0;0;0;false;78124;6190672395;-73.732825;45.360425;78171;570144086;-73.727642;45.359788;2;40;41;8908783;Bus 28 : Châteauguay - Montréal (Centre-Ville);"";EXO;28 E;Terminus Salaberry-de-Valleyfield;Terminus Mansfield
339617749;"{\"type\":\"LineString\",\"coordinates\":[[-73.7326048,45.3604467],[-73.7324663,45.360431],[-73.7298048,45.3601294],[-73.7294646,45.3600909],[-73.728216,45.3599494],[-73.7275633,45.3598721],[-73.7274757,45.3598617]]}";2;Boulevard d'Anjou;5;50;false;false;true;false;false;false;407.0;2;0;0;0;0;false;78124;6190672395;-73.732825;45.360425;78171;570144086;-73.727642;45.359788;2;40;41;8908783;Bus 28 : Châteauguay - Montréal (Centre-Ville);"";EXO;28 E;Terminus Salaberry-de-Valleyfield;Terminus Mansfield
678443243;"{\"type\":\"LineString\",\"coordinates\":[[-73.7274757,45.3598617],[-73.7272958,45.3598395]]}";1;Boulevard d'Anjou;5;50;false;false;true;false;false;false;15.0;0;0;0;0;0;false;78171;570144086;-73.727642;45.359788;78178;6190671752;-73.723465;45.359398;2;41;42;8908783;Bus 28 : Châteauguay - Montréal (Centre-Ville);"";EXO;28 E;Terminus Salaberry-de-Valleyfield;Terminus Mansfield
666350670;"{\"type\":\"LineString\",\"coordinates\":[[-73.7272958,45.3598395],[-73.7272012,45.359829],[-73.7252656,45.3596138],[-73.723463,45.3594134],[-73.722157,45.3592668],[-73.7215402,45.3591976],[-73.718471,45.3588747],[-73.7180761,45.3588332],[-73.7177888,45.3588022]]}";2;Boulevard d'Anjou;5;50;false;false;true;false;false;false;754.0;2;0;0;0;0;false;78171;570144086;-73.727642;45.359788;78178;6190671752;-73.723465;45.359398;2;41;42;8908783;Bus 28 : Châteauguay - Montréal (Centre-Ville);"";EXO;28 E;Terminus Salaberry-de-Valleyfield;Terminus Mansfield
666350670;"{\"type\":\"LineString\",\"coordinates\":[[-73.7272958,45.3598395],[-73.7272012,45.359829],[-73.7252656,45.3596138],[-73.723463,45.3594134],[-73.722157,45.3592668],[-73.7215402,45.3591976],[-73.718471,45.3588747],[-73.7180761,45.3588332],[-73.7177888,45.3588022]]}";1;Boulevard d'Anjou;5;50;false;false;true;false;false;false;377.0;2;0;0;0;0;false;78160;6190671764;-73.718764;45.358821;78132;6190672388;-73.715801;45.358657;1;43;44;8908783;Bus 28 : Châteauguay - Montréal (Centre-Ville);"";EXO;28 E;Terminus Salaberry-de-Valleyfield;Terminus Mansfield
462340967;"{\"type\":\"LineString\",\"coordinates\":[[-73.7177888,45.3588022],[-73.7159491,45.3585979]]}";2;Boulevard d'Anjou;5;50;false;false;true;false;false;false;146.0;1;0;0;0;0;false;78160;6190671764;-73.718764;45.358821;78132;6190672388;-73.715801;45.358657;0;43;44;8908783;Bus 28 : Châteauguay - Montréal (Centre-Ville);"";EXO;28 E;Terminus Salaberry-de-Valleyfield;Terminus Mansfield
462340968;"{\"type\":\"LineString\",\"coordinates\":[[-73.715174,45.3598686],[-73.7159491,45.3585979]]}";3;Boulevard Saint-Jean-Baptiste;5;50;false;false;true;false;false;false;77.0;1;0;0;0;0;false;78160;6190671764;-73.718764;45.358821;78132;6190672388;-73.715801;45.358657;1;43;44;8908783;Bus 28 : Châteauguay - Montréal (Centre-Ville);"";EXO;28 E;Terminus Salaberry-de-Valleyfield;Terminus Mansfield
462340967;"{\"type\":\"LineString\",\"coordinates\":[[-73.7177888,45.3588022],[-73.7159491,45.3585979]]}";1;Boulevard d'Anjou;5;50;false;false;true;false;false;false;146.0;1;0;0;0;0;false;78132;6190672388;-73.715801;45.358657;78179;6190671751;-73.713495;45.362459;2;44;45;8908783;Bus 28 : Châteauguay - Montréal (Centre-Ville);"";EXO;28 E;Terminus Salaberry-de-Valleyfield;Terminus Mansfield
462340968;"{\"type\":\"LineString\",\"coordinates\":[[-73.715174,45.3598686],[-73.7159491,45.3585979]]}";2;Boulevard Saint-Jean-Baptiste;5;50;false;false;true;false;false;false;154.0;1;0;0;0;0;false;78132;6190672388;-73.715801;45.358657;78179;6190671751;-73.713495;45.362459;0;44;45;8908783;Bus 28 : Châteauguay - Montréal (Centre-Ville);"";EXO;28 E;Terminus Salaberry-de-Valleyfield;Terminus Mansfield
462340969;"{\"type\":\"LineString\",\"coordinates\":[[-73.7135371,45.3625678],[-73.7142507,45.3613773],[-73.7143242,45.3612455],[-73.7147433,45.3605702],[-73.7150279,45.3601066],[-73.715174,45.3598686]]}";3;Boulevard Saint-Jean-Baptiste;5;50;false;false;true;false;false;false;327.0;1;0;0;0;0;false;78132;6190672388;-73.715801;45.358657;78179;6190671751;-73.713495;45.362459;2;44;45;8908783;Bus 28 : Châteauguay - Montréal (Centre-Ville);"";EXO;28 E;Terminus Salaberry-de-Valleyfield;Terminus Mansfield
677713370;"{\"type\":\"LineString\",\"coordinates\":[[-73.7115683,45.3658389],[-73.713018,45.3634711],[-73.7135371,45.3625678]]}";1;Boulevard Saint-Jean-Baptiste;5;50;false;false;true;false;false;false;197.5;2;0;0;0;0;false;78136;5515416123;-73.7117;45.365547;78168;5515415518;-73.711119;45.365445;1;46;47;8908783;Bus 28 : Châteauguay - Montréal (Centre-Ville);"";EXO;28 E;Terminus Salaberry-de-Valleyfield;Terminus Mansfield
574640100;"{\"type\":\"LineString\",\"coordinates\":[[-73.7115683,45.3658389],[-73.7114449,45.3658018],[-73.7113212,45.3657789],[-73.7108962,45.3657346]]}";2;"";1;50;false;false;true;false;false;false;55.0;1;0;0;0;0;false;78136;5515416123;-73.7117;45.365547;78168;5515415518;-73.711119;45.365445;0;46;47;8908783;Bus 28 : Châteauguay - Montréal (Centre-Ville);"";EXO;28 E;Terminus Salaberry-de-Valleyfield;Terminus Mansfield
574640101;"{\"type\":\"LineString\",\"coordinates\":[[-73.7115683,45.3658389],[-73.7114706,45.3657592],[-73.7114216,45.3657247],[-73.7113398,45.365669],[-73.7112184,45.3655853],[-73.7111157,45.365541],[-73.711119,45.365445],[-73.7110199,45.3655426],[-73.7109662,45.3655705],[-73.7109335,45.3656083],[-73.7108962,45.3657346]]}";3;"";1;50;false;true;true;false;false;false;49.0;1;0;0;0;0;false;78136;5515416123;-73.7117;45.365547;78168;5515415518;-73.711119;45.365445;1;46;47;8908783;Bus 28 : Châteauguay - Montréal (Centre-Ville);"";EXO;28 E;Terminus Salaberry-de-Valleyfield;Terminus Mansfield
574640101;"{\"type\":\"LineString\",\"coordinates\":[[-73.7115683,45.3658389],[-73.7114706,45.3657592],[-73.7114216,45.3657247],[-73.7113398,45.365669],[-73.7112184,45.3655853],[-73.7111157,45.365541],[-73.711119,45.365445],[-73.7110199,45.3655426],[-73.7109662,45.3655705],[-73.7109335,45.3656083],[-73.7108962,45.3657346]]}";1;"";1;50;false;true;true;false;false;false;49.0;1;0;0;0;0;false;78168;5515415518;-73.711119;45.365445;78125;6190672394;-73.710017;45.368313;1;47;48;8908783;Bus 28 : Châteauguay - Montréal (Centre-Ville);"";EXO;28 E;Terminus Salaberry-de-Valleyfield;Terminus Mansfield
574640100;"{\"type\":\"LineString\",\"coordinates\":[[-73.7115683,45.3658389],[-73.7114449,45.3658018],[-73.7113212,45.3657789],[-73.7108962,45.3657346]]}";2;"";1;50;false;false;true;false;false;false;55.0;1;0;0;0;0;false;78168;5515415518;-73.711119;45.365445;78125;6190672394;-73.710017;45.368313;0;47;48;8908783;Bus 28 : Châteauguay - Montréal (Centre-Ville);"";EXO;28 E;Terminus Salaberry-de-Valleyfield;Terminus Mansfield
666181870;"{\"type\":\"LineString\",\"coordinates\":[[-73.7109041,45.3669337],[-73.7115683,45.3658389]]}";3;Boulevard Saint-Jean-Baptiste;5;50;false;false;true;false;false;false;133.0;1;0;0;0;0;false;78168;5515415518;-73.711119;45.365445;78125;6190672394;-73.710017;45.368313;0;47;48;8908783;Bus 28 : Châteauguay - Montréal (Centre-Ville);"";EXO;28 E;Terminus Salaberry-de-Valleyfield;Terminus Mansfield
13810867;"{\"type\":\"LineString\",\"coordinates\":[[-73.7109041,45.3669337],[-73.7107783,45.3670448],[-73.7105598,45.3674213],[-73.7104644,45.3675857]]}";4;Boulevard Saint-Jean-Baptiste;5;50;false;true;true;false;false;false;81.0;1;0;0;0;0;false;78168;5515415518;-73.711119;45.365445;78125;6190672394;-73.710017;45.368313;0;47;48;8908783;Bus 28 : Châteauguay - Montréal (Centre-Ville);"";EXO;28 E;Terminus Salaberry-de-Valleyfield;Terminus Mansfield
476608730;"{\"type\":\"LineString\",\"coordinates\":[[-73.7104644,45.3675857],[-73.7104073,45.3676855]]}";5;Boulevard Saint-Jean-Baptiste;5;50;false;true;true;false;false;false;12.0;0;0;0;0;0;false;78168;5515415518;-73.711119;45.365445;78125;6190672394;-73.710017;45.368313;0;47;48;8908783;Bus 28 : Châteauguay - Montréal (Centre-Ville);"";EXO;28 E;Terminus Salaberry-de-Valleyfield;Terminus Mansfield
476608728;"{\"type\":\"LineString\",\"coordinates\":[[-73.7104073,45.3676855],[-73.7100703,45.36826],[-73.7099813,45.3684118]]}";6;Boulevard Saint-Jean-Baptiste;5;50;false;true;true;false;false;false;44.0;1;0;0;0;0;false;78168;5515415518;-73.711119;45.365445;78125;6190672394;-73.710017;45.368313;1;47;48;8908783;Bus 28 : Châteauguay - Montréal (Centre-Ville);"";EXO;28 E;Terminus Salaberry-de-Valleyfield;Terminus Mansfield
476606111;"{\"type\":\"LineString\",\"coordinates\":[[-73.7099813,45.3684118],[-73.7099292,45.3684994]]}";1;Boulevard Saint-Jean-Baptiste;5;50;false;true;true;false;false;false;11.0;0;0;0;0;0;false;78125;6190672394;-73.710017;45.368313;78730;6190668868;-73.70505;45.376806;2;48;49;8908783;Bus 28 : Châteauguay - Montréal (Centre-Ville);"";EXO;28 E;Terminus Salaberry-de-Valleyfield;Terminus Mansfield
342545891;"{\"type\":\"LineString\",\"coordinates\":[[-73.7099292,45.3684994],[-73.7096373,45.3690166],[-73.7095192,45.3692756],[-73.7094727,45.3694074]]}";2;Boulevard Saint-Jean-Baptiste;2;50;false;true;true;false;false;false;108.0;0;0;0;0;0;false;78125;6190672394;-73.710017;45.368313;78730;6190668868;-73.70505;45.376806;0;48;49;8908783;Bus 28 : Châteauguay - Montréal (Centre-Ville);"";EXO;28 E;Terminus Salaberry-de-Valleyfield;Terminus Mansfield
638130699;"{\"type\":\"LineString\",\"coordinates\":[[-73.7057841,45.3757376],[-73.7059489,45.3754557],[-73.7061827,45.3750558],[-73.7077504,45.3723743],[-73.7094727,45.3694074]]}";3;Route 132;5;70;false;false;true;false;false;false;760.0;0;0;0;0;0;false;78125;6190672394;-73.710017;45.368313;78730;6190668868;-73.70505;45.376806;0;48;49;8908783;Bus 28 : Châteauguay - Montréal (Centre-Ville);"";EXO;28 E;Terminus Salaberry-de-Valleyfield;Terminus Mansfield
638130701;"{\"type\":\"LineString\",\"coordinates\":[[-73.7057841,45.3757376],[-73.7056473,45.3758488],[-73.7050512,45.3768421]]}";4;Route 132;5;70;false;true;true;false;false;false;137.0;0;0;0;0;0;false;78125;6190672394;-73.710017;45.368313;78730;6190668868;-73.70505;45.376806;2;48;49;8908783;Bus 28 : Châteauguay - Montréal (Centre-Ville);"";EXO;28 E;Terminus Salaberry-de-Valleyfield;Terminus Mansfield
638130696;"{\"type\":\"LineString\",\"coordinates\":[[-73.7050512,45.3768421],[-73.7044644,45.3778365],[-73.7044729,45.3779945]]}";1;Route 132;5;70;false;true;true;false;false;false;138.0;0;0;0;0;0;false;78730;6190668868;-73.70505;45.376806;78731;6190668867;-73.695464;45.393205;2;49;50;8908783;Bus 28 : Châteauguay - Montréal (Centre-Ville);"";EXO;28 E;Terminus Salaberry-de-Valleyfield;Terminus Mansfield
638130703;"{\"type\":\"LineString\",\"coordinates\":[[-73.6964738,45.3918936],[-73.6983132,45.3886906],[-73.7044729,45.3779945]]}";2;Route 132;5;70;false;false;true;false;false;false;1666.0;0;0;0;0;0;false;78730;6190668868;-73.70505;45.376806;78731;6190668867;-73.695464;45.393205;0;49;50;8908783;Bus 28 : Châteauguay - Montréal (Centre-Ville);"";EXO;28 E;Terminus Salaberry-de-Valleyfield;Terminus Mansfield
494183739;"{\"type\":\"LineString\",\"coordinates\":[[-73.6964738,45.3918936],[-73.6961424,45.3923398],[-73.6955908,45.3932807]]}";3;Route 132/138;5;70;false;true;true;false;false;false;169.0;1;0;0;0;0;false;78730;6190668868;-73.70505;45.376806;78731;6190668867;-73.695464;45.393205;2;49;50;8908783;Bus 28 : Châteauguay - Montréal (Centre-Ville);"";EXO;28 E;Terminus Salaberry-de-Valleyfield;Terminus Mansfield
494183735;"{\"type\":\"LineString\",\"coordinates\":[[-73.6955908,45.3932807],[-73.6948254,45.3946547],[-73.6947906,45.3948515]]}";1;Route 132/138;5;70;false;true;true;false;false;false;186.0;1;0;0;0;0;false;78731;6190668867;-73.695464;45.393205;78734;6190668866;-73.689147;45.39876;2;50;51;8908783;Bus 28 : Châteauguay - Montréal (Centre-Ville);"";EXO;28 E;Terminus Salaberry-de-Valleyfield;Terminus Mansfield
494183738;"{\"type\":\"LineString\",\"coordinates\":[[-73.6935913,45.3969904],[-73.6944419,45.3954988],[-73.6947906,45.3948515]]}";2;Route 132/138;5;70;false;false;true;false;false;false;256.0;0;0;0;0;0;false;78731;6190668867;-73.695464;45.393205;78734;6190668866;-73.689147;45.39876;0;50;51;8908783;Bus 28 : Châteauguay - Montréal (Centre-Ville);"";EXO;28 E;Terminus Salaberry-de-Valleyfield;Terminus Mansfield
37625756;"{\"type\":\"LineString\",\"coordinates\":[[-73.6935913,45.3969904],[-73.6933137,45.3973011],[-73.6929837,45.3976439],[-73.6927866,45.3978294],[-73.6925828,45.3979952],[-73.6922287,45.398241],[-73.6918633,45.3984537],[-73.6914951,45.3986233],[-73.691125,45.3987617],[-73.6907615,45.3988757],[-73.6903766,45.3989727],[-73.6899475,45.3990357],[-73.6894578,45.3990763]]}";3;Route 132/138;2;70;false;true;true;false;false;false;417.0;1;0;0;0;0;false;78731;6190668867;-73.695464;45.393205;78734;6190668866;-73.689147;45.39876;0;50;51;8908783;Bus 28 : Châteauguay - Montréal (Centre-Ville);"";EXO;28 E;Terminus Salaberry-de-Valleyfield;Terminus Mansfield
482433028;"{\"type\":\"LineString\",\"coordinates\":[[-73.6894578,45.3990763],[-73.6890302,45.3990894],[-73.688593,45.3990791],[-73.6879331,45.3990254],[-73.6877887,45.3990193]]}";4;Route 132/138;3;70;false;true;true;false;false;false;132.0;1;0;0;0;0;false;78731;6190668867;-73.695464;45.393205;78734;6190668866;-73.689147;45.39876;2;50;51;8908783;Bus 28 : Châteauguay - Montréal (Centre-Ville);"";EXO;28 E;Terminus Salaberry-de-Valleyfield;Terminus Mansfield
482433028;"{\"type\":\"LineString\",\"coordinates\":[[-73.6894578,45.3990763],[-73.6890302,45.3990894],[-73.688593,45.3990791],[-73.6879331,45.3990254],[-73.6877887,45.3990193]]}";1;Route 132/138;3;70;false;true;true;false;false;false;66.0;1;0;0;0;0;false;78734;6190668866;-73.689147;45.39876;78275;6190671072;-73.68314;45.399543;1;51;52;8908783;Bus 28 : Châteauguay - Montréal (Centre-Ville);"";EXO;28 E;Terminus Salaberry-de-Valleyfield;Terminus Mansfield
678489518;"{\"type\":\"LineString\",\"coordinates\":[[-73.6877887,45.3990193],[-73.6873055,45.398999],[-73.686675,45.3989981],[-73.6863957,45.3990172]]}";2;Route 132;3;70;false;true;true;false;false;false;110.0;0;0;0;0;0;false;78734;6190668866;-73.689147;45.39876;78275;6190671072;-73.68314;45.399543;0;51;52;8908783;Bus 28 : Châteauguay - Montréal (Centre-Ville);"";EXO;28 E;Terminus Salaberry-de-Valleyfield;Terminus Mansfield
326317193;"{\"type\":\"LineString\",\"coordinates\":[[-73.6863957,45.3990172],[-73.6860704,45.3990395],[-73.6858456,45.399071],[-73.6851968,45.3991618],[-73.6843224,45.3993542],[-73.6830372,45.399692],[-73.6828864,45.3997322],[-73.6820288,45.3999606],[-73.6811632,45.4001912],[-73.6780117,45.4010481],[-73.6772725,45.4012441],[-73.673995,45.4021131]]}";3;Route 132;3;70;false;true;true;false;false;false;516.0;0;0;0;0;0;false;78734;6190668866;-73.689147;45.39876;78275;6190671072;-73.68314;45.399543;1;51;52;8908783;Bus 28 : Châteauguay - Montréal (Centre-Ville);"";EXO;28 E;Terminus Salaberry-de-Valleyfield;Terminus Mansfield
326317193;"{\"type\":\"LineString\",\"coordinates\":[[-73.6863957,45.3990172],[-73.6860704,45.3990395],[-73.6858456,45.399071],[-73.6851968,45.3991618],[-73.6843224,45.3993542],[-73.6830372,45.399692],[-73.6828864,45.3997322],[-73.6820288,45.3999606],[-73.6811632,45.4001912],[-73.6780117,45.4010481],[-73.6772725,45.4012441],[-73.673995,45.4021131]]}";1;Route 132;3;70;false;true;true;false;false;false;516.0;0;0;0;0;0;false;78275;6190671072;-73.68314;45.399543;78274;6190671073;-73.672873;45.402284;1;52;53;8908783;Bus 28 : Châteauguay - Montréal (Centre-Ville);"";EXO;28 E;Terminus Salaberry-de-Valleyfield;Terminus Mansfield
338423095;"{\"type\":\"LineString\",\"coordinates\":[[-73.673995,45.4021131],[-73.6721407,45.4025994]]}";2;Route 132;2;70;false;true;true;false;false;false;77.5;0;0;0;0;0;false;78275;6190671072;-73.68314;45.399543;78274;6190671073;-73.672873;45.402284;1;52;53;8908783;Bus 28 : Châteauguay - Montréal (Centre-Ville);"";EXO;28 E;Terminus Salaberry-de-Valleyfield;Terminus Mansfield
338423095;"{\"type\":\"LineString\",\"coordinates\":[[-73.673995,45.4021131],[-73.6721407,45.4025994]]}";1;Route 132;2;70;false;true;true;false;false;false;77.5;0;0;0;0;0;false;78274;6190671073;-73.672873;45.402284;16000;6132969475;-73.564729;45.498457;1;53;54;8908783;Bus 28 : Châteauguay - Montréal (Centre-Ville);"";EXO;28 E;Terminus Salaberry-de-Valleyfield;Terminus Mansfield
45271205;"{\"type\":\"LineString\",\"coordinates\":[[-73.6721407,45.4025994],[-73.6718259,45.4026793]]}";2;Route 132;2;70;false;true;false;false;false;false;27.0;0;0;0;0;0;false;78274;6190671073;-73.672873;45.402284;16000;6132969475;-73.564729;45.498457;0;53;54;8908783;Bus 28 : Châteauguay - Montréal (Centre-Ville);"";EXO;28 E;Terminus Salaberry-de-Valleyfield;Terminus Mansfield
45271206;"{\"type\":\"LineString\",\"coordinates\":[[-73.6718259,45.4026793],[-73.6686174,45.4035038]]}";3;Route 132/138;2;70;false;true;false;false;false;false;268.0;0;0;0;0;0;false;78274;6190671073;-73.672873;45.402284;16000;6132969475;-73.564729;45.498457;0;53;54;8908783;Bus 28 : Châteauguay - Montréal (Centre-Ville);"";EXO;28 E;Terminus Salaberry-de-Valleyfield;Terminus Mansfield
417092087;"{\"type\":\"LineString\",\"coordinates\":[[-73.6686174,45.4035038],[-73.6627339,45.4050963]]}";4;Pont Honoré-Mercier;1;70;false;true;false;false;false;false;494.0;0;0;0;0;0;false;78274;6190671073;-73.672873;45.402284;16000;6132969475;-73.564729;45.498457;0;53;54;8908783;Bus 28 : Châteauguay - Montréal (Centre-Ville);"";EXO;28 E;Terminus Salaberry-de-Valleyfield;Terminus Mansfield
417092090;"{\"type\":\"LineString\",\"coordinates\":[[-73.6627339,45.4050963],[-73.6622259,45.4052419],[-73.6616956,45.4053917],[-73.6613866,45.4054763],[-73.6611234,45.4055551],[-73.6608837,45.4056237],[-73.6606032,45.4057264],[-73.6603768,45.405835],[-73.6601685,45.4059512],[-73.6599729,45.4060934],[-73.6598269,45.4062138],[-73.6596904,45.4063519],[-73.6595614,45.406511],[-73.6594348,45.406698],[-73.6593651,45.4068313],[-73.6593054,45.4069675],[-73.659252,45.4071389],[-73.6592237,45.4072872],[-73.6592088,45.4074725],[-73.6592066,45.4076714],[-73.6591998,45.4079813],[-73.6592002,45.4082715],[-73.6591779,45.4085643],[-73.6591713,45.4086677],[-73.6591458,45.4087966],[-73.6591126,45.408904],[-73.6590792,45.409],[-73.6590214,45.4091479]]}";5;Pont Honoré-Mercier;2;70;false;true;false;false;false;false;601.0;1;0;0;0;0;false;78274;6190671073;-73.672873;45.402284;16000;6132969475;-73.564729;45.498457;0;53;54;8908783;Bus 28 : Châteauguay - Montréal (Centre-Ville);"";EXO;28 E;Terminus Salaberry-de-Valleyfield;Terminus Mansfield
720986411;"{\"type\":\"LineString\",\"coordinates\":[[-73.6590214,45.4091479],[-73.6585213,45.4101217],[-73.6580016,45.4111774],[-73.6572603,45.4126408],[-73.6566111,45.4138657],[-73.656491,45.4140705],[-73.6563268,45.4143483],[-73.654358,45.4175778],[-73.6520654,45.4212619]]}";6;Pont Honoré-Mercier;2;70;false;true;false;false;false;false;1452.0;0;0;0;0;0;false;78274;6190671073;-73.672873;45.402284;16000;6132969475;-73.564729;45.498457;0;53;54;8908783;Bus 28 : Châteauguay - Montréal (Centre-Ville);"";EXO;28 E;Terminus Salaberry-de-Valleyfield;Terminus Mansfield
482530516;"{\"type\":\"LineString\",\"coordinates\":[[-73.6520654,45.4212619],[-73.6519112,45.4215281],[-73.6518434,45.4216675],[-73.6517835,45.4218267]]}";7;Pont Honoré-Mercier;1;70;false;true;false;false;false;false;67.0;0;0;0;0;0;false;78274;6190671073;-73.672873;45.402284;16000;6132969475;-73.564729;45.498457;0;53;54;8908783;Bus 28 : Châteauguay - Montréal (Centre-Ville);"";EXO;28 E;Terminus Salaberry-de-Valleyfield;Terminus Mansfield
482530515;"{\"type\":\"LineString\",\"coordinates\":[[-73.6517835,45.4218267],[-73.6517192,45.4220142]]}";8;Pont Honoré-Mercier;1;70;false;true;false;false;false;false;22.0;0;0;0;0;0;false;78274;6190671073;-73.672873;45.402284;16000;6132969475;-73.564729;45.498457;0;53;54;8908783;Bus 28 : Châteauguay - Montréal (Centre-Ville);"";EXO;28 E;Terminus Salaberry-de-Valleyfield;Terminus Mansfield
482530514;"{\"type\":\"LineString\",\"coordinates\":[[-73.6517192,45.4220142],[-73.6516557,45.422336]]}";9;Pont Honoré-Mercier;1;70;false;true;true;false;false;false;37.0;0;0;0;0;0;false;78274;6190671073;-73.672873;45.402284;16000;6132969475;-73.564729;45.498457;0;53;54;8908783;Bus 28 : Châteauguay - Montréal (Centre-Ville);"";EXO;28 E;Terminus Salaberry-de-Valleyfield;Terminus Mansfield
104836575;"{\"type\":\"LineString\",\"coordinates\":[[-73.6516557,45.422336],[-73.6516448,45.422398]]}";10;Route 138;2;70;false;true;true;false;false;false;7.0;0;0;0;0;0;false;78274;6190671073;-73.672873;45.402284;16000;6132969475;-73.564729;45.498457;0;53;54;8908783;Bus 28 : Châteauguay - Montréal (Centre-Ville);"";EXO;28 E;Terminus Salaberry-de-Valleyfield;Terminus Mansfield
467989462;"{\"type\":\"LineString\",\"coordinates\":[[-73.6516448,45.422398],[-73.6515612,45.4230661],[-73.6515224,45.423392],[-73.6514825,45.4237048]]}";11;Route 138;2;70;false;true;false;false;false;false;146.0;0;0;0;0;0;false;78274;6190671073;-73.672873;45.402284;16000;6132969475;-73.564729;45.498457;0;53;54;8908783;Bus 28 : Châteauguay - Montréal (Centre-Ville);"";EXO;28 E;Terminus Salaberry-de-Valleyfield;Terminus Mansfield
422433302;"{\"type\":\"LineString\",\"coordinates\":[[-73.6514825,45.4237048],[-73.651448,45.4239127],[-73.6513589,45.4241867]]}";12;Route 138;2;70;false;true;false;false;false;false;55.0;0;0;0;0;0;false;78274;6190671073;-73.672873;45.402284;16000;6132969475;-73.564729;45.498457;0;53;54;8908783;Bus 28 : Châteauguay - Montréal (Centre-Ville);"";EXO;28 E;Terminus Salaberry-de-Valleyfield;Terminus Mansfield
422433303;"{\"type\":\"LineString\",\"coordinates\":[[-73.6513589,45.4241867],[-73.6509516,45.4252076],[-73.650614,45.426034],[-73.6502389,45.4269228],[-73.6497922,45.4280096]]}";13;Route 138;2;70;false;true;false;false;false;false;442.0;0;0;0;0;0;false;78274;6190671073;-73.672873;45.402284;16000;6132969475;-73.564729;45.498457;0;53;54;8908783;Bus 28 : Châteauguay - Montréal (Centre-Ville);"";EXO;28 E;Terminus Salaberry-de-Valleyfield;Terminus Mansfield
434713106;"{\"type\":\"LineString\",\"coordinates\":[[-73.6497922,45.4280096],[-73.6495293,45.4286334]]}";14;Route 138;2;70;false;true;false;false;false;false;73.0;0;0;0;0;0;false;78274;6190671073;-73.672873;45.402284;16000;6132969475;-73.564729;45.498457;0;53;54;8908783;Bus 28 : Châteauguay - Montréal (Centre-Ville);"";EXO;28 E;Terminus Salaberry-de-Valleyfield;Terminus Mansfield
104836585;"{\"type\":\"LineString\",\"coordinates\":[[-73.6495293,45.4286334],[-73.6494684,45.4287699],[-73.6493741,45.428993],[-73.6493161,45.4292646],[-73.6492964,45.4294634],[-73.6492914,45.4295641],[-73.649291,45.4297066],[-73.6493084,45.4298479],[-73.6493528,45.4300496],[-73.6493977,45.4301995],[-73.6494517,45.4303423],[-73.6495157,45.4304739],[-73.6496192,45.4306476],[-73.6497387,45.4308458],[-73.6499007,45.4311129],[-73.6499599,45.4312154],[-73.6501218,45.4315105],[-73.6501991,45.4316503],[-73.6502464,45.4317581]]}";15;Route 138;2;70;false;true;false;false;false;false;363.0;0;0;0;0;0;false;78274;6190671073;-73.672873;45.402284;16000;6132969475;-73.564729;45.498457;0;53;54;8908783;Bus 28 : Châteauguay - Montréal (Centre-Ville);"";EXO;28 E;Terminus Salaberry-de-Valleyfield;Terminus Mansfield
385654280;"{\"type\":\"LineString\",\"coordinates\":[[-73.6502464,45.4317581],[-73.6503401,45.4320052],[-73.6504109,45.4322868],[-73.6504251,45.4324816],[-73.650423,45.4326225],[-73.650406,45.4327524],[-73.6502747,45.4338131]]}";16;Route 138;2;70;false;true;false;false;false;false;231.0;0;0;0;0;0;false;78274;6190671073;-73.672873;45.402284;16000;6132969475;-73.564729;45.498457;0;53;54;8908783;Bus 28 : Châteauguay - Montréal (Centre-Ville);"";EXO;28 E;Terminus Salaberry-de-Valleyfield;Terminus Mansfield
422990840;"{\"type\":\"LineString\",\"coordinates\":[[-73.6502747,45.4338131],[-73.6502555,45.434053]]}";17;Route 138;2;70;false;true;false;false;false;false;27.0;0;0;0;0;0;false;78274;6190671073;-73.672873;45.402284;16000;6132969475;-73.564729;45.498457;0;53;54;8908783;Bus 28 : Châteauguay - Montréal (Centre-Ville);"";EXO;28 E;Terminus Salaberry-de-Valleyfield;Terminus Mansfield
422990837;"{\"type\":\"LineString\",\"coordinates\":[[-73.6502555,45.434053],[-73.6499766,45.4363724],[-73.6498646,45.4372392]]}";18;Route 138;2;70;false;true;false;false;false;false;356.0;0;0;0;0;0;false;78274;6190671073;-73.672873;45.402284;16000;6132969475;-73.564729;45.498457;0;53;54;8908783;Bus 28 : Châteauguay - Montréal (Centre-Ville);"";EXO;28 E;Terminus Salaberry-de-Valleyfield;Terminus Mansfield
483748752;"{\"type\":\"LineString\",\"coordinates\":[[-73.6498646,45.4372392],[-73.6498766,45.4373749],[-73.6498999,45.4375678]]}";19;Route 138;2;70;false;true;false;false;false;false;37.0;0;0;0;0;0;false;78274;6190671073;-73.672873;45.402284;16000;6132969475;-73.564729;45.498457;0;53;54;8908783;Bus 28 : Châteauguay - Montréal (Centre-Ville);"";EXO;28 E;Terminus Salaberry-de-Valleyfield;Terminus Mansfield
420427015;"{\"type\":\"LineString\",\"coordinates\":[[-73.6498999,45.4375678],[-73.6500014,45.4383453],[-73.65014,45.4393765]]}";20;Route 138;3;70;false;true;false;false;false;false;202.0;0;0;0;0;0;false;78274;6190671073;-73.672873;45.402284;16000;6132969475;-73.564729;45.498457;0;53;54;8908783;Bus 28 : Châteauguay - Montréal (Centre-Ville);"";EXO;28 E;Terminus Salaberry-de-Valleyfield;Terminus Mansfield
423985477;"{\"type\":\"LineString\",\"coordinates\":[[-73.65014,45.4393765],[-73.6501676,45.4400231],[-73.6501622,45.4403051],[-73.6501029,45.4406275],[-73.6500075,45.4408555],[-73.6498003,45.4411565],[-73.6495537,45.4414016],[-73.6493549,45.441562],[-73.6491633,45.4416833],[-73.6487271,45.4419204],[-73.6484467,45.442065],[-73.6476452,45.4424662],[-73.6462198,45.443232]]}";21;"";1;50;false;true;true;false;false;false;568.0;0;0;0;0;0;false;78274;6190671073;-73.672873;45.402284;16000;6132969475;-73.564729;45.498457;0;53;54;8908783;Bus 28 : Châteauguay - Montréal (Centre-Ville);"";EXO;28 E;Terminus Salaberry-de-Valleyfield;Terminus Mansfield
482494100;"{\"type\":\"LineString\",\"coordinates\":[[-73.6462198,45.443232],[-73.6457829,45.4434541],[-73.6453439,45.4436784],[-73.6450236,45.4438352],[-73.6444472,45.4441218],[-73.6439306,45.4443754],[-73.6434904,45.44459],[-73.6426665,45.4449902],[-73.6424069,45.445119],[-73.6419159,45.4453689],[-73.6412491,45.4457248],[-73.6406154,45.446041],[-73.640157,45.4462808],[-73.6397824,45.4465119],[-73.6393377,45.4468362]]}";22;"";1;50;false;true;true;false;false;false;672.0;0;0;0;0;0;false;78274;6190671073;-73.672873;45.402284;16000;6132969475;-73.564729;45.498457;0;53;54;8908783;Bus 28 : Châteauguay - Montréal (Centre-Ville);"";EXO;28 E;Terminus Salaberry-de-Valleyfield;Terminus Mansfield
521554877;"{\"type\":\"LineString\",\"coordinates\":[[-73.6393377,45.4468362],[-73.6388408,45.4472023],[-73.6385719,45.4474096],[-73.6382532,45.4476211],[-73.636863,45.4484185],[-73.6348686,45.4494976],[-73.634393,45.4496843],[-73.63405,45.4498129],[-73.6337496,45.4499408],[-73.6327807,45.450461],[-73.6323792,45.4506959]]}";23;20 est / 138 est (temp);3;70;false;true;true;false;false;false;695.0;0;0;0;0;0;false;78274;6190671073;-73.672873;45.402284;16000;6132969475;-73.564729;45.498457;0;53;54;8908783;Bus 28 : Châteauguay - Montréal (Centre-Ville);"";EXO;28 E;Terminus Salaberry-de-Valleyfield;Terminus Mansfield
729768640;"{\"type\":\"LineString\",\"coordinates\":[[-73.6323792,45.4506959],[-73.6319616,45.4509711],[-73.6310201,45.4515573],[-73.6299156,45.4522977]]}";24;Autoroute du Souvenir;3;70;false;true;true;false;false;false;263.0;0;0;0;0;0;false;78274;6190671073;-73.672873;45.402284;16000;6132969475;-73.564729;45.498457;0;53;54;8908783;Bus 28 : Châteauguay - Montréal (Centre-Ville);"";EXO;28 E;Terminus Salaberry-de-Valleyfield;Terminus Mansfield
640352531;"{\"type\":\"LineString\",\"coordinates\":[[-73.6299156,45.4522977],[-73.629402,45.4526591],[-73.628089,45.4536019],[-73.6277467,45.4538391],[-73.6266387,45.4546009],[-73.6254427,45.4554297],[-73.624235,45.4562691],[-73.6226012,45.457381],[-73.6211822,45.4582861]]}";25;Autoroute du Souvenir;3;50;false;true;true;false;false;false;954.0;0;0;0;0;0;false;78274;6190671073;-73.672873;45.402284;16000;6132969475;-73.564729;45.498457;0;53;54;8908783;Bus 28 : Châteauguay - Montréal (Centre-Ville);"";EXO;28 E;Terminus Salaberry-de-Valleyfield;Terminus Mansfield
656534657;"{\"type\":\"LineString\",\"coordinates\":[[-73.6211822,45.4582861],[-73.6204151,45.4587336],[-73.6196054,45.4591624],[-73.6187057,45.4596317],[-73.6176478,45.4601359],[-73.6163791,45.4606938],[-73.6149213,45.4612704],[-73.6138825,45.461689]]}";26;Autoroute du Souvenir;4;50;false;true;true;false;false;false;686.0;0;0;0;0;0;false;78274;6190671073;-73.672873;45.402284;16000;6132969475;-73.564729;45.498457;0;53;54;8908783;Bus 28 : Châteauguay - Montréal (Centre-Ville);"";EXO;28 E;Terminus Salaberry-de-Valleyfield;Terminus Mansfield
656534656;"{\"type\":\"LineString\",\"coordinates\":[[-73.6138825,45.461689],[-73.6122125,45.4623092],[-73.6105938,45.4629732],[-73.6090128,45.4636154]]}";27;Autoroute du Souvenir;4;50;false;true;true;false;false;false;437.0;0;0;0;0;0;false;78274;6190671073;-73.672873;45.402284;16000;6132969475;-73.564729;45.498457;0;53;54;8908783;Bus 28 : Châteauguay - Montréal (Centre-Ville);"";EXO;28 E;Terminus Salaberry-de-Valleyfield;Terminus Mansfield
369021505;"{\"type\":\"LineString\",\"coordinates\":[[-73.6090128,45.4636154],[-73.6076673,45.4642174],[-73.6058022,45.4649988],[-73.6045116,45.4655716],[-73.6037081,45.4659327],[-73.6030489,45.4662571],[-73.6024411,45.4665798],[-73.6017791,45.4669498]]}";28;Autoroute Ville-Marie;2;50;false;true;true;false;false;false;677.0;0;0;0;0;0;false;78274;6190671073;-73.672873;45.402284;16000;6132969475;-73.564729;45.498457;0;53;54;8908783;Bus 28 : Châteauguay - Montréal (Centre-Ville);"";EXO;28 E;Terminus Salaberry-de-Valleyfield;Terminus Mansfield
539101845;"{\"type\":\"LineString\",\"coordinates\":[[-73.6017791,45.4669498],[-73.6012526,45.467247],[-73.6009223,45.4674507],[-73.6005347,45.4677079],[-73.6001964,45.4679355],[-73.5998455,45.4681926],[-73.5996316,45.4683702],[-73.5994273,45.468546],[-73.5990458,45.4688974]]}";29;Autoroute Ville-Marie;2;70;false;true;true;false;false;false;306.0;0;0;0;0;0;false;78274;6190671073;-73.672873;45.402284;16000;6132969475;-73.564729;45.498457;0;53;54;8908783;Bus 28 : Châteauguay - Montréal (Centre-Ville);"";EXO;28 E;Terminus Salaberry-de-Valleyfield;Terminus Mansfield
400819498;"{\"type\":\"LineString\",\"coordinates\":[[-73.5990458,45.4688974],[-73.5987325,45.4692206],[-73.5984248,45.4695693],[-73.598163,45.4698955],[-73.5979191,45.4702442],[-73.597706,45.4705987],[-73.5973955,45.4711845]]}";30;Autoroute Ville-Marie;2;70;false;true;true;false;false;false;286.0;0;0;0;0;0;false;78274;6190671073;-73.672873;45.402284;16000;6132969475;-73.564729;45.498457;0;53;54;8908783;Bus 28 : Châteauguay - Montréal (Centre-Ville);"";EXO;28 E;Terminus Salaberry-de-Valleyfield;Terminus Mansfield
454754497;"{\"type\":\"LineString\",\"coordinates\":[[-73.5973955,45.4711845],[-73.5971539,45.4716601],[-73.5965979,45.4728893]]}";31;Autoroute Ville-Marie;2;50;false;true;true;false;false;false;200.0;0;0;0;0;0;false;78274;6190671073;-73.672873;45.402284;16000;6132969475;-73.564729;45.498457;0;53;54;8908783;Bus 28 : Châteauguay - Montréal (Centre-Ville);"";EXO;28 E;Terminus Salaberry-de-Valleyfield;Terminus Mansfield
685116207;"{\"type\":\"LineString\",\"coordinates\":[[-73.5965979,45.4728893],[-73.5964636,45.473191]]}";32;Autoroute Ville-Marie;2;50;false;true;true;false;false;false;36.0;0;0;0;0;0;false;78274;6190671073;-73.672873;45.402284;16000;6132969475;-73.564729;45.498457;0;53;54;8908783;Bus 28 : Châteauguay - Montréal (Centre-Ville);"";EXO;28 E;Terminus Salaberry-de-Valleyfield;Terminus Mansfield
687959819;"{\"type\":\"LineString\",\"coordinates\":[[-73.5964636,45.473191],[-73.5963633,45.4733829],[-73.5962406,45.4735838],[-73.5961515,45.4737136],[-73.5959072,45.4740979],[-73.595821,45.4742586],[-73.5957144,45.4744959]]}";33;Autoroute Ville-Marie;2;50;false;true;true;false;false;false;157.0;0;0;0;0;0;false;78274;6190671073;-73.672873;45.402284;16000;6132969475;-73.564729;45.498457;0;53;54;8908783;Bus 28 : Châteauguay - Montréal (Centre-Ville);"";EXO;28 E;Terminus Salaberry-de-Valleyfield;Terminus Mansfield
401987800;"{\"type\":\"LineString\",\"coordinates\":[[-73.5957144,45.4744959],[-73.5954665,45.4750741]]}";34;Autoroute Ville-Marie;4;70;false;true;true;false;false;false;68.0;0;0;0;0;0;false;78274;6190671073;-73.672873;45.402284;16000;6132969475;-73.564729;45.498457;0;53;54;8908783;Bus 28 : Châteauguay - Montréal (Centre-Ville);"";EXO;28 E;Terminus Salaberry-de-Valleyfield;Terminus Mansfield
454754490;"{\"type\":\"LineString\",\"coordinates\":[[-73.5954665,45.4750741],[-73.5952147,45.4756852]]}";35;Autoroute Ville-Marie;4;70;false;true;true;false;false;false;71.0;0;0;0;0;0;false;78274;6190671073;-73.672873;45.402284;16000;6132969475;-73.564729;45.498457;0;53;54;8908783;Bus 28 : Châteauguay - Montréal (Centre-Ville);"";EXO;28 E;Terminus Salaberry-de-Valleyfield;Terminus Mansfield
454754491;"{\"type\":\"LineString\",\"coordinates\":[[-73.5952147,45.4756852],[-73.5951144,45.4759245]]}";36;Autoroute Ville-Marie;3;70;false;true;true;false;false;false;28.0;0;0;0;0;0;false;78274;6190671073;-73.672873;45.402284;16000;6132969475;-73.564729;45.498457;0;53;54;8908783;Bus 28 : Châteauguay - Montréal (Centre-Ville);"";EXO;28 E;Terminus Salaberry-de-Valleyfield;Terminus Mansfield
454754492;"{\"type\":\"LineString\",\"coordinates\":[[-73.5951144,45.4759245],[-73.5949259,45.4763459],[-73.5947863,45.4766249],[-73.59463,45.4768834],[-73.594504,45.4770724],[-73.5943328,45.4773227],[-73.594181,45.4775217],[-73.5940116,45.4777239],[-73.5938009,45.4779565],[-73.5935824,45.4781711],[-73.5932576,45.4784423],[-73.5928455,45.4787542],[-73.5922372,45.4791654],[-73.5918712,45.4794061]]}";37;Autoroute Ville-Marie;3;70;false;true;true;false;false;false;470.0;0;0;0;0;0;false;78274;6190671073;-73.672873;45.402284;16000;6132969475;-73.564729;45.498457;0;53;54;8908783;Bus 28 : Châteauguay - Montréal (Centre-Ville);"";EXO;28 E;Terminus Salaberry-de-Valleyfield;Terminus Mansfield
430589823;"{\"type\":\"LineString\",\"coordinates\":[[-73.5918712,45.4794061],[-73.5911232,45.4799374],[-73.5906563,45.4802592],[-73.5898061,45.4808274],[-73.5892105,45.4812005],[-73.5888969,45.4813985],[-73.5879639,45.4819948],[-73.5843271,45.4842462]]}";38;Autoroute Ville-Marie;3;70;false;true;true;false;false;false;798.0;0;0;0;0;0;false;78274;6190671073;-73.672873;45.402284;16000;6132969475;-73.564729;45.498457;0;53;54;8908783;Bus 28 : Châteauguay - Montréal (Centre-Ville);"";EXO;28 E;Terminus Salaberry-de-Valleyfield;Terminus Mansfield
523748558;"{\"type\":\"LineString\",\"coordinates\":[[-73.5843271,45.4842462],[-73.5841138,45.484381]]}";39;Autoroute Ville-Marie;3;70;false;true;true;false;false;false;23.0;0;0;0;0;0;false;78274;6190671073;-73.672873;45.402284;16000;6132969475;-73.564729;45.498457;0;53;54;8908783;Bus 28 : Châteauguay - Montréal (Centre-Ville);"";EXO;28 E;Terminus Salaberry-de-Valleyfield;Terminus Mansfield
523748559;"{\"type\":\"LineString\",\"coordinates\":[[-73.5841138,45.484381],[-73.5835418,45.4847423]]}";40;Autoroute Ville-Marie;3;70;false;true;true;false;false;false;61.0;0;0;0;0;0;false;78274;6190671073;-73.672873;45.402284;16000;6132969475;-73.564729;45.498457;0;53;54;8908783;Bus 28 : Châteauguay - Montréal (Centre-Ville);"";EXO;28 E;Terminus Salaberry-de-Valleyfield;Terminus Mansfield
454754496;"{\"type\":\"LineString\",\"coordinates\":[[-73.5835418,45.4847423],[-73.5830374,45.48506],[-73.5823324,45.4855206],[-73.5802385,45.486831],[-73.5792403,45.4874995],[-73.5787522,45.4878368],[-73.5782099,45.4882223],[-73.5776791,45.4886269],[-73.5765021,45.4895495],[-73.5757375,45.4901362],[-73.5750706,45.4906627],[-73.574572,45.4910487]]}";41;Autoroute Ville-Marie;3;70;false;true;true;false;false;false;992.0;0;0;0;0;0;false;78274;6190671073;-73.672873;45.402284;16000;6132969475;-73.564729;45.498457;0;53;54;8908783;Bus 28 : Châteauguay - Montréal (Centre-Ville);"";EXO;28 E;Terminus Salaberry-de-Valleyfield;Terminus Mansfield
399681576;"{\"type\":\"LineString\",\"coordinates\":[[-73.574572,45.4910487],[-73.5742935,45.4912195],[-73.5740129,45.4914175]]}";42;"";1;50;false;true;true;false;false;false;60.0;0;0;0;0;0;false;78274;6190671073;-73.672873;45.402284;16000;6132969475;-73.564729;45.498457;0;53;54;8908783;Bus 28 : Châteauguay - Montréal (Centre-Ville);"";EXO;28 E;Terminus Salaberry-de-Valleyfield;Terminus Mansfield
118119100;"{\"type\":\"LineString\",\"coordinates\":[[-73.5740129,45.4914175],[-73.5724736,45.4925154],[-73.5723272,45.4926234],[-73.571694,45.4930064],[-73.5707643,45.4934273],[-73.5699305,45.4937312],[-73.5694828,45.4939024]]}";43;"";1;50;false;true;true;false;false;false;453.0;0;0;0;0;0;false;78274;6190671073;-73.672873;45.402284;16000;6132969475;-73.564729;45.498457;0;53;54;8908783;Bus 28 : Châteauguay - Montréal (Centre-Ville);"";EXO;28 E;Terminus Salaberry-de-Valleyfield;Terminus Mansfield
19899780;"{\"type\":\"LineString\",\"coordinates\":[[-73.5694828,45.4939024],[-73.5687395,45.4942431],[-73.5677271,45.494613]]}";44;"";1;50;false;true;true;false;false;false;159.0;0;0;0;0;0;false;78274;6190671073;-73.672873;45.402284;16000;6132969475;-73.564729;45.498457;0;53;54;8908783;Bus 28 : Châteauguay - Montréal (Centre-Ville);"";EXO;28 E;Terminus Salaberry-de-Valleyfield;Terminus Mansfield
19899782;"{\"type\":\"LineString\",\"coordinates\":[[-73.5677271,45.494613],[-73.5674619,45.4947464],[-73.5673205,45.4948809],[-73.5672533,45.4949775],[-73.5671942,45.4950921],[-73.5671696,45.4952153],[-73.5671616,45.4953283]]}";45;"";1;50;false;true;true;false;false;false;96.0;0;0;0;0;0;false;78274;6190671073;-73.672873;45.402284;16000;6132969475;-73.564729;45.498457;0;53;54;8908783;Bus 28 : Châteauguay - Montréal (Centre-Ville);"";EXO;28 E;Terminus Salaberry-de-Valleyfield;Terminus Mansfield
19899781;"{\"type\":\"LineString\",\"coordinates\":[[-73.5671616,45.4953283],[-73.5671823,45.495425],[-73.5671742,45.4955181],[-73.5671519,45.4956118],[-73.5671047,45.4957048],[-73.5670283,45.4958292]]}";46;"";1;50;false;true;true;false;false;false;58.0;0;0;0;0;0;false;78274;6190671073;-73.672873;45.402284;16000;6132969475;-73.564729;45.498457;0;53;54;8908783;Bus 28 : Châteauguay - Montréal (Centre-Ville);"";EXO;28 E;Terminus Salaberry-de-Valleyfield;Terminus Mansfield
313639760;"{\"type\":\"LineString\",\"coordinates\":[[-73.5670283,45.4958292],[-73.5676449,45.4961414]]}";47;Rue Jean-D'Estrées;3;50;false;true;true;false;false;false;60.0;0;0;0;0;0;false;78274;6190671073;-73.672873;45.402284;16000;6132969475;-73.564729;45.498457;0;53;54;8908783;Bus 28 : Châteauguay - Montréal (Centre-Ville);"";EXO;28 E;Terminus Salaberry-de-Valleyfield;Terminus Mansfield
113861079;"{\"type\":\"LineString\",\"coordinates\":[[-73.5676449,45.4961414],[-73.5675795,45.4961914],[-73.5672151,45.4964875],[-73.5668671,45.4967649],[-73.5668344,45.4968296],[-73.5668027,45.4968923]]}";48;Rue Saint-Antoine Ouest;2;50;false;true;true;false;false;false;108.0;1;1;0;0;0;false;78274;6190671073;-73.672873;45.402284;16000;6132969475;-73.564729;45.498457;0;53;54;8908783;Bus 28 : Châteauguay - Montréal (Centre-Ville);"";EXO;28 E;Terminus Salaberry-de-Valleyfield;Terminus Mansfield
465653666;"{\"type\":\"LineString\",\"coordinates\":[[-73.566035,45.497542],[-73.566739,45.4969462],[-73.5668027,45.4968923]]}";49;Rue Saint-Antoine Ouest;4;50;false;false;true;false;false;false;94.0;2;1;0;0;0;false;78274;6190671073;-73.672873;45.402284;16000;6132969475;-73.564729;45.498457;0;53;54;8908783;Bus 28 : Châteauguay - Montréal (Centre-Ville);"";EXO;28 E;Terminus Salaberry-de-Valleyfield;Terminus Mansfield
465653669;"{\"type\":\"LineString\",\"coordinates\":[[-73.565584,45.4979128],[-73.566035,45.497542]]}";50;Rue Saint-Antoine Ouest;4;50;false;false;true;false;false;false;55.0;1;0;0;0;0;false;78274;6190671073;-73.672873;45.402284;16000;6132969475;-73.564729;45.498457;0;53;54;8908783;Bus 28 : Châteauguay - Montréal (Centre-Ville);"";EXO;28 E;Terminus Salaberry-de-Valleyfield;Terminus Mansfield
465653670;"{\"type\":\"LineString\",\"coordinates\":[[-73.5651977,45.4982305],[-73.565584,45.4979128]]}";51;Rue Saint-Antoine Ouest;4;50;false;false;true;false;false;false;47.0;1;0;0;0;0;false;78274;6190671073;-73.672873;45.402284;16000;6132969475;-73.564729;45.498457;0;53;54;8908783;Bus 28 : Châteauguay - Montréal (Centre-Ville);"";EXO;28 E;Terminus Salaberry-de-Valleyfield;Terminus Mansfield
465653668;"{\"type\":\"LineString\",\"coordinates\":[[-73.5647776,45.4985685],[-73.5651977,45.4982305]]}";52;Rue Saint-Antoine Ouest;4;50;false;false;true;false;false;false;50.0;1;0;0;0;0;false;78274;6190671073;-73.672873;45.402284;16000;6132969475;-73.564729;45.498457;1;53;54;8908783;Bus 28 : Châteauguay - Montréal (Centre-Ville);"";EXO;28 E;Terminus Salaberry-de-Valleyfield;Terminus Mansfield
