way_id;shape;index;name;nb_lanes;legal_speed;speed_zone_30;oneway;shares_bike;bike_box;bus_lane;dedicated_bus_lane;length;nb_traffic_signals;nb_crossings;nb_stops;nb_give_ways;nb_lvl_crossings;roundabout;stop_id_orig;node_id_orig;coord_x_orig;coord_y_orig;stop_id_dest;node_id_dest;coord_x_dest;coord_y_dest;nb_neighbouring_ways_bus_stop;ordre_orig;ordre_dest;id_line;line_name;colour;operator;ref;from;to
32551211;"{\"type\":\"LineString\",\"coordinates\":[[-73.8168658,45.5828348],[-73.8167628,45.582967],[-73.8165311,45.5834356],[-73.8164539,45.583784],[-73.8164539,45.5845288],[-73.8164539,45.5853721],[-73.8164539,45.5855139],[-73.8164503,45.5855835],[-73.8164472,45.5856426],[-73.8164024,45.5864991],[-73.816258,45.5872735],[-73.8162327,45.5874091],[-73.8162191,45.5874823],[-73.8159102,45.5890642],[-73.8158137,45.5895404],[-73.8157461,45.5899561],[-73.8156944,45.5902332],[-73.8155127,45.5911158],[-73.8154622,45.5913515],[-73.8154582,45.5913703],[-73.8154428,45.5914305],[-73.8153123,45.5919409],[-73.8151321,45.5924514],[-73.8150195,45.5926362],[-73.8149089,45.5928178],[-73.8144626,45.5933703],[-73.8136043,45.594121],[-73.8134186,45.5942711],[-73.8125666,45.5949594],[-73.8111066,45.596139],[-73.8109892,45.5962295],[-73.8104529,45.5966429],[-73.810008,45.5969858],[-73.8097758,45.5971522],[-73.8090209,45.5976932],[-73.8082399,45.5982529],[-73.8077278,45.5985928],[-73.8076518,45.5986432],[-73.8072356,45.5989195]]}";1;Boulevard Sainte-Rose;2;50;false;false;false;false;false;false;2032.0;0;0;1;0;0;false;42968;4642558259;-73.8169;45.583014;42966;6269508905;-73.8192;45.581622;1;6;7;9312776;Bus : 402 O - Direction Gare Sainte-Dorothée;"";STL;402O;Sainte-Rose / Face Au 3261;Gare Sainte-Dorothée
46203718;"{\"type\":\"LineString\",\"coordinates\":[[-73.8279529,45.5757334],[-73.8270781,45.5767114],[-73.8266584,45.5771662],[-73.8263828,45.5774784],[-73.8261024,45.5777871],[-73.8259643,45.5779391],[-73.8259036,45.5779955],[-73.8257618,45.5781273],[-73.825597,45.5782804],[-73.8254281,45.5783986],[-73.825168,45.5785804],[-73.8250585,45.578657],[-73.8249408,45.5787267],[-73.824856,45.5787769],[-73.8245234,45.5789515],[-73.824234,45.5791035],[-73.824053,45.5791947],[-73.8235087,45.579469],[-73.8233057,45.5795678],[-73.8230517,45.5797212],[-73.8224316,45.5800004],[-73.8216688,45.5803725],[-73.82111,45.5806363],[-73.8196867,45.5813289],[-73.8196391,45.5813521],[-73.8192355,45.5815272],[-73.8190754,45.5816014],[-73.8178117,45.5821876],[-73.8173976,45.5824055],[-73.8173122,45.5824504],[-73.8168658,45.5828348]]}";2;Boulevard Sainte-Rose;2;50;false;false;false;false;false;false;594.5;0;0;0;0;0;false;42968;4642558259;-73.8169;45.583014;42966;6269508905;-73.8192;45.581622;1;6;7;9312776;Bus : 402 O - Direction Gare Sainte-Dorothée;"";STL;402O;Sainte-Rose / Face Au 3261;Gare Sainte-Dorothée
46203718;"{\"type\":\"LineString\",\"coordinates\":[[-73.8279529,45.5757334],[-73.8270781,45.5767114],[-73.8266584,45.5771662],[-73.8263828,45.5774784],[-73.8261024,45.5777871],[-73.8259643,45.5779391],[-73.8259036,45.5779955],[-73.8257618,45.5781273],[-73.825597,45.5782804],[-73.8254281,45.5783986],[-73.825168,45.5785804],[-73.8250585,45.578657],[-73.8249408,45.5787267],[-73.824856,45.5787769],[-73.8245234,45.5789515],[-73.824234,45.5791035],[-73.824053,45.5791947],[-73.8235087,45.579469],[-73.8233057,45.5795678],[-73.8230517,45.5797212],[-73.8224316,45.5800004],[-73.8216688,45.5803725],[-73.82111,45.5806363],[-73.8196867,45.5813289],[-73.8196391,45.5813521],[-73.8192355,45.5815272],[-73.8190754,45.5816014],[-73.8178117,45.5821876],[-73.8173976,45.5824055],[-73.8173122,45.5824504],[-73.8168658,45.5828348]]}";1;Boulevard Sainte-Rose;2;50;false;false;false;false;false;false;594.5;0;0;0;0;0;false;42961;6269508963;-73.82556;45.578409;42959;6269509337;-73.82884;45.574909;1;9;10;9312776;Bus : 402 O - Direction Gare Sainte-Dorothée;"";STL;402O;Sainte-Rose / Face Au 3261;Gare Sainte-Dorothée
45792962;"{\"type\":\"LineString\",\"coordinates\":[[-73.8279529,45.5757334],[-73.8282393,45.5754858],[-73.8286067,45.5750572],[-73.8288249,45.5748026]]}";2;Boulevard Sainte-Rose;1;50;false;true;false;false;false;false;62.0;0;0;0;0;0;false;42961;6269508963;-73.82556;45.578409;42959;6269509337;-73.82884;45.574909;1;9;10;9312776;Bus : 402 O - Direction Gare Sainte-Dorothée;"";STL;402O;Sainte-Rose / Face Au 3261;Gare Sainte-Dorothée
45795236;"{\"type\":\"LineString\",\"coordinates\":[[-73.8288249,45.5748026],[-73.8291069,45.5744593],[-73.8294404,45.5740534]]}";1;Boulevard Sainte-Rose;1;50;false;true;false;false;false;false;97.0;0;0;0;0;0;false;42959;6269509337;-73.82884;45.574909;42957;6269509540;-73.83175;45.571389;2;10;11;9312776;Bus : 402 O - Direction Gare Sainte-Dorothée;"";STL;402O;Sainte-Rose / Face Au 3261;Gare Sainte-Dorothée
45795218;"{\"type\":\"LineString\",\"coordinates\":[[-73.8294404,45.5740534],[-73.8297428,45.5736874],[-73.8298871,45.5735269],[-73.8302026,45.5731431]]}";2;Boulevard Sainte-Rose;1;50;false;true;false;false;false;false;118.0;0;0;0;0;0;false;42959;6269509337;-73.82884;45.574909;42957;6269509540;-73.83175;45.571389;0;10;11;9312776;Bus : 402 O - Direction Gare Sainte-Dorothée;"";STL;402O;Sainte-Rose / Face Au 3261;Gare Sainte-Dorothée
45795232;"{\"type\":\"LineString\",\"coordinates\":[[-73.8302026,45.5731431],[-73.8306163,45.5726417]]}";3;Boulevard Sainte-Rose;1;50;false;true;false;false;false;false;65.0;0;0;0;0;0;false;42959;6269509337;-73.82884;45.574909;42957;6269509540;-73.83175;45.571389;0;10;11;9312776;Bus : 402 O - Direction Gare Sainte-Dorothée;"";STL;402O;Sainte-Rose / Face Au 3261;Gare Sainte-Dorothée
45795226;"{\"type\":\"LineString\",\"coordinates\":[[-73.8306163,45.5726417],[-73.8308878,45.5723112]]}";4;Boulevard Sainte-Rose;1;50;false;true;false;false;false;false;43.0;0;0;0;0;0;false;42959;6269509337;-73.82884;45.574909;42957;6269509540;-73.83175;45.571389;0;10;11;9312776;Bus : 402 O - Direction Gare Sainte-Dorothée;"";STL;402O;Sainte-Rose / Face Au 3261;Gare Sainte-Dorothée
45795234;"{\"type\":\"LineString\",\"coordinates\":[[-73.8308878,45.5723112],[-73.8309519,45.5722416]]}";5;Boulevard Sainte-Rose;1;50;false;true;false;false;false;false;10.0;0;0;0;0;0;false;42959;6269509337;-73.82884;45.574909;42957;6269509540;-73.83175;45.571389;0;10;11;9312776;Bus : 402 O - Direction Gare Sainte-Dorothée;"";STL;402O;Sainte-Rose / Face Au 3261;Gare Sainte-Dorothée
45793803;"{\"type\":\"LineString\",\"coordinates\":[[-73.8309519,45.5722416],[-73.8315068,45.5715705],[-73.8317932,45.5712241],[-73.8320004,45.570961]]}";6;Boulevard Sainte-Rose;1;50;false;true;false;false;false;false;165.0;0;0;0;0;0;false;42959;6269509337;-73.82884;45.574909;42957;6269509540;-73.83175;45.571389;2;10;11;9312776;Bus : 402 O - Direction Gare Sainte-Dorothée;"";STL;402O;Sainte-Rose / Face Au 3261;Gare Sainte-Dorothée
45793803;"{\"type\":\"LineString\",\"coordinates\":[[-73.8309519,45.5722416],[-73.8315068,45.5715705],[-73.8317932,45.5712241],[-73.8320004,45.570961]]}";1;Boulevard Sainte-Rose;1;50;false;true;false;false;false;false;82.5;0;0;0;0;0;false;42957;6269509540;-73.83175;45.571389;42955;6269509563;-73.83435;45.569634;1;11;12;9312776;Bus : 402 O - Direction Gare Sainte-Dorothée;"";STL;402O;Sainte-Rose / Face Au 3261;Gare Sainte-Dorothée
673268283;"{\"type\":\"LineString\",\"coordinates\":[[-73.834677,45.5693544],[-73.8339156,45.5697736],[-73.8337283,45.5698768],[-73.8334654,45.5700297],[-73.83224,45.5707621],[-73.8321846,45.5707951],[-73.8320004,45.570961]]}";2;Boulevard Sainte-Rose;2;50;false;false;false;false;false;false;138.0;0;0;1;0;0;false;42957;6269509540;-73.83175;45.571389;42955;6269509563;-73.83435;45.569634;1;11;12;9312776;Bus : 402 O - Direction Gare Sainte-Dorothée;"";STL;402O;Sainte-Rose / Face Au 3261;Gare Sainte-Dorothée
673268283;"{\"type\":\"LineString\",\"coordinates\":[[-73.834677,45.5693544],[-73.8339156,45.5697736],[-73.8337283,45.5698768],[-73.8334654,45.5700297],[-73.83224,45.5707621],[-73.8321846,45.5707951],[-73.8320004,45.570961]]}";1;Boulevard Sainte-Rose;2;50;false;false;false;false;false;false;138.0;0;0;1;0;0;false;42955;6269509563;-73.83435;45.569634;42952;6269510017;-73.83654;45.568668;1;12;13;9312776;Bus : 402 O - Direction Gare Sainte-Dorothée;"";STL;402O;Sainte-Rose / Face Au 3261;Gare Sainte-Dorothée
695760825;"{\"type\":\"LineString\",\"coordinates\":[[-73.8347534,45.5693123],[-73.834677,45.5693544]]}";2;Boulevard Sainte-Rose;2;50;false;false;false;false;false;false;8.0;0;0;2;0;0;false;42955;6269509563;-73.83435;45.569634;42952;6269510017;-73.83654;45.568668;0;12;13;9312776;Bus : 402 O - Direction Gare Sainte-Dorothée;"";STL;402O;Sainte-Rose / Face Au 3261;Gare Sainte-Dorothée
74729117;"{\"type\":\"LineString\",\"coordinates\":[[-73.8418861,45.567593],[-73.8410081,45.5678376],[-73.8404458,45.5679858],[-73.8400405,45.5680817],[-73.8398357,45.5681302],[-73.839104,45.5682743],[-73.8387866,45.5683161],[-73.8380792,45.5683973],[-73.8379643,45.5684157],[-73.8377996,45.5684359],[-73.8366865,45.5685726],[-73.8364968,45.5686009],[-73.8362047,45.5686702],[-73.8358979,45.5687634],[-73.8354769,45.5689119],[-73.8352215,45.5690539],[-73.8347534,45.5693123]]}";3;Boulevard Sainte-Rose;2;50;false;false;false;false;false;false;298.0;0;0;1;0;0;false;42955;6269509563;-73.83435;45.569634;42952;6269510017;-73.83654;45.568668;1;12;13;9312776;Bus : 402 O - Direction Gare Sainte-Dorothée;"";STL;402O;Sainte-Rose / Face Au 3261;Gare Sainte-Dorothée
673268280;"{\"type\":\"LineString\",\"coordinates\":[[-73.8521013,45.5658134],[-73.8508507,45.5657421],[-73.849768,45.565715],[-73.8487846,45.5656472],[-73.8478241,45.5656713],[-73.8474352,45.5657373],[-73.8468061,45.5659311],[-73.8466472,45.5659905],[-73.8458244,45.5663262],[-73.845592,45.5664138],[-73.844778,45.5667386],[-73.8441299,45.5669481],[-73.8438364,45.5670306],[-73.8437297,45.5670622],[-73.8424815,45.5674117],[-73.8422123,45.5674958],[-73.8418861,45.567593]]}";1;Boulevard Sainte-Rose;2;50;false;false;false;false;false;false;423.0;0;0;0;0;0;false;42944;6269510078;-73.85077;45.565827;42942;6269510076;-73.85273;45.565893;1;18;19;9312776;Bus : 402 O - Direction Gare Sainte-Dorothée;"";STL;402O;Sainte-Rose / Face Au 3261;Gare Sainte-Dorothée
45300660;"{\"type\":\"LineString\",\"coordinates\":[[-73.8588031,45.5626671],[-73.8582871,45.5631055],[-73.858141,45.56325],[-73.8575904,45.5637944],[-73.8571313,45.5642256],[-73.8566353,45.5646707],[-73.8562659,45.5650117],[-73.8557836,45.5653539],[-73.8556073,45.5654435],[-73.8554261,45.5655317],[-73.8551863,45.5656204],[-73.8545287,45.5657479],[-73.8541281,45.5658114],[-73.8537199,45.5658458],[-73.8531955,45.5658444],[-73.8529298,45.565842],[-73.8521013,45.5658134]]}";2;Boulevard Sainte-Rose;2;50;false;false;false;false;false;false;340.0;0;0;0;0;0;false;42944;6269510078;-73.85077;45.565827;42942;6269510076;-73.85273;45.565893;1;18;19;9312776;Bus : 402 O - Direction Gare Sainte-Dorothée;"";STL;402O;Sainte-Rose / Face Au 3261;Gare Sainte-Dorothée
74729056;"{\"type\":\"LineString\",\"coordinates\":[[-73.8660834,45.5563482],[-73.8659322,45.5564894],[-73.8655746,45.556795]]}";1;Boulevard Sainte-Rose;2;50;false;false;true;false;false;false;64.0;0;0;0;0;0;false;42926;6269510501;-73.86554;45.556899;42924;6269510537;-73.86665;45.555933;2;27;28;9312776;Bus : 402 O - Direction Gare Sainte-Dorothée;"";STL;402O;Sainte-Rose / Face Au 3261;Gare Sainte-Dorothée
45300632;"{\"type\":\"LineString\",\"coordinates\":[[-73.8666419,45.555814],[-73.866305,45.5561449],[-73.8660834,45.5563482]]}";2;Boulevard Sainte-Rose;2;50;false;false;false;false;false;false;74.0;0;0;0;0;0;false;42926;6269510501;-73.86554;45.556899;42924;6269510537;-73.86665;45.555933;2;27;28;9312776;Bus : 402 O - Direction Gare Sainte-Dorothée;"";STL;402O;Sainte-Rose / Face Au 3261;Gare Sainte-Dorothée
455469450;"{\"type\":\"LineString\",\"coordinates\":[[-73.8697217,45.5532115],[-73.8697031,45.5532231],[-73.8690081,45.5536575],[-73.8685852,45.553913],[-73.8683103,45.5540927],[-73.8681833,45.5542033],[-73.8677538,45.5546598],[-73.8676632,45.5547571],[-73.8671822,45.5552492],[-73.8666419,45.555814]]}";1;Boulevard Sainte-Rose;2;50;false;false;true;false;false;false;189.5;0;0;0;0;0;false;42919;6269510595;-73.86953;45.553417;42917;6269510612;-73.87088;45.552127;1;30;31;9312776;Bus : 402 O - Direction Gare Sainte-Dorothée;"";STL;402O;Sainte-Rose / Face Au 3261;Gare Sainte-Dorothée
455469445;"{\"type\":\"LineString\",\"coordinates\":[[-73.8700334,45.5530307],[-73.8697217,45.5532115]]}";2;Boulevard Sainte-Rose;2;50;false;false;true;false;false;false;32.0;0;0;0;0;0;false;42919;6269510595;-73.86953;45.553417;42917;6269510612;-73.87088;45.552127;0;30;31;9312776;Bus : 402 O - Direction Gare Sainte-Dorothée;"";STL;402O;Sainte-Rose / Face Au 3261;Gare Sainte-Dorothée
455469446;"{\"type\":\"LineString\",\"coordinates\":[[-73.8701516,45.5529631],[-73.8700334,45.5530307]]}";3;Boulevard Sainte-Rose;2;50;false;false;true;false;false;false;12.0;0;0;0;0;0;false;42919;6269510595;-73.86953;45.553417;42917;6269510612;-73.87088;45.552127;0;30;31;9312776;Bus : 402 O - Direction Gare Sainte-Dorothée;"";STL;402O;Sainte-Rose / Face Au 3261;Gare Sainte-Dorothée
455469451;"{\"type\":\"LineString\",\"coordinates\":[[-73.8703403,45.5527488],[-73.8702827,45.5528346],[-73.8702236,45.5529027],[-73.8701516,45.5529631]]}";4;Boulevard Sainte-Rose;2;50;false;false;true;false;false;false;29.0;0;0;0;0;0;false;42919;6269510595;-73.86953;45.553417;42917;6269510612;-73.87088;45.552127;0;30;31;9312776;Bus : 402 O - Direction Gare Sainte-Dorothée;"";STL;402O;Sainte-Rose / Face Au 3261;Gare Sainte-Dorothée
473600701;"{\"type\":\"LineString\",\"coordinates\":[[-73.8714669,45.5510827],[-73.871387,45.5512041],[-73.8711579,45.5515529],[-73.8709299,45.5518944],[-73.870601,45.5523721],[-73.8703403,45.5527488]]}";5;Boulevard Sainte-Rose;2;50;false;false;true;false;false;false;102.5;0;0;0;0;0;false;42919;6269510595;-73.86953;45.553417;42917;6269510612;-73.87088;45.552127;1;30;31;9312776;Bus : 402 O - Direction Gare Sainte-Dorothée;"";STL;402O;Sainte-Rose / Face Au 3261;Gare Sainte-Dorothée
473600701;"{\"type\":\"LineString\",\"coordinates\":[[-73.8714669,45.5510827],[-73.871387,45.5512041],[-73.8711579,45.5515529],[-73.8709299,45.5518944],[-73.870601,45.5523721],[-73.8703403,45.5527488]]}";1;Boulevard Sainte-Rose;2;50;false;false;true;false;false;false;102.5;0;0;0;0;0;false;42917;6269510612;-73.87088;45.552127;42915;6269510643;-73.87198;45.550256;1;31;32;9312776;Bus : 402 O - Direction Gare Sainte-Dorothée;"";STL;402O;Sainte-Rose / Face Au 3261;Gare Sainte-Dorothée
473600702;"{\"type\":\"LineString\",\"coordinates\":[[-73.8716779,45.5507304],[-73.8716515,45.5507877],[-73.871614,45.550856],[-73.8714669,45.5510827]]}";2;Boulevard Sainte-Rose;2;50;false;false;true;false;false;false;43.0;0;0;0;0;0;false;42917;6269510612;-73.87088;45.552127;42915;6269510643;-73.87198;45.550256;0;31;32;9312776;Bus : 402 O - Direction Gare Sainte-Dorothée;"";STL;402O;Sainte-Rose / Face Au 3261;Gare Sainte-Dorothée
45300665;"{\"type\":\"LineString\",\"coordinates\":[[-73.8778984,45.5364963],[-73.8777232,45.5370238],[-73.8774575,45.5375764],[-73.8771008,45.5383767],[-73.8770749,45.5384577],[-73.8767564,45.5391716],[-73.876501,45.5397245],[-73.8762701,45.5402411],[-73.8762401,45.5403103],[-73.8758911,45.5410444],[-73.8758284,45.5411571],[-73.8755307,45.5418425],[-73.8751993,45.5424914],[-73.8751423,45.542606],[-73.8749095,45.5431086],[-73.8746042,45.5437421],[-73.8744234,45.5441157],[-73.873829,45.5452698],[-73.8736587,45.5456735],[-73.8733409,45.5464168],[-73.8730099,45.5472273],[-73.8728911,45.5475272],[-73.8726507,45.5482291],[-73.8725669,45.5484653],[-73.8723541,45.5490674],[-73.8722032,45.5494942],[-73.872145,45.5496588],[-73.8720866,45.5497932],[-73.8718707,45.5502896],[-73.8716779,45.5507304]]}";3;Boulevard Sainte-Rose;2;50;false;false;true;false;false;false;827.5;0;0;0;0;0;false;42917;6269510612;-73.87088;45.552127;42915;6269510643;-73.87198;45.550256;1;31;32;9312776;Bus : 402 O - Direction Gare Sainte-Dorothée;"";STL;402O;Sainte-Rose / Face Au 3261;Gare Sainte-Dorothée
44552434;"{\"type\":\"LineString\",\"coordinates\":[[-73.8781524,45.5356967],[-73.8780378,45.5360575],[-73.8779678,45.5362777],[-73.8778984,45.5364963]]}";1;Boulevard Sainte-Rose;1;50;false;false;false;false;false;false;91.0;0;0;0;0;0;false;42884;6269510855;-73.87795;45.536667;46290;6269510880;-73.8753;45.534888;2;39;40;9312776;Bus : 402 O - Direction Gare Sainte-Dorothée;"";STL;402O;Sainte-Rose / Face Au 3261;Gare Sainte-Dorothée
44552433;"{\"type\":\"LineString\",\"coordinates\":[[-73.8570712,45.5405823],[-73.8580061,45.5401965],[-73.8591293,45.5397111],[-73.8598941,45.539326],[-73.8603243,45.5391363],[-73.8606996,45.5389959],[-73.8612421,45.5388911],[-73.8616872,45.5388028],[-73.8621937,45.5387093],[-73.8627235,45.5386036],[-73.8632096,45.5385125],[-73.8639926,45.538363],[-73.8647935,45.5382107],[-73.8650604,45.5381545],[-73.8656013,45.5380461],[-73.8662195,45.5379199],[-73.866803,45.5377811],[-73.8668725,45.5377646],[-73.8669506,45.5377456],[-73.8670119,45.5377307],[-73.8674642,45.5375894],[-73.868023,45.5373754],[-73.8689655,45.5370144],[-73.8690679,45.5369714],[-73.8691228,45.5369472],[-73.869221,45.536902],[-73.8709864,45.5361164],[-73.8713562,45.5359461],[-73.871564,45.5358504],[-73.8721481,45.5356025],[-73.8735374,45.5349711],[-73.873716,45.5348916],[-73.8738774,45.5348319],[-73.8740245,45.5347911],[-73.8741605,45.5347883],[-73.8742645,45.5347977],[-73.8743562,45.5348343],[-73.8744858,45.5348948],[-73.8746449,45.5349611],[-73.8748633,45.535015],[-73.8750872,45.5350164],[-73.8752459,45.5349922],[-73.8753834,45.5349477],[-73.8755297,45.534882],[-73.8757664,45.5347562],[-73.8758818,45.5347084],[-73.8760518,45.5346621],[-73.8761844,45.5346444],[-73.8763278,45.5346439],[-73.8764838,45.5346665],[-73.8765595,45.5346787],[-73.8766747,45.5347159],[-73.8767855,45.5347606],[-73.8769207,45.5348374],[-73.8770208,45.5349189],[-73.8771849,45.5351272],[-73.8774688,45.5354965],[-73.877568,45.5355849],[-73.8776752,45.5356359],[-73.8778235,45.5356695],[-73.8781524,45.5356967]]}";2;Chemin Saint-Antoine;2;50;false;false;true;false;false;false;1879.0;1;0;2;0;0;false;42884;6269510855;-73.87795;45.536667;46290;6269510880;-73.8753;45.534888;2;39;40;9312776;Bus : 402 O - Direction Gare Sainte-Dorothée;"";STL;402O;Sainte-Rose / Face Au 3261;Gare Sainte-Dorothée
46347768;"{\"type\":\"LineString\",\"coordinates\":[[-73.8562398,45.5397982],[-73.8563736,45.5399244],[-73.8570712,45.5405823]]}";1;Boulevard Arthur-Sauvé;4;50;false;false;true;false;false;false;109.0;2;0;0;0;0;false;46296;6269510774;-73.85715;45.540432;46297;6269511022;-73.86165;45.530466;2;46;47;9312776;Bus : 402 O - Direction Gare Sainte-Dorothée;"";STL;402O;Sainte-Rose / Face Au 3261;Gare Sainte-Dorothée
42045141;"{\"type\":\"LineString\",\"coordinates\":[[-73.8562398,45.5397982],[-73.8569568,45.5392221],[-73.8573012,45.5389477],[-73.8575726,45.5387056],[-73.8579253,45.5383791],[-73.8582926,45.5379985],[-73.8585328,45.5377166],[-73.8587748,45.5373983],[-73.8590526,45.5370288],[-73.8619944,45.533028],[-73.8623358,45.5324714],[-73.8624891,45.5321209],[-73.862645,45.5316937],[-73.8626911,45.5315397],[-73.8627372,45.5313235],[-73.8627762,45.5310435],[-73.8627923,45.530931]]}";2;Avenue des Bois;2;70;false;false;true;false;false;false;1123.0;2;0;0;0;0;false;46296;6269510774;-73.85715;45.540432;46297;6269511022;-73.86165;45.530466;0;46;47;9312776;Bus : 402 O - Direction Gare Sainte-Dorothée;"";STL;402O;Sainte-Rose / Face Au 3261;Gare Sainte-Dorothée
118231579;"{\"type\":\"LineString\",\"coordinates\":[[-73.8614391,45.5304875],[-73.8619206,45.5307444],[-73.8621138,45.5308274],[-73.8623499,45.5308847],[-73.8627923,45.530931]]}";3;Boulevard Jolibourg;2;50;false;false;false;false;false;false;120.0;1;0;0;0;0;false;46296;6269510774;-73.85715;45.540432;46297;6269511022;-73.86165;45.530466;2;46;47;9312776;Bus : 402 O - Direction Gare Sainte-Dorothée;"";STL;402O;Sainte-Rose / Face Au 3261;Gare Sainte-Dorothée
294837076;"{\"type\":\"LineString\",\"coordinates\":[[-73.855338,45.5228868],[-73.8558328,45.5227625],[-73.8565789,45.52259],[-73.8567102,45.5225632],[-73.8569306,45.5225151],[-73.8571177,45.5224913],[-73.8573403,45.5224848],[-73.8574824,45.5225095],[-73.857623,45.5225462],[-73.8577655,45.522589],[-73.8578655,45.5226218],[-73.8580045,45.5226834],[-73.8584371,45.5228749],[-73.8585429,45.5229217],[-73.858653,45.5229642],[-73.8587954,45.5229968],[-73.8589092,45.523012],[-73.8591114,45.5230247],[-73.8599049,45.5230571],[-73.8608352,45.5230872]]}";1;Chemin du Bord-de-l'Eau;2;50;false;false;false;false;false;false;225.5;0;0;0;0;0;false;41195;6269511981;-73.8583;45.522891;"41196;49402;49026;49076;49903";6269511975;-73.8612;45.523391;1;55;56;9312776;Bus : 402 O - Direction Gare Sainte-Dorothée;"";STL;402O;Sainte-Rose / Face Au 3261;Gare Sainte-Dorothée
44664417;"{\"type\":\"LineString\",\"coordinates\":[[-73.8608352,45.5230872],[-73.8608524,45.5231726],[-73.8609066,45.5232598],[-73.8609703,45.5233169]]}";2;"";1;50;false;true;true;false;false;false;29.0;0;0;0;0;0;false;41195;6269511981;-73.8583;45.522891;"41196;49402;49026;49076;49903";6269511975;-73.8612;45.523391;0;55;56;9312776;Bus : 402 O - Direction Gare Sainte-Dorothée;"";STL;402O;Sainte-Rose / Face Au 3261;Gare Sainte-Dorothée
673268276;"{\"type\":\"LineString\",\"coordinates\":[[-73.8609703,45.5233169],[-73.8610635,45.5233463],[-73.8612024,45.5233453]]}";3;"";1;50;false;true;true;false;false;false;19.0;0;0;0;0;0;false;41195;6269511981;-73.8583;45.522891;"41196;49402;49026;49076;49903";6269511975;-73.8612;45.523391;1;55;56;9312776;Bus : 402 O - Direction Gare Sainte-Dorothée;"";STL;402O;Sainte-Rose / Face Au 3261;Gare Sainte-Dorothée
