way_id;shape;index;name;nb_lanes;legal_speed;speed_zone_30;oneway;shares_bike;bike_box;bus_lane;dedicated_bus_lane;length;nb_traffic_signals;nb_crossings;nb_stops;nb_give_ways;nb_lvl_crossings;roundabout;stop_id_orig;node_id_orig;coord_x_orig;coord_y_orig;stop_id_dest;node_id_dest;coord_x_dest;coord_y_dest;nb_neighbouring_ways_bus_stop;ordre_orig;ordre_dest;id_line;line_name;colour;operator;ref;from;to
725167102;"{\"type\":\"LineString\",\"coordinates\":[[-73.5225484,45.5235009],[-73.5225444,45.5235685],[-73.522529,45.5237433]]}";1;"";1;50;false;false;true;false;true;false;27.0;0;0;1;0;0;false;71031;6184473515;-73.522215;45.523795;71331;6184471283;-73.374828;45.506062;1;0;1;9532748;Bus 340 : Direction Sainte-Julie;"";EXO;340 S;Terminus Longueuil;Terminus Sainte-Julie
725167099;"{\"type\":\"LineString\",\"coordinates\":[[-73.5225484,45.5235009],[-73.5224252,45.5234948],[-73.522126,45.5234843]]}";2;Rue du Terminus;1;50;false;false;true;false;true;false;34.0;0;0;1;0;0;false;71031;6184473515;-73.522215;45.523795;71331;6184471283;-73.374828;45.506062;0;0;1;9532748;Bus 340 : Direction Sainte-Julie;"";EXO;340 S;Terminus Longueuil;Terminus Sainte-Julie
685121063;"{\"type\":\"LineString\",\"coordinates\":[[-73.522126,45.5234843],[-73.5212972,45.5234483],[-73.5204366,45.5234068],[-73.5203039,45.5234015]]}";3;Rue du Terminus;1;50;false;false;true;false;true;false;143.0;0;1;1;0;0;false;71031;6184473515;-73.522215;45.523795;71331;6184471283;-73.374828;45.506062;0;0;1;9532748;Bus 340 : Direction Sainte-Julie;"";EXO;340 S;Terminus Longueuil;Terminus Sainte-Julie
725167105;"{\"type\":\"LineString\",\"coordinates\":[[-73.5203039,45.5234015],[-73.5198457,45.5233843],[-73.5198012,45.5233819],[-73.5197533,45.5233798],[-73.5196342,45.5233746]]}";4;Rue du Terminus;1;50;false;false;true;false;true;false;53.0;1;1;0;0;0;false;71031;6184473515;-73.522215;45.523795;71331;6184471283;-73.374828;45.506062;0;0;1;9532748;Bus 340 : Direction Sainte-Julie;"";EXO;340 S;Terminus Longueuil;Terminus Sainte-Julie
687049969;"{\"type\":\"LineString\",\"coordinates\":[[-73.5196342,45.5233746],[-73.5196946,45.5232381],[-73.5200156,45.5226037],[-73.5201042,45.5224378],[-73.5201631,45.5223251]]}";5;Rue Saint-Charles Ouest;2;50;false;true;true;false;false;false;124.0;0;2;0;0;0;false;71031;6184473515;-73.522215;45.523795;71331;6184471283;-73.374828;45.506062;0;0;1;9532748;Bus 340 : Direction Sainte-Julie;"";EXO;340 S;Terminus Longueuil;Terminus Sainte-Julie
753010853;"{\"type\":\"LineString\",\"coordinates\":[[-73.5201631,45.5223251],[-73.5202104,45.522243],[-73.5202424,45.5221543],[-73.5202775,45.5220377],[-73.5203641,45.5216733],[-73.5203918,45.5215814]]}";6;Rue Saint-Charles Ouest;2;50;false;true;true;false;false;false;85.0;0;0;0;0;0;false;71031;6184473515;-73.522215;45.523795;71331;6184471283;-73.374828;45.506062;0;0;1;9532748;Bus 340 : Direction Sainte-Julie;"";EXO;340 S;Terminus Longueuil;Terminus Sainte-Julie
753010856;"{\"type\":\"LineString\",\"coordinates\":[[-73.5203918,45.5215814],[-73.5204088,45.5214593],[-73.5204141,45.5213716],[-73.5204141,45.521278],[-73.5204096,45.5211693],[-73.520396,45.5210559],[-73.5203936,45.5210358],[-73.5203828,45.5209559]]}";7;Rue Saint-Charles Ouest;1;50;false;true;true;false;false;false;70.0;1;1;0;0;0;false;71031;6184473515;-73.522215;45.523795;71331;6184471283;-73.374828;45.506062;0;0;1;9532748;Bus 340 : Direction Sainte-Julie;"";EXO;340 S;Terminus Longueuil;Terminus Sainte-Julie
753011843;"{\"type\":\"LineString\",\"coordinates\":[[-73.5203828,45.5209559],[-73.5203725,45.5208713],[-73.5203659,45.5208169]]}";8;Rue Saint-Charles Ouest;1;50;false;true;true;false;false;false;16.0;0;0;0;0;0;false;71031;6184473515;-73.522215;45.523795;71331;6184471283;-73.374828;45.506062;0;0;1;9532748;Bus 340 : Direction Sainte-Julie;"";EXO;340 S;Terminus Longueuil;Terminus Sainte-Julie
753010855;"{\"type\":\"LineString\",\"coordinates\":[[-73.5203659,45.5208169],[-73.5202415,45.5208195]]}";9;Boulevard La Fayette;1;50;false;true;true;false;false;false;10.0;0;0;0;0;0;false;71031;6184473515;-73.522215;45.523795;71331;6184471283;-73.374828;45.506062;0;0;1;9532748;Bus 340 : Direction Sainte-Julie;"";EXO;340 S;Terminus Longueuil;Terminus Sainte-Julie
753010816;"{\"type\":\"LineString\",\"coordinates\":[[-73.5202415,45.5208195],[-73.5201532,45.520823],[-73.5200344,45.5208235],[-73.5199209,45.5208131],[-73.5198441,45.5208046],[-73.5197223,45.5207873],[-73.5196443,45.520774],[-73.5195973,45.5207662],[-73.519415,45.520731],[-73.5192793,45.5207036],[-73.5191379,45.5206789],[-73.5189881,45.5206609]]}";10;Boulevard La Fayette;1;50;false;true;false;false;false;false;100.0;0;1;0;0;0;false;71031;6184473515;-73.522215;45.523795;71331;6184471283;-73.374828;45.506062;0;0;1;9532748;Bus 340 : Direction Sainte-Julie;"";EXO;340 S;Terminus Longueuil;Terminus Sainte-Julie
722883975;"{\"type\":\"LineString\",\"coordinates\":[[-73.5189881,45.5206609],[-73.5159647,45.5196832]]}";11;Boulevard La Fayette;4;50;false;false;false;false;false;false;260.0;0;0;0;0;0;false;71031;6184473515;-73.522215;45.523795;71331;6184471283;-73.374828;45.506062;0;0;1;9532748;Bus 340 : Direction Sainte-Julie;"";EXO;340 S;Terminus Longueuil;Terminus Sainte-Julie
181633057;"{\"type\":\"LineString\",\"coordinates\":[[-73.5159647,45.5196832],[-73.5156739,45.5195405],[-73.5155738,45.519508],[-73.5155375,45.5194976],[-73.5154546,45.5194717]]}";12;Boulevard La Fayette;2;50;false;true;false;false;false;false;47.0;1;0;0;0;0;false;71031;6184473515;-73.522215;45.523795;71331;6184471283;-73.374828;45.506062;0;0;1;9532748;Bus 340 : Direction Sainte-Julie;"";EXO;340 S;Terminus Longueuil;Terminus Sainte-Julie
395301674;"{\"type\":\"LineString\",\"coordinates\":[[-73.5154546,45.5194717],[-73.5153577,45.5194403],[-73.5147197,45.5192344],[-73.5146363,45.5192082],[-73.5146094,45.5191998],[-73.5144906,45.5191625]]}";13;Boulevard La Fayette;2;50;false;true;false;false;false;false;83.0;1;0;0;0;0;false;71031;6184473515;-73.522215;45.523795;71331;6184471283;-73.374828;45.506062;0;0;1;9532748;Bus 340 : Direction Sainte-Julie;"";EXO;340 S;Terminus Longueuil;Terminus Sainte-Julie
25874448;"{\"type\":\"LineString\",\"coordinates\":[[-73.5144906,45.5191625],[-73.5135558,45.5177914],[-73.5130865,45.5173636],[-73.5127243,45.5170499],[-73.512389,45.5167715],[-73.5122675,45.5166775],[-73.5118071,45.516346]]}";14;Boulevard Taschereau;1;50;false;true;true;false;true;false;380.0;0;0;0;0;0;false;71031;6184473515;-73.522215;45.523795;71331;6184471283;-73.374828;45.506062;0;0;1;9532748;Bus 340 : Direction Sainte-Julie;"";EXO;340 S;Terminus Longueuil;Terminus Sainte-Julie
475851646;"{\"type\":\"LineString\",\"coordinates\":[[-73.5118071,45.516346],[-73.5114889,45.516203],[-73.5108063,45.5158947],[-73.5103781,45.5157249]]}";15;Boulevard Taschereau;1;50;false;true;true;false;false;false;132.0;0;0;0;0;0;false;71031;6184473515;-73.522215;45.523795;71331;6184471283;-73.374828;45.506062;0;0;1;9532748;Bus 340 : Direction Sainte-Julie;"";EXO;340 S;Terminus Longueuil;Terminus Sainte-Julie
26100716;"{\"type\":\"LineString\",\"coordinates\":[[-73.5103781,45.5157249],[-73.5096296,45.5155047],[-73.5085789,45.5152439]]}";16;"";1;50;false;true;true;false;false;false;151.0;0;0;0;0;0;false;71031;6184473515;-73.522215;45.523795;71331;6184471283;-73.374828;45.506062;0;0;1;9532748;Bus 340 : Direction Sainte-Julie;"";EXO;340 S;Terminus Longueuil;Terminus Sainte-Julie
686694727;"{\"type\":\"LineString\",\"coordinates\":[[-73.5085789,45.5152439],[-73.505705,45.5143224]]}";17;Boulevard Taschereau;3;70;false;true;true;false;false;false;247.0;0;0;0;0;0;false;71031;6184473515;-73.522215;45.523795;71331;6184471283;-73.374828;45.506062;0;0;1;9532748;Bus 340 : Direction Sainte-Julie;"";EXO;340 S;Terminus Longueuil;Terminus Sainte-Julie
4842187;"{\"type\":\"LineString\",\"coordinates\":[[-73.505705,45.5143224],[-73.5040115,45.5137941]]}";18;Boulevard Taschereau;3;70;false;true;true;false;false;false;145.0;0;0;0;0;0;false;71031;6184473515;-73.522215;45.523795;71331;6184471283;-73.374828;45.506062;0;0;1;9532748;Bus 340 : Direction Sainte-Julie;"";EXO;340 S;Terminus Longueuil;Terminus Sainte-Julie
37625583;"{\"type\":\"LineString\",\"coordinates\":[[-73.5040115,45.5137941],[-73.5020876,45.5132193],[-73.5005224,45.5126912]]}";19;Boulevard Taschereau;3;70;false;true;true;false;false;false;299.0;0;0;0;0;0;false;71031;6184473515;-73.522215;45.523795;71331;6184471283;-73.374828;45.506062;0;0;1;9532748;Bus 340 : Direction Sainte-Julie;"";EXO;340 S;Terminus Longueuil;Terminus Sainte-Julie
37625582;"{\"type\":\"LineString\",\"coordinates\":[[-73.5005224,45.5126912],[-73.500415,45.5126555],[-73.4995648,45.5123878],[-73.4987085,45.5121084],[-73.4985138,45.5120505],[-73.4975548,45.5117492],[-73.4973068,45.5116731]]}";20;Boulevard Taschereau;3;70;false;true;true;false;true;false;276.0;0;0;0;0;0;false;71031;6184473515;-73.522215;45.523795;71331;6184471283;-73.374828;45.506062;0;0;1;9532748;Bus 340 : Direction Sainte-Julie;"";EXO;340 S;Terminus Longueuil;Terminus Sainte-Julie
26752456;"{\"type\":\"LineString\",\"coordinates\":[[-73.4973068,45.5116731],[-73.4969766,45.511508],[-73.4966489,45.511392],[-73.4952039,45.5109049],[-73.4946443,45.5106476],[-73.4946045,45.510627],[-73.4944997,45.5105727],[-73.4943995,45.5105228]]}";21;Boulevard Taschereau;1;50;false;true;true;false;true;false;262.0;0;0;0;0;0;false;71031;6184473515;-73.522215;45.523795;71331;6184471283;-73.374828;45.506062;0;0;1;9532748;Bus 340 : Direction Sainte-Julie;"";EXO;340 S;Terminus Longueuil;Terminus Sainte-Julie
468692021;"{\"type\":\"LineString\",\"coordinates\":[[-73.4943995,45.5105228],[-73.4942338,45.5104362],[-73.4941737,45.5104104],[-73.4940846,45.5103667]]}";22;Boulevard Taschereau;1;50;false;true;true;false;false;false;31.0;1;1;0;0;0;false;71031;6184473515;-73.522215;45.523795;71331;6184471283;-73.374828;45.506062;0;0;1;9532748;Bus 340 : Direction Sainte-Julie;"";EXO;340 S;Terminus Longueuil;Terminus Sainte-Julie
468692020;"{\"type\":\"LineString\",\"coordinates\":[[-73.4940846,45.5103667],[-73.4939847,45.5103161],[-73.4938334,45.5102294],[-73.4934854,45.5100253],[-73.4927183,45.5094633]]}";23;Boulevard Taschereau;1;50;false;true;true;false;true;false;147.0;0;1;0;0;0;false;71031;6184473515;-73.522215;45.523795;71331;6184471283;-73.374828;45.506062;0;0;1;9532748;Bus 340 : Direction Sainte-Julie;"";EXO;340 S;Terminus Longueuil;Terminus Sainte-Julie
331359729;"{\"type\":\"LineString\",\"coordinates\":[[-73.4927183,45.5094633],[-73.4923149,45.5091024],[-73.491609,45.5085387]]}";24;"";1;50;false;true;true;false;true;false;135.0;0;0;0;0;0;false;71031;6184473515;-73.522215;45.523795;71331;6184471283;-73.374828;45.506062;0;0;1;9532748;Bus 340 : Direction Sainte-Julie;"";EXO;340 S;Terminus Longueuil;Terminus Sainte-Julie
331359725;"{\"type\":\"LineString\",\"coordinates\":[[-73.491609,45.5085387],[-73.4914859,45.5083939],[-73.4913708,45.5082446],[-73.4912635,45.5080914],[-73.4911608,45.5079284],[-73.4909162,45.5075369]]}";25;Boulevard Taschereau;1;70;false;true;true;false;false;false;124.0;0;0;0;0;0;false;71031;6184473515;-73.522215;45.523795;71331;6184471283;-73.374828;45.506062;0;0;1;9532748;Bus 340 : Direction Sainte-Julie;"";EXO;340 S;Terminus Longueuil;Terminus Sainte-Julie
331359722;"{\"type\":\"LineString\",\"coordinates\":[[-73.4909162,45.5075369],[-73.4891902,45.5047323]]}";26;Boulevard Taschereau;3;70;false;true;false;false;false;false;340.0;0;0;0;0;0;false;71031;6184473515;-73.522215;45.523795;71331;6184471283;-73.374828;45.506062;0;0;1;9532748;Bus 340 : Direction Sainte-Julie;"";EXO;340 S;Terminus Longueuil;Terminus Sainte-Julie
40260892;"{\"type\":\"LineString\",\"coordinates\":[[-73.4891902,45.5047323],[-73.4889984,45.5044024],[-73.4885799,45.5036988]]}";27;Boulevard Taschereau;3;70;false;true;false;false;false;false;125.0;0;0;0;0;0;false;71031;6184473515;-73.522215;45.523795;71331;6184471283;-73.374828;45.506062;0;0;1;9532748;Bus 340 : Direction Sainte-Julie;"";EXO;340 S;Terminus Longueuil;Terminus Sainte-Julie
366378047;"{\"type\":\"LineString\",\"coordinates\":[[-73.4885799,45.5036988],[-73.4884234,45.5034184]]}";28;Boulevard Taschereau;3;70;false;true;false;false;false;false;34.0;0;0;0;0;0;false;71031;6184473515;-73.522215;45.523795;71331;6184471283;-73.374828;45.506062;0;0;1;9532748;Bus 340 : Direction Sainte-Julie;"";EXO;340 S;Terminus Longueuil;Terminus Sainte-Julie
366378048;"{\"type\":\"LineString\",\"coordinates\":[[-73.4884234,45.5034184],[-73.4883212,45.5032079]]}";29;Boulevard Taschereau;3;70;false;true;true;false;false;false;25.0;0;0;0;0;0;false;71031;6184473515;-73.522215;45.523795;71331;6184471283;-73.374828;45.506062;0;0;1;9532748;Bus 340 : Direction Sainte-Julie;"";EXO;340 S;Terminus Longueuil;Terminus Sainte-Julie
686694726;"{\"type\":\"LineString\",\"coordinates\":[[-73.4883212,45.5032079],[-73.4882605,45.5030803]]}";30;Boulevard Taschereau;3;70;false;true;false;false;false;false;15.0;0;0;0;0;0;false;71031;6184473515;-73.522215;45.523795;71331;6184471283;-73.374828;45.506062;0;0;1;9532748;Bus 340 : Direction Sainte-Julie;"";EXO;340 S;Terminus Longueuil;Terminus Sainte-Julie
4842191;"{\"type\":\"LineString\",\"coordinates\":[[-73.4882605,45.5030803],[-73.4882143,45.5024408],[-73.4882528,45.5022331],[-73.4882731,45.5021854],[-73.4883245,45.5021106],[-73.4884546,45.5019836],[-73.4886124,45.5019064],[-73.488781,45.5018577],[-73.4890296,45.5018401],[-73.48927,45.5018633],[-73.4895961,45.5019896],[-73.4898138,45.5021755],[-73.4899769,45.50238],[-73.4900799,45.5025906],[-73.4900884,45.5028493],[-73.4899425,45.5030959],[-73.4895734,45.5032704],[-73.4890155,45.5033305],[-73.4886036,45.5033125],[-73.4877195,45.5032764],[-73.4870929,45.5032824],[-73.4864859,45.5033549],[-73.4859065,45.5034735]]}";31;"";1;50;false;true;false;false;false;false;684.0;0;0;0;0;0;false;71031;6184473515;-73.522215;45.523795;71331;6184471283;-73.374828;45.506062;0;0;1;9532748;Bus 340 : Direction Sainte-Julie;"";EXO;340 S;Terminus Longueuil;Terminus Sainte-Julie
37722372;"{\"type\":\"LineString\",\"coordinates\":[[-73.4859065,45.5034735],[-73.4830761,45.5040283],[-73.4824753,45.5040885],[-73.481102,45.5042329],[-73.4776914,45.5044741],[-73.4743862,45.5046833],[-73.4665849,45.5052019],[-73.4611066,45.505657],[-73.4582765,45.5059599],[-73.4558904,45.5062306],[-73.4537518,45.5063852],[-73.4534786,45.506405],[-73.4495983,45.5066924],[-73.4428694,45.5071521],[-73.4401629,45.5073086],[-73.4388137,45.5073969],[-73.4383443,45.5074289]]}";32;Boulevard Sir-Wilfrid-Laurier;3;90;false;true;false;false;false;false;3744.0;0;0;0;0;0;false;71031;6184473515;-73.522215;45.523795;71331;6184471283;-73.374828;45.506062;0;0;1;9532748;Bus 340 : Direction Sainte-Julie;"";EXO;340 S;Terminus Longueuil;Terminus Sainte-Julie
41838892;"{\"type\":\"LineString\",\"coordinates\":[[-73.4383443,45.5074289],[-73.4375987,45.5074702],[-73.4368342,45.5074984],[-73.4353349,45.5075323],[-73.4324461,45.5076187]]}";33;Boulevard Sir-Wilfrid-Laurier;3;90;false;true;false;false;false;false;462.0;0;0;0;0;0;false;71031;6184473515;-73.522215;45.523795;71331;6184471283;-73.374828;45.506062;0;0;1;9532748;Bus 340 : Direction Sainte-Julie;"";EXO;340 S;Terminus Longueuil;Terminus Sainte-Julie
40282587;"{\"type\":\"LineString\",\"coordinates\":[[-73.4324461,45.5076187],[-73.4304157,45.5077484]]}";34;Boulevard Sir-Wilfrid-Laurier;3;90;false;true;false;false;false;false;160.0;0;0;0;0;0;false;71031;6184473515;-73.522215;45.523795;71331;6184471283;-73.374828;45.506062;0;0;1;9532748;Bus 340 : Direction Sainte-Julie;"";EXO;340 S;Terminus Longueuil;Terminus Sainte-Julie
40282586;"{\"type\":\"LineString\",\"coordinates\":[[-73.4304157,45.5077484],[-73.4270951,45.5080247],[-73.4250808,45.5082014],[-73.4236753,45.5083236],[-73.4223449,45.5084157]]}";35;Boulevard Sir-Wilfrid-Laurier;1;90;false;true;false;false;false;false;635.0;0;0;0;0;0;false;71031;6184473515;-73.522215;45.523795;71331;6184471283;-73.374828;45.506062;0;0;1;9532748;Bus 340 : Direction Sainte-Julie;"";EXO;340 S;Terminus Longueuil;Terminus Sainte-Julie
689685927;"{\"type\":\"LineString\",\"coordinates\":[[-73.4223449,45.5084157],[-73.4219871,45.5084417],[-73.4167429,45.5087545],[-73.4020655,45.5096905],[-73.3890463,45.5104742]]}";36;Boulevard Sir-Wilfrid-Laurier;1;90;false;true;false;false;false;false;2611.0;0;0;0;0;0;false;71031;6184473515;-73.522215;45.523795;71331;6184471283;-73.374828;45.506062;0;0;1;9532748;Bus 340 : Direction Sainte-Julie;"";EXO;340 S;Terminus Longueuil;Terminus Sainte-Julie
686699037;"{\"type\":\"LineString\",\"coordinates\":[[-73.3890463,45.5104742],[-73.3851153,45.5105764]]}";37;"";1;50;false;true;false;false;false;false;308.0;0;0;0;0;0;false;71031;6184473515;-73.522215;45.523795;71331;6184471283;-73.374828;45.506062;0;0;1;9532748;Bus 340 : Direction Sainte-Julie;"";EXO;340 S;Terminus Longueuil;Terminus Sainte-Julie
42813316;"{\"type\":\"LineString\",\"coordinates\":[[-73.3851153,45.5105764],[-73.3810713,45.5108213],[-73.3799619,45.5108842],[-73.379183,45.5108875],[-73.3781029,45.5107508],[-73.3772704,45.5105036],[-73.3738694,45.5090074]]}";38;"";1;50;false;true;true;false;false;false;935.0;0;0;0;0;0;false;71031;6184473515;-73.522215;45.523795;71331;6184471283;-73.374828;45.506062;0;0;1;9532748;Bus 340 : Direction Sainte-Julie;"";EXO;340 S;Terminus Longueuil;Terminus Sainte-Julie
422842367;"{\"type\":\"LineString\",\"coordinates\":[[-73.3738694,45.5090074],[-73.3733437,45.5087593],[-73.3728931,45.5084735],[-73.3725712,45.5081502],[-73.3724322,45.5078934],[-73.3722948,45.5075806],[-73.3721786,45.5063531]]}";39;"";1;50;false;true;true;false;false;false;345.0;0;0;0;0;0;false;71031;6184473515;-73.522215;45.523795;71331;6184471283;-73.374828;45.506062;0;0;1;9532748;Bus 340 : Direction Sainte-Julie;"";EXO;340 S;Terminus Longueuil;Terminus Sainte-Julie
458469738;"{\"type\":\"LineString\",\"coordinates\":[[-73.3721786,45.5063531],[-73.3721747,45.505355],[-73.3722703,45.5046016]]}";40;"";2;70;false;true;true;false;false;false;195.0;0;0;0;0;0;false;71031;6184473515;-73.522215;45.523795;71331;6184471283;-73.374828;45.506062;0;0;1;9532748;Bus 340 : Direction Sainte-Julie;"";EXO;340 S;Terminus Longueuil;Terminus Sainte-Julie
472939677;"{\"type\":\"LineString\",\"coordinates\":[[-73.3722703,45.5046016],[-73.3725677,45.5037688],[-73.3731504,45.5026346],[-73.3733099,45.5024312],[-73.3735217,45.5023179]]}";41;"";1;50;false;true;true;false;false;false;276.0;0;0;0;0;0;false;71031;6184473515;-73.522215;45.523795;71331;6184471283;-73.374828;45.506062;0;0;1;9532748;Bus 340 : Direction Sainte-Julie;"";EXO;340 S;Terminus Longueuil;Terminus Sainte-Julie
23293857;"{\"type\":\"LineString\",\"coordinates\":[[-73.3735217,45.5023179],[-73.373649,45.5022813],[-73.373763,45.5022726],[-73.3739258,45.5023034],[-73.3742217,45.5023821],[-73.3742906,45.5024004]]}";42;"";1;50;false;true;true;false;false;false;64.0;1;0;0;0;0;false;71031;6184473515;-73.522215;45.523795;71331;6184471283;-73.374828;45.506062;0;0;1;9532748;Bus 340 : Direction Sainte-Julie;"";EXO;340 S;Terminus Longueuil;Terminus Sainte-Julie
472939689;"{\"type\":\"LineString\",\"coordinates\":[[-73.3742906,45.5024004],[-73.3744534,45.5024426]]}";43;"";1;50;false;true;true;false;false;false;14.0;0;0;0;0;0;false;71031;6184473515;-73.522215;45.523795;71331;6184471283;-73.374828;45.506062;0;0;1;9532748;Bus 340 : Direction Sainte-Julie;"";EXO;340 S;Terminus Longueuil;Terminus Sainte-Julie
472939687;"{\"type\":\"LineString\",\"coordinates\":[[-73.3744534,45.5024426],[-73.3750429,45.502591]]}";44;"";1;50;false;true;true;false;false;false;49.0;0;0;0;0;0;false;71031;6184473515;-73.522215;45.523795;71331;6184471283;-73.374828;45.506062;0;0;1;9532748;Bus 340 : Direction Sainte-Julie;"";EXO;340 S;Terminus Longueuil;Terminus Sainte-Julie
24276372;"{\"type\":\"LineString\",\"coordinates\":[[-73.3750429,45.502591],[-73.3753976,45.5026916],[-73.3762759,45.5030625]]}";45;"";1;50;false;true;true;false;false;false;110.0;0;0;0;0;0;false;71031;6184473515;-73.522215;45.523795;71331;6184471283;-73.374828;45.506062;0;0;1;9532748;Bus 340 : Direction Sainte-Julie;"";EXO;340 S;Terminus Longueuil;Terminus Sainte-Julie
686699035;"{\"type\":\"LineString\",\"coordinates\":[[-73.3760175,45.5070261],[-73.3759408,45.5068567],[-73.3758635,45.5067243],[-73.3756833,45.5065679],[-73.3755408,45.5064565],[-73.3753948,45.5063478],[-73.375249,45.5062336],[-73.3750794,45.5061068],[-73.3749507,45.5059602],[-73.3748647,45.5058099],[-73.3747468,45.5056519],[-73.3746377,45.505468],[-73.3745932,45.505401],[-73.374551,45.5051463],[-73.3745403,45.5049677],[-73.3745623,45.5047975],[-73.3746619,45.5046519],[-73.3747623,45.5045051],[-73.3748608,45.5043612],[-73.3749603,45.5042157],[-73.375058,45.5040729],[-73.3750868,45.5040371],[-73.375183,45.5039419],[-73.3753584,45.5037646],[-73.3754764,45.5036368],[-73.3756392,45.5035037],[-73.3756798,45.5034704],[-73.3757982,45.5033736],[-73.3759619,45.5032476],[-73.3762759,45.5030625]]}";46;"";1;50;false;false;true;false;false;false;260.0;0;1;0;0;0;false;71031;6184473515;-73.522215;45.523795;71331;6184471283;-73.374828;45.506062;1;0;1;9532748;Bus 340 : Direction Sainte-Julie;"";EXO;340 S;Terminus Longueuil;Terminus Sainte-Julie
