way_id;shape;index;name;nb_lanes;legal_speed;speed_zone_30;oneway;shares_bike;bike_box;bus_lane;dedicated_bus_lane;length;nb_traffic_signals;nb_crossings;nb_stops;nb_give_ways;nb_lvl_crossings;roundabout;stop_id_orig;node_id_orig;coord_x_orig;coord_y_orig;stop_id_dest;node_id_dest;coord_x_dest;coord_y_dest;nb_neighbouring_ways_bus_stop;ordre_orig;ordre_dest;id_line;line_name;colour;operator;ref;from;to
725167101;"{\"type\":\"LineString\",\"coordinates\":[[-73.5225083,45.5239595],[-73.5224879,45.524182]]}";1;"";1;50;false;false;true;false;true;false;25.0;0;0;0;0;0;false;70000;3395466650;-73.522601;45.524188;70500;6133407975;-73.450301;45.601071;1;0;1;9628441;Bus 721 : Direction Varennes;"";EXO;721 E;Terminus Longueuil;rue d'Youville / route Marie-Victorin
685121058;"{\"type\":\"LineString\",\"coordinates\":[[-73.522529,45.5237433],[-73.5225083,45.5239595]]}";2;"";1;50;false;false;true;false;true;false;25.0;0;0;0;0;0;false;70000;3395466650;-73.522601;45.524188;70500;6133407975;-73.450301;45.601071;0;0;1;9628441;Bus 721 : Direction Varennes;"";EXO;721 E;Terminus Longueuil;rue d'Youville / route Marie-Victorin
725167102;"{\"type\":\"LineString\",\"coordinates\":[[-73.5225484,45.5235009],[-73.5225444,45.5235685],[-73.522529,45.5237433]]}";3;"";1;50;false;false;true;false;true;false;27.0;0;0;1;0;0;false;70000;3395466650;-73.522601;45.524188;70500;6133407975;-73.450301;45.601071;0;0;1;9628441;Bus 721 : Direction Varennes;"";EXO;721 E;Terminus Longueuil;rue d'Youville / route Marie-Victorin
725167099;"{\"type\":\"LineString\",\"coordinates\":[[-73.5225484,45.5235009],[-73.5224252,45.5234948],[-73.522126,45.5234843]]}";4;Rue du Terminus;1;50;false;false;true;false;true;false;34.0;0;0;1;0;0;false;70000;3395466650;-73.522601;45.524188;70500;6133407975;-73.450301;45.601071;0;0;1;9628441;Bus 721 : Direction Varennes;"";EXO;721 E;Terminus Longueuil;rue d'Youville / route Marie-Victorin
685121063;"{\"type\":\"LineString\",\"coordinates\":[[-73.522126,45.5234843],[-73.5212972,45.5234483],[-73.5204366,45.5234068],[-73.5203039,45.5234015]]}";5;Rue du Terminus;1;50;false;false;true;false;true;false;143.0;0;1;1;0;0;false;70000;3395466650;-73.522601;45.524188;70500;6133407975;-73.450301;45.601071;0;0;1;9628441;Bus 721 : Direction Varennes;"";EXO;721 E;Terminus Longueuil;rue d'Youville / route Marie-Victorin
725167105;"{\"type\":\"LineString\",\"coordinates\":[[-73.5203039,45.5234015],[-73.5198457,45.5233843],[-73.5198012,45.5233819],[-73.5197533,45.5233798],[-73.5196342,45.5233746]]}";6;Rue du Terminus;1;50;false;false;true;false;true;false;53.0;1;1;0;0;0;false;70000;3395466650;-73.522601;45.524188;70500;6133407975;-73.450301;45.601071;0;0;1;9628441;Bus 721 : Direction Varennes;"";EXO;721 E;Terminus Longueuil;rue d'Youville / route Marie-Victorin
41937785;"{\"type\":\"LineString\",\"coordinates\":[[-73.5196342,45.5233746],[-73.5194663,45.5233605]]}";7;"";1;50;false;false;true;false;false;false;14.0;0;0;0;0;0;false;70000;3395466650;-73.522601;45.524188;70500;6133407975;-73.450301;45.601071;0;0;1;9628441;Bus 721 : Direction Varennes;"";EXO;721 E;Terminus Longueuil;rue d'Youville / route Marie-Victorin
41785841;"{\"type\":\"LineString\",\"coordinates\":[[-73.5194663,45.5233605],[-73.5194375,45.5234715],[-73.5192963,45.5240155],[-73.5192627,45.5243597],[-73.5192548,45.5246946],[-73.5192555,45.5250477],[-73.5192525,45.5250605],[-73.5192525,45.5250948],[-73.5192541,45.5251188],[-73.5192628,45.5251683]]}";8;Rue Saint-Charles Ouest;3;50;false;true;true;false;false;false;203.0;1;3;0;0;0;false;70000;3395466650;-73.522601;45.524188;70500;6133407975;-73.450301;45.601071;0;0;1;9628441;Bus 721 : Direction Varennes;"";EXO;721 E;Terminus Longueuil;rue d'Youville / route Marie-Victorin
29422472;"{\"type\":\"LineString\",\"coordinates\":[[-73.5192628,45.5251683],[-73.5192762,45.5254647]]}";9;Rue Saint-Charles Ouest;2;50;false;true;true;false;false;false;33.0;0;0;0;0;0;false;70000;3395466650;-73.522601;45.524188;70500;6133407975;-73.450301;45.601071;0;0;1;9628441;Bus 721 : Direction Varennes;"";EXO;721 E;Terminus Longueuil;rue d'Youville / route Marie-Victorin
470637268;"{\"type\":\"LineString\",\"coordinates\":[[-73.5192762,45.5254647],[-73.5192881,45.5255292],[-73.5194043,45.525817]]}";10;Rue Saint-Charles Ouest;1;50;false;true;true;false;false;false;41.0;0;1;0;0;0;false;70000;3395466650;-73.522601;45.524188;70500;6133407975;-73.450301;45.601071;0;0;1;9628441;Bus 721 : Direction Varennes;"";EXO;721 E;Terminus Longueuil;rue d'Youville / route Marie-Victorin
753036640;"{\"type\":\"LineString\",\"coordinates\":[[-73.5194028,45.5261504],[-73.5194043,45.525817]]}";11;Rue Saint-Charles Ouest;4;50;false;false;true;false;false;false;38.0;0;0;0;0;0;false;70000;3395466650;-73.522601;45.524188;70500;6133407975;-73.450301;45.601071;0;0;1;9628441;Bus 721 : Direction Varennes;"";EXO;721 E;Terminus Longueuil;rue d'Youville / route Marie-Victorin
247960205;"{\"type\":\"LineString\",\"coordinates\":[[-73.5194134,45.5267782],[-73.519413,45.5266847],[-73.5194041,45.5263872],[-73.5194028,45.5261504]]}";12;Rue Saint-Charles Ouest;3;50;false;false;true;false;false;false;70.0;1;0;0;0;0;false;70000;3395466650;-73.522601;45.524188;70500;6133407975;-73.450301;45.601071;0;0;1;9628441;Bus 721 : Direction Varennes;"";EXO;721 E;Terminus Longueuil;rue d'Youville / route Marie-Victorin
247960317;"{\"type\":\"LineString\",\"coordinates\":[[-73.5194134,45.5267782],[-73.5191274,45.5268034],[-73.5186529,45.5267798],[-73.5184357,45.526769],[-73.5182302,45.5267588],[-73.5181715,45.5267559],[-73.5179061,45.5267427]]}";13;"";1;50;false;false;false;false;false;false;119.0;1;0;0;0;0;false;70000;3395466650;-73.522601;45.524188;70500;6133407975;-73.450301;45.601071;0;0;1;9628441;Bus 721 : Direction Varennes;"";EXO;721 E;Terminus Longueuil;rue d'Youville / route Marie-Victorin
288454206;"{\"type\":\"LineString\",\"coordinates\":[[-73.5179061,45.5267427],[-73.5178585,45.5269747],[-73.5176654,45.5274332]]}";14;Rue Saint-Charles Ouest;1;50;false;true;false;false;false;false;80.0;0;0;0;0;0;false;70000;3395466650;-73.522601;45.524188;70500;6133407975;-73.450301;45.601071;0;0;1;9628441;Bus 721 : Direction Varennes;"";EXO;721 E;Terminus Longueuil;rue d'Youville / route Marie-Victorin
40413443;"{\"type\":\"LineString\",\"coordinates\":[[-73.5176654,45.5274332],[-73.5175876,45.5276474],[-73.5175393,45.5278146],[-73.5175098,45.5279706]]}";15;Rue Saint-Charles Ouest;1;50;false;true;false;false;false;false;61.0;0;0;0;0;0;false;70000;3395466650;-73.522601;45.524188;70500;6133407975;-73.450301;45.601071;0;0;1;9628441;Bus 721 : Direction Varennes;"";EXO;721 E;Terminus Longueuil;rue d'Youville / route Marie-Victorin
25875222;"{\"type\":\"LineString\",\"coordinates\":[[-73.5175098,45.5279706],[-73.5175567,45.5281444],[-73.5175943,45.5282384],[-73.5176131,45.5282778],[-73.517656,45.5283323],[-73.5177123,45.5283943],[-73.5177686,45.5284507],[-73.517833,45.5285014],[-73.5179135,45.5285522],[-73.5180073,45.5285973],[-73.5181119,45.5286386],[-73.5182273,45.5286781],[-73.5183963,45.528725],[-73.5185599,45.5287814],[-73.5187074,45.5288453],[-73.5189354,45.5289524],[-73.5191714,45.5290708],[-73.5192868,45.5291253],[-73.5196623,45.5293395]]}";16;"";1;50;false;true;false;false;false;false;237.0;0;0;0;0;0;false;70000;3395466650;-73.522601;45.524188;70500;6133407975;-73.450301;45.601071;0;0;1;9628441;Bus 721 : Direction Varennes;"";EXO;721 E;Terminus Longueuil;rue d'Youville / route Marie-Victorin
25875017;"{\"type\":\"LineString\",\"coordinates\":[[-73.5196623,45.5293395],[-73.520137,45.5297604],[-73.5202148,45.5298562],[-73.5202953,45.5299595],[-73.5203865,45.5300854],[-73.5204616,45.5302038],[-73.5205125,45.5303034],[-73.5205581,45.5304142],[-73.520601,45.5305326],[-73.5206252,45.5306454],[-73.5206413,45.5307731],[-73.5206438,45.5310108],[-73.5205665,45.5313595],[-73.5204034,45.5316902],[-73.5198885,45.5324718],[-73.5189361,45.5337492]]}";17;"";2;50;false;true;true;false;false;false;541.0;0;0;0;0;0;false;70000;3395466650;-73.522601;45.524188;70500;6133407975;-73.450301;45.601071;0;0;1;9628441;Bus 721 : Direction Varennes;"";EXO;721 E;Terminus Longueuil;rue d'Youville / route Marie-Victorin
685121030;"{\"type\":\"LineString\",\"coordinates\":[[-73.5189361,45.5337492],[-73.5184343,45.5343584],[-73.5164809,45.5367298],[-73.5159267,45.5372513],[-73.5154513,45.5376974],[-73.5144288,45.5384947],[-73.5134266,45.5392042],[-73.5125767,45.5398063],[-73.5111153,45.5408415],[-73.5101194,45.5416388],[-73.5093653,45.5423616],[-73.5082466,45.5434521],[-73.5069701,45.5448196],[-73.5060791,45.5457608],[-73.5053017,45.5465953],[-73.5043728,45.5475398]]}";18;Autoroute René-Levesque;4;100;false;true;true;false;false;false;1916.0;0;0;0;0;0;false;70000;3395466650;-73.522601;45.524188;70500;6133407975;-73.450301;45.601071;0;0;1;9628441;Bus 721 : Direction Varennes;"";EXO;721 E;Terminus Longueuil;rue d'Youville / route Marie-Victorin
687150625;"{\"type\":\"LineString\",\"coordinates\":[[-73.5043728,45.5475398],[-73.5034705,45.5485197],[-73.5023889,45.5496907],[-73.5009696,45.5513767],[-73.5000308,45.552516],[-73.4988603,45.553917]]}";19;Autoroute René-Levesque;4;100;false;true;true;false;false;false;829.0;0;0;0;0;0;false;70000;3395466650;-73.522601;45.524188;70500;6133407975;-73.450301;45.601071;0;0;1;9628441;Bus 721 : Direction Varennes;"";EXO;721 E;Terminus Longueuil;rue d'Youville / route Marie-Victorin
40202381;"{\"type\":\"LineString\",\"coordinates\":[[-73.4988603,45.553917],[-73.4978832,45.5551367],[-73.4961409,45.5572008],[-73.4949991,45.5585747],[-73.4938852,45.5599149],[-73.4937105,45.5601252],[-73.4930699,45.5610046],[-73.4926119,45.5616335],[-73.4919551,45.562636],[-73.4908427,45.5642586],[-73.4905872,45.5646408],[-73.49005,45.5654354],[-73.4894461,45.5663285],[-73.4885929,45.5673591],[-73.4882312,45.5677671],[-73.4872633,45.5688016],[-73.4864214,45.5696019],[-73.4859215,45.5701],[-73.4850889,45.5708295],[-73.4844332,45.5714186],[-73.4837182,45.5720383],[-73.4823663,45.5731955],[-73.4807253,45.5746089],[-73.4784679,45.5765194],[-73.4779584,45.5769449]]}";20;Autoroute René-Levesque;4;100;false;true;true;false;false;false;3047.0;0;0;0;0;0;false;70000;3395466650;-73.522601;45.524188;70500;6133407975;-73.450301;45.601071;0;0;1;9628441;Bus 721 : Direction Varennes;"";EXO;721 E;Terminus Longueuil;rue d'Youville / route Marie-Victorin
39452094;"{\"type\":\"LineString\",\"coordinates\":[[-73.4779584,45.5769449],[-73.4772676,45.5775727],[-73.4766162,45.5781632],[-73.4759511,45.5787252],[-73.4756177,45.5789774],[-73.4753258,45.5791779]]}";21;Autoroute René-Levesque;3;100;false;true;true;false;false;false;323.0;0;0;0;0;0;false;70000;3395466650;-73.522601;45.524188;70500;6133407975;-73.450301;45.601071;0;0;1;9628441;Bus 721 : Direction Varennes;"";EXO;721 E;Terminus Longueuil;rue d'Youville / route Marie-Victorin
128169280;"{\"type\":\"LineString\",\"coordinates\":[[-73.4753258,45.5791779],[-73.4746398,45.5796553],[-73.4742556,45.5799003],[-73.4736493,45.5802965],[-73.4731695,45.5806498],[-73.4729094,45.5808638],[-73.4726572,45.5810971],[-73.4722888,45.5815181],[-73.4720439,45.5818422],[-73.4718959,45.5820612],[-73.471718,45.5823666],[-73.4710641,45.5834974],[-73.4706483,45.5841497],[-73.4703753,45.5846082],[-73.4701121,45.5850802],[-73.4696505,45.5857256],[-73.469044,45.5864068],[-73.4665593,45.5885461]]}";22;Route 132;3;100;false;true;true;false;false;false;1260.0;0;0;0;0;0;false;70000;3395466650;-73.522601;45.524188;70500;6133407975;-73.450301;45.601071;0;0;1;9628441;Bus 721 : Direction Varennes;"";EXO;721 E;Terminus Longueuil;rue d'Youville / route Marie-Victorin
39452095;"{\"type\":\"LineString\",\"coordinates\":[[-73.4665593,45.5885461],[-73.4657768,45.5892014],[-73.4605841,45.5935259],[-73.459134,45.5944521],[-73.4563212,45.5961498],[-73.4534141,45.5978802]]}";23;Route 132;1;100;false;true;true;false;false;false;1463.0;0;0;0;0;0;false;70000;3395466650;-73.522601;45.524188;70500;6133407975;-73.450301;45.601071;0;0;1;9628441;Bus 721 : Direction Varennes;"";EXO;721 E;Terminus Longueuil;rue d'Youville / route Marie-Victorin
25446309;"{\"type\":\"LineString\",\"coordinates\":[[-73.4534141,45.5978802],[-73.4523289,45.5984267],[-73.4516515,45.5987879],[-73.4513718,45.5989069],[-73.4510356,45.5989893],[-73.4507285,45.5990247],[-73.4504278,45.5990027],[-73.44966,45.5988636],[-73.4493733,45.5988454],[-73.4491073,45.5988766],[-73.4488557,45.5989448],[-73.4485564,45.5990927],[-73.4477568,45.5996141],[-73.4476678,45.5996722]]}";24;"";1;50;false;true;true;false;false;false;521.0;0;0;0;0;0;false;70000;3395466650;-73.522601;45.524188;70500;6133407975;-73.450301;45.601071;0;0;1;9628441;Bus 721 : Direction Varennes;"";EXO;721 E;Terminus Longueuil;rue d'Youville / route Marie-Victorin
473807840;"{\"type\":\"LineString\",\"coordinates\":[[-73.4476678,45.5996722],[-73.447776,45.5997519]]}";25;Boulevard De Montarville;2;50;false;true;false;false;false;false;13.0;0;0;0;0;0;false;70000;3395466650;-73.522601;45.524188;70500;6133407975;-73.450301;45.601071;0;0;1;9628441;Bus 721 : Direction Varennes;"";EXO;721 E;Terminus Longueuil;rue d'Youville / route Marie-Victorin
149510289;"{\"type\":\"LineString\",\"coordinates\":[[-73.447776,45.5997519],[-73.4484434,45.6003179],[-73.4486771,45.6004311]]}";26;Boulevard De Montarville;2;50;false;true;false;false;false;false;104.0;0;0;0;0;0;false;70000;3395466650;-73.522601;45.524188;70500;6133407975;-73.450301;45.601071;0;0;1;9628441;Bus 721 : Direction Varennes;"";EXO;721 E;Terminus Longueuil;rue d'Youville / route Marie-Victorin
39084266;"{\"type\":\"LineString\",\"coordinates\":[[-73.4486771,45.6004311],[-73.4492545,45.6008869]]}";27;Boulevard De Montarville;4;50;false;false;true;false;false;false;68.0;0;0;0;0;0;false;70000;3395466650;-73.522601;45.524188;70500;6133407975;-73.450301;45.601071;0;0;1;9628441;Bus 721 : Direction Varennes;"";EXO;721 E;Terminus Longueuil;rue d'Youville / route Marie-Victorin
39084261;"{\"type\":\"LineString\",\"coordinates\":[[-73.4492545,45.6008869],[-73.4496723,45.6011757]]}";28;Boulevard De Montarville;4;50;false;false;true;false;false;false;46.0;0;0;0;0;0;false;70000;3395466650;-73.522601;45.524188;70500;6133407975;-73.450301;45.601071;0;0;1;9628441;Bus 721 : Direction Varennes;"";EXO;721 E;Terminus Longueuil;rue d'Youville / route Marie-Victorin
137624050;"{\"type\":\"LineString\",\"coordinates\":[[-73.4502224,45.6014229],[-73.4500287,45.6013705],[-73.4496723,45.6011757]]}";29;Boulevard De Montarville;2;50;false;true;true;false;false;false;52.0;0;1;0;0;0;false;70000;3395466650;-73.522601;45.524188;70500;6133407975;-73.450301;45.601071;0;0;1;9628441;Bus 721 : Direction Varennes;"";EXO;721 E;Terminus Longueuil;rue d'Youville / route Marie-Victorin
752709280;"{\"type\":\"LineString\",\"coordinates\":[[-73.4503048,45.6014091],[-73.4502224,45.6014229]]}";30;"";1;50;false;false;true;false;false;false;7.0;0;0;0;0;0;true;70000;3395466650;-73.522601;45.524188;70500;6133407975;-73.450301;45.601071;0;0;1;9628441;Bus 721 : Direction Varennes;"";EXO;721 E;Terminus Longueuil;rue d'Youville / route Marie-Victorin
169337851;"{\"type\":\"LineString\",\"coordinates\":[[-73.4504375,45.6011723],[-73.4503767,45.6012205],[-73.4503592,45.6013087],[-73.4503163,45.6013819],[-73.4503048,45.6014091]]}";31;"";1;50;false;true;true;false;false;false;29.0;0;0;0;0;0;false;70000;3395466650;-73.522601;45.524188;70500;6133407975;-73.450301;45.601071;0;0;1;9628441;Bus 721 : Direction Varennes;"";EXO;721 E;Terminus Longueuil;rue d'Youville / route Marie-Victorin
170581058;"{\"type\":\"LineString\",\"coordinates\":[[-73.4504375,45.6011723],[-73.4503795,45.6008903],[-73.4503093,45.6008222],[-73.4501435,45.6006614],[-73.4500597,45.6006321],[-73.4499397,45.6005901],[-73.4496178,45.600804],[-73.4499692,45.601093],[-73.4501839,45.6011294],[-73.4504375,45.6011723]]}";32;"";1;50;false;true;true;false;false;false;98.0;0;0;0;0;0;false;70000;3395466650;-73.522601;45.524188;70500;6133407975;-73.450301;45.601071;1;0;1;9628441;Bus 721 : Direction Varennes;"";EXO;721 E;Terminus Longueuil;rue d'Youville / route Marie-Victorin
170581050;"{\"type\":\"LineString\",\"coordinates\":[[-73.4505032,45.6014458],[-73.4504772,45.6013838],[-73.4504852,45.6013146],[-73.4504902,45.6012267],[-73.4504375,45.6011723]]}";1;"";1;50;false;true;true;false;false;false;32.0;0;0;0;0;0;false;70500;6133407975;-73.450301;45.601071;70008;6133410524;-73.439603;45.612389;3;1;2;9628441;Bus 721 : Direction Varennes;"";EXO;721 E;Terminus Longueuil;rue d'Youville / route Marie-Victorin
169337851;"{\"type\":\"LineString\",\"coordinates\":[[-73.4504375,45.6011723],[-73.4503767,45.6012205],[-73.4503592,45.6013087],[-73.4503163,45.6013819],[-73.4503048,45.6014091]]}";2;"";1;50;false;true;true;false;false;false;29.0;0;0;0;0;0;false;70500;6133407975;-73.450301;45.601071;70008;6133410524;-73.439603;45.612389;0;1;2;9628441;Bus 721 : Direction Varennes;"";EXO;721 E;Terminus Longueuil;rue d'Youville / route Marie-Victorin
752709280;"{\"type\":\"LineString\",\"coordinates\":[[-73.4503048,45.6014091],[-73.4502224,45.6014229]]}";3;"";1;50;false;false;true;false;false;false;7.0;0;0;0;0;0;true;70500;6133407975;-73.450301;45.601071;70008;6133410524;-73.439603;45.612389;0;1;2;9628441;Bus 721 : Direction Varennes;"";EXO;721 E;Terminus Longueuil;rue d'Youville / route Marie-Victorin
137624050;"{\"type\":\"LineString\",\"coordinates\":[[-73.4502224,45.6014229],[-73.4500287,45.6013705],[-73.4496723,45.6011757]]}";4;Boulevard De Montarville;2;50;false;true;true;false;false;false;52.0;0;1;0;0;0;false;70500;6133407975;-73.450301;45.601071;70008;6133410524;-73.439603;45.612389;0;1;2;9628441;Bus 721 : Direction Varennes;"";EXO;721 E;Terminus Longueuil;rue d'Youville / route Marie-Victorin
39084261;"{\"type\":\"LineString\",\"coordinates\":[[-73.4492545,45.6008869],[-73.4496723,45.6011757]]}";5;Boulevard De Montarville;4;50;false;false;true;false;false;false;46.0;0;0;0;0;0;false;70500;6133407975;-73.450301;45.601071;70008;6133410524;-73.439603;45.612389;0;1;2;9628441;Bus 721 : Direction Varennes;"";EXO;721 E;Terminus Longueuil;rue d'Youville / route Marie-Victorin
39084266;"{\"type\":\"LineString\",\"coordinates\":[[-73.4486771,45.6004311],[-73.4492545,45.6008869]]}";6;Boulevard De Montarville;4;50;false;false;true;false;false;false;68.0;0;0;0;0;0;false;70500;6133407975;-73.450301;45.601071;70008;6133410524;-73.439603;45.612389;0;1;2;9628441;Bus 721 : Direction Varennes;"";EXO;721 E;Terminus Longueuil;rue d'Youville / route Marie-Victorin
473807858;"{\"type\":\"LineString\",\"coordinates\":[[-73.4486771,45.6004311],[-73.4485533,45.6002579],[-73.4478605,45.5996961]]}";7;Boulevard De Montarville;2;50;false;true;true;false;false;false;105.0;0;0;0;0;0;false;70500;6133407975;-73.450301;45.601071;70008;6133410524;-73.439603;45.612389;0;1;2;9628441;Bus 721 : Direction Varennes;"";EXO;721 E;Terminus Longueuil;rue d'Youville / route Marie-Victorin
40955129;"{\"type\":\"LineString\",\"coordinates\":[[-73.4478605,45.5996961],[-73.4486161,45.5991967],[-73.4489068,45.5990457],[-73.4491709,45.5989822],[-73.4494456,45.5989686],[-73.4496611,45.5990113],[-73.4498165,45.5990846],[-73.4499398,45.5991881],[-73.4500133,45.5993235],[-73.4500365,45.5994617],[-73.4499943,45.59959],[-73.4499251,45.5997102],[-73.4498421,45.5998159],[-73.4497182,45.5999317],[-73.4495506,45.6000644],[-73.4491052,45.6003702],[-73.4480476,45.6010694],[-73.4476768,45.6013303]]}";8;"";1;50;false;true;true;false;false;false;512.0;0;0;0;0;0;false;70500;6133407975;-73.450301;45.601071;70008;6133410524;-73.439603;45.612389;0;1;2;9628441;Bus 721 : Direction Varennes;"";EXO;721 E;Terminus Longueuil;rue d'Youville / route Marie-Victorin
690006343;"{\"type\":\"LineString\",\"coordinates\":[[-73.4476768,45.6013303],[-73.4473646,45.6015093]]}";9;Route 132;1;100;false;true;true;false;false;false;32.0;0;0;0;0;0;false;70500;6133407975;-73.450301;45.601071;70008;6133410524;-73.439603;45.612389;0;1;2;9628441;Bus 721 : Direction Varennes;"";EXO;721 E;Terminus Longueuil;rue d'Youville / route Marie-Victorin
567727179;"{\"type\":\"LineString\",\"coordinates\":[[-73.4473646,45.6015093],[-73.4467292,45.601898],[-73.4462289,45.6021936],[-73.4458142,45.6024415]]}";10;Route 132;2;100;false;true;true;false;false;false;160.0;0;0;0;0;0;false;70500;6133407975;-73.450301;45.601071;70008;6133410524;-73.439603;45.612389;0;1;2;9628441;Bus 721 : Direction Varennes;"";EXO;721 E;Terminus Longueuil;rue d'Youville / route Marie-Victorin
39283471;"{\"type\":\"LineString\",\"coordinates\":[[-73.4458142,45.6024415],[-73.4454796,45.6026382],[-73.4451939,45.6028194],[-73.4449549,45.6029696],[-73.4444998,45.6032672],[-73.4442496,45.6034443],[-73.444077,45.603576],[-73.4439634,45.603664],[-73.4438017,45.6038015],[-73.4436565,45.6039424],[-73.4435219,45.6040813],[-73.4433627,45.6042649],[-73.4432054,45.6044565],[-73.4430901,45.6046146],[-73.4429834,45.6047708],[-73.4428939,45.6049301],[-73.4428046,45.6051093],[-73.4427535,45.6052139],[-73.4426818,45.6053821],[-73.442627,45.605523],[-73.4425841,45.6056713],[-73.442539,45.6058394],[-73.4424987,45.6060326],[-73.4424739,45.6062018],[-73.4424605,45.6063664],[-73.4424561,45.6065268],[-73.4424608,45.6067286],[-73.4424743,45.606891],[-73.4424959,45.6070548],[-73.4425267,45.6072326],[-73.4425586,45.6074818],[-73.4425664,45.6076433],[-73.4425705,45.6078113],[-73.442567,45.6079634],[-73.4425561,45.6081126],[-73.4425413,45.6082622],[-73.4425091,45.6084606],[-73.4424734,45.6086222],[-73.4424254,45.6088106],[-73.4423429,45.6090606],[-73.442259,45.6092763],[-73.4421805,45.609441],[-73.442087,45.609624],[-73.4419793,45.6098163],[-73.4418358,45.6100391],[-73.4416686,45.6102691],[-73.441268,45.6107365],[-73.4408645,45.6112004]]}";11;Route 132;2;90;false;true;true;false;false;false;1093.0;0;0;0;0;0;false;70500;6133407975;-73.450301;45.601071;70008;6133410524;-73.439603;45.612389;0;1;2;9628441;Bus 721 : Direction Varennes;"";EXO;721 E;Terminus Longueuil;rue d'Youville / route Marie-Victorin
751932231;"{\"type\":\"LineString\",\"coordinates\":[[-73.4408645,45.6112004],[-73.4405395,45.6115766],[-73.4402025,45.6119571],[-73.4399931,45.6122023],[-73.4398936,45.6123118]]}";12;Route 132;3;90;false;true;true;false;false;false;145.0;1;0;0;0;0;false;70500;6133407975;-73.450301;45.601071;70008;6133410524;-73.439603;45.612389;0;1;2;9628441;Bus 721 : Direction Varennes;"";EXO;721 E;Terminus Longueuil;rue d'Youville / route Marie-Victorin
24351600;"{\"type\":\"LineString\",\"coordinates\":[[-73.4398936,45.6123118],[-73.4397661,45.61245],[-73.4394687,45.6127907],[-73.4388018,45.6135663]]}";13;Route 132;3;50;false;true;true;false;false;false;164.0;0;0;0;0;0;false;70500;6133407975;-73.450301;45.601071;70008;6133410524;-73.439603;45.612389;3;1;2;9628441;Bus 721 : Direction Varennes;"";EXO;721 E;Terminus Longueuil;rue d'Youville / route Marie-Victorin
24351600;"{\"type\":\"LineString\",\"coordinates\":[[-73.4398936,45.6123118],[-73.4397661,45.61245],[-73.4394687,45.6127907],[-73.4388018,45.6135663]]}";1;Route 132;3;50;false;true;true;false;false;false;82.0;0;0;0;0;0;false;70008;6133410524;-73.439603;45.612389;70042;6133410503;-73.422996;45.657259;1;2;3;9628441;Bus 721 : Direction Varennes;"";EXO;721 E;Terminus Longueuil;rue d'Youville / route Marie-Victorin
751863586;"{\"type\":\"LineString\",\"coordinates\":[[-73.4388018,45.6135663],[-73.4375078,45.6150582],[-73.4370775,45.6155515],[-73.4354022,45.6174767],[-73.4337245,45.6194129],[-73.4324421,45.6208884],[-73.4309816,45.6225589],[-73.4292519,45.6245464],[-73.4274207,45.6266515],[-73.4262227,45.6280328],[-73.4256544,45.6286995],[-73.4253094,45.6291377],[-73.4251865,45.6293047],[-73.4250442,45.6295151],[-73.4249525,45.6296569],[-73.4248422,45.62983],[-73.424713,45.6300575],[-73.4246162,45.630232],[-73.4245264,45.6304038],[-73.4243727,45.6307364]]}";2;Route 132;2;50;false;true;true;false;false;false;2217.0;0;0;0;0;0;false;70008;6133410524;-73.439603;45.612389;70042;6133410503;-73.422996;45.657259;0;2;3;9628441;Bus 721 : Direction Varennes;"";EXO;721 E;Terminus Longueuil;rue d'Youville / route Marie-Victorin
751928534;"{\"type\":\"LineString\",\"coordinates\":[[-73.4243727,45.6307364],[-73.4242189,45.6310689],[-73.4240819,45.6314205],[-73.4240081,45.6316462],[-73.4239621,45.6317867],[-73.4238716,45.6320841]]}";3;Route 132;4;50;false;true;true;false;false;false;155.0;0;0;0;0;0;false;70008;6133410524;-73.439603;45.612389;70042;6133410503;-73.422996;45.657259;0;2;3;9628441;Bus 721 : Direction Varennes;"";EXO;721 E;Terminus Longueuil;rue d'Youville / route Marie-Victorin
472637016;"{\"type\":\"LineString\",\"coordinates\":[[-73.4238716,45.6320841],[-73.4236937,45.6327439],[-73.4236067,45.6334024],[-73.4234018,45.6349525],[-73.4229415,45.6387568],[-73.4226465,45.6411157],[-73.4217453,45.6474882],[-73.4208698,45.6539861],[-73.4207754,45.654604]]}";4;Route 132;2;50;false;true;true;false;false;false;2513.0;0;0;0;0;0;false;70008;6133410524;-73.439603;45.612389;70042;6133410503;-73.422996;45.657259;0;2;3;9628441;Bus 721 : Direction Varennes;"";EXO;721 E;Terminus Longueuil;rue d'Youville / route Marie-Victorin
317731363;"{\"type\":\"LineString\",\"coordinates\":[[-73.4207754,45.654604],[-73.4206935,45.6551071],[-73.4206784,45.6551997]]}";5;Boulevard Marie-Victorin;2;50;false;true;true;false;false;false;67.0;1;0;0;0;0;false;70008;6133410524;-73.439603;45.612389;70042;6133410503;-73.422996;45.657259;0;2;3;9628441;Bus 721 : Direction Varennes;"";EXO;721 E;Terminus Longueuil;rue d'Youville / route Marie-Victorin
472637874;"{\"type\":\"LineString\",\"coordinates\":[[-73.4206784,45.6551997],[-73.4206592,45.6553484]]}";6;Boulevard Marie-Victorin;2;50;false;true;true;false;false;false;17.0;0;0;0;0;0;false;70008;6133410524;-73.439603;45.612389;70042;6133410503;-73.422996;45.657259;0;2;3;9628441;Bus 721 : Direction Varennes;"";EXO;721 E;Terminus Longueuil;rue d'Youville / route Marie-Victorin
26124834;"{\"type\":\"LineString\",\"coordinates\":[[-73.4206592,45.6553484],[-73.4209674,45.6555766]]}";7;Boulevard Lionel-Boulet;1;50;false;true;true;false;false;false;35.0;0;0;0;0;0;false;70008;6133410524;-73.439603;45.612389;70042;6133410503;-73.422996;45.657259;0;2;3;9628441;Bus 721 : Direction Varennes;"";EXO;721 E;Terminus Longueuil;rue d'Youville / route Marie-Victorin
472637857;"{\"type\":\"LineString\",\"coordinates\":[[-73.4209674,45.6555766],[-73.421507,45.6559703]]}";8;Boulevard de la Marine;1;50;false;true;true;false;false;false;61.0;0;0;0;0;0;false;70008;6133410524;-73.439603;45.612389;70042;6133410503;-73.422996;45.657259;0;2;3;9628441;Bus 721 : Direction Varennes;"";EXO;721 E;Terminus Longueuil;rue d'Youville / route Marie-Victorin
45667733;"{\"type\":\"LineString\",\"coordinates\":[[-73.421507,45.6559703],[-73.4219619,45.6563204],[-73.4231889,45.6572932],[-73.4246942,45.6584797],[-73.4260198,45.6595055],[-73.4271963,45.6604224],[-73.4273936,45.6605761],[-73.4275063,45.660664],[-73.4279057,45.6609753],[-73.4292387,45.6620221],[-73.4295139,45.6622382],[-73.4316266,45.6638937]]}";9;Boulevard de la Marine;1;50;false;true;true;false;false;false;591.0;0;0;0;0;0;false;70008;6133410524;-73.439603;45.612389;70042;6133410503;-73.422996;45.657259;1;2;3;9628441;Bus 721 : Direction Varennes;"";EXO;721 E;Terminus Longueuil;rue d'Youville / route Marie-Victorin
45667733;"{\"type\":\"LineString\",\"coordinates\":[[-73.421507,45.6559703],[-73.4219619,45.6563204],[-73.4231889,45.6572932],[-73.4246942,45.6584797],[-73.4260198,45.6595055],[-73.4271963,45.6604224],[-73.4273936,45.6605761],[-73.4275063,45.660664],[-73.4279057,45.6609753],[-73.4292387,45.6620221],[-73.4295139,45.6622382],[-73.4316266,45.6638937]]}";1;Boulevard de la Marine;1;50;false;true;true;false;false;false;591.0;0;0;0;0;0;false;70048;6133410497;-73.431298;45.663818;70052;6133410495;-73.430907;45.666762;1;8;9;9628441;Bus 721 : Direction Varennes;"";EXO;721 E;Terminus Longueuil;rue d'Youville / route Marie-Victorin
41144962;"{\"type\":\"LineString\",\"coordinates\":[[-73.430684,45.6679993],[-73.43078,45.6679409],[-73.430876,45.6678825],[-73.4310994,45.6677397],[-73.4311495,45.6676676],[-73.4311474,45.6675706],[-73.431127,45.6674903],[-73.4310668,45.6672534],[-73.4309736,45.666851],[-73.4308573,45.6663739],[-73.4308767,45.6649602],[-73.4308866,45.6645011],[-73.4309016,45.6643997],[-73.4309967,45.6642842],[-73.4315456,45.6639422],[-73.4316266,45.6638937]]}";2;Rue de la Gabelle;1;50;false;false;false;false;false;false;249.0;1;0;0;0;0;false;70048;6133410497;-73.431298;45.663818;70052;6133410495;-73.430907;45.666762;1;8;9;9628441;Bus 721 : Direction Varennes;"";EXO;721 E;Terminus Longueuil;rue d'Youville / route Marie-Victorin
41144962;"{\"type\":\"LineString\",\"coordinates\":[[-73.430684,45.6679993],[-73.43078,45.6679409],[-73.430876,45.6678825],[-73.4310994,45.6677397],[-73.4311495,45.6676676],[-73.4311474,45.6675706],[-73.431127,45.6674903],[-73.4310668,45.6672534],[-73.4309736,45.666851],[-73.4308573,45.6663739],[-73.4308767,45.6649602],[-73.4308866,45.6645011],[-73.4309016,45.6643997],[-73.4309967,45.6642842],[-73.4315456,45.6639422],[-73.4316266,45.6638937]]}";1;Rue de la Gabelle;1;50;false;false;false;false;false;false;249.0;1;0;0;0;0;false;70052;6133410495;-73.430907;45.666762;70056;6133410491;-73.429397;45.668734;1;9;10;9628441;Bus 721 : Direction Varennes;"";EXO;721 E;Terminus Longueuil;rue d'Youville / route Marie-Victorin
692275241;"{\"type\":\"LineString\",\"coordinates\":[[-73.4304802,45.6681312],[-73.430684,45.6679993]]}";2;Rue de la Gabelle;1;50;false;false;false;false;false;false;22.0;0;0;0;0;0;false;70052;6133410495;-73.430907;45.666762;70056;6133410491;-73.429397;45.668734;0;9;10;9628441;Bus 721 : Direction Varennes;"";EXO;721 E;Terminus Longueuil;rue d'Youville / route Marie-Victorin
45610165;"{\"type\":\"LineString\",\"coordinates\":[[-73.4293222,45.668895],[-73.4297686,45.668604],[-73.4302417,45.6682955],[-73.4304802,45.6681312]]}";3;Chemin du Petit-Bois;1;50;false;false;false;false;false;false;62.0;1;0;0;0;0;false;70052;6133410495;-73.430907;45.666762;70056;6133410491;-73.429397;45.668734;1;9;10;9628441;Bus 721 : Direction Varennes;"";EXO;721 E;Terminus Longueuil;rue d'Youville / route Marie-Victorin
45610165;"{\"type\":\"LineString\",\"coordinates\":[[-73.4293222,45.668895],[-73.4297686,45.668604],[-73.4302417,45.6682955],[-73.4304802,45.6681312]]}";1;Chemin du Petit-Bois;1;50;false;false;false;false;false;false;124.0;1;0;0;0;0;false;70056;6133410491;-73.429397;45.668734;70058;6133410489;-73.426152;45.672877;2;10;11;9628441;Bus 721 : Direction Varennes;"";EXO;721 E;Terminus Longueuil;rue d'Youville / route Marie-Victorin
45759384;"{\"type\":\"LineString\",\"coordinates\":[[-73.4257184,45.6704962],[-73.4262748,45.6703722],[-73.4267898,45.6702223],[-73.4272626,45.6700571],[-73.4278307,45.6698014],[-73.4282529,45.669566],[-73.4284226,45.6694595],[-73.4293222,45.668895]]}";2;Chemin du Petit-Bois;1;80;false;false;true;false;false;false;337.0;0;0;0;0;0;false;70056;6133410491;-73.429397;45.668734;70058;6133410489;-73.426152;45.672877;0;10;11;9628441;Bus 721 : Direction Varennes;"";EXO;721 E;Terminus Longueuil;rue d'Youville / route Marie-Victorin
43898110;"{\"type\":\"LineString\",\"coordinates\":[[-73.4257184,45.6704962],[-73.4258325,45.6710613]]}";3;Rue Jules-Phaneuf;1;50;false;false;true;false;false;false;64.0;0;0;0;0;0;false;70056;6133410491;-73.429397;45.668734;70058;6133410489;-73.426152;45.672877;0;10;11;9628441;Bus 721 : Direction Varennes;"";EXO;721 E;Terminus Longueuil;rue d'Youville / route Marie-Victorin
44955740;"{\"type\":\"LineString\",\"coordinates\":[[-73.4258325,45.6710613],[-73.4259008,45.6712941]]}";4;Rue Jules-Phaneuf;1;50;false;false;true;false;false;false;27.0;0;0;0;0;0;false;70056;6133410491;-73.429397;45.668734;70058;6133410489;-73.426152;45.672877;0;10;11;9628441;Bus 721 : Direction Varennes;"";EXO;721 E;Terminus Longueuil;rue d'Youville / route Marie-Victorin
44955741;"{\"type\":\"LineString\",\"coordinates\":[[-73.4259008,45.6712941],[-73.4259541,45.6714769],[-73.4261865,45.6723236],[-73.426216,45.6725415],[-73.4262318,45.672971],[-73.4262339,45.6730295],[-73.4262353,45.6730688],[-73.4262443,45.6736577]]}";5;Rue Jules-Phaneuf;1;50;false;false;true;false;false;false;265.0;0;0;0;0;0;false;70056;6133410491;-73.429397;45.668734;70058;6133410489;-73.426152;45.672877;2;10;11;9628441;Bus 721 : Direction Varennes;"";EXO;721 E;Terminus Longueuil;rue d'Youville / route Marie-Victorin
44955741;"{\"type\":\"LineString\",\"coordinates\":[[-73.4259008,45.6712941],[-73.4259541,45.6714769],[-73.4261865,45.6723236],[-73.426216,45.6725415],[-73.4262318,45.672971],[-73.4262339,45.6730295],[-73.4262353,45.6730688],[-73.4262443,45.6736577]]}";1;Rue Jules-Phaneuf;1;50;false;false;true;false;false;false;132.5;0;0;0;0;0;false;70062;6133410486;-73.426163;45.673347;70066;6133409883;-73.430163;45.673769;1;12;13;9628441;Bus 721 : Direction Varennes;"";EXO;721 E;Terminus Longueuil;rue d'Youville / route Marie-Victorin
692633604;"{\"type\":\"LineString\",\"coordinates\":[[-73.4262443,45.6736577],[-73.4262483,45.6737634]]}";2;Rue Jules-Phaneuf;1;50;false;false;true;false;false;false;12.0;0;0;0;0;0;false;70062;6133410486;-73.426163;45.673347;70066;6133409883;-73.430163;45.673769;0;12;13;9628441;Bus 721 : Direction Varennes;"";EXO;721 E;Terminus Longueuil;rue d'Youville / route Marie-Victorin
44173594;"{\"type\":\"LineString\",\"coordinates\":[[-73.4262483,45.6737634],[-73.4281349,45.673731],[-73.4302648,45.6736609],[-73.4312391,45.6736621],[-73.4313442,45.6736777],[-73.4314037,45.673733],[-73.4318729,45.6745729],[-73.4326215,45.6758256],[-73.4328344,45.676189],[-73.4331446,45.6767185],[-73.4334511,45.6772416],[-73.4334858,45.6772874],[-73.4338716,45.677796],[-73.4342493,45.6781258],[-73.4351934,45.6788634],[-73.4358146,45.6793388],[-73.436039,45.6795844],[-73.4361249,45.6798542],[-73.4361204,45.6801107],[-73.4361099,45.680167],[-73.435935,45.6808509],[-73.4357851,45.6814539],[-73.4356887,45.6818441],[-73.4355963,45.6820758],[-73.4350647,45.6828272],[-73.4345886,45.6834054],[-73.4338805,45.68402],[-73.4336472,45.6842336],[-73.433513,45.6843535],[-73.4333387,45.6845915],[-73.4331134,45.6849475],[-73.4328961,45.6852211],[-73.4326199,45.685446],[-73.432298,45.6856277],[-73.4319305,45.6857551],[-73.4315738,45.6858432],[-73.4312573,45.6859519],[-73.4307328,45.6862844]]}";3;Boulevard René-Gaultier;1;50;false;true;false;false;false;false;1028.5;0;0;0;0;0;false;70062;6133410486;-73.426163;45.673347;70066;6133409883;-73.430163;45.673769;1;12;13;9628441;Bus 721 : Direction Varennes;"";EXO;721 E;Terminus Longueuil;rue d'Youville / route Marie-Victorin
692636169;"{\"type\":\"LineString\",\"coordinates\":[[-73.4308762,45.6863769],[-73.4307328,45.6862844]]}";1;Rue Quévillon;1;50;false;false;false;false;false;false;16.0;0;0;0;0;0;false;70120;6133409834;-73.430794;45.686132;70130;6133409824;-73.432786;45.68734;2;20;21;9628441;Bus 721 : Direction Varennes;"";EXO;721 E;Terminus Longueuil;rue d'Youville / route Marie-Victorin
692636171;"{\"type\":\"LineString\",\"coordinates\":[[-73.4329189,45.6873543],[-73.4319975,45.6869134],[-73.4318086,45.686823],[-73.4308762,45.6863769]]}";2;Rue Quévillon;2;50;false;false;false;false;false;false;193.0;1;0;0;0;0;false;70120;6133409834;-73.430794;45.686132;70130;6133409824;-73.432786;45.68734;2;20;21;9628441;Bus 721 : Direction Varennes;"";EXO;721 E;Terminus Longueuil;rue d'Youville / route Marie-Victorin
44208660;"{\"type\":\"LineString\",\"coordinates\":[[-73.4314876,45.6889338],[-73.4325691,45.6876927],[-73.4329189,45.6873543]]}";1;Rue Frontenac;1;50;false;false;true;false;false;false;208.0;0;0;0;0;0;false;70130;6133409824;-73.432786;45.68734;70142;6133409812;-73.432064;45.68934;2;21;22;9628441;Bus 721 : Direction Varennes;"";EXO;721 E;Terminus Longueuil;rue d'Youville / route Marie-Victorin
346609457;"{\"type\":\"LineString\",\"coordinates\":[[-73.435515,45.69074],[-73.4340014,45.6901477],[-73.4331677,45.6898191],[-73.4325949,45.6895934],[-73.4325307,45.6895477],[-73.4322233,45.689329],[-73.4321314,45.6892636],[-73.432026,45.6892096],[-73.4314876,45.6889338]]}";2;Rue Michel-Messier;1;50;false;false;true;false;false;false;374.0;0;0;0;0;0;false;70130;6133409824;-73.432786;45.68734;70142;6133409812;-73.432064;45.68934;2;21;22;9628441;Bus 721 : Direction Varennes;"";EXO;721 E;Terminus Longueuil;rue d'Youville / route Marie-Victorin
346609457;"{\"type\":\"LineString\",\"coordinates\":[[-73.435515,45.69074],[-73.4340014,45.6901477],[-73.4331677,45.6898191],[-73.4325949,45.6895934],[-73.4325307,45.6895477],[-73.4322233,45.689329],[-73.4321314,45.6892636],[-73.432026,45.6892096],[-73.4314876,45.6889338]]}";1;Rue Michel-Messier;1;50;false;false;true;false;false;false;187.0;0;0;0;0;0;false;70144;6133409810;-73.435242;45.69074;70132;6133409822;-73.437353;45.690442;1;23;24;9628441;Bus 721 : Direction Varennes;"";EXO;721 E;Terminus Longueuil;rue d'Youville / route Marie-Victorin
692633608;"{\"type\":\"LineString\",\"coordinates\":[[-73.4385437,45.6898993],[-73.438167,45.6901014],[-73.4377764,45.6902693],[-73.4374845,45.6903293],[-73.4370553,45.6903796],[-73.435515,45.69074]]}";2;Rue Sainte-Anne;2;50;false;false;true;false;false;false;128.5;0;0;0;0;0;false;70144;6133409810;-73.435242;45.69074;70132;6133409822;-73.437353;45.690442;1;23;24;9628441;Bus 721 : Direction Varennes;"";EXO;721 E;Terminus Longueuil;rue d'Youville / route Marie-Victorin
692633608;"{\"type\":\"LineString\",\"coordinates\":[[-73.4385437,45.6898993],[-73.438167,45.6901014],[-73.4377764,45.6902693],[-73.4374845,45.6903293],[-73.4370553,45.6903796],[-73.435515,45.69074]]}";1;Rue Sainte-Anne;2;50;false;false;true;false;false;false;128.5;0;0;0;0;0;false;70132;6133409822;-73.437353;45.690442;70138;6133409816;-73.439411;45.689456;1;24;25;9628441;Bus 721 : Direction Varennes;"";EXO;721 E;Terminus Longueuil;rue d'Youville / route Marie-Victorin
49156265;"{\"type\":\"LineString\",\"coordinates\":[[-73.4387298,45.6897925],[-73.4385437,45.6898993]]}";2;Rue Sainte-Anne;2;50;false;false;true;false;false;false;19.0;0;0;0;0;0;false;70132;6133409822;-73.437353;45.690442;70138;6133409816;-73.439411;45.689456;0;24;25;9628441;Bus 721 : Direction Varennes;"";EXO;721 E;Terminus Longueuil;rue d'Youville / route Marie-Victorin
44207782;"{\"type\":\"LineString\",\"coordinates\":[[-73.4427061,45.6846734],[-73.442171,45.6855223],[-73.4419023,45.6859618],[-73.4413238,45.6867813],[-73.4410234,45.6871711],[-73.4408248,45.687467],[-73.4406645,45.687693],[-73.4401947,45.6883582],[-73.4398475,45.6888619],[-73.4393687,45.6893398],[-73.4391595,45.6895032],[-73.4389694,45.6896518],[-73.4387298,45.6897925]]}";3;Rue Sainte-Anne;2;30;false;false;true;false;false;false;326.0;0;0;0;0;0;false;70132;6133409822;-73.437353;45.690442;70138;6133409816;-73.439411;45.689456;1;24;25;9628441;Bus 721 : Direction Varennes;"";EXO;721 E;Terminus Longueuil;rue d'Youville / route Marie-Victorin
