way_id;shape;index;name;nb_lanes;legal_speed;speed_zone_30;oneway;shares_bike;bike_box;bus_lane;dedicated_bus_lane;length;nb_traffic_signals;nb_crossings;nb_stops;nb_give_ways;nb_lvl_crossings;roundabout;stop_id_orig;node_id_orig;coord_x_orig;coord_y_orig;stop_id_dest;node_id_dest;coord_x_dest;coord_y_dest;nb_neighbouring_ways_bus_stop;ordre_orig;ordre_dest;id_line;line_name;colour;operator;ref;from;to
292376887;"{\"type\":\"LineString\",\"coordinates\":[[-73.748733,45.5685229],[-73.7487585,45.5685426],[-73.7488697,45.5685562],[-73.7489565,45.5685213],[-73.7489952,45.5684881],[-73.7490096,45.5684673]]}";1;"";1;50;false;true;true;false;false;false;27.0;0;0;0;0;0;false;"44912;44066;44060;44166;44142";6269509578;-73.74861;45.568569;43295;6269510013;-73.75101;45.567611;1;0;1;9312742;Bus : 66 O - Direction Sainte-Dorothée;"";STL;66O;Terminus Le Carrefour Quai:10;Saint-Martin / Des Pivoines
694409797;"{\"type\":\"LineString\",\"coordinates\":[[-73.7490096,45.5684673],[-73.7490126,45.5684462],[-73.7489983,45.5683885],[-73.7489373,45.5683504],[-73.7483699,45.5680109]]}";2;"";1;50;false;true;true;false;false;false;74.0;0;0;0;0;0;false;"44912;44066;44060;44166;44142";6269509578;-73.74861;45.568569;43295;6269510013;-73.75101;45.567611;0;0;1;9312742;Bus : 66 O - Direction Sainte-Dorothée;"";STL;66O;Terminus Le Carrefour Quai:10;Saint-Martin / Des Pivoines
292376885;"{\"type\":\"LineString\",\"coordinates\":[[-73.749603,45.5683977],[-73.7495387,45.5683559],[-73.7489277,45.5679595],[-73.7487689,45.5678968],[-73.7485697,45.5679009],[-73.7483699,45.5680109]]}";3;"";1;50;false;false;true;false;false;false;122.0;1;1;0;0;0;false;"44912;44066;44060;44166;44142";6269509578;-73.74861;45.568569;43295;6269510013;-73.75101;45.567611;0;0;1;9312742;Bus : 66 O - Direction Sainte-Dorothée;"";STL;66O;Terminus Le Carrefour Quai:10;Saint-Martin / Des Pivoines
684308380;"{\"type\":\"LineString\",\"coordinates\":[[-73.749708,45.568468],[-73.749603,45.5683977]]}";4;"";1;50;false;false;true;false;false;false;12.0;2;0;0;0;0;false;"44912;44066;44060;44166;44142";6269509578;-73.74861;45.568569;43295;6269510013;-73.75101;45.567611;0;0;1;9312742;Bus : 66 O - Direction Sainte-Dorothée;"";STL;66O;Terminus Le Carrefour Quai:10;Saint-Martin / Des Pivoines
653195069;"{\"type\":\"LineString\",\"coordinates\":[[-73.749708,45.568468],[-73.7498081,45.5684023],[-73.7513352,45.5673155],[-73.7520954,45.566766],[-73.7521982,45.5666917],[-73.7532667,45.565918]]}";5;Boulevard Le Carrefour;3;50;false;true;true;false;false;false;198.5;3;1;0;0;0;false;"44912;44066;44060;44166;44142";6269509578;-73.74861;45.568569;43295;6269510013;-73.75101;45.567611;1;0;1;9312742;Bus : 66 O - Direction Sainte-Dorothée;"";STL;66O;Terminus Le Carrefour Quai:10;Saint-Martin / Des Pivoines
653195069;"{\"type\":\"LineString\",\"coordinates\":[[-73.749708,45.568468],[-73.7498081,45.5684023],[-73.7513352,45.5673155],[-73.7520954,45.566766],[-73.7521982,45.5666917],[-73.7532667,45.565918]]}";1;Boulevard Le Carrefour;3;50;false;true;true;false;false;false;198.5;3;1;0;0;0;false;43295;6269510013;-73.75101;45.567611;41505;6269510072;-73.75327;45.56508;1;1;2;9312742;Bus : 66 O - Direction Sainte-Dorothée;"";STL;66O;Terminus Le Carrefour Quai:10;Saint-Martin / Des Pivoines
455472713;"{\"type\":\"LineString\",\"coordinates\":[[-73.7532667,45.565918],[-73.7535397,45.5657204]]}";2;Boulevard Le Carrefour;3;50;false;true;true;false;false;false;31.0;1;0;0;0;0;false;43295;6269510013;-73.75101;45.567611;41505;6269510072;-73.75327;45.56508;0;1;2;9312742;Bus : 66 O - Direction Sainte-Dorothée;"";STL;66O;Terminus Le Carrefour Quai:10;Saint-Martin / Des Pivoines
455472712;"{\"type\":\"LineString\",\"coordinates\":[[-73.7535397,45.5657204],[-73.7537138,45.5655915]]}";3;Boulevard Le Carrefour;3;50;false;true;true;false;false;false;20.0;2;0;0;0;0;false;43295;6269510013;-73.75101;45.567611;41505;6269510072;-73.75327;45.56508;0;1;2;9312742;Bus : 66 O - Direction Sainte-Dorothée;"";STL;66O;Terminus Le Carrefour Quai:10;Saint-Martin / Des Pivoines
684308398;"{\"type\":\"LineString\",\"coordinates\":[[-73.7537138,45.5655915],[-73.7535894,45.5654874]]}";4;Boulevard Daniel-Johnson;2;60;false;true;false;false;false;false;16.0;2;0;0;0;0;false;43295;6269510013;-73.75101;45.567611;41505;6269510072;-73.75327;45.56508;0;1;2;9312742;Bus : 66 O - Direction Sainte-Dorothée;"";STL;66O;Terminus Le Carrefour Quai:10;Saint-Martin / Des Pivoines
455472705;"{\"type\":\"LineString\",\"coordinates\":[[-73.7535894,45.5654874],[-73.7532623,45.5652009]]}";5;Boulevard Daniel-Johnson;2;60;false;true;false;false;false;false;41.0;1;0;0;0;0;false;43295;6269510013;-73.75101;45.567611;41505;6269510072;-73.75327;45.56508;0;1;2;9312742;Bus : 66 O - Direction Sainte-Dorothée;"";STL;66O;Terminus Le Carrefour Quai:10;Saint-Martin / Des Pivoines
455472702;"{\"type\":\"LineString\",\"coordinates\":[[-73.7532623,45.5652009],[-73.753183,45.5651319],[-73.7522221,45.5642835],[-73.7512843,45.5634556]]}";6;Boulevard Daniel-Johnson;2;60;false;true;false;false;false;false;124.0;0;0;0;0;0;false;43295;6269510013;-73.75101;45.567611;41505;6269510072;-73.75327;45.56508;1;1;2;9312742;Bus : 66 O - Direction Sainte-Dorothée;"";STL;66O;Terminus Le Carrefour Quai:10;Saint-Martin / Des Pivoines
455472705;"{\"type\":\"LineString\",\"coordinates\":[[-73.7535894,45.5654874],[-73.7532623,45.5652009]]}";1;Boulevard Daniel-Johnson;2;60;false;true;false;false;false;false;41.0;1;0;0;0;0;false;41505;6269510072;-73.75327;45.56508;41502;6269508869;-73.75111;45.56317;2;2;3;9312742;Bus : 66 O - Direction Sainte-Dorothée;"";STL;66O;Terminus Le Carrefour Quai:10;Saint-Martin / Des Pivoines
455472702;"{\"type\":\"LineString\",\"coordinates\":[[-73.7532623,45.5652009],[-73.753183,45.5651319],[-73.7522221,45.5642835],[-73.7512843,45.5634556]]}";2;Boulevard Daniel-Johnson;2;60;false;true;false;false;false;false;248.0;0;0;0;0;0;false;41505;6269510072;-73.75327;45.56508;41502;6269508869;-73.75111;45.56317;0;2;3;9312742;Bus : 66 O - Direction Sainte-Dorothée;"";STL;66O;Terminus Le Carrefour Quai:10;Saint-Martin / Des Pivoines
45827990;"{\"type\":\"LineString\",\"coordinates\":[[-73.7512843,45.5634556],[-73.7500053,45.5623481],[-73.7499326,45.5622851],[-73.7487521,45.5612647]]}";3;Boulevard Daniel-Johnson;2;60;false;true;false;false;false;false;314.0;1;0;0;0;0;false;41505;6269510072;-73.75327;45.56508;41502;6269508869;-73.75111;45.56317;2;2;3;9312742;Bus : 66 O - Direction Sainte-Dorothée;"";STL;66O;Terminus Le Carrefour Quai:10;Saint-Martin / Des Pivoines
45827990;"{\"type\":\"LineString\",\"coordinates\":[[-73.7512843,45.5634556],[-73.7500053,45.5623481],[-73.7499326,45.5622851],[-73.7487521,45.5612647]]}";1;Boulevard Daniel-Johnson;2;60;false;true;false;false;false;false;157.0;1;0;0;0;0;false;41502;6269508869;-73.75111;45.56317;45058;6269510279;-73.74861;45.560958;1;3;4;9312742;Bus : 66 O - Direction Sainte-Dorothée;"";STL;66O;Terminus Le Carrefour Quai:10;Saint-Martin / Des Pivoines
45755835;"{\"type\":\"LineString\",\"coordinates\":[[-73.7487521,45.5612647],[-73.7469082,45.5596365],[-73.7457327,45.5585996]]}";2;Boulevard Daniel-Johnson;2;60;false;true;false;false;false;false;189.5;2;0;0;0;0;false;41502;6269508869;-73.75111;45.56317;45058;6269510279;-73.74861;45.560958;1;3;4;9312742;Bus : 66 O - Direction Sainte-Dorothée;"";STL;66O;Terminus Le Carrefour Quai:10;Saint-Martin / Des Pivoines
45755835;"{\"type\":\"LineString\",\"coordinates\":[[-73.7487521,45.5612647],[-73.7469082,45.5596365],[-73.7457327,45.5585996]]}";1;Boulevard Daniel-Johnson;2;60;false;true;false;false;false;false;189.5;2;0;0;0;0;false;41508;6269510318;-73.74674;45.559357;42826;6269510370;-73.74684;45.557767;1;5;6;9312742;Bus : 66 O - Direction Sainte-Dorothée;"";STL;66O;Terminus Le Carrefour Quai:10;Saint-Martin / Des Pivoines
684761980;"{\"type\":\"LineString\",\"coordinates\":[[-73.7457327,45.5585996],[-73.7457021,45.5585418],[-73.7456772,45.5584348],[-73.7456873,45.5583498],[-73.7457624,45.5582597],[-73.7458588,45.5581788]]}";2;"";1;50;false;false;true;false;false;false;52.0;0;0;0;0;0;false;41508;6269510318;-73.74674;45.559357;42826;6269510370;-73.74684;45.557767;0;5;6;9312742;Bus : 66 O - Direction Sainte-Dorothée;"";STL;66O;Terminus Le Carrefour Quai:10;Saint-Martin / Des Pivoines
452035707;"{\"type\":\"LineString\",\"coordinates\":[[-73.7458588,45.5581788],[-73.7460102,45.5580909],[-73.7470912,45.5575781],[-73.7479032,45.557193]]}";3;Boulevard Saint-Martin Ouest;3;60;false;true;false;false;false;false;97.0;1;0;0;0;0;false;41508;6269510318;-73.74674;45.559357;42826;6269510370;-73.74684;45.557767;1;5;6;9312742;Bus : 66 O - Direction Sainte-Dorothée;"";STL;66O;Terminus Le Carrefour Quai:10;Saint-Martin / Des Pivoines
452035707;"{\"type\":\"LineString\",\"coordinates\":[[-73.7458588,45.5581788],[-73.7460102,45.5580909],[-73.7470912,45.5575781],[-73.7479032,45.557193]]}";1;Boulevard Saint-Martin Ouest;3;60;false;true;false;false;false;false;97.0;1;0;0;0;0;false;42826;6269510370;-73.74684;45.557767;46633;6269510535;-73.75027;45.554858;1;6;7;9312742;Bus : 66 O - Direction Sainte-Dorothée;"";STL;66O;Terminus Le Carrefour Quai:10;Saint-Martin / Des Pivoines
452035704;"{\"type\":\"LineString\",\"coordinates\":[[-73.7479032,45.557193],[-73.7491817,45.5565821],[-73.7505703,45.5559187]]}";2;Boulevard Saint-Martin Ouest;3;60;false;true;false;false;false;false;252.0;1;0;0;0;0;false;42826;6269510370;-73.74684;45.557767;46633;6269510535;-73.75027;45.554858;0;6;7;9312742;Bus : 66 O - Direction Sainte-Dorothée;"";STL;66O;Terminus Le Carrefour Quai:10;Saint-Martin / Des Pivoines
452029942;"{\"type\":\"LineString\",\"coordinates\":[[-73.7505703,45.5559187],[-73.7509394,45.5557775]]}";3;Boulevard Saint-Martin Ouest;3;60;false;true;false;false;false;false;33.0;1;0;0;0;0;false;42826;6269510370;-73.74684;45.557767;46633;6269510535;-73.75027;45.554858;0;6;7;9312742;Bus : 66 O - Direction Sainte-Dorothée;"";STL;66O;Terminus Le Carrefour Quai:10;Saint-Martin / Des Pivoines
452029943;"{\"type\":\"LineString\",\"coordinates\":[[-73.7509394,45.5557775],[-73.7510888,45.5557212]]}";4;Boulevard Saint-Martin Ouest;3;60;false;true;false;false;false;false;14.0;2;0;0;0;0;false;42826;6269510370;-73.74684;45.557767;46633;6269510535;-73.75027;45.554858;0;6;7;9312742;Bus : 66 O - Direction Sainte-Dorothée;"";STL;66O;Terminus Le Carrefour Quai:10;Saint-Martin / Des Pivoines
45286132;"{\"type\":\"LineString\",\"coordinates\":[[-73.7510888,45.5557212],[-73.7509739,45.5556057]]}";5;Boulevard Chomedey;2;60;false;true;false;false;false;false;16.0;2;0;0;0;0;false;42826;6269510370;-73.74684;45.557767;46633;6269510535;-73.75027;45.554858;0;6;7;9312742;Bus : 66 O - Direction Sainte-Dorothée;"";STL;66O;Terminus Le Carrefour Quai:10;Saint-Martin / Des Pivoines
45799067;"{\"type\":\"LineString\",\"coordinates\":[[-73.7509739,45.5556057],[-73.7505877,45.5552613]]}";6;Boulevard Chomedey;2;60;false;true;false;false;false;false;49.0;1;0;0;0;0;false;42826;6269510370;-73.74684;45.557767;46633;6269510535;-73.75027;45.554858;0;6;7;9312742;Bus : 66 O - Direction Sainte-Dorothée;"";STL;66O;Terminus Le Carrefour Quai:10;Saint-Martin / Des Pivoines
680568194;"{\"type\":\"LineString\",\"coordinates\":[[-73.7505877,45.5552613],[-73.7505364,45.5552153]]}";7;Boulevard Chomedey;2;60;false;true;false;false;false;false;7.0;0;0;0;0;0;false;42826;6269510370;-73.74684;45.557767;46633;6269510535;-73.75027;45.554858;0;6;7;9312742;Bus : 66 O - Direction Sainte-Dorothée;"";STL;66O;Terminus Le Carrefour Quai:10;Saint-Martin / Des Pivoines
45755786;"{\"type\":\"LineString\",\"coordinates\":[[-73.7505364,45.5552153],[-73.7504827,45.5551664],[-73.7498611,45.5546004],[-73.7490402,45.5538529],[-73.7487154,45.5535572]]}";8;Boulevard Chomedey;2;60;false;true;false;false;false;false;116.5;2;0;0;0;0;false;42826;6269510370;-73.74684;45.557767;46633;6269510535;-73.75027;45.554858;1;6;7;9312742;Bus : 66 O - Direction Sainte-Dorothée;"";STL;66O;Terminus Le Carrefour Quai:10;Saint-Martin / Des Pivoines
45755786;"{\"type\":\"LineString\",\"coordinates\":[[-73.7505364,45.5552153],[-73.7504827,45.5551664],[-73.7498611,45.5546004],[-73.7490402,45.5538529],[-73.7487154,45.5535572]]}";1;Boulevard Chomedey;2;60;false;true;false;false;false;false;116.5;2;0;0;0;0;false;41290;6269510524;-73.74894;45.55365;41288;6269510611;-73.74556;45.550886;1;8;9;9312742;Bus : 66 O - Direction Sainte-Dorothée;"";STL;66O;Terminus Le Carrefour Quai:10;Saint-Martin / Des Pivoines
45755794;"{\"type\":\"LineString\",\"coordinates\":[[-73.7487154,45.5535572],[-73.7479035,45.5528899],[-73.7467887,45.5520509]]}";2;Boulevard Chomedey;2;60;false;true;false;false;false;false;225.0;1;0;0;0;0;false;41290;6269510524;-73.74894;45.55365;41288;6269510611;-73.74556;45.550886;0;8;9;9312742;Bus : 66 O - Direction Sainte-Dorothée;"";STL;66O;Terminus Le Carrefour Quai:10;Saint-Martin / Des Pivoines
45755818;"{\"type\":\"LineString\",\"coordinates\":[[-73.7467887,45.5520509],[-73.7461342,45.5515217]]}";3;Boulevard Chomedey;2;60;false;true;false;false;false;false;78.0;1;0;0;0;0;false;41290;6269510524;-73.74894;45.55365;41288;6269510611;-73.74556;45.550886;0;8;9;9312742;Bus : 66 O - Direction Sainte-Dorothée;"";STL;66O;Terminus Le Carrefour Quai:10;Saint-Martin / Des Pivoines
45755817;"{\"type\":\"LineString\",\"coordinates\":[[-73.7461342,45.5515217],[-73.7460213,45.5514124]]}";4;Boulevard Chomedey;2;50;false;true;false;false;false;false;15.0;2;0;0;0;0;false;41290;6269510524;-73.74894;45.55365;41288;6269510611;-73.74556;45.550886;0;8;9;9312742;Bus : 66 O - Direction Sainte-Dorothée;"";STL;66O;Terminus Le Carrefour Quai:10;Saint-Martin / Des Pivoines
45755813;"{\"type\":\"LineString\",\"coordinates\":[[-73.7460213,45.5514124],[-73.7457326,45.5511482]]}";5;Boulevard Chomedey;2;60;false;true;false;false;false;false;37.0;1;0;0;0;0;false;41290;6269510524;-73.74894;45.55365;41288;6269510611;-73.74556;45.550886;0;8;9;9312742;Bus : 66 O - Direction Sainte-Dorothée;"";STL;66O;Terminus Le Carrefour Quai:10;Saint-Martin / Des Pivoines
45755743;"{\"type\":\"LineString\",\"coordinates\":[[-73.7457326,45.5511482],[-73.7453592,45.5508141],[-73.744915,45.5504166],[-73.7443885,45.5499453],[-73.7436401,45.5492307],[-73.7434978,45.5490984]]}";6;Boulevard Chomedey;2;60;false;true;false;false;false;false;143.5;0;0;0;0;0;false;41290;6269510524;-73.74894;45.55365;41288;6269510611;-73.74556;45.550886;1;8;9;9312742;Bus : 66 O - Direction Sainte-Dorothée;"";STL;66O;Terminus Le Carrefour Quai:10;Saint-Martin / Des Pivoines
45755751;"{\"type\":\"LineString\",\"coordinates\":[[-73.7434978,45.5490984],[-73.7430962,45.5487249]]}";1;Boulevard Chomedey;2;60;false;true;false;false;false;false;52.0;0;0;0;0;0;false;41286;6269510637;-73.74365;45.549162;41284;6269510667;-73.74167;45.547169;2;10;11;9312742;Bus : 66 O - Direction Sainte-Dorothée;"";STL;66O;Terminus Le Carrefour Quai:10;Saint-Martin / Des Pivoines
45601010;"{\"type\":\"LineString\",\"coordinates\":[[-73.7430962,45.5487249],[-73.7426062,45.5482317],[-73.7415176,45.5471324]]}";2;Boulevard Chomedey;2;60;false;true;false;false;false;false;216.0;1;0;0;0;0;false;41286;6269510637;-73.74365;45.549162;41284;6269510667;-73.74167;45.547169;2;10;11;9312742;Bus : 66 O - Direction Sainte-Dorothée;"";STL;66O;Terminus Le Carrefour Quai:10;Saint-Martin / Des Pivoines
45600941;"{\"type\":\"LineString\",\"coordinates\":[[-73.7396894,45.5446729],[-73.7392136,45.5441816]]}";1;Boulevard Chomedey;2;60;false;true;false;false;false;false;66.0;1;0;0;0;0;false;41302;6269510696;-73.7398;45.544653;42480;6269510713;-73.74102;45.543553;2;12;13;9312742;Bus : 66 O - Direction Sainte-Dorothée;"";STL;66O;Terminus Le Carrefour Quai:10;Saint-Martin / Des Pivoines
45601072;"{\"type\":\"LineString\",\"coordinates\":[[-73.7392136,45.5441816],[-73.7398332,45.5439724]]}";2;Boulevard Notre-Dame;2;50;false;true;false;false;false;false;54.0;1;0;0;0;0;false;41302;6269510696;-73.7398;45.544653;42480;6269510713;-73.74102;45.543553;0;12;13;9312742;Bus : 66 O - Direction Sainte-Dorothée;"";STL;66O;Terminus Le Carrefour Quai:10;Saint-Martin / Des Pivoines
45601108;"{\"type\":\"LineString\",\"coordinates\":[[-73.7398332,45.5439724],[-73.740596,45.5436847]]}";3;Boulevard Notre-Dame;2;50;false;true;false;false;false;false;68.0;0;0;0;0;0;false;41302;6269510696;-73.7398;45.544653;42480;6269510713;-73.74102;45.543553;0;12;13;9312742;Bus : 66 O - Direction Sainte-Dorothée;"";STL;66O;Terminus Le Carrefour Quai:10;Saint-Martin / Des Pivoines
638151392;"{\"type\":\"LineString\",\"coordinates\":[[-73.740596,45.5436847],[-73.7411259,45.5434658]]}";4;Boulevard Notre-Dame;2;50;false;true;false;false;false;false;48.0;0;0;0;0;0;false;41302;6269510696;-73.7398;45.544653;42480;6269510713;-73.74102;45.543553;2;12;13;9312742;Bus : 66 O - Direction Sainte-Dorothée;"";STL;66O;Terminus Le Carrefour Quai:10;Saint-Martin / Des Pivoines
45600972;"{\"type\":\"LineString\",\"coordinates\":[[-73.7411259,45.5434658],[-73.7415568,45.543303],[-73.7416907,45.5432191]]}";1;Boulevard Notre-Dame;2;50;false;true;false;false;false;false;53.0;0;0;0;0;0;false;42480;6269510713;-73.74102;45.543553;42511;6269510719;-73.74392;45.542537;2;13;14;9312742;Bus : 66 O - Direction Sainte-Dorothée;"";STL;66O;Terminus Le Carrefour Quai:10;Saint-Martin / Des Pivoines
45600901;"{\"type\":\"LineString\",\"coordinates\":[[-73.7427076,45.5428884],[-73.7416907,45.5432191]]}";2;Boulevard Notre-Dame;2;50;false;false;true;false;false;false;88.0;0;0;0;0;0;false;42480;6269510713;-73.74102;45.543553;42511;6269510719;-73.74392;45.542537;0;13;14;9312742;Bus : 66 O - Direction Sainte-Dorothée;"";STL;66O;Terminus Le Carrefour Quai:10;Saint-Martin / Des Pivoines
45600905;"{\"type\":\"LineString\",\"coordinates\":[[-73.7440281,45.542459],[-73.7430333,45.5427825],[-73.7427076,45.5428884]]}";3;Boulevard Notre-Dame;2;50;false;false;true;false;false;false;114.0;0;0;0;0;0;false;42480;6269510713;-73.74102;45.543553;42511;6269510719;-73.74392;45.542537;2;13;14;9312742;Bus : 66 O - Direction Sainte-Dorothée;"";STL;66O;Terminus Le Carrefour Quai:10;Saint-Martin / Des Pivoines
45601058;"{\"type\":\"LineString\",\"coordinates\":[[-73.7446208,45.5422663],[-73.7440281,45.542459]]}";1;Boulevard Notre-Dame;2;50;false;false;true;false;false;false;51.0;0;0;0;0;0;false;42511;6269510719;-73.74392;45.542537;42513;6269510209;-73.74528;45.542086;2;14;15;9312742;Bus : 66 O - Direction Sainte-Dorothée;"";STL;66O;Terminus Le Carrefour Quai:10;Saint-Martin / Des Pivoines
45600969;"{\"type\":\"LineString\",\"coordinates\":[[-73.7454527,45.5419958],[-73.745002,45.5421423],[-73.7446208,45.5422663]]}";2;Boulevard Notre-Dame;2;50;false;false;true;false;false;false;72.0;0;0;0;0;0;false;42511;6269510719;-73.74392;45.542537;42513;6269510209;-73.74528;45.542086;2;14;15;9312742;Bus : 66 O - Direction Sainte-Dorothée;"";STL;66O;Terminus Le Carrefour Quai:10;Saint-Martin / Des Pivoines
45601067;"{\"type\":\"LineString\",\"coordinates\":[[-73.7457905,45.5418859],[-73.7454527,45.5419958]]}";1;Boulevard Notre-Dame;2;50;false;false;true;false;false;false;30.0;0;0;0;0;0;false;42513;6269510209;-73.74528;45.542086;42516;6269510739;-73.74835;45.541215;2;15;16;9312742;Bus : 66 O - Direction Sainte-Dorothée;"";STL;66O;Terminus Le Carrefour Quai:10;Saint-Martin / Des Pivoines
45600868;"{\"type\":\"LineString\",\"coordinates\":[[-73.7467528,45.541573],[-73.7463569,45.5417017],[-73.7457905,45.5418859]]}";2;Boulevard Notre-Dame;2;50;false;false;true;false;false;false;83.0;0;0;0;0;0;false;42513;6269510209;-73.74528;45.542086;42516;6269510739;-73.74835;45.541215;0;15;16;9312742;Bus : 66 O - Direction Sainte-Dorothée;"";STL;66O;Terminus Le Carrefour Quai:10;Saint-Martin / Des Pivoines
45600849;"{\"type\":\"LineString\",\"coordinates\":[[-73.7468845,45.541535],[-73.7467528,45.541573]]}";3;Boulevard Notre-Dame;2;50;false;false;true;false;false;false;12.0;0;0;0;0;0;false;42513;6269510209;-73.74528;45.542086;42516;6269510739;-73.74835;45.541215;0;15;16;9312742;Bus : 66 O - Direction Sainte-Dorothée;"";STL;66O;Terminus Le Carrefour Quai:10;Saint-Martin / Des Pivoines
45601040;"{\"type\":\"LineString\",\"coordinates\":[[-73.7484502,45.5410837],[-73.7477636,45.5412816],[-73.7468845,45.541535]]}";4;Boulevard Notre-Dame;2;50;false;false;true;false;false;false;133.0;1;0;0;0;0;false;42513;6269510209;-73.74528;45.542086;42516;6269510739;-73.74835;45.541215;2;15;16;9312742;Bus : 66 O - Direction Sainte-Dorothée;"";STL;66O;Terminus Le Carrefour Quai:10;Saint-Martin / Des Pivoines
669689625;"{\"type\":\"LineString\",\"coordinates\":[[-73.7485747,45.5410328],[-73.7484502,45.5410837]]}";1;Boulevard Notre-Dame;2;50;false;false;true;false;false;false;12.0;2;0;0;0;0;false;42516;6269510739;-73.74835;45.541215;42482;6269510756;-73.74917;45.540818;2;16;17;9312742;Bus : 66 O - Direction Sainte-Dorothée;"";STL;66O;Terminus Le Carrefour Quai:10;Saint-Martin / Des Pivoines
46110176;"{\"type\":\"LineString\",\"coordinates\":[[-73.7502075,45.5401309],[-73.7500967,45.5401917],[-73.7499417,45.5402767],[-73.7495199,45.5405081],[-73.7485747,45.5410328]]}";2;Boulevard Notre-Dame;2;50;false;false;true;false;false;false;163.0;1;0;0;0;0;false;42516;6269510739;-73.74835;45.541215;42482;6269510756;-73.74917;45.540818;2;16;17;9312742;Bus : 66 O - Direction Sainte-Dorothée;"";STL;66O;Terminus Le Carrefour Quai:10;Saint-Martin / Des Pivoines
46110176;"{\"type\":\"LineString\",\"coordinates\":[[-73.7502075,45.5401309],[-73.7500967,45.5401917],[-73.7499417,45.5402767],[-73.7495199,45.5405081],[-73.7485747,45.5410328]]}";1;Boulevard Notre-Dame;2;50;false;false;true;false;false;false;81.5;1;0;0;0;0;false;42482;6269510756;-73.74917;45.540818;42484;6269510770;-73.75102;45.539734;1;17;18;9312742;Bus : 66 O - Direction Sainte-Dorothée;"";STL;66O;Terminus Le Carrefour Quai:10;Saint-Martin / Des Pivoines
45601131;"{\"type\":\"LineString\",\"coordinates\":[[-73.7502075,45.5401309],[-73.7505795,45.5399553],[-73.7506892,45.5398908],[-73.7510965,45.5395933],[-73.7515301,45.5392673],[-73.7516253,45.5391875],[-73.7517471,45.539142],[-73.7520081,45.5390835],[-73.7524639,45.5389889],[-73.7525471,45.5389709]]}";2;Boulevard Notre-Dame;2;50;false;true;true;false;false;false;115.0;0;1;0;0;0;false;42482;6269510756;-73.74917;45.540818;42484;6269510770;-73.75102;45.539734;1;17;18;9312742;Bus : 66 O - Direction Sainte-Dorothée;"";STL;66O;Terminus Le Carrefour Quai:10;Saint-Martin / Des Pivoines
45592646;"{\"type\":\"LineString\",\"coordinates\":[[-73.7525471,45.5389709],[-73.7526248,45.5389559],[-73.7532385,45.5388329],[-73.7558552,45.5382973],[-73.7569752,45.5380677],[-73.7579785,45.5378621],[-73.7591256,45.5376271],[-73.7603873,45.5373685]]}";1;Boulevard Notre-Dame;2;50;false;true;true;false;false;false;319.0;0;1;0;0;0;false;42493;6269510818;-73.75903;45.5377;42495;6269510830;-73.76274;45.536927;1;22;23;9312742;Bus : 66 O - Direction Sainte-Dorothée;"";STL;66O;Terminus Le Carrefour Quai:10;Saint-Martin / Des Pivoines
604533636;"{\"type\":\"LineString\",\"coordinates\":[[-73.7603873,45.5373685],[-73.7630074,45.5368316]]}";2;Boulevard Notre-Dame;2;50;false;true;true;false;false;false;106.5;0;0;0;0;0;false;42493;6269510818;-73.75903;45.5377;42495;6269510830;-73.76274;45.536927;1;22;23;9312742;Bus : 66 O - Direction Sainte-Dorothée;"";STL;66O;Terminus Le Carrefour Quai:10;Saint-Martin / Des Pivoines
604533636;"{\"type\":\"LineString\",\"coordinates\":[[-73.7603873,45.5373685],[-73.7630074,45.5368316]]}";1;Boulevard Notre-Dame;2;50;false;true;true;false;false;false;106.5;0;0;0;0;0;false;42495;6269510830;-73.76274;45.536927;41057;6269510842;-73.765;45.535968;1;23;24;9312742;Bus : 66 O - Direction Sainte-Dorothée;"";STL;66O;Terminus Le Carrefour Quai:10;Saint-Martin / Des Pivoines
604533637;"{\"type\":\"LineString\",\"coordinates\":[[-73.7630074,45.5368316],[-73.7649902,45.5364252]]}";2;Boulevard Notre-Dame;2;50;false;true;true;false;false;false;162.0;1;0;0;0;0;false;42495;6269510830;-73.76274;45.536927;41057;6269510842;-73.765;45.535968;0;23;24;9312742;Bus : 66 O - Direction Sainte-Dorothée;"";STL;66O;Terminus Le Carrefour Quai:10;Saint-Martin / Des Pivoines
45592509;"{\"type\":\"LineString\",\"coordinates\":[[-73.7649902,45.5364252],[-73.7651262,45.5363849]]}";3;Boulevard Notre-Dame;2;50;false;true;true;false;false;false;12.0;2;0;0;0;0;false;42495;6269510830;-73.76274;45.536927;41057;6269510842;-73.765;45.535968;0;23;24;9312742;Bus : 66 O - Direction Sainte-Dorothée;"";STL;66O;Terminus Le Carrefour Quai:10;Saint-Martin / Des Pivoines
684761972;"{\"type\":\"LineString\",\"coordinates\":[[-73.7651262,45.5363849],[-73.7650075,45.5362906]]}";4;100e Avenue;2;50;false;true;true;false;false;false;14.0;2;0;0;0;0;false;42495;6269510830;-73.76274;45.536927;41057;6269510842;-73.765;45.535968;0;23;24;9312742;Bus : 66 O - Direction Sainte-Dorothée;"";STL;66O;Terminus Le Carrefour Quai:10;Saint-Martin / Des Pivoines
45592609;"{\"type\":\"LineString\",\"coordinates\":[[-73.7631077,45.5318905],[-73.7633171,45.5322063],[-73.7635846,45.5324795],[-73.7643566,45.5332233],[-73.7644356,45.5333866],[-73.7644353,45.5335343],[-73.7643698,45.5339251],[-73.7642645,45.5344469],[-73.7643101,45.5345725],[-73.7647264,45.5356542],[-73.7650075,45.5362906]]}";5;100e Avenue;2;50;false;false;true;false;false;false;264.5;1;0;0;0;0;false;42495;6269510830;-73.76274;45.536927;41057;6269510842;-73.765;45.535968;1;23;24;9312742;Bus : 66 O - Direction Sainte-Dorothée;"";STL;66O;Terminus Le Carrefour Quai:10;Saint-Martin / Des Pivoines
45568232;"{\"type\":\"LineString\",\"coordinates\":[[-73.7595263,45.5283437],[-73.7598527,45.5286669],[-73.7599385,45.5287519],[-73.7601631,45.5289744],[-73.7603921,45.5292011],[-73.7614089,45.5302081],[-73.7619259,45.5307201],[-73.762417,45.5312065],[-73.7629088,45.5316936],[-73.7631077,45.5318905]]}";1;100e Avenue;2;50;false;false;true;false;false;false;241.5;0;0;0;0;0;false;41058;6269511053;-73.75979;45.5285;43047;6269511068;-73.76255;45.527668;1;28;29;9312742;Bus : 66 O - Direction Sainte-Dorothée;"";STL;66O;Terminus Le Carrefour Quai:10;Saint-Martin / Des Pivoines
684761968;"{\"type\":\"LineString\",\"coordinates\":[[-73.7595263,45.5283437],[-73.7605499,45.5280781],[-73.7612834,45.5279038],[-73.7626116,45.5275881],[-73.7633702,45.5273616],[-73.7645403,45.5268927],[-73.7649083,45.5268026],[-73.7649273,45.5267979],[-73.7653563,45.5267097],[-73.7658027,45.5266453],[-73.7662435,45.5266052],[-73.7685798,45.5264073],[-73.7695868,45.526322],[-73.77139,45.52613],[-73.7717583,45.526096],[-73.772008,45.5260662],[-73.7723137,45.5260081],[-73.7726296,45.5259255],[-73.7729546,45.525823],[-73.7732319,45.5257226],[-73.7733231,45.5256927]]}";2;Boulevard Samson;3;50;false;true;true;false;false;false;563.5;2;0;0;0;0;false;41058;6269511053;-73.75979;45.5285;43047;6269511068;-73.76255;45.527668;1;28;29;9312742;Bus : 66 O - Direction Sainte-Dorothée;"";STL;66O;Terminus Le Carrefour Quai:10;Saint-Martin / Des Pivoines
684761968;"{\"type\":\"LineString\",\"coordinates\":[[-73.7595263,45.5283437],[-73.7605499,45.5280781],[-73.7612834,45.5279038],[-73.7626116,45.5275881],[-73.7633702,45.5273616],[-73.7645403,45.5268927],[-73.7649083,45.5268026],[-73.7649273,45.5267979],[-73.7653563,45.5267097],[-73.7658027,45.5266453],[-73.7662435,45.5266052],[-73.7685798,45.5264073],[-73.7695868,45.526322],[-73.77139,45.52613],[-73.7717583,45.526096],[-73.772008,45.5260662],[-73.7723137,45.5260081],[-73.7726296,45.5259255],[-73.7729546,45.525823],[-73.7732319,45.5257226],[-73.7733231,45.5256927]]}";1;Boulevard Samson;3;50;false;true;true;false;false;false;563.5;2;0;0;0;0;false;43038;6269511908;-73.77317;45.525843;43033;6269511960;-73.7812;45.522953;1;33;34;9312742;Bus : 66 O - Direction Sainte-Dorothée;"";STL;66O;Terminus Le Carrefour Quai:10;Saint-Martin / Des Pivoines
94780892;"{\"type\":\"LineString\",\"coordinates\":[[-73.7733231,45.5256927],[-73.7735222,45.5256204],[-73.7736671,45.5255677],[-73.773989,45.5254507],[-73.7753036,45.524973],[-73.7766339,45.5244895]]}";2;Boulevard Samson;3;50;false;true;false;false;false;false;291.0;1;0;0;0;0;false;43038;6269511908;-73.77317;45.525843;43033;6269511960;-73.7812;45.522953;0;33;34;9312742;Bus : 66 O - Direction Sainte-Dorothée;"";STL;66O;Terminus Le Carrefour Quai:10;Saint-Martin / Des Pivoines
38795784;"{\"type\":\"LineString\",\"coordinates\":[[-73.7766339,45.5244895],[-73.7781359,45.5239603]]}";3;Boulevard Samson;3;50;false;true;false;false;false;false;132.0;0;0;0;0;0;false;43038;6269511908;-73.77317;45.525843;43033;6269511960;-73.7812;45.522953;0;33;34;9312742;Bus : 66 O - Direction Sainte-Dorothée;"";STL;66O;Terminus Le Carrefour Quai:10;Saint-Martin / Des Pivoines
455241088;"{\"type\":\"LineString\",\"coordinates\":[[-73.7781359,45.5239603],[-73.7794577,45.5234913]]}";4;Boulevard Samson;3;50;false;true;false;false;false;false;116.0;0;0;0;0;0;false;43038;6269511908;-73.77317;45.525843;43033;6269511960;-73.7812;45.522953;0;33;34;9312742;Bus : 66 O - Direction Sainte-Dorothée;"";STL;66O;Terminus Le Carrefour Quai:10;Saint-Martin / Des Pivoines
38795783;"{\"type\":\"LineString\",\"coordinates\":[[-73.7794577,45.5234913],[-73.7814773,45.5227393],[-73.7819037,45.5225986]]}";5;Boulevard Samson;3;50;false;true;false;false;false;false;108.0;1;0;0;0;0;false;43038;6269511908;-73.77317;45.525843;43033;6269511960;-73.7812;45.522953;1;33;34;9312742;Bus : 66 O - Direction Sainte-Dorothée;"";STL;66O;Terminus Le Carrefour Quai:10;Saint-Martin / Des Pivoines
38795783;"{\"type\":\"LineString\",\"coordinates\":[[-73.7794577,45.5234913],[-73.7814773,45.5227393],[-73.7819037,45.5225986]]}";1;Boulevard Samson;3;50;false;true;false;false;false;false;108.0;1;0;0;0;0;false;43033;6269511960;-73.7812;45.522953;45008;6269511965;-73.7843;45.522316;1;34;35;9312742;Bus : 66 O - Direction Sainte-Dorothée;"";STL;66O;Terminus Le Carrefour Quai:10;Saint-Martin / Des Pivoines
455241729;"{\"type\":\"LineString\",\"coordinates\":[[-73.7819037,45.5225986],[-73.7822706,45.5224973]]}";2;Boulevard Samson;3;50;false;true;true;false;false;false;31.0;1;0;0;0;0;false;43033;6269511960;-73.7812;45.522953;45008;6269511965;-73.7843;45.522316;0;34;35;9312742;Bus : 66 O - Direction Sainte-Dorothée;"";STL;66O;Terminus Le Carrefour Quai:10;Saint-Martin / Des Pivoines
94780820;"{\"type\":\"LineString\",\"coordinates\":[[-73.7822706,45.5224973],[-73.7824914,45.5224527],[-73.7825978,45.5224312],[-73.7831481,45.52232],[-73.783695,45.5222757],[-73.7875592,45.5220354],[-73.7897236,45.5219189],[-73.7904071,45.5218729],[-73.7911267,45.5218226],[-73.7917892,45.5217767],[-73.7932272,45.5216772],[-73.7935958,45.5216543],[-73.7944443,45.5216015],[-73.7955871,45.5215265],[-73.7969853,45.5214406],[-73.7974553,45.5214186],[-73.7978269,45.5214409],[-73.7983303,45.5214916],[-73.798683,45.5215666],[-73.7989706,45.5216278],[-73.7991724,45.5217003],[-73.7997176,45.5218962],[-73.800018,45.5220442],[-73.8001173,45.5221019],[-73.8008125,45.5225059],[-73.8009389,45.5225786]]}";3;Boulevard Samson;3;50;false;true;true;false;false;false;751.0;3;0;0;0;0;false;43033;6269511960;-73.7812;45.522953;45008;6269511965;-73.7843;45.522316;1;34;35;9312742;Bus : 66 O - Direction Sainte-Dorothée;"";STL;66O;Terminus Le Carrefour Quai:10;Saint-Martin / Des Pivoines
94780820;"{\"type\":\"LineString\",\"coordinates\":[[-73.7822706,45.5224973],[-73.7824914,45.5224527],[-73.7825978,45.5224312],[-73.7831481,45.52232],[-73.783695,45.5222757],[-73.7875592,45.5220354],[-73.7897236,45.5219189],[-73.7904071,45.5218729],[-73.7911267,45.5218226],[-73.7917892,45.5217767],[-73.7932272,45.5216772],[-73.7935958,45.5216543],[-73.7944443,45.5216015],[-73.7955871,45.5215265],[-73.7969853,45.5214406],[-73.7974553,45.5214186],[-73.7978269,45.5214409],[-73.7983303,45.5214916],[-73.798683,45.5215666],[-73.7989706,45.5216278],[-73.7991724,45.5217003],[-73.7997176,45.5218962],[-73.800018,45.5220442],[-73.8001173,45.5221019],[-73.8008125,45.5225059],[-73.8009389,45.5225786]]}";1;Boulevard Samson;3;50;false;true;true;false;false;false;751.0;3;0;0;0;0;false;43025;6269512697;-73.79882;45.521667;43023;6269511934;-73.80136;45.522918;1;39;40;9312742;Bus : 66 O - Direction Sainte-Dorothée;"";STL;66O;Terminus Le Carrefour Quai:10;Saint-Martin / Des Pivoines
694159718;"{\"type\":\"LineString\",\"coordinates\":[[-73.8009389,45.5225786],[-73.8020207,45.5232369],[-73.8028467,45.5237196],[-73.8037104,45.524266],[-73.8044425,45.5247232]]}";2;Boulevard Samson;3;50;false;true;true;false;false;false;181.5;1;0;0;0;0;false;43025;6269512697;-73.79882;45.521667;43023;6269511934;-73.80136;45.522918;1;39;40;9312742;Bus : 66 O - Direction Sainte-Dorothée;"";STL;66O;Terminus Le Carrefour Quai:10;Saint-Martin / Des Pivoines
128245132;"{\"type\":\"LineString\",\"coordinates\":[[-73.8153442,45.5307594],[-73.8161279,45.5315572],[-73.8167579,45.532165],[-73.8175698,45.5330034],[-73.8181088,45.5335459],[-73.8193416,45.5348802],[-73.8194643,45.5350086]]}";1;Boulevard de l'Hôtel-de-Ville;1;50;false;true;true;false;false;false;286.0;0;0;0;0;0;false;46245;6269510878;-73.81882;45.5344;46246;6269510881;-73.82133;45.534267;1;49;50;9312742;Bus : 66 O - Direction Sainte-Dorothée;"";STL;66O;Terminus Le Carrefour Quai:10;Saint-Martin / Des Pivoines
684761965;"{\"type\":\"LineString\",\"coordinates\":[[-73.8194643,45.5350086],[-73.8196119,45.5349188]]}";2;Boulevard Saint-Martin Ouest;2;70;false;true;true;false;false;false;16.0;0;0;0;0;0;false;46245;6269510878;-73.81882;45.5344;46246;6269510881;-73.82133;45.534267;0;49;50;9312742;Bus : 66 O - Direction Sainte-Dorothée;"";STL;66O;Terminus Le Carrefour Quai:10;Saint-Martin / Des Pivoines
42045140;"{\"type\":\"LineString\",\"coordinates\":[[-73.8196119,45.5349188],[-73.8205838,45.5344329],[-73.8214133,45.5341105],[-73.8227982,45.5336152],[-73.8228194,45.5336074],[-73.8231246,45.5334955]]}";3;Boulevard Saint-Martin;1;50;false;true;true;false;false;false;159.0;0;0;0;0;0;false;46245;6269510878;-73.81882;45.5344;46246;6269510881;-73.82133;45.534267;1;49;50;9312742;Bus : 66 O - Direction Sainte-Dorothée;"";STL;66O;Terminus Le Carrefour Quai:10;Saint-Martin / Des Pivoines
