way_id;shape;index;name;nb_lanes;legal_speed;speed_zone_30;oneway;shares_bike;bike_box;bus_lane;dedicated_bus_lane;length;nb_traffic_signals;nb_crossings;nb_stops;nb_give_ways;nb_lvl_crossings;roundabout;stop_id_orig;node_id_orig;coord_x_orig;coord_y_orig;stop_id_dest;node_id_dest;coord_x_dest;coord_y_dest;nb_neighbouring_ways_bus_stop;ordre_orig;ordre_dest;id_line;line_name;colour;operator;ref;from;to
22790760;"{\"type\":\"LineString\",\"coordinates\":[[-73.6795736,45.49294],[-73.6803112,45.4925038],[-73.6806326,45.4922911],[-73.6809202,45.4921009],[-73.6817092,45.491534],[-73.6818529,45.4914435],[-73.6821895,45.4912369],[-73.6827428,45.4909713],[-73.6831566,45.4908335],[-73.683255,45.4908007],[-73.6835153,45.4907141],[-73.6842891,45.4904564],[-73.6851078,45.4901373],[-73.6855644,45.4899729],[-73.6862139,45.4897523],[-73.6863653,45.4896891],[-73.6864851,45.4896391],[-73.6867669,45.4895214],[-73.6870944,45.4893327],[-73.687443,45.4891281],[-73.6874978,45.489088],[-73.688444,45.4883956]]}";1;Chemin de la Côte-de-Liesse;2;50;false;true;true;false;false;false;866.0;0;0;0;0;0;false;55855;6010981539;-73.686274;45.489746;55602;5154209822;-73.6893722;45.4877871;1;21;22;7635355;Bus 100 : Crémazie Ouest;"";STM;100-O;Station Crémazie Nord (Crémazie / Berri);Mega Bloks
370280097;"{\"type\":\"LineString\",\"coordinates\":[[-73.688444,45.4883956],[-73.6890066,45.4879706]]}";2;Chemin de la Côte-de-Liesse;2;50;false;true;true;false;false;false;32.5;0;0;0;0;0;false;55855;6010981539;-73.686274;45.489746;55602;5154209822;-73.6893722;45.4877871;1;21;22;7635355;Bus 100 : Crémazie Ouest;"";STM;100-O;Station Crémazie Nord (Crémazie / Berri);Mega Bloks
