way_id;shape;index;name;nb_lanes;legal_speed;speed_zone_30;oneway;shares_bike;bike_box;bus_lane;dedicated_bus_lane;length;nb_traffic_signals;nb_crossings;nb_stops;nb_give_ways;nb_lvl_crossings;roundabout;stop_id_orig;node_id_orig;coord_x_orig;coord_y_orig;stop_id_dest;node_id_dest;coord_x_dest;coord_y_dest;nb_neighbouring_ways_bus_stop;ordre_orig;ordre_dest;id_line;line_name;colour;operator;ref;from;to
676886050;"{\"type\":\"LineString\",\"coordinates\":[[-73.8932807,45.5613137],[-73.8931903,45.5613511],[-73.8930223,45.5613915],[-73.8928026,45.5614415]]}";1;"";1;50;false;false;true;false;true;false;41.0;0;1;0;0;0;false;81000;6119526196;-73.892828;45.561425;81004;6119526195;-73.89572;45.561493;1;0;1;9401542;Bus 91 : TERMINUS /ST-EUSTACHE / VIA 25E AVENUE;"";EXO;91;Terminus Saint-Eustache;Terminus Saint-Eustache
138428141;"{\"type\":\"LineString\",\"coordinates\":[[-73.8937986,45.5609543],[-73.8936234,45.560945],[-73.8935657,45.560978],[-73.8935027,45.5610387],[-73.8934764,45.5611104],[-73.8934449,45.5611912],[-73.8933793,45.5612519],[-73.893319,45.5612978],[-73.8932807,45.5613137]]}";2;"";1;50;false;false;true;false;true;false;65.0;0;0;0;0;0;false;81000;6119526196;-73.892828;45.561425;81004;6119526195;-73.89572;45.561493;0;0;1;9401542;Bus 91 : TERMINUS /ST-EUSTACHE / VIA 25E AVENUE;"";EXO;91;Terminus Saint-Eustache;Terminus Saint-Eustache
676848395;"{\"type\":\"LineString\",\"coordinates\":[[-73.8940975,45.5615893],[-73.8941016,45.5613774],[-73.8940785,45.5612464],[-73.8940342,45.5611575],[-73.8939193,45.5610459],[-73.8937986,45.5609543]]}";3;Rue Dorion;1;50;false;false;true;false;false;false;78.0;1;0;0;0;0;false;81000;6119526196;-73.892828;45.561425;81004;6119526195;-73.89572;45.561493;0;0;1;9401542;Bus 91 : TERMINUS /ST-EUSTACHE / VIA 25E AVENUE;"";EXO;91;Terminus Saint-Eustache;Terminus Saint-Eustache
677250675;"{\"type\":\"LineString\",\"coordinates\":[[-73.8982312,45.5609342],[-73.8979925,45.5609652],[-73.89748,45.5610544],[-73.896483,45.5612224],[-73.8962587,45.5612529],[-73.8956287,45.5613385],[-73.8948514,45.5614658],[-73.8940975,45.5615893]]}";4;Boulevard Arthur-Sauvé;1;50;false;true;true;false;false;false;331.0;2;0;0;0;0;false;81000;6119526196;-73.892828;45.561425;81004;6119526195;-73.89572;45.561493;0;0;1;9401542;Bus 91 : TERMINUS /ST-EUSTACHE / VIA 25E AVENUE;"";EXO;91;Terminus Saint-Eustache;Terminus Saint-Eustache
676848396;"{\"type\":\"LineString\",\"coordinates\":[[-73.8940648,45.5617058],[-73.8940975,45.5615893]]}";5;Rue Dorion;1;50;false;false;true;false;false;false;14.0;2;0;0;0;0;false;81000;6119526196;-73.892828;45.561425;81004;6119526195;-73.89572;45.561493;0;0;1;9401542;Bus 91 : TERMINUS /ST-EUSTACHE / VIA 25E AVENUE;"";EXO;91;Terminus Saint-Eustache;Terminus Saint-Eustache
676848392;"{\"type\":\"LineString\",\"coordinates\":[[-73.8940648,45.5617058],[-73.8957361,45.5614448],[-73.8965451,45.5613214],[-73.8967629,45.5612857],[-73.8975802,45.5611394],[-73.8977713,45.5611204],[-73.8981604,45.5610604],[-73.8982619,45.5610445],[-73.8987945,45.5609873]]}";6;Boulevard Arthur-Sauvé;2;50;false;true;true;false;false;false;189.0;3;0;0;0;0;false;81000;6119526196;-73.892828;45.561425;81004;6119526195;-73.89572;45.561493;1;0;1;9401542;Bus 91 : TERMINUS /ST-EUSTACHE / VIA 25E AVENUE;"";EXO;91;Terminus Saint-Eustache;Terminus Saint-Eustache
677250675;"{\"type\":\"LineString\",\"coordinates\":[[-73.8982312,45.5609342],[-73.8979925,45.5609652],[-73.89748,45.5610544],[-73.896483,45.5612224],[-73.8962587,45.5612529],[-73.8956287,45.5613385],[-73.8948514,45.5614658],[-73.8940975,45.5615893]]}";1;Boulevard Arthur-Sauvé;1;50;false;true;true;false;false;false;331.0;2;0;0;0;0;false;81004;6119526195;-73.89572;45.561493;80000;6119528402;-73.898719;45.561037;2;1;2;9401542;Bus 91 : TERMINUS /ST-EUSTACHE / VIA 25E AVENUE;"";EXO;91;Terminus Saint-Eustache;Terminus Saint-Eustache
676848395;"{\"type\":\"LineString\",\"coordinates\":[[-73.8940975,45.5615893],[-73.8941016,45.5613774],[-73.8940785,45.5612464],[-73.8940342,45.5611575],[-73.8939193,45.5610459],[-73.8937986,45.5609543]]}";2;Rue Dorion;1;50;false;false;true;false;false;false;78.0;1;0;0;0;0;false;81004;6119526195;-73.89572;45.561493;80000;6119528402;-73.898719;45.561037;0;1;2;9401542;Bus 91 : TERMINUS /ST-EUSTACHE / VIA 25E AVENUE;"";EXO;91;Terminus Saint-Eustache;Terminus Saint-Eustache
676848396;"{\"type\":\"LineString\",\"coordinates\":[[-73.8940648,45.5617058],[-73.8940975,45.5615893]]}";3;Rue Dorion;1;50;false;false;true;false;false;false;14.0;2;0;0;0;0;false;81004;6119526195;-73.89572;45.561493;80000;6119528402;-73.898719;45.561037;0;1;2;9401542;Bus 91 : TERMINUS /ST-EUSTACHE / VIA 25E AVENUE;"";EXO;91;Terminus Saint-Eustache;Terminus Saint-Eustache
676848392;"{\"type\":\"LineString\",\"coordinates\":[[-73.8940648,45.5617058],[-73.8957361,45.5614448],[-73.8965451,45.5613214],[-73.8967629,45.5612857],[-73.8975802,45.5611394],[-73.8977713,45.5611204],[-73.8981604,45.5610604],[-73.8982619,45.5610445],[-73.8987945,45.5609873]]}";4;Boulevard Arthur-Sauvé;2;50;false;true;true;false;false;false;378.0;3;0;0;0;0;false;81004;6119526195;-73.89572;45.561493;80000;6119528402;-73.898719;45.561037;2;1;2;9401542;Bus 91 : TERMINUS /ST-EUSTACHE / VIA 25E AVENUE;"";EXO;91;Terminus Saint-Eustache;Terminus Saint-Eustache
18836179;"{\"type\":\"LineString\",\"coordinates\":[[-73.901053,45.5632075],[-73.9006889,45.5633815],[-73.9006364,45.5634066],[-73.9002268,45.5636024],[-73.8994484,45.5639744],[-73.898669,45.564347],[-73.8978441,45.5647254],[-73.8970361,45.5651023],[-73.8961645,45.5655292],[-73.8959522,45.5656274],[-73.8950249,45.566044],[-73.8940962,45.5665325]]}";1;Rue Saint-Laurent;1;40;false;false;false;false;false;false;657.0;0;0;2;0;0;false;81037;6119526065;-73.900931;45.563169;81038;6119526064;-73.902386;45.564628;2;3;4;9401542;Bus 91 : TERMINUS /ST-EUSTACHE / VIA 25E AVENUE;"";EXO;91;Terminus Saint-Eustache;Terminus Saint-Eustache
46704337;"{\"type\":\"LineString\",\"coordinates\":[[-73.901053,45.5632075],[-73.901247,45.5633982],[-73.9013784,45.5635273],[-73.9024032,45.5645344],[-73.903455,45.5655677],[-73.9040692,45.5661716]]}";2;Rue Hémond;2;40;false;false;true;false;false;false;405.0;0;0;3;0;0;false;81037;6119526065;-73.900931;45.563169;81038;6119526064;-73.902386;45.564628;2;3;4;9401542;Bus 91 : TERMINUS /ST-EUSTACHE / VIA 25E AVENUE;"";EXO;91;Terminus Saint-Eustache;Terminus Saint-Eustache
46704337;"{\"type\":\"LineString\",\"coordinates\":[[-73.901053,45.5632075],[-73.901247,45.5633982],[-73.9013784,45.5635273],[-73.9024032,45.5645344],[-73.903455,45.5655677],[-73.9040692,45.5661716]]}";1;Rue Hémond;2;40;false;false;true;false;false;false;202.5;0;0;3;0;0;false;81038;6119526064;-73.902386;45.564628;81136;6119525776;-73.903953;45.56616;1;4;5;9401542;Bus 91 : TERMINUS /ST-EUSTACHE / VIA 25E AVENUE;"";EXO;91;Terminus Saint-Eustache;Terminus Saint-Eustache
677250677;"{\"type\":\"LineString\",\"coordinates\":[[-73.9040692,45.5661716],[-73.9033367,45.5665635]]}";2;Boulevard Pie-XII;2;40;false;false;false;false;false;false;36.0;0;0;2;0;0;false;81038;6119526064;-73.902386;45.564628;81136;6119525776;-73.903953;45.56616;1;4;5;9401542;Bus 91 : TERMINUS /ST-EUSTACHE / VIA 25E AVENUE;"";EXO;91;Terminus Saint-Eustache;Terminus Saint-Eustache
46704337;"{\"type\":\"LineString\",\"coordinates\":[[-73.901053,45.5632075],[-73.901247,45.5633982],[-73.9013784,45.5635273],[-73.9024032,45.5645344],[-73.903455,45.5655677],[-73.9040692,45.5661716]]}";1;Rue Hémond;2;40;false;false;true;false;false;false;405.0;0;0;3;0;0;false;81136;6119525776;-73.903953;45.56616;81292;6119525372;-73.905046;45.568481;2;5;6;9401542;Bus 91 : TERMINUS /ST-EUSTACHE / VIA 25E AVENUE;"";EXO;91;Terminus Saint-Eustache;Terminus Saint-Eustache
677250677;"{\"type\":\"LineString\",\"coordinates\":[[-73.9040692,45.5661716],[-73.9033367,45.5665635]]}";2;Boulevard Pie-XII;2;40;false;false;false;false;false;false;72.0;0;0;2;0;0;false;81136;6119525776;-73.903953;45.56616;81292;6119525372;-73.905046;45.568481;0;5;6;9401542;Bus 91 : TERMINUS /ST-EUSTACHE / VIA 25E AVENUE;"";EXO;91;Terminus Saint-Eustache;Terminus Saint-Eustache
46704329;"{\"type\":\"LineString\",\"coordinates\":[[-73.9033367,45.5665635],[-73.9039438,45.5671238],[-73.9043817,45.5676689],[-73.9045442,45.5678457],[-73.9051939,45.5685239],[-73.9061166,45.5694452],[-73.9066455,45.5699519]]}";3;Rue Constantiin;2;40;false;false;true;false;false;false;457.0;0;0;3;0;0;false;81136;6119525776;-73.903953;45.56616;81292;6119525372;-73.905046;45.568481;2;5;6;9401542;Bus 91 : TERMINUS /ST-EUSTACHE / VIA 25E AVENUE;"";EXO;91;Terminus Saint-Eustache;Terminus Saint-Eustache
46704329;"{\"type\":\"LineString\",\"coordinates\":[[-73.9033367,45.5665635],[-73.9039438,45.5671238],[-73.9043817,45.5676689],[-73.9045442,45.5678457],[-73.9051939,45.5685239],[-73.9061166,45.5694452],[-73.9066455,45.5699519]]}";1;Rue Constantiin;2;40;false;false;true;false;false;false;228.5;0;0;3;0;0;false;81292;6119525372;-73.905046;45.568481;81293;6119525371;-73.906481;45.569965;1;6;7;9401542;Bus 91 : TERMINUS /ST-EUSTACHE / VIA 25E AVENUE;"";EXO;91;Terminus Saint-Eustache;Terminus Saint-Eustache
677250677;"{\"type\":\"LineString\",\"coordinates\":[[-73.9040692,45.5661716],[-73.9033367,45.5665635]]}";2;Boulevard Pie-XII;2;40;false;false;false;false;false;false;72.0;0;0;2;0;0;false;81292;6119525372;-73.905046;45.568481;81293;6119525371;-73.906481;45.569965;0;6;7;9401542;Bus 91 : TERMINUS /ST-EUSTACHE / VIA 25E AVENUE;"";EXO;91;Terminus Saint-Eustache;Terminus Saint-Eustache
46704337;"{\"type\":\"LineString\",\"coordinates\":[[-73.901053,45.5632075],[-73.901247,45.5633982],[-73.9013784,45.5635273],[-73.9024032,45.5645344],[-73.903455,45.5655677],[-73.9040692,45.5661716]]}";3;Rue Hémond;2;40;false;false;true;false;false;false;405.0;0;0;3;0;0;false;81292;6119525372;-73.905046;45.568481;81293;6119525371;-73.906481;45.569965;0;6;7;9401542;Bus 91 : TERMINUS /ST-EUSTACHE / VIA 25E AVENUE;"";EXO;91;Terminus Saint-Eustache;Terminus Saint-Eustache
18836179;"{\"type\":\"LineString\",\"coordinates\":[[-73.901053,45.5632075],[-73.9006889,45.5633815],[-73.9006364,45.5634066],[-73.9002268,45.5636024],[-73.8994484,45.5639744],[-73.898669,45.564347],[-73.8978441,45.5647254],[-73.8970361,45.5651023],[-73.8961645,45.5655292],[-73.8959522,45.5656274],[-73.8950249,45.566044],[-73.8940962,45.5665325]]}";4;Rue Saint-Laurent;1;40;false;false;false;false;false;false;657.0;0;0;2;0;0;false;81292;6119525372;-73.905046;45.568481;81293;6119525371;-73.906481;45.569965;0;6;7;9401542;Bus 91 : TERMINUS /ST-EUSTACHE / VIA 25E AVENUE;"";EXO;91;Terminus Saint-Eustache;Terminus Saint-Eustache
676886055;"{\"type\":\"LineString\",\"coordinates\":[[-73.8940962,45.5665325],[-73.8932565,45.5669128],[-73.8922128,45.5674023],[-73.8915898,45.5676572],[-73.8913097,45.5677645],[-73.8910322,45.5678599],[-73.8907653,45.5679425],[-73.8903624,45.5680598],[-73.8901243,45.5681218],[-73.8899554,45.5681623],[-73.8898829,45.5681809],[-73.889597,45.5682383],[-73.8892161,45.5682875],[-73.8889524,45.5683162],[-73.8886464,45.5683546],[-73.8885473,45.5683636],[-73.8883197,45.5683842],[-73.8877639,45.5684194],[-73.8875079,45.5684172]]}";5;Rue Saint-Laurent;1;40;false;false;false;false;false;false;566.0;1;0;2;0;0;false;81292;6119525372;-73.905046;45.568481;81293;6119525371;-73.906481;45.569965;0;6;7;9401542;Bus 91 : TERMINUS /ST-EUSTACHE / VIA 25E AVENUE;"";EXO;91;Terminus Saint-Eustache;Terminus Saint-Eustache
676886046;"{\"type\":\"LineString\",\"coordinates\":[[-73.8875079,45.5684172],[-73.8873702,45.5684211]]}";6;Rue Saint-Laurent;1;40;false;false;false;false;false;false;11.0;2;0;0;0;0;false;81292;6119525372;-73.905046;45.568481;81293;6119525371;-73.906481;45.569965;0;6;7;9401542;Bus 91 : TERMINUS /ST-EUSTACHE / VIA 25E AVENUE;"";EXO;91;Terminus Saint-Eustache;Terminus Saint-Eustache
455467989;"{\"type\":\"LineString\",\"coordinates\":[[-73.8873702,45.5684211],[-73.8865885,45.5684222],[-73.8862471,45.5684588],[-73.8858703,45.568517],[-73.8855229,45.568593],[-73.8852225,45.5686889],[-73.8849347,45.5688],[-73.8845922,45.5689696],[-73.8844219,45.5690691],[-73.8842883,45.5691535],[-73.8840464,45.569331],[-73.8838318,45.5695122],[-73.8836339,45.5697003],[-73.8834137,45.5699314],[-73.8832936,45.5700756],[-73.8830407,45.570455],[-73.8827063,45.5710415],[-73.8823373,45.5716651]]}";7;Rue Saint-Laurent;1;30;false;false;false;false;false;false;583.0;1;0;2;0;0;false;81292;6119525372;-73.905046;45.568481;81293;6119525371;-73.906481;45.569965;0;6;7;9401542;Bus 91 : TERMINUS /ST-EUSTACHE / VIA 25E AVENUE;"";EXO;91;Terminus Saint-Eustache;Terminus Saint-Eustache
742060125;"{\"type\":\"LineString\",\"coordinates\":[[-73.8823373,45.5716651],[-73.8822514,45.571785],[-73.8819738,45.5720705],[-73.8817965,45.5721996],[-73.8812816,45.572506],[-73.8794963,45.5733291],[-73.8793182,45.5734136],[-73.8777575,45.5741645],[-73.8768632,45.574578],[-73.8763549,45.5748191],[-73.8755385,45.5752046],[-73.875252,45.5753399]]}";8;Rue Saint-Laurent;1;40;false;false;false;false;false;false;692.0;0;0;0;0;0;false;81292;6119525372;-73.905046;45.568481;81293;6119525371;-73.906481;45.569965;0;6;7;9401542;Bus 91 : TERMINUS /ST-EUSTACHE / VIA 25E AVENUE;"";EXO;91;Terminus Saint-Eustache;Terminus Saint-Eustache
455467988;"{\"type\":\"LineString\",\"coordinates\":[[-73.875252,45.5753399],[-73.8748309,45.575552]]}";9;Rue Saint-Laurent;1;40;false;false;false;false;false;false;41.0;0;0;0;0;0;false;81292;6119525372;-73.905046;45.568481;81293;6119525371;-73.906481;45.569965;0;6;7;9401542;Bus 91 : TERMINUS /ST-EUSTACHE / VIA 25E AVENUE;"";EXO;91;Terminus Saint-Eustache;Terminus Saint-Eustache
455467987;"{\"type\":\"LineString\",\"coordinates\":[[-73.8748309,45.575552],[-73.8744575,45.5757317]]}";10;Rue Saint-Laurent;1;40;false;false;false;false;false;false;36.0;0;0;0;0;0;false;81292;6119525372;-73.905046;45.568481;81293;6119525371;-73.906481;45.569965;0;6;7;9401542;Bus 91 : TERMINUS /ST-EUSTACHE / VIA 25E AVENUE;"";EXO;91;Terminus Saint-Eustache;Terminus Saint-Eustache
455467983;"{\"type\":\"LineString\",\"coordinates\":[[-73.8748309,45.575552],[-73.8751397,45.5758632]]}";11;25e Avenue;1;50;false;false;false;false;false;false;43.0;0;0;0;0;0;false;81292;6119525372;-73.905046;45.568481;81293;6119525371;-73.906481;45.569965;0;6;7;9401542;Bus 91 : TERMINUS /ST-EUSTACHE / VIA 25E AVENUE;"";EXO;91;Terminus Saint-Eustache;Terminus Saint-Eustache
18834972;"{\"type\":\"LineString\",\"coordinates\":[[-73.8751397,45.5758632],[-73.875516,45.5762388],[-73.8762211,45.5769428],[-73.8772469,45.5779594],[-73.8774075,45.5781205]]}";12;25e Avenue;1;50;false;false;false;false;false;false;307.0;0;0;0;0;0;false;81292;6119525372;-73.905046;45.568481;81293;6119525371;-73.906481;45.569965;0;6;7;9401542;Bus 91 : TERMINUS /ST-EUSTACHE / VIA 25E AVENUE;"";EXO;91;Terminus Saint-Eustache;Terminus Saint-Eustache
455467990;"{\"type\":\"LineString\",\"coordinates\":[[-73.8777232,45.5784416],[-73.8774075,45.5781205]]}";13;25e Avenue;1;50;false;true;false;false;false;false;44.0;0;0;0;0;0;false;81292;6119525372;-73.905046;45.568481;81293;6119525371;-73.906481;45.569965;0;6;7;9401542;Bus 91 : TERMINUS /ST-EUSTACHE / VIA 25E AVENUE;"";EXO;91;Terminus Saint-Eustache;Terminus Saint-Eustache
45821342;"{\"type\":\"LineString\",\"coordinates\":[[-73.8781391,45.5787725],[-73.8777232,45.5784416]]}";14;25e Avenue;2;50;false;true;false;false;false;false;50.0;0;0;0;0;0;false;81292;6119525372;-73.905046;45.568481;81293;6119525371;-73.906481;45.569965;0;6;7;9401542;Bus 91 : TERMINUS /ST-EUSTACHE / VIA 25E AVENUE;"";EXO;91;Terminus Saint-Eustache;Terminus Saint-Eustache
45794845;"{\"type\":\"LineString\",\"coordinates\":[[-73.8789964,45.5788911],[-73.8785717,45.5789298],[-73.8783804,45.5788829],[-73.8781391,45.5787725]]}";15;"";1;50;false;true;false;false;false;false;72.0;0;0;0;0;0;false;81292;6119525372;-73.905046;45.568481;81293;6119525371;-73.906481;45.569965;0;6;7;9401542;Bus 91 : TERMINUS /ST-EUSTACHE / VIA 25E AVENUE;"";EXO;91;Terminus Saint-Eustache;Terminus Saint-Eustache
93378545;"{\"type\":\"LineString\",\"coordinates\":[[-73.8789964,45.5788911],[-73.8798346,45.5785048],[-73.8801035,45.5784032],[-73.8804338,45.5783242],[-73.8814225,45.5782044],[-73.8822893,45.5780783],[-73.8828472,45.5779822],[-73.8836204,45.5777101],[-73.8837399,45.5776638],[-73.8851046,45.5771591],[-73.8866546,45.5766671],[-73.8877224,45.5763361],[-73.8917479,45.5751044]]}";16;Rue Hector-Lanthier;1;50;false;false;false;false;false;false;1086.0;0;0;2;0;0;false;81292;6119525372;-73.905046;45.568481;81293;6119525371;-73.906481;45.569965;0;6;7;9401542;Bus 91 : TERMINUS /ST-EUSTACHE / VIA 25E AVENUE;"";EXO;91;Terminus Saint-Eustache;Terminus Saint-Eustache
93378549;"{\"type\":\"LineString\",\"coordinates\":[[-73.8917479,45.5751044],[-73.8919196,45.5750624]]}";17;Rue Hector-Lanthier;1;40;false;false;false;false;false;false;15.0;0;0;2;0;0;false;81292;6119525372;-73.905046;45.568481;81293;6119525371;-73.906481;45.569965;0;6;7;9401542;Bus 91 : TERMINUS /ST-EUSTACHE / VIA 25E AVENUE;"";EXO;91;Terminus Saint-Eustache;Terminus Saint-Eustache
283412720;"{\"type\":\"LineString\",\"coordinates\":[[-73.8919196,45.5750624],[-73.8956227,45.5739468],[-73.8965604,45.5736602],[-73.8975745,45.5733546],[-73.8987395,45.5730111],[-73.9000008,45.5726105],[-73.9012031,45.5722393],[-73.9013413,45.5721963],[-73.9024627,45.5718483],[-73.9033429,45.5715222],[-73.9044165,45.571091],[-73.9056947,45.5704694],[-73.9065319,45.5700454],[-73.9065917,45.5700051],[-73.9066455,45.5699519]]}";18;Rue Hector-Lanthier;1;50;false;false;true;false;false;false;643.0;0;0;4;0;0;false;81292;6119525372;-73.905046;45.568481;81293;6119525371;-73.906481;45.569965;1;6;7;9401542;Bus 91 : TERMINUS /ST-EUSTACHE / VIA 25E AVENUE;"";EXO;91;Terminus Saint-Eustache;Terminus Saint-Eustache
46704329;"{\"type\":\"LineString\",\"coordinates\":[[-73.9033367,45.5665635],[-73.9039438,45.5671238],[-73.9043817,45.5676689],[-73.9045442,45.5678457],[-73.9051939,45.5685239],[-73.9061166,45.5694452],[-73.9066455,45.5699519]]}";1;Rue Constantiin;2;40;false;false;true;false;false;false;457.0;0;0;3;0;0;false;81293;6119525371;-73.906481;45.569965;81294;6119525370;-73.90459;45.570976;2;7;8;9401542;Bus 91 : TERMINUS /ST-EUSTACHE / VIA 25E AVENUE;"";EXO;91;Terminus Saint-Eustache;Terminus Saint-Eustache
677250677;"{\"type\":\"LineString\",\"coordinates\":[[-73.9040692,45.5661716],[-73.9033367,45.5665635]]}";2;Boulevard Pie-XII;2;40;false;false;false;false;false;false;72.0;0;0;2;0;0;false;81293;6119525371;-73.906481;45.569965;81294;6119525370;-73.90459;45.570976;0;7;8;9401542;Bus 91 : TERMINUS /ST-EUSTACHE / VIA 25E AVENUE;"";EXO;91;Terminus Saint-Eustache;Terminus Saint-Eustache
46704337;"{\"type\":\"LineString\",\"coordinates\":[[-73.901053,45.5632075],[-73.901247,45.5633982],[-73.9013784,45.5635273],[-73.9024032,45.5645344],[-73.903455,45.5655677],[-73.9040692,45.5661716]]}";3;Rue Hémond;2;40;false;false;true;false;false;false;405.0;0;0;3;0;0;false;81293;6119525371;-73.906481;45.569965;81294;6119525370;-73.90459;45.570976;0;7;8;9401542;Bus 91 : TERMINUS /ST-EUSTACHE / VIA 25E AVENUE;"";EXO;91;Terminus Saint-Eustache;Terminus Saint-Eustache
18836179;"{\"type\":\"LineString\",\"coordinates\":[[-73.901053,45.5632075],[-73.9006889,45.5633815],[-73.9006364,45.5634066],[-73.9002268,45.5636024],[-73.8994484,45.5639744],[-73.898669,45.564347],[-73.8978441,45.5647254],[-73.8970361,45.5651023],[-73.8961645,45.5655292],[-73.8959522,45.5656274],[-73.8950249,45.566044],[-73.8940962,45.5665325]]}";4;Rue Saint-Laurent;1;40;false;false;false;false;false;false;657.0;0;0;2;0;0;false;81293;6119525371;-73.906481;45.569965;81294;6119525370;-73.90459;45.570976;0;7;8;9401542;Bus 91 : TERMINUS /ST-EUSTACHE / VIA 25E AVENUE;"";EXO;91;Terminus Saint-Eustache;Terminus Saint-Eustache
676886055;"{\"type\":\"LineString\",\"coordinates\":[[-73.8940962,45.5665325],[-73.8932565,45.5669128],[-73.8922128,45.5674023],[-73.8915898,45.5676572],[-73.8913097,45.5677645],[-73.8910322,45.5678599],[-73.8907653,45.5679425],[-73.8903624,45.5680598],[-73.8901243,45.5681218],[-73.8899554,45.5681623],[-73.8898829,45.5681809],[-73.889597,45.5682383],[-73.8892161,45.5682875],[-73.8889524,45.5683162],[-73.8886464,45.5683546],[-73.8885473,45.5683636],[-73.8883197,45.5683842],[-73.8877639,45.5684194],[-73.8875079,45.5684172]]}";5;Rue Saint-Laurent;1;40;false;false;false;false;false;false;566.0;1;0;2;0;0;false;81293;6119525371;-73.906481;45.569965;81294;6119525370;-73.90459;45.570976;0;7;8;9401542;Bus 91 : TERMINUS /ST-EUSTACHE / VIA 25E AVENUE;"";EXO;91;Terminus Saint-Eustache;Terminus Saint-Eustache
676886046;"{\"type\":\"LineString\",\"coordinates\":[[-73.8875079,45.5684172],[-73.8873702,45.5684211]]}";6;Rue Saint-Laurent;1;40;false;false;false;false;false;false;11.0;2;0;0;0;0;false;81293;6119525371;-73.906481;45.569965;81294;6119525370;-73.90459;45.570976;0;7;8;9401542;Bus 91 : TERMINUS /ST-EUSTACHE / VIA 25E AVENUE;"";EXO;91;Terminus Saint-Eustache;Terminus Saint-Eustache
455467989;"{\"type\":\"LineString\",\"coordinates\":[[-73.8873702,45.5684211],[-73.8865885,45.5684222],[-73.8862471,45.5684588],[-73.8858703,45.568517],[-73.8855229,45.568593],[-73.8852225,45.5686889],[-73.8849347,45.5688],[-73.8845922,45.5689696],[-73.8844219,45.5690691],[-73.8842883,45.5691535],[-73.8840464,45.569331],[-73.8838318,45.5695122],[-73.8836339,45.5697003],[-73.8834137,45.5699314],[-73.8832936,45.5700756],[-73.8830407,45.570455],[-73.8827063,45.5710415],[-73.8823373,45.5716651]]}";7;Rue Saint-Laurent;1;30;false;false;false;false;false;false;583.0;1;0;2;0;0;false;81293;6119525371;-73.906481;45.569965;81294;6119525370;-73.90459;45.570976;0;7;8;9401542;Bus 91 : TERMINUS /ST-EUSTACHE / VIA 25E AVENUE;"";EXO;91;Terminus Saint-Eustache;Terminus Saint-Eustache
742060125;"{\"type\":\"LineString\",\"coordinates\":[[-73.8823373,45.5716651],[-73.8822514,45.571785],[-73.8819738,45.5720705],[-73.8817965,45.5721996],[-73.8812816,45.572506],[-73.8794963,45.5733291],[-73.8793182,45.5734136],[-73.8777575,45.5741645],[-73.8768632,45.574578],[-73.8763549,45.5748191],[-73.8755385,45.5752046],[-73.875252,45.5753399]]}";8;Rue Saint-Laurent;1;40;false;false;false;false;false;false;692.0;0;0;0;0;0;false;81293;6119525371;-73.906481;45.569965;81294;6119525370;-73.90459;45.570976;0;7;8;9401542;Bus 91 : TERMINUS /ST-EUSTACHE / VIA 25E AVENUE;"";EXO;91;Terminus Saint-Eustache;Terminus Saint-Eustache
455467988;"{\"type\":\"LineString\",\"coordinates\":[[-73.875252,45.5753399],[-73.8748309,45.575552]]}";9;Rue Saint-Laurent;1;40;false;false;false;false;false;false;41.0;0;0;0;0;0;false;81293;6119525371;-73.906481;45.569965;81294;6119525370;-73.90459;45.570976;0;7;8;9401542;Bus 91 : TERMINUS /ST-EUSTACHE / VIA 25E AVENUE;"";EXO;91;Terminus Saint-Eustache;Terminus Saint-Eustache
455467987;"{\"type\":\"LineString\",\"coordinates\":[[-73.8748309,45.575552],[-73.8744575,45.5757317]]}";10;Rue Saint-Laurent;1;40;false;false;false;false;false;false;36.0;0;0;0;0;0;false;81293;6119525371;-73.906481;45.569965;81294;6119525370;-73.90459;45.570976;0;7;8;9401542;Bus 91 : TERMINUS /ST-EUSTACHE / VIA 25E AVENUE;"";EXO;91;Terminus Saint-Eustache;Terminus Saint-Eustache
455467983;"{\"type\":\"LineString\",\"coordinates\":[[-73.8748309,45.575552],[-73.8751397,45.5758632]]}";11;25e Avenue;1;50;false;false;false;false;false;false;43.0;0;0;0;0;0;false;81293;6119525371;-73.906481;45.569965;81294;6119525370;-73.90459;45.570976;0;7;8;9401542;Bus 91 : TERMINUS /ST-EUSTACHE / VIA 25E AVENUE;"";EXO;91;Terminus Saint-Eustache;Terminus Saint-Eustache
18834972;"{\"type\":\"LineString\",\"coordinates\":[[-73.8751397,45.5758632],[-73.875516,45.5762388],[-73.8762211,45.5769428],[-73.8772469,45.5779594],[-73.8774075,45.5781205]]}";12;25e Avenue;1;50;false;false;false;false;false;false;307.0;0;0;0;0;0;false;81293;6119525371;-73.906481;45.569965;81294;6119525370;-73.90459;45.570976;0;7;8;9401542;Bus 91 : TERMINUS /ST-EUSTACHE / VIA 25E AVENUE;"";EXO;91;Terminus Saint-Eustache;Terminus Saint-Eustache
455467990;"{\"type\":\"LineString\",\"coordinates\":[[-73.8777232,45.5784416],[-73.8774075,45.5781205]]}";13;25e Avenue;1;50;false;true;false;false;false;false;44.0;0;0;0;0;0;false;81293;6119525371;-73.906481;45.569965;81294;6119525370;-73.90459;45.570976;0;7;8;9401542;Bus 91 : TERMINUS /ST-EUSTACHE / VIA 25E AVENUE;"";EXO;91;Terminus Saint-Eustache;Terminus Saint-Eustache
45821342;"{\"type\":\"LineString\",\"coordinates\":[[-73.8781391,45.5787725],[-73.8777232,45.5784416]]}";14;25e Avenue;2;50;false;true;false;false;false;false;50.0;0;0;0;0;0;false;81293;6119525371;-73.906481;45.569965;81294;6119525370;-73.90459;45.570976;0;7;8;9401542;Bus 91 : TERMINUS /ST-EUSTACHE / VIA 25E AVENUE;"";EXO;91;Terminus Saint-Eustache;Terminus Saint-Eustache
45794845;"{\"type\":\"LineString\",\"coordinates\":[[-73.8789964,45.5788911],[-73.8785717,45.5789298],[-73.8783804,45.5788829],[-73.8781391,45.5787725]]}";15;"";1;50;false;true;false;false;false;false;72.0;0;0;0;0;0;false;81293;6119525371;-73.906481;45.569965;81294;6119525370;-73.90459;45.570976;0;7;8;9401542;Bus 91 : TERMINUS /ST-EUSTACHE / VIA 25E AVENUE;"";EXO;91;Terminus Saint-Eustache;Terminus Saint-Eustache
93378545;"{\"type\":\"LineString\",\"coordinates\":[[-73.8789964,45.5788911],[-73.8798346,45.5785048],[-73.8801035,45.5784032],[-73.8804338,45.5783242],[-73.8814225,45.5782044],[-73.8822893,45.5780783],[-73.8828472,45.5779822],[-73.8836204,45.5777101],[-73.8837399,45.5776638],[-73.8851046,45.5771591],[-73.8866546,45.5766671],[-73.8877224,45.5763361],[-73.8917479,45.5751044]]}";16;Rue Hector-Lanthier;1;50;false;false;false;false;false;false;1086.0;0;0;2;0;0;false;81293;6119525371;-73.906481;45.569965;81294;6119525370;-73.90459;45.570976;0;7;8;9401542;Bus 91 : TERMINUS /ST-EUSTACHE / VIA 25E AVENUE;"";EXO;91;Terminus Saint-Eustache;Terminus Saint-Eustache
93378549;"{\"type\":\"LineString\",\"coordinates\":[[-73.8917479,45.5751044],[-73.8919196,45.5750624]]}";17;Rue Hector-Lanthier;1;40;false;false;false;false;false;false;15.0;0;0;2;0;0;false;81293;6119525371;-73.906481;45.569965;81294;6119525370;-73.90459;45.570976;0;7;8;9401542;Bus 91 : TERMINUS /ST-EUSTACHE / VIA 25E AVENUE;"";EXO;91;Terminus Saint-Eustache;Terminus Saint-Eustache
283412720;"{\"type\":\"LineString\",\"coordinates\":[[-73.8919196,45.5750624],[-73.8956227,45.5739468],[-73.8965604,45.5736602],[-73.8975745,45.5733546],[-73.8987395,45.5730111],[-73.9000008,45.5726105],[-73.9012031,45.5722393],[-73.9013413,45.5721963],[-73.9024627,45.5718483],[-73.9033429,45.5715222],[-73.9044165,45.571091],[-73.9056947,45.5704694],[-73.9065319,45.5700454],[-73.9065917,45.5700051],[-73.9066455,45.5699519]]}";18;Rue Hector-Lanthier;1;50;false;false;true;false;false;false;1286.0;0;0;4;0;0;false;81293;6119525371;-73.906481;45.569965;81294;6119525370;-73.90459;45.570976;2;7;8;9401542;Bus 91 : TERMINUS /ST-EUSTACHE / VIA 25E AVENUE;"";EXO;91;Terminus Saint-Eustache;Terminus Saint-Eustache
93378549;"{\"type\":\"LineString\",\"coordinates\":[[-73.8917479,45.5751044],[-73.8919196,45.5750624]]}";1;Rue Hector-Lanthier;1;40;false;false;false;false;false;false;15.0;0;0;2;0;0;false;81300;6119525364;-73.892041;45.574956;81301;6119525363;-73.886712;45.57658;2;14;15;9401542;Bus 91 : TERMINUS /ST-EUSTACHE / VIA 25E AVENUE;"";EXO;91;Terminus Saint-Eustache;Terminus Saint-Eustache
93378545;"{\"type\":\"LineString\",\"coordinates\":[[-73.8789964,45.5788911],[-73.8798346,45.5785048],[-73.8801035,45.5784032],[-73.8804338,45.5783242],[-73.8814225,45.5782044],[-73.8822893,45.5780783],[-73.8828472,45.5779822],[-73.8836204,45.5777101],[-73.8837399,45.5776638],[-73.8851046,45.5771591],[-73.8866546,45.5766671],[-73.8877224,45.5763361],[-73.8917479,45.5751044]]}";2;Rue Hector-Lanthier;1;50;false;false;false;false;false;false;1086.0;0;0;2;0;0;false;81300;6119525364;-73.892041;45.574956;81301;6119525363;-73.886712;45.57658;2;14;15;9401542;Bus 91 : TERMINUS /ST-EUSTACHE / VIA 25E AVENUE;"";EXO;91;Terminus Saint-Eustache;Terminus Saint-Eustache
93378545;"{\"type\":\"LineString\",\"coordinates\":[[-73.8789964,45.5788911],[-73.8798346,45.5785048],[-73.8801035,45.5784032],[-73.8804338,45.5783242],[-73.8814225,45.5782044],[-73.8822893,45.5780783],[-73.8828472,45.5779822],[-73.8836204,45.5777101],[-73.8837399,45.5776638],[-73.8851046,45.5771591],[-73.8866546,45.5766671],[-73.8877224,45.5763361],[-73.8917479,45.5751044]]}";1;Rue Hector-Lanthier;1;50;false;false;false;false;false;false;543.0;0;0;2;0;0;false;81297;6119525367;-73.879574;45.578503;81250;6119525706;-73.877605;45.578285;1;17;18;9401542;Bus 91 : TERMINUS /ST-EUSTACHE / VIA 25E AVENUE;"";EXO;91;Terminus Saint-Eustache;Terminus Saint-Eustache
45794845;"{\"type\":\"LineString\",\"coordinates\":[[-73.8789964,45.5788911],[-73.8785717,45.5789298],[-73.8783804,45.5788829],[-73.8781391,45.5787725]]}";2;"";1;50;false;true;false;false;false;false;72.0;0;0;0;0;0;false;81297;6119525367;-73.879574;45.578503;81250;6119525706;-73.877605;45.578285;0;17;18;9401542;Bus 91 : TERMINUS /ST-EUSTACHE / VIA 25E AVENUE;"";EXO;91;Terminus Saint-Eustache;Terminus Saint-Eustache
45821342;"{\"type\":\"LineString\",\"coordinates\":[[-73.8781391,45.5787725],[-73.8777232,45.5784416]]}";3;25e Avenue;2;50;false;true;false;false;false;false;50.0;0;0;0;0;0;false;81297;6119525367;-73.879574;45.578503;81250;6119525706;-73.877605;45.578285;0;17;18;9401542;Bus 91 : TERMINUS /ST-EUSTACHE / VIA 25E AVENUE;"";EXO;91;Terminus Saint-Eustache;Terminus Saint-Eustache
455467990;"{\"type\":\"LineString\",\"coordinates\":[[-73.8777232,45.5784416],[-73.8774075,45.5781205]]}";4;25e Avenue;1;50;false;true;false;false;false;false;22.0;0;0;0;0;0;false;81297;6119525367;-73.879574;45.578503;81250;6119525706;-73.877605;45.578285;1;17;18;9401542;Bus 91 : TERMINUS /ST-EUSTACHE / VIA 25E AVENUE;"";EXO;91;Terminus Saint-Eustache;Terminus Saint-Eustache
45821342;"{\"type\":\"LineString\",\"coordinates\":[[-73.8781391,45.5787725],[-73.8777232,45.5784416]]}";1;25e Avenue;2;50;false;true;false;false;false;false;50.0;0;0;0;0;0;false;81250;6119525706;-73.877605;45.578285;81251;6119525705;-73.875785;45.576447;2;18;19;9401542;Bus 91 : TERMINUS /ST-EUSTACHE / VIA 25E AVENUE;"";EXO;91;Terminus Saint-Eustache;Terminus Saint-Eustache
455467990;"{\"type\":\"LineString\",\"coordinates\":[[-73.8777232,45.5784416],[-73.8774075,45.5781205]]}";2;25e Avenue;1;50;false;true;false;false;false;false;44.0;0;0;0;0;0;false;81250;6119525706;-73.877605;45.578285;81251;6119525705;-73.875785;45.576447;0;18;19;9401542;Bus 91 : TERMINUS /ST-EUSTACHE / VIA 25E AVENUE;"";EXO;91;Terminus Saint-Eustache;Terminus Saint-Eustache
18834972;"{\"type\":\"LineString\",\"coordinates\":[[-73.8751397,45.5758632],[-73.875516,45.5762388],[-73.8762211,45.5769428],[-73.8772469,45.5779594],[-73.8774075,45.5781205]]}";3;25e Avenue;1;50;false;false;false;false;false;false;307.0;0;0;0;0;0;false;81250;6119525706;-73.877605;45.578285;81251;6119525705;-73.875785;45.576447;2;18;19;9401542;Bus 91 : TERMINUS /ST-EUSTACHE / VIA 25E AVENUE;"";EXO;91;Terminus Saint-Eustache;Terminus Saint-Eustache
18834972;"{\"type\":\"LineString\",\"coordinates\":[[-73.8751397,45.5758632],[-73.875516,45.5762388],[-73.8762211,45.5769428],[-73.8772469,45.5779594],[-73.8774075,45.5781205]]}";1;25e Avenue;1;50;false;false;false;false;false;false;153.5;0;0;0;0;0;false;81251;6119525705;-73.875785;45.576447;81255;6119525701;-73.875017;45.575627;1;19;20;9401542;Bus 91 : TERMINUS /ST-EUSTACHE / VIA 25E AVENUE;"";EXO;91;Terminus Saint-Eustache;Terminus Saint-Eustache
455467990;"{\"type\":\"LineString\",\"coordinates\":[[-73.8777232,45.5784416],[-73.8774075,45.5781205]]}";2;25e Avenue;1;50;false;true;false;false;false;false;44.0;0;0;0;0;0;false;81251;6119525705;-73.875785;45.576447;81255;6119525701;-73.875017;45.575627;0;19;20;9401542;Bus 91 : TERMINUS /ST-EUSTACHE / VIA 25E AVENUE;"";EXO;91;Terminus Saint-Eustache;Terminus Saint-Eustache
45821342;"{\"type\":\"LineString\",\"coordinates\":[[-73.8781391,45.5787725],[-73.8777232,45.5784416]]}";3;25e Avenue;2;50;false;true;false;false;false;false;50.0;0;0;0;0;0;false;81251;6119525705;-73.875785;45.576447;81255;6119525701;-73.875017;45.575627;0;19;20;9401542;Bus 91 : TERMINUS /ST-EUSTACHE / VIA 25E AVENUE;"";EXO;91;Terminus Saint-Eustache;Terminus Saint-Eustache
45794845;"{\"type\":\"LineString\",\"coordinates\":[[-73.8789964,45.5788911],[-73.8785717,45.5789298],[-73.8783804,45.5788829],[-73.8781391,45.5787725]]}";4;"";1;50;false;true;false;false;false;false;72.0;0;0;0;0;0;false;81251;6119525705;-73.875785;45.576447;81255;6119525701;-73.875017;45.575627;0;19;20;9401542;Bus 91 : TERMINUS /ST-EUSTACHE / VIA 25E AVENUE;"";EXO;91;Terminus Saint-Eustache;Terminus Saint-Eustache
93378545;"{\"type\":\"LineString\",\"coordinates\":[[-73.8789964,45.5788911],[-73.8798346,45.5785048],[-73.8801035,45.5784032],[-73.8804338,45.5783242],[-73.8814225,45.5782044],[-73.8822893,45.5780783],[-73.8828472,45.5779822],[-73.8836204,45.5777101],[-73.8837399,45.5776638],[-73.8851046,45.5771591],[-73.8866546,45.5766671],[-73.8877224,45.5763361],[-73.8917479,45.5751044]]}";5;Rue Hector-Lanthier;1;50;false;false;false;false;false;false;1086.0;0;0;2;0;0;false;81251;6119525705;-73.875785;45.576447;81255;6119525701;-73.875017;45.575627;0;19;20;9401542;Bus 91 : TERMINUS /ST-EUSTACHE / VIA 25E AVENUE;"";EXO;91;Terminus Saint-Eustache;Terminus Saint-Eustache
93378549;"{\"type\":\"LineString\",\"coordinates\":[[-73.8917479,45.5751044],[-73.8919196,45.5750624]]}";6;Rue Hector-Lanthier;1;40;false;false;false;false;false;false;15.0;0;0;2;0;0;false;81251;6119525705;-73.875785;45.576447;81255;6119525701;-73.875017;45.575627;0;19;20;9401542;Bus 91 : TERMINUS /ST-EUSTACHE / VIA 25E AVENUE;"";EXO;91;Terminus Saint-Eustache;Terminus Saint-Eustache
283412720;"{\"type\":\"LineString\",\"coordinates\":[[-73.8919196,45.5750624],[-73.8956227,45.5739468],[-73.8965604,45.5736602],[-73.8975745,45.5733546],[-73.8987395,45.5730111],[-73.9000008,45.5726105],[-73.9012031,45.5722393],[-73.9013413,45.5721963],[-73.9024627,45.5718483],[-73.9033429,45.5715222],[-73.9044165,45.571091],[-73.9056947,45.5704694],[-73.9065319,45.5700454],[-73.9065917,45.5700051],[-73.9066455,45.5699519]]}";7;Rue Hector-Lanthier;1;50;false;false;true;false;false;false;1286.0;0;0;4;0;0;false;81251;6119525705;-73.875785;45.576447;81255;6119525701;-73.875017;45.575627;0;19;20;9401542;Bus 91 : TERMINUS /ST-EUSTACHE / VIA 25E AVENUE;"";EXO;91;Terminus Saint-Eustache;Terminus Saint-Eustache
46704329;"{\"type\":\"LineString\",\"coordinates\":[[-73.9033367,45.5665635],[-73.9039438,45.5671238],[-73.9043817,45.5676689],[-73.9045442,45.5678457],[-73.9051939,45.5685239],[-73.9061166,45.5694452],[-73.9066455,45.5699519]]}";8;Rue Constantiin;2;40;false;false;true;false;false;false;457.0;0;0;3;0;0;false;81251;6119525705;-73.875785;45.576447;81255;6119525701;-73.875017;45.575627;0;19;20;9401542;Bus 91 : TERMINUS /ST-EUSTACHE / VIA 25E AVENUE;"";EXO;91;Terminus Saint-Eustache;Terminus Saint-Eustache
677250677;"{\"type\":\"LineString\",\"coordinates\":[[-73.9040692,45.5661716],[-73.9033367,45.5665635]]}";9;Boulevard Pie-XII;2;40;false;false;false;false;false;false;72.0;0;0;2;0;0;false;81251;6119525705;-73.875785;45.576447;81255;6119525701;-73.875017;45.575627;0;19;20;9401542;Bus 91 : TERMINUS /ST-EUSTACHE / VIA 25E AVENUE;"";EXO;91;Terminus Saint-Eustache;Terminus Saint-Eustache
46704337;"{\"type\":\"LineString\",\"coordinates\":[[-73.901053,45.5632075],[-73.901247,45.5633982],[-73.9013784,45.5635273],[-73.9024032,45.5645344],[-73.903455,45.5655677],[-73.9040692,45.5661716]]}";10;Rue Hémond;2;40;false;false;true;false;false;false;405.0;0;0;3;0;0;false;81251;6119525705;-73.875785;45.576447;81255;6119525701;-73.875017;45.575627;0;19;20;9401542;Bus 91 : TERMINUS /ST-EUSTACHE / VIA 25E AVENUE;"";EXO;91;Terminus Saint-Eustache;Terminus Saint-Eustache
18836179;"{\"type\":\"LineString\",\"coordinates\":[[-73.901053,45.5632075],[-73.9006889,45.5633815],[-73.9006364,45.5634066],[-73.9002268,45.5636024],[-73.8994484,45.5639744],[-73.898669,45.564347],[-73.8978441,45.5647254],[-73.8970361,45.5651023],[-73.8961645,45.5655292],[-73.8959522,45.5656274],[-73.8950249,45.566044],[-73.8940962,45.5665325]]}";11;Rue Saint-Laurent;1;40;false;false;false;false;false;false;657.0;0;0;2;0;0;false;81251;6119525705;-73.875785;45.576447;81255;6119525701;-73.875017;45.575627;0;19;20;9401542;Bus 91 : TERMINUS /ST-EUSTACHE / VIA 25E AVENUE;"";EXO;91;Terminus Saint-Eustache;Terminus Saint-Eustache
676886055;"{\"type\":\"LineString\",\"coordinates\":[[-73.8940962,45.5665325],[-73.8932565,45.5669128],[-73.8922128,45.5674023],[-73.8915898,45.5676572],[-73.8913097,45.5677645],[-73.8910322,45.5678599],[-73.8907653,45.5679425],[-73.8903624,45.5680598],[-73.8901243,45.5681218],[-73.8899554,45.5681623],[-73.8898829,45.5681809],[-73.889597,45.5682383],[-73.8892161,45.5682875],[-73.8889524,45.5683162],[-73.8886464,45.5683546],[-73.8885473,45.5683636],[-73.8883197,45.5683842],[-73.8877639,45.5684194],[-73.8875079,45.5684172]]}";12;Rue Saint-Laurent;1;40;false;false;false;false;false;false;566.0;1;0;2;0;0;false;81251;6119525705;-73.875785;45.576447;81255;6119525701;-73.875017;45.575627;0;19;20;9401542;Bus 91 : TERMINUS /ST-EUSTACHE / VIA 25E AVENUE;"";EXO;91;Terminus Saint-Eustache;Terminus Saint-Eustache
676886046;"{\"type\":\"LineString\",\"coordinates\":[[-73.8875079,45.5684172],[-73.8873702,45.5684211]]}";13;Rue Saint-Laurent;1;40;false;false;false;false;false;false;11.0;2;0;0;0;0;false;81251;6119525705;-73.875785;45.576447;81255;6119525701;-73.875017;45.575627;0;19;20;9401542;Bus 91 : TERMINUS /ST-EUSTACHE / VIA 25E AVENUE;"";EXO;91;Terminus Saint-Eustache;Terminus Saint-Eustache
455467989;"{\"type\":\"LineString\",\"coordinates\":[[-73.8873702,45.5684211],[-73.8865885,45.5684222],[-73.8862471,45.5684588],[-73.8858703,45.568517],[-73.8855229,45.568593],[-73.8852225,45.5686889],[-73.8849347,45.5688],[-73.8845922,45.5689696],[-73.8844219,45.5690691],[-73.8842883,45.5691535],[-73.8840464,45.569331],[-73.8838318,45.5695122],[-73.8836339,45.5697003],[-73.8834137,45.5699314],[-73.8832936,45.5700756],[-73.8830407,45.570455],[-73.8827063,45.5710415],[-73.8823373,45.5716651]]}";14;Rue Saint-Laurent;1;30;false;false;false;false;false;false;583.0;1;0;2;0;0;false;81251;6119525705;-73.875785;45.576447;81255;6119525701;-73.875017;45.575627;0;19;20;9401542;Bus 91 : TERMINUS /ST-EUSTACHE / VIA 25E AVENUE;"";EXO;91;Terminus Saint-Eustache;Terminus Saint-Eustache
742060125;"{\"type\":\"LineString\",\"coordinates\":[[-73.8823373,45.5716651],[-73.8822514,45.571785],[-73.8819738,45.5720705],[-73.8817965,45.5721996],[-73.8812816,45.572506],[-73.8794963,45.5733291],[-73.8793182,45.5734136],[-73.8777575,45.5741645],[-73.8768632,45.574578],[-73.8763549,45.5748191],[-73.8755385,45.5752046],[-73.875252,45.5753399]]}";15;Rue Saint-Laurent;1;40;false;false;false;false;false;false;692.0;0;0;0;0;0;false;81251;6119525705;-73.875785;45.576447;81255;6119525701;-73.875017;45.575627;0;19;20;9401542;Bus 91 : TERMINUS /ST-EUSTACHE / VIA 25E AVENUE;"";EXO;91;Terminus Saint-Eustache;Terminus Saint-Eustache
455467988;"{\"type\":\"LineString\",\"coordinates\":[[-73.875252,45.5753399],[-73.8748309,45.575552]]}";16;Rue Saint-Laurent;1;40;false;false;false;false;false;false;41.0;0;0;0;0;0;false;81251;6119525705;-73.875785;45.576447;81255;6119525701;-73.875017;45.575627;0;19;20;9401542;Bus 91 : TERMINUS /ST-EUSTACHE / VIA 25E AVENUE;"";EXO;91;Terminus Saint-Eustache;Terminus Saint-Eustache
455467987;"{\"type\":\"LineString\",\"coordinates\":[[-73.8748309,45.575552],[-73.8744575,45.5757317]]}";17;Rue Saint-Laurent;1;40;false;false;false;false;false;false;36.0;0;0;0;0;0;false;81251;6119525705;-73.875785;45.576447;81255;6119525701;-73.875017;45.575627;0;19;20;9401542;Bus 91 : TERMINUS /ST-EUSTACHE / VIA 25E AVENUE;"";EXO;91;Terminus Saint-Eustache;Terminus Saint-Eustache
455467983;"{\"type\":\"LineString\",\"coordinates\":[[-73.8748309,45.575552],[-73.8751397,45.5758632]]}";18;25e Avenue;1;50;false;false;false;false;false;false;21.5;0;0;0;0;0;false;81251;6119525705;-73.875785;45.576447;81255;6119525701;-73.875017;45.575627;1;19;20;9401542;Bus 91 : TERMINUS /ST-EUSTACHE / VIA 25E AVENUE;"";EXO;91;Terminus Saint-Eustache;Terminus Saint-Eustache
455467988;"{\"type\":\"LineString\",\"coordinates\":[[-73.875252,45.5753399],[-73.8748309,45.575552]]}";1;Rue Saint-Laurent;1;40;false;false;false;false;false;false;41.0;0;0;0;0;0;false;81255;6119525701;-73.875017;45.575627;81050;6119526053;-73.872981;45.573538;2;20;21;9401542;Bus 91 : TERMINUS /ST-EUSTACHE / VIA 25E AVENUE;"";EXO;91;Terminus Saint-Eustache;Terminus Saint-Eustache
455467987;"{\"type\":\"LineString\",\"coordinates\":[[-73.8748309,45.575552],[-73.8744575,45.5757317]]}";2;Rue Saint-Laurent;1;40;false;false;false;false;false;false;36.0;0;0;0;0;0;false;81255;6119525701;-73.875017;45.575627;81050;6119526053;-73.872981;45.573538;0;20;21;9401542;Bus 91 : TERMINUS /ST-EUSTACHE / VIA 25E AVENUE;"";EXO;91;Terminus Saint-Eustache;Terminus Saint-Eustache
455467984;"{\"type\":\"LineString\",\"coordinates\":[[-73.8745263,45.575247],[-73.8748309,45.575552]]}";3;25e Avenue;1;50;false;false;false;false;false;false;42.0;0;0;0;0;0;false;81255;6119525701;-73.875017;45.575627;81050;6119526053;-73.872981;45.573538;0;20;21;9401542;Bus 91 : TERMINUS /ST-EUSTACHE / VIA 25E AVENUE;"";EXO;91;Terminus Saint-Eustache;Terminus Saint-Eustache
455467985;"{\"type\":\"LineString\",\"coordinates\":[[-73.8743174,45.5750265],[-73.8745263,45.575247]]}";4;25e Avenue;1;50;false;false;false;false;false;false;30.0;0;0;0;0;0;false;81255;6119525701;-73.875017;45.575627;81050;6119526053;-73.872981;45.573538;0;20;21;9401542;Bus 91 : TERMINUS /ST-EUSTACHE / VIA 25E AVENUE;"";EXO;91;Terminus Saint-Eustache;Terminus Saint-Eustache
455467986;"{\"type\":\"LineString\",\"coordinates\":[[-73.8697677,45.5704053],[-73.8703177,45.570964],[-73.8706118,45.5712627],[-73.8706688,45.5713206],[-73.8714791,45.5721436],[-73.8716425,45.5723096],[-73.8720752,45.5727608],[-73.8728246,45.5735102],[-73.8743174,45.5750265]]}";5;25e Avenue;1;50;false;false;false;false;false;false;624.0;1;0;0;0;0;false;81255;6119525701;-73.875017;45.575627;81050;6119526053;-73.872981;45.573538;2;20;21;9401542;Bus 91 : TERMINUS /ST-EUSTACHE / VIA 25E AVENUE;"";EXO;91;Terminus Saint-Eustache;Terminus Saint-Eustache
455467986;"{\"type\":\"LineString\",\"coordinates\":[[-73.8697677,45.5704053],[-73.8703177,45.570964],[-73.8706118,45.5712627],[-73.8706688,45.5713206],[-73.8714791,45.5721436],[-73.8716425,45.5723096],[-73.8720752,45.5727608],[-73.8728246,45.5735102],[-73.8743174,45.5750265]]}";1;25e Avenue;1;50;false;false;false;false;false;false;312.0;1;0;0;0;0;false;81051;6119526052;-73.871123;45.571695;81052;6119526051;-73.869248;45.570642;1;22;23;9401542;Bus 91 : TERMINUS /ST-EUSTACHE / VIA 25E AVENUE;"";EXO;91;Terminus Saint-Eustache;Terminus Saint-Eustache
455467985;"{\"type\":\"LineString\",\"coordinates\":[[-73.8743174,45.5750265],[-73.8745263,45.575247]]}";2;25e Avenue;1;50;false;false;false;false;false;false;30.0;0;0;0;0;0;false;81051;6119526052;-73.871123;45.571695;81052;6119526051;-73.869248;45.570642;0;22;23;9401542;Bus 91 : TERMINUS /ST-EUSTACHE / VIA 25E AVENUE;"";EXO;91;Terminus Saint-Eustache;Terminus Saint-Eustache
455467984;"{\"type\":\"LineString\",\"coordinates\":[[-73.8745263,45.575247],[-73.8748309,45.575552]]}";3;25e Avenue;1;50;false;false;false;false;false;false;42.0;0;0;0;0;0;false;81051;6119526052;-73.871123;45.571695;81052;6119526051;-73.869248;45.570642;0;22;23;9401542;Bus 91 : TERMINUS /ST-EUSTACHE / VIA 25E AVENUE;"";EXO;91;Terminus Saint-Eustache;Terminus Saint-Eustache
455467987;"{\"type\":\"LineString\",\"coordinates\":[[-73.8748309,45.575552],[-73.8744575,45.5757317]]}";4;Rue Saint-Laurent;1;40;false;false;false;false;false;false;36.0;0;0;0;0;0;false;81051;6119526052;-73.871123;45.571695;81052;6119526051;-73.869248;45.570642;0;22;23;9401542;Bus 91 : TERMINUS /ST-EUSTACHE / VIA 25E AVENUE;"";EXO;91;Terminus Saint-Eustache;Terminus Saint-Eustache
94596618;"{\"type\":\"LineString\",\"coordinates\":[[-73.8744575,45.5757317],[-73.8735378,45.5761724],[-73.8731643,45.5763528],[-73.8723303,45.57675],[-73.8722258,45.5767998],[-73.8717194,45.5771542],[-73.8714619,45.5774486],[-73.8713081,45.5777357],[-73.8710733,45.578174],[-73.8707498,45.5788513],[-73.8702686,45.5797409],[-73.8702002,45.5798036],[-73.8700823,45.579817],[-73.8697684,45.5798048],[-73.8694302,45.5797917],[-73.8680985,45.57974],[-73.8674747,45.579717],[-73.8674193,45.5797195],[-73.8662344,45.5798596],[-73.866149,45.5798697],[-73.8637894,45.5810103],[-73.8635272,45.581137],[-73.8634199,45.5811889],[-73.862774,45.5815011],[-73.8622282,45.5818022],[-73.8619696,45.5820133],[-73.8617459,45.5822365],[-73.8615743,45.5825057],[-73.861497,45.582627],[-73.8614025,45.5830355],[-73.8613425,45.5838765],[-73.8613348,45.5839396],[-73.8612539,45.5846013],[-73.8612309,45.5847895],[-73.8609391,45.585222],[-73.8606644,45.5855283],[-73.860505,45.5856204],[-73.8595314,45.5861831],[-73.8586675,45.5866074],[-73.8578845,45.586992],[-73.8572517,45.5873021]]}";5;Rue Saint-Laurent;1;40;false;false;false;false;false;false;2051.0;0;0;5;0;0;false;81051;6119526052;-73.871123;45.571695;81052;6119526051;-73.869248;45.570642;0;22;23;9401542;Bus 91 : TERMINUS /ST-EUSTACHE / VIA 25E AVENUE;"";EXO;91;Terminus Saint-Eustache;Terminus Saint-Eustache
45795148;"{\"type\":\"LineString\",\"coordinates\":[[-73.8572517,45.5873021],[-73.8571537,45.5872511],[-73.8566264,45.5872092]]}";6;62e Avenue;2;30;false;true;false;false;false;false;51.0;0;0;0;0;0;false;81051;6119526052;-73.871123;45.571695;81052;6119526051;-73.869248;45.570642;0;22;23;9401542;Bus 91 : TERMINUS /ST-EUSTACHE / VIA 25E AVENUE;"";EXO;91;Terminus Saint-Eustache;Terminus Saint-Eustache
45795143;"{\"type\":\"LineString\",\"coordinates\":[[-73.8566264,45.5872092],[-73.8561784,45.5871777]]}";7;62e Avenue;2;30;false;false;false;false;false;false;36.0;0;0;0;0;0;false;81051;6119526052;-73.871123;45.571695;81052;6119526051;-73.869248;45.570642;0;22;23;9401542;Bus 91 : TERMINUS /ST-EUSTACHE / VIA 25E AVENUE;"";EXO;91;Terminus Saint-Eustache;Terminus Saint-Eustache
45795132;"{\"type\":\"LineString\",\"coordinates\":[[-73.8561784,45.5871777],[-73.855244,45.5871054],[-73.8531183,45.586994],[-73.8528094,45.5870539],[-73.852358,45.5871844],[-73.8521529,45.5871824],[-73.8519741,45.5871536],[-73.851795,45.5871338],[-73.8515399,45.5870682],[-73.8513365,45.5869851],[-73.8508037,45.58664],[-73.8507126,45.586581]]}";8;62e Avenue;2;30;false;false;false;false;false;false;453.0;0;0;1;0;0;false;81051;6119526052;-73.871123;45.571695;81052;6119526051;-73.869248;45.570642;0;22;23;9401542;Bus 91 : TERMINUS /ST-EUSTACHE / VIA 25E AVENUE;"";EXO;91;Terminus Saint-Eustache;Terminus Saint-Eustache
620935720;"{\"type\":\"LineString\",\"coordinates\":[[-73.8507126,45.586581],[-73.8507919,45.5864977],[-73.8513588,45.5858971],[-73.8517755,45.5854523],[-73.8521024,45.5851209],[-73.8523165,45.5849227],[-73.8524546,45.5847764],[-73.8524862,45.5847495],[-73.8528653,45.5844509],[-73.8529707,45.5843725],[-73.8533303,45.5840891],[-73.8535741,45.5839089],[-73.8538147,45.5837139],[-73.8541341,45.5834796],[-73.8542592,45.5833774],[-73.8547907,45.5830051],[-73.8550485,45.5828271],[-73.8552077,45.5827075],[-73.8559655,45.5822585],[-73.8563615,45.5820311],[-73.8565765,45.5819182]]}";9;Chemin de la Grande-Côte;1;50;false;false;false;false;false;false;695.0;1;0;4;0;0;false;81051;6119526052;-73.871123;45.571695;81052;6119526051;-73.869248;45.570642;0;22;23;9401542;Bus 91 : TERMINUS /ST-EUSTACHE / VIA 25E AVENUE;"";EXO;91;Terminus Saint-Eustache;Terminus Saint-Eustache
437524399;"{\"type\":\"LineString\",\"coordinates\":[[-73.8565765,45.5819182],[-73.856761,45.581808]]}";10;Chemin de la Grande-Côte;1;50;false;false;false;false;false;false;19.0;0;0;0;0;0;false;81051;6119526052;-73.871123;45.571695;81052;6119526051;-73.869248;45.570642;0;22;23;9401542;Bus 91 : TERMINUS /ST-EUSTACHE / VIA 25E AVENUE;"";EXO;91;Terminus Saint-Eustache;Terminus Saint-Eustache
51543690;"{\"type\":\"LineString\",\"coordinates\":[[-73.856761,45.581808],[-73.8572318,45.5815099],[-73.8574202,45.5813518],[-73.8577074,45.581046],[-73.8577355,45.5810109],[-73.8580686,45.5805262],[-73.8586582,45.5798061],[-73.8590396,45.5793433],[-73.8591898,45.5791566],[-73.85963,45.578643],[-73.8597526,45.578478],[-73.8598041,45.5784005],[-73.8600546,45.5780837],[-73.860187,45.5779353],[-73.8606223,45.577457],[-73.8610932,45.5770537],[-73.8616193,45.5765951],[-73.861769,45.5764518],[-73.8625054,45.5758614],[-73.8626065,45.5757858],[-73.8631959,45.575345],[-73.8636241,45.5749663],[-73.8636755,45.5749247],[-73.8641339,45.5745531],[-73.8646225,45.574157],[-73.8651604,45.5737209],[-73.8656164,45.5733513],[-73.8656924,45.5732897],[-73.865978,45.5730581],[-73.8664784,45.5726907],[-73.8670562,45.5722372],[-73.8671112,45.572195],[-73.8676961,45.5717868],[-73.8681074,45.5715095],[-73.8682964,45.5713794],[-73.8685078,45.5712497],[-73.8691451,45.5708228],[-73.8697677,45.5704053]]}";11;Chemin de la Grande-Côte;1;50;false;false;false;false;false;false;816.5;1;0;1;0;0;false;81051;6119526052;-73.871123;45.571695;81052;6119526051;-73.869248;45.570642;1;22;23;9401542;Bus 91 : TERMINUS /ST-EUSTACHE / VIA 25E AVENUE;"";EXO;91;Terminus Saint-Eustache;Terminus Saint-Eustache
51543690;"{\"type\":\"LineString\",\"coordinates\":[[-73.856761,45.581808],[-73.8572318,45.5815099],[-73.8574202,45.5813518],[-73.8577074,45.581046],[-73.8577355,45.5810109],[-73.8580686,45.5805262],[-73.8586582,45.5798061],[-73.8590396,45.5793433],[-73.8591898,45.5791566],[-73.85963,45.578643],[-73.8597526,45.578478],[-73.8598041,45.5784005],[-73.8600546,45.5780837],[-73.860187,45.5779353],[-73.8606223,45.577457],[-73.8610932,45.5770537],[-73.8616193,45.5765951],[-73.861769,45.5764518],[-73.8625054,45.5758614],[-73.8626065,45.5757858],[-73.8631959,45.575345],[-73.8636241,45.5749663],[-73.8636755,45.5749247],[-73.8641339,45.5745531],[-73.8646225,45.574157],[-73.8651604,45.5737209],[-73.8656164,45.5733513],[-73.8656924,45.5732897],[-73.865978,45.5730581],[-73.8664784,45.5726907],[-73.8670562,45.5722372],[-73.8671112,45.572195],[-73.8676961,45.5717868],[-73.8681074,45.5715095],[-73.8682964,45.5713794],[-73.8685078,45.5712497],[-73.8691451,45.5708228],[-73.8697677,45.5704053]]}";1;Chemin de la Grande-Côte;1;50;false;false;false;false;false;false;816.5;1;0;1;0;0;false;82413;6119524300;-73.85811;45.580406;82414;6119524299;-73.855238;45.582565;1;31;32;9401542;Bus 91 : TERMINUS /ST-EUSTACHE / VIA 25E AVENUE;"";EXO;91;Terminus Saint-Eustache;Terminus Saint-Eustache
455467986;"{\"type\":\"LineString\",\"coordinates\":[[-73.8697677,45.5704053],[-73.8703177,45.570964],[-73.8706118,45.5712627],[-73.8706688,45.5713206],[-73.8714791,45.5721436],[-73.8716425,45.5723096],[-73.8720752,45.5727608],[-73.8728246,45.5735102],[-73.8743174,45.5750265]]}";2;25e Avenue;1;50;false;false;false;false;false;false;624.0;1;0;0;0;0;false;82413;6119524300;-73.85811;45.580406;82414;6119524299;-73.855238;45.582565;0;31;32;9401542;Bus 91 : TERMINUS /ST-EUSTACHE / VIA 25E AVENUE;"";EXO;91;Terminus Saint-Eustache;Terminus Saint-Eustache
455467985;"{\"type\":\"LineString\",\"coordinates\":[[-73.8743174,45.5750265],[-73.8745263,45.575247]]}";3;25e Avenue;1;50;false;false;false;false;false;false;30.0;0;0;0;0;0;false;82413;6119524300;-73.85811;45.580406;82414;6119524299;-73.855238;45.582565;0;31;32;9401542;Bus 91 : TERMINUS /ST-EUSTACHE / VIA 25E AVENUE;"";EXO;91;Terminus Saint-Eustache;Terminus Saint-Eustache
455467984;"{\"type\":\"LineString\",\"coordinates\":[[-73.8745263,45.575247],[-73.8748309,45.575552]]}";4;25e Avenue;1;50;false;false;false;false;false;false;42.0;0;0;0;0;0;false;82413;6119524300;-73.85811;45.580406;82414;6119524299;-73.855238;45.582565;0;31;32;9401542;Bus 91 : TERMINUS /ST-EUSTACHE / VIA 25E AVENUE;"";EXO;91;Terminus Saint-Eustache;Terminus Saint-Eustache
455467987;"{\"type\":\"LineString\",\"coordinates\":[[-73.8748309,45.575552],[-73.8744575,45.5757317]]}";5;Rue Saint-Laurent;1;40;false;false;false;false;false;false;36.0;0;0;0;0;0;false;82413;6119524300;-73.85811;45.580406;82414;6119524299;-73.855238;45.582565;0;31;32;9401542;Bus 91 : TERMINUS /ST-EUSTACHE / VIA 25E AVENUE;"";EXO;91;Terminus Saint-Eustache;Terminus Saint-Eustache
94596618;"{\"type\":\"LineString\",\"coordinates\":[[-73.8744575,45.5757317],[-73.8735378,45.5761724],[-73.8731643,45.5763528],[-73.8723303,45.57675],[-73.8722258,45.5767998],[-73.8717194,45.5771542],[-73.8714619,45.5774486],[-73.8713081,45.5777357],[-73.8710733,45.578174],[-73.8707498,45.5788513],[-73.8702686,45.5797409],[-73.8702002,45.5798036],[-73.8700823,45.579817],[-73.8697684,45.5798048],[-73.8694302,45.5797917],[-73.8680985,45.57974],[-73.8674747,45.579717],[-73.8674193,45.5797195],[-73.8662344,45.5798596],[-73.866149,45.5798697],[-73.8637894,45.5810103],[-73.8635272,45.581137],[-73.8634199,45.5811889],[-73.862774,45.5815011],[-73.8622282,45.5818022],[-73.8619696,45.5820133],[-73.8617459,45.5822365],[-73.8615743,45.5825057],[-73.861497,45.582627],[-73.8614025,45.5830355],[-73.8613425,45.5838765],[-73.8613348,45.5839396],[-73.8612539,45.5846013],[-73.8612309,45.5847895],[-73.8609391,45.585222],[-73.8606644,45.5855283],[-73.860505,45.5856204],[-73.8595314,45.5861831],[-73.8586675,45.5866074],[-73.8578845,45.586992],[-73.8572517,45.5873021]]}";6;Rue Saint-Laurent;1;40;false;false;false;false;false;false;2051.0;0;0;5;0;0;false;82413;6119524300;-73.85811;45.580406;82414;6119524299;-73.855238;45.582565;0;31;32;9401542;Bus 91 : TERMINUS /ST-EUSTACHE / VIA 25E AVENUE;"";EXO;91;Terminus Saint-Eustache;Terminus Saint-Eustache
45795148;"{\"type\":\"LineString\",\"coordinates\":[[-73.8572517,45.5873021],[-73.8571537,45.5872511],[-73.8566264,45.5872092]]}";7;62e Avenue;2;30;false;true;false;false;false;false;51.0;0;0;0;0;0;false;82413;6119524300;-73.85811;45.580406;82414;6119524299;-73.855238;45.582565;0;31;32;9401542;Bus 91 : TERMINUS /ST-EUSTACHE / VIA 25E AVENUE;"";EXO;91;Terminus Saint-Eustache;Terminus Saint-Eustache
45795143;"{\"type\":\"LineString\",\"coordinates\":[[-73.8566264,45.5872092],[-73.8561784,45.5871777]]}";8;62e Avenue;2;30;false;false;false;false;false;false;36.0;0;0;0;0;0;false;82413;6119524300;-73.85811;45.580406;82414;6119524299;-73.855238;45.582565;0;31;32;9401542;Bus 91 : TERMINUS /ST-EUSTACHE / VIA 25E AVENUE;"";EXO;91;Terminus Saint-Eustache;Terminus Saint-Eustache
45795132;"{\"type\":\"LineString\",\"coordinates\":[[-73.8561784,45.5871777],[-73.855244,45.5871054],[-73.8531183,45.586994],[-73.8528094,45.5870539],[-73.852358,45.5871844],[-73.8521529,45.5871824],[-73.8519741,45.5871536],[-73.851795,45.5871338],[-73.8515399,45.5870682],[-73.8513365,45.5869851],[-73.8508037,45.58664],[-73.8507126,45.586581]]}";9;62e Avenue;2;30;false;false;false;false;false;false;453.0;0;0;1;0;0;false;82413;6119524300;-73.85811;45.580406;82414;6119524299;-73.855238;45.582565;0;31;32;9401542;Bus 91 : TERMINUS /ST-EUSTACHE / VIA 25E AVENUE;"";EXO;91;Terminus Saint-Eustache;Terminus Saint-Eustache
620935720;"{\"type\":\"LineString\",\"coordinates\":[[-73.8507126,45.586581],[-73.8507919,45.5864977],[-73.8513588,45.5858971],[-73.8517755,45.5854523],[-73.8521024,45.5851209],[-73.8523165,45.5849227],[-73.8524546,45.5847764],[-73.8524862,45.5847495],[-73.8528653,45.5844509],[-73.8529707,45.5843725],[-73.8533303,45.5840891],[-73.8535741,45.5839089],[-73.8538147,45.5837139],[-73.8541341,45.5834796],[-73.8542592,45.5833774],[-73.8547907,45.5830051],[-73.8550485,45.5828271],[-73.8552077,45.5827075],[-73.8559655,45.5822585],[-73.8563615,45.5820311],[-73.8565765,45.5819182]]}";10;Chemin de la Grande-Côte;1;50;false;false;false;false;false;false;347.5;1;0;4;0;0;false;82413;6119524300;-73.85811;45.580406;82414;6119524299;-73.855238;45.582565;1;31;32;9401542;Bus 91 : TERMINUS /ST-EUSTACHE / VIA 25E AVENUE;"";EXO;91;Terminus Saint-Eustache;Terminus Saint-Eustache
620935720;"{\"type\":\"LineString\",\"coordinates\":[[-73.8507126,45.586581],[-73.8507919,45.5864977],[-73.8513588,45.5858971],[-73.8517755,45.5854523],[-73.8521024,45.5851209],[-73.8523165,45.5849227],[-73.8524546,45.5847764],[-73.8524862,45.5847495],[-73.8528653,45.5844509],[-73.8529707,45.5843725],[-73.8533303,45.5840891],[-73.8535741,45.5839089],[-73.8538147,45.5837139],[-73.8541341,45.5834796],[-73.8542592,45.5833774],[-73.8547907,45.5830051],[-73.8550485,45.5828271],[-73.8552077,45.5827075],[-73.8559655,45.5822585],[-73.8563615,45.5820311],[-73.8565765,45.5819182]]}";1;Chemin de la Grande-Côte;1;50;false;false;false;false;false;false;347.5;1;0;4;0;0;false;82417;6119524296;-73.85083;45.586364;81059;6119526045;-73.855131;45.587149;1;35;36;9401542;Bus 91 : TERMINUS /ST-EUSTACHE / VIA 25E AVENUE;"";EXO;91;Terminus Saint-Eustache;Terminus Saint-Eustache
45795132;"{\"type\":\"LineString\",\"coordinates\":[[-73.8561784,45.5871777],[-73.855244,45.5871054],[-73.8531183,45.586994],[-73.8528094,45.5870539],[-73.852358,45.5871844],[-73.8521529,45.5871824],[-73.8519741,45.5871536],[-73.851795,45.5871338],[-73.8515399,45.5870682],[-73.8513365,45.5869851],[-73.8508037,45.58664],[-73.8507126,45.586581]]}";2;62e Avenue;2;30;false;false;false;false;false;false;226.5;0;0;1;0;0;false;82417;6119524296;-73.85083;45.586364;81059;6119526045;-73.855131;45.587149;1;35;36;9401542;Bus 91 : TERMINUS /ST-EUSTACHE / VIA 25E AVENUE;"";EXO;91;Terminus Saint-Eustache;Terminus Saint-Eustache
45795132;"{\"type\":\"LineString\",\"coordinates\":[[-73.8561784,45.5871777],[-73.855244,45.5871054],[-73.8531183,45.586994],[-73.8528094,45.5870539],[-73.852358,45.5871844],[-73.8521529,45.5871824],[-73.8519741,45.5871536],[-73.851795,45.5871338],[-73.8515399,45.5870682],[-73.8513365,45.5869851],[-73.8508037,45.58664],[-73.8507126,45.586581]]}";1;62e Avenue;2;30;false;false;false;false;false;false;226.5;0;0;1;0;0;false;81059;6119526045;-73.855131;45.587149;81302;6119525362;-73.857119;45.5873;1;36;37;9401542;Bus 91 : TERMINUS /ST-EUSTACHE / VIA 25E AVENUE;"";EXO;91;Terminus Saint-Eustache;Terminus Saint-Eustache
45795143;"{\"type\":\"LineString\",\"coordinates\":[[-73.8566264,45.5872092],[-73.8561784,45.5871777]]}";2;62e Avenue;2;30;false;false;false;false;false;false;36.0;0;0;0;0;0;false;81059;6119526045;-73.855131;45.587149;81302;6119525362;-73.857119;45.5873;0;36;37;9401542;Bus 91 : TERMINUS /ST-EUSTACHE / VIA 25E AVENUE;"";EXO;91;Terminus Saint-Eustache;Terminus Saint-Eustache
45795148;"{\"type\":\"LineString\",\"coordinates\":[[-73.8572517,45.5873021],[-73.8571537,45.5872511],[-73.8566264,45.5872092]]}";3;62e Avenue;2;30;false;true;false;false;false;false;25.5;0;0;0;0;0;false;81059;6119526045;-73.855131;45.587149;81302;6119525362;-73.857119;45.5873;1;36;37;9401542;Bus 91 : TERMINUS /ST-EUSTACHE / VIA 25E AVENUE;"";EXO;91;Terminus Saint-Eustache;Terminus Saint-Eustache
94596618;"{\"type\":\"LineString\",\"coordinates\":[[-73.8744575,45.5757317],[-73.8735378,45.5761724],[-73.8731643,45.5763528],[-73.8723303,45.57675],[-73.8722258,45.5767998],[-73.8717194,45.5771542],[-73.8714619,45.5774486],[-73.8713081,45.5777357],[-73.8710733,45.578174],[-73.8707498,45.5788513],[-73.8702686,45.5797409],[-73.8702002,45.5798036],[-73.8700823,45.579817],[-73.8697684,45.5798048],[-73.8694302,45.5797917],[-73.8680985,45.57974],[-73.8674747,45.579717],[-73.8674193,45.5797195],[-73.8662344,45.5798596],[-73.866149,45.5798697],[-73.8637894,45.5810103],[-73.8635272,45.581137],[-73.8634199,45.5811889],[-73.862774,45.5815011],[-73.8622282,45.5818022],[-73.8619696,45.5820133],[-73.8617459,45.5822365],[-73.8615743,45.5825057],[-73.861497,45.582627],[-73.8614025,45.5830355],[-73.8613425,45.5838765],[-73.8613348,45.5839396],[-73.8612539,45.5846013],[-73.8612309,45.5847895],[-73.8609391,45.585222],[-73.8606644,45.5855283],[-73.860505,45.5856204],[-73.8595314,45.5861831],[-73.8586675,45.5866074],[-73.8578845,45.586992],[-73.8572517,45.5873021]]}";1;Rue Saint-Laurent;1;40;false;false;false;false;false;false;1025.5;0;0;5;0;0;false;81066;6119526038;-73.87138;45.577772;81067;6119526037;-73.874725;45.575629;1;45;46;9401542;Bus 91 : TERMINUS /ST-EUSTACHE / VIA 25E AVENUE;"";EXO;91;Terminus Saint-Eustache;Terminus Saint-Eustache
45795148;"{\"type\":\"LineString\",\"coordinates\":[[-73.8572517,45.5873021],[-73.8571537,45.5872511],[-73.8566264,45.5872092]]}";2;62e Avenue;2;30;false;true;false;false;false;false;51.0;0;0;0;0;0;false;81066;6119526038;-73.87138;45.577772;81067;6119526037;-73.874725;45.575629;0;45;46;9401542;Bus 91 : TERMINUS /ST-EUSTACHE / VIA 25E AVENUE;"";EXO;91;Terminus Saint-Eustache;Terminus Saint-Eustache
45795143;"{\"type\":\"LineString\",\"coordinates\":[[-73.8566264,45.5872092],[-73.8561784,45.5871777]]}";3;62e Avenue;2;30;false;false;false;false;false;false;36.0;0;0;0;0;0;false;81066;6119526038;-73.87138;45.577772;81067;6119526037;-73.874725;45.575629;0;45;46;9401542;Bus 91 : TERMINUS /ST-EUSTACHE / VIA 25E AVENUE;"";EXO;91;Terminus Saint-Eustache;Terminus Saint-Eustache
45795132;"{\"type\":\"LineString\",\"coordinates\":[[-73.8561784,45.5871777],[-73.855244,45.5871054],[-73.8531183,45.586994],[-73.8528094,45.5870539],[-73.852358,45.5871844],[-73.8521529,45.5871824],[-73.8519741,45.5871536],[-73.851795,45.5871338],[-73.8515399,45.5870682],[-73.8513365,45.5869851],[-73.8508037,45.58664],[-73.8507126,45.586581]]}";4;62e Avenue;2;30;false;false;false;false;false;false;453.0;0;0;1;0;0;false;81066;6119526038;-73.87138;45.577772;81067;6119526037;-73.874725;45.575629;0;45;46;9401542;Bus 91 : TERMINUS /ST-EUSTACHE / VIA 25E AVENUE;"";EXO;91;Terminus Saint-Eustache;Terminus Saint-Eustache
620935720;"{\"type\":\"LineString\",\"coordinates\":[[-73.8507126,45.586581],[-73.8507919,45.5864977],[-73.8513588,45.5858971],[-73.8517755,45.5854523],[-73.8521024,45.5851209],[-73.8523165,45.5849227],[-73.8524546,45.5847764],[-73.8524862,45.5847495],[-73.8528653,45.5844509],[-73.8529707,45.5843725],[-73.8533303,45.5840891],[-73.8535741,45.5839089],[-73.8538147,45.5837139],[-73.8541341,45.5834796],[-73.8542592,45.5833774],[-73.8547907,45.5830051],[-73.8550485,45.5828271],[-73.8552077,45.5827075],[-73.8559655,45.5822585],[-73.8563615,45.5820311],[-73.8565765,45.5819182]]}";5;Chemin de la Grande-Côte;1;50;false;false;false;false;false;false;695.0;1;0;4;0;0;false;81066;6119526038;-73.87138;45.577772;81067;6119526037;-73.874725;45.575629;0;45;46;9401542;Bus 91 : TERMINUS /ST-EUSTACHE / VIA 25E AVENUE;"";EXO;91;Terminus Saint-Eustache;Terminus Saint-Eustache
437524399;"{\"type\":\"LineString\",\"coordinates\":[[-73.8565765,45.5819182],[-73.856761,45.581808]]}";6;Chemin de la Grande-Côte;1;50;false;false;false;false;false;false;19.0;0;0;0;0;0;false;81066;6119526038;-73.87138;45.577772;81067;6119526037;-73.874725;45.575629;0;45;46;9401542;Bus 91 : TERMINUS /ST-EUSTACHE / VIA 25E AVENUE;"";EXO;91;Terminus Saint-Eustache;Terminus Saint-Eustache
51543690;"{\"type\":\"LineString\",\"coordinates\":[[-73.856761,45.581808],[-73.8572318,45.5815099],[-73.8574202,45.5813518],[-73.8577074,45.581046],[-73.8577355,45.5810109],[-73.8580686,45.5805262],[-73.8586582,45.5798061],[-73.8590396,45.5793433],[-73.8591898,45.5791566],[-73.85963,45.578643],[-73.8597526,45.578478],[-73.8598041,45.5784005],[-73.8600546,45.5780837],[-73.860187,45.5779353],[-73.8606223,45.577457],[-73.8610932,45.5770537],[-73.8616193,45.5765951],[-73.861769,45.5764518],[-73.8625054,45.5758614],[-73.8626065,45.5757858],[-73.8631959,45.575345],[-73.8636241,45.5749663],[-73.8636755,45.5749247],[-73.8641339,45.5745531],[-73.8646225,45.574157],[-73.8651604,45.5737209],[-73.8656164,45.5733513],[-73.8656924,45.5732897],[-73.865978,45.5730581],[-73.8664784,45.5726907],[-73.8670562,45.5722372],[-73.8671112,45.572195],[-73.8676961,45.5717868],[-73.8681074,45.5715095],[-73.8682964,45.5713794],[-73.8685078,45.5712497],[-73.8691451,45.5708228],[-73.8697677,45.5704053]]}";7;Chemin de la Grande-Côte;1;50;false;false;false;false;false;false;1633.0;1;0;1;0;0;false;81066;6119526038;-73.87138;45.577772;81067;6119526037;-73.874725;45.575629;0;45;46;9401542;Bus 91 : TERMINUS /ST-EUSTACHE / VIA 25E AVENUE;"";EXO;91;Terminus Saint-Eustache;Terminus Saint-Eustache
455467986;"{\"type\":\"LineString\",\"coordinates\":[[-73.8697677,45.5704053],[-73.8703177,45.570964],[-73.8706118,45.5712627],[-73.8706688,45.5713206],[-73.8714791,45.5721436],[-73.8716425,45.5723096],[-73.8720752,45.5727608],[-73.8728246,45.5735102],[-73.8743174,45.5750265]]}";8;25e Avenue;1;50;false;false;false;false;false;false;624.0;1;0;0;0;0;false;81066;6119526038;-73.87138;45.577772;81067;6119526037;-73.874725;45.575629;0;45;46;9401542;Bus 91 : TERMINUS /ST-EUSTACHE / VIA 25E AVENUE;"";EXO;91;Terminus Saint-Eustache;Terminus Saint-Eustache
455467985;"{\"type\":\"LineString\",\"coordinates\":[[-73.8743174,45.5750265],[-73.8745263,45.575247]]}";9;25e Avenue;1;50;false;false;false;false;false;false;30.0;0;0;0;0;0;false;81066;6119526038;-73.87138;45.577772;81067;6119526037;-73.874725;45.575629;0;45;46;9401542;Bus 91 : TERMINUS /ST-EUSTACHE / VIA 25E AVENUE;"";EXO;91;Terminus Saint-Eustache;Terminus Saint-Eustache
455467984;"{\"type\":\"LineString\",\"coordinates\":[[-73.8745263,45.575247],[-73.8748309,45.575552]]}";10;25e Avenue;1;50;false;false;false;false;false;false;42.0;0;0;0;0;0;false;81066;6119526038;-73.87138;45.577772;81067;6119526037;-73.874725;45.575629;0;45;46;9401542;Bus 91 : TERMINUS /ST-EUSTACHE / VIA 25E AVENUE;"";EXO;91;Terminus Saint-Eustache;Terminus Saint-Eustache
455467987;"{\"type\":\"LineString\",\"coordinates\":[[-73.8748309,45.575552],[-73.8744575,45.5757317]]}";11;Rue Saint-Laurent;1;40;false;false;false;false;false;false;18.0;0;0;0;0;0;false;81066;6119526038;-73.87138;45.577772;81067;6119526037;-73.874725;45.575629;1;45;46;9401542;Bus 91 : TERMINUS /ST-EUSTACHE / VIA 25E AVENUE;"";EXO;91;Terminus Saint-Eustache;Terminus Saint-Eustache
455467983;"{\"type\":\"LineString\",\"coordinates\":[[-73.8748309,45.575552],[-73.8751397,45.5758632]]}";1;25e Avenue;1;50;false;false;false;false;false;false;43.0;0;0;0;0;0;false;81067;6119526037;-73.874725;45.575629;81252;6119525704;-73.876819;45.574656;2;46;47;9401542;Bus 91 : TERMINUS /ST-EUSTACHE / VIA 25E AVENUE;"";EXO;91;Terminus Saint-Eustache;Terminus Saint-Eustache
455467987;"{\"type\":\"LineString\",\"coordinates\":[[-73.8748309,45.575552],[-73.8744575,45.5757317]]}";2;Rue Saint-Laurent;1;40;false;false;false;false;false;false;36.0;0;0;0;0;0;false;81067;6119526037;-73.874725;45.575629;81252;6119525704;-73.876819;45.574656;0;46;47;9401542;Bus 91 : TERMINUS /ST-EUSTACHE / VIA 25E AVENUE;"";EXO;91;Terminus Saint-Eustache;Terminus Saint-Eustache
455467984;"{\"type\":\"LineString\",\"coordinates\":[[-73.8745263,45.575247],[-73.8748309,45.575552]]}";3;25e Avenue;1;50;false;false;false;false;false;false;42.0;0;0;0;0;0;false;81067;6119526037;-73.874725;45.575629;81252;6119525704;-73.876819;45.574656;0;46;47;9401542;Bus 91 : TERMINUS /ST-EUSTACHE / VIA 25E AVENUE;"";EXO;91;Terminus Saint-Eustache;Terminus Saint-Eustache
455467988;"{\"type\":\"LineString\",\"coordinates\":[[-73.875252,45.5753399],[-73.8748309,45.575552]]}";4;Rue Saint-Laurent;1;40;false;false;false;false;false;false;41.0;0;0;0;0;0;false;81067;6119526037;-73.874725;45.575629;81252;6119525704;-73.876819;45.574656;0;46;47;9401542;Bus 91 : TERMINUS /ST-EUSTACHE / VIA 25E AVENUE;"";EXO;91;Terminus Saint-Eustache;Terminus Saint-Eustache
742060125;"{\"type\":\"LineString\",\"coordinates\":[[-73.8823373,45.5716651],[-73.8822514,45.571785],[-73.8819738,45.5720705],[-73.8817965,45.5721996],[-73.8812816,45.572506],[-73.8794963,45.5733291],[-73.8793182,45.5734136],[-73.8777575,45.5741645],[-73.8768632,45.574578],[-73.8763549,45.5748191],[-73.8755385,45.5752046],[-73.875252,45.5753399]]}";5;Rue Saint-Laurent;1;40;false;false;false;false;false;false;692.0;0;0;0;0;0;false;81067;6119526037;-73.874725;45.575629;81252;6119525704;-73.876819;45.574656;2;46;47;9401542;Bus 91 : TERMINUS /ST-EUSTACHE / VIA 25E AVENUE;"";EXO;91;Terminus Saint-Eustache;Terminus Saint-Eustache
742060125;"{\"type\":\"LineString\",\"coordinates\":[[-73.8823373,45.5716651],[-73.8822514,45.571785],[-73.8819738,45.5720705],[-73.8817965,45.5721996],[-73.8812816,45.572506],[-73.8794963,45.5733291],[-73.8793182,45.5734136],[-73.8777575,45.5741645],[-73.8768632,45.574578],[-73.8763549,45.5748191],[-73.8755385,45.5752046],[-73.875252,45.5753399]]}";1;Rue Saint-Laurent;1;40;false;false;false;false;false;false;346.0;0;0;0;0;0;false;81253;6119525703;-73.879242;45.573498;81254;6119525702;-73.883314;45.570151;1;48;49;9401542;Bus 91 : TERMINUS /ST-EUSTACHE / VIA 25E AVENUE;"";EXO;91;Terminus Saint-Eustache;Terminus Saint-Eustache
455467989;"{\"type\":\"LineString\",\"coordinates\":[[-73.8873702,45.5684211],[-73.8865885,45.5684222],[-73.8862471,45.5684588],[-73.8858703,45.568517],[-73.8855229,45.568593],[-73.8852225,45.5686889],[-73.8849347,45.5688],[-73.8845922,45.5689696],[-73.8844219,45.5690691],[-73.8842883,45.5691535],[-73.8840464,45.569331],[-73.8838318,45.5695122],[-73.8836339,45.5697003],[-73.8834137,45.5699314],[-73.8832936,45.5700756],[-73.8830407,45.570455],[-73.8827063,45.5710415],[-73.8823373,45.5716651]]}";2;Rue Saint-Laurent;1;30;false;false;false;false;false;false;291.5;1;0;2;0;0;false;81253;6119525703;-73.879242;45.573498;81254;6119525702;-73.883314;45.570151;1;48;49;9401542;Bus 91 : TERMINUS /ST-EUSTACHE / VIA 25E AVENUE;"";EXO;91;Terminus Saint-Eustache;Terminus Saint-Eustache
455467989;"{\"type\":\"LineString\",\"coordinates\":[[-73.8873702,45.5684211],[-73.8865885,45.5684222],[-73.8862471,45.5684588],[-73.8858703,45.568517],[-73.8855229,45.568593],[-73.8852225,45.5686889],[-73.8849347,45.5688],[-73.8845922,45.5689696],[-73.8844219,45.5690691],[-73.8842883,45.5691535],[-73.8840464,45.569331],[-73.8838318,45.5695122],[-73.8836339,45.5697003],[-73.8834137,45.5699314],[-73.8832936,45.5700756],[-73.8830407,45.570455],[-73.8827063,45.5710415],[-73.8823373,45.5716651]]}";1;Rue Saint-Laurent;1;30;false;false;false;false;false;false;291.5;1;0;2;0;0;false;81144;6119525769;-73.886801;45.56851;81143;6119525770;-73.890051;45.568167;1;50;51;9401542;Bus 91 : TERMINUS /ST-EUSTACHE / VIA 25E AVENUE;"";EXO;91;Terminus Saint-Eustache;Terminus Saint-Eustache
676886046;"{\"type\":\"LineString\",\"coordinates\":[[-73.8875079,45.5684172],[-73.8873702,45.5684211]]}";2;Rue Saint-Laurent;1;40;false;false;false;false;false;false;11.0;2;0;0;0;0;false;81144;6119525769;-73.886801;45.56851;81143;6119525770;-73.890051;45.568167;0;50;51;9401542;Bus 91 : TERMINUS /ST-EUSTACHE / VIA 25E AVENUE;"";EXO;91;Terminus Saint-Eustache;Terminus Saint-Eustache
676886055;"{\"type\":\"LineString\",\"coordinates\":[[-73.8940962,45.5665325],[-73.8932565,45.5669128],[-73.8922128,45.5674023],[-73.8915898,45.5676572],[-73.8913097,45.5677645],[-73.8910322,45.5678599],[-73.8907653,45.5679425],[-73.8903624,45.5680598],[-73.8901243,45.5681218],[-73.8899554,45.5681623],[-73.8898829,45.5681809],[-73.889597,45.5682383],[-73.8892161,45.5682875],[-73.8889524,45.5683162],[-73.8886464,45.5683546],[-73.8885473,45.5683636],[-73.8883197,45.5683842],[-73.8877639,45.5684194],[-73.8875079,45.5684172]]}";3;Rue Saint-Laurent;1;40;false;false;false;false;false;false;283.0;1;0;2;0;0;false;81144;6119525769;-73.886801;45.56851;81143;6119525770;-73.890051;45.568167;1;50;51;9401542;Bus 91 : TERMINUS /ST-EUSTACHE / VIA 25E AVENUE;"";EXO;91;Terminus Saint-Eustache;Terminus Saint-Eustache
46704337;"{\"type\":\"LineString\",\"coordinates\":[[-73.901053,45.5632075],[-73.901247,45.5633982],[-73.9013784,45.5635273],[-73.9024032,45.5645344],[-73.903455,45.5655677],[-73.9040692,45.5661716]]}";1;Rue Hémond;2;40;false;false;true;false;false;false;405.0;0;0;3;0;0;false;81043;6119526060;-73.901024;45.563284;81045;6119526058;-73.899457;45.561556;2;56;57;9401542;Bus 91 : TERMINUS /ST-EUSTACHE / VIA 25E AVENUE;"";EXO;91;Terminus Saint-Eustache;Terminus Saint-Eustache
677250677;"{\"type\":\"LineString\",\"coordinates\":[[-73.9040692,45.5661716],[-73.9033367,45.5665635]]}";2;Boulevard Pie-XII;2;40;false;false;false;false;false;false;72.0;0;0;2;0;0;false;81043;6119526060;-73.901024;45.563284;81045;6119526058;-73.899457;45.561556;0;56;57;9401542;Bus 91 : TERMINUS /ST-EUSTACHE / VIA 25E AVENUE;"";EXO;91;Terminus Saint-Eustache;Terminus Saint-Eustache
46704329;"{\"type\":\"LineString\",\"coordinates\":[[-73.9033367,45.5665635],[-73.9039438,45.5671238],[-73.9043817,45.5676689],[-73.9045442,45.5678457],[-73.9051939,45.5685239],[-73.9061166,45.5694452],[-73.9066455,45.5699519]]}";3;Rue Constantiin;2;40;false;false;true;false;false;false;457.0;0;0;3;0;0;false;81043;6119526060;-73.901024;45.563284;81045;6119526058;-73.899457;45.561556;0;56;57;9401542;Bus 91 : TERMINUS /ST-EUSTACHE / VIA 25E AVENUE;"";EXO;91;Terminus Saint-Eustache;Terminus Saint-Eustache
283412720;"{\"type\":\"LineString\",\"coordinates\":[[-73.8919196,45.5750624],[-73.8956227,45.5739468],[-73.8965604,45.5736602],[-73.8975745,45.5733546],[-73.8987395,45.5730111],[-73.9000008,45.5726105],[-73.9012031,45.5722393],[-73.9013413,45.5721963],[-73.9024627,45.5718483],[-73.9033429,45.5715222],[-73.9044165,45.571091],[-73.9056947,45.5704694],[-73.9065319,45.5700454],[-73.9065917,45.5700051],[-73.9066455,45.5699519]]}";4;Rue Hector-Lanthier;1;50;false;false;true;false;false;false;1286.0;0;0;4;0;0;false;81043;6119526060;-73.901024;45.563284;81045;6119526058;-73.899457;45.561556;0;56;57;9401542;Bus 91 : TERMINUS /ST-EUSTACHE / VIA 25E AVENUE;"";EXO;91;Terminus Saint-Eustache;Terminus Saint-Eustache
93378549;"{\"type\":\"LineString\",\"coordinates\":[[-73.8917479,45.5751044],[-73.8919196,45.5750624]]}";5;Rue Hector-Lanthier;1;40;false;false;false;false;false;false;15.0;0;0;2;0;0;false;81043;6119526060;-73.901024;45.563284;81045;6119526058;-73.899457;45.561556;0;56;57;9401542;Bus 91 : TERMINUS /ST-EUSTACHE / VIA 25E AVENUE;"";EXO;91;Terminus Saint-Eustache;Terminus Saint-Eustache
93378545;"{\"type\":\"LineString\",\"coordinates\":[[-73.8789964,45.5788911],[-73.8798346,45.5785048],[-73.8801035,45.5784032],[-73.8804338,45.5783242],[-73.8814225,45.5782044],[-73.8822893,45.5780783],[-73.8828472,45.5779822],[-73.8836204,45.5777101],[-73.8837399,45.5776638],[-73.8851046,45.5771591],[-73.8866546,45.5766671],[-73.8877224,45.5763361],[-73.8917479,45.5751044]]}";6;Rue Hector-Lanthier;1;50;false;false;false;false;false;false;1086.0;0;0;2;0;0;false;81043;6119526060;-73.901024;45.563284;81045;6119526058;-73.899457;45.561556;0;56;57;9401542;Bus 91 : TERMINUS /ST-EUSTACHE / VIA 25E AVENUE;"";EXO;91;Terminus Saint-Eustache;Terminus Saint-Eustache
45794845;"{\"type\":\"LineString\",\"coordinates\":[[-73.8789964,45.5788911],[-73.8785717,45.5789298],[-73.8783804,45.5788829],[-73.8781391,45.5787725]]}";7;"";1;50;false;true;false;false;false;false;72.0;0;0;0;0;0;false;81043;6119526060;-73.901024;45.563284;81045;6119526058;-73.899457;45.561556;0;56;57;9401542;Bus 91 : TERMINUS /ST-EUSTACHE / VIA 25E AVENUE;"";EXO;91;Terminus Saint-Eustache;Terminus Saint-Eustache
45821342;"{\"type\":\"LineString\",\"coordinates\":[[-73.8781391,45.5787725],[-73.8777232,45.5784416]]}";8;25e Avenue;2;50;false;true;false;false;false;false;50.0;0;0;0;0;0;false;81043;6119526060;-73.901024;45.563284;81045;6119526058;-73.899457;45.561556;0;56;57;9401542;Bus 91 : TERMINUS /ST-EUSTACHE / VIA 25E AVENUE;"";EXO;91;Terminus Saint-Eustache;Terminus Saint-Eustache
455467990;"{\"type\":\"LineString\",\"coordinates\":[[-73.8777232,45.5784416],[-73.8774075,45.5781205]]}";9;25e Avenue;1;50;false;true;false;false;false;false;44.0;0;0;0;0;0;false;81043;6119526060;-73.901024;45.563284;81045;6119526058;-73.899457;45.561556;0;56;57;9401542;Bus 91 : TERMINUS /ST-EUSTACHE / VIA 25E AVENUE;"";EXO;91;Terminus Saint-Eustache;Terminus Saint-Eustache
18834972;"{\"type\":\"LineString\",\"coordinates\":[[-73.8751397,45.5758632],[-73.875516,45.5762388],[-73.8762211,45.5769428],[-73.8772469,45.5779594],[-73.8774075,45.5781205]]}";10;25e Avenue;1;50;false;false;false;false;false;false;307.0;0;0;0;0;0;false;81043;6119526060;-73.901024;45.563284;81045;6119526058;-73.899457;45.561556;0;56;57;9401542;Bus 91 : TERMINUS /ST-EUSTACHE / VIA 25E AVENUE;"";EXO;91;Terminus Saint-Eustache;Terminus Saint-Eustache
455467983;"{\"type\":\"LineString\",\"coordinates\":[[-73.8748309,45.575552],[-73.8751397,45.5758632]]}";11;25e Avenue;1;50;false;false;false;false;false;false;43.0;0;0;0;0;0;false;81043;6119526060;-73.901024;45.563284;81045;6119526058;-73.899457;45.561556;0;56;57;9401542;Bus 91 : TERMINUS /ST-EUSTACHE / VIA 25E AVENUE;"";EXO;91;Terminus Saint-Eustache;Terminus Saint-Eustache
455467987;"{\"type\":\"LineString\",\"coordinates\":[[-73.8748309,45.575552],[-73.8744575,45.5757317]]}";12;Rue Saint-Laurent;1;40;false;false;false;false;false;false;36.0;0;0;0;0;0;false;81043;6119526060;-73.901024;45.563284;81045;6119526058;-73.899457;45.561556;0;56;57;9401542;Bus 91 : TERMINUS /ST-EUSTACHE / VIA 25E AVENUE;"";EXO;91;Terminus Saint-Eustache;Terminus Saint-Eustache
455467988;"{\"type\":\"LineString\",\"coordinates\":[[-73.875252,45.5753399],[-73.8748309,45.575552]]}";13;Rue Saint-Laurent;1;40;false;false;false;false;false;false;41.0;0;0;0;0;0;false;81043;6119526060;-73.901024;45.563284;81045;6119526058;-73.899457;45.561556;0;56;57;9401542;Bus 91 : TERMINUS /ST-EUSTACHE / VIA 25E AVENUE;"";EXO;91;Terminus Saint-Eustache;Terminus Saint-Eustache
742060125;"{\"type\":\"LineString\",\"coordinates\":[[-73.8823373,45.5716651],[-73.8822514,45.571785],[-73.8819738,45.5720705],[-73.8817965,45.5721996],[-73.8812816,45.572506],[-73.8794963,45.5733291],[-73.8793182,45.5734136],[-73.8777575,45.5741645],[-73.8768632,45.574578],[-73.8763549,45.5748191],[-73.8755385,45.5752046],[-73.875252,45.5753399]]}";14;Rue Saint-Laurent;1;40;false;false;false;false;false;false;692.0;0;0;0;0;0;false;81043;6119526060;-73.901024;45.563284;81045;6119526058;-73.899457;45.561556;0;56;57;9401542;Bus 91 : TERMINUS /ST-EUSTACHE / VIA 25E AVENUE;"";EXO;91;Terminus Saint-Eustache;Terminus Saint-Eustache
455467989;"{\"type\":\"LineString\",\"coordinates\":[[-73.8873702,45.5684211],[-73.8865885,45.5684222],[-73.8862471,45.5684588],[-73.8858703,45.568517],[-73.8855229,45.568593],[-73.8852225,45.5686889],[-73.8849347,45.5688],[-73.8845922,45.5689696],[-73.8844219,45.5690691],[-73.8842883,45.5691535],[-73.8840464,45.569331],[-73.8838318,45.5695122],[-73.8836339,45.5697003],[-73.8834137,45.5699314],[-73.8832936,45.5700756],[-73.8830407,45.570455],[-73.8827063,45.5710415],[-73.8823373,45.5716651]]}";15;Rue Saint-Laurent;1;30;false;false;false;false;false;false;583.0;1;0;2;0;0;false;81043;6119526060;-73.901024;45.563284;81045;6119526058;-73.899457;45.561556;0;56;57;9401542;Bus 91 : TERMINUS /ST-EUSTACHE / VIA 25E AVENUE;"";EXO;91;Terminus Saint-Eustache;Terminus Saint-Eustache
676886046;"{\"type\":\"LineString\",\"coordinates\":[[-73.8875079,45.5684172],[-73.8873702,45.5684211]]}";16;Rue Saint-Laurent;1;40;false;false;false;false;false;false;11.0;2;0;0;0;0;false;81043;6119526060;-73.901024;45.563284;81045;6119526058;-73.899457;45.561556;0;56;57;9401542;Bus 91 : TERMINUS /ST-EUSTACHE / VIA 25E AVENUE;"";EXO;91;Terminus Saint-Eustache;Terminus Saint-Eustache
676886055;"{\"type\":\"LineString\",\"coordinates\":[[-73.8940962,45.5665325],[-73.8932565,45.5669128],[-73.8922128,45.5674023],[-73.8915898,45.5676572],[-73.8913097,45.5677645],[-73.8910322,45.5678599],[-73.8907653,45.5679425],[-73.8903624,45.5680598],[-73.8901243,45.5681218],[-73.8899554,45.5681623],[-73.8898829,45.5681809],[-73.889597,45.5682383],[-73.8892161,45.5682875],[-73.8889524,45.5683162],[-73.8886464,45.5683546],[-73.8885473,45.5683636],[-73.8883197,45.5683842],[-73.8877639,45.5684194],[-73.8875079,45.5684172]]}";17;Rue Saint-Laurent;1;40;false;false;false;false;false;false;566.0;1;0;2;0;0;false;81043;6119526060;-73.901024;45.563284;81045;6119526058;-73.899457;45.561556;0;56;57;9401542;Bus 91 : TERMINUS /ST-EUSTACHE / VIA 25E AVENUE;"";EXO;91;Terminus Saint-Eustache;Terminus Saint-Eustache
18836179;"{\"type\":\"LineString\",\"coordinates\":[[-73.901053,45.5632075],[-73.9006889,45.5633815],[-73.9006364,45.5634066],[-73.9002268,45.5636024],[-73.8994484,45.5639744],[-73.898669,45.564347],[-73.8978441,45.5647254],[-73.8970361,45.5651023],[-73.8961645,45.5655292],[-73.8959522,45.5656274],[-73.8950249,45.566044],[-73.8940962,45.5665325]]}";18;Rue Saint-Laurent;1;40;false;false;false;false;false;false;657.0;0;0;2;0;0;false;81043;6119526060;-73.901024;45.563284;81045;6119526058;-73.899457;45.561556;0;56;57;9401542;Bus 91 : TERMINUS /ST-EUSTACHE / VIA 25E AVENUE;"";EXO;91;Terminus Saint-Eustache;Terminus Saint-Eustache
46704387;"{\"type\":\"LineString\",\"coordinates\":[[-73.8987945,45.5609873],[-73.8991406,45.5613276],[-73.8993961,45.5615787],[-73.8996457,45.5618252],[-73.900054,45.5622255],[-73.9002014,45.5623703],[-73.9003032,45.5624704],[-73.9004256,45.5625908],[-73.900556,45.5627189],[-73.9006694,45.5628304],[-73.9007988,45.5629576],[-73.9009161,45.5630729],[-73.901053,45.5632075]]}";19;Rue Hémond;2;40;false;false;true;false;false;false;304.0;1;0;1;0;0;false;81043;6119526060;-73.901024;45.563284;81045;6119526058;-73.899457;45.561556;2;56;57;9401542;Bus 91 : TERMINUS /ST-EUSTACHE / VIA 25E AVENUE;"";EXO;91;Terminus Saint-Eustache;Terminus Saint-Eustache
46704387;"{\"type\":\"LineString\",\"coordinates\":[[-73.8987945,45.5609873],[-73.8991406,45.5613276],[-73.8993961,45.5615787],[-73.8996457,45.5618252],[-73.900054,45.5622255],[-73.9002014,45.5623703],[-73.9003032,45.5624704],[-73.9004256,45.5625908],[-73.900556,45.5627189],[-73.9006694,45.5628304],[-73.9007988,45.5629576],[-73.9009161,45.5630729],[-73.901053,45.5632075]]}";1;Rue Hémond;2;40;false;false;true;false;false;false;152.0;1;0;1;0;0;false;81045;6119526058;-73.899457;45.561556;81163;6119525756;-73.895763;45.561281;1;57;58;9401542;Bus 91 : TERMINUS /ST-EUSTACHE / VIA 25E AVENUE;"";EXO;91;Terminus Saint-Eustache;Terminus Saint-Eustache
676848392;"{\"type\":\"LineString\",\"coordinates\":[[-73.8940648,45.5617058],[-73.8957361,45.5614448],[-73.8965451,45.5613214],[-73.8967629,45.5612857],[-73.8975802,45.5611394],[-73.8977713,45.5611204],[-73.8981604,45.5610604],[-73.8982619,45.5610445],[-73.8987945,45.5609873]]}";2;Boulevard Arthur-Sauvé;2;50;false;true;true;false;false;false;378.0;3;0;0;0;0;false;81045;6119526058;-73.899457;45.561556;81163;6119525756;-73.895763;45.561281;0;57;58;9401542;Bus 91 : TERMINUS /ST-EUSTACHE / VIA 25E AVENUE;"";EXO;91;Terminus Saint-Eustache;Terminus Saint-Eustache
676848396;"{\"type\":\"LineString\",\"coordinates\":[[-73.8940648,45.5617058],[-73.8940975,45.5615893]]}";3;Rue Dorion;1;50;false;false;true;false;false;false;14.0;2;0;0;0;0;false;81045;6119526058;-73.899457;45.561556;81163;6119525756;-73.895763;45.561281;0;57;58;9401542;Bus 91 : TERMINUS /ST-EUSTACHE / VIA 25E AVENUE;"";EXO;91;Terminus Saint-Eustache;Terminus Saint-Eustache
677250675;"{\"type\":\"LineString\",\"coordinates\":[[-73.8982312,45.5609342],[-73.8979925,45.5609652],[-73.89748,45.5610544],[-73.896483,45.5612224],[-73.8962587,45.5612529],[-73.8956287,45.5613385],[-73.8948514,45.5614658],[-73.8940975,45.5615893]]}";4;Boulevard Arthur-Sauvé;1;50;false;true;true;false;false;false;165.5;2;0;0;0;0;false;81045;6119526058;-73.899457;45.561556;81163;6119525756;-73.895763;45.561281;1;57;58;9401542;Bus 91 : TERMINUS /ST-EUSTACHE / VIA 25E AVENUE;"";EXO;91;Terminus Saint-Eustache;Terminus Saint-Eustache
676848392;"{\"type\":\"LineString\",\"coordinates\":[[-73.8940648,45.5617058],[-73.8957361,45.5614448],[-73.8965451,45.5613214],[-73.8967629,45.5612857],[-73.8975802,45.5611394],[-73.8977713,45.5611204],[-73.8981604,45.5610604],[-73.8982619,45.5610445],[-73.8987945,45.5609873]]}";1;Boulevard Arthur-Sauvé;2;50;false;true;true;false;false;false;378.0;3;0;0;0;0;false;81163;6119525756;-73.895763;45.561281;81000;6119526196;-73.892828;45.561425;2;58;59;9401542;Bus 91 : TERMINUS /ST-EUSTACHE / VIA 25E AVENUE;"";EXO;91;Terminus Saint-Eustache;Terminus Saint-Eustache
676848396;"{\"type\":\"LineString\",\"coordinates\":[[-73.8940648,45.5617058],[-73.8940975,45.5615893]]}";2;Rue Dorion;1;50;false;false;true;false;false;false;14.0;2;0;0;0;0;false;81163;6119525756;-73.895763;45.561281;81000;6119526196;-73.892828;45.561425;0;58;59;9401542;Bus 91 : TERMINUS /ST-EUSTACHE / VIA 25E AVENUE;"";EXO;91;Terminus Saint-Eustache;Terminus Saint-Eustache
676848395;"{\"type\":\"LineString\",\"coordinates\":[[-73.8940975,45.5615893],[-73.8941016,45.5613774],[-73.8940785,45.5612464],[-73.8940342,45.5611575],[-73.8939193,45.5610459],[-73.8937986,45.5609543]]}";3;Rue Dorion;1;50;false;false;true;false;false;false;78.0;1;0;0;0;0;false;81163;6119525756;-73.895763;45.561281;81000;6119526196;-73.892828;45.561425;0;58;59;9401542;Bus 91 : TERMINUS /ST-EUSTACHE / VIA 25E AVENUE;"";EXO;91;Terminus Saint-Eustache;Terminus Saint-Eustache
138428141;"{\"type\":\"LineString\",\"coordinates\":[[-73.8937986,45.5609543],[-73.8936234,45.560945],[-73.8935657,45.560978],[-73.8935027,45.5610387],[-73.8934764,45.5611104],[-73.8934449,45.5611912],[-73.8933793,45.5612519],[-73.893319,45.5612978],[-73.8932807,45.5613137]]}";4;"";1;50;false;false;true;false;true;false;65.0;0;0;0;0;0;false;81163;6119525756;-73.895763;45.561281;81000;6119526196;-73.892828;45.561425;0;58;59;9401542;Bus 91 : TERMINUS /ST-EUSTACHE / VIA 25E AVENUE;"";EXO;91;Terminus Saint-Eustache;Terminus Saint-Eustache
676886050;"{\"type\":\"LineString\",\"coordinates\":[[-73.8932807,45.5613137],[-73.8931903,45.5613511],[-73.8930223,45.5613915],[-73.8928026,45.5614415]]}";5;"";1;50;false;false;true;false;true;false;41.0;0;1;0;0;0;false;81163;6119525756;-73.895763;45.561281;81000;6119526196;-73.892828;45.561425;1;58;59;9401542;Bus 91 : TERMINUS /ST-EUSTACHE / VIA 25E AVENUE;"";EXO;91;Terminus Saint-Eustache;Terminus Saint-Eustache
