way_id;shape;index;name;nb_lanes;legal_speed;speed_zone_30;oneway;shares_bike;bike_box;bus_lane;dedicated_bus_lane;length;nb_traffic_signals;nb_crossings;nb_stops;nb_give_ways;nb_lvl_crossings;roundabout;stop_id_orig;node_id_orig;coord_x_orig;coord_y_orig;stop_id_dest;node_id_dest;coord_x_dest;coord_y_dest;nb_neighbouring_ways_bus_stop;ordre_orig;ordre_dest;id_line;line_name;colour;operator;ref;from;to
676886050;"{\"type\":\"LineString\",\"coordinates\":[[-73.8932807,45.5613137],[-73.8931903,45.5613511],[-73.8930223,45.5613915],[-73.8928026,45.5614415]]}";1;"";1;50;false;false;true;false;true;false;41.0;0;1;0;0;0;false;81000;6119526196;-73.892828;45.561425;81004;6119526195;-73.89572;45.561493;1;0;1;9407106;Bus 80 : POINTE-CALUMET / VIA 59E AVENUE;"";EXO;80 O;André-Soucy / 59e Avenue;Terminus Saint-Eustache
138428141;"{\"type\":\"LineString\",\"coordinates\":[[-73.8937986,45.5609543],[-73.8936234,45.560945],[-73.8935657,45.560978],[-73.8935027,45.5610387],[-73.8934764,45.5611104],[-73.8934449,45.5611912],[-73.8933793,45.5612519],[-73.893319,45.5612978],[-73.8932807,45.5613137]]}";2;"";1;50;false;false;true;false;true;false;65.0;0;0;0;0;0;false;81000;6119526196;-73.892828;45.561425;81004;6119526195;-73.89572;45.561493;0;0;1;9407106;Bus 80 : POINTE-CALUMET / VIA 59E AVENUE;"";EXO;80 O;André-Soucy / 59e Avenue;Terminus Saint-Eustache
676848395;"{\"type\":\"LineString\",\"coordinates\":[[-73.8940975,45.5615893],[-73.8941016,45.5613774],[-73.8940785,45.5612464],[-73.8940342,45.5611575],[-73.8939193,45.5610459],[-73.8937986,45.5609543]]}";3;Rue Dorion;1;50;false;false;true;false;false;false;78.0;1;0;0;0;0;false;81000;6119526196;-73.892828;45.561425;81004;6119526195;-73.89572;45.561493;0;0;1;9407106;Bus 80 : POINTE-CALUMET / VIA 59E AVENUE;"";EXO;80 O;André-Soucy / 59e Avenue;Terminus Saint-Eustache
676848396;"{\"type\":\"LineString\",\"coordinates\":[[-73.8940648,45.5617058],[-73.8940975,45.5615893]]}";4;Rue Dorion;1;50;false;false;true;false;false;false;14.0;2;0;0;0;0;false;81000;6119526196;-73.892828;45.561425;81004;6119526195;-73.89572;45.561493;0;0;1;9407106;Bus 80 : POINTE-CALUMET / VIA 59E AVENUE;"";EXO;80 O;André-Soucy / 59e Avenue;Terminus Saint-Eustache
676848392;"{\"type\":\"LineString\",\"coordinates\":[[-73.8940648,45.5617058],[-73.8957361,45.5614448],[-73.8965451,45.5613214],[-73.8967629,45.5612857],[-73.8975802,45.5611394],[-73.8977713,45.5611204],[-73.8981604,45.5610604],[-73.8982619,45.5610445],[-73.8987945,45.5609873]]}";5;Boulevard Arthur-Sauvé;2;50;false;true;true;false;false;false;189.0;3;0;0;0;0;false;81000;6119526196;-73.892828;45.561425;81004;6119526195;-73.89572;45.561493;1;0;1;9407106;Bus 80 : POINTE-CALUMET / VIA 59E AVENUE;"";EXO;80 O;André-Soucy / 59e Avenue;Terminus Saint-Eustache
676848392;"{\"type\":\"LineString\",\"coordinates\":[[-73.8940648,45.5617058],[-73.8957361,45.5614448],[-73.8965451,45.5613214],[-73.8967629,45.5612857],[-73.8975802,45.5611394],[-73.8977713,45.5611204],[-73.8981604,45.5610604],[-73.8982619,45.5610445],[-73.8987945,45.5609873]]}";1;Boulevard Arthur-Sauvé;2;50;false;true;true;false;false;false;189.0;3;0;0;0;0;false;81004;6119526195;-73.89572;45.561493;81005;6119526194;-73.901904;45.560551;1;1;2;9407106;Bus 80 : POINTE-CALUMET / VIA 59E AVENUE;"";EXO;80 O;André-Soucy / 59e Avenue;Terminus Saint-Eustache
677250680;"{\"type\":\"LineString\",\"coordinates\":[[-73.8987945,45.5609873],[-73.899095,45.5609721],[-73.8994702,45.5609885],[-73.8995781,45.5610005],[-73.899853,45.561031],[-73.9002501,45.5611012],[-73.9008006,45.5612409],[-73.9012695,45.5614197],[-73.9013349,45.5614446]]}";2;Boulevard Arthur-Sauvé;2;50;false;true;true;false;false;false;209.0;2;0;0;0;0;false;81004;6119526195;-73.89572;45.561493;81005;6119526194;-73.901904;45.560551;0;1;2;9407106;Bus 80 : POINTE-CALUMET / VIA 59E AVENUE;"";EXO;80 O;André-Soucy / 59e Avenue;Terminus Saint-Eustache
676848399;"{\"type\":\"LineString\",\"coordinates\":[[-73.9014061,45.5613128],[-73.9013349,45.5614446]]}";3;Rue Féré;2;50;false;false;true;false;false;false;16.0;2;0;0;0;0;false;81004;6119526195;-73.89572;45.561493;81005;6119526194;-73.901904;45.560551;0;1;2;9407106;Bus 80 : POINTE-CALUMET / VIA 59E AVENUE;"";EXO;80 O;André-Soucy / 59e Avenue;Terminus Saint-Eustache
46277642;"{\"type\":\"LineString\",\"coordinates\":[[-73.9007748,45.5589989],[-73.9018556,45.5601076],[-73.9018932,45.5601674],[-73.901918,45.5602398],[-73.9019099,45.5603254],[-73.9018789,45.5604271],[-73.9016203,45.5609272],[-73.9014061,45.5613128]]}";4;Rue Féré;2;50;false;false;true;false;false;false;145.5;2;0;0;0;0;false;81004;6119526195;-73.89572;45.561493;81005;6119526194;-73.901904;45.560551;1;1;2;9407106;Bus 80 : POINTE-CALUMET / VIA 59E AVENUE;"";EXO;80 O;André-Soucy / 59e Avenue;Terminus Saint-Eustache
677253518;"{\"type\":\"LineString\",\"coordinates\":[[-73.899638,45.5576027],[-73.9003849,45.5586018],[-73.9007748,45.5589989]]}";1;Rue Féré;2;50;false;false;true;false;false;false;179.0;1;0;0;0;0;false;81006;6119526193;-73.900936;45.559132;81007;6119526192;-73.899496;45.5573156;2;3;4;9407106;Bus 80 : POINTE-CALUMET / VIA 59E AVENUE;"";EXO;80 O;André-Soucy / 59e Avenue;Terminus Saint-Eustache
147991062;"{\"type\":\"LineString\",\"coordinates\":[[-73.8994389,45.5573298],[-73.899638,45.5576027]]}";2;Rue Féré;2;50;false;false;true;false;false;false;35.0;0;0;0;0;0;false;81006;6119526193;-73.900936;45.559132;81007;6119526192;-73.899496;45.5573156;2;3;4;9407106;Bus 80 : POINTE-CALUMET / VIA 59E AVENUE;"";EXO;80 O;André-Soucy / 59e Avenue;Terminus Saint-Eustache
474608346;"{\"type\":\"LineString\",\"coordinates\":[[-73.8994212,45.5573075],[-73.8994389,45.5573298]]}";1;Rue Féré;2;50;false;false;true;false;false;false;3.0;0;0;0;0;0;false;81007;6119526192;-73.899496;45.5573156;81008;6119526191;-73.901072;45.557726;2;4;5;9407106;Bus 80 : POINTE-CALUMET / VIA 59E AVENUE;"";EXO;80 O;André-Soucy / 59e Avenue;Terminus Saint-Eustache
46277635;"{\"type\":\"LineString\",\"coordinates\":[[-73.8994212,45.5573075],[-73.8994183,45.5572371],[-73.8994394,45.5571966],[-73.899486,45.5571726],[-73.8995472,45.5571523],[-73.8997283,45.5571414]]}";2;Rue Féré;1;50;false;true;true;false;false;false;37.0;0;0;0;0;0;false;81007;6119526192;-73.899496;45.5573156;81008;6119526191;-73.901072;45.557726;0;4;5;9407106;Bus 80 : POINTE-CALUMET / VIA 59E AVENUE;"";EXO;80 O;André-Soucy / 59e Avenue;Terminus Saint-Eustache
46277576;"{\"type\":\"LineString\",\"coordinates\":[[-73.8997283,45.5571414],[-73.9003349,45.5573595],[-73.9010421,45.5576707],[-73.9013362,45.5577785],[-73.9015106,45.5578199],[-73.9021549,45.5579524],[-73.9030883,45.5580514],[-73.9041891,45.558107],[-73.9051189,45.5580279],[-73.9055556,45.5579789],[-73.9070425,45.5576483],[-73.9083402,45.5574626],[-73.9091363,45.5573712],[-73.9094563,45.5573487],[-73.9097517,45.5573501],[-73.9101959,45.5574548],[-73.9103984,45.5575025],[-73.9106115,45.5575527],[-73.9110284,45.5576586],[-73.9132458,45.5582115],[-73.9146093,45.5585215]]}";3;Rue Boileau;2;50;false;false;false;false;false;false;1215.0;0;0;0;0;0;false;81007;6119526192;-73.899496;45.5573156;81008;6119526191;-73.901072;45.557726;2;4;5;9407106;Bus 80 : POINTE-CALUMET / VIA 59E AVENUE;"";EXO;80 O;André-Soucy / 59e Avenue;Terminus Saint-Eustache
676848400;"{\"type\":\"LineString\",\"coordinates\":[[-73.9146093,45.5585215],[-73.9146872,45.5585404],[-73.9147639,45.558559]]}";1;Rue Boileau;2;50;false;false;false;false;false;false;13.0;0;0;0;0;0;false;81010;6119526189;-73.91444;45.558506;81218;6119525732;-73.915441;45.556915;2;9;10;9407106;Bus 80 : POINTE-CALUMET / VIA 59E AVENUE;"";EXO;80 O;André-Soucy / 59e Avenue;Terminus Saint-Eustache
147785251;"{\"type\":\"LineString\",\"coordinates\":[[-73.9147639,45.558559],[-73.9148699,45.5582871],[-73.9151955,45.5574379]]}";2;Boulevard de Deux-Montagnes;2;50;false;true;false;false;false;false;129.0;0;0;0;0;0;false;81010;6119526189;-73.91444;45.558506;81218;6119525732;-73.915441;45.556915;0;9;10;9407106;Bus 80 : POINTE-CALUMET / VIA 59E AVENUE;"";EXO;80 O;André-Soucy / 59e Avenue;Terminus Saint-Eustache
124074646;"{\"type\":\"LineString\",\"coordinates\":[[-73.9151955,45.5574379],[-73.9153252,45.5570586],[-73.9154018,45.5568216],[-73.9154505,45.5563803],[-73.9154527,45.5559455],[-73.915433,45.5555434],[-73.9152775,45.5549424],[-73.9147832,45.5535636],[-73.9145026,45.5528318],[-73.9142352,45.5520822],[-73.9139435,45.5512603],[-73.9136765,45.5504927],[-73.913379,45.5497135],[-73.9132062,45.5492983],[-73.9129933,45.548713],[-73.9125162,45.5473831],[-73.9122769,45.5467107]]}";3;Boulevard de Deux-Montagnes;1;50;false;true;false;false;false;false;1224.0;0;0;0;0;0;false;81010;6119526189;-73.91444;45.558506;81218;6119525732;-73.915441;45.556915;2;9;10;9407106;Bus 80 : POINTE-CALUMET / VIA 59E AVENUE;"";EXO;80 O;André-Soucy / 59e Avenue;Terminus Saint-Eustache
742610247;"{\"type\":\"LineString\",\"coordinates\":[[-73.9122769,45.5467107],[-73.9122582,45.5466583]]}";1;Boulevard de Deux-Montagnes;1;50;false;true;false;false;false;false;6.0;0;0;0;0;0;false;80032;6119527372;-73.912371;45.546702;81013;4335419374;-73.912033;45.545111;2;14;15;9407106;Bus 80 : POINTE-CALUMET / VIA 59E AVENUE;"";EXO;80 O;André-Soucy / 59e Avenue;Terminus Saint-Eustache
676886070;"{\"type\":\"LineString\",\"coordinates\":[[-73.9122582,45.5466583],[-73.9120456,45.5460012],[-73.9120217,45.5457624],[-73.9120127,45.5456723],[-73.9120124,45.5456287],[-73.9120075,45.5455503],[-73.9119882,45.545256]]}";2;Boulevard de Deux-Montagnes;1;50;false;true;false;false;false;false;158.0;0;0;0;0;0;false;80032;6119527372;-73.912371;45.546702;81013;4335419374;-73.912033;45.545111;0;14;15;9407106;Bus 80 : POINTE-CALUMET / VIA 59E AVENUE;"";EXO;80 O;André-Soucy / 59e Avenue;Terminus Saint-Eustache
676890374;"{\"type\":\"LineString\",\"coordinates\":[[-73.9119882,45.545256],[-73.9119794,45.545115]]}";3;Boulevard de Deux-Montagnes;1;50;false;true;false;false;false;false;16.0;0;0;0;0;0;false;80032;6119527372;-73.912371;45.546702;81013;4335419374;-73.912033;45.545111;0;14;15;9407106;Bus 80 : POINTE-CALUMET / VIA 59E AVENUE;"";EXO;80 O;André-Soucy / 59e Avenue;Terminus Saint-Eustache
676886069;"{\"type\":\"LineString\",\"coordinates\":[[-73.9119794,45.545115],[-73.9119546,45.5447484]]}";4;Boulevard de Deux-Montagnes;1;50;false;true;false;false;false;false;41.0;0;0;0;0;0;false;80032;6119527372;-73.912371;45.546702;81013;4335419374;-73.912033;45.545111;2;14;15;9407106;Bus 80 : POINTE-CALUMET / VIA 59E AVENUE;"";EXO;80 O;André-Soucy / 59e Avenue;Terminus Saint-Eustache
676890374;"{\"type\":\"LineString\",\"coordinates\":[[-73.9119882,45.545256],[-73.9119794,45.545115]]}";1;Boulevard de Deux-Montagnes;1;50;false;true;false;false;false;false;16.0;0;0;0;0;0;false;81013;4335419374;-73.912033;45.545111;81014;6119526185;-73.912799;45.542484;2;15;16;9407106;Bus 80 : POINTE-CALUMET / VIA 59E AVENUE;"";EXO;80 O;André-Soucy / 59e Avenue;Terminus Saint-Eustache
676886069;"{\"type\":\"LineString\",\"coordinates\":[[-73.9119794,45.545115],[-73.9119546,45.5447484]]}";2;Boulevard de Deux-Montagnes;1;50;false;true;false;false;false;false;41.0;0;0;0;0;0;false;81013;4335419374;-73.912033;45.545111;81014;6119526185;-73.912799;45.542484;0;15;16;9407106;Bus 80 : POINTE-CALUMET / VIA 59E AVENUE;"";EXO;80 O;André-Soucy / 59e Avenue;Terminus Saint-Eustache
131984201;"{\"type\":\"LineString\",\"coordinates\":[[-73.9119546,45.5447484],[-73.9119503,45.5446734]]}";3;Boulevard de Deux-Montagnes;1;50;false;true;false;false;false;false;9.0;0;1;0;0;0;false;81013;4335419374;-73.912033;45.545111;81014;6119526185;-73.912799;45.542484;0;15;16;9407106;Bus 80 : POINTE-CALUMET / VIA 59E AVENUE;"";EXO;80 O;André-Soucy / 59e Avenue;Terminus Saint-Eustache
742610245;"{\"type\":\"LineString\",\"coordinates\":[[-73.9119503,45.5446734],[-73.9119296,45.5443536],[-73.9119046,45.543928],[-73.9119127,45.5437798],[-73.9119456,45.5436291],[-73.9120162,45.5433915],[-73.912105,45.5432017],[-73.9123044,45.5428861],[-73.9124524,45.5426781],[-73.9125755,45.5425051],[-73.912653,45.5423976]]}";4;Boulevard de Deux-Montagnes;1;50;false;true;true;false;false;false;265.0;0;1;0;0;0;false;81013;4335419374;-73.912033;45.545111;81014;6119526185;-73.912799;45.542484;0;15;16;9407106;Bus 80 : POINTE-CALUMET / VIA 59E AVENUE;"";EXO;80 O;André-Soucy / 59e Avenue;Terminus Saint-Eustache
30620693;"{\"type\":\"LineString\",\"coordinates\":[[-73.912653,45.5423976],[-73.9130633,45.5425024],[-73.9132241,45.5425362],[-73.9133838,45.54257],[-73.9143474,45.5427745],[-73.9152941,45.542975],[-73.915444,45.5430068],[-73.9174276,45.5434209],[-73.9176915,45.5434607],[-73.9181571,45.5434975],[-73.9200616,45.5434915]]}";5;20e Avenue;1;50;false;true;true;false;false;false;596.0;1;0;0;0;0;false;81013;4335419374;-73.912033;45.545111;81014;6119526185;-73.912799;45.542484;2;15;16;9407106;Bus 80 : POINTE-CALUMET / VIA 59E AVENUE;"";EXO;80 O;André-Soucy / 59e Avenue;Terminus Saint-Eustache
742610245;"{\"type\":\"LineString\",\"coordinates\":[[-73.9119503,45.5446734],[-73.9119296,45.5443536],[-73.9119046,45.543928],[-73.9119127,45.5437798],[-73.9119456,45.5436291],[-73.9120162,45.5433915],[-73.912105,45.5432017],[-73.9123044,45.5428861],[-73.9124524,45.5426781],[-73.9125755,45.5425051],[-73.912653,45.5423976]]}";1;Boulevard de Deux-Montagnes;1;50;false;true;true;false;false;false;265.0;0;1;0;0;0;false;81014;6119526185;-73.912799;45.542484;80198;6119527018;-73.915474;45.543053;2;16;17;9407106;Bus 80 : POINTE-CALUMET / VIA 59E AVENUE;"";EXO;80 O;André-Soucy / 59e Avenue;Terminus Saint-Eustache
30620693;"{\"type\":\"LineString\",\"coordinates\":[[-73.912653,45.5423976],[-73.9130633,45.5425024],[-73.9132241,45.5425362],[-73.9133838,45.54257],[-73.9143474,45.5427745],[-73.9152941,45.542975],[-73.915444,45.5430068],[-73.9174276,45.5434209],[-73.9176915,45.5434607],[-73.9181571,45.5434975],[-73.9200616,45.5434915]]}";2;20e Avenue;1;50;false;true;true;false;false;false;596.0;1;0;0;0;0;false;81014;6119526185;-73.912799;45.542484;80198;6119527018;-73.915474;45.543053;2;16;17;9407106;Bus 80 : POINTE-CALUMET / VIA 59E AVENUE;"";EXO;80 O;André-Soucy / 59e Avenue;Terminus Saint-Eustache
30620693;"{\"type\":\"LineString\",\"coordinates\":[[-73.912653,45.5423976],[-73.9130633,45.5425024],[-73.9132241,45.5425362],[-73.9133838,45.54257],[-73.9143474,45.5427745],[-73.9152941,45.542975],[-73.915444,45.5430068],[-73.9174276,45.5434209],[-73.9176915,45.5434607],[-73.9181571,45.5434975],[-73.9200616,45.5434915]]}";1;20e Avenue;1;50;false;true;true;false;false;false;298.0;1;0;0;0;0;false;81015;6119526084;-73.917835;45.543532;80139;6119527073;-73.920465;45.542562;1;18;19;9407106;Bus 80 : POINTE-CALUMET / VIA 59E AVENUE;"";EXO;80 O;André-Soucy / 59e Avenue;Terminus Saint-Eustache
676890392;"{\"type\":\"LineString\",\"coordinates\":[[-73.9200616,45.5434915],[-73.9202313,45.5434941]]}";2;20e Avenue;1;50;false;true;true;false;false;false;14.0;0;0;0;0;0;false;81015;6119526084;-73.917835;45.543532;80139;6119527073;-73.920465;45.542562;0;18;19;9407106;Bus 80 : POINTE-CALUMET / VIA 59E AVENUE;"";EXO;80 O;André-Soucy / 59e Avenue;Terminus Saint-Eustache
45584290;"{\"type\":\"LineString\",\"coordinates\":[[-73.9202313,45.5434941],[-73.9202444,45.5433541]]}";3;Boulevard des Promenades;2;50;false;true;true;false;false;false;16.0;0;0;0;0;0;false;81015;6119526084;-73.917835;45.543532;80139;6119527073;-73.920465;45.542562;0;18;19;9407106;Bus 80 : POINTE-CALUMET / VIA 59E AVENUE;"";EXO;80 O;André-Soucy / 59e Avenue;Terminus Saint-Eustache
45584308;"{\"type\":\"LineString\",\"coordinates\":[[-73.9202444,45.5433541],[-73.9202664,45.5432599],[-73.9203715,45.5428084],[-73.9204118,45.5426356],[-73.9205345,45.5423542],[-73.9205994,45.5422053],[-73.920836,45.5418925]]}";4;Boulevard des Promenades;2;50;false;true;true;false;false;false;85.5;0;0;0;0;0;false;81015;6119526084;-73.917835;45.543532;80139;6119527073;-73.920465;45.542562;1;18;19;9407106;Bus 80 : POINTE-CALUMET / VIA 59E AVENUE;"";EXO;80 O;André-Soucy / 59e Avenue;Terminus Saint-Eustache
45584308;"{\"type\":\"LineString\",\"coordinates\":[[-73.9202444,45.5433541],[-73.9202664,45.5432599],[-73.9203715,45.5428084],[-73.9204118,45.5426356],[-73.9205345,45.5423542],[-73.9205994,45.5422053],[-73.920836,45.5418925]]}";1;Boulevard des Promenades;2;50;false;true;true;false;false;false;85.5;0;0;0;0;0;false;80139;6119527073;-73.920465;45.542562;80140;6119527072;-73.922301;45.540716;1;19;20;9407106;Bus 80 : POINTE-CALUMET / VIA 59E AVENUE;"";EXO;80 O;André-Soucy / 59e Avenue;Terminus Saint-Eustache
45584323;"{\"type\":\"LineString\",\"coordinates\":[[-73.920836,45.5418925],[-73.9210973,45.5416249],[-73.9214095,45.5413758]]}";2;Boulevard des Promenades;2;50;false;true;true;false;false;false;73.0;1;0;0;0;0;false;80139;6119527073;-73.920465;45.542562;80140;6119527072;-73.922301;45.540716;0;19;20;9407106;Bus 80 : POINTE-CALUMET / VIA 59E AVENUE;"";EXO;80 O;André-Soucy / 59e Avenue;Terminus Saint-Eustache
45584402;"{\"type\":\"LineString\",\"coordinates\":[[-73.9214095,45.5413758],[-73.9222688,45.5406793],[-73.9224576,45.5405262]]}";3;Boulevard des Promenades;2;50;false;true;true;false;false;false;62.5;1;0;0;0;0;false;80139;6119527073;-73.920465;45.542562;80140;6119527072;-73.922301;45.540716;1;19;20;9407106;Bus 80 : POINTE-CALUMET / VIA 59E AVENUE;"";EXO;80 O;André-Soucy / 59e Avenue;Terminus Saint-Eustache
45584402;"{\"type\":\"LineString\",\"coordinates\":[[-73.9214095,45.5413758],[-73.9222688,45.5406793],[-73.9224576,45.5405262]]}";1;Boulevard des Promenades;2;50;false;true;true;false;false;false;62.5;1;0;0;0;0;false;80140;6119527072;-73.922301;45.540716;80141;6119527071;-73.9235784;45.5396798;1;20;21;9407106;Bus 80 : POINTE-CALUMET / VIA 59E AVENUE;"";EXO;80 O;André-Soucy / 59e Avenue;Terminus Saint-Eustache
45584440;"{\"type\":\"LineString\",\"coordinates\":[[-73.9224576,45.5405262],[-73.9225833,45.5404226],[-73.9236298,45.5395601],[-73.924258,45.539043],[-73.9244736,45.5388654],[-73.9252196,45.5382508],[-73.9253727,45.5380676]]}";2;Boulevard des Promenades;2;50;false;true;true;false;false;false;178.0;0;0;0;0;0;false;80140;6119527072;-73.922301;45.540716;80141;6119527071;-73.9235784;45.5396798;1;20;21;9407106;Bus 80 : POINTE-CALUMET / VIA 59E AVENUE;"";EXO;80 O;André-Soucy / 59e Avenue;Terminus Saint-Eustache
45584440;"{\"type\":\"LineString\",\"coordinates\":[[-73.9224576,45.5405262],[-73.9225833,45.5404226],[-73.9236298,45.5395601],[-73.924258,45.539043],[-73.9244736,45.5388654],[-73.9252196,45.5382508],[-73.9253727,45.5380676]]}";1;Boulevard des Promenades;2;50;false;true;true;false;false;false;178.0;0;0;0;0;0;false;80141;6119527071;-73.9235784;45.5396798;80215;6119527003;-73.925651;45.537989;1;21;22;9407106;Bus 80 : POINTE-CALUMET / VIA 59E AVENUE;"";EXO;80 O;André-Soucy / 59e Avenue;Terminus Saint-Eustache
777810527;"{\"type\":\"LineString\",\"coordinates\":[[-73.933227,45.5301751],[-73.9333664,45.5307348],[-73.9333261,45.5309749],[-73.9332411,45.5312732],[-73.933094,45.5315506],[-73.9329506,45.5317504],[-73.9327767,45.5319206],[-73.9321074,45.5324867],[-73.9317644,45.532765],[-73.931709,45.5328099],[-73.9315427,45.5329449],[-73.9313998,45.5330608],[-73.9309973,45.5334061],[-73.9307501,45.5336118],[-73.9302878,45.5339943],[-73.9301648,45.5340966],[-73.9298893,45.5343325],[-73.9296729,45.5345016],[-73.929211,45.5348626],[-73.9282901,45.5355794],[-73.9281041,45.535734],[-73.9277337,45.5360418],[-73.9274805,45.5362566],[-73.9263788,45.5372032],[-73.9260703,45.5374682],[-73.925845,45.5376618],[-73.9253727,45.5380676]]}";2;Boulevard des Promenades;1;50;false;false;false;false;false;false;550.0;0;0;0;0;0;false;80141;6119527071;-73.9235784;45.5396798;80215;6119527003;-73.925651;45.537989;1;21;22;9407106;Bus 80 : POINTE-CALUMET / VIA 59E AVENUE;"";EXO;80 O;André-Soucy / 59e Avenue;Terminus Saint-Eustache
777810527;"{\"type\":\"LineString\",\"coordinates\":[[-73.933227,45.5301751],[-73.9333664,45.5307348],[-73.9333261,45.5309749],[-73.9332411,45.5312732],[-73.933094,45.5315506],[-73.9329506,45.5317504],[-73.9327767,45.5319206],[-73.9321074,45.5324867],[-73.9317644,45.532765],[-73.931709,45.5328099],[-73.9315427,45.5329449],[-73.9313998,45.5330608],[-73.9309973,45.5334061],[-73.9307501,45.5336118],[-73.9302878,45.5339943],[-73.9301648,45.5340966],[-73.9298893,45.5343325],[-73.9296729,45.5345016],[-73.929211,45.5348626],[-73.9282901,45.5355794],[-73.9281041,45.535734],[-73.9277337,45.5360418],[-73.9274805,45.5362566],[-73.9263788,45.5372032],[-73.9260703,45.5374682],[-73.925845,45.5376618],[-73.9253727,45.5380676]]}";1;Boulevard des Promenades;1;50;false;false;false;false;false;false;550.0;0;0;0;0;0;false;80145;6119527067;-73.933458;45.530837;80208;6119527009;-73.93306;45.529282;1;26;27;9407106;Bus 80 : POINTE-CALUMET / VIA 59E AVENUE;"";EXO;80 O;André-Soucy / 59e Avenue;Terminus Saint-Eustache
130695970;"{\"type\":\"LineString\",\"coordinates\":[[-73.9329435,45.5292056],[-73.9329872,45.5293476],[-73.9331707,45.5299491],[-73.933227,45.5301751]]}";2;Boulevard des Promenades;1;50;false;false;true;false;false;false;55.0;1;0;0;0;0;false;80145;6119527067;-73.933458;45.530837;80208;6119527009;-73.93306;45.529282;1;26;27;9407106;Bus 80 : POINTE-CALUMET / VIA 59E AVENUE;"";EXO;80 O;André-Soucy / 59e Avenue;Terminus Saint-Eustache
677256832;"{\"type\":\"LineString\",\"coordinates\":[[-73.9329435,45.5292056],[-73.9331256,45.5291866],[-73.9346655,45.5290265],[-73.935719,45.528917],[-73.9367892,45.5288187],[-73.9378627,45.5286895],[-73.93826,45.5286556],[-73.9390371,45.528577],[-73.9396228,45.5285178],[-73.9401893,45.5284605],[-73.9403831,45.5284407],[-73.9408795,45.5283901],[-73.9413893,45.5283381],[-73.9417165,45.5283061],[-73.9425368,45.5282256],[-73.9437107,45.5280975],[-73.9442422,45.5280377],[-73.9443826,45.5280207],[-73.9445864,45.5279932],[-73.9447018,45.5279783],[-73.9451511,45.5279203],[-73.9460178,45.5278084],[-73.9463746,45.5277642],[-73.9470159,45.5276788],[-73.9475924,45.5276001],[-73.9480237,45.5275456],[-73.9485898,45.5274679]]}";1;Chemin d'Oka;1;50;false;false;false;false;false;false;618.5;1;0;0;0;0;false;80054;6119527351;-73.947372;45.527666;80055;6119527350;-73.9499379;45.5273302;1;31;32;9407106;Bus 80 : POINTE-CALUMET / VIA 59E AVENUE;"";EXO;80 O;André-Soucy / 59e Avenue;Terminus Saint-Eustache
677256831;"{\"type\":\"LineString\",\"coordinates\":[[-73.9485898,45.5274679],[-73.9487163,45.5274508]]}";2;Chemin d'Oka;1;50;false;false;false;false;false;false;11.0;0;0;0;0;0;false;80054;6119527351;-73.947372;45.527666;80055;6119527350;-73.9499379;45.5273302;0;31;32;9407106;Bus 80 : POINTE-CALUMET / VIA 59E AVENUE;"";EXO;80 O;André-Soucy / 59e Avenue;Terminus Saint-Eustache
677256829;"{\"type\":\"LineString\",\"coordinates\":[[-73.9487163,45.5274508],[-73.9488314,45.5274352]]}";3;Chemin d'Oka;1;50;false;false;false;false;false;false;10.0;0;0;0;0;0;false;80054;6119527351;-73.947372;45.527666;80055;6119527350;-73.9499379;45.5273302;0;31;32;9407106;Bus 80 : POINTE-CALUMET / VIA 59E AVENUE;"";EXO;80 O;André-Soucy / 59e Avenue;Terminus Saint-Eustache
45518772;"{\"type\":\"LineString\",\"coordinates\":[[-73.9488314,45.5274352],[-73.949207,45.5273843],[-73.9493503,45.5273649],[-73.9497936,45.5273071],[-73.9512491,45.527117],[-73.9523456,45.5269747],[-73.9527227,45.5269133],[-73.9530287,45.5268612],[-73.9533071,45.5268116],[-73.9536662,45.5267427],[-73.9537484,45.5267269],[-73.9538576,45.5267041],[-73.9541995,45.5266328],[-73.9543046,45.5266108],[-73.9543383,45.5266038],[-73.9545621,45.526555],[-73.9547548,45.526513],[-73.9549591,45.5264685],[-73.955422,45.5263646],[-73.9555738,45.5263321],[-73.9557511,45.5262945],[-73.9558665,45.5262693],[-73.9559108,45.5262597],[-73.9561354,45.5262076],[-73.9565457,45.52611],[-73.9565707,45.5261041],[-73.9567741,45.5260517],[-73.9568838,45.5260234],[-73.9571381,45.5259477],[-73.9574008,45.5258584],[-73.9575531,45.5258066],[-73.957637,45.5257731],[-73.9577259,45.5257377],[-73.9580522,45.5256013],[-73.9583866,45.525435],[-73.9585357,45.525358],[-73.9587542,45.5252439],[-73.9589868,45.5251225],[-73.9590899,45.5250687],[-73.9592076,45.5250072],[-73.959349,45.5249334],[-73.9593747,45.52492],[-73.9594797,45.5248652],[-73.9597381,45.5247303],[-73.9598829,45.5246547],[-73.960079,45.5245465],[-73.960722,45.5242122],[-73.9612693,45.5239413],[-73.9618166,45.5237289],[-73.9623278,45.523562],[-73.962763,45.52342],[-73.9632719,45.523257],[-73.9637033,45.5231157],[-73.964658,45.5228029],[-73.9652434,45.5226111],[-73.9659541,45.5223976],[-73.9676347,45.5218457],[-73.9686248,45.5215285],[-73.9690517,45.5213924],[-73.9698223,45.5211468],[-73.9699213,45.5211135],[-73.970213,45.52101],[-73.970968,45.520723],[-73.9712801,45.5205619],[-73.971652,45.52037],[-73.9721716,45.5199605],[-73.9724924,45.5196407],[-73.972758,45.5193232]]}";4;Chemin d'Oka;1;50;false;false;false;false;false;false;1056.5;0;0;0;0;0;false;80054;6119527351;-73.947372;45.527666;80055;6119527350;-73.9499379;45.5273302;1;31;32;9407106;Bus 80 : POINTE-CALUMET / VIA 59E AVENUE;"";EXO;80 O;André-Soucy / 59e Avenue;Terminus Saint-Eustache
676848389;"{\"type\":\"LineString\",\"coordinates\":[[-73.972758,45.5193232],[-73.9729408,45.5190601],[-73.9739725,45.5173767],[-73.9742158,45.5169799],[-73.9746914,45.5161915],[-73.9755825,45.5147424],[-73.9761201,45.5138739],[-73.9763532,45.5134927],[-73.9766289,45.5130636],[-73.9769883,45.5126178]]}";1;Chemin d'Oka;2;50;false;false;false;false;false;false;407.5;1;0;0;0;0;false;80063;6119527342;-73.976923;45.512793;80071;6119527334;-73.980118;45.510417;1;42;43;9407106;Bus 80 : POINTE-CALUMET / VIA 59E AVENUE;"";EXO;80 O;André-Soucy / 59e Avenue;Terminus Saint-Eustache
242287910;"{\"type\":\"LineString\",\"coordinates\":[[-73.9769883,45.5126178],[-73.9773771,45.5122985],[-73.977463,45.512228],[-73.9801912,45.5103117],[-73.9810705,45.5097151],[-73.9815063,45.5094116],[-73.9818776,45.5091529],[-73.9823606,45.5088139],[-73.9828085,45.5085045],[-73.983148,45.508268],[-73.9834248,45.508087],[-73.9862114,45.5061671],[-73.9869796,45.5056309],[-73.9877646,45.5050927],[-73.9884818,45.5045967],[-73.9904544,45.5032682],[-73.991048,45.50285],[-73.991625,45.502528],[-73.99224,45.502252],[-73.992868,45.502028],[-73.993527,45.501857],[-73.9940812,45.5017449]]}";2;Chemin d'Oka;2;50;false;false;false;false;false;false;906.5;1;0;0;0;0;false;80063;6119527342;-73.976923;45.512793;80071;6119527334;-73.980118;45.510417;1;42;43;9407106;Bus 80 : POINTE-CALUMET / VIA 59E AVENUE;"";EXO;80 O;André-Soucy / 59e Avenue;Terminus Saint-Eustache
242287910;"{\"type\":\"LineString\",\"coordinates\":[[-73.9769883,45.5126178],[-73.9773771,45.5122985],[-73.977463,45.512228],[-73.9801912,45.5103117],[-73.9810705,45.5097151],[-73.9815063,45.5094116],[-73.9818776,45.5091529],[-73.9823606,45.5088139],[-73.9828085,45.5085045],[-73.983148,45.508268],[-73.9834248,45.508087],[-73.9862114,45.5061671],[-73.9869796,45.5056309],[-73.9877646,45.5050927],[-73.9884818,45.5045967],[-73.9904544,45.5032682],[-73.991048,45.50285],[-73.991625,45.502528],[-73.99224,45.502252],[-73.992868,45.502028],[-73.993527,45.501857],[-73.9940812,45.5017449]]}";1;Chemin d'Oka;2;50;false;false;false;false;false;false;906.5;1;0;0;0;0;false;80073;6119527332;-73.98768;45.505198;80074;6119527331;-73.994018;45.501526;1;45;46;9407106;Bus 80 : POINTE-CALUMET / VIA 59E AVENUE;"";EXO;80 O;André-Soucy / 59e Avenue;Terminus Saint-Eustache
44868828;"{\"type\":\"LineString\",\"coordinates\":[[-73.9940812,45.5017449],[-73.9940081,45.501692],[-73.9915572,45.4999191],[-73.9887495,45.4978835]]}";2;59e Avenue Sud;1;50;false;false;true;false;false;false;299.0;0;0;0;0;0;false;80073;6119527332;-73.98768;45.505198;80074;6119527331;-73.994018;45.501526;1;45;46;9407106;Bus 80 : POINTE-CALUMET / VIA 59E AVENUE;"";EXO;80 O;André-Soucy / 59e Avenue;Terminus Saint-Eustache
