way_id;shape;index;name;nb_lanes;legal_speed;speed_zone_30;oneway;shares_bike;bike_box;bus_lane;dedicated_bus_lane;length;nb_traffic_signals;nb_crossings;nb_stops;nb_give_ways;nb_lvl_crossings;roundabout;stop_id_orig;node_id_orig;coord_x_orig;coord_y_orig;stop_id_dest;node_id_dest;coord_x_dest;coord_y_dest;nb_neighbouring_ways_bus_stop;ordre_orig;ordre_dest;id_line;line_name;colour;operator;ref;from;to
95223751;"{\"type\":\"LineString\",\"coordinates\":[[-73.6048551,45.4468838],[-73.6048618,45.4468414],[-73.6048479,45.4468084],[-73.6048201,45.4467749],[-73.6047148,45.4466934],[-73.6044861,45.4465021]]}";1;"";1;50;false;false;true;false;false;false;53.0;0;0;0;0;0;false;54111;6010965509;-73.604369;45.446509;56727;6010981201;-73.608922;45.447547;1;0;1;9321003;Bus 37 : Jolicoeur Nord;"";STM;37-N;Station Angrignon;Station Vendôme
95223758;"{\"type\":\"LineString\",\"coordinates\":[[-73.6045251,45.4469498],[-73.6046816,45.4468988],[-73.6047117,45.44688],[-73.6047435,45.4468706],[-73.6047709,45.4468683],[-73.6048551,45.4468838]]}";2;"";1;50;false;false;true;false;false;false;29.0;0;0;0;0;0;false;54111;6010965509;-73.604369;45.446509;56727;6010981201;-73.608922;45.447547;0;0;1;9321003;Bus 37 : Jolicoeur Nord;"";STM;37-N;Station Angrignon;Station Vendôme
453684367;"{\"type\":\"LineString\",\"coordinates\":[[-73.6044858,45.4470492],[-73.604502,45.4470082],[-73.6045251,45.4469498]]}";3;"";1;50;false;false;true;false;false;false;12.0;0;1;0;0;0;false;54111;6010965509;-73.604369;45.446509;56727;6010981201;-73.608922;45.447547;0;0;1;9321003;Bus 37 : Jolicoeur Nord;"";STM;37-N;Station Angrignon;Station Vendôme
453684369;"{\"type\":\"LineString\",\"coordinates\":[[-73.6044485,45.4471798],[-73.6044858,45.4470492]]}";4;Avenue Irwin;1;50;false;false;true;false;false;false;15.0;0;0;0;0;0;false;54111;6010965509;-73.604369;45.446509;56727;6010981201;-73.608922;45.447547;0;0;1;9321003;Bus 37 : Jolicoeur Nord;"";STM;37-N;Station Angrignon;Station Vendôme
453684374;"{\"type\":\"LineString\",\"coordinates\":[[-73.6044485,45.4471798],[-73.6045924,45.4472009],[-73.6049,45.4472459]]}";5;Boulevard Angrignon;2;50;false;true;true;false;false;false;37.0;0;1;0;0;0;false;54111;6010965509;-73.604369;45.446509;56727;6010981201;-73.608922;45.447547;0;0;1;9321003;Bus 37 : Jolicoeur Nord;"";STM;37-N;Station Angrignon;Station Vendôme
48422488;"{\"type\":\"LineString\",\"coordinates\":[[-73.6049,45.4472459],[-73.605195,45.4472403],[-73.6059755,45.4471688],[-73.6071232,45.4471161],[-73.6075773,45.4471227],[-73.6077628,45.4471398],[-73.6081153,45.447197],[-73.6083563,45.4472496],[-73.6085426,45.4473127],[-73.60904,45.4475279]]}";6;Boulevard Angrignon;2;50;false;true;true;false;false;false;167.5;0;0;0;0;0;false;54111;6010965509;-73.604369;45.446509;56727;6010981201;-73.608922;45.447547;1;0;1;9321003;Bus 37 : Jolicoeur Nord;"";STM;37-N;Station Angrignon;Station Vendôme
48421817;"{\"type\":\"LineString\",\"coordinates\":[[-73.60904,45.4475279],[-73.6093038,45.4477202],[-73.6093272,45.4478105],[-73.6093027,45.4480519]]}";1;"";1;50;false;true;true;false;false;false;67.0;0;0;0;0;0;false;56727;6010981201;-73.608922;45.447547;56970;6010981283;-73.607792;45.449428;2;1;2;9321003;Bus 37 : Jolicoeur Nord;"";STM;37-N;Station Angrignon;Station Vendôme
48421825;"{\"type\":\"LineString\",\"coordinates\":[[-73.6093027,45.4480519],[-73.608819,45.4484429]]}";2;Boulevard Newman;2;50;false;true;true;false;false;false;58.0;0;0;0;0;0;false;56727;6010981201;-73.608922;45.447547;56970;6010981283;-73.607792;45.449428;0;1;2;9321003;Bus 37 : Jolicoeur Nord;"";STM;37-N;Station Angrignon;Station Vendôme
48421815;"{\"type\":\"LineString\",\"coordinates\":[[-73.608819,45.4484429],[-73.6085024,45.4487348]]}";3;Boulevard Newman;2;50;false;true;true;false;false;false;41.0;0;0;0;0;0;false;56727;6010981201;-73.608922;45.447547;56970;6010981283;-73.607792;45.449428;0;1;2;9321003;Bus 37 : Jolicoeur Nord;"";STM;37-N;Station Angrignon;Station Vendôme
453528999;"{\"type\":\"LineString\",\"coordinates\":[[-73.6085024,45.4487348],[-73.60834,45.4489146]]}";4;Boulevard Newman;2;50;false;true;true;false;false;false;24.0;0;0;0;0;0;false;56727;6010981201;-73.608922;45.447547;56970;6010981283;-73.607792;45.449428;0;1;2;9321003;Bus 37 : Jolicoeur Nord;"";STM;37-N;Station Angrignon;Station Vendôme
497652075;"{\"type\":\"LineString\",\"coordinates\":[[-73.6059341,45.4517746],[-73.6063352,45.4512978],[-73.6069886,45.4505211],[-73.6077735,45.449588],[-73.6079356,45.4493954],[-73.60834,45.4489146]]}";5;Boulevard Newman;1;50;false;false;true;false;false;false;370.0;1;0;0;0;0;false;56727;6010981201;-73.608922;45.447547;56970;6010981283;-73.607792;45.449428;2;1;2;9321003;Bus 37 : Jolicoeur Nord;"";STM;37-N;Station Angrignon;Station Vendôme
497652075;"{\"type\":\"LineString\",\"coordinates\":[[-73.6059341,45.4517746],[-73.6063352,45.4512978],[-73.6069886,45.4505211],[-73.6077735,45.449588],[-73.6079356,45.4493954],[-73.60834,45.4489146]]}";1;Boulevard Newman;1;50;false;false;true;false;false;false;185.0;1;0;0;0;0;false;57085;6010966399;-73.605961;45.451591;53901;6010970516;-73.60508;45.452703;1;3;4;9321003;Bus 37 : Jolicoeur Nord;"";STM;37-N;Station Angrignon;Station Vendôme
165217814;"{\"type\":\"LineString\",\"coordinates\":[[-73.6026885,45.4556135],[-73.6028162,45.4555409],[-73.6031089,45.4551966],[-73.6036382,45.4545543],[-73.6042701,45.4537878],[-73.6043246,45.4537218],[-73.6045855,45.4534054],[-73.6046489,45.4533283],[-73.6053766,45.452443],[-73.6059341,45.4517746]]}";2;Avenue Newman;1;50;false;false;true;false;false;false;248.5;0;0;0;0;0;false;57085;6010966399;-73.605961;45.451591;53901;6010970516;-73.60508;45.452703;1;3;4;9321003;Bus 37 : Jolicoeur Nord;"";STM;37-N;Station Angrignon;Station Vendôme
165217814;"{\"type\":\"LineString\",\"coordinates\":[[-73.6026885,45.4556135],[-73.6028162,45.4555409],[-73.6031089,45.4551966],[-73.6036382,45.4545543],[-73.6042701,45.4537878],[-73.6043246,45.4537218],[-73.6045855,45.4534054],[-73.6046489,45.4533283],[-73.6053766,45.452443],[-73.6059341,45.4517746]]}";1;Avenue Newman;1;50;false;false;true;false;false;false;248.5;0;0;0;0;0;false;51569;6010974580;-73.604025;45.45399;51613;6010964924;-73.602278;45.455625;1;5;6;9321003;Bus 37 : Jolicoeur Nord;"";STM;37-N;Station Angrignon;Station Vendôme
462777293;"{\"type\":\"LineString\",\"coordinates\":[[-73.6021498,45.455707],[-73.6026885,45.4556135]]}";2;Rue Jolicoeur;1;50;false;false;true;false;false;false;22.0;0;0;0;0;0;false;51569;6010974580;-73.604025;45.45399;51613;6010964924;-73.602278;45.455625;1;5;6;9321003;Bus 37 : Jolicoeur Nord;"";STM;37-N;Station Angrignon;Station Vendôme
462777292;"{\"type\":\"LineString\",\"coordinates\":[[-73.6012762,45.4558673],[-73.6021498,45.455707]]}";1;Rue Jolicoeur;1;50;false;false;true;false;false;false;71.0;0;0;0;0;0;false;51613;6010964924;-73.602278;45.455625;51668;6010981191;-73.599738;45.456061;2;6;7;9321003;Bus 37 : Jolicoeur Nord;"";STM;37-N;Station Angrignon;Station Vendôme
462779677;"{\"type\":\"LineString\",\"coordinates\":[[-73.5975057,45.4565259],[-73.5986508,45.4563261],[-73.5996053,45.4561593],[-73.6004544,45.4560109],[-73.6012762,45.4558673]]}";2;Rue Jolicoeur;1;50;false;false;true;false;false;false;304.0;0;0;0;0;0;false;51613;6010964924;-73.602278;45.455625;51668;6010981191;-73.599738;45.456061;2;6;7;9321003;Bus 37 : Jolicoeur Nord;"";STM;37-N;Station Angrignon;Station Vendôme
462784701;"{\"type\":\"LineString\",\"coordinates\":[[-73.5898129,45.456997],[-73.5901183,45.4570054],[-73.5905763,45.4570179]]}";1;Rue Jolicoeur;1;50;false;false;true;false;false;false;60.0;1;0;0;0;0;false;51900;6010973158;-73.590751;45.456976;51963;6010972748;-73.589049;45.456914;2;11;12;9321003;Bus 37 : Jolicoeur Nord;"";STM;37-N;Station Angrignon;Station Vendôme
462784702;"{\"type\":\"LineString\",\"coordinates\":[[-73.5889616,45.4569626],[-73.5898129,45.456997]]}";2;Rue Jolicoeur;1;50;false;false;true;false;false;false;67.0;0;0;0;0;0;false;51900;6010973158;-73.590751;45.456976;51963;6010972748;-73.589049;45.456914;2;11;12;9321003;Bus 37 : Jolicoeur Nord;"";STM;37-N;Station Angrignon;Station Vendôme
462784702;"{\"type\":\"LineString\",\"coordinates\":[[-73.5889616,45.4569626],[-73.5898129,45.456997]]}";1;Rue Jolicoeur;1;50;false;false;true;false;false;false;33.5;0;0;0;0;0;false;53904;6010968561;-73.587662;45.463728;51908;6010968520;-73.589795;45.463825;1;34;35;9321003;Bus 37 : Jolicoeur Nord;"";STM;37-N;Station Angrignon;Station Vendôme
462784701;"{\"type\":\"LineString\",\"coordinates\":[[-73.5898129,45.456997],[-73.5901183,45.4570054],[-73.5905763,45.4570179]]}";2;Rue Jolicoeur;1;50;false;false;true;false;false;false;30.0;1;0;0;0;0;false;53904;6010968561;-73.587662;45.463728;51908;6010968520;-73.589795;45.463825;1;34;35;9321003;Bus 37 : Jolicoeur Nord;"";STM;37-N;Station Angrignon;Station Vendôme
462784701;"{\"type\":\"LineString\",\"coordinates\":[[-73.5898129,45.456997],[-73.5901183,45.4570054],[-73.5905763,45.4570179]]}";1;Rue Jolicoeur;1;50;false;false;true;false;false;false;30.0;1;0;0;0;0;false;51908;6010968520;-73.589795;45.463825;51845;6010981157;-73.592187;45.463924;1;35;36;9321003;Bus 37 : Jolicoeur Nord;"";STM;37-N;Station Angrignon;Station Vendôme
462784700;"{\"type\":\"LineString\",\"coordinates\":[[-73.5905763,45.4570179],[-73.5920553,45.4570898],[-73.5929126,45.45712]]}";2;Rue Jolicoeur;1;50;false;false;true;false;false;false;91.5;2;0;0;0;0;false;51908;6010968520;-73.589795;45.463825;51845;6010981157;-73.592187;45.463924;1;35;36;9321003;Bus 37 : Jolicoeur Nord;"";STM;37-N;Station Angrignon;Station Vendôme
462784700;"{\"type\":\"LineString\",\"coordinates\":[[-73.5905763,45.4570179],[-73.5920553,45.4570898],[-73.5929126,45.45712]]}";1;Rue Jolicoeur;1;50;false;false;true;false;false;false;91.5;2;0;0;0;0;false;51845;6010981157;-73.592187;45.463924;51771;6010970056;-73.594518;45.464382;1;36;37;9321003;Bus 37 : Jolicoeur Nord;"";STM;37-N;Station Angrignon;Station Vendôme
48424818;"{\"type\":\"LineString\",\"coordinates\":[[-73.5929126,45.45712],[-73.5940396,45.4571377],[-73.5940782,45.4571383],[-73.5944983,45.4571241],[-73.5953874,45.4569443],[-73.5963558,45.4567521],[-73.5969464,45.4566357],[-73.5975057,45.4565259]]}";2;Rue Jolicoeur;1;50;false;false;true;false;false;false;184.5;2;0;0;0;0;false;51845;6010981157;-73.592187;45.463924;51771;6010970056;-73.594518;45.464382;1;36;37;9321003;Bus 37 : Jolicoeur Nord;"";STM;37-N;Station Angrignon;Station Vendôme
462784700;"{\"type\":\"LineString\",\"coordinates\":[[-73.5905763,45.4570179],[-73.5920553,45.4570898],[-73.5929126,45.45712]]}";1;Rue Jolicoeur;1;50;false;false;true;false;false;false;183.0;2;0;0;0;0;false;51833;6010970639;-73.592438;45.471359;51700;7431349610;-73.596766;45.473678;2;46;47;9321003;Bus 37 : Jolicoeur Nord;"";STM;37-N;Station Angrignon;Station Vendôme
48424818;"{\"type\":\"LineString\",\"coordinates\":[[-73.5929126,45.45712],[-73.5940396,45.4571377],[-73.5940782,45.4571383],[-73.5944983,45.4571241],[-73.5953874,45.4569443],[-73.5963558,45.4567521],[-73.5969464,45.4566357],[-73.5975057,45.4565259]]}";2;Rue Jolicoeur;1;50;false;false;true;false;false;false;369.0;2;0;0;0;0;false;51833;6010970639;-73.592438;45.471359;51700;7431349610;-73.596766;45.473678;2;46;47;9321003;Bus 37 : Jolicoeur Nord;"";STM;37-N;Station Angrignon;Station Vendôme
