way_id;shape;index;name;nb_lanes;legal_speed;speed_zone_30;oneway;shares_bike;bike_box;bus_lane;dedicated_bus_lane;length;nb_traffic_signals;nb_crossings;nb_stops;nb_give_ways;nb_lvl_crossings;roundabout;stop_id_orig;node_id_orig;coord_x_orig;coord_y_orig;stop_id_dest;node_id_dest;coord_x_dest;coord_y_dest;nb_neighbouring_ways_bus_stop;ordre_orig;ordre_dest;id_line;line_name;colour;operator;ref;from;to
681441411;"{\"type\":\"LineString\",\"coordinates\":[[-73.4711628,45.7166175],[-73.471316,45.7167077],[-73.471399,45.7167491],[-73.47186,45.7169157],[-73.4723723,45.717084]]}";1;Boulevard Claude-David;1;50;false;true;true;false;false;false;108.0;0;1;0;0;0;false;87555;692299719;-73.472131;45.717082;87556;6127178136;-73.474488;45.7178;1;0;1;9462312;Bus 14 : Direction L'Assomption;"";EXO;14 E;boul. Claude-David / rue Notre-Dame;route 343 / montée Ste-Marie
759205432;"{\"type\":\"LineString\",\"coordinates\":[[-73.4723723,45.717084],[-73.4726542,45.7171812],[-73.4730272,45.7172968],[-73.4731075,45.7173169],[-73.4735194,45.7174384],[-73.4736412,45.7174401]]}";2;Boulevard Claude-David;1;50;false;true;true;false;false;false;108.0;0;0;0;0;0;false;87555;692299719;-73.472131;45.717082;87556;6127178136;-73.474488;45.7178;0;0;1;9462312;Bus 14 : Direction L'Assomption;"";EXO;14 E;boul. Claude-David / rue Notre-Dame;route 343 / montée Ste-Marie
24817588;"{\"type\":\"LineString\",\"coordinates\":[[-73.4798616,45.7195767],[-73.4791747,45.7193549],[-73.476853,45.7185636],[-73.4749089,45.7178808],[-73.4746426,45.7177921],[-73.4736412,45.7174401]]}";3;Boulevard Claude-David;1;50;false;false;true;false;false;false;539.0;0;0;0;0;0;false;87555;692299719;-73.472131;45.717082;87556;6127178136;-73.474488;45.7178;2;0;1;9462312;Bus 14 : Direction L'Assomption;"";EXO;14 E;boul. Claude-David / rue Notre-Dame;route 343 / montée Ste-Marie
766312166;"{\"type\":\"LineString\",\"coordinates\":[[-73.4801109,45.717606],[-73.480107,45.7176317],[-73.4799721,45.7185266],[-73.4798616,45.7195767]]}";1;Boulevard de L'Assomption;1;50;false;false;true;false;false;false;220.0;1;1;0;0;0;false;87557;6127178135;-73.479771;45.719629;87558;6127178134;-73.480142;45.71756;2;2;3;9462312;Bus 14 : Direction L'Assomption;"";EXO;14 E;boul. Claude-David / rue Notre-Dame;route 343 / montée Ste-Marie
681441413;"{\"type\":\"LineString\",\"coordinates\":[[-73.4801278,45.7175184],[-73.4801156,45.7175886],[-73.4801109,45.717606]]}";2;Boulevard de L'Assomption;1;50;false;false;true;false;false;false;10.0;0;1;0;0;0;false;87557;6127178135;-73.479771;45.719629;87558;6127178134;-73.480142;45.71756;2;2;3;9462312;Bus 14 : Direction L'Assomption;"";EXO;14 E;boul. Claude-David / rue Notre-Dame;route 343 / montée Ste-Marie
49010954;"{\"type\":\"LineString\",\"coordinates\":[[-73.4801278,45.7175184],[-73.4802166,45.7175206],[-73.4802498,45.7175214],[-73.4805229,45.717522],[-73.4808459,45.7175106]]}";1;Boulevard Notre-Dame-des-Champs;4;50;false;false;true;false;false;false;56.0;1;1;0;0;0;false;87558;6127178134;-73.480142;45.71756;87519;6127178150;-73.483294;45.717375;2;3;4;9462312;Bus 14 : Direction L'Assomption;"";EXO;14 E;boul. Claude-David / rue Notre-Dame;route 343 / montée Ste-Marie
49010953;"{\"type\":\"LineString\",\"coordinates\":[[-73.4808459,45.7175106],[-73.4829766,45.7173746]]}";2;Boulevard Notre-Dame-des-Champs;4;50;false;false;true;false;false;false;167.0;0;0;0;0;0;false;87558;6127178134;-73.480142;45.71756;87519;6127178150;-73.483294;45.717375;0;3;4;9462312;Bus 14 : Direction L'Assomption;"";EXO;14 E;boul. Claude-David / rue Notre-Dame;route 343 / montée Ste-Marie
49011385;"{\"type\":\"LineString\",\"coordinates\":[[-73.4829766,45.7173746],[-73.4833383,45.7173498],[-73.4837188,45.7173236]]}";3;Boulevard Notre-Dame-des-Champs;4;50;false;false;true;false;false;false;59.0;1;0;0;0;0;false;87558;6127178134;-73.480142;45.71756;87519;6127178150;-73.483294;45.717375;2;3;4;9462312;Bus 14 : Direction L'Assomption;"";EXO;14 E;boul. Claude-David / rue Notre-Dame;route 343 / montée Ste-Marie
49011385;"{\"type\":\"LineString\",\"coordinates\":[[-73.4829766,45.7173746],[-73.4833383,45.7173498],[-73.4837188,45.7173236]]}";1;Boulevard Notre-Dame-des-Champs;4;50;false;false;true;false;false;false;29.5;1;0;0;0;0;false;87519;6127178150;-73.483294;45.717375;87559;6127178133;-73.484193;45.719487;1;4;5;9462312;Bus 14 : Direction L'Assomption;"";EXO;14 E;boul. Claude-David / rue Notre-Dame;route 343 / montée Ste-Marie
598631309;"{\"type\":\"LineString\",\"coordinates\":[[-73.4837188,45.7173236],[-73.4841599,45.7172942]]}";2;Boulevard Notre-Dame-des-Champs;4;50;false;false;true;false;false;false;35.0;0;0;0;0;0;false;87519;6127178150;-73.483294;45.717375;87559;6127178133;-73.484193;45.719487;0;4;5;9462312;Bus 14 : Direction L'Assomption;"";EXO;14 E;boul. Claude-David / rue Notre-Dame;route 343 / montée Ste-Marie
681887619;"{\"type\":\"LineString\",\"coordinates\":[[-73.4841599,45.7172942],[-73.4843536,45.7173099],[-73.4847846,45.7173285]]}";3;Boulevard Céline-Dion;2;50;false;true;true;false;false;false;49.0;0;0;0;0;0;false;87519;6127178150;-73.483294;45.717375;87559;6127178133;-73.484193;45.719487;0;4;5;9462312;Bus 14 : Direction L'Assomption;"";EXO;14 E;boul. Claude-David / rue Notre-Dame;route 343 / montée Ste-Marie
49156379;"{\"type\":\"LineString\",\"coordinates\":[[-73.4847846,45.7173285],[-73.4851903,45.7173858],[-73.4853166,45.7174413],[-73.4853642,45.7174916],[-73.4853959,45.7175518],[-73.4853897,45.7176264],[-73.485378,45.717667],[-73.4853548,45.7177096]]}";4;"";1;50;false;true;true;false;false;false;76.0;0;0;0;0;0;false;87519;6127178150;-73.483294;45.717375;87559;6127178133;-73.484193;45.719487;0;4;5;9462312;Bus 14 : Direction L'Assomption;"";EXO;14 E;boul. Claude-David / rue Notre-Dame;route 343 / montée Ste-Marie
49156384;"{\"type\":\"LineString\",\"coordinates\":[[-73.4842213,45.7195935],[-73.484428,45.7190942],[-73.4845144,45.7188808],[-73.4845535,45.7187157],[-73.4846243,45.718371],[-73.4846656,45.7182726],[-73.4850454,45.7179301],[-73.4851237,45.7178677],[-73.4853548,45.7177096]]}";5;Rue Notre-Dame;1;50;false;false;true;false;false;false;117.0;0;0;0;0;0;false;87519;6127178150;-73.483294;45.717375;87559;6127178133;-73.484193;45.719487;1;4;5;9462312;Bus 14 : Direction L'Assomption;"";EXO;14 E;boul. Claude-David / rue Notre-Dame;route 343 / montée Ste-Marie
