way_id;shape;index;name;nb_lanes;legal_speed;speed_zone_30;oneway;shares_bike;bike_box;bus_lane;dedicated_bus_lane;length;nb_traffic_signals;nb_crossings;nb_stops;nb_give_ways;nb_lvl_crossings;roundabout;stop_id_orig;node_id_orig;coord_x_orig;coord_y_orig;stop_id_dest;node_id_dest;coord_x_dest;coord_y_dest;nb_neighbouring_ways_bus_stop;ordre_orig;ordre_dest;id_line;line_name;colour;operator;ref;from;to
164826466;"{\"type\":\"LineString\",\"coordinates\":[[-73.5724377,45.4470055],[-73.5727797,45.4470443]]}";1;Rue Godin;2;50;false;false;true;false;false;false;28.0;0;0;0;0;0;false;56566;2710853132;-73.5747374;45.4447242;56693;2710853134;-73.5726481;45.4476319;1;1;2;3534868;Bus 107 : Verdun Nord;"";STM;107-N;Stephens / LaSalle;des Pins / du Docteur-Penfield
265251010;"{\"type\":\"LineString\",\"coordinates\":[[-73.5720872,45.4547136],[-73.5720957,45.4546178],[-73.5721653,45.4538384],[-73.572232,45.4530909],[-73.5722732,45.4526294],[-73.5722836,45.4525132],[-73.5722915,45.4524244],[-73.5723276,45.4520201],[-73.5723823,45.4514071],[-73.5724308,45.4508628],[-73.5724391,45.4507697],[-73.5724484,45.4506663],[-73.5724975,45.4501162],[-73.5725581,45.4494367],[-73.5725667,45.4493402],[-73.5725733,45.4492666],[-73.5726337,45.4485896],[-73.5726766,45.4481085],[-73.5727072,45.4477582],[-73.5727184,45.4476404],[-73.5727797,45.4470443]]}";2;Rue de Verdun;2;50;false;false;true;false;false;false;854.0;2;0;0;0;0;false;56566;2710853132;-73.5747374;45.4447242;56693;2710853134;-73.5726481;45.4476319;2;1;2;3534868;Bus 107 : Verdun Nord;"";STM;107-N;Stephens / LaSalle;des Pins / du Docteur-Penfield
476069397;"{\"type\":\"LineString\",\"coordinates\":[[-73.5720779,45.4548426],[-73.5720872,45.4547136]]}";1;Rue de Verdun;2;50;false;false;true;false;false;false;15.0;2;0;0;0;0;false;56583;2710853122;-73.572012;45.4546155;56584;2710853147;-73.5718981;45.4561919;2;6;7;3534868;Bus 107 : Verdun Nord;"";STM;107-N;Stephens / LaSalle;des Pins / du Docteur-Penfield
476069398;"{\"type\":\"LineString\",\"coordinates\":[[-73.5714702,45.4616452],[-73.5715094,45.4612063],[-73.5715482,45.4607717],[-73.5715894,45.460311],[-73.5716399,45.4597451],[-73.5716626,45.4594916],[-73.571668,45.4594314],[-73.5716735,45.4593691],[-73.5716889,45.4591967],[-73.5716948,45.4591311],[-73.5717366,45.4586631],[-73.5717417,45.4586057],[-73.5717459,45.4585589],[-73.5717847,45.4581248],[-73.5717917,45.458046],[-73.5717995,45.4579592],[-73.5718041,45.4579077],[-73.5718425,45.4574783],[-73.5718876,45.4569727],[-73.5718941,45.4568999],[-73.5719521,45.4562513],[-73.5719571,45.4561954],[-73.5720038,45.4556784],[-73.572011,45.4555917],[-73.5720687,45.4549452],[-73.5720779,45.4548426]]}";2;Rue de Verdun;2;50;false;false;true;false;false;false;757.0;3;4;0;0;0;false;56583;2710853122;-73.572012;45.4546155;56584;2710853147;-73.5718981;45.4561919;2;6;7;3534868;Bus 107 : Verdun Nord;"";STM;107-N;Stephens / LaSalle;des Pins / du Docteur-Penfield
476069398;"{\"type\":\"LineString\",\"coordinates\":[[-73.5714702,45.4616452],[-73.5715094,45.4612063],[-73.5715482,45.4607717],[-73.5715894,45.460311],[-73.5716399,45.4597451],[-73.5716626,45.4594916],[-73.571668,45.4594314],[-73.5716735,45.4593691],[-73.5716889,45.4591967],[-73.5716948,45.4591311],[-73.5717366,45.4586631],[-73.5717417,45.4586057],[-73.5717459,45.4585589],[-73.5717847,45.4581248],[-73.5717917,45.458046],[-73.5717995,45.4579592],[-73.5718041,45.4579077],[-73.5718425,45.4574783],[-73.5718876,45.4569727],[-73.5718941,45.4568999],[-73.5719521,45.4562513],[-73.5719571,45.4561954],[-73.5720038,45.4556784],[-73.572011,45.4555917],[-73.5720687,45.4549452],[-73.5720779,45.4548426]]}";1;Rue de Verdun;2;50;false;false;true;false;false;false;378.5;3;4;0;0;0;false;56685;2709172922;-73.5716308;45.4591889;56590;2709173021;-73.5713705;45.4619552;1;9;10;3534868;Bus 107 : Verdun Nord;"";STM;107-N;Stephens / LaSalle;des Pins / du Docteur-Penfield
475241414;"{\"type\":\"LineString\",\"coordinates\":[[-73.5714263,45.4621159],[-73.571441,45.4619574],[-73.5714463,45.4618586],[-73.5714702,45.4616452]]}";2;Rue de Verdun;2;50;false;false;true;false;false;false;26.5;1;0;0;0;0;false;56685;2709172922;-73.5716308;45.4591889;56590;2709173021;-73.5713705;45.4619552;1;9;10;3534868;Bus 107 : Verdun Nord;"";STM;107-N;Stephens / LaSalle;des Pins / du Docteur-Penfield
475241415;"{\"type\":\"LineString\",\"coordinates\":[[-73.5705265,45.4722304],[-73.5705414,45.4720091],[-73.5705511,45.4718748],[-73.5706626,45.4705626],[-73.5706698,45.4704779],[-73.5706763,45.4704073],[-73.5708068,45.4689817],[-73.5708168,45.4688728],[-73.5708269,45.4687592],[-73.570944,45.4674367],[-73.5709549,45.4673125],[-73.570963,45.4672213],[-73.5710599,45.4661123],[-73.5711382,45.4651878],[-73.571146,45.4650956],[-73.5711527,45.4650192],[-73.5713147,45.4632072],[-73.571324,45.4630555],[-73.571331,45.4629736],[-73.5713373,45.4629167],[-73.5713741,45.4625834],[-73.5714263,45.4621159]]}";1;Rue de Verdun;2;40;false;false;true;false;false;false;563.0;3;0;4;0;0;false;56605;2709173053;-73.5704559;45.4720014;56607;2709173059;-73.5699567;45.4746323;1;16;17;3534868;Bus 107 : Verdun Nord;"";STM;107-N;Stephens / LaSalle;des Pins / du Docteur-Penfield
265251005;"{\"type\":\"LineString\",\"coordinates\":[[-73.5705265,45.4722304],[-73.5699552,45.4722243],[-73.5698699,45.4722206]]}";2;Rue Henri-Duhamel;1;50;false;true;true;false;false;false;52.0;1;0;0;0;0;false;56605;2709173053;-73.5704559;45.4720014;56607;2709173059;-73.5699567;45.4746323;0;16;17;3534868;Bus 107 : Verdun Nord;"";STM;107-N;Stephens / LaSalle;des Pins / du Docteur-Penfield
455494732;"{\"type\":\"LineString\",\"coordinates\":[[-73.5698699,45.4722206],[-73.5696081,45.4722428],[-73.5694768,45.4722853]]}";3;Rue Henri-Duhamel;1;50;false;true;true;false;false;false;32.0;1;0;0;0;0;false;56605;2709173053;-73.5704559;45.4720014;56607;2709173059;-73.5699567;45.4746323;0;16;17;3534868;Bus 107 : Verdun Nord;"";STM;107-N;Stephens / LaSalle;des Pins / du Docteur-Penfield
455494731;"{\"type\":\"LineString\",\"coordinates\":[[-73.5694768,45.4722853],[-73.5695208,45.4723536]]}";4;Boulevard LaSalle;2;50;false;false;true;false;false;false;9.0;2;0;0;0;0;false;56605;2709173053;-73.5704559;45.4720014;56607;2709173059;-73.5699567;45.4746323;0;16;17;3534868;Bus 107 : Verdun Nord;"";STM;107-N;Stephens / LaSalle;des Pins / du Docteur-Penfield
25336364;"{\"type\":\"LineString\",\"coordinates\":[[-73.5695208,45.4723536],[-73.569583,45.4724531],[-73.5696557,45.4725693],[-73.5697607,45.4727372],[-73.5700284,45.4731655],[-73.5701363,45.4733381],[-73.5702049,45.4734479],[-73.570241,45.4735414],[-73.5702531,45.4736277],[-73.5701136,45.4742921],[-73.5701046,45.4743473],[-73.5700695,45.474564]]}";5;Boulevard LaSalle;2;50;false;false;true;false;false;false;259.0;1;0;1;0;0;false;56605;2709173053;-73.5704559;45.4720014;56607;2709173059;-73.5699567;45.4746323;0;16;17;3534868;Bus 107 : Verdun Nord;"";STM;107-N;Stephens / LaSalle;des Pins / du Docteur-Penfield
561240853;"{\"type\":\"LineString\",\"coordinates\":[[-73.5700695,45.474564],[-73.5700616,45.4746381],[-73.5700539,45.4747102]]}";6;Rue d'Argenson;1;50;false;false;true;false;false;false;8.5;0;0;0;0;0;false;56605;2709173053;-73.5704559;45.4720014;56607;2709173059;-73.5699567;45.4746323;1;16;17;3534868;Bus 107 : Verdun Nord;"";STM;107-N;Stephens / LaSalle;des Pins / du Docteur-Penfield
545550691;"{\"type\":\"LineString\",\"coordinates\":[[-73.5700539,45.4747102],[-73.5700218,45.4751424],[-73.5700177,45.4752566],[-73.5700211,45.4754816],[-73.570051,45.4757683]]}";1;Rue d'Argenson;2;50;false;false;false;false;false;false;118.0;0;0;0;0;0;false;56607;2709173059;-73.5699567;45.4746323;52505;2109933252;-73.5704461;45.4762425;2;17;18;3534868;Bus 107 : Verdun Nord;"";STM;107-N;Stephens / LaSalle;des Pins / du Docteur-Penfield
265251008;"{\"type\":\"LineString\",\"coordinates\":[[-73.5705583,45.4762443],[-73.5705141,45.4762053],[-73.5703439,45.4760551],[-73.570128,45.4758645],[-73.570051,45.4757683]]}";2;Rue d'Argenson;2;50;false;false;false;false;false;false;67.0;0;0;0;0;0;false;56607;2709173059;-73.5699567;45.4746323;52505;2109933252;-73.5704461;45.4762425;2;17;18;3534868;Bus 107 : Verdun Nord;"";STM;107-N;Stephens / LaSalle;des Pins / du Docteur-Penfield
265251007;"{\"type\":\"LineString\",\"coordinates\":[[-73.5715672,45.4771123],[-73.5710839,45.4766965],[-73.5709133,45.4765497],[-73.5705583,45.4762443]]}";1;Rue d'Argenson;2;50;false;false;false;false;false;false;125.0;1;0;0;0;0;false;52505;2109933252;-73.5704461;45.4762425;52460;6010977906;-73.571152;45.477298;2;18;19;3534868;Bus 107 : Verdun Nord;"";STM;107-N;Stephens / LaSalle;des Pins / du Docteur-Penfield
263213890;"{\"type\":\"LineString\",\"coordinates\":[[-73.5715672,45.4771123],[-73.5707904,45.4775661],[-73.5707869,45.4775683],[-73.5700955,45.4780021],[-73.5697855,45.4781966],[-73.5694748,45.4783916],[-73.569365,45.4784599]]}";2;Rue Centre;1;50;false;false;true;false;false;false;229.0;2;0;0;0;0;false;52505;2109933252;-73.5704461;45.4762425;52460;6010977906;-73.571152;45.477298;2;18;19;3534868;Bus 107 : Verdun Nord;"";STM;107-N;Stephens / LaSalle;des Pins / du Docteur-Penfield
463433635;"{\"type\":\"LineString\",\"coordinates\":[[-73.569365,45.4784599],[-73.5673016,45.4797537],[-73.5671769,45.479832],[-73.5669914,45.4799397],[-73.565823,45.4806172]]}";1;Rue Centre;2;50;false;false;true;false;false;false;183.5;2;0;0;0;0;false;52624;2709173061;-73.5672362;45.4796974;52717;2109933322;-73.564561;45.4813129;1;21;22;3534868;Bus 107 : Verdun Nord;"";STM;107-N;Stephens / LaSalle;des Pins / du Docteur-Penfield
463433634;"{\"type\":\"LineString\",\"coordinates\":[[-73.565823,45.4806172],[-73.564606,45.4813572],[-73.5644916,45.4814267]]}";2;Rue Centre;2;50;false;false;true;false;false;false;69.0;2;0;0;0;0;false;52624;2709173061;-73.5672362;45.4796974;52717;2109933322;-73.564561;45.4813129;1;21;22;3534868;Bus 107 : Verdun Nord;"";STM;107-N;Stephens / LaSalle;des Pins / du Docteur-Penfield
463433633;"{\"type\":\"LineString\",\"coordinates\":[[-73.5644916,45.4814267],[-73.5643916,45.4814886],[-73.5637081,45.4819094]]}";1;Rue Centre;2;50;false;false;true;false;false;false;82.0;1;0;0;0;0;false;52717;2109933322;-73.564561;45.4813129;52798;2687686411;-73.5621397;45.4827923;2;22;23;3534868;Bus 107 : Verdun Nord;"";STM;107-N;Stephens / LaSalle;des Pins / du Docteur-Penfield
265250999;"{\"type\":\"LineString\",\"coordinates\":[[-73.5637081,45.4819094],[-73.5629674,45.4823602],[-73.5621931,45.4828314],[-73.562068,45.4829075],[-73.5619872,45.4829567],[-73.5609631,45.4835799],[-73.5605846,45.4838103],[-73.5604734,45.483878],[-73.5601935,45.4840483],[-73.55954,45.484446],[-73.5591458,45.4846858],[-73.5584256,45.4851241],[-73.558248,45.4852322],[-73.5579815,45.4853944],[-73.5576414,45.4855861]]}";2;Rue Centre;2;50;false;false;true;false;false;false;626.0;1;0;0;0;0;false;52717;2109933322;-73.564561;45.4813129;52798;2687686411;-73.5621397;45.4827923;2;22;23;3534868;Bus 107 : Verdun Nord;"";STM;107-N;Stephens / LaSalle;des Pins / du Docteur-Penfield
265250999;"{\"type\":\"LineString\",\"coordinates\":[[-73.5637081,45.4819094],[-73.5629674,45.4823602],[-73.5621931,45.4828314],[-73.562068,45.4829075],[-73.5619872,45.4829567],[-73.5609631,45.4835799],[-73.5605846,45.4838103],[-73.5604734,45.483878],[-73.5601935,45.4840483],[-73.55954,45.484446],[-73.5591458,45.4846858],[-73.5584256,45.4851241],[-73.558248,45.4852322],[-73.5579815,45.4853944],[-73.5576414,45.4855861]]}";1;Rue Centre;2;50;false;false;true;false;false;false;313.0;1;0;0;0;0;false;54103;2687686469;-73.5580037;45.48527;52926;2687686489;-73.5571317;45.4876075;1;25;26;3534868;Bus 107 : Verdun Nord;"";STM;107-N;Stephens / LaSalle;des Pins / du Docteur-Penfield
263213892;"{\"type\":\"LineString\",\"coordinates\":[[-73.5576414,45.4855861],[-73.5575645,45.4860029],[-73.5573721,45.4870444]]}";2;Rue Wellington;1;50;false;false;true;false;false;false;164.0;1;0;0;0;0;false;54103;2687686469;-73.5580037;45.48527;52926;2687686489;-73.5571317;45.4876075;0;25;26;3534868;Bus 107 : Verdun Nord;"";STM;107-N;Stephens / LaSalle;des Pins / du Docteur-Penfield
561511406;"{\"type\":\"LineString\",\"coordinates\":[[-73.5573721,45.4870444],[-73.5572916,45.4871282],[-73.5572755,45.4872188],[-73.5573106,45.4873222]]}";3;Rue Wellington;2;50;false;true;true;false;false;false;34.0;1;0;0;0;0;false;54103;2687686469;-73.5580037;45.48527;52926;2687686489;-73.5571317;45.4876075;0;25;26;3534868;Bus 107 : Verdun Nord;"";STM;107-N;Stephens / LaSalle;des Pins / du Docteur-Penfield
37722304;"{\"type\":\"LineString\",\"coordinates\":[[-73.5573106,45.4873222],[-73.5571781,45.4880463]]}";4;Rue Wellington;5;50;false;false;true;false;false;false;41.0;1;0;0;0;0;false;54103;2687686469;-73.5580037;45.48527;52926;2687686489;-73.5571317;45.4876075;1;25;26;3534868;Bus 107 : Verdun Nord;"";STM;107-N;Stephens / LaSalle;des Pins / du Docteur-Penfield
37722304;"{\"type\":\"LineString\",\"coordinates\":[[-73.5573106,45.4873222],[-73.5571781,45.4880463]]}";1;Rue Wellington;5;50;false;false;true;false;false;false;41.0;1;0;0;0;0;false;52926;2687686489;-73.5571317;45.4876075;52913;5754358290;-73.557759;45.49264;1;26;27;3534868;Bus 107 : Verdun Nord;"";STM;107-N;Stephens / LaSalle;des Pins / du Docteur-Penfield
41651789;"{\"type\":\"LineString\",\"coordinates\":[[-73.5571781,45.4880463],[-73.5570591,45.488758],[-73.5570547,45.489059],[-73.557211,45.4896433]]}";2;Rue Wellington;4;50;false;false;true;false;false;false;180.0;1;0;0;0;0;false;52926;2687686489;-73.5571317;45.4876075;52913;5754358290;-73.557759;45.49264;0;26;27;3534868;Bus 107 : Verdun Nord;"";STM;107-N;Stephens / LaSalle;des Pins / du Docteur-Penfield
352905264;"{\"type\":\"LineString\",\"coordinates\":[[-73.557211,45.4896433],[-73.557229,45.4897135],[-73.5574469,45.4906138]]}";3;Rue Wellington;1;50;false;false;true;false;false;false;110.0;0;0;0;0;0;false;52926;2687686489;-73.5571317;45.4876075;52913;5754358290;-73.557759;45.49264;0;26;27;3534868;Bus 107 : Verdun Nord;"";STM;107-N;Stephens / LaSalle;des Pins / du Docteur-Penfield
352905266;"{\"type\":\"LineString\",\"coordinates\":[[-73.5574469,45.4906138],[-73.5574783,45.490706],[-73.5575132,45.4908127]]}";4;Rue Wellington;1;50;false;false;true;false;false;false;23.0;0;0;0;0;0;false;52926;2687686489;-73.5571317;45.4876075;52913;5754358290;-73.557759;45.49264;0;26;27;3534868;Bus 107 : Verdun Nord;"";STM;107-N;Stephens / LaSalle;des Pins / du Docteur-Penfield
129587033;"{\"type\":\"LineString\",\"coordinates\":[[-73.5575132,45.4908127],[-73.5575209,45.4909202],[-73.557624,45.4910786],[-73.5577488,45.4912346],[-73.5579094,45.4914005],[-73.5579912,45.4914979],[-73.5580616,45.4916215],[-73.5581016,45.4917104]]}";5;Rue Wellington;1;50;false;true;true;false;false;false;112.0;0;0;0;0;0;false;52926;2687686489;-73.5571317;45.4876075;52913;5754358290;-73.557759;45.49264;0;26;27;3534868;Bus 107 : Verdun Nord;"";STM;107-N;Stephens / LaSalle;des Pins / du Docteur-Penfield
453299277;"{\"type\":\"LineString\",\"coordinates\":[[-73.5581016,45.4917104],[-73.5581191,45.4917843],[-73.5581393,45.4918699],[-73.5581419,45.4920025],[-73.5580983,45.4921722],[-73.5580134,45.4923389],[-73.5578047,45.4926766],[-73.5577855,45.4927772]]}";6;Rue Wellington;1;50;false;true;true;false;false;false;62.0;1;0;0;0;0;false;52926;2687686489;-73.5571317;45.4876075;52913;5754358290;-73.557759;45.49264;1;26;27;3534868;Bus 107 : Verdun Nord;"";STM;107-N;Stephens / LaSalle;des Pins / du Docteur-Penfield
455718964;"{\"type\":\"LineString\",\"coordinates\":[[-73.5577855,45.4927772],[-73.5574912,45.4932228],[-73.5574756,45.493248],[-73.5574425,45.4933014]]}";1;Rue Wellington;1;50;false;false;true;false;false;false;65.0;1;2;0;0;0;false;52913;5754358290;-73.557759;45.49264;52921;5754358294;-73.557852;45.493534;2;27;28;3534868;Bus 107 : Verdun Nord;"";STM;107-N;Stephens / LaSalle;des Pins / du Docteur-Penfield
455712869;"{\"type\":\"LineString\",\"coordinates\":[[-73.5574425,45.4933014],[-73.5575648,45.4933471],[-73.5593426,45.4940118],[-73.5594007,45.4940335]]}";2;Rue Peel;4;50;false;false;true;false;false;false;174.0;2;2;0;0;0;false;52913;5754358290;-73.557759;45.49264;52921;5754358294;-73.557852;45.493534;2;27;28;3534868;Bus 107 : Verdun Nord;"";STM;107-N;Stephens / LaSalle;des Pins / du Docteur-Penfield
455712869;"{\"type\":\"LineString\",\"coordinates\":[[-73.5574425,45.4933014],[-73.5575648,45.4933471],[-73.5593426,45.4940118],[-73.5594007,45.4940335]]}";1;Rue Peel;4;50;false;false;true;false;false;false;87.0;2;2;0;0;0;false;52921;5754358294;-73.557852;45.493534;53872;427618244;-73.5597654;45.4942302;1;28;29;3534868;Bus 107 : Verdun Nord;"";STM;107-N;Stephens / LaSalle;des Pins / du Docteur-Penfield
455712867;"{\"type\":\"LineString\",\"coordinates\":[[-73.5594007,45.4940335],[-73.5594728,45.4940607],[-73.5598028,45.4941853],[-73.5612984,45.49475],[-73.5613595,45.4947731]]}";2;Rue Peel;4;50;false;false;true;false;false;false;87.0;2;2;0;0;0;false;52921;5754358294;-73.557852;45.493534;53872;427618244;-73.5597654;45.4942302;1;28;29;3534868;Bus 107 : Verdun Nord;"";STM;107-N;Stephens / LaSalle;des Pins / du Docteur-Penfield
455712867;"{\"type\":\"LineString\",\"coordinates\":[[-73.5594007,45.4940335],[-73.5594728,45.4940607],[-73.5598028,45.4941853],[-73.5612984,45.49475],[-73.5613595,45.4947731]]}";1;Rue Peel;4;50;false;false;true;false;false;false;87.0;2;2;0;0;0;false;53872;427618244;-73.5597654;45.4942302;52743;427618243;-73.5627831;45.4954235;1;29;30;3534868;Bus 107 : Verdun Nord;"";STM;107-N;Stephens / LaSalle;des Pins / du Docteur-Penfield
456353760;"{\"type\":\"LineString\",\"coordinates\":[[-73.5613595,45.4947731],[-73.561407,45.4947923],[-73.5628262,45.495368],[-73.5628482,45.495377],[-73.5630107,45.4954423]]}";2;Rue Peel;4;50;false;false;true;false;false;false;74.5;2;2;0;0;0;false;53872;427618244;-73.5597654;45.4942302;52743;427618243;-73.5627831;45.4954235;1;29;30;3534868;Bus 107 : Verdun Nord;"";STM;107-N;Stephens / LaSalle;des Pins / du Docteur-Penfield
37722302;"{\"type\":\"LineString\",\"coordinates\":[[-73.5630107,45.4954423],[-73.5631511,45.4954863],[-73.5634371,45.4955758],[-73.5647517,45.4959876],[-73.565177,45.4961208],[-73.5653647,45.4961796]]}";1;Rue Peel;4;50;false;false;true;false;false;false;101.0;2;1;0;0;0;false;52659;427618242;-73.5650795;45.496196;52617;427618241;-73.5666905;45.4969152;1;31;32;3534868;Bus 107 : Verdun Nord;"";STM;107-N;Stephens / LaSalle;des Pins / du Docteur-Penfield
354710422;"{\"type\":\"LineString\",\"coordinates\":[[-73.5653647,45.4961796],[-73.5659719,45.4964801],[-73.5663181,45.4966461],[-73.5667394,45.4968585],[-73.5668027,45.4968923]]}";2;Rue Peel;4;50;false;false;true;false;false;false;69.0;2;0;0;0;0;false;52659;427618242;-73.5650795;45.496196;52617;427618241;-73.5666905;45.4969152;1;31;32;3534868;Bus 107 : Verdun Nord;"";STM;107-N;Stephens / LaSalle;des Pins / du Docteur-Penfield
36672937;"{\"type\":\"LineString\",\"coordinates\":[[-73.5668027,45.4968923],[-73.5669344,45.4969874],[-73.5678394,45.4974413],[-73.5685371,45.4978048]]}";1;Rue Peel;2;50;false;true;true;false;false;false;170.0;2;0;0;0;0;false;52617;427618241;-73.5666905;45.4969152;52550;2691861416;-73.5689208;45.4980482;2;32;33;3534868;Bus 107 : Verdun Nord;"";STM;107-N;Stephens / LaSalle;des Pins / du Docteur-Penfield
308658929;"{\"type\":\"LineString\",\"coordinates\":[[-73.5685371,45.4978048],[-73.5688289,45.4979371],[-73.5689911,45.4980107],[-73.569298,45.4981498],[-73.5695881,45.4982975],[-73.5698823,45.4984431],[-73.5699956,45.4985128],[-73.5700694,45.498572],[-73.5701472,45.4986453],[-73.5701807,45.4986763],[-73.5702385,45.49872]]}";2;Rue Peel;2;50;false;true;true;false;false;false;169.0;2;0;0;0;0;false;52617;427618241;-73.5666905;45.4969152;52550;2691861416;-73.5689208;45.4980482;2;32;33;3534868;Bus 107 : Verdun Nord;"";STM;107-N;Stephens / LaSalle;des Pins / du Docteur-Penfield
439879819;"{\"type\":\"LineString\",\"coordinates\":[[-73.5702385,45.49872],[-73.5703788,45.4987866]]}";1;Rue Peel;1;50;false;true;true;false;false;false;14.0;0;0;0;0;0;false;52482;427618238;-73.570083;45.4986962;52397;427618240;-73.5727497;45.5000149;2;34;35;3534868;Bus 107 : Verdun Nord;"";STM;107-N;Stephens / LaSalle;des Pins / du Docteur-Penfield
36672938;"{\"type\":\"LineString\",\"coordinates\":[[-73.5703788,45.4987866],[-73.5704646,45.4988282],[-73.5709009,45.4990394],[-73.5713201,45.4992424],[-73.5715826,45.4993695],[-73.5716222,45.4993887],[-73.571723,45.4994375],[-73.5718395,45.4994939],[-73.571851,45.4994995],[-73.5720497,45.4995956],[-73.5721095,45.4996246],[-73.5728047,45.4999613],[-73.5729122,45.5000133]]}";2;Rue Peel;1;40;false;false;true;false;false;false;241.0;2;1;0;0;0;false;52482;427618238;-73.570083;45.4986962;52397;427618240;-73.5727497;45.5000149;2;34;35;3534868;Bus 107 : Verdun Nord;"";STM;107-N;Stephens / LaSalle;des Pins / du Docteur-Penfield
455083996;"{\"type\":\"LineString\",\"coordinates\":[[-73.5729122,45.5000133],[-73.5733929,45.5002521]]}";1;Rue Peel;1;40;false;false;true;false;false;false;46.0;1;0;0;0;0;false;52397;427618240;-73.5727497;45.5000149;52336;6010967562;-73.574501;45.500842;2;35;36;3534868;Bus 107 : Verdun Nord;"";STM;107-N;Stephens / LaSalle;des Pins / du Docteur-Penfield
219132792;"{\"type\":\"LineString\",\"coordinates\":[[-73.5733929,45.5002521],[-73.5734503,45.5002795],[-73.5746038,45.5008309],[-73.574613,45.5008353],[-73.5747066,45.50088]]}";2;Rue Peel;1;40;false;false;true;false;false;false;125.0;1;2;0;0;0;false;52397;427618240;-73.5727497;45.5000149;52336;6010967562;-73.574501;45.500842;2;35;36;3534868;Bus 107 : Verdun Nord;"";STM;107-N;Stephens / LaSalle;des Pins / du Docteur-Penfield
37723610;"{\"type\":\"LineString\",\"coordinates\":[[-73.5766344,45.5018459],[-73.5767175,45.5019388],[-73.5767459,45.5019706],[-73.5771838,45.5022103]]}";1;Rue Peel;1;50;false;false;true;false;false;false;60.0;1;1;0;0;0;false;52275;2692149229;-73.5763965;45.5018175;52176;2695701230;-73.5792392;45.503261;2;37;38;3534868;Bus 107 : Verdun Nord;"";STM;107-N;Stephens / LaSalle;des Pins / du Docteur-Penfield
455083998;"{\"type\":\"LineString\",\"coordinates\":[[-73.5771838,45.5022103],[-73.5780979,45.5026575],[-73.5792683,45.503228],[-73.5794958,45.5033389]]}";2;Rue Peel;1;50;false;false;true;false;false;false;220.0;1;0;0;0;0;false;52275;2692149229;-73.5763965;45.5018175;52176;2695701230;-73.5792392;45.503261;2;37;38;3534868;Bus 107 : Verdun Nord;"";STM;107-N;Stephens / LaSalle;des Pins / du Docteur-Penfield
455083998;"{\"type\":\"LineString\",\"coordinates\":[[-73.5771838,45.5022103],[-73.5780979,45.5026575],[-73.5792683,45.503228],[-73.5794958,45.5033389]]}";1;Rue Peel;1;50;false;false;true;false;false;false;110.0;1;0;0;0;0;false;52176;2695701230;-73.5792392;45.503261;53843;6010965272;-73.578395;45.505324;1;38;39;3534868;Bus 107 : Verdun Nord;"";STM;107-N;Stephens / LaSalle;des Pins / du Docteur-Penfield
263213889;"{\"type\":\"LineString\",\"coordinates\":[[-73.5794958,45.5033389],[-73.5788801,45.5037446],[-73.5786964,45.5039053],[-73.5786526,45.5039566],[-73.5786328,45.5039831],[-73.5785871,45.5040644]]}";2;Avenue Docteur Penfield;1;50;false;true;true;false;false;false;109.0;2;0;0;0;0;false;52176;2695701230;-73.5792392;45.503261;53843;6010965272;-73.578395;45.505324;0;38;39;3534868;Bus 107 : Verdun Nord;"";STM;107-N;Stephens / LaSalle;des Pins / du Docteur-Penfield
92352683;"{\"type\":\"LineString\",\"coordinates\":[[-73.5785871,45.5040644],[-73.578556,45.5041187],[-73.5784958,45.5043022],[-73.5784572,45.5045288],[-73.5784445,45.5047604]]}";3;Avenue Docteur Penfield;1;50;false;true;true;false;false;false;39.5;0;0;0;0;0;false;52176;2695701230;-73.5792392;45.503261;53843;6010965272;-73.578395;45.505324;1;38;39;3534868;Bus 107 : Verdun Nord;"";STM;107-N;Stephens / LaSalle;des Pins / du Docteur-Penfield
