way_id;shape;index;name;nb_lanes;legal_speed;speed_zone_30;oneway;shares_bike;bike_box;bus_lane;dedicated_bus_lane;length;nb_traffic_signals;nb_crossings;nb_stops;nb_give_ways;nb_lvl_crossings;roundabout;stop_id_orig;node_id_orig;coord_x_orig;coord_y_orig;stop_id_dest;node_id_dest;coord_x_dest;coord_y_dest;nb_neighbouring_ways_bus_stop;ordre_orig;ordre_dest;id_line;line_name;colour;operator;ref;from;to
24276372;"{\"type\":\"LineString\",\"coordinates\":[[-73.3750429,45.502591],[-73.3753976,45.5026916],[-73.3762759,45.5030625]]}";1;"";1;50;false;true;true;false;false;false;110.0;0;0;0;0;0;false;73024;6133455960;-73.376021;45.503044;73026;6133455958;-73.374795;45.506043;1;56;57;9585485;Bus 200 : Direction Longueuil;"";EXO;200 N;Terminus Saint-Hyacinthe;Terminus Longueuil
686699035;"{\"type\":\"LineString\",\"coordinates\":[[-73.3760175,45.5070261],[-73.3759408,45.5068567],[-73.3758635,45.5067243],[-73.3756833,45.5065679],[-73.3755408,45.5064565],[-73.3753948,45.5063478],[-73.375249,45.5062336],[-73.3750794,45.5061068],[-73.3749507,45.5059602],[-73.3748647,45.5058099],[-73.3747468,45.5056519],[-73.3746377,45.505468],[-73.3745932,45.505401],[-73.374551,45.5051463],[-73.3745403,45.5049677],[-73.3745623,45.5047975],[-73.3746619,45.5046519],[-73.3747623,45.5045051],[-73.3748608,45.5043612],[-73.3749603,45.5042157],[-73.375058,45.5040729],[-73.3750868,45.5040371],[-73.375183,45.5039419],[-73.3753584,45.5037646],[-73.3754764,45.5036368],[-73.3756392,45.5035037],[-73.3756798,45.5034704],[-73.3757982,45.5033736],[-73.3759619,45.5032476],[-73.3762759,45.5030625]]}";2;"";1;50;false;false;true;false;false;false;520.0;0;1;0;0;0;false;73024;6133455960;-73.376021;45.503044;73026;6133455958;-73.374795;45.506043;2;56;57;9585485;Bus 200 : Direction Longueuil;"";EXO;200 N;Terminus Saint-Hyacinthe;Terminus Longueuil
686699035;"{\"type\":\"LineString\",\"coordinates\":[[-73.3760175,45.5070261],[-73.3759408,45.5068567],[-73.3758635,45.5067243],[-73.3756833,45.5065679],[-73.3755408,45.5064565],[-73.3753948,45.5063478],[-73.375249,45.5062336],[-73.3750794,45.5061068],[-73.3749507,45.5059602],[-73.3748647,45.5058099],[-73.3747468,45.5056519],[-73.3746377,45.505468],[-73.3745932,45.505401],[-73.374551,45.5051463],[-73.3745403,45.5049677],[-73.3745623,45.5047975],[-73.3746619,45.5046519],[-73.3747623,45.5045051],[-73.3748608,45.5043612],[-73.3749603,45.5042157],[-73.375058,45.5040729],[-73.3750868,45.5040371],[-73.375183,45.5039419],[-73.3753584,45.5037646],[-73.3754764,45.5036368],[-73.3756392,45.5035037],[-73.3756798,45.5034704],[-73.3757982,45.5033736],[-73.3759619,45.5032476],[-73.3762759,45.5030625]]}";1;"";1;50;false;false;true;false;false;false;260.0;0;1;0;0;0;false;73026;6133455958;-73.374795;45.506043;73028;6133455956;-73.380558;45.50765;1;57;58;9585485;Bus 200 : Direction Longueuil;"";EXO;200 N;Terminus Saint-Hyacinthe;Terminus Longueuil
689685930;"{\"type\":\"LineString\",\"coordinates\":[[-73.3806104,45.5075079],[-73.3802449,45.5077456],[-73.3800464,45.5078603],[-73.3798667,45.5079599],[-73.3796307,45.5080501],[-73.3793562,45.5080863],[-73.3791288,45.5081163],[-73.379008,45.5081202],[-73.378768,45.5081284],[-73.3785454,45.5081359],[-73.3783179,45.508143],[-73.3780814,45.508151],[-73.3779594,45.5081539],[-73.3778307,45.5081539],[-73.3776013,45.5081172],[-73.3773089,45.5080608],[-73.377012,45.5079528],[-73.376852,45.5078946],[-73.3766183,45.507793],[-73.3764466,45.5076802],[-73.3763218,45.5075495],[-73.3760497,45.5071163],[-73.3760175,45.5070261]]}";2;"";1;50;false;false;true;false;false;false;221.0;0;0;0;0;0;false;73026;6133455958;-73.374795;45.506043;73028;6133455956;-73.380558;45.50765;1;57;58;9585485;Bus 200 : Direction Longueuil;"";EXO;200 N;Terminus Saint-Hyacinthe;Terminus Longueuil
459167317;"{\"type\":\"LineString\",\"coordinates\":[[-73.3806104,45.5075079],[-73.3808919,45.507636],[-73.3812532,45.5078005]]}";1;"";1;50;false;true;true;false;false;false;60.0;0;0;0;0;0;false;73028;6133455956;-73.380558;45.50765;73030;6133455954;-73.431409;45.50809;2;58;59;9585485;Bus 200 : Direction Longueuil;"";EXO;200 N;Terminus Saint-Hyacinthe;Terminus Longueuil
459167316;"{\"type\":\"LineString\",\"coordinates\":[[-73.3812532,45.5078005],[-73.3810009,45.5082704],[-73.3805382,45.5090354],[-73.3803961,45.5092732]]}";2;Boulevard Saint-Bruno;2;50;false;true;true;false;false;false;177.0;0;0;0;0;0;false;73028;6133455956;-73.380558;45.50765;73030;6133455954;-73.431409;45.50809;0;58;59;9585485;Bus 200 : Direction Longueuil;"";EXO;200 N;Terminus Saint-Hyacinthe;Terminus Longueuil
459147224;"{\"type\":\"LineString\",\"coordinates\":[[-73.3803961,45.5092732],[-73.3802566,45.5096021],[-73.3802233,45.5097672],[-73.3802124,45.5098211]]}";3;Boulevard Saint-Bruno;3;50;false;true;true;false;false;false;63.0;1;0;0;0;0;false;73028;6133455956;-73.380558;45.50765;73030;6133455954;-73.431409;45.50809;0;58;59;9585485;Bus 200 : Direction Longueuil;"";EXO;200 N;Terminus Saint-Hyacinthe;Terminus Longueuil
459147229;"{\"type\":\"LineString\",\"coordinates\":[[-73.3802124,45.5098211],[-73.3802191,45.509933]]}";4;Boulevard Saint-Bruno;1;50;false;true;true;false;false;false;13.0;0;0;0;0;0;false;73028;6133455956;-73.380558;45.50765;73030;6133455954;-73.431409;45.50809;0;58;59;9585485;Bus 200 : Direction Longueuil;"";EXO;200 N;Terminus Saint-Hyacinthe;Terminus Longueuil
686694734;"{\"type\":\"LineString\",\"coordinates\":[[-73.3802191,45.509933],[-73.3802241,45.5100402],[-73.3802652,45.5102833]]}";5;"";1;50;false;true;false;false;false;false;40.0;0;0;0;0;0;false;73028;6133455956;-73.380558;45.50765;73030;6133455954;-73.431409;45.50809;0;58;59;9585485;Bus 200 : Direction Longueuil;"";EXO;200 N;Terminus Saint-Hyacinthe;Terminus Longueuil
42806916;"{\"type\":\"LineString\",\"coordinates\":[[-73.3802652,45.5102833],[-73.3803443,45.5104552],[-73.3804473,45.5106176],[-73.380482,45.5106626]]}";6;"";1;50;false;true;false;false;false;false;46.0;0;0;0;0;0;false;73028;6133455956;-73.380558;45.50765;73030;6133455954;-73.431409;45.50809;0;58;59;9585485;Bus 200 : Direction Longueuil;"";EXO;200 N;Terminus Saint-Hyacinthe;Terminus Longueuil
418181177;"{\"type\":\"LineString\",\"coordinates\":[[-73.380482,45.5106626],[-73.3805545,45.5107449],[-73.3806994,45.5108877],[-73.3809086,45.5110381],[-73.3811661,45.5111546],[-73.3814826,45.511226],[-73.381783,45.5112524],[-73.3821156,45.5112524],[-73.3823999,45.511226],[-73.3829701,45.5111798]]}";7;"";1;50;false;true;false;false;false;false;221.0;0;0;0;0;0;false;73028;6133455956;-73.380558;45.50765;73030;6133455954;-73.431409;45.50809;0;58;59;9585485;Bus 200 : Direction Longueuil;"";EXO;200 N;Terminus Saint-Hyacinthe;Terminus Longueuil
617226456;"{\"type\":\"LineString\",\"coordinates\":[[-73.3829701,45.5111798],[-73.383977,45.5110982],[-73.3869536,45.5108143]]}";8;"";1;50;false;true;false;false;false;false;314.0;0;0;0;0;0;false;73028;6133455956;-73.380558;45.50765;73030;6133455954;-73.431409;45.50809;0;58;59;9585485;Bus 200 : Direction Longueuil;"";EXO;200 N;Terminus Saint-Hyacinthe;Terminus Longueuil
686694733;"{\"type\":\"LineString\",\"coordinates\":[[-73.3869536,45.5108143],[-73.388192,45.5107471]]}";9;Boulevard Sir-Wilfrid-Laurier;3;90;false;true;false;false;false;false;97.0;0;0;0;0;0;false;73028;6133455956;-73.380558;45.50765;73030;6133455954;-73.431409;45.50809;0;58;59;9585485;Bus 200 : Direction Longueuil;"";EXO;200 N;Terminus Saint-Hyacinthe;Terminus Longueuil
217823594;"{\"type\":\"LineString\",\"coordinates\":[[-73.388192,45.5107471],[-73.391733,45.5105204]]}";10;Boulevard Sir-Wilfrid-Laurier;4;90;false;true;true;false;false;false;278.0;0;0;0;0;0;false;73028;6133455956;-73.380558;45.50765;73030;6133455954;-73.431409;45.50809;0;58;59;9585485;Bus 200 : Direction Longueuil;"";EXO;200 N;Terminus Saint-Hyacinthe;Terminus Longueuil
217823595;"{\"type\":\"LineString\",\"coordinates\":[[-73.391733,45.5105204],[-73.4214807,45.5086161],[-73.4234956,45.5084627],[-73.4245605,45.5083763]]}";11;Boulevard Sir-Wilfrid-Laurier;3;90;false;true;false;false;false;false;2575.0;0;0;0;0;0;false;73028;6133455956;-73.380558;45.50765;73030;6133455954;-73.431409;45.50809;0;58;59;9585485;Bus 200 : Direction Longueuil;"";EXO;200 N;Terminus Saint-Hyacinthe;Terminus Longueuil
40282590;"{\"type\":\"LineString\",\"coordinates\":[[-73.4245605,45.5083763],[-73.4264407,45.5083105],[-73.4314054,45.5080386],[-73.4314494,45.5080362],[-73.4316361,45.5080285]]}";12;"";1;50;false;true;false;false;false;false;554.0;1;1;0;0;0;false;73028;6133455956;-73.380558;45.50765;73030;6133455954;-73.431409;45.50809;2;58;59;9585485;Bus 200 : Direction Longueuil;"";EXO;200 N;Terminus Saint-Hyacinthe;Terminus Longueuil
466374948;"{\"type\":\"LineString\",\"coordinates\":[[-73.4316361,45.5080285],[-73.4318507,45.5080135]]}";1;"";1;65;false;true;true;false;false;false;17.0;0;0;0;0;0;false;73030;6133455954;-73.431409;45.50809;73032;6133455952;-73.497859;45.512078;2;59;60;9585485;Bus 200 : Direction Longueuil;"";EXO;200 N;Terminus Saint-Hyacinthe;Terminus Longueuil
466374947;"{\"type\":\"LineString\",\"coordinates\":[[-73.4318507,45.5080135],[-73.4321934,45.5079925]]}";2;"";1;65;false;true;false;false;false;false;27.0;0;0;0;0;0;false;73030;6133455954;-73.431409;45.50809;73032;6133455952;-73.497859;45.512078;0;59;60;9585485;Bus 200 : Direction Longueuil;"";EXO;200 N;Terminus Saint-Hyacinthe;Terminus Longueuil
301512717;"{\"type\":\"LineString\",\"coordinates\":[[-73.4321934,45.5079925],[-73.4324032,45.5079796],[-73.4341038,45.5078499],[-73.4362549,45.5077353],[-73.4368124,45.5076899],[-73.4381405,45.5075699]]}";3;"";1;65;false;true;false;false;false;false;467.0;0;0;0;0;0;false;73030;6133455954;-73.431409;45.50809;73032;6133455952;-73.497859;45.512078;0;59;60;9585485;Bus 200 : Direction Longueuil;"";EXO;200 N;Terminus Saint-Hyacinthe;Terminus Longueuil
686694731;"{\"type\":\"LineString\",\"coordinates\":[[-73.4381405,45.5075699],[-73.4416588,45.5073419],[-73.4548388,45.5064452]]}";4;Boulevard Sir-Wilfrid-Laurier;3;90;false;true;false;false;false;false;1310.0;0;0;0;0;0;false;73030;6133455954;-73.431409;45.50809;73032;6133455952;-73.497859;45.512078;0;59;60;9585485;Bus 200 : Direction Longueuil;"";EXO;200 N;Terminus Saint-Hyacinthe;Terminus Longueuil
33972903;"{\"type\":\"LineString\",\"coordinates\":[[-73.4548388,45.5064452],[-73.4582336,45.5061163],[-73.4611901,45.5057649],[-73.46777,45.5052786],[-73.468179,45.5052499]]}";5;Boulevard Sir-Wilfrid-Laurier;3;90;false;true;false;false;false;false;1051.0;0;0;0;0;0;false;73030;6133455954;-73.431409;45.50809;73032;6133455952;-73.497859;45.512078;0;59;60;9585485;Bus 200 : Direction Longueuil;"";EXO;200 N;Terminus Saint-Hyacinthe;Terminus Longueuil
686694730;"{\"type\":\"LineString\",\"coordinates\":[[-73.468179,45.5052499],[-73.4788497,45.5045018]]}";6;Boulevard Sir-Wilfrid-Laurier;3;90;false;true;false;false;false;false;838.0;0;0;0;0;0;false;73030;6133455954;-73.431409;45.50809;73032;6133455952;-73.497859;45.512078;0;59;60;9585485;Bus 200 : Direction Longueuil;"";EXO;200 N;Terminus Saint-Hyacinthe;Terminus Longueuil
622357516;"{\"type\":\"LineString\",\"coordinates\":[[-73.4788497,45.5045018],[-73.4816482,45.5043056],[-73.4830988,45.5041552]]}";7;Boulevard Sir-Wilfrid-Laurier;3;70;false;true;false;false;false;false;335.0;0;0;0;0;0;false;73030;6133455954;-73.431409;45.50809;73032;6133455952;-73.497859;45.512078;0;59;60;9585485;Bus 200 : Direction Longueuil;"";EXO;200 N;Terminus Saint-Hyacinthe;Terminus Longueuil
20418850;"{\"type\":\"LineString\",\"coordinates\":[[-73.4830988,45.5041552],[-73.4865924,45.503547],[-73.4868955,45.5034925],[-73.4872965,45.5034615],[-73.4875996,45.5034812],[-73.4879523,45.5035668],[-73.488124,45.5036673],[-73.4882544,45.5037673]]}";8;"";1;50;false;true;false;false;false;false;423.0;0;0;0;0;0;false;73030;6133455954;-73.431409;45.50809;73032;6133455952;-73.497859;45.512078;0;59;60;9585485;Bus 200 : Direction Longueuil;"";EXO;200 N;Terminus Saint-Hyacinthe;Terminus Longueuil
40260888;"{\"type\":\"LineString\",\"coordinates\":[[-73.4882544,45.5037673],[-73.4883506,45.5038713],[-73.4887176,45.5042947]]}";9;"";2;50;false;true;false;false;false;false;69.0;0;0;0;0;0;false;73030;6133455954;-73.431409;45.50809;73032;6133455952;-73.497859;45.512078;0;59;60;9585485;Bus 200 : Direction Longueuil;"";EXO;200 N;Terminus Saint-Hyacinthe;Terminus Longueuil
686694729;"{\"type\":\"LineString\",\"coordinates\":[[-73.4887176,45.5042947],[-73.4890037,45.5047661]]}";10;Boulevard Taschereau;3;70;false;true;false;false;false;false;57.0;0;0;0;0;0;false;73030;6133455954;-73.431409;45.50809;73032;6133455952;-73.497859;45.512078;0;59;60;9585485;Bus 200 : Direction Longueuil;"";EXO;200 N;Terminus Saint-Hyacinthe;Terminus Longueuil
40260887;"{\"type\":\"LineString\",\"coordinates\":[[-73.4890037,45.5047661],[-73.4904602,45.5071102],[-73.4909376,45.5078884]]}";11;Boulevard Taschereau;3;70;false;true;false;false;false;false;379.0;0;0;0;0;0;false;73030;6133455954;-73.431409;45.50809;73032;6133455952;-73.497859;45.512078;0;59;60;9585485;Bus 200 : Direction Longueuil;"";EXO;200 N;Terminus Saint-Hyacinthe;Terminus Longueuil
331359723;"{\"type\":\"LineString\",\"coordinates\":[[-73.4909376,45.5078884],[-73.4912051,45.5082951],[-73.491495,45.5086447]]}";12;Boulevard Taschereau;3;70;false;true;true;false;false;false;95.0;0;0;0;0;0;false;73030;6133455954;-73.431409;45.50809;73032;6133455952;-73.497859;45.512078;0;59;60;9585485;Bus 200 : Direction Longueuil;"";EXO;200 N;Terminus Saint-Hyacinthe;Terminus Longueuil
331359724;"{\"type\":\"LineString\",\"coordinates\":[[-73.491495,45.5086447],[-73.4916506,45.5088044],[-73.4921226,45.5093037],[-73.4925597,45.5096495],[-73.4927964,45.5098264],[-73.4930686,45.51002],[-73.4936386,45.5103766]]}";13;Boulevard Taschereau;3;70;false;true;false;false;false;false;257.0;0;0;0;0;0;false;73030;6133455954;-73.431409;45.50809;73032;6133455952;-73.497859;45.512078;0;59;60;9585485;Bus 200 : Direction Longueuil;"";EXO;200 N;Terminus Saint-Hyacinthe;Terminus Longueuil
25874034;"{\"type\":\"LineString\",\"coordinates\":[[-73.4936386,45.5103766],[-73.494225,45.5106834]]}";14;Boulevard Taschereau;3;70;false;true;true;false;false;false;58.0;0;0;0;0;0;false;73030;6133455954;-73.431409;45.50809;73032;6133455952;-73.497859;45.512078;0;59;60;9585485;Bus 200 : Direction Longueuil;"";EXO;200 N;Terminus Saint-Hyacinthe;Terminus Longueuil
25874024;"{\"type\":\"LineString\",\"coordinates\":[[-73.494225,45.5106834],[-73.494831,45.5109636],[-73.4956339,45.5112643],[-73.4972429,45.5117794]]}";15;Boulevard Taschereau;3;70;false;true;true;false;false;false;266.0;0;0;0;0;0;false;73030;6133455954;-73.431409;45.50809;73032;6133455952;-73.497859;45.512078;0;59;60;9585485;Bus 200 : Direction Longueuil;"";EXO;200 N;Terminus Saint-Hyacinthe;Terminus Longueuil
326519318;"{\"type\":\"LineString\",\"coordinates\":[[-73.4972429,45.5117794],[-73.4973668,45.5118225],[-73.4997759,45.5125767]]}";16;Boulevard Taschereau;3;70;false;true;true;false;true;false;217.0;0;0;0;0;0;false;73030;6133455954;-73.431409;45.50809;73032;6133455952;-73.497859;45.512078;2;59;60;9585485;Bus 200 : Direction Longueuil;"";EXO;200 N;Terminus Saint-Hyacinthe;Terminus Longueuil
326519318;"{\"type\":\"LineString\",\"coordinates\":[[-73.4972429,45.5117794],[-73.4973668,45.5118225],[-73.4997759,45.5125767]]}";1;Boulevard Taschereau;3;70;false;true;true;false;true;false;108.5;0;0;0;0;0;false;73032;6133455952;-73.497859;45.512078;73038;6133455947;-73.510621;45.514307;1;60;61;9585485;Bus 200 : Direction Longueuil;"";EXO;200 N;Terminus Saint-Hyacinthe;Terminus Longueuil
754134762;"{\"type\":\"LineString\",\"coordinates\":[[-73.4997759,45.5125767],[-73.5003531,45.5127614],[-73.5004614,45.5127951]]}";2;Boulevard Taschereau;4;70;false;true;true;false;true;false;59.0;0;0;0;0;0;false;73032;6133455952;-73.497859;45.512078;73038;6133455947;-73.510621;45.514307;0;60;61;9585485;Bus 200 : Direction Longueuil;"";EXO;200 N;Terminus Saint-Hyacinthe;Terminus Longueuil
466609388;"{\"type\":\"LineString\",\"coordinates\":[[-73.5004614,45.5127951],[-73.5010404,45.5130675],[-73.5017214,45.5133006],[-73.5022252,45.513496]]}";3;Boulevard Taschereau;1;50;false;true;true;false;true;false;159.0;0;0;0;0;0;false;73032;6133455952;-73.497859;45.512078;73038;6133455947;-73.510621;45.514307;0;60;61;9585485;Bus 200 : Direction Longueuil;"";EXO;200 N;Terminus Saint-Hyacinthe;Terminus Longueuil
754134763;"{\"type\":\"LineString\",\"coordinates\":[[-73.5022252,45.513496],[-73.5026064,45.5136489],[-73.5028622,45.513746],[-73.5038642,45.5141073],[-73.5041082,45.5141921],[-73.5043612,45.5142806],[-73.5045477,45.5143333],[-73.5046447,45.5143602],[-73.5051495,45.5145004],[-73.505242,45.5145297],[-73.5054343,45.5145674]]}";4;Boulevard Taschereau;2;50;false;true;true;false;true;false;278.0;0;0;0;0;0;false;73032;6133455952;-73.497859;45.512078;73038;6133455947;-73.510621;45.514307;0;60;61;9585485;Bus 200 : Direction Longueuil;"";EXO;200 N;Terminus Saint-Hyacinthe;Terminus Longueuil
466609389;"{\"type\":\"LineString\",\"coordinates\":[[-73.5054343,45.5145674],[-73.5054499,45.5141015]]}";5;Boulevard Desaulniers;1;50;false;true;true;false;false;false;52.0;0;0;0;0;0;false;73032;6133455952;-73.497859;45.512078;73038;6133455947;-73.510621;45.514307;0;60;61;9585485;Bus 200 : Direction Longueuil;"";EXO;200 N;Terminus Saint-Hyacinthe;Terminus Longueuil
812988042;"{\"type\":\"LineString\",\"coordinates\":[[-73.5054499,45.5141015],[-73.505456,45.5140168],[-73.5054805,45.513674],[-73.5055365,45.5135082],[-73.5056074,45.513384],[-73.5062604,45.5126305]]}";6;Boulevard Desaulniers;1;50;false;true;true;false;false;false;180.0;0;0;0;0;0;false;73032;6133455952;-73.497859;45.512078;73038;6133455947;-73.510621;45.514307;0;60;61;9585485;Bus 200 : Direction Longueuil;"";EXO;200 N;Terminus Saint-Hyacinthe;Terminus Longueuil
42005869;"{\"type\":\"LineString\",\"coordinates\":[[-73.5062604,45.5126305],[-73.5087574,45.5135786]]}";7;Chemin Tiffin;2;50;false;false;false;false;false;false;222.0;0;1;0;0;0;false;73032;6133455952;-73.497859;45.512078;73038;6133455947;-73.510621;45.514307;0;60;61;9585485;Bus 200 : Direction Longueuil;"";EXO;200 N;Terminus Saint-Hyacinthe;Terminus Longueuil
706439835;"{\"type\":\"LineString\",\"coordinates\":[[-73.5087574,45.5135786],[-73.5098214,45.5139375],[-73.5101638,45.5140563],[-73.5107654,45.5142651],[-73.511524,45.5145283],[-73.5119638,45.5146809],[-73.5124631,45.5148542],[-73.5134978,45.5152133],[-73.5144143,45.5155313],[-73.5144383,45.5155396],[-73.5145366,45.5155737],[-73.5146183,45.5156021],[-73.5146698,45.5156199],[-73.5154324,45.5158846],[-73.515802,45.5160128],[-73.5160804,45.5161094],[-73.5162287,45.5161609],[-73.516355,45.5162047],[-73.5165775,45.5162819],[-73.5168925,45.5163912],[-73.5173284,45.5165425]]}";8;Chemin Tiffin;2;50;false;false;false;false;false;false;373.0;0;3;2;0;0;false;73032;6133455952;-73.497859;45.512078;73038;6133455947;-73.510621;45.514307;1;60;61;9585485;Bus 200 : Direction Longueuil;"";EXO;200 N;Terminus Saint-Hyacinthe;Terminus Longueuil
706439835;"{\"type\":\"LineString\",\"coordinates\":[[-73.5087574,45.5135786],[-73.5098214,45.5139375],[-73.5101638,45.5140563],[-73.5107654,45.5142651],[-73.511524,45.5145283],[-73.5119638,45.5146809],[-73.5124631,45.5148542],[-73.5134978,45.5152133],[-73.5144143,45.5155313],[-73.5144383,45.5155396],[-73.5145366,45.5155737],[-73.5146183,45.5156021],[-73.5146698,45.5156199],[-73.5154324,45.5158846],[-73.515802,45.5160128],[-73.5160804,45.5161094],[-73.5162287,45.5161609],[-73.516355,45.5162047],[-73.5165775,45.5162819],[-73.5168925,45.5163912],[-73.5173284,45.5165425]]}";1;Chemin Tiffin;2;50;false;false;false;false;false;false;373.0;0;3;2;0;0;false;73040;6133455946;-73.513267;45.515273;73042;6133455945;-73.519027;45.517115;1;62;63;9585485;Bus 200 : Direction Longueuil;"";EXO;200 N;Terminus Saint-Hyacinthe;Terminus Longueuil
395302116;"{\"type\":\"LineString\",\"coordinates\":[[-73.5173284,45.5165425],[-73.5181495,45.5168034],[-73.5184806,45.5169086],[-73.5189756,45.5170082],[-73.519007,45.5170063],[-73.5191361,45.5169983]]}";2;Chemin Tiffin;2;50;false;false;false;false;false;false;76.0;1;1;0;0;0;false;73040;6133455946;-73.513267;45.515273;73042;6133455945;-73.519027;45.517115;1;62;63;9585485;Bus 200 : Direction Longueuil;"";EXO;200 N;Terminus Saint-Hyacinthe;Terminus Longueuil
25874778;"{\"type\":\"LineString\",\"coordinates\":[[-73.5191361,45.5169983],[-73.5191921,45.5170923],[-73.5192276,45.5171519],[-73.5195466,45.5176874],[-73.519566,45.5177294],[-73.5198082,45.5182542],[-73.5199774,45.5186207],[-73.5200579,45.5190203],[-73.5200762,45.5193154],[-73.5200994,45.519462],[-73.5201081,45.519622],[-73.5201128,45.519742],[-73.5201157,45.5198156]]}";1;Rue Saint-Charles Ouest;4;50;false;false;true;false;false;false;326.0;1;1;0;0;0;false;73042;6133455945;-73.519027;45.517115;73995;6133453872;-73.520874;45.523614;2;63;64;9585485;Bus 200 : Direction Longueuil;"";EXO;200 N;Terminus Saint-Hyacinthe;Terminus Longueuil
755944402;"{\"type\":\"LineString\",\"coordinates\":[[-73.5201157,45.5198156],[-73.5201259,45.5198944],[-73.5201427,45.5199824],[-73.5201654,45.5200794],[-73.5201677,45.5200894]]}";2;Rue Saint-Charles Ouest;4;50;false;false;true;false;false;false;31.0;0;0;0;0;0;false;73042;6133455945;-73.519027;45.517115;73995;6133453872;-73.520874;45.523614;0;63;64;9585485;Bus 200 : Direction Longueuil;"";EXO;200 N;Terminus Saint-Hyacinthe;Terminus Longueuil
753010817;"{\"type\":\"LineString\",\"coordinates\":[[-73.5201677,45.5200894],[-73.5201749,45.5201897],[-73.5201771,45.520263],[-73.5201815,45.5203831],[-73.5201842,45.5204041],[-73.5201959,45.5204945],[-73.5202103,45.5205929],[-73.520229,45.5207224],[-73.5202337,45.5207548],[-73.5202415,45.5208195]]}";3;Rue Saint-Charles Ouest;3;50;false;true;true;false;false;false;82.0;1;1;0;0;0;false;73042;6133455945;-73.519027;45.517115;73995;6133453872;-73.520874;45.523614;0;63;64;9585485;Bus 200 : Direction Longueuil;"";EXO;200 N;Terminus Saint-Hyacinthe;Terminus Longueuil
753011841;"{\"type\":\"LineString\",\"coordinates\":[[-73.5202415,45.5208195],[-73.5202447,45.5208683],[-73.5202527,45.5209529]]}";4;Rue Saint-Charles Ouest;1;50;false;true;true;false;false;false;15.0;0;0;0;0;0;false;73042;6133455945;-73.519027;45.517115;73995;6133453872;-73.520874;45.523614;0;63;64;9585485;Bus 200 : Direction Longueuil;"";EXO;200 N;Terminus Saint-Hyacinthe;Terminus Longueuil
753010858;"{\"type\":\"LineString\",\"coordinates\":[[-73.5202527,45.5209529],[-73.5202602,45.521034],[-73.5202776,45.5211843],[-73.5202798,45.5213064],[-73.52028,45.5214256],[-73.5202759,45.5214798],[-73.5202723,45.5215232],[-73.5202618,45.5215886],[-73.5202547,45.5216217],[-73.5202332,45.5217101],[-73.520223,45.5217522],[-73.5201768,45.5219415],[-73.5201641,45.5219791],[-73.520138,45.5220439],[-73.5201156,45.5220952],[-73.5200492,45.5222243],[-73.5200354,45.5222532],[-73.5199843,45.5223494]]}";5;Rue Saint-Charles Ouest;2;50;false;true;true;false;false;false;159.0;0;1;0;0;0;false;73042;6133455945;-73.519027;45.517115;73995;6133453872;-73.520874;45.523614;0;63;64;9585485;Bus 200 : Direction Longueuil;"";EXO;200 N;Terminus Saint-Hyacinthe;Terminus Longueuil
753010850;"{\"type\":\"LineString\",\"coordinates\":[[-73.5199843,45.5223494],[-73.5199201,45.5224459],[-73.519848,45.5225779],[-73.5195418,45.5232034],[-73.5195258,45.5232381],[-73.5194663,45.5233605]]}";6;Rue Saint-Charles Ouest;2;50;false;true;true;false;false;false;120.0;1;2;0;0;0;false;73042;6133455945;-73.519027;45.517115;73995;6133453872;-73.520874;45.523614;0;63;64;9585485;Bus 200 : Direction Longueuil;"";EXO;200 N;Terminus Saint-Hyacinthe;Terminus Longueuil
41937785;"{\"type\":\"LineString\",\"coordinates\":[[-73.5196342,45.5233746],[-73.5194663,45.5233605]]}";7;"";1;50;false;false;true;false;false;false;14.0;0;0;0;0;0;false;73042;6133455945;-73.519027;45.517115;73995;6133453872;-73.520874;45.523614;0;63;64;9585485;Bus 200 : Direction Longueuil;"";EXO;200 N;Terminus Saint-Hyacinthe;Terminus Longueuil
725167105;"{\"type\":\"LineString\",\"coordinates\":[[-73.5203039,45.5234015],[-73.5198457,45.5233843],[-73.5198012,45.5233819],[-73.5197533,45.5233798],[-73.5196342,45.5233746]]}";8;Rue du Terminus;1;50;false;false;true;false;true;false;53.0;1;1;0;0;0;false;73042;6133455945;-73.519027;45.517115;73995;6133453872;-73.520874;45.523614;0;63;64;9585485;Bus 200 : Direction Longueuil;"";EXO;200 N;Terminus Saint-Hyacinthe;Terminus Longueuil
725167104;"{\"type\":\"LineString\",\"coordinates\":[[-73.5203039,45.5234015],[-73.5202962,45.5235098],[-73.5202865,45.5236461]]}";9;"";1;50;false;false;true;false;true;false;28.0;0;0;1;0;0;false;73042;6133455945;-73.519027;45.517115;73995;6133453872;-73.520874;45.523614;0;63;64;9585485;Bus 200 : Direction Longueuil;"";EXO;200 N;Terminus Saint-Hyacinthe;Terminus Longueuil
88561291;"{\"type\":\"LineString\",\"coordinates\":[[-73.5202865,45.5236461],[-73.5202717,45.5238638]]}";10;"";1;50;false;false;true;false;true;false;25.0;0;0;0;0;0;false;73042;6133455945;-73.519027;45.517115;73995;6133453872;-73.520874;45.523614;0;63;64;9585485;Bus 200 : Direction Longueuil;"";EXO;200 N;Terminus Saint-Hyacinthe;Terminus Longueuil
689692453;"{\"type\":\"LineString\",\"coordinates\":[[-73.5202717,45.5238638],[-73.5210041,45.5238994],[-73.5210304,45.5238999],[-73.5210545,45.5238928],[-73.5210764,45.5238796],[-73.5210874,45.5238618],[-73.5210975,45.5237337],[-73.5210918,45.5237131],[-73.5210731,45.523697],[-73.521051,45.5236879],[-73.5210202,45.5236833],[-73.5208663,45.5236755]]}";11;"";1;50;false;true;true;false;true;false;102.0;0;0;0;0;0;false;73042;6133455945;-73.519027;45.517115;73995;6133453872;-73.520874;45.523614;1;63;64;9585485;Bus 200 : Direction Longueuil;"";EXO;200 N;Terminus Saint-Hyacinthe;Terminus Longueuil
