way_id;shape;index;name;nb_lanes;legal_speed;speed_zone_30;oneway;shares_bike;bike_box;bus_lane;dedicated_bus_lane;length;nb_traffic_signals;nb_crossings;nb_stops;nb_give_ways;nb_lvl_crossings;roundabout;stop_id_orig;node_id_orig;coord_x_orig;coord_y_orig;stop_id_dest;node_id_dest;coord_x_dest;coord_y_dest;nb_neighbouring_ways_bus_stop;ordre_orig;ordre_dest;id_line;line_name;colour;operator;ref;from;to
653256416;"{\"type\":\"LineString\",\"coordinates\":[[-73.834757,45.6358805],[-73.8342691,45.6358967],[-73.8341807,45.6358659],[-73.8339481,45.6356843]]}";1;"";1;50;false;true;true;false;false;false;73.0;0;0;0;0;0;false;82035;6119525317;-73.834747;45.635784;82830;6119523787;-73.832641;45.632885;1;0;1;9084341;Bus 11 : LAVAL;"";EXO;11 S;Gare Sainte-Thérèse;Curé-Labelle / Yvon-Berger
529203724;"{\"type\":\"LineString\",\"coordinates\":[[-73.8339481,45.6356843],[-73.8337953,45.6356449],[-73.8337255,45.6356355],[-73.8335183,45.6356418],[-73.8331872,45.6356518],[-73.8329976,45.6355146]]}";2;"";1;50;false;false;true;false;false;false;82.0;0;0;0;0;0;false;82035;6119525317;-73.834747;45.635784;82830;6119523787;-73.832641;45.632885;0;0;1;9084341;Bus 11 : LAVAL;"";EXO;11 S;Gare Sainte-Thérèse;Curé-Labelle / Yvon-Berger
653256415;"{\"type\":\"LineString\",\"coordinates\":[[-73.8312914,45.6343832],[-73.8319665,45.6348309],[-73.8321067,45.6349239],[-73.8322795,45.6350385],[-73.8326436,45.6352799],[-73.8329976,45.6355146]]}";3;Rue Saint-Alphonse;1;50;false;false;true;false;false;false;183.0;0;0;0;0;0;false;82035;6119525317;-73.834747;45.635784;82830;6119523787;-73.832641;45.632885;0;0;1;9084341;Bus 11 : LAVAL;"";EXO;11 S;Gare Sainte-Thérèse;Curé-Labelle / Yvon-Berger
653257396;"{\"type\":\"LineString\",\"coordinates\":[[-73.8312914,45.6343832],[-73.8325514,45.633372],[-73.8327522,45.6332183],[-73.832847,45.6331458]]}";4;Boulevard Desjardins Est;2;40;false;true;true;false;false;false;184.0;1;0;0;0;0;false;82035;6119525317;-73.834747;45.635784;82830;6119523787;-73.832641;45.632885;0;0;1;9084341;Bus 11 : LAVAL;"";EXO;11 S;Gare Sainte-Thérèse;Curé-Labelle / Yvon-Berger
653256412;"{\"type\":\"LineString\",\"coordinates\":[[-73.832847,45.6331458],[-73.8327634,45.6330896]]}";5;Rue Turgeon;2;50;false;false;true;false;false;false;10.0;0;0;0;0;0;false;82035;6119525317;-73.834747;45.635784;82830;6119523787;-73.832641;45.632885;0;0;1;9084341;Bus 11 : LAVAL;"";EXO;11 S;Gare Sainte-Thérèse;Curé-Labelle / Yvon-Berger
653254439;"{\"type\":\"LineString\",\"coordinates\":[[-73.8327634,45.6330896],[-73.8326858,45.6330384],[-73.8326035,45.6329841],[-73.8323607,45.6328221],[-73.8322559,45.6327532],[-73.8321544,45.6326864],[-73.8320944,45.632647],[-73.8318851,45.6325094],[-73.8318354,45.6324768],[-73.8314656,45.632236],[-73.8314507,45.6322259],[-73.8310387,45.6319483],[-73.8306556,45.6316902],[-73.8303825,45.6315174],[-73.8301718,45.6313841],[-73.8300231,45.63129],[-73.8297656,45.631118],[-73.8296644,45.6310504]]}";6;Rue Turgeon;2;50;false;false;true;false;false;false;166.0;1;0;0;0;0;false;82035;6119525317;-73.834747;45.635784;82830;6119523787;-73.832641;45.632885;1;0;1;9084341;Bus 11 : LAVAL;"";EXO;11 S;Gare Sainte-Thérèse;Curé-Labelle / Yvon-Berger
298125041;"{\"type\":\"LineString\",\"coordinates\":[[-73.8296644,45.6310504],[-73.8296344,45.6310304],[-73.8296082,45.6310128]]}";1;Rue Turgeon;1;50;false;false;false;false;false;false;7.0;0;0;0;0;0;false;82209;6119525188;-73.8298;45.630986;82284;6119524726;-73.82799;45.629805;2;2;3;9084341;Bus 11 : LAVAL;"";EXO;11 S;Gare Sainte-Thérèse;Curé-Labelle / Yvon-Berger
25599779;"{\"type\":\"LineString\",\"coordinates\":[[-73.8296082,45.6310128],[-73.8293238,45.6308192],[-73.828746,45.6304259]]}";2;Rue Turgeon;1;50;false;false;false;false;false;false;94.0;0;0;0;0;0;false;82209;6119525188;-73.8298;45.630986;82284;6119524726;-73.82799;45.629805;0;2;3;9084341;Bus 11 : LAVAL;"";EXO;11 S;Gare Sainte-Thérèse;Curé-Labelle / Yvon-Berger
350600818;"{\"type\":\"LineString\",\"coordinates\":[[-73.828746,45.6304259],[-73.828573,45.6303082]]}";3;Rue Turgeon;1;50;false;false;false;false;false;false;19.0;0;0;0;0;0;false;82209;6119525188;-73.8298;45.630986;82284;6119524726;-73.82799;45.629805;0;2;3;9084341;Bus 11 : LAVAL;"";EXO;11 S;Gare Sainte-Thérèse;Curé-Labelle / Yvon-Berger
380080892;"{\"type\":\"LineString\",\"coordinates\":[[-73.828573,45.6303082],[-73.8282493,45.630082]]}";4;Montée Sanche;1;50;false;false;false;false;false;false;36.0;0;0;0;0;0;false;82209;6119525188;-73.8298;45.630986;82284;6119524726;-73.82799;45.629805;0;2;3;9084341;Bus 11 : LAVAL;"";EXO;11 S;Gare Sainte-Thérèse;Curé-Labelle / Yvon-Berger
458698300;"{\"type\":\"LineString\",\"coordinates\":[[-73.8282493,45.630082],[-73.8282349,45.63003],[-73.8280833,45.6299317],[-73.8279885,45.6298703],[-73.8277419,45.6297104]]}";5;Montée Sanche;1;50;false;true;false;false;false;false;59.0;0;0;0;0;0;false;82209;6119525188;-73.8298;45.630986;82284;6119524726;-73.82799;45.629805;2;2;3;9084341;Bus 11 : LAVAL;"";EXO;11 S;Gare Sainte-Thérèse;Curé-Labelle / Yvon-Berger
458698300;"{\"type\":\"LineString\",\"coordinates\":[[-73.8282493,45.630082],[-73.8282349,45.63003],[-73.8280833,45.6299317],[-73.8279885,45.6298703],[-73.8277419,45.6297104]]}";1;Montée Sanche;1;50;false;true;false;false;false;false;29.5;0;0;0;0;0;false;82284;6119524726;-73.82799;45.629805;82210;6119525187;-73.826538;45.628838;1;3;4;9084341;Bus 11 : LAVAL;"";EXO;11 S;Gare Sainte-Thérèse;Curé-Labelle / Yvon-Berger
23442726;"{\"type\":\"LineString\",\"coordinates\":[[-73.8277419,45.6297104],[-73.8273126,45.62942],[-73.8270438,45.6292381],[-73.8268026,45.6290781],[-73.8267478,45.6290419],[-73.8263235,45.6287605],[-73.8260672,45.6285871],[-73.8260207,45.6285557],[-73.8258674,45.6284521],[-73.8255989,45.6282705],[-73.8251362,45.6279715],[-73.8249199,45.6278924]]}";2;Montée Sanche;1;50;false;true;false;false;false;false;150.0;0;0;0;0;0;false;82284;6119524726;-73.82799;45.629805;82210;6119525187;-73.826538;45.628838;1;3;4;9084341;Bus 11 : LAVAL;"";EXO;11 S;Gare Sainte-Thérèse;Curé-Labelle / Yvon-Berger
23442726;"{\"type\":\"LineString\",\"coordinates\":[[-73.8277419,45.6297104],[-73.8273126,45.62942],[-73.8270438,45.6292381],[-73.8268026,45.6290781],[-73.8267478,45.6290419],[-73.8263235,45.6287605],[-73.8260672,45.6285871],[-73.8260207,45.6285557],[-73.8258674,45.6284521],[-73.8255989,45.6282705],[-73.8251362,45.6279715],[-73.8249199,45.6278924]]}";1;Montée Sanche;1;50;false;true;false;false;false;false;150.0;0;0;0;0;0;false;82211;6119525186;-73.825775;45.628315;82603;6119523922;-73.822887;45.628536;1;5;6;9084341;Bus 11 : LAVAL;"";EXO;11 S;Gare Sainte-Thérèse;Curé-Labelle / Yvon-Berger
459568604;"{\"type\":\"LineString\",\"coordinates\":[[-73.8249199,45.6278924],[-73.8246517,45.6277027]]}";2;Montée Sanche;1;50;false;false;false;false;false;false;30.0;0;0;0;0;0;false;82211;6119525186;-73.825775;45.628315;82603;6119523922;-73.822887;45.628536;0;5;6;9084341;Bus 11 : LAVAL;"";EXO;11 S;Gare Sainte-Thérèse;Curé-Labelle / Yvon-Berger
653391036;"{\"type\":\"LineString\",\"coordinates\":[[-73.8246517,45.6277027],[-73.8245539,45.6276354]]}";3;Montée Sanche;1;50;false;false;false;false;false;false;11.0;0;0;0;0;0;false;82211;6119525186;-73.825775;45.628315;82603;6119523922;-73.822887;45.628536;0;5;6;9084341;Bus 11 : LAVAL;"";EXO;11 S;Gare Sainte-Thérèse;Curé-Labelle / Yvon-Berger
40580309;"{\"type\":\"LineString\",\"coordinates\":[[-73.8245539,45.6276354],[-73.8236462,45.6283616],[-73.8235648,45.6284093],[-73.823397,45.6285055],[-73.8232387,45.6285654],[-73.8230658,45.6286162],[-73.8229053,45.6286442],[-73.8228562,45.6286439],[-73.8226245,45.6286518],[-73.8224019,45.6286356],[-73.8220888,45.6285714],[-73.8208099,45.628106],[-73.8203541,45.6279516],[-73.8200073,45.6279194],[-73.8197317,45.6279083],[-73.8194038,45.6279475],[-73.8190966,45.6280284],[-73.8186273,45.6282711],[-73.8185445,45.628321],[-73.8173321,45.6290877]]}";4;Rue Bouthillier;2;50;false;true;false;false;false;false;336.0;1;0;0;0;0;false;82211;6119525186;-73.825775;45.628315;82603;6119523922;-73.822887;45.628536;1;5;6;9084341;Bus 11 : LAVAL;"";EXO;11 S;Gare Sainte-Thérèse;Curé-Labelle / Yvon-Berger
40580309;"{\"type\":\"LineString\",\"coordinates\":[[-73.8245539,45.6276354],[-73.8236462,45.6283616],[-73.8235648,45.6284093],[-73.823397,45.6285055],[-73.8232387,45.6285654],[-73.8230658,45.6286162],[-73.8229053,45.6286442],[-73.8228562,45.6286439],[-73.8226245,45.6286518],[-73.8224019,45.6286356],[-73.8220888,45.6285714],[-73.8208099,45.628106],[-73.8203541,45.6279516],[-73.8200073,45.6279194],[-73.8197317,45.6279083],[-73.8194038,45.6279475],[-73.8190966,45.6280284],[-73.8186273,45.6282711],[-73.8185445,45.628321],[-73.8173321,45.6290877]]}";1;Rue Bouthillier;2;50;false;true;false;false;false;false;336.0;1;0;0;0;0;false;82604;6119523921;-73.818716;45.628084;82597;6119523925;-73.818847;45.62955;1;7;8;9084341;Bus 11 : LAVAL;"";EXO;11 S;Gare Sainte-Thérèse;Curé-Labelle / Yvon-Berger
406984777;"{\"type\":\"LineString\",\"coordinates\":[[-73.8173321,45.6290877],[-73.8172822,45.6291206]]}";2;Rue Bouthillier;2;50;false;true;true;false;false;false;6.0;0;0;0;0;0;false;82604;6119523921;-73.818716;45.628084;82597;6119523925;-73.818847;45.62955;0;7;8;9084341;Bus 11 : LAVAL;"";EXO;11 S;Gare Sainte-Thérèse;Curé-Labelle / Yvon-Berger
135456113;"{\"type\":\"LineString\",\"coordinates\":[[-73.8172822,45.6291206],[-73.8168172,45.6294121],[-73.81675,45.6294543]]}";3;Rue Bouthillier;2;50;false;true;true;false;false;false;56.0;1;0;0;0;0;false;82604;6119523921;-73.818716;45.628084;82597;6119523925;-73.818847;45.62955;0;7;8;9084341;Bus 11 : LAVAL;"";EXO;11 S;Gare Sainte-Thérèse;Curé-Labelle / Yvon-Berger
653256414;"{\"type\":\"LineString\",\"coordinates\":[[-73.81675,45.6294543],[-73.8162892,45.6297486],[-73.8157295,45.6300917],[-73.8154742,45.6302514],[-73.8151422,45.6304629],[-73.8143603,45.6310313],[-73.8138639,45.6314076]]}";4;Rue Bouthillier;2;50;false;true;true;false;false;false;313.0;2;0;1;0;0;false;82604;6119523921;-73.818716;45.628084;82597;6119523925;-73.818847;45.62955;0;7;8;9084341;Bus 11 : LAVAL;"";EXO;11 S;Gare Sainte-Thérèse;Curé-Labelle / Yvon-Berger
40580310;"{\"type\":\"LineString\",\"coordinates\":[[-73.8168792,45.6295655],[-73.81675,45.6294543]]}";5;"";1;50;false;false;true;false;false;false;16.0;2;0;0;0;0;false;82604;6119523921;-73.818716;45.628084;82597;6119523925;-73.818847;45.62955;0;7;8;9084341;Bus 11 : LAVAL;"";EXO;11 S;Gare Sainte-Thérèse;Curé-Labelle / Yvon-Berger
40433757;"{\"type\":\"LineString\",\"coordinates\":[[-73.8174863,45.6300936],[-73.8168792,45.6295655]]}";6;"";1;50;false;false;true;false;false;false;76.0;1;0;0;0;0;false;82604;6119523921;-73.818716;45.628084;82597;6119523925;-73.818847;45.62955;0;7;8;9084341;Bus 11 : LAVAL;"";EXO;11 S;Gare Sainte-Thérèse;Curé-Labelle / Yvon-Berger
653254443;"{\"type\":\"LineString\",\"coordinates\":[[-73.8174863,45.6300936],[-73.8176771,45.629994],[-73.8178406,45.6299087],[-73.8180198,45.6298152],[-73.8182052,45.6297184],[-73.8183953,45.6296192],[-73.8185853,45.6295201],[-73.8187717,45.6294228],[-73.8189754,45.6293165],[-73.8191635,45.6292183],[-73.8193744,45.6291083],[-73.8196624,45.628958]]}";7;"";1;50;false;false;true;false;false;false;106.0;0;0;1;0;0;false;82604;6119523921;-73.818716;45.628084;82597;6119523925;-73.818847;45.62955;1;7;8;9084341;Bus 11 : LAVAL;"";EXO;11 S;Gare Sainte-Thérèse;Curé-Labelle / Yvon-Berger
653254443;"{\"type\":\"LineString\",\"coordinates\":[[-73.8174863,45.6300936],[-73.8176771,45.629994],[-73.8178406,45.6299087],[-73.8180198,45.6298152],[-73.8182052,45.6297184],[-73.8183953,45.6296192],[-73.8185853,45.6295201],[-73.8187717,45.6294228],[-73.8189754,45.6293165],[-73.8191635,45.6292183],[-73.8193744,45.6291083],[-73.8196624,45.628958]]}";1;"";1;50;false;false;true;false;false;false;106.0;0;0;1;0;0;false;82597;6119523925;-73.818847;45.62955;82605;6119523920;-73.815157;45.630357;1;8;9;9084341;Bus 11 : LAVAL;"";EXO;11 S;Gare Sainte-Thérèse;Curé-Labelle / Yvon-Berger
40433757;"{\"type\":\"LineString\",\"coordinates\":[[-73.8174863,45.6300936],[-73.8168792,45.6295655]]}";2;"";1;50;false;false;true;false;false;false;76.0;1;0;0;0;0;false;82597;6119523925;-73.818847;45.62955;82605;6119523920;-73.815157;45.630357;0;8;9;9084341;Bus 11 : LAVAL;"";EXO;11 S;Gare Sainte-Thérèse;Curé-Labelle / Yvon-Berger
40580310;"{\"type\":\"LineString\",\"coordinates\":[[-73.8168792,45.6295655],[-73.81675,45.6294543]]}";3;"";1;50;false;false;true;false;false;false;16.0;2;0;0;0;0;false;82597;6119523925;-73.818847;45.62955;82605;6119523920;-73.815157;45.630357;0;8;9;9084341;Bus 11 : LAVAL;"";EXO;11 S;Gare Sainte-Thérèse;Curé-Labelle / Yvon-Berger
653256414;"{\"type\":\"LineString\",\"coordinates\":[[-73.81675,45.6294543],[-73.8162892,45.6297486],[-73.8157295,45.6300917],[-73.8154742,45.6302514],[-73.8151422,45.6304629],[-73.8143603,45.6310313],[-73.8138639,45.6314076]]}";4;Rue Bouthillier;2;50;false;true;true;false;false;false;156.5;2;0;1;0;0;false;82597;6119523925;-73.818847;45.62955;82605;6119523920;-73.815157;45.630357;1;8;9;9084341;Bus 11 : LAVAL;"";EXO;11 S;Gare Sainte-Thérèse;Curé-Labelle / Yvon-Berger
653256414;"{\"type\":\"LineString\",\"coordinates\":[[-73.81675,45.6294543],[-73.8162892,45.6297486],[-73.8157295,45.6300917],[-73.8154742,45.6302514],[-73.8151422,45.6304629],[-73.8143603,45.6310313],[-73.8138639,45.6314076]]}";1;Rue Bouthillier;2;50;false;true;true;false;false;false;156.5;2;0;1;0;0;false;82605;6119523920;-73.815157;45.630357;82039;6119525313;-73.812467;45.630359;1;9;10;9084341;Bus 11 : LAVAL;"";EXO;11 S;Gare Sainte-Thérèse;Curé-Labelle / Yvon-Berger
455451818;"{\"type\":\"LineString\",\"coordinates\":[[-73.8138639,45.6314076],[-73.8123612,45.630431]]}";2;Boulevard Curé-Labelle;2;60;false;true;true;false;false;false;80.0;1;0;0;0;0;false;82605;6119523920;-73.815157;45.630357;82039;6119525313;-73.812467;45.630359;1;9;10;9084341;Bus 11 : LAVAL;"";EXO;11 S;Gare Sainte-Thérèse;Curé-Labelle / Yvon-Berger
545998054;"{\"type\":\"LineString\",\"coordinates\":[[-73.8123612,45.630431],[-73.8114277,45.6298039]]}";1;Boulevard Curé-Labelle;2;60;false;true;true;false;false;false;101.0;0;0;0;0;0;false;82039;6119525313;-73.812467;45.630359;82040;6119525312;-73.80926;45.628279;2;10;11;9084341;Bus 11 : LAVAL;"";EXO;11 S;Gare Sainte-Thérèse;Curé-Labelle / Yvon-Berger
545998053;"{\"type\":\"LineString\",\"coordinates\":[[-73.8114277,45.6298039],[-73.8105611,45.6292097],[-73.8091689,45.628255]]}";2;Boulevard Curé-Labelle;2;60;false;true;true;false;false;false;247.0;1;0;0;0;0;false;82039;6119525313;-73.812467;45.630359;82040;6119525312;-73.80926;45.628279;2;10;11;9084341;Bus 11 : LAVAL;"";EXO;11 S;Gare Sainte-Thérèse;Curé-Labelle / Yvon-Berger
455100377;"{\"type\":\"LineString\",\"coordinates\":[[-73.8091689,45.628255],[-73.8089578,45.6281176]]}";1;Boulevard Curé-Labelle;2;60;false;true;true;false;false;false;23.0;1;0;0;0;0;false;82040;6119525312;-73.80926;45.628279;82041;6119525311;-73.803708;45.624723;2;11;12;9084341;Bus 11 : LAVAL;"";EXO;11 S;Gare Sainte-Thérèse;Curé-Labelle / Yvon-Berger
233925636;"{\"type\":\"LineString\",\"coordinates\":[[-73.8089578,45.6281176],[-73.8087668,45.6279864],[-73.8086385,45.6278961]]}";2;Boulevard Curé-Labelle;2;60;false;true;true;false;false;false;35.0;0;0;0;0;0;false;82040;6119525312;-73.80926;45.628279;82041;6119525311;-73.803708;45.624723;0;11;12;9084341;Bus 11 : LAVAL;"";EXO;11 S;Gare Sainte-Thérèse;Curé-Labelle / Yvon-Berger
233925635;"{\"type\":\"LineString\",\"coordinates\":[[-73.8086385,45.6278961],[-73.8082597,45.6276403],[-73.8079945,45.62747],[-73.8050622,45.6255878],[-73.8046964,45.625353],[-73.8042522,45.6250679],[-73.8039777,45.6248917],[-73.803727,45.6247307],[-73.8031595,45.6243665]]}";3;Boulevard Curé-Labelle;2;60;false;true;true;false;false;false;580.0;0;0;0;0;0;false;82040;6119525312;-73.80926;45.628279;82041;6119525311;-73.803708;45.624723;2;11;12;9084341;Bus 11 : LAVAL;"";EXO;11 S;Gare Sainte-Thérèse;Curé-Labelle / Yvon-Berger
233925635;"{\"type\":\"LineString\",\"coordinates\":[[-73.8086385,45.6278961],[-73.8082597,45.6276403],[-73.8079945,45.62747],[-73.8050622,45.6255878],[-73.8046964,45.625353],[-73.8042522,45.6250679],[-73.8039777,45.6248917],[-73.803727,45.6247307],[-73.8031595,45.6243665]]}";1;Boulevard Curé-Labelle;2;60;false;true;true;false;false;false;290.0;0;0;0;0;0;false;82041;6119525311;-73.803708;45.624723;82607;6119523918;-73.801521;45.623192;1;12;13;9084341;Bus 11 : LAVAL;"";EXO;11 S;Gare Sainte-Thérèse;Curé-Labelle / Yvon-Berger
455283562;"{\"type\":\"LineString\",\"coordinates\":[[-73.8031595,45.6243665],[-73.8027447,45.6241047]]}";2;Boulevard Curé-Labelle;2;60;false;true;true;false;false;false;44.0;1;0;0;0;0;false;82041;6119525311;-73.803708;45.624723;82607;6119523918;-73.801521;45.623192;0;12;13;9084341;Bus 11 : LAVAL;"";EXO;11 S;Gare Sainte-Thérèse;Curé-Labelle / Yvon-Berger
455283546;"{\"type\":\"LineString\",\"coordinates\":[[-73.8027447,45.6241047],[-73.8023376,45.6238453],[-73.8022257,45.6237689]]}";3;Boulevard Curé-Labelle;2;60;false;true;true;false;false;false;56.0;1;0;0;0;0;false;82041;6119525311;-73.803708;45.624723;82607;6119523918;-73.801521;45.623192;0;12;13;9084341;Bus 11 : LAVAL;"";EXO;11 S;Gare Sainte-Thérèse;Curé-Labelle / Yvon-Berger
455283560;"{\"type\":\"LineString\",\"coordinates\":[[-73.8022257,45.6237689],[-73.8019329,45.6235659],[-73.8016962,45.6233991],[-73.8014713,45.6232435],[-73.8012008,45.6230613],[-73.8010007,45.6229193],[-73.8003348,45.6224575],[-73.8002824,45.6224212],[-73.7997303,45.6220382],[-73.7996692,45.6219958],[-73.7990872,45.6215921],[-73.7989576,45.6215022],[-73.7986917,45.6213179],[-73.7986317,45.6212762],[-73.7985287,45.6212558]]}";4;Boulevard Curé-Labelle;2;60;false;true;true;false;false;false;201.5;0;0;0;0;0;false;82041;6119525311;-73.803708;45.624723;82607;6119523918;-73.801521;45.623192;1;12;13;9084341;Bus 11 : LAVAL;"";EXO;11 S;Gare Sainte-Thérèse;Curé-Labelle / Yvon-Berger
58939606;"{\"type\":\"LineString\",\"coordinates\":[[-73.7985287,45.6212558],[-73.7978534,45.6207704]]}";1;Boulevard Curé-Labelle;4;50;false;false;true;false;false;false;76.0;0;0;0;0;0;false;82609;6119523916;-73.798706;45.621298;82610;6119523915;-73.79682;45.619724;2;15;16;9084341;Bus 11 : LAVAL;"";EXO;11 S;Gare Sainte-Thérèse;Curé-Labelle / Yvon-Berger
40610839;"{\"type\":\"LineString\",\"coordinates\":[[-73.7978534,45.6207704],[-73.797518,45.620493]]}";2;Boulevard Curé-Labelle;4;50;false;false;false;false;false;false;41.0;0;0;0;0;0;false;82609;6119523916;-73.798706;45.621298;82610;6119523915;-73.79682;45.619724;0;15;16;9084341;Bus 11 : LAVAL;"";EXO;11 S;Gare Sainte-Thérèse;Curé-Labelle / Yvon-Berger
40610833;"{\"type\":\"LineString\",\"coordinates\":[[-73.797518,45.620493],[-73.7967234,45.6197799],[-73.7963082,45.6193112],[-73.7960033,45.618967],[-73.7958107,45.6186851],[-73.7957766,45.6186351],[-73.7957286,45.6185648],[-73.7955327,45.618186],[-73.7951116,45.617372]]}";3;Boulevard Curé-Labelle;4;50;false;false;false;false;false;false;398.0;0;0;0;0;0;false;82609;6119523916;-73.798706;45.621298;82610;6119523915;-73.79682;45.619724;2;15;16;9084341;Bus 11 : LAVAL;"";EXO;11 S;Gare Sainte-Thérèse;Curé-Labelle / Yvon-Berger
40610833;"{\"type\":\"LineString\",\"coordinates\":[[-73.797518,45.620493],[-73.7967234,45.6197799],[-73.7963082,45.6193112],[-73.7960033,45.618967],[-73.7958107,45.6186851],[-73.7957766,45.6186351],[-73.7957286,45.6185648],[-73.7955327,45.618186],[-73.7951116,45.617372]]}";1;Boulevard Curé-Labelle;4;50;false;false;false;false;false;false;199.0;0;0;0;0;0;false;82610;6119523915;-73.79682;45.619724;82611;6119523914;-73.792292;45.611075;1;16;17;9084341;Bus 11 : LAVAL;"";EXO;11 S;Gare Sainte-Thérèse;Curé-Labelle / Yvon-Berger
40610491;"{\"type\":\"LineString\",\"coordinates\":[[-73.7951116,45.617372],[-73.7929347,45.6131674]]}";2;Pont Marius-Dufresne;4;50;false;false;false;false;false;false;497.0;0;0;0;0;0;false;82610;6119523915;-73.79682;45.619724;82611;6119523914;-73.792292;45.611075;0;16;17;9084341;Bus 11 : LAVAL;"";EXO;11 S;Gare Sainte-Thérèse;Curé-Labelle / Yvon-Berger
40610492;"{\"type\":\"LineString\",\"coordinates\":[[-73.7929347,45.6131674],[-73.7927184,45.6126796]]}";3;Boulevard Curé-Labelle;4;60;false;false;false;false;false;false;57.0;0;0;0;0;0;false;82610;6119523915;-73.79682;45.619724;82611;6119523914;-73.792292;45.611075;0;16;17;9084341;Bus 11 : LAVAL;"";EXO;11 S;Gare Sainte-Thérèse;Curé-Labelle / Yvon-Berger
25599913;"{\"type\":\"LineString\",\"coordinates\":[[-73.7927184,45.6126796],[-73.7926396,45.6124821],[-73.7925509,45.6122601],[-73.7925066,45.6121492],[-73.7924988,45.6121192],[-73.792308,45.6115077],[-73.7922827,45.6114106]]}";4;Boulevard Curé-Labelle;1;60;false;false;true;false;false;false;146.0;0;0;0;0;0;false;82610;6119523915;-73.79682;45.619724;82611;6119523914;-73.792292;45.611075;0;16;17;9084341;Bus 11 : LAVAL;"";EXO;11 S;Gare Sainte-Thérèse;Curé-Labelle / Yvon-Berger
455259030;"{\"type\":\"LineString\",\"coordinates\":[[-73.7922827,45.6114106],[-73.7921736,45.6110677]]}";5;Boulevard Curé-Labelle;1;60;false;false;true;false;false;false;20.0;1;0;0;0;0;false;82610;6119523915;-73.79682;45.619724;82611;6119523914;-73.792292;45.611075;1;16;17;9084341;Bus 11 : LAVAL;"";EXO;11 S;Gare Sainte-Thérèse;Curé-Labelle / Yvon-Berger
45800323;"{\"type\":\"LineString\",\"coordinates\":[[-73.7913849,45.6081997],[-73.7914173,45.6083176],[-73.7920258,45.6105302],[-73.7921736,45.6110677]]}";1;Boulevard Curé-Labelle;4;60;false;false;true;false;false;false;162.5;1;0;0;0;0;false;82612;6301969361;-73.791524;45.608391;82613;6119523912;-73.790816;45.605672;1;18;19;9084341;Bus 11 : LAVAL;"";EXO;11 S;Gare Sainte-Thérèse;Curé-Labelle / Yvon-Berger
46203717;"{\"type\":\"LineString\",\"coordinates\":[[-73.7913849,45.6081997],[-73.7913678,45.6081374],[-73.791008,45.606829]]}";2;Boulevard Curé-Labelle;5;60;false;false;true;false;false;false;156.0;0;0;0;0;0;false;82612;6301969361;-73.791524;45.608391;82613;6119523912;-73.790816;45.605672;0;18;19;9084341;Bus 11 : LAVAL;"";EXO;11 S;Gare Sainte-Thérèse;Curé-Labelle / Yvon-Berger
673264000;"{\"type\":\"LineString\",\"coordinates\":[[-73.791008,45.606829],[-73.791003,45.6066078],[-73.7907244,45.6055836]]}";3;Boulevard Curé-Labelle;3;60;false;true;true;false;false;false;70.5;0;0;0;0;0;false;82612;6301969361;-73.791524;45.608391;82613;6119523912;-73.790816;45.605672;1;18;19;9084341;Bus 11 : LAVAL;"";EXO;11 S;Gare Sainte-Thérèse;Curé-Labelle / Yvon-Berger
