way_id;shape;index;name;nb_lanes;legal_speed;speed_zone_30;oneway;shares_bike;bike_box;bus_lane;dedicated_bus_lane;length;nb_traffic_signals;nb_crossings;nb_stops;nb_give_ways;nb_lvl_crossings;roundabout;stop_id_orig;node_id_orig;coord_x_orig;coord_y_orig;stop_id_dest;node_id_dest;coord_x_dest;coord_y_dest;nb_neighbouring_ways_bus_stop;ordre_orig;ordre_dest;id_line;line_name;colour;operator;ref;from;to
44207782;"{\"type\":\"LineString\",\"coordinates\":[[-73.4427061,45.6846734],[-73.442171,45.6855223],[-73.4419023,45.6859618],[-73.4413238,45.6867813],[-73.4410234,45.6871711],[-73.4408248,45.687467],[-73.4406645,45.687693],[-73.4401947,45.6883582],[-73.4398475,45.6888619],[-73.4393687,45.6893398],[-73.4391595,45.6895032],[-73.4389694,45.6896518],[-73.4387298,45.6897925]]}";1;Rue Sainte-Anne;2;30;false;false;true;false;false;false;652.0;0;0;0;0;0;false;70139;6133409815;-73.43943;45.689218;70133;6133409821;-73.437557;45.69024;1;3;4;9628440;Bus 721 : Direction Longueuil;"";EXO;721 O;Rue D'Youville / Route 132;Terminus Longueuil
49156265;"{\"type\":\"LineString\",\"coordinates\":[[-73.4387298,45.6897925],[-73.4385437,45.6898993]]}";2;Rue Sainte-Anne;2;50;false;false;true;false;false;false;19.0;0;0;0;0;0;false;70139;6133409815;-73.43943;45.689218;70133;6133409821;-73.437557;45.69024;0;3;4;9628440;Bus 721 : Direction Longueuil;"";EXO;721 O;Rue D'Youville / Route 132;Terminus Longueuil
692633608;"{\"type\":\"LineString\",\"coordinates\":[[-73.4385437,45.6898993],[-73.438167,45.6901014],[-73.4377764,45.6902693],[-73.4374845,45.6903293],[-73.4370553,45.6903796],[-73.435515,45.69074]]}";3;Rue Sainte-Anne;2;50;false;false;true;false;false;false;128.5;0;0;0;0;0;false;70139;6133409815;-73.43943;45.689218;70133;6133409821;-73.437557;45.69024;1;3;4;9628440;Bus 721 : Direction Longueuil;"";EXO;721 O;Rue D'Youville / Route 132;Terminus Longueuil
346609457;"{\"type\":\"LineString\",\"coordinates\":[[-73.435515,45.69074],[-73.4340014,45.6901477],[-73.4331677,45.6898191],[-73.4325949,45.6895934],[-73.4325307,45.6895477],[-73.4322233,45.689329],[-73.4321314,45.6892636],[-73.432026,45.6892096],[-73.4314876,45.6889338]]}";1;Rue Michel-Messier;1;50;false;false;true;false;false;false;187.0;0;0;0;0;0;false;70143;6133409811;-73.43227;45.68925;70131;6133409823;-73.432986;45.687441;1;6;7;9628440;Bus 721 : Direction Longueuil;"";EXO;721 O;Rue D'Youville / Route 132;Terminus Longueuil
44208660;"{\"type\":\"LineString\",\"coordinates\":[[-73.4314876,45.6889338],[-73.4325691,45.6876927],[-73.4329189,45.6873543]]}";2;Rue Frontenac;1;50;false;false;true;false;false;false;104.0;0;0;0;0;0;false;70143;6133409811;-73.43227;45.68925;70131;6133409823;-73.432986;45.687441;1;6;7;9628440;Bus 721 : Direction Longueuil;"";EXO;721 O;Rue D'Youville / Route 132;Terminus Longueuil
44955741;"{\"type\":\"LineString\",\"coordinates\":[[-73.4259008,45.6712941],[-73.4259541,45.6714769],[-73.4261865,45.6723236],[-73.426216,45.6725415],[-73.4262318,45.672971],[-73.4262339,45.6730295],[-73.4262353,45.6730688],[-73.4262443,45.6736577]]}";1;Rue Jules-Phaneuf;1;50;false;false;true;false;false;false;132.5;0;0;0;0;0;false;70059;6133410488;-73.426388;45.672901;70057;6133410490;-73.429266;45.669013;1;17;18;9628440;Bus 721 : Direction Longueuil;"";EXO;721 O;Rue D'Youville / Route 132;Terminus Longueuil
44955740;"{\"type\":\"LineString\",\"coordinates\":[[-73.4258325,45.6710613],[-73.4259008,45.6712941]]}";2;Rue Jules-Phaneuf;1;50;false;false;true;false;false;false;27.0;0;0;0;0;0;false;70059;6133410488;-73.426388;45.672901;70057;6133410490;-73.429266;45.669013;0;17;18;9628440;Bus 721 : Direction Longueuil;"";EXO;721 O;Rue D'Youville / Route 132;Terminus Longueuil
43898110;"{\"type\":\"LineString\",\"coordinates\":[[-73.4257184,45.6704962],[-73.4258325,45.6710613]]}";3;Rue Jules-Phaneuf;1;50;false;false;true;false;false;false;64.0;0;0;0;0;0;false;70059;6133410488;-73.426388;45.672901;70057;6133410490;-73.429266;45.669013;0;17;18;9628440;Bus 721 : Direction Longueuil;"";EXO;721 O;Rue D'Youville / Route 132;Terminus Longueuil
45759384;"{\"type\":\"LineString\",\"coordinates\":[[-73.4257184,45.6704962],[-73.4262748,45.6703722],[-73.4267898,45.6702223],[-73.4272626,45.6700571],[-73.4278307,45.6698014],[-73.4282529,45.669566],[-73.4284226,45.6694595],[-73.4293222,45.668895]]}";4;Chemin du Petit-Bois;1;80;false;false;true;false;false;false;168.5;0;0;0;0;0;false;70059;6133410488;-73.426388;45.672901;70057;6133410490;-73.429266;45.669013;1;17;18;9628440;Bus 721 : Direction Longueuil;"";EXO;721 O;Rue D'Youville / Route 132;Terminus Longueuil
45610165;"{\"type\":\"LineString\",\"coordinates\":[[-73.4293222,45.668895],[-73.4297686,45.668604],[-73.4302417,45.6682955],[-73.4304802,45.6681312]]}";1;Chemin du Petit-Bois;1;50;false;false;false;false;false;false;124.0;1;0;0;0;0;false;70057;6133410490;-73.429266;45.669013;70053;6133410494;-73.431073;45.666959;2;18;19;9628440;Bus 721 : Direction Longueuil;"";EXO;721 O;Rue D'Youville / Route 132;Terminus Longueuil
692275241;"{\"type\":\"LineString\",\"coordinates\":[[-73.4304802,45.6681312],[-73.430684,45.6679993]]}";2;Rue de la Gabelle;1;50;false;false;false;false;false;false;22.0;0;0;0;0;0;false;70057;6133410490;-73.429266;45.669013;70053;6133410494;-73.431073;45.666959;0;18;19;9628440;Bus 721 : Direction Longueuil;"";EXO;721 O;Rue D'Youville / Route 132;Terminus Longueuil
41144962;"{\"type\":\"LineString\",\"coordinates\":[[-73.430684,45.6679993],[-73.43078,45.6679409],[-73.430876,45.6678825],[-73.4310994,45.6677397],[-73.4311495,45.6676676],[-73.4311474,45.6675706],[-73.431127,45.6674903],[-73.4310668,45.6672534],[-73.4309736,45.666851],[-73.4308573,45.6663739],[-73.4308767,45.6649602],[-73.4308866,45.6645011],[-73.4309016,45.6643997],[-73.4309967,45.6642842],[-73.4315456,45.6639422],[-73.4316266,45.6638937]]}";3;Rue de la Gabelle;1;50;false;false;false;false;false;false;498.0;1;0;0;0;0;false;70057;6133410490;-73.429266;45.669013;70053;6133410494;-73.431073;45.666959;2;18;19;9628440;Bus 721 : Direction Longueuil;"";EXO;721 O;Rue D'Youville / Route 132;Terminus Longueuil
41144962;"{\"type\":\"LineString\",\"coordinates\":[[-73.430684,45.6679993],[-73.43078,45.6679409],[-73.430876,45.6678825],[-73.4310994,45.6677397],[-73.4311495,45.6676676],[-73.4311474,45.6675706],[-73.431127,45.6674903],[-73.4310668,45.6672534],[-73.4309736,45.666851],[-73.4308573,45.6663739],[-73.4308767,45.6649602],[-73.4308866,45.6645011],[-73.4309016,45.6643997],[-73.4309967,45.6642842],[-73.4315456,45.6639422],[-73.4316266,45.6638937]]}";1;Rue de la Gabelle;1;50;false;false;false;false;false;false;249.0;1;0;0;0;0;false;70049;6133410496;-73.431484;45.664062;70035;6133410509;-73.430075;45.662222;1;20;21;9628440;Bus 721 : Direction Longueuil;"";EXO;721 O;Rue D'Youville / Route 132;Terminus Longueuil
692633602;"{\"type\":\"LineString\",\"coordinates\":[[-73.4316266,45.6638937],[-73.4317498,45.66381]]}";2;Rue des Intendants;1;50;false;false;false;false;false;false;14.0;0;0;0;0;0;false;70049;6133410496;-73.431484;45.664062;70035;6133410509;-73.430075;45.662222;0;20;21;9628440;Bus 721 : Direction Longueuil;"";EXO;721 O;Rue D'Youville / Route 132;Terminus Longueuil
692633601;"{\"type\":\"LineString\",\"coordinates\":[[-73.4317498,45.66381],[-73.4296465,45.6621651],[-73.4293649,45.6619448],[-73.4280245,45.6608965],[-73.4261445,45.6594261],[-73.4248253,45.6583944],[-73.4233137,45.6572119],[-73.4220833,45.6562495],[-73.4214011,45.6557159]]}";3;Boulevard de la Marine;1;50;false;true;true;false;false;false;604.0;0;0;0;0;0;false;70049;6133410496;-73.431484;45.664062;70035;6133410509;-73.430075;45.662222;1;20;21;9628440;Bus 721 : Direction Longueuil;"";EXO;721 O;Rue D'Youville / Route 132;Terminus Longueuil
692633601;"{\"type\":\"LineString\",\"coordinates\":[[-73.4317498,45.66381],[-73.4296465,45.6621651],[-73.4293649,45.6619448],[-73.4280245,45.6608965],[-73.4261445,45.6594261],[-73.4248253,45.6583944],[-73.4233137,45.6572119],[-73.4220833,45.6562495],[-73.4214011,45.6557159]]}";1;Boulevard de la Marine;1;50;false;true;true;false;false;false;604.0;0;0;0;0;0;false;70043;6133410502;-73.423604;45.657216;70007;6133410525;-73.440063;45.612533;1;25;26;9628440;Bus 721 : Direction Longueuil;"";EXO;721 O;Rue D'Youville / Route 132;Terminus Longueuil
317730055;"{\"type\":\"LineString\",\"coordinates\":[[-73.4214011,45.6557159],[-73.4212086,45.6555214],[-73.4211371,45.6553958],[-73.4210852,45.6552027],[-73.4210401,45.6549824]]}";2;"";1;50;false;true;true;false;false;false;88.0;0;0;0;0;0;false;70043;6133410502;-73.423604;45.657216;70007;6133410525;-73.440063;45.612533;0;25;26;9628440;Bus 721 : Direction Longueuil;"";EXO;721 O;Rue D'Youville / Route 132;Terminus Longueuil
317731364;"{\"type\":\"LineString\",\"coordinates\":[[-73.4210401,45.6549824],[-73.4210587,45.654838],[-73.4218397,45.6489283],[-73.4227581,45.6423099],[-73.4231702,45.6389351],[-73.4235563,45.6358047],[-73.424037,45.6324558],[-73.4241578,45.6320004]]}";3;Route 132;2;90;false;true;true;false;false;false;2564.0;0;0;0;0;0;false;70043;6133410502;-73.423604;45.657216;70007;6133410525;-73.440063;45.612533;0;25;26;9628440;Bus 721 : Direction Longueuil;"";EXO;721 O;Rue D'Youville / Route 132;Terminus Longueuil
472637013;"{\"type\":\"LineString\",\"coordinates\":[[-73.4241578,45.6320004],[-73.4241991,45.6318757],[-73.4243544,45.6314079],[-73.4244124,45.6312496],[-73.4244835,45.6310622],[-73.4246134,45.6307697]]}";4;Route 132;3;90;false;true;true;false;false;false;142.0;0;0;0;0;0;false;70043;6133410502;-73.423604;45.657216;70007;6133410525;-73.440063;45.612533;0;25;26;9628440;Bus 721 : Direction Longueuil;"";EXO;721 O;Rue D'Youville / Route 132;Terminus Longueuil
751928535;"{\"type\":\"LineString\",\"coordinates\":[[-73.4246134,45.6307697],[-73.4247361,45.6305124]]}";5;Route 132;3;90;false;true;true;false;false;false;31.0;0;0;0;0;0;false;70043;6133410502;-73.423604;45.657216;70007;6133410525;-73.440063;45.612533;0;25;26;9628440;Bus 721 : Direction Longueuil;"";EXO;721 O;Rue D'Youville / Route 132;Terminus Longueuil
751928533;"{\"type\":\"LineString\",\"coordinates\":[[-73.4247361,45.6305124],[-73.4248127,45.6303564],[-73.4248854,45.6302166],[-73.4250227,45.6299857],[-73.4251443,45.6297855],[-73.4252587,45.6296063],[-73.4253631,45.6294504],[-73.4254484,45.6293287],[-73.4255387,45.6291997],[-73.4257003,45.6289919],[-73.4258827,45.628767],[-73.4263885,45.628178],[-73.427592,45.6267911],[-73.429206,45.6249409]]}";6;Route 132;2;90;false;true;true;false;false;false;712.0;0;0;0;0;0;false;70043;6133410502;-73.423604;45.657216;70007;6133410525;-73.440063;45.612533;0;25;26;9628440;Bus 721 : Direction Longueuil;"";EXO;721 O;Rue D'Youville / Route 132;Terminus Longueuil
752686985;"{\"type\":\"LineString\",\"coordinates\":[[-73.429206,45.6249409],[-73.4294172,45.6246988],[-73.4298789,45.6241602],[-73.4308704,45.6230158],[-73.4311708,45.6226763],[-73.4314696,45.6223248],[-73.4326006,45.6210355],[-73.4326475,45.620982],[-73.4334964,45.6200011],[-73.4348023,45.6185015],[-73.4356314,45.6175545],[-73.4372845,45.6156447],[-73.4378092,45.6150411],[-73.4388079,45.6138347],[-73.4389605,45.6136503]]}";7;Route 132;2;90;false;true;true;false;true;false;1467.0;0;0;0;0;0;false;70043;6133410502;-73.423604;45.657216;70007;6133410525;-73.440063;45.612533;0;25;26;9628440;Bus 721 : Direction Longueuil;"";EXO;721 O;Rue D'Youville / Route 132;Terminus Longueuil
751863585;"{\"type\":\"LineString\",\"coordinates\":[[-73.4389605,45.6136503],[-73.4396347,45.6128738]]}";8;Route 132;4;90;false;true;true;false;false;false;101.0;0;0;0;0;0;false;70043;6133410502;-73.423604;45.657216;70007;6133410525;-73.440063;45.612533;0;25;26;9628440;Bus 721 : Direction Longueuil;"";EXO;721 O;Rue D'Youville / Route 132;Terminus Longueuil
469470384;"{\"type\":\"LineString\",\"coordinates\":[[-73.4396347,45.6128738],[-73.4399176,45.6125585],[-73.4399446,45.6125284],[-73.4400521,45.6124128]]}";9;Route 132;2;90;false;true;true;false;false;false;30.5;1;0;0;0;0;false;70043;6133410502;-73.423604;45.657216;70007;6133410525;-73.440063;45.612533;1;25;26;9628440;Bus 721 : Direction Longueuil;"";EXO;721 O;Rue D'Youville / Route 132;Terminus Longueuil
469470385;"{\"type\":\"LineString\",\"coordinates\":[[-73.4400521,45.6124128],[-73.4404717,45.6119614]]}";1;Route 132;3;90;false;true;true;false;false;false;60.0;0;0;0;0;0;false;70007;6133410525;-73.440063;45.612533;LON6C;6133407470;-73.495347;45.547691;2;26;27;9628440;Bus 721 : Direction Longueuil;"";EXO;721 O;Rue D'Youville / Route 132;Terminus Longueuil
24351601;"{\"type\":\"LineString\",\"coordinates\":[[-73.4404717,45.6119614],[-73.4406102,45.6117935],[-73.4408458,45.611517],[-73.4413151,45.6109839],[-73.4416227,45.6106247]]}";2;Route 132;3;90;false;true;true;false;false;false;174.0;0;0;0;0;0;false;70007;6133410525;-73.440063;45.612533;LON6C;6133407470;-73.495347;45.547691;0;26;27;9628440;Bus 721 : Direction Longueuil;"";EXO;721 O;Rue D'Youville / Route 132;Terminus Longueuil
751932232;"{\"type\":\"LineString\",\"coordinates\":[[-73.4416227,45.6106247],[-73.4419854,45.6101932],[-73.4422127,45.6099109],[-73.4423804,45.6096675],[-73.4425123,45.6094363],[-73.4426309,45.6091964],[-73.4427143,45.6089934],[-73.4427721,45.6088202],[-73.4428753,45.6084093],[-73.4429107,45.6082366],[-73.4429307,45.60807],[-73.4429468,45.6078393],[-73.4429509,45.6076094],[-73.4429273,45.6070297],[-73.4429002,45.6065783],[-73.4429053,45.6062105],[-73.442928,45.6059801],[-73.4429577,45.6058142],[-73.4430137,45.6056124],[-73.4430611,45.6054545],[-73.443113,45.6053214],[-73.4431518,45.6052113],[-73.4432203,45.605072],[-73.443332,45.6048735],[-73.4434403,45.6047033],[-73.4435367,45.604567],[-73.4436678,45.6044001],[-73.443784,45.6042667],[-73.4439465,45.6040994],[-73.4440926,45.6039621],[-73.4442813,45.6037988],[-73.4447331,45.6034415],[-73.4452696,45.6030749]]}";3;Route 132;2;90;false;true;true;false;false;false;917.0;0;0;0;0;0;false;70007;6133410525;-73.440063;45.612533;LON6C;6133407470;-73.495347;45.547691;0;26;27;9628440;Bus 721 : Direction Longueuil;"";EXO;721 O;Rue D'Youville / Route 132;Terminus Longueuil
690006347;"{\"type\":\"LineString\",\"coordinates\":[[-73.4452696,45.6030749],[-73.4457033,45.6027841]]}";4;Route 132;2;100;false;true;true;false;false;false;47.0;0;0;0;0;0;false;70007;6133410525;-73.440063;45.612533;LON6C;6133407470;-73.495347;45.547691;0;26;27;9628440;Bus 721 : Direction Longueuil;"";EXO;721 O;Rue D'Youville / Route 132;Terminus Longueuil
25446383;"{\"type\":\"LineString\",\"coordinates\":[[-73.4457033,45.6027841],[-73.4476136,45.6016608],[-73.4496426,45.6004919],[-73.4500007,45.600313],[-73.4503122,45.6001891],[-73.4506724,45.6000974],[-73.4509971,45.6000645],[-73.4512877,45.600072],[-73.4515068,45.6001298],[-73.4516743,45.6002413],[-73.4518014,45.6003895],[-73.4518412,45.6005428],[-73.4518073,45.6006858],[-73.4516956,45.6008973],[-73.4515209,45.601108],[-73.4513431,45.6012368],[-73.4511481,45.6013483],[-73.4509246,45.6014393],[-73.4507897,45.6014956],[-73.4505589,45.6014822]]}";5;"";1;50;false;true;true;false;false;false;771.0;0;1;0;0;0;false;70007;6133410525;-73.440063;45.612533;LON6C;6133407470;-73.495347;45.547691;0;26;27;9628440;Bus 721 : Direction Longueuil;"";EXO;721 O;Rue D'Youville / Route 132;Terminus Longueuil
753722949;"{\"type\":\"LineString\",\"coordinates\":[[-73.4505589,45.6014822],[-73.4505222,45.6014565],[-73.4505032,45.6014458]]}";6;"";1;50;false;false;true;false;false;false;6.0;0;0;0;0;0;true;70007;6133410525;-73.440063;45.612533;LON6C;6133407470;-73.495347;45.547691;0;26;27;9628440;Bus 721 : Direction Longueuil;"";EXO;721 O;Rue D'Youville / Route 132;Terminus Longueuil
170581050;"{\"type\":\"LineString\",\"coordinates\":[[-73.4505032,45.6014458],[-73.4504772,45.6013838],[-73.4504852,45.6013146],[-73.4504902,45.6012267],[-73.4504375,45.6011723]]}";7;"";1;50;false;true;true;false;false;false;32.0;0;0;0;0;0;false;70007;6133410525;-73.440063;45.612533;LON6C;6133407470;-73.495347;45.547691;0;26;27;9628440;Bus 721 : Direction Longueuil;"";EXO;721 O;Rue D'Youville / Route 132;Terminus Longueuil
169337851;"{\"type\":\"LineString\",\"coordinates\":[[-73.4504375,45.6011723],[-73.4503767,45.6012205],[-73.4503592,45.6013087],[-73.4503163,45.6013819],[-73.4503048,45.6014091]]}";8;"";1;50;false;true;true;false;false;false;29.0;0;0;0;0;0;false;70007;6133410525;-73.440063;45.612533;LON6C;6133407470;-73.495347;45.547691;0;26;27;9628440;Bus 721 : Direction Longueuil;"";EXO;721 O;Rue D'Youville / Route 132;Terminus Longueuil
752709280;"{\"type\":\"LineString\",\"coordinates\":[[-73.4503048,45.6014091],[-73.4502224,45.6014229]]}";9;"";1;50;false;false;true;false;false;false;7.0;0;0;0;0;0;true;70007;6133410525;-73.440063;45.612533;LON6C;6133407470;-73.495347;45.547691;0;26;27;9628440;Bus 721 : Direction Longueuil;"";EXO;721 O;Rue D'Youville / Route 132;Terminus Longueuil
752709278;"{\"type\":\"LineString\",\"coordinates\":[[-73.4502224,45.6014229],[-73.4501495,45.6014522],[-73.4500914,45.6014946],[-73.4500526,45.6015468]]}";10;"";1;50;false;false;true;false;false;false;20.0;0;0;0;0;0;true;70007;6133410525;-73.440063;45.612533;LON6C;6133407470;-73.495347;45.547691;0;26;27;9628440;Bus 721 : Direction Longueuil;"";EXO;721 O;Rue D'Youville / Route 132;Terminus Longueuil
40755125;"{\"type\":\"LineString\",\"coordinates\":[[-73.4500526,45.6015468],[-73.4500362,45.6016061],[-73.4500449,45.6016661],[-73.450078,45.6017219],[-73.4501327,45.6017686],[-73.4502043,45.6018023],[-73.4502867,45.6018201],[-73.4503718,45.6018207],[-73.4504535,45.6018043],[-73.4505252,45.6017724],[-73.450581,45.6017275],[-73.4506081,45.6016903],[-73.450624,45.60165]]}";11;"";1;50;false;false;true;false;false;false;77.0;0;0;0;0;0;true;70007;6133410525;-73.440063;45.612533;LON6C;6133407470;-73.495347;45.547691;0;26;27;9628440;Bus 721 : Direction Longueuil;"";EXO;721 O;Rue D'Youville / Route 132;Terminus Longueuil
25446303;"{\"type\":\"LineString\",\"coordinates\":[[-73.450624,45.60165],[-73.4508255,45.6015649],[-73.451148,45.6014319],[-73.4512943,45.6013593],[-73.4516051,45.6011446],[-73.4518164,45.6009237],[-73.4519757,45.6007543],[-73.4520333,45.6005681],[-73.4520559,45.600395],[-73.4519748,45.6000049],[-73.4519084,45.5995874],[-73.4519323,45.5993679],[-73.4520658,45.5991494],[-73.4523428,45.5988869],[-73.453585,45.5980313]]}";12;"";1;50;false;true;true;false;false;false;502.0;0;1;0;0;0;false;70007;6133410525;-73.440063;45.612533;LON6C;6133407470;-73.495347;45.547691;0;26;27;9628440;Bus 721 : Direction Longueuil;"";EXO;721 O;Rue D'Youville / Route 132;Terminus Longueuil
148279853;"{\"type\":\"LineString\",\"coordinates\":[[-73.453585,45.5980313],[-73.4556728,45.596787],[-73.4605841,45.5937361],[-73.4650902,45.5899822],[-73.4656553,45.5895475]]}";13;Route 132;2;100;false;true;true;false;false;false;1336.0;0;0;0;0;0;false;70007;6133410525;-73.440063;45.612533;LON6C;6133407470;-73.495347;45.547691;0;26;27;9628440;Bus 721 : Direction Longueuil;"";EXO;721 O;Rue D'Youville / Route 132;Terminus Longueuil
39452101;"{\"type\":\"LineString\",\"coordinates\":[[-73.4656553,45.5895475],[-73.4672033,45.5882801],[-73.4692387,45.5865355],[-73.469762,45.5858516],[-73.4701869,45.5852543],[-73.4707074,45.5843943],[-73.4709523,45.5839767],[-73.4713788,45.5831819],[-73.471825,45.5824453],[-73.47226,45.5817886],[-73.4725432,45.5814402],[-73.472819,45.5811433],[-73.4731637,45.5808345],[-73.4735045,45.5805534],[-73.4739234,45.5802708],[-73.4746632,45.5798062],[-73.4752812,45.5794037],[-73.4757962,45.5790372],[-73.4763038,45.5786503]]}";14;Route 132;2;100;false;true;false;false;false;false;1487.0;0;0;0;0;0;false;70007;6133410525;-73.440063;45.612533;LON6C;6133407470;-73.495347;45.547691;0;26;27;9628440;Bus 721 : Direction Longueuil;"";EXO;721 O;Rue D'Youville / Route 132;Terminus Longueuil
19785171;"{\"type\":\"LineString\",\"coordinates\":[[-73.4763038,45.5786503],[-73.4776712,45.5774315],[-73.4785996,45.5765957],[-73.4806879,45.5748293],[-73.4824888,45.5732742],[-73.4838355,45.5721236],[-73.4846286,45.5714777],[-73.4852828,45.570907],[-73.4860454,45.5702177],[-73.4866684,45.5695828],[-73.4874447,45.5687875],[-73.4884328,45.5677502],[-73.488826,45.5672787],[-73.4896401,45.5663288],[-73.4902819,45.5654599],[-73.4909273,45.5646241],[-73.4911786,45.5642046],[-73.4921447,45.5626369],[-73.4928727,45.5616424],[-73.4933761,45.5609791],[-73.4940206,45.5601339],[-73.4943267,45.5597498],[-73.4953003,45.5585886],[-73.4963657,45.5573095],[-73.4980574,45.5552456],[-73.4990801,45.5539921],[-73.5001792,45.5526602],[-73.5011394,45.5515427],[-73.5021627,45.5503187]]}";15;Autoroute René-Levesque;3;100;false;true;true;false;false;false;3752.0;0;0;0;0;0;false;70007;6133410525;-73.440063;45.612533;LON6C;6133407470;-73.495347;45.547691;0;26;27;9628440;Bus 721 : Direction Longueuil;"";EXO;721 O;Rue D'Youville / Route 132;Terminus Longueuil
24258411;"{\"type\":\"LineString\",\"coordinates\":[[-73.5021627,45.5503187],[-73.5025195,45.5500322],[-73.5031181,45.5494079],[-73.5033198,45.5492896],[-73.5034874,45.5492664],[-73.5036798,45.5492956],[-73.5038428,45.5493692],[-73.5039356,45.5494748],[-73.5039742,45.5496066],[-73.5039452,45.5497097],[-73.5036976,45.5499992],[-73.5034281,45.5501822],[-73.5031631,45.5503025],[-73.5028918,45.5503719],[-73.5024891,45.5504285]]}";16;"";1;50;false;true;true;false;false;false;377.0;0;0;0;0;0;false;70007;6133410525;-73.440063;45.612533;LON6C;6133407470;-73.495347;45.547691;0;26;27;9628440;Bus 721 : Direction Longueuil;"";EXO;721 O;Rue D'Youville / Route 132;Terminus Longueuil
40429072;"{\"type\":\"LineString\",\"coordinates\":[[-73.5024891,45.5504285],[-73.50148,45.5503757]]}";17;"";1;50;false;true;true;false;false;false;79.0;0;0;0;0;0;false;70007;6133410525;-73.440063;45.612533;LON6C;6133407470;-73.495347;45.547691;0;26;27;9628440;Bus 721 : Direction Longueuil;"";EXO;721 O;Rue D'Youville / Route 132;Terminus Longueuil
647090210;"{\"type\":\"LineString\",\"coordinates\":[[-73.50148,45.5503757],[-73.5003245,45.5503153]]}";18;"";1;50;false;true;true;false;false;false;91.0;0;0;0;0;0;false;70007;6133410525;-73.440063;45.612533;LON6C;6133407470;-73.495347;45.547691;0;26;27;9628440;Bus 721 : Direction Longueuil;"";EXO;721 O;Rue D'Youville / Route 132;Terminus Longueuil
647090212;"{\"type\":\"LineString\",\"coordinates\":[[-73.5003245,45.5503153],[-73.4992677,45.5502452]]}";19;Boulevard Roland-Therrien;1;50;false;true;false;false;false;false;83.0;0;0;0;0;0;false;70007;6133410525;-73.440063;45.612533;LON6C;6133407470;-73.495347;45.547691;0;26;27;9628440;Bus 721 : Direction Longueuil;"";EXO;721 O;Rue D'Youville / Route 132;Terminus Longueuil
40429074;"{\"type\":\"LineString\",\"coordinates\":[[-73.4992677,45.5502452],[-73.4988606,45.5501632],[-73.4983399,45.5500196],[-73.4978568,45.5498194],[-73.4975567,45.5496496],[-73.497235,45.5494159],[-73.4967069,45.5489839]]}";20;Boulevard Roland-Therrien;1;50;false;false;false;false;false;false;250.0;0;0;0;0;0;false;70007;6133410525;-73.440063;45.612533;LON6C;6133407470;-73.495347;45.547691;0;26;27;9628440;Bus 721 : Direction Longueuil;"";EXO;721 O;Rue D'Youville / Route 132;Terminus Longueuil
19706947;"{\"type\":\"LineString\",\"coordinates\":[[-73.4967069,45.5489839],[-73.4965408,45.5488572],[-73.4960852,45.5485097]]}";21;Boulevard Roland-Therrien;1;50;false;true;true;false;false;false;72.0;0;0;0;0;0;false;70007;6133410525;-73.440063;45.612533;LON6C;6133407470;-73.495347;45.547691;0;26;27;9628440;Bus 721 : Direction Longueuil;"";EXO;721 O;Rue D'Youville / Route 132;Terminus Longueuil
459361842;"{\"type\":\"LineString\",\"coordinates\":[[-73.4960852,45.5485097],[-73.4955885,45.5481008],[-73.4954614,45.5479962]]}";22;Boulevard Roland-Therrien;1;50;false;true;true;false;false;false;75.0;1;0;0;0;0;false;70007;6133410525;-73.440063;45.612533;LON6C;6133407470;-73.495347;45.547691;0;26;27;9628440;Bus 721 : Direction Longueuil;"";EXO;721 O;Rue D'Youville / Route 132;Terminus Longueuil
46770544;"{\"type\":\"LineString\",\"coordinates\":[[-73.4954614,45.5479962],[-73.4952158,45.5478018],[-73.4948007,45.5474731],[-73.4944254,45.547176],[-73.4942054,45.5470019],[-73.4940163,45.5468521],[-73.493859,45.5467276],[-73.4936848,45.5465897],[-73.4928004,45.5458895],[-73.4927737,45.5458684],[-73.492764,45.5458607]]}";23;Boulevard Roland-Therrien;1;50;false;true;true;false;true;false;318.0;1;1;0;0;0;false;70007;6133410525;-73.440063;45.612533;LON6C;6133407470;-73.495347;45.547691;2;26;27;9628440;Bus 721 : Direction Longueuil;"";EXO;721 O;Rue D'Youville / Route 132;Terminus Longueuil
46770544;"{\"type\":\"LineString\",\"coordinates\":[[-73.4954614,45.5479962],[-73.4952158,45.5478018],[-73.4948007,45.5474731],[-73.4944254,45.547176],[-73.4942054,45.5470019],[-73.4940163,45.5468521],[-73.493859,45.5467276],[-73.4936848,45.5465897],[-73.4928004,45.5458895],[-73.4927737,45.5458684],[-73.492764,45.5458607]]}";1;Boulevard Roland-Therrien;1;50;false;true;true;false;true;false;159.0;1;1;0;0;0;false;LON6C;6133407470;-73.495347;45.547691;70005;6133410526;-73.496211;45.536469;1;27;28;9628440;Bus 721 : Direction Longueuil;"";EXO;721 O;Rue D'Youville / Route 132;Terminus Longueuil
465625141;"{\"type\":\"LineString\",\"coordinates\":[[-73.492764,45.5458607],[-73.4926871,45.5458013],[-73.492592,45.545728],[-73.4925102,45.5456649]]}";2;Boulevard Roland-Therrien;1;50;false;true;false;false;false;false;30.0;0;0;0;0;0;false;LON6C;6133407470;-73.495347;45.547691;70005;6133410526;-73.496211;45.536469;0;27;28;9628440;Bus 721 : Direction Longueuil;"";EXO;721 O;Rue D'Youville / Route 132;Terminus Longueuil
685121026;"{\"type\":\"LineString\",\"coordinates\":[[-73.4925102,45.5456649],[-73.4924518,45.5456157],[-73.4922641,45.5454576],[-73.4921805,45.5453872],[-73.491807,45.5450725],[-73.4917458,45.5449907],[-73.4915828,45.5447728],[-73.4914943,45.5446178],[-73.4914224,45.5444918],[-73.4912973,45.5441079],[-73.4912837,45.5439765],[-73.4912679,45.5438245],[-73.4912913,45.5432776],[-73.4912921,45.5432587],[-73.4912964,45.5431597],[-73.4913029,45.5430796],[-73.4913946,45.541952],[-73.4913804,45.5417516],[-73.4913522,45.541568],[-73.4913098,45.5413994],[-73.491294,45.5413366]]}";3;Boulevard Roland-Therrien;3;50;false;true;true;false;true;false;510.0;2;2;0;0;0;false;LON6C;6133407470;-73.495347;45.547691;70005;6133410526;-73.496211;45.536469;0;27;28;9628440;Bus 721 : Direction Longueuil;"";EXO;721 O;Rue D'Youville / Route 132;Terminus Longueuil
164722838;"{\"type\":\"LineString\",\"coordinates\":[[-73.491294,45.5413366],[-73.4913839,45.5412648],[-73.4919456,45.5406833],[-73.4919539,45.5406749],[-73.4920288,45.5405999],[-73.4920966,45.5405319],[-73.4928561,45.5397703]]}";4;Rue de Gentilly Est;1;50;false;true;true;false;false;false;213.0;1;2;0;0;0;false;LON6C;6133407470;-73.495347;45.547691;70005;6133410526;-73.496211;45.536469;0;27;28;9628440;Bus 721 : Direction Longueuil;"";EXO;721 O;Rue D'Youville / Route 132;Terminus Longueuil
693605418;"{\"type\":\"LineString\",\"coordinates\":[[-73.4928561,45.5397703],[-73.4947466,45.5378461],[-73.4948063,45.5377853],[-73.4948773,45.5377131],[-73.4951165,45.5374696],[-73.4955162,45.5370627],[-73.4961472,45.5364204],[-73.4961729,45.5363943]]}";5;Rue de Gentilly Est;1;50;false;true;true;false;false;false;456.0;0;3;0;0;0;false;LON6C;6133407470;-73.495347;45.547691;70005;6133410526;-73.496211;45.536469;0;27;28;9628440;Bus 721 : Direction Longueuil;"";EXO;721 O;Rue D'Youville / Route 132;Terminus Longueuil
39719569;"{\"type\":\"LineString\",\"coordinates\":[[-73.4987521,45.5374446],[-73.4985233,45.5373521],[-73.498424,45.537312],[-73.4983163,45.53727],[-73.4981858,45.537217],[-73.4976221,45.5369878],[-73.4975619,45.5369633],[-73.4971803,45.5368082],[-73.4968421,45.5366707],[-73.4967762,45.5366437],[-73.4965756,45.5365616],[-73.4962319,45.5364209],[-73.4961729,45.5363943]]}";6;Rue Thurber;1;50;false;false;true;false;false;false;116.5;0;1;0;0;0;false;LON6C;6133407470;-73.495347;45.547691;70005;6133410526;-73.496211;45.536469;1;27;28;9628440;Bus 721 : Direction Longueuil;"";EXO;721 O;Rue D'Youville / Route 132;Terminus Longueuil
693605418;"{\"type\":\"LineString\",\"coordinates\":[[-73.4928561,45.5397703],[-73.4947466,45.5378461],[-73.4948063,45.5377853],[-73.4948773,45.5377131],[-73.4951165,45.5374696],[-73.4955162,45.5370627],[-73.4961472,45.5364204],[-73.4961729,45.5363943]]}";1;Rue de Gentilly Est;1;50;false;true;true;false;false;false;456.0;0;3;0;0;0;false;70005;6133410526;-73.496211;45.536469;70000;3395466650;-73.522601;45.524188;2;28;29;9628440;Bus 721 : Direction Longueuil;"";EXO;721 O;Rue D'Youville / Route 132;Terminus Longueuil
39719569;"{\"type\":\"LineString\",\"coordinates\":[[-73.4987521,45.5374446],[-73.4985233,45.5373521],[-73.498424,45.537312],[-73.4983163,45.53727],[-73.4981858,45.537217],[-73.4976221,45.5369878],[-73.4975619,45.5369633],[-73.4971803,45.5368082],[-73.4968421,45.5366707],[-73.4967762,45.5366437],[-73.4965756,45.5365616],[-73.4962319,45.5364209],[-73.4961729,45.5363943]]}";2;Rue Thurber;1;50;false;false;true;false;false;false;233.0;0;1;0;0;0;false;70005;6133410526;-73.496211;45.536469;70000;3395466650;-73.522601;45.524188;0;28;29;9628440;Bus 721 : Direction Longueuil;"";EXO;721 O;Rue D'Youville / Route 132;Terminus Longueuil
26498748;"{\"type\":\"LineString\",\"coordinates\":[[-73.4987521,45.5374446],[-73.4989026,45.5373269],[-73.4991953,45.5370982],[-73.499315,45.5370047],[-73.4993771,45.5369561],[-73.4994292,45.5369153],[-73.4994577,45.5368931]]}";3;Rue Le Moyne Est;2;50;false;false;true;false;false;false;83.0;1;0;0;0;0;false;70005;6133410526;-73.496211;45.536469;70000;3395466650;-73.522601;45.524188;0;28;29;9628440;Bus 721 : Direction Longueuil;"";EXO;721 O;Rue D'Youville / Route 132;Terminus Longueuil
42056930;"{\"type\":\"LineString\",\"coordinates\":[[-73.4994577,45.5368931],[-73.5011492,45.5376076],[-73.5020331,45.5379809],[-73.5020924,45.538006],[-73.5022883,45.5380869],[-73.5034357,45.5385606]]}";4;Chemin de Chambly;1;50;false;true;true;false;false;false;362.0;1;0;0;0;0;false;70005;6133410526;-73.496211;45.536469;70000;3395466650;-73.522601;45.524188;0;28;29;9628440;Bus 721 : Direction Longueuil;"";EXO;721 O;Rue D'Youville / Route 132;Terminus Longueuil
718115942;"{\"type\":\"LineString\",\"coordinates\":[[-73.5034357,45.5385606],[-73.503723,45.5386766],[-73.5038261,45.5387328],[-73.5040352,45.5388707],[-73.5046087,45.539316],[-73.5047398,45.5394188],[-73.5048025,45.5394584],[-73.5049111,45.539527]]}";5;Chemin de Chambly;1;50;false;true;true;false;false;false;159.0;2;0;0;0;0;false;70005;6133410526;-73.496211;45.536469;70000;3395466650;-73.522601;45.524188;0;28;29;9628440;Bus 721 : Direction Longueuil;"";EXO;721 O;Rue D'Youville / Route 132;Terminus Longueuil
41929762;"{\"type\":\"LineString\",\"coordinates\":[[-73.5049111,45.539527],[-73.5064643,45.5401831],[-73.5070011,45.5404095],[-73.5072762,45.5405255],[-73.5076854,45.540698],[-73.507962,45.5408146],[-73.5080897,45.5408685]]}";6;Chemin de Chambly;1;50;false;true;true;false;false;false;290.0;1;0;0;0;0;false;70005;6133410526;-73.496211;45.536469;70000;3395466650;-73.522601;45.524188;0;28;29;9628440;Bus 721 : Direction Longueuil;"";EXO;721 O;Rue D'Youville / Route 132;Terminus Longueuil
685121056;"{\"type\":\"LineString\",\"coordinates\":[[-73.5080897,45.5408685],[-73.508157,45.5407678]]}";7;Rue Saint-Charles Ouest;1;30;false;false;true;false;false;false;13.0;0;0;0;0;0;false;70005;6133410526;-73.496211;45.536469;70000;3395466650;-73.522601;45.524188;0;28;29;9628440;Bus 721 : Direction Longueuil;"";EXO;721 O;Rue D'Youville / Route 132;Terminus Longueuil
25874848;"{\"type\":\"LineString\",\"coordinates\":[[-73.508157,45.5407678],[-73.5082099,45.5406933],[-73.5083718,45.5404524],[-73.5085139,45.5402475],[-73.5085595,45.5401817],[-73.5086872,45.5400156],[-73.5090148,45.5395682],[-73.5095591,45.5388028],[-73.5097223,45.5385723],[-73.5098161,45.5384398],[-73.510027,45.5381419],[-73.5101844,45.5379791],[-73.5103791,45.5378038]]}";8;Rue Saint-Charles Ouest;1;30;false;false;true;false;false;false;373.0;1;1;0;0;0;false;70005;6133410526;-73.496211;45.536469;70000;3395466650;-73.522601;45.524188;0;28;29;9628440;Bus 721 : Direction Longueuil;"";EXO;721 O;Rue D'Youville / Route 132;Terminus Longueuil
679477150;"{\"type\":\"LineString\",\"coordinates\":[[-73.5103791,45.5378038],[-73.5108123,45.5375582],[-73.5109521,45.5374789],[-73.5110771,45.5374081],[-73.5111618,45.5373601],[-73.5113536,45.5372514],[-73.5113858,45.5372331],[-73.5115819,45.5371219],[-73.5116901,45.5370606],[-73.512253,45.5367414],[-73.5127392,45.5364658]]}";9;Rue Saint-Charles Ouest;1;30;false;false;true;false;false;false;237.0;1;0;0;0;0;false;70005;6133410526;-73.496211;45.536469;70000;3395466650;-73.522601;45.524188;0;28;29;9628440;Bus 721 : Direction Longueuil;"";EXO;721 O;Rue D'Youville / Route 132;Terminus Longueuil
50875305;"{\"type\":\"LineString\",\"coordinates\":[[-73.5127392,45.5364658],[-73.5128974,45.5363978],[-73.5130471,45.5362453],[-73.5132175,45.5360797],[-73.5140362,45.535257],[-73.5142199,45.5350705],[-73.5144296,45.5348575],[-73.5145863,45.5346935],[-73.5147004,45.534574],[-73.5147665,45.5344986],[-73.5147885,45.5344753],[-73.5148413,45.5344191],[-73.5149102,45.5343491],[-73.5151758,45.5340581],[-73.5153276,45.5338919],[-73.5154182,45.5337939],[-73.5155763,45.5336227],[-73.5157854,45.5333964],[-73.5159693,45.5331973]]}";10;Rue Saint-Charles Ouest;1;30;false;true;true;false;false;false;444.0;2;0;0;0;0;false;70005;6133410526;-73.496211;45.536469;70000;3395466650;-73.522601;45.524188;0;28;29;9628440;Bus 721 : Direction Longueuil;"";EXO;721 O;Rue D'Youville / Route 132;Terminus Longueuil
521045863;"{\"type\":\"LineString\",\"coordinates\":[[-73.5159693,45.5331973],[-73.5167325,45.5325515],[-73.516989,45.5323253],[-73.5170069,45.5323095],[-73.5170999,45.5322275],[-73.5172562,45.5320912],[-73.5173155,45.5320394],[-73.5175188,45.5318622],[-73.5175843,45.5318022],[-73.5179885,45.5314052],[-73.5180261,45.5313691],[-73.5181293,45.5312674]]}";11;Rue Saint-Charles Ouest;1;30;false;true;true;false;false;false;273.0;1;1;0;0;0;false;70005;6133410526;-73.496211;45.536469;70000;3395466650;-73.522601;45.524188;0;28;29;9628440;Bus 721 : Direction Longueuil;"";EXO;721 O;Rue D'Youville / Route 132;Terminus Longueuil
480202995;"{\"type\":\"LineString\",\"coordinates\":[[-73.5181293,45.5312674],[-73.5181563,45.531238],[-73.5184463,45.5309225],[-73.5187247,45.530543],[-73.5188754,45.5304074]]}";12;Rue Saint-Charles Ouest;1;50;false;true;true;false;false;false;113.0;0;1;0;0;0;false;70005;6133410526;-73.496211;45.536469;70000;3395466650;-73.522601;45.524188;0;28;29;9628440;Bus 721 : Direction Longueuil;"";EXO;721 O;Rue D'Youville / Route 132;Terminus Longueuil
685121014;"{\"type\":\"LineString\",\"coordinates\":[[-73.5188754,45.5304074],[-73.5189179,45.5303222],[-73.5190492,45.5300592],[-73.5193624,45.5293483],[-73.5193692,45.5293328]]}";13;Rue Saint-Charles Ouest;1;50;false;true;true;false;false;false;126.0;0;0;0;0;0;false;70005;6133410526;-73.496211;45.536469;70000;3395466650;-73.522601;45.524188;0;28;29;9628440;Bus 721 : Direction Longueuil;"";EXO;721 O;Rue D'Youville / Route 132;Terminus Longueuil
40413445;"{\"type\":\"LineString\",\"coordinates\":[[-73.5193692,45.5293328],[-73.5194053,45.5292146],[-73.519426,45.5290882],[-73.5194539,45.5288179]]}";14;Rue Saint-Charles Ouest;1;50;false;true;true;false;false;false;58.0;0;0;0;0;0;false;70005;6133410526;-73.496211;45.536469;70000;3395466650;-73.522601;45.524188;0;28;29;9628440;Bus 721 : Direction Longueuil;"";EXO;721 O;Rue D'Youville / Route 132;Terminus Longueuil
40413446;"{\"type\":\"LineString\",\"coordinates\":[[-73.5194539,45.5288179],[-73.5194219,45.5279423]]}";15;Rue Saint-Charles Ouest;1;50;false;true;true;false;false;false;98.0;0;0;0;0;0;false;70005;6133410526;-73.496211;45.536469;70000;3395466650;-73.522601;45.524188;0;28;29;9628440;Bus 721 : Direction Longueuil;"";EXO;721 O;Rue D'Youville / Route 132;Terminus Longueuil
752960493;"{\"type\":\"LineString\",\"coordinates\":[[-73.5194219,45.5279423],[-73.5194172,45.5278168],[-73.51942,45.5276501]]}";16;Rue Saint-Charles Ouest;1;50;false;true;true;false;false;false;33.0;0;0;0;0;0;false;70005;6133410526;-73.496211;45.536469;70000;3395466650;-73.522601;45.524188;0;28;29;9628440;Bus 721 : Direction Longueuil;"";EXO;721 O;Rue D'Youville / Route 132;Terminus Longueuil
752960494;"{\"type\":\"LineString\",\"coordinates\":[[-73.51942,45.5276501],[-73.5194197,45.5273919]]}";17;Rue Saint-Charles Ouest;1;50;false;true;true;false;false;false;29.0;0;0;0;0;0;false;70005;6133410526;-73.496211;45.536469;70000;3395466650;-73.522601;45.524188;0;28;29;9628440;Bus 721 : Direction Longueuil;"";EXO;721 O;Rue D'Youville / Route 132;Terminus Longueuil
753036639;"{\"type\":\"LineString\",\"coordinates\":[[-73.5194197,45.5273919],[-73.5194191,45.5268748],[-73.5194134,45.5267782]]}";18;Rue Saint-Charles Ouest;3;50;false;true;true;false;false;false;69.0;1;1;0;0;0;false;70005;6133410526;-73.496211;45.536469;70000;3395466650;-73.522601;45.524188;0;28;29;9628440;Bus 721 : Direction Longueuil;"";EXO;721 O;Rue D'Youville / Route 132;Terminus Longueuil
247960205;"{\"type\":\"LineString\",\"coordinates\":[[-73.5194134,45.5267782],[-73.519413,45.5266847],[-73.5194041,45.5263872],[-73.5194028,45.5261504]]}";19;Rue Saint-Charles Ouest;3;50;false;false;true;false;false;false;70.0;1;0;0;0;0;false;70005;6133410526;-73.496211;45.536469;70000;3395466650;-73.522601;45.524188;0;28;29;9628440;Bus 721 : Direction Longueuil;"";EXO;721 O;Rue D'Youville / Route 132;Terminus Longueuil
753036640;"{\"type\":\"LineString\",\"coordinates\":[[-73.5194028,45.5261504],[-73.5194043,45.525817]]}";20;Rue Saint-Charles Ouest;4;50;false;false;true;false;false;false;38.0;0;0;0;0;0;false;70005;6133410526;-73.496211;45.536469;70000;3395466650;-73.522601;45.524188;0;28;29;9628440;Bus 721 : Direction Longueuil;"";EXO;721 O;Rue D'Youville / Route 132;Terminus Longueuil
288454205;"{\"type\":\"LineString\",\"coordinates\":[[-73.5194043,45.525817],[-73.5194153,45.5255578],[-73.5194159,45.5255424],[-73.5194188,45.5254751]]}";21;Rue Saint-Charles Ouest;3;50;false;true;true;false;false;false;38.0;1;1;0;0;0;false;70005;6133410526;-73.496211;45.536469;70000;3395466650;-73.522601;45.524188;0;28;29;9628440;Bus 721 : Direction Longueuil;"";EXO;721 O;Rue D'Youville / Route 132;Terminus Longueuil
470637264;"{\"type\":\"LineString\",\"coordinates\":[[-73.5194188,45.5254751],[-73.5194138,45.5253599],[-73.5194143,45.5251752]]}";22;Rue Saint-Charles Ouest;3;50;false;true;true;false;true;false;34.0;0;0;0;0;0;false;70005;6133410526;-73.496211;45.536469;70000;3395466650;-73.522601;45.524188;0;28;29;9628440;Bus 721 : Direction Longueuil;"";EXO;721 O;Rue D'Youville / Route 132;Terminus Longueuil
41785842;"{\"type\":\"LineString\",\"coordinates\":[[-73.5194143,45.5251752],[-73.519413,45.5251268],[-73.5194127,45.5251028],[-73.5194199,45.5248513],[-73.5194241,45.5246868],[-73.5194385,45.5243581],[-73.5194449,45.5243065],[-73.5194848,45.5239838],[-73.5195893,45.5235576],[-73.519603,45.5235018],[-73.5196342,45.5233746]]}";23;Rue Saint-Charles Ouest;2;50;false;true;true;false;true;false;202.0;1;3;0;0;0;false;70005;6133410526;-73.496211;45.536469;70000;3395466650;-73.522601;45.524188;0;28;29;9628440;Bus 721 : Direction Longueuil;"";EXO;721 O;Rue D'Youville / Route 132;Terminus Longueuil
725167105;"{\"type\":\"LineString\",\"coordinates\":[[-73.5203039,45.5234015],[-73.5198457,45.5233843],[-73.5198012,45.5233819],[-73.5197533,45.5233798],[-73.5196342,45.5233746]]}";24;Rue du Terminus;1;50;false;false;true;false;true;false;53.0;1;1;0;0;0;false;70005;6133410526;-73.496211;45.536469;70000;3395466650;-73.522601;45.524188;0;28;29;9628440;Bus 721 : Direction Longueuil;"";EXO;721 O;Rue D'Youville / Route 132;Terminus Longueuil
685121063;"{\"type\":\"LineString\",\"coordinates\":[[-73.522126,45.5234843],[-73.5212972,45.5234483],[-73.5204366,45.5234068],[-73.5203039,45.5234015]]}";25;Rue du Terminus;1;50;false;false;true;false;true;false;143.0;0;1;1;0;0;false;70005;6133410526;-73.496211;45.536469;70000;3395466650;-73.522601;45.524188;0;28;29;9628440;Bus 721 : Direction Longueuil;"";EXO;721 O;Rue D'Youville / Route 132;Terminus Longueuil
725167099;"{\"type\":\"LineString\",\"coordinates\":[[-73.5225484,45.5235009],[-73.5224252,45.5234948],[-73.522126,45.5234843]]}";26;Rue du Terminus;1;50;false;false;true;false;true;false;34.0;0;0;1;0;0;false;70005;6133410526;-73.496211;45.536469;70000;3395466650;-73.522601;45.524188;0;28;29;9628440;Bus 721 : Direction Longueuil;"";EXO;721 O;Rue D'Youville / Route 132;Terminus Longueuil
725167102;"{\"type\":\"LineString\",\"coordinates\":[[-73.5225484,45.5235009],[-73.5225444,45.5235685],[-73.522529,45.5237433]]}";27;"";1;50;false;false;true;false;true;false;27.0;0;0;1;0;0;false;70005;6133410526;-73.496211;45.536469;70000;3395466650;-73.522601;45.524188;0;28;29;9628440;Bus 721 : Direction Longueuil;"";EXO;721 O;Rue D'Youville / Route 132;Terminus Longueuil
685121058;"{\"type\":\"LineString\",\"coordinates\":[[-73.522529,45.5237433],[-73.5225083,45.5239595]]}";28;"";1;50;false;false;true;false;true;false;25.0;0;0;0;0;0;false;70005;6133410526;-73.496211;45.536469;70000;3395466650;-73.522601;45.524188;0;28;29;9628440;Bus 721 : Direction Longueuil;"";EXO;721 O;Rue D'Youville / Route 132;Terminus Longueuil
725167101;"{\"type\":\"LineString\",\"coordinates\":[[-73.5225083,45.5239595],[-73.5224879,45.524182]]}";29;"";1;50;false;false;true;false;true;false;25.0;0;0;0;0;0;false;70005;6133410526;-73.496211;45.536469;70000;3395466650;-73.522601;45.524188;0;28;29;9628440;Bus 721 : Direction Longueuil;"";EXO;721 O;Rue D'Youville / Route 132;Terminus Longueuil
47188506;"{\"type\":\"LineString\",\"coordinates\":[[-73.5224879,45.524182],[-73.5215749,45.5241423],[-73.5215148,45.5241489],[-73.5214744,45.5241698],[-73.5214576,45.5241997],[-73.5214442,45.5243418],[-73.5214546,45.524372],[-73.5214822,45.5243964],[-73.5215117,45.5244068],[-73.5223532,45.5244498],[-73.5224035,45.5244486],[-73.5224413,45.5244341],[-73.5224694,45.5244115],[-73.5224792,45.5243813],[-73.5224879,45.524182]]}";30;"";1;50;false;true;true;false;true;false;212.0;0;0;0;0;0;false;70005;6133410526;-73.496211;45.536469;70000;3395466650;-73.522601;45.524188;1;28;29;9628440;Bus 721 : Direction Longueuil;"";EXO;721 O;Rue D'Youville / Route 132;Terminus Longueuil
