way_id;shape;index;name;nb_lanes;legal_speed;speed_zone_30;oneway;shares_bike;bike_box;bus_lane;dedicated_bus_lane;length;nb_traffic_signals;nb_crossings;nb_stops;nb_give_ways;nb_lvl_crossings;roundabout;stop_id_orig;node_id_orig;coord_x_orig;coord_y_orig;stop_id_dest;node_id_dest;coord_x_dest;coord_y_dest;nb_neighbouring_ways_bus_stop;ordre_orig;ordre_dest;id_line;line_name;colour;operator;ref;from;to
46411765;"{\"type\":\"LineString\",\"coordinates\":[[-73.5764238,45.6674254],[-73.5764633,45.6674063],[-73.576503,45.6673756],[-73.5765287,45.6673343],[-73.5765342,45.6672896]]}";1;Rue Chartrand;2;50;false;true;true;false;false;false;19.0;0;0;0;0;0;false;41272;6269507221;-73.57646;45.667471;41273;6269507229;-73.57815;45.666489;1;0;1;9312724;Bus : 925 S - Direction Métro Radisson;"";STL;925S;Chartrand / Déry;Métro Radisson / Radisson
689645249;"{\"type\":\"LineString\",\"coordinates\":[[-73.578185,45.6663854],[-73.5765342,45.6672896]]}";2;Rue Chartrand;2;50;false;false;true;false;false;false;82.0;0;0;0;0;0;false;41272;6269507221;-73.57646;45.667471;41273;6269507229;-73.57815;45.666489;1;0;1;9312724;Bus : 925 S - Direction Métro Radisson;"";STL;925S;Chartrand / Déry;Métro Radisson / Radisson
678635370;"{\"type\":\"LineString\",\"coordinates\":[[-73.5719358,45.6665167],[-73.5722575,45.6663366],[-73.5727138,45.6660999],[-73.5730975,45.6659143],[-73.5732813,45.665815],[-73.5735236,45.6656841],[-73.5739675,45.6654151],[-73.5746086,45.6650482],[-73.5752438,45.6647635],[-73.5758677,45.6645041],[-73.576052,45.6644401]]}";1;Boulevard Lévesque Est;2;50;false;false;true;false;false;false;198.0;0;0;0;0;0;false;42013;6269507239;-73.57475;45.664926;42448;6269507227;-73.57222;45.666925;1;4;5;9312724;Bus : 925 S - Direction Métro Radisson;"";STL;925S;Chartrand / Déry;Métro Radisson / Radisson
52637898;"{\"type\":\"LineString\",\"coordinates\":[[-73.5729133,45.6674151],[-73.5723665,45.6669126],[-73.5719358,45.6665167]]}";2;Montée du Moulin;2;50;false;false;true;false;false;false;63.0;0;0;0;0;0;false;42013;6269507239;-73.57475;45.664926;42448;6269507227;-73.57222;45.666925;1;4;5;9312724;Bus : 925 S - Direction Métro Radisson;"";STL;925S;Chartrand / Déry;Métro Radisson / Radisson
52637898;"{\"type\":\"LineString\",\"coordinates\":[[-73.5729133,45.6674151],[-73.5723665,45.6669126],[-73.5719358,45.6665167]]}";1;Montée du Moulin;2;50;false;false;true;false;false;false;63.0;0;0;0;0;0;false;42448;6269507227;-73.57222;45.666925;42460;6269507216;-73.57383;45.6684;1;5;6;9312724;Bus : 925 S - Direction Métro Radisson;"";STL;925S;Chartrand / Déry;Métro Radisson / Radisson
689645252;"{\"type\":\"LineString\",\"coordinates\":[[-73.5740776,45.6684851],[-73.573507,45.6679607],[-73.5729133,45.6674151]]}";2;Montée du Moulin;2;50;false;false;false;false;false;false;75.0;0;0;0;0;0;false;42448;6269507227;-73.57222;45.666925;42460;6269507216;-73.57383;45.6684;1;5;6;9312724;Bus : 925 S - Direction Métro Radisson;"";STL;925S;Chartrand / Déry;Métro Radisson / Radisson
689645252;"{\"type\":\"LineString\",\"coordinates\":[[-73.5740776,45.6684851],[-73.573507,45.6679607],[-73.5729133,45.6674151]]}";1;Montée du Moulin;2;50;false;false;false;false;false;false;75.0;0;0;0;0;0;false;42460;6269507216;-73.57383;45.6684;42458;6269507200;-73.57551;45.66992;1;6;7;9312724;Bus : 925 S - Direction Métro Radisson;"";STL;925S;Chartrand / Déry;Métro Radisson / Radisson
415105726;"{\"type\":\"LineString\",\"coordinates\":[[-73.5796342,45.6735843],[-73.5791353,45.6731265],[-73.5784483,45.6724961],[-73.5771684,45.6713215],[-73.5764635,45.6706747],[-73.575787,45.6700539],[-73.5752201,45.6695366],[-73.5746639,45.6690231],[-73.5740776,45.6684851]]}";2;Montée du Moulin;2;50;false;false;false;false;false;false;356.5;0;0;0;0;0;false;42460;6269507216;-73.57383;45.6684;42458;6269507200;-73.57551;45.66992;1;6;7;9312724;Bus : 925 S - Direction Métro Radisson;"";STL;925S;Chartrand / Déry;Métro Radisson / Radisson
415105726;"{\"type\":\"LineString\",\"coordinates\":[[-73.5796342,45.6735843],[-73.5791353,45.6731265],[-73.5784483,45.6724961],[-73.5771684,45.6713215],[-73.5764635,45.6706747],[-73.575787,45.6700539],[-73.5752201,45.6695366],[-73.5746639,45.6690231],[-73.5740776,45.6684851]]}";1;Montée du Moulin;2;50;false;false;false;false;false;false;356.5;0;0;0;0;0;false;42453;6269507191;-73.57831;45.672482;42181;6269506977;-73.58038;45.673345;1;9;10;9312724;Bus : 925 S - Direction Métro Radisson;"";STL;925S;Chartrand / Déry;Métro Radisson / Radisson
46411740;"{\"type\":\"LineString\",\"coordinates\":[[-73.5888078,45.6719084],[-73.5870771,45.6728473],[-73.5865248,45.6731363],[-73.5864444,45.6731751],[-73.5863624,45.6732043],[-73.5862803,45.6732216],[-73.5862041,45.6732266],[-73.5861181,45.6732256],[-73.5857189,45.6732014],[-73.583758,45.6730852],[-73.5829795,45.6730364],[-73.5826933,45.6730248],[-73.5823269,45.6730267],[-73.5821636,45.6730358],[-73.5819657,45.673052],[-73.5817896,45.6730722],[-73.5814461,45.6731211],[-73.580575,45.6732525],[-73.5804088,45.6732746],[-73.5802324,45.673307],[-73.5800675,45.6733557],[-73.5799961,45.6733858],[-73.5799194,45.6734252],[-73.5796342,45.6735843]]}";2;Rue Marius-Barbeau;2;50;false;false;false;false;false;false;388.5;0;0;0;0;0;false;42453;6269507191;-73.57831;45.672482;42181;6269506977;-73.58038;45.673345;1;9;10;9312724;Bus : 925 S - Direction Métro Radisson;"";STL;925S;Chartrand / Déry;Métro Radisson / Radisson
38311588;"{\"type\":\"LineString\",\"coordinates\":[[-73.5792905,45.6632566],[-73.5793784,45.6632244],[-73.5794956,45.6631846],[-73.5796507,45.6631311],[-73.5798294,45.6630766],[-73.5799086,45.6630556],[-73.5800003,45.6630379],[-73.5800918,45.6630233],[-73.5801881,45.663016],[-73.5802905,45.6630145],[-73.5803933,45.663025],[-73.5805342,45.6630436],[-73.5809972,45.6631305],[-73.5817055,45.6632687],[-73.5819024,45.6632989],[-73.5820897,45.6633272],[-73.5826233,45.6633633],[-73.5830505,45.6633878]]}";1;Boulevard Lévesque Est;1;50;false;false;true;false;false;false;151.5;0;0;0;0;0;false;42011;6269507250;-73.58163;45.663275;42009;6269507247;-73.58451;45.663363;1;21;22;9312724;Bus : 925 S - Direction Métro Radisson;"";STL;925S;Chartrand / Déry;Métro Radisson / Radisson
52638185;"{\"type\":\"LineString\",\"coordinates\":[[-73.5830505,45.6633878],[-73.5832241,45.6633931],[-73.5836998,45.6633824],[-73.5839311,45.6633711],[-73.5842579,45.6633394],[-73.5845564,45.6633007],[-73.5847358,45.6632695],[-73.5851182,45.6631551],[-73.58551,45.663008],[-73.5858497,45.6628262],[-73.5863717,45.6624984],[-73.5865314,45.6623819],[-73.5871776,45.6619226],[-73.5878795,45.661394],[-73.5883214,45.6610439],[-73.5889466,45.6605569],[-73.5896371,45.6600378],[-73.5902513,45.6596026],[-73.5904331,45.6594803],[-73.5908114,45.6592266],[-73.591361,45.6588549],[-73.5922042,45.6582825],[-73.5928676,45.6578286],[-73.5936132,45.6573236],[-73.5939493,45.6571024],[-73.5959148,45.6557981],[-73.5974019,45.6548144],[-73.5981329,45.6543387],[-73.5995337,45.65351],[-73.6004194,45.6529898],[-73.6031287,45.6513938],[-73.6048982,45.6504253],[-73.6054625,45.6501167],[-73.6056007,45.6500412],[-73.6059448,45.6498635],[-73.6064386,45.6496228],[-73.609429,45.6485458]]}";2;Boulevard Lévesque Est;2;50;false;false;false;false;false;false;1335.5;0;0;0;0;0;false;42011;6269507250;-73.58163;45.663275;42009;6269507247;-73.58451;45.663363;1;21;22;9312724;Bus : 925 S - Direction Métro Radisson;"";STL;925S;Chartrand / Déry;Métro Radisson / Radisson
52638185;"{\"type\":\"LineString\",\"coordinates\":[[-73.5830505,45.6633878],[-73.5832241,45.6633931],[-73.5836998,45.6633824],[-73.5839311,45.6633711],[-73.5842579,45.6633394],[-73.5845564,45.6633007],[-73.5847358,45.6632695],[-73.5851182,45.6631551],[-73.58551,45.663008],[-73.5858497,45.6628262],[-73.5863717,45.6624984],[-73.5865314,45.6623819],[-73.5871776,45.6619226],[-73.5878795,45.661394],[-73.5883214,45.6610439],[-73.5889466,45.6605569],[-73.5896371,45.6600378],[-73.5902513,45.6596026],[-73.5904331,45.6594803],[-73.5908114,45.6592266],[-73.591361,45.6588549],[-73.5922042,45.6582825],[-73.5928676,45.6578286],[-73.5936132,45.6573236],[-73.5939493,45.6571024],[-73.5959148,45.6557981],[-73.5974019,45.6548144],[-73.5981329,45.6543387],[-73.5995337,45.65351],[-73.6004194,45.6529898],[-73.6031287,45.6513938],[-73.6048982,45.6504253],[-73.6054625,45.6501167],[-73.6056007,45.6500412],[-73.6059448,45.6498635],[-73.6064386,45.6496228],[-73.609429,45.6485458]]}";1;Boulevard Lévesque Est;2;50;false;false;false;false;false;false;1335.5;0;0;0;0;0;false;41989;6269507390;-73.608;45.649126;41987;6269507392;-73.61048;45.648241;1;31;32;9312724;Bus : 925 S - Direction Métro Radisson;"";STL;925S;Chartrand / Déry;Métro Radisson / Radisson
542152626;"{\"type\":\"LineString\",\"coordinates\":[[-73.609429,45.6485458],[-73.6105115,45.6481535],[-73.6113922,45.6478312]]}";2;Boulevard Lévesque Est;2;50;false;false;true;false;false;false;86.5;0;0;0;0;0;false;41989;6269507390;-73.608;45.649126;41987;6269507392;-73.61048;45.648241;1;31;32;9312724;Bus : 925 S - Direction Métro Radisson;"";STL;925S;Chartrand / Déry;Métro Radisson / Radisson
542152626;"{\"type\":\"LineString\",\"coordinates\":[[-73.609429,45.6485458],[-73.6105115,45.6481535],[-73.6113922,45.6478312]]}";1;Boulevard Lévesque Est;2;50;false;false;true;false;false;false;86.5;0;0;0;0;0;false;41987;6269507392;-73.61048;45.648241;42139;6269507403;-73.61403;45.646816;1;32;33;9312724;Bus : 925 S - Direction Métro Radisson;"";STL;925S;Chartrand / Déry;Métro Radisson / Radisson
542152625;"{\"type\":\"LineString\",\"coordinates\":[[-73.6113922,45.6478312],[-73.6129544,45.6472486],[-73.6135599,45.6469649],[-73.6140314,45.6466959],[-73.6141617,45.6466147],[-73.6147354,45.6462216],[-73.6165442,45.6449864],[-73.6181552,45.643728],[-73.6210401,45.6415458]]}";2;Boulevard Lévesque Est;2;50;false;false;false;false;false;false;516.5;0;0;1;0;0;false;41987;6269507392;-73.61048;45.648241;42139;6269507403;-73.61403;45.646816;1;32;33;9312724;Bus : 925 S - Direction Métro Radisson;"";STL;925S;Chartrand / Déry;Métro Radisson / Radisson
542152625;"{\"type\":\"LineString\",\"coordinates\":[[-73.6113922,45.6478312],[-73.6129544,45.6472486],[-73.6135599,45.6469649],[-73.6140314,45.6466959],[-73.6141617,45.6466147],[-73.6147354,45.6462216],[-73.6165442,45.6449864],[-73.6181552,45.643728],[-73.6210401,45.6415458]]}";1;Boulevard Lévesque Est;2;50;false;false;false;false;false;false;516.5;0;0;1;0;0;false;42135;6269507432;-73.62098;45.641743;46528;6269507530;-73.6124;45.629712;1;35;36;9312724;Bus : 925 S - Direction Métro Radisson;"";STL;925S;Chartrand / Déry;Métro Radisson / Radisson
52638188;"{\"type\":\"LineString\",\"coordinates\":[[-73.6210401,45.6415458],[-73.6211491,45.6414702],[-73.6217349,45.6410641]]}";2;Boulevard Lévesque Est;1;50;false;false;false;false;false;false;77.0;0;0;1;0;0;false;42135;6269507432;-73.62098;45.641743;46528;6269507530;-73.6124;45.629712;0;35;36;9312724;Bus : 925 S - Direction Métro Radisson;"";STL;925S;Chartrand / Déry;Métro Radisson / Radisson
769400438;"{\"type\":\"LineString\",\"coordinates\":[[-73.6217349,45.6410641],[-73.6220469,45.6408477],[-73.6225656,45.6404881],[-73.6231266,45.6400991],[-73.6240526,45.6395144]]}";3;Boulevard Lévesque Est;1;50;false;false;true;false;false;false;250.0;0;0;0;0;0;false;42135;6269507432;-73.62098;45.641743;46528;6269507530;-73.6124;45.629712;0;35;36;9312724;Bus : 925 S - Direction Métro Radisson;"";STL;925S;Chartrand / Déry;Métro Radisson / Radisson
230335457;"{\"type\":\"LineString\",\"coordinates\":[[-73.6240526,45.6395144],[-73.6249612,45.6401852],[-73.6253179,45.6404552],[-73.6256103,45.6406653],[-73.6257632,45.6407797],[-73.6258356,45.6408378],[-73.6258919,45.6408884],[-73.6259429,45.6409466],[-73.6259861,45.6410024],[-73.6260129,45.6410624],[-73.6260233,45.641121],[-73.626029,45.6411693],[-73.6260317,45.641218],[-73.6260236,45.6412799],[-73.6260072,45.641331],[-73.6259777,45.6413854],[-73.6259241,45.6414491],[-73.6258815,45.6414974],[-73.6258249,45.6415429],[-73.6257715,45.6415837],[-73.6257068,45.6416217],[-73.6256371,45.6416535],[-73.6255676,45.6416775],[-73.6254899,45.6416943],[-73.6254121,45.6417075],[-73.6253219,45.6417154],[-73.6252401,45.6417154],[-73.625157,45.6417098],[-73.6250738,45.6416986],[-73.6249934,45.6416798],[-73.6249236,45.6416592],[-73.6248405,45.6416273],[-73.6247734,45.6416029],[-73.6246718,45.6415574],[-73.6245377,45.6414806],[-73.6242709,45.6412535],[-73.6235799,45.640614]]}";4;"";1;50;false;true;true;false;false;false;524.0;0;0;0;0;0;false;42135;6269507432;-73.62098;45.641743;46528;6269507530;-73.6124;45.629712;0;35;36;9312724;Bus : 925 S - Direction Métro Radisson;"";STL;925S;Chartrand / Déry;Métro Radisson / Radisson
39695627;"{\"type\":\"LineString\",\"coordinates\":[[-73.6235799,45.640614],[-73.6144365,45.6320348],[-73.6144352,45.6320336]]}";5;Pont Olivier-Charbonneau;3;100;false;true;true;false;false;false;1190.0;0;0;0;0;0;false;42135;6269507432;-73.62098;45.641743;46528;6269507530;-73.6124;45.629712;0;35;36;9312724;Bus : 925 S - Direction Métro Radisson;"";STL;925S;Chartrand / Déry;Métro Radisson / Radisson
116591817;"{\"type\":\"LineString\",\"coordinates\":[[-73.6144352,45.6320336],[-73.6137852,45.6314006],[-73.6135098,45.6310985],[-73.613201,45.630747],[-73.6127274,45.6301399],[-73.6125969,45.6300053],[-73.6120852,45.6294903]]}";6;"";1;50;false;true;true;false;false;false;168.5;1;0;0;0;0;false;42135;6269507432;-73.62098;45.641743;46528;6269507530;-73.6124;45.629712;1;35;36;9312724;Bus : 925 S - Direction Métro Radisson;"";STL;925S;Chartrand / Déry;Métro Radisson / Radisson
116591817;"{\"type\":\"LineString\",\"coordinates\":[[-73.6144352,45.6320336],[-73.6137852,45.6314006],[-73.6135098,45.6310985],[-73.613201,45.630747],[-73.6127274,45.6301399],[-73.6125969,45.6300053],[-73.6120852,45.6294903]]}";1;"";1;50;false;true;true;false;false;false;168.5;1;0;0;0;0;false;46528;6269507530;-73.6124;45.629712;46499;6269507610;-73.60489;45.622521;1;36;37;9312724;Bus : 925 S - Direction Métro Radisson;"";STL;925S;Chartrand / Déry;Métro Radisson / Radisson
459833707;"{\"type\":\"LineString\",\"coordinates\":[[-73.6120852,45.6294903],[-73.611941,45.6293584]]}";2;Boulevard Louis-H.-Lafontaine;2;50;false;true;true;false;false;false;19.0;2;0;0;0;0;false;46528;6269507530;-73.6124;45.629712;46499;6269507610;-73.60489;45.622521;0;36;37;9312724;Bus : 925 S - Direction Métro Radisson;"";STL;925S;Chartrand / Déry;Métro Radisson / Radisson
471419152;"{\"type\":\"LineString\",\"coordinates\":[[-73.611941,45.6293584],[-73.6102116,45.6276382],[-73.6084245,45.6259713],[-73.6063353,45.6239994],[-73.6048076,45.6225642],[-73.6047452,45.6225056]]}";3;Boulevard Louis-H.-La Fontaine;2;50;false;true;true;false;false;false;473.0;2;0;0;0;0;false;46528;6269507530;-73.6124;45.629712;46499;6269507610;-73.60489;45.622521;1;36;37;9312724;Bus : 925 S - Direction Métro Radisson;"";STL;925S;Chartrand / Déry;Métro Radisson / Radisson
471419149;"{\"type\":\"LineString\",\"coordinates\":[[-73.6047452,45.6225056],[-73.6045685,45.6223529]]}";1;Boulevard Louis-H.-La Fontaine;2;50;false;true;true;false;false;false;22.0;2;0;0;0;0;false;46499;6269507610;-73.60489;45.622521;46513;6269507730;-73.58859;45.612934;2;37;38;9312724;Bus : 925 S - Direction Métro Radisson;"";STL;925S;Chartrand / Déry;Métro Radisson / Radisson
151088879;"{\"type\":\"LineString\",\"coordinates\":[[-73.6045685,45.6223529],[-73.6035002,45.621474],[-73.6012827,45.6193017],[-73.6001804,45.6182788],[-73.5996966,45.6178308],[-73.5994116,45.6175696],[-73.5991686,45.6173719],[-73.598919,45.6171834],[-73.5986738,45.6170119],[-73.5984396,45.6168527],[-73.5980553,45.6166009],[-73.5976797,45.6163675],[-73.5969794,45.6159952],[-73.5962438,45.6156521],[-73.5958725,45.6155443],[-73.5950032,45.6152186],[-73.5944281,45.6150262],[-73.5935917,45.6147501],[-73.5921395,45.614246],[-73.5914569,45.6140119],[-73.5907304,45.6137815],[-73.5902715,45.6135793],[-73.5884623,45.6129844],[-73.5856899,45.6120866],[-73.5840562,45.6115556],[-73.5830592,45.6112155]]}";2;Boulevard Louis-H.-La Fontaine;2;50;false;true;true;false;false;false;2134.0;2;0;0;0;0;false;46499;6269507610;-73.60489;45.622521;46513;6269507730;-73.58859;45.612934;2;37;38;9312724;Bus : 925 S - Direction Métro Radisson;"";STL;925S;Chartrand / Déry;Métro Radisson / Radisson
151088879;"{\"type\":\"LineString\",\"coordinates\":[[-73.6045685,45.6223529],[-73.6035002,45.621474],[-73.6012827,45.6193017],[-73.6001804,45.6182788],[-73.5996966,45.6178308],[-73.5994116,45.6175696],[-73.5991686,45.6173719],[-73.598919,45.6171834],[-73.5986738,45.6170119],[-73.5984396,45.6168527],[-73.5980553,45.6166009],[-73.5976797,45.6163675],[-73.5969794,45.6159952],[-73.5962438,45.6156521],[-73.5958725,45.6155443],[-73.5950032,45.6152186],[-73.5944281,45.6150262],[-73.5935917,45.6147501],[-73.5921395,45.614246],[-73.5914569,45.6140119],[-73.5907304,45.6137815],[-73.5902715,45.6135793],[-73.5884623,45.6129844],[-73.5856899,45.6120866],[-73.5840562,45.6115556],[-73.5830592,45.6112155]]}";1;Boulevard Louis-H.-La Fontaine;2;50;false;true;true;false;false;false;1067.0;2;0;0;0;0;false;46513;6269507730;-73.58859;45.612934;46536;6269507805;-73.5833;45.609049;1;38;39;9312724;Bus : 925 S - Direction Métro Radisson;"";STL;925S;Chartrand / Déry;Métro Radisson / Radisson
46686640;"{\"type\":\"LineString\",\"coordinates\":[[-73.584421,45.609608],[-73.5835509,45.6106351],[-73.5830592,45.6112155]]}";2;Rue Béclard;2;50;false;false;true;false;false;false;208.0;0;0;0;0;0;false;46513;6269507730;-73.58859;45.612934;46536;6269507805;-73.5833;45.609049;0;38;39;9312724;Bus : 925 S - Direction Métro Radisson;"";STL;925S;Chartrand / Déry;Métro Radisson / Radisson
695763679;"{\"type\":\"LineString\",\"coordinates\":[[-73.5831537,45.6090561],[-73.584421,45.609608]]}";3;Rue Renaude-Lapointe;1;50;false;false;true;false;false;false;58.5;0;0;0;0;0;false;46513;6269507730;-73.58859;45.612934;46536;6269507805;-73.5833;45.609049;1;38;39;9312724;Bus : 925 S - Direction Métro Radisson;"";STL;925S;Chartrand / Déry;Métro Radisson / Radisson
695763684;"{\"type\":\"LineString\",\"coordinates\":[[-73.5864963,45.6067449],[-73.5848641,45.607689],[-73.5845697,45.6078598],[-73.5840783,45.6081613],[-73.5838389,45.6083411],[-73.5836022,45.6085701],[-73.5831537,45.6090561]]}";1;Rue Bombardier;1;50;false;false;true;false;false;false;369.0;0;0;0;0;0;false;46536;6269507805;-73.5833;45.609049;46479;6269507854;-73.58622;45.606421;2;39;40;9312724;Bus : 925 S - Direction Métro Radisson;"";STL;925S;Chartrand / Déry;Métro Radisson / Radisson
695763677;"{\"type\":\"LineString\",\"coordinates\":[[-73.5866343,45.6066638],[-73.5864963,45.6067449]]}";2;Rue Bombardier;1;50;false;false;true;false;false;false;15.0;0;0;0;0;0;false;46536;6269507805;-73.5833;45.609049;46479;6269507854;-73.58622;45.606421;0;39;40;9312724;Bus : 925 S - Direction Métro Radisson;"";STL;925S;Chartrand / Déry;Métro Radisson / Radisson
284915253;"{\"type\":\"LineString\",\"coordinates\":[[-73.5866343,45.6066638],[-73.5858085,45.6063112],[-73.5852187,45.6060593],[-73.5848725,45.6059057],[-73.5844462,45.6057328],[-73.5832982,45.6052337],[-73.5830772,45.6051405],[-73.582425,45.6048699],[-73.5817528,45.6045997],[-73.5809084,45.6042505],[-73.5795242,45.6036557],[-73.5787845,45.6033282],[-73.578584,45.6032435],[-73.5765199,45.6023393],[-73.5754391,45.6018796],[-73.5741308,45.6013297],[-73.5727576,45.6007341],[-73.5718731,45.6003432],[-73.5712363,45.6000661]]}";3;Boulevard des Galeries-d'Anjou;2;50;false;true;true;false;false;false;1407.0;1;0;0;0;0;false;46536;6269507805;-73.5833;45.609049;46479;6269507854;-73.58622;45.606421;2;39;40;9312724;Bus : 925 S - Direction Métro Radisson;"";STL;925S;Chartrand / Déry;Métro Radisson / Radisson
284915253;"{\"type\":\"LineString\",\"coordinates\":[[-73.5866343,45.6066638],[-73.5858085,45.6063112],[-73.5852187,45.6060593],[-73.5848725,45.6059057],[-73.5844462,45.6057328],[-73.5832982,45.6052337],[-73.5830772,45.6051405],[-73.582425,45.6048699],[-73.5817528,45.6045997],[-73.5809084,45.6042505],[-73.5795242,45.6036557],[-73.5787845,45.6033282],[-73.578584,45.6032435],[-73.5765199,45.6023393],[-73.5754391,45.6018796],[-73.5741308,45.6013297],[-73.5727576,45.6007341],[-73.5718731,45.6003432],[-73.5712363,45.6000661]]}";1;Boulevard des Galeries-d'Anjou;2;50;false;true;true;false;false;false;703.5;1;0;0;0;0;false;46480;6269507949;-73.57567;45.601911;46481;6269507936;-73.56834;45.598775;1;41;42;9312724;Bus : 925 S - Direction Métro Radisson;"";STL;925S;Chartrand / Déry;Métro Radisson / Radisson
284915251;"{\"type\":\"LineString\",\"coordinates\":[[-73.5712363,45.6000661],[-73.5711302,45.6000205],[-73.5703086,45.5996705]]}";2;Boulevard des Galeries-d'Anjou;2;50;false;true;true;false;false;false;85.0;0;0;0;0;0;false;46480;6269507949;-73.57567;45.601911;46481;6269507936;-73.56834;45.598775;0;41;42;9312724;Bus : 925 S - Direction Métro Radisson;"";STL;925S;Chartrand / Déry;Métro Radisson / Radisson
471504958;"{\"type\":\"LineString\",\"coordinates\":[[-73.5703086,45.5996705],[-73.5700644,45.5995664],[-73.5694099,45.5992812],[-73.5690362,45.5991146]]}";3;Boulevard des Galeries-d'Anjou;2;50;false;true;true;false;false;false;117.0;1;0;0;0;0;false;46480;6269507949;-73.57567;45.601911;46481;6269507936;-73.56834;45.598775;0;41;42;9312724;Bus : 925 S - Direction Métro Radisson;"";STL;925S;Chartrand / Déry;Métro Radisson / Radisson
471504957;"{\"type\":\"LineString\",\"coordinates\":[[-73.5690362,45.5991146],[-73.5686616,45.598964],[-73.5679347,45.5986825],[-73.5673715,45.5985023],[-73.5659982,45.5980501],[-73.5659,45.598016]]}";4;Boulevard des Galeries-d'Anjou;2;50;false;true;true;false;false;false;137.0;2;0;0;0;0;false;46480;6269507949;-73.57567;45.601911;46481;6269507936;-73.56834;45.598775;1;41;42;9312724;Bus : 925 S - Direction Métro Radisson;"";STL;925S;Chartrand / Déry;Métro Radisson / Radisson
471504957;"{\"type\":\"LineString\",\"coordinates\":[[-73.5690362,45.5991146],[-73.5686616,45.598964],[-73.5679347,45.5986825],[-73.5673715,45.5985023],[-73.5659982,45.5980501],[-73.5659,45.598016]]}";1;Boulevard des Galeries-d'Anjou;2;50;false;true;true;false;false;false;137.0;2;0;0;0;0;false;46481;6269507936;-73.56834;45.598775;46482;6269508335;-73.55502;45.596488;1;42;43;9312724;Bus : 925 S - Direction Métro Radisson;"";STL;925S;Chartrand / Déry;Métro Radisson / Radisson
635299611;"{\"type\":\"LineString\",\"coordinates\":[[-73.5659,45.598016],[-73.5657946,45.5979795]]}";2;Boulevard des Galeries-d'Anjou;2;50;false;true;true;false;false;false;10.0;2;0;0;0;0;false;46481;6269507936;-73.56834;45.598775;46482;6269508335;-73.55502;45.596488;0;42;43;9312724;Bus : 925 S - Direction Métro Radisson;"";STL;925S;Chartrand / Déry;Métro Radisson / Radisson
284915248;"{\"type\":\"LineString\",\"coordinates\":[[-73.5657946,45.5979795],[-73.5657004,45.5979468],[-73.5639811,45.5973838],[-73.5633571,45.5971856],[-73.5618863,45.5967177],[-73.5606981,45.5964155],[-73.560151,45.5962748],[-73.5595613,45.5961176]]}";3;Boulevard des Galeries-d'Anjou;2;50;false;true;true;false;false;false;529.0;3;0;0;0;0;false;46481;6269507936;-73.56834;45.598775;46482;6269508335;-73.55502;45.596488;0;42;43;9312724;Bus : 925 S - Direction Métro Radisson;"";STL;925S;Chartrand / Déry;Métro Radisson / Radisson
635298376;"{\"type\":\"LineString\",\"coordinates\":[[-73.5595613,45.5961176],[-73.5592256,45.5960026],[-73.5586972,45.5958281],[-73.5580186,45.5955991],[-73.5575251,45.5954358],[-73.5566183,45.5951282]]}";4;Boulevard des Galeries-d'Anjou;2;50;false;true;true;false;false;false;255.0;2;0;0;0;0;false;46481;6269507936;-73.56834;45.598775;46482;6269508335;-73.55502;45.596488;0;42;43;9312724;Bus : 925 S - Direction Métro Radisson;"";STL;925S;Chartrand / Déry;Métro Radisson / Radisson
635298375;"{\"type\":\"LineString\",\"coordinates\":[[-73.5566183,45.5951282],[-73.5564271,45.5950613]]}";5;Boulevard des Galeries-d'Anjou;2;50;false;true;true;false;false;false;17.0;2;0;0;0;0;false;46481;6269507936;-73.56834;45.598775;46482;6269508335;-73.55502;45.596488;0;42;43;9312724;Bus : 925 S - Direction Métro Radisson;"";STL;925S;Chartrand / Déry;Métro Radisson / Radisson
22909935;"{\"type\":\"LineString\",\"coordinates\":[[-73.5564271,45.5950613],[-73.5563571,45.5951573]]}";6;Rue Beaubien Est;1;50;false;true;true;false;false;false;12.0;2;0;0;0;0;false;46481;6269507936;-73.56834;45.598775;46482;6269508335;-73.55502;45.596488;0;42;43;9312724;Bus : 925 S - Direction Métro Radisson;"";STL;925S;Chartrand / Déry;Métro Radisson / Radisson
635298380;"{\"type\":\"LineString\",\"coordinates\":[[-73.5563571,45.5951573],[-73.5550319,45.5966274]]}";7;Rue Beaubien Est;1;50;false;true;true;false;false;false;97.0;2;0;0;0;0;false;46481;6269507936;-73.56834;45.598775;46482;6269508335;-73.55502;45.596488;1;42;43;9312724;Bus : 925 S - Direction Métro Radisson;"";STL;925S;Chartrand / Déry;Métro Radisson / Radisson
617504971;"{\"type\":\"LineString\",\"coordinates\":[[-73.5550319,45.5966274],[-73.5549425,45.5967268]]}";1;Rue Beaubien Est;1;50;false;true;true;false;false;false;14.0;2;0;0;0;0;false;46482;6269508335;-73.55502;45.596488;40935;6269508646;-73.53935;45.589521;2;43;44;9312724;Bus : 925 S - Direction Métro Radisson;"";STL;925S;Chartrand / Déry;Métro Radisson / Radisson
617504969;"{\"type\":\"LineString\",\"coordinates\":[[-73.5549425,45.5967268],[-73.5538397,45.5979914]]}";2;Rue Beaubien Est;1;50;false;true;true;false;false;false;165.0;1;0;0;0;0;false;46482;6269508335;-73.55502;45.596488;40935;6269508646;-73.53935;45.589521;0;43;44;9312724;Bus : 925 S - Direction Métro Radisson;"";STL;925S;Chartrand / Déry;Métro Radisson / Radisson
607207183;"{\"type\":\"LineString\",\"coordinates\":[[-73.5538397,45.5979914],[-73.5529444,45.5976782]]}";3;Rue du Val-d'Anjou;1;50;false;false;true;false;false;false;78.0;0;0;0;0;0;false;46482;6269508335;-73.55502;45.596488;40935;6269508646;-73.53935;45.589521;0;43;44;9312724;Bus : 925 S - Direction Métro Radisson;"";STL;925S;Chartrand / Déry;Métro Radisson / Radisson
59434218;"{\"type\":\"LineString\",\"coordinates\":[[-73.5529444,45.5976782],[-73.5521077,45.5973533],[-73.5518272,45.5972444],[-73.5511159,45.5969682],[-73.5502352,45.5966262]]}";4;Rue du Val-d'Anjou;1;50;false;false;true;false;false;false;242.0;0;0;0;0;0;false;46482;6269508335;-73.55502;45.596488;40935;6269508646;-73.53935;45.589521;0;43;44;9312724;Bus : 925 S - Direction Métro Radisson;"";STL;925S;Chartrand / Déry;Métro Radisson / Radisson
607207175;"{\"type\":\"LineString\",\"coordinates\":[[-73.5502352,45.5966262],[-73.5500973,45.5965727]]}";5;Rue du Val-d'Anjou;1;50;false;false;true;false;false;false;13.0;0;0;0;0;0;false;46482;6269508335;-73.55502;45.596488;40935;6269508646;-73.53935;45.589521;0;43;44;9312724;Bus : 925 S - Direction Métro Radisson;"";STL;925S;Chartrand / Déry;Métro Radisson / Radisson
607207182;"{\"type\":\"LineString\",\"coordinates\":[[-73.5500973,45.5965727],[-73.5496893,45.597008],[-73.5496391,45.5970955]]}";6;Boulevard des Roseraies;2;50;false;true;false;false;false;false;69.0;1;0;0;0;0;false;46482;6269508335;-73.55502;45.596488;40935;6269508646;-73.53935;45.589521;0;43;44;9312724;Bus : 925 S - Direction Métro Radisson;"";STL;925S;Chartrand / Déry;Métro Radisson / Radisson
492994655;"{\"type\":\"LineString\",\"coordinates\":[[-73.5496391,45.5970955],[-73.5473717,45.5961475],[-73.544909,45.5951091]]}";7;Boulevard Louis-H.-La Fontaine;3;50;false;true;true;false;false;false;430.0;1;0;0;0;0;false;46482;6269508335;-73.55502;45.596488;40935;6269508646;-73.53935;45.589521;0;43;44;9312724;Bus : 925 S - Direction Métro Radisson;"";STL;925S;Chartrand / Déry;Métro Radisson / Radisson
22909987;"{\"type\":\"LineString\",\"coordinates\":[[-73.544909,45.5951091],[-73.5454021,45.5943786],[-73.5454706,45.5942173],[-73.5454935,45.5940332],[-73.5454608,45.5939612],[-73.5453521,45.5937221],[-73.5453322,45.5935096],[-73.5453895,45.5933515],[-73.5460212,45.5922787]]}";8;Rue Pierre Corneille;1;50;false;false;true;false;false;false;336.0;0;0;0;0;0;false;46482;6269508335;-73.55502;45.596488;40935;6269508646;-73.53935;45.589521;0;43;44;9312724;Bus : 925 S - Direction Métro Radisson;"";STL;925S;Chartrand / Déry;Métro Radisson / Radisson
110348119;"{\"type\":\"LineString\",\"coordinates\":[[-73.5460212,45.5922787],[-73.5459536,45.5922258],[-73.5433942,45.5913727],[-73.5401418,45.5902677]]}";9;Rue du Trianon;1;50;false;false;true;false;false;false;511.0;0;0;0;0;0;false;46482;6269508335;-73.55502;45.596488;40935;6269508646;-73.53935;45.589521;0;43;44;9312724;Bus : 925 S - Direction Métro Radisson;"";STL;925S;Chartrand / Déry;Métro Radisson / Radisson
681965058;"{\"type\":\"LineString\",\"coordinates\":[[-73.5401418,45.5902677],[-73.5400104,45.5902252],[-73.539051,45.5899151]]}";10;Rue du Trianon;1;50;false;false;true;false;false;false;94.0;0;0;0;0;0;false;46482;6269508335;-73.55502;45.596488;40935;6269508646;-73.53935;45.589521;0;43;44;9312724;Bus : 925 S - Direction Métro Radisson;"";STL;925S;Chartrand / Déry;Métro Radisson / Radisson
455314963;"{\"type\":\"LineString\",\"coordinates\":[[-73.539051,45.5899151],[-73.5393,45.5895081]]}";11;Rue Sherbrooke Est;2;50;false;true;true;false;false;false;50.0;0;0;0;0;0;false;46482;6269508335;-73.55502;45.596488;40935;6269508646;-73.53935;45.589521;1;43;44;9312724;Bus : 925 S - Direction Métro Radisson;"";STL;925S;Chartrand / Déry;Métro Radisson / Radisson
