way_id;shape;index;name;nb_lanes;legal_speed;speed_zone_30;oneway;shares_bike;bike_box;bus_lane;dedicated_bus_lane;length;nb_traffic_signals;nb_crossings;nb_stops;nb_give_ways;nb_lvl_crossings;roundabout;stop_id_orig;node_id_orig;coord_x_orig;coord_y_orig;stop_id_dest;node_id_dest;coord_x_dest;coord_y_dest;nb_neighbouring_ways_bus_stop;ordre_orig;ordre_dest;id_line;line_name;colour;operator;ref;from;to
329691621;"{\"type\":\"LineString\",\"coordinates\":[[-73.5682539,45.517946],[-73.5686052,45.517567],[-73.5686578,45.5175103],[-73.5686777,45.5174889]]}";1;Rue de Rigaud;1;50;false;true;true;false;false;false;61.0;1;1;0;0;0;false;52560;6010965578;-73.568283;45.518026;52411;6010966070;-73.572336;45.518395;1;0;1;4616805;Bus 144 : Avenue des Pins Ouest;"";STM;144-O;Station Sherbrooke (Édicule Ouest);Saint-Catherine/Awater
329692106;"{\"type\":\"LineString\",\"coordinates\":[[-73.5686777,45.5174889],[-73.5687625,45.5175291],[-73.5687701,45.5175327],[-73.5688155,45.5175542],[-73.5691895,45.5177311],[-73.5693239,45.5177907]]}";2;Rue Saint-Denis;2;50;false;false;true;false;false;false;61.0;1;0;0;0;0;false;52560;6010965578;-73.568283;45.518026;52411;6010966070;-73.572336;45.518395;0;0;1;4616805;Bus 144 : Avenue des Pins Ouest;"";STM;144-O;Station Sherbrooke (Édicule Ouest);Saint-Catherine/Awater
453989317;"{\"type\":\"LineString\",\"coordinates\":[[-73.5693239,45.5177907],[-73.5696619,45.5179387]]}";3;Rue Saint-Denis;2;50;false;false;true;false;false;false;32.0;0;0;0;0;0;false;52560;6010965578;-73.568283;45.518026;52411;6010966070;-73.572336;45.518395;0;0;1;4616805;Bus 144 : Avenue des Pins Ouest;"";STM;144-O;Station Sherbrooke (Édicule Ouest);Saint-Catherine/Awater
453989319;"{\"type\":\"LineString\",\"coordinates\":[[-73.5696619,45.5179387],[-73.5700701,45.5181147],[-73.5700965,45.5181261]]}";4;Rue Saint-Denis;2;50;false;false;true;false;false;false;40.0;1;0;0;0;0;false;52560;6010965578;-73.568283;45.518026;52411;6010966070;-73.572336;45.518395;0;0;1;4616805;Bus 144 : Avenue des Pins Ouest;"";STM;144-O;Station Sherbrooke (Édicule Ouest);Saint-Catherine/Awater
465196292;"{\"type\":\"LineString\",\"coordinates\":[[-73.5700965,45.5181261],[-73.5703476,45.5182391]]}";5;Rue Saint-Denis;4;50;false;false;true;false;false;false;24.0;0;0;0;0;0;false;52560;6010965578;-73.568283;45.518026;52411;6010966070;-73.572336;45.518395;0;0;1;4616805;Bus 144 : Avenue des Pins Ouest;"";STM;144-O;Station Sherbrooke (Édicule Ouest);Saint-Catherine/Awater
329693415;"{\"type\":\"LineString\",\"coordinates\":[[-73.5703476,45.5182391],[-73.5703883,45.5182573],[-73.5710165,45.5185378],[-73.5713854,45.5187026],[-73.57179,45.5188833]]}";6;Rue Saint-Denis;4;50;false;false;true;false;false;false;134.0;2;0;0;0;0;false;52560;6010965578;-73.568283;45.518026;52411;6010966070;-73.572336;45.518395;0;0;1;4616805;Bus 144 : Avenue des Pins Ouest;"";STM;144-O;Station Sherbrooke (Édicule Ouest);Saint-Catherine/Awater
465196293;"{\"type\":\"LineString\",\"coordinates\":[[-73.5723031,45.518291],[-73.57179,45.5188833]]}";7;Avenue des Pins;2;50;false;false;false;false;false;false;39.0;1;0;0;0;0;false;52560;6010965578;-73.568283;45.518026;52411;6010966070;-73.572336;45.518395;1;0;1;4616805;Bus 144 : Avenue des Pins Ouest;"";STM;144-O;Station Sherbrooke (Édicule Ouest);Saint-Catherine/Awater
465200449;"{\"type\":\"LineString\",\"coordinates\":[[-73.5727012,45.5178314],[-73.5723031,45.518291]]}";1;Avenue des Pins;2;50;false;false;false;false;false;false;60.0;0;0;0;0;0;false;52411;6010966070;-73.572336;45.518395;52353;6010970144;-73.573943;45.516542;2;1;2;4616805;Bus 144 : Avenue des Pins Ouest;"";STM;144-O;Station Sherbrooke (Édicule Ouest);Saint-Catherine/Awater
465202829;"{\"type\":\"LineString\",\"coordinates\":[[-73.5731335,45.5173324],[-73.5728988,45.5176033],[-73.5727012,45.5178314]]}";2;Avenue des Pins;2;50;false;false;false;false;false;false;65.0;0;0;0;0;0;false;52411;6010966070;-73.572336;45.518395;52353;6010970144;-73.573943;45.516542;0;1;2;4616805;Bus 144 : Avenue des Pins Ouest;"";STM;144-O;Station Sherbrooke (Édicule Ouest);Saint-Catherine/Awater
465366313;"{\"type\":\"LineString\",\"coordinates\":[[-73.5733602,45.5170708],[-73.5731335,45.5173324]]}";3;Avenue des Pins;2;50;false;false;false;false;false;false;35.0;0;0;0;0;0;false;52411;6010966070;-73.572336;45.518395;52353;6010970144;-73.573943;45.516542;0;1;2;4616805;Bus 144 : Avenue des Pins Ouest;"";STM;144-O;Station Sherbrooke (Édicule Ouest);Saint-Catherine/Awater
465366314;"{\"type\":\"LineString\",\"coordinates\":[[-73.5735269,45.5168783],[-73.5733602,45.5170708]]}";4;Avenue des Pins;2;50;false;false;false;false;false;false;26.0;1;0;0;0;0;false;52411;6010966070;-73.572336;45.518395;52353;6010970144;-73.573943;45.516542;0;1;2;4616805;Bus 144 : Avenue des Pins Ouest;"";STM;144-O;Station Sherbrooke (Édicule Ouest);Saint-Catherine/Awater
465366315;"{\"type\":\"LineString\",\"coordinates\":[[-73.5739292,45.5164139],[-73.5735269,45.5168783]]}";5;Avenue des Pins;2;50;false;false;false;false;false;false;61.0;1;0;0;0;0;false;52411;6010966070;-73.572336;45.518395;52353;6010970144;-73.573943;45.516542;2;1;2;4616805;Bus 144 : Avenue des Pins Ouest;"";STM;144-O;Station Sherbrooke (Édicule Ouest);Saint-Catherine/Awater
465367055;"{\"type\":\"LineString\",\"coordinates\":[[-73.5743236,45.5159586],[-73.5741449,45.5161649],[-73.5739292,45.5164139]]}";1;Avenue des Pins;2;50;false;false;false;false;false;false;60.0;1;0;0;0;0;false;52353;6010970144;-73.573943;45.516542;52313;1457909029;-73.575107;45.5152002;2;2;3;4616805;Bus 144 : Avenue des Pins Ouest;"";STM;144-O;Station Sherbrooke (Édicule Ouest);Saint-Catherine/Awater
465368631;"{\"type\":\"LineString\",\"coordinates\":[[-73.5747103,45.5155122],[-73.5743236,45.5159586]]}";2;Avenue des Pins;2;50;false;false;false;false;false;false;59.0;1;0;0;0;0;false;52353;6010970144;-73.573943;45.516542;52313;1457909029;-73.575107;45.5152002;0;2;3;4616805;Bus 144 : Avenue des Pins Ouest;"";STM;144-O;Station Sherbrooke (Édicule Ouest);Saint-Catherine/Awater
393659733;"{\"type\":\"LineString\",\"coordinates\":[[-73.5751105,45.5150502],[-73.5747103,45.5155122]]}";3;Avenue des Pins;2;50;false;false;false;false;false;false;61.0;1;0;0;0;0;false;52353;6010970144;-73.573943;45.516542;52313;1457909029;-73.575107;45.5152002;2;2;3;4616805;Bus 144 : Avenue des Pins Ouest;"";STM;144-O;Station Sherbrooke (Édicule Ouest);Saint-Catherine/Awater
465369624;"{\"type\":\"LineString\",\"coordinates\":[[-73.575514,45.5145721],[-73.5753068,45.5148176],[-73.5751105,45.5150502]]}";1;Avenue des Pins;2;50;false;false;false;false;false;false;62.0;1;0;0;0;0;false;52313;1457909029;-73.575107;45.5152002;52281;6010976196;-73.57615;45.513932;2;3;4;4616805;Bus 144 : Avenue des Pins Ouest;"";STM;144-O;Station Sherbrooke (Édicule Ouest);Saint-Catherine/Awater
465384268;"{\"type\":\"LineString\",\"coordinates\":[[-73.5757586,45.5142822],[-73.575514,45.5145721]]}";2;Avenue des Pins;2;50;false;false;false;false;false;false;38.0;0;0;0;0;0;false;52313;1457909029;-73.575107;45.5152002;52281;6010976196;-73.57615;45.513932;0;3;4;4616805;Bus 144 : Avenue des Pins Ouest;"";STM;144-O;Station Sherbrooke (Édicule Ouest);Saint-Catherine/Awater
393659734;"{\"type\":\"LineString\",\"coordinates\":[[-73.5761571,45.5138099],[-73.5757586,45.5142822]]}";3;Avenue des Pins;2;50;false;false;false;false;false;false;61.0;1;0;0;0;0;false;52313;1457909029;-73.575107;45.5152002;52281;6010976196;-73.57615;45.513932;2;3;4;4616805;Bus 144 : Avenue des Pins Ouest;"";STM;144-O;Station Sherbrooke (Édicule Ouest);Saint-Catherine/Awater
465384272;"{\"type\":\"LineString\",\"coordinates\":[[-73.5766763,45.5132437],[-73.576349,45.5136007],[-73.5761571,45.5138099]]}";1;Avenue des Pins;3;50;false;false;false;false;false;false;75.0;1;0;0;0;0;false;52281;6010976196;-73.57615;45.513932;52219;1457907438;-73.5781164;45.511881;2;4;5;4616805;Bus 144 : Avenue des Pins Ouest;"";STM;144-O;Station Sherbrooke (Édicule Ouest);Saint-Catherine/Awater
414309669;"{\"type\":\"LineString\",\"coordinates\":[[-73.5780894,45.5117038],[-73.5780151,45.5117847],[-73.577775,45.5120464],[-73.5777528,45.5120706],[-73.5777114,45.5121157],[-73.5776779,45.5121523],[-73.577534,45.512309],[-73.5770119,45.512878],[-73.5766763,45.5132437]]}";2;Avenue des Pins;3;50;false;false;false;false;false;false;204.0;1;0;0;0;0;false;52281;6010976196;-73.57615;45.513932;52219;1457907438;-73.5781164;45.511881;2;4;5;4616805;Bus 144 : Avenue des Pins Ouest;"";STM;144-O;Station Sherbrooke (Édicule Ouest);Saint-Catherine/Awater
465417749;"{\"type\":\"LineString\",\"coordinates\":[[-73.5782076,45.511575],[-73.5780894,45.5117038]]}";1;Avenue des Pins;4;50;false;false;false;false;false;false;18.0;0;0;0;0;0;false;52219;1457907438;-73.5781164;45.511881;60682;6010976376;-73.578503;45.511364;2;5;6;4616805;Bus 144 : Avenue des Pins Ouest;"";STM;144-O;Station Sherbrooke (Édicule Ouest);Saint-Catherine/Awater
4886374;"{\"type\":\"LineString\",\"coordinates\":[[-73.5785503,45.5112015],[-73.5782696,45.5115074],[-73.5782076,45.511575]]}";2;Avenue des Pins;2;50;false;false;false;false;false;false;50.0;1;0;0;0;0;false;52219;1457907438;-73.5781164;45.511881;60682;6010976376;-73.578503;45.511364;2;5;6;4616805;Bus 144 : Avenue des Pins Ouest;"";STM;144-O;Station Sherbrooke (Édicule Ouest);Saint-Catherine/Awater
4886372;"{\"type\":\"LineString\",\"coordinates\":[[-73.5785503,45.5112015],[-73.5786158,45.5111548],[-73.5786937,45.5110991]]}";1;Avenue des Pins;1;50;false;true;false;false;false;false;16.0;1;0;0;0;0;false;60682;6010976376;-73.578503;45.511364;52173;1071632079;-73.579619;45.509421;2;6;7;4616805;Bus 144 : Avenue des Pins Ouest;"";STM;144-O;Station Sherbrooke (Édicule Ouest);Saint-Catherine/Awater
725188614;"{\"type\":\"LineString\",\"coordinates\":[[-73.5786937,45.5110991],[-73.5787397,45.5110602],[-73.5787868,45.5108865]]}";2;Avenue des Pins;1;50;false;true;true;false;false;false;26.0;0;0;0;0;0;false;60682;6010976376;-73.578503;45.511364;52173;1071632079;-73.579619;45.509421;0;6;7;4616805;Bus 144 : Avenue des Pins Ouest;"";STM;144-O;Station Sherbrooke (Édicule Ouest);Saint-Catherine/Awater
4886376;"{\"type\":\"LineString\",\"coordinates\":[[-73.5787868,45.5108865],[-73.5787694,45.5108213],[-73.5787421,45.5106976],[-73.5787232,45.510552],[-73.5787387,45.5104439],[-73.5787655,45.5103447],[-73.5787733,45.5103082],[-73.5788625,45.5101252],[-73.5790471,45.5098859],[-73.5794851,45.5094425]]}";3;Avenue des Pins;1;50;false;true;true;false;false;false;177.0;0;0;0;0;0;false;60682;6010976376;-73.578503;45.511364;52173;1071632079;-73.579619;45.509421;0;6;7;4616805;Bus 144 : Avenue des Pins Ouest;"";STM;144-O;Station Sherbrooke (Édicule Ouest);Saint-Catherine/Awater
453989306;"{\"type\":\"LineString\",\"coordinates\":[[-73.5794851,45.5094425],[-73.5795163,45.5094087],[-73.5795533,45.5093563]]}";4;Avenue des Pins;1;50;false;true;true;false;false;false;11.0;1;0;0;0;0;false;60682;6010976376;-73.578503;45.511364;52173;1071632079;-73.579619;45.509421;2;6;7;4616805;Bus 144 : Avenue des Pins Ouest;"";STM;144-O;Station Sherbrooke (Édicule Ouest);Saint-Catherine/Awater
453989307;"{\"type\":\"LineString\",\"coordinates\":[[-73.5795533,45.5093563],[-73.5798707,45.5088001],[-73.5798663,45.5087209]]}";1;Avenue des Pins;1;50;false;true;true;false;false;false;76.0;0;0;0;0;0;false;52173;1071632079;-73.579619;45.509421;52153;1071631781;-73.580198;45.508356;2;7;8;4616805;Bus 144 : Avenue des Pins Ouest;"";STM;144-O;Station Sherbrooke (Édicule Ouest);Saint-Catherine/Awater
4886378;"{\"type\":\"LineString\",\"coordinates\":[[-73.5798663,45.5087209],[-73.5801287,45.5082263]]}";2;Avenue des Pins;1;50;false;false;true;false;false;false;59.0;1;0;0;0;0;false;52173;1071632079;-73.579619;45.509421;52153;1071631781;-73.580198;45.508356;2;7;8;4616805;Bus 144 : Avenue des Pins Ouest;"";STM;144-O;Station Sherbrooke (Édicule Ouest);Saint-Catherine/Awater
453989311;"{\"type\":\"LineString\",\"coordinates\":[[-73.5801287,45.5082263],[-73.5802984,45.5077567]]}";1;Avenue des Pins;1;50;false;false;true;false;false;false;54.0;1;0;0;0;0;false;52153;1071631781;-73.580198;45.508356;52141;6010972965;-73.580724;45.506847;2;8;9;4616805;Bus 144 : Avenue des Pins Ouest;"";STM;144-O;Station Sherbrooke (Édicule Ouest);Saint-Catherine/Awater
453989312;"{\"type\":\"LineString\",\"coordinates\":[[-73.5802984,45.5077567],[-73.5803399,45.5076425]]}";2;Avenue des Pins;1;50;false;false;true;false;false;false;14.0;0;0;0;0;0;false;52153;1071631781;-73.580198;45.508356;52141;6010972965;-73.580724;45.506847;0;8;9;4616805;Bus 144 : Avenue des Pins Ouest;"";STM;144-O;Station Sherbrooke (Édicule Ouest);Saint-Catherine/Awater
453989313;"{\"type\":\"LineString\",\"coordinates\":[[-73.5803399,45.5076425],[-73.5804433,45.5073927],[-73.5804879,45.5072827]]}";3;Avenue des Pins;1;50;false;false;true;false;false;false;42.0;0;0;0;0;0;false;52153;1071631781;-73.580198;45.508356;52141;6010972965;-73.580724;45.506847;0;8;9;4616805;Bus 144 : Avenue des Pins Ouest;"";STM;144-O;Station Sherbrooke (Édicule Ouest);Saint-Catherine/Awater
475873781;"{\"type\":\"LineString\",\"coordinates\":[[-73.5804879,45.5072827],[-73.5805395,45.507141]]}";4;Avenue des Pins;1;50;false;true;true;false;false;false;17.0;0;0;0;0;0;false;52153;1071631781;-73.580198;45.508356;52141;6010972965;-73.580724;45.506847;0;8;9;4616805;Bus 144 : Avenue des Pins Ouest;"";STM;144-O;Station Sherbrooke (Édicule Ouest);Saint-Catherine/Awater
465184976;"{\"type\":\"LineString\",\"coordinates\":[[-73.5805395,45.507141],[-73.5806409,45.506834],[-73.5808553,45.5061956],[-73.5811828,45.5053204],[-73.5818292,45.5046626],[-73.5818969,45.5045958],[-73.5819554,45.504538]]}";5;Avenue des Pins;1;50;false;true;true;false;false;false;315.0;1;0;0;0;0;false;52153;1071631781;-73.580198;45.508356;52141;6010972965;-73.580724;45.506847;2;8;9;4616805;Bus 144 : Avenue des Pins Ouest;"";STM;144-O;Station Sherbrooke (Édicule Ouest);Saint-Catherine/Awater
465184976;"{\"type\":\"LineString\",\"coordinates\":[[-73.5805395,45.507141],[-73.5806409,45.506834],[-73.5808553,45.5061956],[-73.5811828,45.5053204],[-73.5818292,45.5046626],[-73.5818969,45.5045958],[-73.5819554,45.504538]]}";1;Avenue des Pins;1;50;false;true;true;false;false;false;157.5;1;0;0;0;0;false;52105;6010966389;-73.581767;45.504808;52051;6010976715;-73.583623;45.502766;1;10;11;4616805;Bus 144 : Avenue des Pins Ouest;"";STM;144-O;Station Sherbrooke (Édicule Ouest);Saint-Catherine/Awater
88608913;"{\"type\":\"LineString\",\"coordinates\":[[-73.5819554,45.504538],[-73.582203,45.5043187],[-73.582456,45.5040601],[-73.5826771,45.5038277],[-73.582875,45.5035967],[-73.5831721,45.5032436],[-73.5833316,45.5030495],[-73.5834049,45.5029521],[-73.5837077,45.5025674],[-73.5840056,45.5021782],[-73.5844009,45.5016819],[-73.5847356,45.5012323],[-73.5849408,45.500944],[-73.5853457,45.5003672],[-73.5853644,45.5003406],[-73.5853955,45.5002861],[-73.5854629,45.500093],[-73.5857002,45.499546],[-73.5857234,45.4994925],[-73.585777,45.4993522],[-73.5858781,45.499077],[-73.5858847,45.4990631],[-73.5859614,45.4989008],[-73.586012,45.4988191],[-73.5865566,45.4980526],[-73.5868548,45.4976713]]}";2;Avenue des Pins;2;50;false;true;true;false;false;false;429.0;1;0;0;0;0;false;52105;6010966389;-73.581767;45.504808;52051;6010976715;-73.583623;45.502766;1;10;11;4616805;Bus 144 : Avenue des Pins Ouest;"";STM;144-O;Station Sherbrooke (Édicule Ouest);Saint-Catherine/Awater
88608913;"{\"type\":\"LineString\",\"coordinates\":[[-73.5819554,45.504538],[-73.582203,45.5043187],[-73.582456,45.5040601],[-73.5826771,45.5038277],[-73.582875,45.5035967],[-73.5831721,45.5032436],[-73.5833316,45.5030495],[-73.5834049,45.5029521],[-73.5837077,45.5025674],[-73.5840056,45.5021782],[-73.5844009,45.5016819],[-73.5847356,45.5012323],[-73.5849408,45.500944],[-73.5853457,45.5003672],[-73.5853644,45.5003406],[-73.5853955,45.5002861],[-73.5854629,45.500093],[-73.5857002,45.499546],[-73.5857234,45.4994925],[-73.585777,45.4993522],[-73.5858781,45.499077],[-73.5858847,45.4990631],[-73.5859614,45.4989008],[-73.586012,45.4988191],[-73.5865566,45.4980526],[-73.5868548,45.4976713]]}";1;Avenue des Pins;2;50;false;true;true;false;false;false;429.0;1;0;0;0;0;false;52013;1457902827;-73.5857339;45.4995646;53866;6010971152;-73.587059;45.497494;1;13;14;4616805;Bus 144 : Avenue des Pins Ouest;"";STM;144-O;Station Sherbrooke (Édicule Ouest);Saint-Catherine/Awater
465159976;"{\"type\":\"LineString\",\"coordinates\":[[-73.5868548,45.4976713],[-73.5874021,45.4969847],[-73.587646,45.4966714],[-73.5876763,45.4966325]]}";2;Avenue des Pins;1;50;false;true;true;false;false;false;66.5;1;0;0;0;0;false;52013;1457902827;-73.5857339;45.4995646;53866;6010971152;-73.587059;45.497494;1;13;14;4616805;Bus 144 : Avenue des Pins Ouest;"";STM;144-O;Station Sherbrooke (Édicule Ouest);Saint-Catherine/Awater
465159976;"{\"type\":\"LineString\",\"coordinates\":[[-73.5868548,45.4976713],[-73.5874021,45.4969847],[-73.587646,45.4966714],[-73.5876763,45.4966325]]}";1;Avenue des Pins;1;50;false;true;true;false;false;false;66.5;1;0;0;0;0;false;53866;6010971152;-73.587059;45.497494;53867;6010980478;-73.587843;45.496478;1;14;15;4616805;Bus 144 : Avenue des Pins Ouest;"";STM;144-O;Station Sherbrooke (Édicule Ouest);Saint-Catherine/Awater
465159973;"{\"type\":\"LineString\",\"coordinates\":[[-73.5876763,45.4966325],[-73.5877979,45.4964763],[-73.5878698,45.4963944],[-73.58795,45.4963171],[-73.588032,45.4962461],[-73.5881289,45.4961719]]}";2;Avenue des Pins;1;50;false;true;true;false;false;false;31.5;1;0;0;0;0;false;53866;6010971152;-73.587059;45.497494;53867;6010980478;-73.587843;45.496478;1;14;15;4616805;Bus 144 : Avenue des Pins Ouest;"";STM;144-O;Station Sherbrooke (Édicule Ouest);Saint-Catherine/Awater
465159973;"{\"type\":\"LineString\",\"coordinates\":[[-73.5876763,45.4966325],[-73.5877979,45.4964763],[-73.5878698,45.4963944],[-73.58795,45.4963171],[-73.588032,45.4962461],[-73.5881289,45.4961719]]}";1;Avenue des Pins;1;50;false;true;true;false;false;false;31.5;1;0;0;0;0;false;53867;6010980478;-73.587843;45.496478;51924;6010967053;-73.588629;45.494813;1;15;16;4616805;Bus 144 : Avenue des Pins Ouest;"";STM;144-O;Station Sherbrooke (Édicule Ouest);Saint-Catherine/Awater
727849147;"{\"type\":\"LineString\",\"coordinates\":[[-73.5881289,45.4961719],[-73.5887124,45.4958561],[-73.5891158,45.4956355],[-73.589608,45.4953781]]}";2;Chemin de la Côte-des-Neiges;3;50;false;true;true;false;false;false;146.0;1;0;0;0;0;false;53867;6010980478;-73.587843;45.496478;51924;6010967053;-73.588629;45.494813;0;15;16;4616805;Bus 144 : Avenue des Pins Ouest;"";STM;144-O;Station Sherbrooke (Édicule Ouest);Saint-Catherine/Awater
48680974;"{\"type\":\"LineString\",\"coordinates\":[[-73.589608,45.4953781],[-73.5896397,45.495332],[-73.5896545,45.4952949],[-73.5896589,45.4952545],[-73.589655,45.4952233],[-73.5896438,45.4951935],[-73.5896265,45.4951653],[-73.5896013,45.4951414],[-73.5895752,45.4951221],[-73.5895329,45.4951017]]}";3;"";1;50;false;true;true;false;false;false;36.0;2;0;0;0;0;false;53867;6010980478;-73.587843;45.496478;51924;6010967053;-73.588629;45.494813;0;15;16;4616805;Bus 144 : Avenue des Pins Ouest;"";STM;144-O;Station Sherbrooke (Édicule Ouest);Saint-Catherine/Awater
329694550;"{\"type\":\"LineString\",\"coordinates\":[[-73.5895329,45.4951017],[-73.5893666,45.4951289],[-73.5892176,45.4951559],[-73.5890717,45.4951836]]}";4;Avenue Docteur Penfield;1;50;false;true;true;false;false;false;38.0;0;0;0;0;0;false;53867;6010980478;-73.587843;45.496478;51924;6010967053;-73.588629;45.494813;0;15;16;4616805;Bus 144 : Avenue des Pins Ouest;"";STM;144-O;Station Sherbrooke (Édicule Ouest);Saint-Catherine/Awater
165217772;"{\"type\":\"LineString\",\"coordinates\":[[-73.5890717,45.4951836],[-73.5889635,45.4951846],[-73.5888987,45.4951786],[-73.5888425,45.4951645],[-73.5888008,45.495145],[-73.5887706,45.4951205],[-73.5887409,45.4950895],[-73.588714,45.4950536],[-73.5885772,45.4948022],[-73.5884365,45.4947135]]}";5;Avenue Atwater;1;50;false;true;true;false;false;false;40.0;0;0;0;0;0;false;53867;6010980478;-73.587843;45.496478;51924;6010967053;-73.588629;45.494813;1;15;16;4616805;Bus 144 : Avenue des Pins Ouest;"";STM;144-O;Station Sherbrooke (Édicule Ouest);Saint-Catherine/Awater
453745799;"{\"type\":\"LineString\",\"coordinates\":[[-73.5890971,45.493872],[-73.5888686,45.4940303],[-73.5885248,45.4942427],[-73.5884332,45.4943408],[-73.5883898,45.4944082],[-73.5883632,45.4944709],[-73.5883653,45.4945418],[-73.5883827,45.4946099],[-73.5884365,45.4947135]]}";1;Avenue Atwater;2;50;false;false;true;false;false;false;118.0;0;0;0;0;0;false;51924;6010967053;-73.588629;45.494813;51894;6010975914;-73.589719;45.493311;2;16;17;4616805;Bus 144 : Avenue des Pins Ouest;"";STM;144-O;Station Sherbrooke (Édicule Ouest);Saint-Catherine/Awater
165217769;"{\"type\":\"LineString\",\"coordinates\":[[-73.5893603,45.4921626],[-73.5894258,45.4922335],[-73.5894872,45.4923097],[-73.5895387,45.4923826],[-73.5895827,45.4924533],[-73.5896196,45.4925219],[-73.5896483,45.4925909],[-73.5896733,45.4926664],[-73.5896897,45.4927395],[-73.5897018,45.4928256],[-73.5897069,45.4928976],[-73.5897056,45.4929765],[-73.5896968,45.4930603],[-73.5896788,45.4931455],[-73.589653,45.4932194],[-73.5896212,45.4932906],[-73.5895856,45.4933572],[-73.589539,45.4934315],[-73.5894795,45.4935153],[-73.5894148,45.493597],[-73.5893522,45.493667],[-73.589295,45.4937282],[-73.5892272,45.4937913],[-73.5890971,45.493872]]}";2;Avenue Atwater;2;50;false;false;true;false;false;false;210.0;0;0;0;0;0;false;51924;6010967053;-73.588629;45.494813;51894;6010975914;-73.589719;45.493311;2;16;17;4616805;Bus 144 : Avenue des Pins Ouest;"";STM;144-O;Station Sherbrooke (Édicule Ouest);Saint-Catherine/Awater
165217769;"{\"type\":\"LineString\",\"coordinates\":[[-73.5893603,45.4921626],[-73.5894258,45.4922335],[-73.5894872,45.4923097],[-73.5895387,45.4923826],[-73.5895827,45.4924533],[-73.5896196,45.4925219],[-73.5896483,45.4925909],[-73.5896733,45.4926664],[-73.5896897,45.4927395],[-73.5897018,45.4928256],[-73.5897069,45.4928976],[-73.5897056,45.4929765],[-73.5896968,45.4930603],[-73.5896788,45.4931455],[-73.589653,45.4932194],[-73.5896212,45.4932906],[-73.5895856,45.4933572],[-73.589539,45.4934315],[-73.5894795,45.4935153],[-73.5894148,45.493597],[-73.5893522,45.493667],[-73.589295,45.4937282],[-73.5892272,45.4937913],[-73.5890971,45.493872]]}";1;Avenue Atwater;2;50;false;false;true;false;false;false;105.0;0;0;0;0;0;false;51894;6010975914;-73.589719;45.493311;54185;6010970140;-73.58768;45.491056;1;17;18;4616805;Bus 144 : Avenue des Pins Ouest;"";STM;144-O;Station Sherbrooke (Édicule Ouest);Saint-Catherine/Awater
453745794;"{\"type\":\"LineString\",\"coordinates\":[[-73.5886907,45.4917101],[-73.588812,45.491787],[-73.5890834,45.49196],[-73.5892017,45.4920397],[-73.58929,45.4921036],[-73.5893603,45.4921626]]}";2;Avenue Atwater;2;50;false;false;true;false;false;false;73.0;0;0;0;0;0;false;51894;6010975914;-73.589719;45.493311;54185;6010970140;-73.58768;45.491056;0;17;18;4616805;Bus 144 : Avenue des Pins Ouest;"";STM;144-O;Station Sherbrooke (Édicule Ouest);Saint-Catherine/Awater
165264481;"{\"type\":\"LineString\",\"coordinates\":[[-73.5886907,45.4917101],[-73.5886671,45.4916082],[-73.5881828,45.4913129],[-73.5881536,45.4912975],[-73.5880621,45.4912633]]}";3;Avenue Atwater;2;50;false;true;true;false;false;false;73.0;1;0;0;0;0;false;51894;6010975914;-73.589719;45.493311;54185;6010970140;-73.58768;45.491056;0;17;18;4616805;Bus 144 : Avenue des Pins Ouest;"";STM;144-O;Station Sherbrooke (Édicule Ouest);Saint-Catherine/Awater
561490744;"{\"type\":\"LineString\",\"coordinates\":[[-73.5880621,45.4912633],[-73.588009,45.4912399],[-73.5879609,45.4912192]]}";4;Avenue Atwater;1;50;false;true;true;false;false;false;10.0;0;0;0;0;0;false;51894;6010975914;-73.589719;45.493311;54185;6010970140;-73.58768;45.491056;0;17;18;4616805;Bus 144 : Avenue des Pins Ouest;"";STM;144-O;Station Sherbrooke (Édicule Ouest);Saint-Catherine/Awater
453745797;"{\"type\":\"LineString\",\"coordinates\":[[-73.5879609,45.4912192],[-73.5877767,45.4911418],[-73.5874481,45.4909746],[-73.58711,45.4907752]]}";5;Avenue Atwater;1;50;false;true;true;false;false;false;41.5;0;0;0;0;0;false;51894;6010975914;-73.589719;45.493311;54185;6010970140;-73.58768;45.491056;1;17;18;4616805;Bus 144 : Avenue des Pins Ouest;"";STM;144-O;Station Sherbrooke (Édicule Ouest);Saint-Catherine/Awater
453745797;"{\"type\":\"LineString\",\"coordinates\":[[-73.5879609,45.4912192],[-73.5877767,45.4911418],[-73.5874481,45.4909746],[-73.58711,45.4907752]]}";1;Avenue Atwater;1;50;false;true;true;false;false;false;41.5;0;0;0;0;0;false;54185;6010970140;-73.58768;45.491056;52007;6010968565;-73.586008;45.490081;1;18;19;4616805;Bus 144 : Avenue des Pins Ouest;"";STM;144-O;Station Sherbrooke (Édicule Ouest);Saint-Catherine/Awater
474841415;"{\"type\":\"LineString\",\"coordinates\":[[-73.58711,45.4907752],[-73.5868649,45.4906337],[-73.5858434,45.4900453]]}";2;Avenue Atwater;1;50;false;true;true;false;false;false;64.0;0;0;0;0;0;false;54185;6010970140;-73.58768;45.491056;52007;6010968565;-73.586008;45.490081;1;18;19;4616805;Bus 144 : Avenue des Pins Ouest;"";STM;144-O;Station Sherbrooke (Édicule Ouest);Saint-Catherine/Awater
453949527;"{\"type\":\"LineString\",\"coordinates\":[[-73.5858434,45.4900453],[-73.5852083,45.4896762]]}";1;Avenue Atwater;3;50;false;true;true;false;false;false;65.0;1;0;0;0;0;false;52007;6010968565;-73.586008;45.490081;56301;2519449678;-73.5841253;45.4895396;2;19;20;4616805;Bus 144 : Avenue des Pins Ouest;"";STM;144-O;Station Sherbrooke (Édicule Ouest);Saint-Catherine/Awater
165217770;"{\"type\":\"LineString\",\"coordinates\":[[-73.5852083,45.4896762],[-73.5846711,45.4893381],[-73.584566,45.489272]]}";2;Avenue Atwater;3;50;false;true;true;false;false;false;68.0;2;0;0;0;0;false;52007;6010968565;-73.586008;45.490081;56301;2519449678;-73.5841253;45.4895396;0;19;20;4616805;Bus 144 : Avenue des Pins Ouest;"";STM;144-O;Station Sherbrooke (Édicule Ouest);Saint-Catherine/Awater
329694551;"{\"type\":\"LineString\",\"coordinates\":[[-73.584566,45.489272],[-73.5844716,45.4893502]]}";3;Saint Catherine Street West;1;50;false;false;true;false;false;false;12.0;0;0;0;0;0;false;52007;6010968565;-73.586008;45.490081;56301;2519449678;-73.5841253;45.4895396;0;19;20;4616805;Bus 144 : Avenue des Pins Ouest;"";STM;144-O;Station Sherbrooke (Édicule Ouest);Saint-Catherine/Awater
165217839;"{\"type\":\"LineString\",\"coordinates\":[[-73.5844716,45.4893502],[-73.5843783,45.4894309],[-73.5842306,45.4895586],[-73.5840326,45.4897267]]}";4;Rue Sainte-Catherine Ouest;1;50;false;true;true;false;false;false;55.0;1;0;0;0;0;false;52007;6010968565;-73.586008;45.490081;56301;2519449678;-73.5841253;45.4895396;1;19;20;4616805;Bus 144 : Avenue des Pins Ouest;"";STM;144-O;Station Sherbrooke (Édicule Ouest);Saint-Catherine/Awater
