way_id;shape;index;name;nb_lanes;legal_speed;speed_zone_30;oneway;shares_bike;bike_box;bus_lane;dedicated_bus_lane;length;nb_traffic_signals;nb_crossings;nb_stops;nb_give_ways;nb_lvl_crossings;roundabout;stop_id_orig;node_id_orig;coord_x_orig;coord_y_orig;stop_id_dest;node_id_dest;coord_x_dest;coord_y_dest;nb_neighbouring_ways_bus_stop;ordre_orig;ordre_dest;id_line;line_name;colour;operator;ref;from;to
527896059;"{\"type\":\"LineString\",\"coordinates\":[[-70.5424695,-33.3264127],[-70.5425151,-33.3266082]]}";1;Avenida Los Trapenses;3;50;false;true;true;false;false;false;56.0;0;0;0;0;0;false;Camino Los Trapenses esquina Boulevard Pájaros;4502748834;-70.5425299;-33.3264005;J. Los Trapenses / Camino Los Trapenses;1175336560;-70.542543;-33.3303948;1;0;1;6712766;Hacia (M) Escuela Militar;#ED1C24;Redbus Urbano S.A.;C14;Los Trapenses;(M) Escuela Militar
444940951;"{\"type\":\"LineString\",\"coordinates\":[[-70.5425151,-33.3266082],[-70.542543,-33.3267261],[-70.5427163,-33.3274726],[-70.542764,-33.3277821],[-70.542787,-33.3280679],[-70.542797,-33.3283216],[-70.5427983,-33.3286292],[-70.5427704,-33.3290801],[-70.5426921,-33.3295852],[-70.5426691,-33.3296986],[-70.5425773,-33.3300344],[-70.5424303,-33.3305418],[-70.5423708,-33.3307467],[-70.5423481,-33.3308616],[-70.5423345,-33.3309723],[-70.5423225,-33.3312064],[-70.5423237,-33.3312403],[-70.5423348,-33.3313518],[-70.5423466,-33.3314709],[-70.5424217,-33.3317532],[-70.542487,-33.3319271],[-70.5425275,-33.3320081],[-70.5430281,-33.3330074],[-70.543254,-33.3334197],[-70.543493,-33.3337902],[-70.5437498,-33.3341523],[-70.5443308,-33.3348237],[-70.5446338,-33.3351165],[-70.5449569,-33.3354102],[-70.5452241,-33.3356678],[-70.5453958,-33.3358735],[-70.5455066,-33.3360389],[-70.5456382,-33.3362583],[-70.5457572,-33.3365371],[-70.5458249,-33.3367336],[-70.5458546,-33.3368714],[-70.5458767,-33.3370197],[-70.5458922,-33.337106]]}";2;Avenida Los Trapenses;3;50;false;true;true;false;false;false;1576.5;2;2;0;0;0;false;Camino Los Trapenses esquina Boulevard Pájaros;4502748834;-70.5425299;-33.3264005;J. Los Trapenses / Camino Los Trapenses;1175336560;-70.542543;-33.3303948;1;0;1;6712766;Hacia (M) Escuela Militar;#ED1C24;Redbus Urbano S.A.;C14;Los Trapenses;(M) Escuela Militar
444940951;"{\"type\":\"LineString\",\"coordinates\":[[-70.5425151,-33.3266082],[-70.542543,-33.3267261],[-70.5427163,-33.3274726],[-70.542764,-33.3277821],[-70.542787,-33.3280679],[-70.542797,-33.3283216],[-70.5427983,-33.3286292],[-70.5427704,-33.3290801],[-70.5426921,-33.3295852],[-70.5426691,-33.3296986],[-70.5425773,-33.3300344],[-70.5424303,-33.3305418],[-70.5423708,-33.3307467],[-70.5423481,-33.3308616],[-70.5423345,-33.3309723],[-70.5423225,-33.3312064],[-70.5423237,-33.3312403],[-70.5423348,-33.3313518],[-70.5423466,-33.3314709],[-70.5424217,-33.3317532],[-70.542487,-33.3319271],[-70.5425275,-33.3320081],[-70.5430281,-33.3330074],[-70.543254,-33.3334197],[-70.543493,-33.3337902],[-70.5437498,-33.3341523],[-70.5443308,-33.3348237],[-70.5446338,-33.3351165],[-70.5449569,-33.3354102],[-70.5452241,-33.3356678],[-70.5453958,-33.3358735],[-70.5455066,-33.3360389],[-70.5456382,-33.3362583],[-70.5457572,-33.3365371],[-70.5458249,-33.3367336],[-70.5458546,-33.3368714],[-70.5458767,-33.3370197],[-70.5458922,-33.337106]]}";1;Avenida Los Trapenses;3;50;false;true;true;false;false;false;1576.5;2;2;0;0;0;false;C. Del Sembrador / Camino Los Trapenses;1175336614;-70.5442138;-33.3345968;Camino Los Trapenses esquina Camino Real;4502748835;-70.5460543;-33.3417079;1;3;4;6712766;Hacia (M) Escuela Militar;#ED1C24;Redbus Urbano S.A.;C14;Los Trapenses;(M) Escuela Militar
245544386;"{\"type\":\"LineString\",\"coordinates\":[[-70.5458922,-33.337106],[-70.5459051,-33.3372176],[-70.545987,-33.3382732],[-70.5460105,-33.3390537],[-70.5460084,-33.339505],[-70.5460004,-33.3400143],[-70.5460023,-33.3406728],[-70.54601,-33.3411252],[-70.5460086,-33.3412422]]}";2;Avenida Los Trapenses;3;50;false;true;true;false;false;false;1147.0;2;1;0;0;0;false;C. Del Sembrador / Camino Los Trapenses;1175336614;-70.5442138;-33.3345968;Camino Los Trapenses esquina Camino Real;4502748835;-70.5460543;-33.3417079;0;3;4;6712766;Hacia (M) Escuela Militar;#ED1C24;Redbus Urbano S.A.;C14;Los Trapenses;(M) Escuela Militar
646979728;"{\"type\":\"LineString\",\"coordinates\":[[-70.5460086,-33.3412422],[-70.5460012,-33.3415056],[-70.5459954,-33.3416443],[-70.546,-33.3417516],[-70.546026,-33.3419125]]}";3;Avenida Los Trapenses;3;50;false;true;true;false;false;false;93.5;0;0;0;0;0;false;C. Del Sembrador / Camino Los Trapenses;1175336614;-70.5442138;-33.3345968;Camino Los Trapenses esquina Camino Real;4502748835;-70.5460543;-33.3417079;1;3;4;6712766;Hacia (M) Escuela Militar;#ED1C24;Redbus Urbano S.A.;C14;Los Trapenses;(M) Escuela Militar
646979728;"{\"type\":\"LineString\",\"coordinates\":[[-70.5460086,-33.3412422],[-70.5460012,-33.3415056],[-70.5459954,-33.3416443],[-70.546,-33.3417516],[-70.546026,-33.3419125]]}";1;Avenida Los Trapenses;3;50;false;true;true;false;false;false;93.5;0;0;0;0;0;false;Camino Los Trapenses esquina Camino Real;4502748835;-70.5460543;-33.3417079;Camino Real / Camino Los Trapenses;1175336732;-70.5458401;-33.343433;1;4;5;6712766;Hacia (M) Escuela Militar;#ED1C24;Redbus Urbano S.A.;C14;Los Trapenses;(M) Escuela Militar
24355663;"{\"type\":\"LineString\",\"coordinates\":[[-70.546026,-33.3419125],[-70.5460896,-33.3422766]]}";2;"";3;50;false;true;true;false;false;false;102.0;0;0;0;0;0;false;Camino Los Trapenses esquina Camino Real;4502748835;-70.5460543;-33.3417079;Camino Real / Camino Los Trapenses;1175336732;-70.5458401;-33.343433;0;4;5;6712766;Hacia (M) Escuela Militar;#ED1C24;Redbus Urbano S.A.;C14;Los Trapenses;(M) Escuela Militar
24355693;"{\"type\":\"LineString\",\"coordinates\":[[-70.5460896,-33.3422766],[-70.5461325,-33.3423689],[-70.5461396,-33.3423842],[-70.5461649,-33.3424293],[-70.5462156,-33.3425035]]}";3;Avenida Los Trapenses;2;50;false;true;true;false;false;false;70.0;0;1;0;1;0;false;Camino Los Trapenses esquina Camino Real;4502748835;-70.5460543;-33.3417079;Camino Real / Camino Los Trapenses;1175336732;-70.5458401;-33.343433;0;4;5;6712766;Hacia (M) Escuela Militar;#ED1C24;Redbus Urbano S.A.;C14;Los Trapenses;(M) Escuela Militar
453555344;"{\"type\":\"LineString\",\"coordinates\":[[-70.5462156,-33.3425035],[-70.5462422,-33.3425155],[-70.5462855,-33.3425514]]}";4;"";2;50;false;true;true;false;false;false;22.0;0;0;0;0;0;true;Camino Los Trapenses esquina Camino Real;4502748835;-70.5460543;-33.3417079;Camino Real / Camino Los Trapenses;1175336732;-70.5458401;-33.343433;0;4;5;6712766;Hacia (M) Escuela Militar;#ED1C24;Redbus Urbano S.A.;C14;Los Trapenses;(M) Escuela Militar
453555346;"{\"type\":\"LineString\",\"coordinates\":[[-70.5462855,-33.3425514],[-70.546296,-33.3425831],[-70.5463049,-33.342628],[-70.5462949,-33.3426754],[-70.5462715,-33.3427153],[-70.546245,-33.3427615],[-70.546229,-33.3427706]]}";5;"";2;50;false;true;true;false;false;false;67.0;0;0;0;0;0;true;Camino Los Trapenses esquina Camino Real;4502748835;-70.5460543;-33.3417079;Camino Real / Camino Los Trapenses;1175336732;-70.5458401;-33.343433;0;4;5;6712766;Hacia (M) Escuela Militar;#ED1C24;Redbus Urbano S.A.;C14;Los Trapenses;(M) Escuela Militar
444942857;"{\"type\":\"LineString\",\"coordinates\":[[-70.546229,-33.3427706],[-70.54614,-33.3428632],[-70.5461059,-33.3429024],[-70.5460631,-33.3429656],[-70.5460024,-33.3430598],[-70.5458757,-33.3432608],[-70.5458073,-33.3433695],[-70.5457556,-33.3434479],[-70.5457154,-33.3435084],[-70.5456685,-33.3435728],[-70.5456229,-33.3436311],[-70.5455779,-33.3436843],[-70.5455323,-33.3437386],[-70.5454841,-33.3437902],[-70.5454378,-33.3438378],[-70.5453788,-33.3438961],[-70.5453224,-33.3439465],[-70.5452628,-33.3439963],[-70.5452051,-33.3440434],[-70.5451347,-33.344096],[-70.5450608,-33.3441487],[-70.5449925,-33.3441957],[-70.5449148,-33.3442462],[-70.5448443,-33.3442893],[-70.5447531,-33.3443453],[-70.5445654,-33.3444394],[-70.5444004,-33.3445229],[-70.5442382,-33.3446058],[-70.5441771,-33.3446366],[-70.5441342,-33.3446635],[-70.5440886,-33.3446931],[-70.5440544,-33.3447251],[-70.5440243,-33.3447559],[-70.5439796,-33.3448122],[-70.5439632,-33.344831],[-70.5439418,-33.3448651],[-70.5439156,-33.3449161],[-70.5436603,-33.3455674],[-70.5435783,-33.3457712]]}";6;Avenida Los Trapenses;3;60;false;true;true;false;false;false;534.0;0;2;0;0;0;false;Camino Los Trapenses esquina Camino Real;4502748835;-70.5460543;-33.3417079;Camino Real / Camino Los Trapenses;1175336732;-70.5458401;-33.343433;1;4;5;6712766;Hacia (M) Escuela Militar;#ED1C24;Redbus Urbano S.A.;C14;Los Trapenses;(M) Escuela Militar
444942857;"{\"type\":\"LineString\",\"coordinates\":[[-70.546229,-33.3427706],[-70.54614,-33.3428632],[-70.5461059,-33.3429024],[-70.5460631,-33.3429656],[-70.5460024,-33.3430598],[-70.5458757,-33.3432608],[-70.5458073,-33.3433695],[-70.5457556,-33.3434479],[-70.5457154,-33.3435084],[-70.5456685,-33.3435728],[-70.5456229,-33.3436311],[-70.5455779,-33.3436843],[-70.5455323,-33.3437386],[-70.5454841,-33.3437902],[-70.5454378,-33.3438378],[-70.5453788,-33.3438961],[-70.5453224,-33.3439465],[-70.5452628,-33.3439963],[-70.5452051,-33.3440434],[-70.5451347,-33.344096],[-70.5450608,-33.3441487],[-70.5449925,-33.3441957],[-70.5449148,-33.3442462],[-70.5448443,-33.3442893],[-70.5447531,-33.3443453],[-70.5445654,-33.3444394],[-70.5444004,-33.3445229],[-70.5442382,-33.3446058],[-70.5441771,-33.3446366],[-70.5441342,-33.3446635],[-70.5440886,-33.3446931],[-70.5440544,-33.3447251],[-70.5440243,-33.3447559],[-70.5439796,-33.3448122],[-70.5439632,-33.344831],[-70.5439418,-33.3448651],[-70.5439156,-33.3449161],[-70.5436603,-33.3455674],[-70.5435783,-33.3457712]]}";1;Avenida Los Trapenses;3;60;false;true;true;false;false;false;534.0;0;2;0;0;0;false;Camino Real / Camino Los Trapenses;1175336732;-70.5458401;-33.343433;Valle Paraiso / Camino Los Trapenses;1175336801;-70.5432919;-33.346762;1;5;6;6712766;Hacia (M) Escuela Militar;#ED1C24;Redbus Urbano S.A.;C14;Los Trapenses;(M) Escuela Militar
446361633;"{\"type\":\"LineString\",\"coordinates\":[[-70.5435783,-33.3457712],[-70.543044,-33.3472069],[-70.5429927,-33.3473275],[-70.5426724,-33.3479987],[-70.5423698,-33.3486312],[-70.5420867,-33.3491844],[-70.5418152,-33.3497281],[-70.5416764,-33.3500059],[-70.5413105,-33.3507544],[-70.5410355,-33.3512656],[-70.5407988,-33.3517248],[-70.540681,-33.3519489],[-70.5405951,-33.3521145],[-70.5405147,-33.3522802],[-70.5404674,-33.3524059],[-70.5404393,-33.3525066],[-70.5404199,-33.3526238],[-70.5404114,-33.3527547],[-70.5404254,-33.3529587],[-70.5404464,-33.3531203],[-70.540485,-33.3533626],[-70.5405083,-33.3535739],[-70.540505,-33.3537234],[-70.5404775,-33.3539033],[-70.5404547,-33.3540399],[-70.5404193,-33.354237],[-70.5403854,-33.3544334],[-70.5403795,-33.3544762],[-70.5401878,-33.3554948]]}";2;Avenida Los Trapenses;3;60;false;true;true;false;false;false;1420.5;0;3;0;0;0;false;Camino Real / Camino Los Trapenses;1175336732;-70.5458401;-33.343433;Valle Paraiso / Camino Los Trapenses;1175336801;-70.5432919;-33.346762;1;5;6;6712766;Hacia (M) Escuela Militar;#ED1C24;Redbus Urbano S.A.;C14;Los Trapenses;(M) Escuela Militar
446361633;"{\"type\":\"LineString\",\"coordinates\":[[-70.5435783,-33.3457712],[-70.543044,-33.3472069],[-70.5429927,-33.3473275],[-70.5426724,-33.3479987],[-70.5423698,-33.3486312],[-70.5420867,-33.3491844],[-70.5418152,-33.3497281],[-70.5416764,-33.3500059],[-70.5413105,-33.3507544],[-70.5410355,-33.3512656],[-70.5407988,-33.3517248],[-70.540681,-33.3519489],[-70.5405951,-33.3521145],[-70.5405147,-33.3522802],[-70.5404674,-33.3524059],[-70.5404393,-33.3525066],[-70.5404199,-33.3526238],[-70.5404114,-33.3527547],[-70.5404254,-33.3529587],[-70.5404464,-33.3531203],[-70.540485,-33.3533626],[-70.5405083,-33.3535739],[-70.540505,-33.3537234],[-70.5404775,-33.3539033],[-70.5404547,-33.3540399],[-70.5404193,-33.354237],[-70.5403854,-33.3544334],[-70.5403795,-33.3544762],[-70.5401878,-33.3554948]]}";1;Avenida Los Trapenses;3;60;false;true;true;false;false;false;1420.5;0;3;0;0;0;false;Valle Paraiso / Camino Los Trapenses;1175336801;-70.5432919;-33.346762;Valle de La Unión / Camino Los Trapenses;1175336914;-70.5444401;-33.3445668;1;6;7;6712766;Hacia (M) Escuela Militar;#ED1C24;Redbus Urbano S.A.;C14;Los Trapenses;(M) Escuela Militar
444942857;"{\"type\":\"LineString\",\"coordinates\":[[-70.546229,-33.3427706],[-70.54614,-33.3428632],[-70.5461059,-33.3429024],[-70.5460631,-33.3429656],[-70.5460024,-33.3430598],[-70.5458757,-33.3432608],[-70.5458073,-33.3433695],[-70.5457556,-33.3434479],[-70.5457154,-33.3435084],[-70.5456685,-33.3435728],[-70.5456229,-33.3436311],[-70.5455779,-33.3436843],[-70.5455323,-33.3437386],[-70.5454841,-33.3437902],[-70.5454378,-33.3438378],[-70.5453788,-33.3438961],[-70.5453224,-33.3439465],[-70.5452628,-33.3439963],[-70.5452051,-33.3440434],[-70.5451347,-33.344096],[-70.5450608,-33.3441487],[-70.5449925,-33.3441957],[-70.5449148,-33.3442462],[-70.5448443,-33.3442893],[-70.5447531,-33.3443453],[-70.5445654,-33.3444394],[-70.5444004,-33.3445229],[-70.5442382,-33.3446058],[-70.5441771,-33.3446366],[-70.5441342,-33.3446635],[-70.5440886,-33.3446931],[-70.5440544,-33.3447251],[-70.5440243,-33.3447559],[-70.5439796,-33.3448122],[-70.5439632,-33.344831],[-70.5439418,-33.3448651],[-70.5439156,-33.3449161],[-70.5436603,-33.3455674],[-70.5435783,-33.3457712]]}";2;Avenida Los Trapenses;3;60;false;true;true;false;false;false;534.0;0;2;0;0;0;false;Valle Paraiso / Camino Los Trapenses;1175336801;-70.5432919;-33.346762;Valle de La Unión / Camino Los Trapenses;1175336914;-70.5444401;-33.3445668;1;6;7;6712766;Hacia (M) Escuela Militar;#ED1C24;Redbus Urbano S.A.;C14;Los Trapenses;(M) Escuela Militar
444942857;"{\"type\":\"LineString\",\"coordinates\":[[-70.546229,-33.3427706],[-70.54614,-33.3428632],[-70.5461059,-33.3429024],[-70.5460631,-33.3429656],[-70.5460024,-33.3430598],[-70.5458757,-33.3432608],[-70.5458073,-33.3433695],[-70.5457556,-33.3434479],[-70.5457154,-33.3435084],[-70.5456685,-33.3435728],[-70.5456229,-33.3436311],[-70.5455779,-33.3436843],[-70.5455323,-33.3437386],[-70.5454841,-33.3437902],[-70.5454378,-33.3438378],[-70.5453788,-33.3438961],[-70.5453224,-33.3439465],[-70.5452628,-33.3439963],[-70.5452051,-33.3440434],[-70.5451347,-33.344096],[-70.5450608,-33.3441487],[-70.5449925,-33.3441957],[-70.5449148,-33.3442462],[-70.5448443,-33.3442893],[-70.5447531,-33.3443453],[-70.5445654,-33.3444394],[-70.5444004,-33.3445229],[-70.5442382,-33.3446058],[-70.5441771,-33.3446366],[-70.5441342,-33.3446635],[-70.5440886,-33.3446931],[-70.5440544,-33.3447251],[-70.5440243,-33.3447559],[-70.5439796,-33.3448122],[-70.5439632,-33.344831],[-70.5439418,-33.3448651],[-70.5439156,-33.3449161],[-70.5436603,-33.3455674],[-70.5435783,-33.3457712]]}";1;Avenida Los Trapenses;3;60;false;true;true;false;false;false;534.0;0;2;0;0;0;false;Valle de La Unión / Camino Los Trapenses;1175336914;-70.5444401;-33.3445668;Camino Del Abad / Camino Los Trapenses;1175336828;-70.5426458;-33.3482003;1;7;8;6712766;Hacia (M) Escuela Militar;#ED1C24;Redbus Urbano S.A.;C14;Los Trapenses;(M) Escuela Militar
446361633;"{\"type\":\"LineString\",\"coordinates\":[[-70.5435783,-33.3457712],[-70.543044,-33.3472069],[-70.5429927,-33.3473275],[-70.5426724,-33.3479987],[-70.5423698,-33.3486312],[-70.5420867,-33.3491844],[-70.5418152,-33.3497281],[-70.5416764,-33.3500059],[-70.5413105,-33.3507544],[-70.5410355,-33.3512656],[-70.5407988,-33.3517248],[-70.540681,-33.3519489],[-70.5405951,-33.3521145],[-70.5405147,-33.3522802],[-70.5404674,-33.3524059],[-70.5404393,-33.3525066],[-70.5404199,-33.3526238],[-70.5404114,-33.3527547],[-70.5404254,-33.3529587],[-70.5404464,-33.3531203],[-70.540485,-33.3533626],[-70.5405083,-33.3535739],[-70.540505,-33.3537234],[-70.5404775,-33.3539033],[-70.5404547,-33.3540399],[-70.5404193,-33.354237],[-70.5403854,-33.3544334],[-70.5403795,-33.3544762],[-70.5401878,-33.3554948]]}";2;Avenida Los Trapenses;3;60;false;true;true;false;false;false;1420.5;0;3;0;0;0;false;Valle de La Unión / Camino Los Trapenses;1175336914;-70.5444401;-33.3445668;Camino Del Abad / Camino Los Trapenses;1175336828;-70.5426458;-33.3482003;1;7;8;6712766;Hacia (M) Escuela Militar;#ED1C24;Redbus Urbano S.A.;C14;Los Trapenses;(M) Escuela Militar
446361633;"{\"type\":\"LineString\",\"coordinates\":[[-70.5435783,-33.3457712],[-70.543044,-33.3472069],[-70.5429927,-33.3473275],[-70.5426724,-33.3479987],[-70.5423698,-33.3486312],[-70.5420867,-33.3491844],[-70.5418152,-33.3497281],[-70.5416764,-33.3500059],[-70.5413105,-33.3507544],[-70.5410355,-33.3512656],[-70.5407988,-33.3517248],[-70.540681,-33.3519489],[-70.5405951,-33.3521145],[-70.5405147,-33.3522802],[-70.5404674,-33.3524059],[-70.5404393,-33.3525066],[-70.5404199,-33.3526238],[-70.5404114,-33.3527547],[-70.5404254,-33.3529587],[-70.5404464,-33.3531203],[-70.540485,-33.3533626],[-70.5405083,-33.3535739],[-70.540505,-33.3537234],[-70.5404775,-33.3539033],[-70.5404547,-33.3540399],[-70.5404193,-33.354237],[-70.5403854,-33.3544334],[-70.5403795,-33.3544762],[-70.5401878,-33.3554948]]}";1;Avenida Los Trapenses;3;60;false;true;true;false;false;false;1420.5;0;3;0;0;0;false;El Overo / Camino Los Trapenses;1175336880;-70.5403133;-33.3552133;Cerro La Campana / José Alcalde Delano;1175605331;-70.5424545;-33.357524;1;10;11;6712766;Hacia (M) Escuela Militar;#ED1C24;Redbus Urbano S.A.;C14;Los Trapenses;(M) Escuela Militar
185022009;"{\"type\":\"LineString\",\"coordinates\":[[-70.5401878,-33.3554948],[-70.5401879,-33.3556103],[-70.5401915,-33.355684],[-70.5402049,-33.3557629],[-70.5402349,-33.3558553],[-70.5402692,-33.3559299],[-70.5403107,-33.3560039],[-70.5403805,-33.3561002],[-70.5405226,-33.3562189],[-70.5406433,-33.3563029],[-70.5416733,-33.3570031],[-70.5418088,-33.3570972],[-70.5420904,-33.3573111],[-70.5422406,-33.3574242],[-70.5423975,-33.3575732],[-70.5426121,-33.3577883],[-70.5426872,-33.3578667],[-70.5428792,-33.3581248]]}";2;Salida José Alcalde Délano al Poniente;2;50;false;true;true;false;false;false;495.0;0;1;0;0;0;false;El Overo / Camino Los Trapenses;1175336880;-70.5403133;-33.3552133;Cerro La Campana / José Alcalde Delano;1175605331;-70.5424545;-33.357524;1;10;11;6712766;Hacia (M) Escuela Militar;#ED1C24;Redbus Urbano S.A.;C14;Los Trapenses;(M) Escuela Militar
185022009;"{\"type\":\"LineString\",\"coordinates\":[[-70.5401878,-33.3554948],[-70.5401879,-33.3556103],[-70.5401915,-33.355684],[-70.5402049,-33.3557629],[-70.5402349,-33.3558553],[-70.5402692,-33.3559299],[-70.5403107,-33.3560039],[-70.5403805,-33.3561002],[-70.5405226,-33.3562189],[-70.5406433,-33.3563029],[-70.5416733,-33.3570031],[-70.5418088,-33.3570972],[-70.5420904,-33.3573111],[-70.5422406,-33.3574242],[-70.5423975,-33.3575732],[-70.5426121,-33.3577883],[-70.5426872,-33.3578667],[-70.5428792,-33.3581248]]}";1;Salida José Alcalde Délano al Poniente;2;50;false;true;true;false;false;false;495.0;0;1;0;0;0;false;Cerro La Campana / José Alcalde Delano;1175605331;-70.5424545;-33.357524;Manquehue / José Alcalde Delano;1175605362;-70.5444187;-33.3607855;1;11;12;6712766;Hacia (M) Escuela Militar;#ED1C24;Redbus Urbano S.A.;C14;Los Trapenses;(M) Escuela Militar
446013096;"{\"type\":\"LineString\",\"coordinates\":[[-70.5428792,-33.3581248],[-70.5435476,-33.3588503],[-70.5436754,-33.3589979],[-70.5438286,-33.3591846],[-70.5439245,-33.3593392],[-70.5440096,-33.359494],[-70.5441033,-33.3596984],[-70.5441805,-33.3599252],[-70.5442317,-33.3601339],[-70.5442722,-33.3603704],[-70.5443486,-33.3611634],[-70.5443543,-33.3612258],[-70.544359,-33.3612984],[-70.5443637,-33.3615248],[-70.5443684,-33.3617139],[-70.5444027,-33.3620792],[-70.5444912,-33.3627046],[-70.5445572,-33.3632876],[-70.5446448,-33.3639459],[-70.5446743,-33.3643836],[-70.5449081,-33.3658517]]}";2;Avenida José Alcalde Délano;3;50;false;true;true;false;false;false;1121.0;2;1;0;0;0;false;Cerro La Campana / José Alcalde Delano;1175605331;-70.5424545;-33.357524;Manquehue / José Alcalde Delano;1175605362;-70.5444187;-33.3607855;1;11;12;6712766;Hacia (M) Escuela Militar;#ED1C24;Redbus Urbano S.A.;C14;Los Trapenses;(M) Escuela Militar
446013096;"{\"type\":\"LineString\",\"coordinates\":[[-70.5428792,-33.3581248],[-70.5435476,-33.3588503],[-70.5436754,-33.3589979],[-70.5438286,-33.3591846],[-70.5439245,-33.3593392],[-70.5440096,-33.359494],[-70.5441033,-33.3596984],[-70.5441805,-33.3599252],[-70.5442317,-33.3601339],[-70.5442722,-33.3603704],[-70.5443486,-33.3611634],[-70.5443543,-33.3612258],[-70.544359,-33.3612984],[-70.5443637,-33.3615248],[-70.5443684,-33.3617139],[-70.5444027,-33.3620792],[-70.5444912,-33.3627046],[-70.5445572,-33.3632876],[-70.5446448,-33.3639459],[-70.5446743,-33.3643836],[-70.5449081,-33.3658517]]}";1;Avenida José Alcalde Délano;3;50;false;true;true;false;false;false;1121.0;2;1;0;0;0;false;Manquehue / José Alcalde Delano;1175605362;-70.5444187;-33.3607855;Gran Via / Santa Teresa de Los Andes;1175605437;-70.544747;-33.3670076;1;12;13;6712766;Hacia (M) Escuela Militar;#ED1C24;Redbus Urbano S.A.;C14;Los Trapenses;(M) Escuela Militar
24353227;"{\"type\":\"LineString\",\"coordinates\":[[-70.5449081,-33.3658517],[-70.5449229,-33.3660734],[-70.5449095,-33.3662571],[-70.5448076,-33.3666133],[-70.5447533,-33.3667589],[-70.5446797,-33.3669513],[-70.5445674,-33.3672224],[-70.5445137,-33.3673434],[-70.5444494,-33.3675338],[-70.5444172,-33.3676659],[-70.5443823,-33.3678631],[-70.5443877,-33.3679684],[-70.5443957,-33.3681117],[-70.544444,-33.3683156],[-70.5445298,-33.3685821],[-70.5445727,-33.3687725],[-70.5446103,-33.3689495],[-70.5446212,-33.3690459],[-70.5446365,-33.3692338],[-70.5446532,-33.369425],[-70.5446884,-33.3696309],[-70.5447401,-33.3697812],[-70.5448088,-33.3699284],[-70.5452291,-33.3708244],[-70.545313,-33.3710461],[-70.5453753,-33.3712222],[-70.5453978,-33.3713476],[-70.5454204,-33.3715073],[-70.5454187,-33.3716509],[-70.5454058,-33.3718124],[-70.5453901,-33.3719419],[-70.5453546,-33.3720969],[-70.5453035,-33.372257],[-70.5452222,-33.3724441],[-70.545119,-33.3726042],[-70.5450555,-33.3727072],[-70.5449818,-33.3728111],[-70.5448558,-33.3729604],[-70.5447241,-33.3730955],[-70.5445964,-33.3732361],[-70.5442783,-33.3735794],[-70.5440081,-33.3738711],[-70.5427006,-33.3748624],[-70.5426081,-33.3749374],[-70.5425249,-33.3749923],[-70.5424498,-33.375036],[-70.5423479,-33.3750808],[-70.5422674,-33.3751054],[-70.5421869,-33.3751244],[-70.5420864,-33.3751401],[-70.5419549,-33.3751475],[-70.5418275,-33.3751479],[-70.5415137,-33.3751311],[-70.5413568,-33.3751155],[-70.5412307,-33.3751071],[-70.5411436,-33.3751076],[-70.5410309,-33.3751188],[-70.5409357,-33.375139],[-70.5408485,-33.3751614],[-70.5407425,-33.3751967],[-70.5406433,-33.375242],[-70.5405146,-33.375307],[-70.5403402,-33.375419],[-70.5401216,-33.3755388],[-70.5400331,-33.3755814],[-70.5399446,-33.3756127],[-70.5398078,-33.375653],[-70.5393468,-33.3757516]]}";2;Santa Teresa de Los Andes;2;60;false;true;true;false;false;false;1815.0;2;0;0;0;0;false;Manquehue / José Alcalde Delano;1175605362;-70.5444187;-33.3607855;Gran Via / Santa Teresa de Los Andes;1175605437;-70.544747;-33.3670076;1;12;13;6712766;Hacia (M) Escuela Militar;#ED1C24;Redbus Urbano S.A.;C14;Los Trapenses;(M) Escuela Militar
24353227;"{\"type\":\"LineString\",\"coordinates\":[[-70.5449081,-33.3658517],[-70.5449229,-33.3660734],[-70.5449095,-33.3662571],[-70.5448076,-33.3666133],[-70.5447533,-33.3667589],[-70.5446797,-33.3669513],[-70.5445674,-33.3672224],[-70.5445137,-33.3673434],[-70.5444494,-33.3675338],[-70.5444172,-33.3676659],[-70.5443823,-33.3678631],[-70.5443877,-33.3679684],[-70.5443957,-33.3681117],[-70.544444,-33.3683156],[-70.5445298,-33.3685821],[-70.5445727,-33.3687725],[-70.5446103,-33.3689495],[-70.5446212,-33.3690459],[-70.5446365,-33.3692338],[-70.5446532,-33.369425],[-70.5446884,-33.3696309],[-70.5447401,-33.3697812],[-70.5448088,-33.3699284],[-70.5452291,-33.3708244],[-70.545313,-33.3710461],[-70.5453753,-33.3712222],[-70.5453978,-33.3713476],[-70.5454204,-33.3715073],[-70.5454187,-33.3716509],[-70.5454058,-33.3718124],[-70.5453901,-33.3719419],[-70.5453546,-33.3720969],[-70.5453035,-33.372257],[-70.5452222,-33.3724441],[-70.545119,-33.3726042],[-70.5450555,-33.3727072],[-70.5449818,-33.3728111],[-70.5448558,-33.3729604],[-70.5447241,-33.3730955],[-70.5445964,-33.3732361],[-70.5442783,-33.3735794],[-70.5440081,-33.3738711],[-70.5427006,-33.3748624],[-70.5426081,-33.3749374],[-70.5425249,-33.3749923],[-70.5424498,-33.375036],[-70.5423479,-33.3750808],[-70.5422674,-33.3751054],[-70.5421869,-33.3751244],[-70.5420864,-33.3751401],[-70.5419549,-33.3751475],[-70.5418275,-33.3751479],[-70.5415137,-33.3751311],[-70.5413568,-33.3751155],[-70.5412307,-33.3751071],[-70.5411436,-33.3751076],[-70.5410309,-33.3751188],[-70.5409357,-33.375139],[-70.5408485,-33.3751614],[-70.5407425,-33.3751967],[-70.5406433,-33.375242],[-70.5405146,-33.375307],[-70.5403402,-33.375419],[-70.5401216,-33.3755388],[-70.5400331,-33.3755814],[-70.5399446,-33.3756127],[-70.5398078,-33.375653],[-70.5393468,-33.3757516]]}";1;Santa Teresa de Los Andes;2;60;false;true;true;false;false;false;1815.0;2;0;0;0;0;false;Gran Via / Santa Teresa de Los Andes;1175605437;-70.544747;-33.3670076;Gran Via / Sta María;1175333923;-70.5610323;-33.3758246;1;13;14;6712766;Hacia (M) Escuela Militar;#ED1C24;Redbus Urbano S.A.;C14;Los Trapenses;(M) Escuela Militar
30593856;"{\"type\":\"LineString\",\"coordinates\":[[-70.5393468,-33.3757516],[-70.5392472,-33.3757964],[-70.5391735,-33.3758333],[-70.5390691,-33.3759],[-70.5389926,-33.3759534],[-70.538935,-33.3760207],[-70.5388947,-33.3760938],[-70.5388752,-33.376165],[-70.5388683,-33.3762352],[-70.5388729,-33.3763006],[-70.5388867,-33.3763708],[-70.5389132,-33.3764342],[-70.538965,-33.3765064],[-70.5390168,-33.3765612],[-70.5390732,-33.3765977],[-70.5391273,-33.3766246],[-70.5391919,-33.3766518],[-70.5392711,-33.3766764],[-70.5393425,-33.3766901],[-70.5394296,-33.3767024],[-70.5395879,-33.3767248],[-70.5400981,-33.3767456]]}";2;"";1;50;false;true;true;false;false;false;546.0;0;0;0;0;0;false;Gran Via / Santa Teresa de Los Andes;1175605437;-70.544747;-33.3670076;Gran Via / Sta María;1175333923;-70.5610323;-33.3758246;0;13;14;6712766;Hacia (M) Escuela Militar;#ED1C24;Redbus Urbano S.A.;C14;Los Trapenses;(M) Escuela Militar
693347726;"{\"type\":\"LineString\",\"coordinates\":[[-70.5400981,-33.3767456],[-70.540358,-33.3766919],[-70.5405116,-33.3766607],[-70.5406604,-33.3766271],[-70.5408026,-33.3765902],[-70.5409488,-33.3765487],[-70.5410856,-33.3765073],[-70.541221,-33.3764625],[-70.541339,-33.3764188],[-70.5414758,-33.3763606],[-70.5416006,-33.3763024],[-70.5418339,-33.3761948],[-70.5420552,-33.3760829],[-70.5423408,-33.3759339]]}";3;Autopista Costanera Norte;3;100;false;true;true;false;false;false;573.0;0;0;0;0;0;false;Gran Via / Santa Teresa de Los Andes;1175605437;-70.544747;-33.3670076;Gran Via / Sta María;1175333923;-70.5610323;-33.3758246;0;13;14;6712766;Hacia (M) Escuela Militar;#ED1C24;Redbus Urbano S.A.;C14;Los Trapenses;(M) Escuela Militar
693347725;"{\"type\":\"LineString\",\"coordinates\":[[-70.5423408,-33.3759339],[-70.5426238,-33.3757861],[-70.5430409,-33.3755554]]}";4;Autopista Costanera Norte;3;100;false;true;true;false;false;false;194.0;0;0;0;0;0;false;Gran Via / Santa Teresa de Los Andes;1175605437;-70.544747;-33.3670076;Gran Via / Sta María;1175333923;-70.5610323;-33.3758246;0;13;14;6712766;Hacia (M) Escuela Militar;#ED1C24;Redbus Urbano S.A.;C14;Los Trapenses;(M) Escuela Militar
453556400;"{\"type\":\"LineString\",\"coordinates\":[[-70.5430409,-33.3755554],[-70.5435745,-33.3752677],[-70.5438764,-33.3751052],[-70.5441862,-33.3749528],[-70.5443552,-33.3748756],[-70.5445255,-33.3748039],[-70.5446864,-33.3747389],[-70.5448581,-33.3746751],[-70.545015,-33.3746202],[-70.5451639,-33.3745732],[-70.5453033,-33.3745329],[-70.5454361,-33.3744948],[-70.5455662,-33.3744623],[-70.5457003,-33.3744309],[-70.5458331,-33.3744029],[-70.5461335,-33.374347],[-70.5464299,-33.3742966],[-70.5466337,-33.3742686],[-70.5468416,-33.374245],[-70.5470401,-33.3742249],[-70.5472399,-33.3742103],[-70.5475148,-33.3742002],[-70.5477696,-33.3741969],[-70.5479842,-33.3742002],[-70.5481894,-33.3742092],[-70.5484053,-33.3742226],[-70.5486539,-33.3742518],[-70.5489712,-33.3742898],[-70.5492669,-33.3743517],[-70.549588,-33.3744168],[-70.5499142,-33.3744952],[-70.5501963,-33.3745843],[-70.5504894,-33.3746848],[-70.5507642,-33.374778],[-70.5518617,-33.3750973],[-70.5524263,-33.3752743],[-70.5527884,-33.3753717],[-70.5531505,-33.3754568],[-70.5534848,-33.3755251],[-70.5538174,-33.3755811],[-70.554103,-33.3756192],[-70.5544678,-33.3756662],[-70.5551786,-33.3757357],[-70.5571157,-33.375946]]}";5;Autopista Costanera Norte;3;100;false;true;true;false;false;false;3423.0;0;0;0;0;0;false;Gran Via / Santa Teresa de Los Andes;1175605437;-70.544747;-33.3670076;Gran Via / Sta María;1175333923;-70.5610323;-33.3758246;0;13;14;6712766;Hacia (M) Escuela Militar;#ED1C24;Redbus Urbano S.A.;C14;Los Trapenses;(M) Escuela Militar
30594230;"{\"type\":\"LineString\",\"coordinates\":[[-70.5571157,-33.375946],[-70.5582175,-33.3760022],[-70.5583865,-33.3760157],[-70.5586091,-33.3760392],[-70.5587231,-33.3760481],[-70.5588384,-33.3760537],[-70.5590991,-33.3760699]]}";6;"";1;50;false;true;true;false;false;false;463.0;0;0;0;0;0;false;Gran Via / Santa Teresa de Los Andes;1175605437;-70.544747;-33.3670076;Gran Via / Sta María;1175333923;-70.5610323;-33.3758246;0;13;14;6712766;Hacia (M) Escuela Militar;#ED1C24;Redbus Urbano S.A.;C14;Los Trapenses;(M) Escuela Militar
30594276;"{\"type\":\"LineString\",\"coordinates\":[[-70.5590991,-33.3760699],[-70.5592828,-33.376052],[-70.5594115,-33.3760397],[-70.5595752,-33.3760139],[-70.5597052,-33.3759848],[-70.5598796,-33.3759456]]}";7;"";1;50;false;true;true;false;false;false;186.0;0;0;0;0;0;false;Gran Via / Santa Teresa de Los Andes;1175605437;-70.544747;-33.3670076;Gran Via / Sta María;1175333923;-70.5610323;-33.3758246;0;13;14;6712766;Hacia (M) Escuela Militar;#ED1C24;Redbus Urbano S.A.;C14;Los Trapenses;(M) Escuela Militar
30594279;"{\"type\":\"LineString\",\"coordinates\":[[-70.5598796,-33.3759456],[-70.5599989,-33.3759243],[-70.5600794,-33.3759008],[-70.5601813,-33.3758773],[-70.5602377,-33.3758717],[-70.5603718,-33.375846]]}";8;"";1;50;false;true;true;false;false;false;118.0;0;0;0;0;0;false;Gran Via / Santa Teresa de Los Andes;1175605437;-70.544747;-33.3670076;Gran Via / Sta María;1175333923;-70.5610323;-33.3758246;0;13;14;6712766;Hacia (M) Escuela Militar;#ED1C24;Redbus Urbano S.A.;C14;Los Trapenses;(M) Escuela Militar
746775355;"{\"type\":\"LineString\",\"coordinates\":[[-70.5603718,-33.375846],[-70.5604765,-33.375844],[-70.5605905,-33.3758536]]}";9;Avenida Santa María;1;50;false;true;true;false;false;false;52.0;0;0;0;0;0;false;Gran Via / Santa Teresa de Los Andes;1175605437;-70.544747;-33.3670076;Gran Via / Sta María;1175333923;-70.5610323;-33.3758246;0;13;14;6712766;Hacia (M) Escuela Militar;#ED1C24;Redbus Urbano S.A.;C14;Los Trapenses;(M) Escuela Militar
42456070;"{\"type\":\"LineString\",\"coordinates\":[[-70.5605905,-33.3758536],[-70.5609325,-33.3758805],[-70.5611992,-33.3759015],[-70.5613265,-33.3759066],[-70.5615747,-33.3759003],[-70.5617597,-33.3759006],[-70.562106,-33.3758946],[-70.5623166,-33.3758909],[-70.5627496,-33.3758906],[-70.5629933,-33.3758862],[-70.5632406,-33.3758795],[-70.5634209,-33.3758801],[-70.5635694,-33.3758956],[-70.5637268,-33.3759141],[-70.5638551,-33.3759423],[-70.5640392,-33.3759973],[-70.5642447,-33.3760612],[-70.5644365,-33.3761274],[-70.5647681,-33.3762484],[-70.5653917,-33.3764679],[-70.5655473,-33.3765239],[-70.5657149,-33.3765833],[-70.5658611,-33.3766225],[-70.5659979,-33.3766471],[-70.5664555,-33.3767077]]}";10;Avenida Santa María;1;50;false;true;true;false;false;false;703.0;1;0;0;0;0;false;Gran Via / Santa Teresa de Los Andes;1175605437;-70.544747;-33.3670076;Gran Via / Sta María;1175333923;-70.5610323;-33.3758246;1;13;14;6712766;Hacia (M) Escuela Militar;#ED1C24;Redbus Urbano S.A.;C14;Los Trapenses;(M) Escuela Militar
42456070;"{\"type\":\"LineString\",\"coordinates\":[[-70.5605905,-33.3758536],[-70.5609325,-33.3758805],[-70.5611992,-33.3759015],[-70.5613265,-33.3759066],[-70.5615747,-33.3759003],[-70.5617597,-33.3759006],[-70.562106,-33.3758946],[-70.5623166,-33.3758909],[-70.5627496,-33.3758906],[-70.5629933,-33.3758862],[-70.5632406,-33.3758795],[-70.5634209,-33.3758801],[-70.5635694,-33.3758956],[-70.5637268,-33.3759141],[-70.5638551,-33.3759423],[-70.5640392,-33.3759973],[-70.5642447,-33.3760612],[-70.5644365,-33.3761274],[-70.5647681,-33.3762484],[-70.5653917,-33.3764679],[-70.5655473,-33.3765239],[-70.5657149,-33.3765833],[-70.5658611,-33.3766225],[-70.5659979,-33.3766471],[-70.5664555,-33.3767077]]}";1;Avenida Santa María;1;50;false;true;true;false;false;false;703.0;1;0;0;0;0;false;Gran Via / Sta María;1175333923;-70.5610323;-33.3758246;Camino La Bodega / Sta María;1175333902;-70.5667668;-33.3766915;1;14;15;6712766;Hacia (M) Escuela Militar;#ED1C24;Redbus Urbano S.A.;C14;Los Trapenses;(M) Escuela Militar
714075908;"{\"type\":\"LineString\",\"coordinates\":[[-70.5664555,-33.3767077],[-70.5673813,-33.3768262],[-70.5675919,-33.3768515],[-70.567979,-33.3768966],[-70.5685389,-33.3769543],[-70.5690319,-33.3770108],[-70.5691173,-33.3770077],[-70.5691848,-33.3769977],[-70.5692668,-33.3769676],[-70.5694781,-33.3768909]]}";2;Avenida Santa María;3;50;false;true;true;false;false;false;358.0;2;1;0;0;0;false;Gran Via / Sta María;1175333923;-70.5610323;-33.3758246;Camino La Bodega / Sta María;1175333902;-70.5667668;-33.3766915;1;14;15;6712766;Hacia (M) Escuela Militar;#ED1C24;Redbus Urbano S.A.;C14;Los Trapenses;(M) Escuela Militar
714075908;"{\"type\":\"LineString\",\"coordinates\":[[-70.5664555,-33.3767077],[-70.5673813,-33.3768262],[-70.5675919,-33.3768515],[-70.567979,-33.3768966],[-70.5685389,-33.3769543],[-70.5690319,-33.3770108],[-70.5691173,-33.3770077],[-70.5691848,-33.3769977],[-70.5692668,-33.3769676],[-70.5694781,-33.3768909]]}";1;Avenida Santa María;3;50;false;true;true;false;false;false;358.0;2;1;0;0;0;false;Rotonda Lo Curro / Santa María;1175333888;-70.568991;-33.376946;E. Acevedo Diaz / Juan XXIII;1175334088;-70.5689835;-33.3803251;1;16;17;6712766;Hacia (M) Escuela Militar;#ED1C24;Redbus Urbano S.A.;C14;Los Trapenses;(M) Escuela Militar
447083761;"{\"type\":\"LineString\",\"coordinates\":[[-70.5694781,-33.3768909],[-70.569491,-33.3768771],[-70.5695048,-33.3768638],[-70.5695194,-33.3768513],[-70.5695349,-33.3768394],[-70.5695511,-33.3768282],[-70.5695681,-33.3768178],[-70.5695856,-33.3768082],[-70.5696038,-33.3767995],[-70.5696226,-33.3767916],[-70.5696418,-33.3767845],[-70.5696615,-33.3767783],[-70.5696815,-33.3767731],[-70.5697377,-33.3767635],[-70.5697949,-33.3767611],[-70.5698519,-33.3767659],[-70.5699074,-33.3767777],[-70.5699602,-33.3767963],[-70.570009,-33.3768213],[-70.5700529,-33.3768521],[-70.5701045,-33.3769005],[-70.5701257,-33.3769306]]}";2;Rotonda Lo Curro;3;50;false;true;true;false;false;false;180.0;1;0;0;0;0;true;Rotonda Lo Curro / Santa María;1175333888;-70.568991;-33.376946;E. Acevedo Diaz / Juan XXIII;1175334088;-70.5689835;-33.3803251;0;16;17;6712766;Hacia (M) Escuela Militar;#ED1C24;Redbus Urbano S.A.;C14;Los Trapenses;(M) Escuela Militar
654517752;"{\"type\":\"LineString\",\"coordinates\":[[-70.5701257,-33.3769306],[-70.5701415,-33.3769643],[-70.5701476,-33.3769784],[-70.5701529,-33.3769927],[-70.5701574,-33.3770072],[-70.5701611,-33.3770219],[-70.5701639,-33.3770367],[-70.5701659,-33.3770516],[-70.5701671,-33.3770665],[-70.5701674,-33.3770815],[-70.5701669,-33.3770965],[-70.5701656,-33.3771115],[-70.5701634,-33.3771264],[-70.5701603,-33.3771411],[-70.5701565,-33.3771558],[-70.5701518,-33.3771703],[-70.5701463,-33.3771845],[-70.57014,-33.3771986],[-70.5701329,-33.3772124],[-70.5701251,-33.3772259],[-70.5701165,-33.377239],[-70.5701072,-33.3772518],[-70.5700971,-33.3772643],[-70.5700864,-33.3772763],[-70.570075,-33.3772879],[-70.570063,-33.377299],[-70.5700504,-33.3773097],[-70.5700371,-33.3773198],[-70.5700233,-33.3773294],[-70.570009,-33.3773385],[-70.5699942,-33.377347],[-70.569979,-33.3773549],[-70.5699633,-33.3773621],[-70.5699472,-33.3773688]]}";3;Rotonda Lo Curro;3;50;false;true;true;false;false;false;144.0;1;0;0;0;0;true;Rotonda Lo Curro / Santa María;1175333888;-70.568991;-33.376946;E. Acevedo Diaz / Juan XXIII;1175334088;-70.5689835;-33.3803251;0;16;17;6712766;Hacia (M) Escuela Militar;#ED1C24;Redbus Urbano S.A.;C14;Los Trapenses;(M) Escuela Militar
654517751;"{\"type\":\"LineString\",\"coordinates\":[[-70.5699472,-33.3773688],[-70.569914,-33.3773802]]}";4;Rotonda Lo Curro;3;50;false;true;true;false;false;false;9.0;1;0;0;0;0;true;Rotonda Lo Curro / Santa María;1175333888;-70.568991;-33.376946;E. Acevedo Diaz / Juan XXIII;1175334088;-70.5689835;-33.3803251;0;16;17;6712766;Hacia (M) Escuela Militar;#ED1C24;Redbus Urbano S.A.;C14;Los Trapenses;(M) Escuela Militar
447083760;"{\"type\":\"LineString\",\"coordinates\":[[-70.569914,-33.3773802],[-70.569852,-33.377452],[-70.5697899,-33.3775114],[-70.5697463,-33.3775677],[-70.5697182,-33.3776507]]}";5;Rotonda Lo Curro;2;50;false;true;true;false;false;false;90.0;0;0;0;0;0;false;Rotonda Lo Curro / Santa María;1175333888;-70.568991;-33.376946;E. Acevedo Diaz / Juan XXIII;1175334088;-70.5689835;-33.3803251;0;16;17;6712766;Hacia (M) Escuela Militar;#ED1C24;Redbus Urbano S.A.;C14;Los Trapenses;(M) Escuela Militar
26454818;"{\"type\":\"LineString\",\"coordinates\":[[-70.5697182,-33.3776507],[-70.5696221,-33.3781091],[-70.5695636,-33.3784204]]}";6;Puente Lo Curro;2;50;false;true;true;false;false;false;217.0;0;1;0;0;0;false;Rotonda Lo Curro / Santa María;1175333888;-70.568991;-33.376946;E. Acevedo Diaz / Juan XXIII;1175334088;-70.5689835;-33.3803251;0;16;17;6712766;Hacia (M) Escuela Militar;#ED1C24;Redbus Urbano S.A.;C14;Los Trapenses;(M) Escuela Militar
23394012;"{\"type\":\"LineString\",\"coordinates\":[[-70.5695636,-33.3784204],[-70.5695583,-33.3784719],[-70.5695638,-33.3785122],[-70.5695746,-33.3785537],[-70.5695903,-33.3785931],[-70.5696111,-33.3786415],[-70.5696775,-33.378769]]}";7;Puente Lo Curro;2;50;false;true;true;false;false;false;102.0;0;0;0;1;0;false;Rotonda Lo Curro / Santa María;1175333888;-70.568991;-33.376946;E. Acevedo Diaz / Juan XXIII;1175334088;-70.5689835;-33.3803251;0;16;17;6712766;Hacia (M) Escuela Militar;#ED1C24;Redbus Urbano S.A.;C14;Los Trapenses;(M) Escuela Militar
448554811;"{\"type\":\"LineString\",\"coordinates\":[[-70.5696775,-33.378769],[-70.5697383,-33.3788451],[-70.5697714,-33.3789323],[-70.5697744,-33.3790237],[-70.5697659,-33.3790885]]}";8;Rotonda Carol Urzúa;4;50;false;true;true;false;false;false;95.0;0;0;0;0;0;true;Rotonda Lo Curro / Santa María;1175333888;-70.568991;-33.376946;E. Acevedo Diaz / Juan XXIII;1175334088;-70.5689835;-33.3803251;0;16;17;6712766;Hacia (M) Escuela Militar;#ED1C24;Redbus Urbano S.A.;C14;Los Trapenses;(M) Escuela Militar
654536522;"{\"type\":\"LineString\",\"coordinates\":[[-70.5697659,-33.3790885],[-70.5696988,-33.379183],[-70.5696311,-33.3792416],[-70.5695482,-33.3792845],[-70.5694551,-33.3793089],[-70.5693792,-33.3793158]]}";9;Rotonda Carol Urzúa;3;50;false;true;true;false;false;false;117.0;0;0;0;0;0;true;Rotonda Lo Curro / Santa María;1175333888;-70.568991;-33.376946;E. Acevedo Diaz / Juan XXIII;1175334088;-70.5689835;-33.3803251;0;16;17;6712766;Hacia (M) Escuela Militar;#ED1C24;Redbus Urbano S.A.;C14;Los Trapenses;(M) Escuela Militar
26455018;"{\"type\":\"LineString\",\"coordinates\":[[-70.5693792,-33.3793158],[-70.5692699,-33.3793806],[-70.5692307,-33.3793963],[-70.5691817,-33.3794218],[-70.569146,-33.3794454],[-70.5691075,-33.3794795],[-70.569029,-33.3795634]]}";10;Juan XXIII;1;50;false;true;true;false;false;false;108.0;0;0;0;0;0;false;Rotonda Lo Curro / Santa María;1175333888;-70.568991;-33.376946;E. Acevedo Diaz / Juan XXIII;1175334088;-70.5689835;-33.3803251;0;16;17;6712766;Hacia (M) Escuela Militar;#ED1C24;Redbus Urbano S.A.;C14;Los Trapenses;(M) Escuela Militar
447100600;"{\"type\":\"LineString\",\"coordinates\":[[-70.5688803,-33.3818539],[-70.5688061,-33.381606],[-70.5688003,-33.3812946],[-70.5689092,-33.3804113],[-70.5689513,-33.3800689],[-70.568975,-33.3798691],[-70.5689808,-33.3798299],[-70.5689989,-33.3797247],[-70.5690194,-33.3795965],[-70.569029,-33.3795634]]}";11;Avenida Juan XXIII;2;50;false;false;true;false;false;false;320.5;1;0;0;0;0;false;Rotonda Lo Curro / Santa María;1175333888;-70.568991;-33.376946;E. Acevedo Diaz / Juan XXIII;1175334088;-70.5689835;-33.3803251;1;16;17;6712766;Hacia (M) Escuela Militar;#ED1C24;Redbus Urbano S.A.;C14;Los Trapenses;(M) Escuela Militar
447100600;"{\"type\":\"LineString\",\"coordinates\":[[-70.5688803,-33.3818539],[-70.5688061,-33.381606],[-70.5688003,-33.3812946],[-70.5689092,-33.3804113],[-70.5689513,-33.3800689],[-70.568975,-33.3798691],[-70.5689808,-33.3798299],[-70.5689989,-33.3797247],[-70.5690194,-33.3795965],[-70.569029,-33.3795634]]}";1;Avenida Juan XXIII;2;50;false;false;true;false;false;false;320.5;1;0;0;0;0;false;E. Acevedo Diaz / Juan XXIII;1175334088;-70.5689835;-33.3803251;Caribes / Juan XXIII;1175334032;-70.569201;-33.3825203;1;17;18;6712766;Hacia (M) Escuela Militar;#ED1C24;Redbus Urbano S.A.;C14;Los Trapenses;(M) Escuela Militar
447100599;"{\"type\":\"LineString\",\"coordinates\":[[-70.5703884,-33.385518],[-70.5701918,-33.3850492],[-70.5699601,-33.3845119],[-70.5695207,-33.3834421],[-70.5692377,-33.3827559],[-70.5689768,-33.3821131],[-70.5689319,-33.3820017],[-70.5689071,-33.381934],[-70.5688803,-33.3818539]]}";2;Avenida Juan XXIII;2;50;false;false;true;false;false;false;537.5;1;0;0;0;0;false;E. Acevedo Diaz / Juan XXIII;1175334088;-70.5689835;-33.3803251;Caribes / Juan XXIII;1175334032;-70.569201;-33.3825203;1;17;18;6712766;Hacia (M) Escuela Militar;#ED1C24;Redbus Urbano S.A.;C14;Los Trapenses;(M) Escuela Militar
447100599;"{\"type\":\"LineString\",\"coordinates\":[[-70.5703884,-33.385518],[-70.5701918,-33.3850492],[-70.5699601,-33.3845119],[-70.5695207,-33.3834421],[-70.5692377,-33.3827559],[-70.5689768,-33.3821131],[-70.5689319,-33.3820017],[-70.5689071,-33.381934],[-70.5688803,-33.3818539]]}";1;Avenida Juan XXIII;2;50;false;false;true;false;false;false;537.5;1;0;0;0;0;false;Joaquín Cerda / Juan XXIII;1175334051;-70.5703716;-33.3853379;Avenida Juan XXIII esquina Ingeniero Alvarez Albornoz;4502804537;-70.571308;-33.3875561;1;19;20;6712766;Hacia (M) Escuela Militar;#ED1C24;Redbus Urbano S.A.;C14;Los Trapenses;(M) Escuela Militar
621294992;"{\"type\":\"LineString\",\"coordinates\":[[-70.5706283,-33.3860884],[-70.5704967,-33.3857713],[-70.5704262,-33.3856015],[-70.5703884,-33.385518]]}";2;Avenida Juan XXIII;2;50;false;false;true;false;false;false;168.0;1;1;0;0;0;false;Joaquín Cerda / Juan XXIII;1175334051;-70.5703716;-33.3853379;Avenida Juan XXIII esquina Ingeniero Alvarez Albornoz;4502804537;-70.571308;-33.3875561;0;19;20;6712766;Hacia (M) Escuela Militar;#ED1C24;Redbus Urbano S.A.;C14;Los Trapenses;(M) Escuela Militar
621294991;"{\"type\":\"LineString\",\"coordinates\":[[-70.5708338,-33.3865812],[-70.5706283,-33.3860884]]}";3;Avenida Juan XXIII;3;50;false;false;true;false;false;false;145.0;1;0;0;0;0;false;Joaquín Cerda / Juan XXIII;1175334051;-70.5703716;-33.3853379;Avenida Juan XXIII esquina Ingeniero Alvarez Albornoz;4502804537;-70.571308;-33.3875561;0;19;20;6712766;Hacia (M) Escuela Militar;#ED1C24;Redbus Urbano S.A.;C14;Los Trapenses;(M) Escuela Militar
23394076;"{\"type\":\"LineString\",\"coordinates\":[[-70.5720692,-33.3895652],[-70.5717767,-33.3888367],[-70.5715015,-33.3881724],[-70.5714766,-33.3881166],[-70.5714584,-33.3880659],[-70.5712466,-33.3875455],[-70.5710486,-33.3870666],[-70.5710379,-33.38704],[-70.5709776,-33.3869028],[-70.5708707,-33.3866689],[-70.5708338,-33.3865812]]}";4;Avenida Juan XXIII;2;50;false;false;true;false;false;false;438.0;1;3;0;0;0;false;Joaquín Cerda / Juan XXIII;1175334051;-70.5703716;-33.3853379;Avenida Juan XXIII esquina Ingeniero Alvarez Albornoz;4502804537;-70.571308;-33.3875561;1;19;20;6712766;Hacia (M) Escuela Militar;#ED1C24;Redbus Urbano S.A.;C14;Los Trapenses;(M) Escuela Militar
23394076;"{\"type\":\"LineString\",\"coordinates\":[[-70.5720692,-33.3895652],[-70.5717767,-33.3888367],[-70.5715015,-33.3881724],[-70.5714766,-33.3881166],[-70.5714584,-33.3880659],[-70.5712466,-33.3875455],[-70.5710486,-33.3870666],[-70.5710379,-33.38704],[-70.5709776,-33.3869028],[-70.5708707,-33.3866689],[-70.5708338,-33.3865812]]}";1;Avenida Juan XXIII;2;50;false;false;true;false;false;false;438.0;1;3;0;0;0;false;Avenida Juan XXIII esquina Ingeniero Alvarez Albornoz;4502804537;-70.571308;-33.3875561;Parada 1 / Clinica Alemana;1175335147;-70.5724799;-33.3921275;1;20;21;6712766;Hacia (M) Escuela Militar;#ED1C24;Redbus Urbano S.A.;C14;Los Trapenses;(M) Escuela Militar
207742243;"{\"type\":\"LineString\",\"coordinates\":[[-70.5720692,-33.3895652],[-70.5721509,-33.3897194],[-70.5721801,-33.389777],[-70.5722042,-33.3898299],[-70.5722477,-33.3899406],[-70.5722838,-33.3900311],[-70.5723098,-33.3900878],[-70.5723286,-33.3901197],[-70.5723457,-33.3901424],[-70.5723635,-33.39016],[-70.5723822,-33.3901762],[-70.5724134,-33.3902003],[-70.572454,-33.3902275]]}";2;Avenida Juan XXIII;1;50;false;true;true;false;false;false;208.0;0;1;0;1;0;false;Avenida Juan XXIII esquina Ingeniero Alvarez Albornoz;4502804537;-70.571308;-33.3875561;Parada 1 / Clinica Alemana;1175335147;-70.5724799;-33.3921275;0;20;21;6712766;Hacia (M) Escuela Militar;#ED1C24;Redbus Urbano S.A.;C14;Los Trapenses;(M) Escuela Militar
453537176;"{\"type\":\"LineString\",\"coordinates\":[[-70.572454,-33.3902275],[-70.5724921,-33.3902264],[-70.5725303,-33.390228],[-70.5725681,-33.3902321],[-70.5726055,-33.3902387],[-70.5726421,-33.3902478],[-70.5726777,-33.3902593],[-70.572712,-33.3902732]]}";3;Rotonda Irene Frei;3;50;false;false;true;false;false;false;63.0;0;0;0;0;0;true;Avenida Juan XXIII esquina Ingeniero Alvarez Albornoz;4502804537;-70.571308;-33.3875561;Parada 1 / Clinica Alemana;1175335147;-70.5724799;-33.3921275;0;20;21;6712766;Hacia (M) Escuela Militar;#ED1C24;Redbus Urbano S.A.;C14;Los Trapenses;(M) Escuela Militar
453563283;"{\"type\":\"LineString\",\"coordinates\":[[-70.572712,-33.3902732],[-70.5727417,-33.3902876],[-70.57277,-33.3903037],[-70.5727969,-33.3903215],[-70.5728221,-33.3903409],[-70.5728456,-33.3903618],[-70.5728673,-33.390384],[-70.5728869,-33.3904074],[-70.5728986,-33.3904233]]}";4;Rotonda Irene Frei;3;50;false;false;true;false;false;false;61.0;0;0;0;0;0;true;Avenida Juan XXIII esquina Ingeniero Alvarez Albornoz;4502804537;-70.571308;-33.3875561;Parada 1 / Clinica Alemana;1175335147;-70.5724799;-33.3921275;0;20;21;6712766;Hacia (M) Escuela Militar;#ED1C24;Redbus Urbano S.A.;C14;Los Trapenses;(M) Escuela Militar
453563284;"{\"type\":\"LineString\",\"coordinates\":[[-70.5728986,-33.3904233],[-70.5729161,-33.3904508],[-70.5729309,-33.3904793],[-70.572943,-33.3905087],[-70.5729524,-33.3905388],[-70.5729588,-33.3905694],[-70.5729624,-33.3906004],[-70.5729631,-33.3906315]]}";5;Rotonda Irene Frei;3;50;false;false;true;false;false;false;61.0;0;0;0;0;0;true;Avenida Juan XXIII esquina Ingeniero Alvarez Albornoz;4502804537;-70.571308;-33.3875561;Parada 1 / Clinica Alemana;1175335147;-70.5724799;-33.3921275;0;20;21;6712766;Hacia (M) Escuela Militar;#ED1C24;Redbus Urbano S.A.;C14;Los Trapenses;(M) Escuela Militar
453537181;"{\"type\":\"LineString\",\"coordinates\":[[-70.5729631,-33.3906315],[-70.5729611,-33.3906604],[-70.5729565,-33.3906891],[-70.5729495,-33.3907174],[-70.57294,-33.3907452],[-70.5729281,-33.3907724],[-70.5729139,-33.3907988],[-70.5728974,-33.3908243],[-70.5728787,-33.3908487],[-70.572858,-33.3908718],[-70.5728352,-33.3908937],[-70.5728106,-33.3909141],[-70.5727843,-33.390933],[-70.5727565,-33.3909502],[-70.5727272,-33.3909656],[-70.5726966,-33.3909793],[-70.5726649,-33.390991],[-70.5726277,-33.391002],[-70.5725895,-33.3910103],[-70.5725506,-33.391016]]}";6;Rotonda Irene Frei;3;50;false;false;true;false;false;false;157.0;0;0;0;0;0;true;Avenida Juan XXIII esquina Ingeniero Alvarez Albornoz;4502804537;-70.571308;-33.3875561;Parada 1 / Clinica Alemana;1175335147;-70.5724799;-33.3921275;0;20;21;6712766;Hacia (M) Escuela Militar;#ED1C24;Redbus Urbano S.A.;C14;Los Trapenses;(M) Escuela Militar
22371410;"{\"type\":\"LineString\",\"coordinates\":[[-70.5725506,-33.391016],[-70.5724902,-33.3910787],[-70.5724671,-33.3911037],[-70.5724495,-33.3911266],[-70.5724361,-33.3911499],[-70.572427,-33.3911715],[-70.5724206,-33.3911945],[-70.5724174,-33.3912147],[-70.5724168,-33.3912425],[-70.5724251,-33.3914293],[-70.5724244,-33.3918997],[-70.5724237,-33.3919581],[-70.5724093,-33.3922806],[-70.572371,-33.3928115],[-70.5723514,-33.3931372]]}";7;Avenida Manquehue Norte;3;50;false;true;true;false;false;false;299.5;2;1;0;0;0;false;Avenida Juan XXIII esquina Ingeniero Alvarez Albornoz;4502804537;-70.571308;-33.3875561;Parada 1 / Clinica Alemana;1175335147;-70.5724799;-33.3921275;1;20;21;6712766;Hacia (M) Escuela Militar;#ED1C24;Redbus Urbano S.A.;C14;Los Trapenses;(M) Escuela Militar
22371410;"{\"type\":\"LineString\",\"coordinates\":[[-70.5725506,-33.391016],[-70.5724902,-33.3910787],[-70.5724671,-33.3911037],[-70.5724495,-33.3911266],[-70.5724361,-33.3911499],[-70.572427,-33.3911715],[-70.5724206,-33.3911945],[-70.5724174,-33.3912147],[-70.5724168,-33.3912425],[-70.5724251,-33.3914293],[-70.5724244,-33.3918997],[-70.5724237,-33.3919581],[-70.5724093,-33.3922806],[-70.572371,-33.3928115],[-70.5723514,-33.3931372]]}";1;Avenida Manquehue Norte;3;50;false;true;true;false;false;false;299.5;2;1;0;0;0;false;Parada 1 / Clinica Alemana;1175335147;-70.5724799;-33.3921275;Las Hualtatas / Manquehue Norte;1175335171;-70.5722278;-33.394423;1;21;22;6712766;Hacia (M) Escuela Militar;#ED1C24;Redbus Urbano S.A.;C14;Los Trapenses;(M) Escuela Militar
643453653;"{\"type\":\"LineString\",\"coordinates\":[[-70.5723514,-33.3931372],[-70.5723397,-33.39334]]}";2;Avenida Manquehue Norte;3;50;false;true;true;false;false;false;57.0;0;0;0;0;0;false;Parada 1 / Clinica Alemana;1175335147;-70.5724799;-33.3921275;Las Hualtatas / Manquehue Norte;1175335171;-70.5722278;-33.394423;0;21;22;6712766;Hacia (M) Escuela Militar;#ED1C24;Redbus Urbano S.A.;C14;Los Trapenses;(M) Escuela Militar
643453652;"{\"type\":\"LineString\",\"coordinates\":[[-70.5723397,-33.39334],[-70.572314,-33.393555],[-70.5722869,-33.3937018],[-70.5721561,-33.3947129]]}";3;Avenida Manquehue Norte;3;50;false;true;true;false;false;false;192.0;1;0;0;0;0;false;Parada 1 / Clinica Alemana;1175335147;-70.5724799;-33.3921275;Las Hualtatas / Manquehue Norte;1175335171;-70.5722278;-33.394423;1;21;22;6712766;Hacia (M) Escuela Militar;#ED1C24;Redbus Urbano S.A.;C14;Los Trapenses;(M) Escuela Militar
643453652;"{\"type\":\"LineString\",\"coordinates\":[[-70.5723397,-33.39334],[-70.572314,-33.393555],[-70.5722869,-33.3937018],[-70.5721561,-33.3947129]]}";1;Avenida Manquehue Norte;3;50;false;true;true;false;false;false;192.0;1;0;0;0;0;false;Las Hualtatas / Manquehue Norte;1175335171;-70.5722278;-33.394423;Presidente Riesco / Manquehue Norte;1175346321;-70.5702462;-33.4010158;1;22;23;6712766;Hacia (M) Escuela Militar;#ED1C24;Redbus Urbano S.A.;C14;Los Trapenses;(M) Escuela Militar
453529031;"{\"type\":\"LineString\",\"coordinates\":[[-70.5721561,-33.3947129],[-70.5719126,-33.3956774],[-70.5718473,-33.3959634],[-70.5717031,-33.3964963],[-70.5716219,-33.3968248],[-70.5714476,-33.3975023]]}";2;Avenida Manquehue Norte;3;50;false;true;true;false;false;false;792.0;1;0;0;0;0;false;Las Hualtatas / Manquehue Norte;1175335171;-70.5722278;-33.394423;Presidente Riesco / Manquehue Norte;1175346321;-70.5702462;-33.4010158;0;22;23;6712766;Hacia (M) Escuela Militar;#ED1C24;Redbus Urbano S.A.;C14;Los Trapenses;(M) Escuela Militar
238386666;"{\"type\":\"LineString\",\"coordinates\":[[-70.5714476,-33.3975023],[-70.5713982,-33.3976656]]}";3;Avenida Manquehue Norte;4;50;false;true;true;false;false;false;47.0;0;0;0;0;0;false;Las Hualtatas / Manquehue Norte;1175335171;-70.5722278;-33.394423;Presidente Riesco / Manquehue Norte;1175346321;-70.5702462;-33.4010158;0;22;23;6712766;Hacia (M) Escuela Militar;#ED1C24;Redbus Urbano S.A.;C14;Los Trapenses;(M) Escuela Militar
23365235;"{\"type\":\"LineString\",\"coordinates\":[[-70.5713982,-33.3976656],[-70.5712702,-33.398082],[-70.5711025,-33.3984917]]}";4;Avenida Manquehue;4;50;false;true;true;false;false;false;240.0;0;0;0;0;0;false;Las Hualtatas / Manquehue Norte;1175335171;-70.5722278;-33.394423;Presidente Riesco / Manquehue Norte;1175346321;-70.5702462;-33.4010158;0;22;23;6712766;Hacia (M) Escuela Militar;#ED1C24;Redbus Urbano S.A.;C14;Los Trapenses;(M) Escuela Militar
238386669;"{\"type\":\"LineString\",\"coordinates\":[[-70.5711025,-33.3984917],[-70.5709258,-33.3989269],[-70.5707824,-33.3993126],[-70.5706511,-33.3996848]]}";5;Avenida Manquehue;3;50;false;true;true;false;false;false;348.0;0;0;0;0;0;false;Las Hualtatas / Manquehue Norte;1175335171;-70.5722278;-33.394423;Presidente Riesco / Manquehue Norte;1175346321;-70.5702462;-33.4010158;0;22;23;6712766;Hacia (M) Escuela Militar;#ED1C24;Redbus Urbano S.A.;C14;Los Trapenses;(M) Escuela Militar
273065300;"{\"type\":\"LineString\",\"coordinates\":[[-70.5706511,-33.3996848],[-70.5703742,-33.4005257]]}";6;Avenida Manquehue;4;50;false;true;true;false;false;false;242.0;0;0;0;0;0;false;Las Hualtatas / Manquehue Norte;1175335171;-70.5722278;-33.394423;Presidente Riesco / Manquehue Norte;1175346321;-70.5702462;-33.4010158;0;22;23;6712766;Hacia (M) Escuela Militar;#ED1C24;Redbus Urbano S.A.;C14;Los Trapenses;(M) Escuela Militar
273065289;"{\"type\":\"LineString\",\"coordinates\":[[-70.5703742,-33.4005257],[-70.5702894,-33.4007834],[-70.5697381,-33.4022688],[-70.569704,-33.4023772]]}";7;Avenida Manquehue;3;50;false;true;true;false;false;false;268.5;2;1;0;0;0;false;Las Hualtatas / Manquehue Norte;1175335171;-70.5722278;-33.394423;Presidente Riesco / Manquehue Norte;1175346321;-70.5702462;-33.4010158;1;22;23;6712766;Hacia (M) Escuela Militar;#ED1C24;Redbus Urbano S.A.;C14;Los Trapenses;(M) Escuela Militar
273065289;"{\"type\":\"LineString\",\"coordinates\":[[-70.5703742,-33.4005257],[-70.5702894,-33.4007834],[-70.5697381,-33.4022688],[-70.569704,-33.4023772]]}";1;Avenida Manquehue;3;50;false;true;true;false;false;false;268.5;2;1;0;0;0;false;Presidente Riesco / Manquehue Norte;1175346321;-70.5702462;-33.4010158;Rosario Norte / Cerro El Plomo;1175352985;-70.5723175;-33.4049937;1;23;24;6712766;Hacia (M) Escuela Militar;#ED1C24;Redbus Urbano S.A.;C14;Los Trapenses;(M) Escuela Militar
302401060;"{\"type\":\"LineString\",\"coordinates\":[[-70.569704,-33.4023772],[-70.5696746,-33.4024512],[-70.5696525,-33.4025194],[-70.5695292,-33.4028937],[-70.5692515,-33.4036756],[-70.5692133,-33.4037763]]}";2;Avenida Manquehue;3;50;false;true;true;false;false;false;405.0;2;2;0;0;0;false;Presidente Riesco / Manquehue Norte;1175346321;-70.5702462;-33.4010158;Rosario Norte / Cerro El Plomo;1175352985;-70.5723175;-33.4049937;0;23;24;6712766;Hacia (M) Escuela Militar;#ED1C24;Redbus Urbano S.A.;C14;Los Trapenses;(M) Escuela Militar
453535891;"{\"type\":\"LineString\",\"coordinates\":[[-70.5726303,-33.4052034],[-70.5725173,-33.4051572],[-70.5714949,-33.4047337],[-70.5707472,-33.4044242],[-70.5706278,-33.4043748],[-70.570239,-33.4042138],[-70.5699781,-33.4041058],[-70.5693091,-33.4038119],[-70.5692133,-33.4037763]]}";3;Cerro El Plomo;1;50;false;false;true;false;false;false;444.5;2;2;0;0;0;false;Presidente Riesco / Manquehue Norte;1175346321;-70.5702462;-33.4010158;Rosario Norte / Cerro El Plomo;1175352985;-70.5723175;-33.4049937;1;23;24;6712766;Hacia (M) Escuela Militar;#ED1C24;Redbus Urbano S.A.;C14;Los Trapenses;(M) Escuela Militar
453535891;"{\"type\":\"LineString\",\"coordinates\":[[-70.5726303,-33.4052034],[-70.5725173,-33.4051572],[-70.5714949,-33.4047337],[-70.5707472,-33.4044242],[-70.5706278,-33.4043748],[-70.570239,-33.4042138],[-70.5699781,-33.4041058],[-70.5693091,-33.4038119],[-70.5692133,-33.4037763]]}";1;Cerro El Plomo;1;50;false;false;true;false;false;false;444.5;2;2;0;0;0;false;Rosario Norte / Cerro El Plomo;1175352985;-70.5723175;-33.4049937;Warren Smith / Los Militares;1175352808;-70.5755861;-33.407609;1;24;25;6712766;Hacia (M) Escuela Militar;#ED1C24;Redbus Urbano S.A.;C14;Los Trapenses;(M) Escuela Militar
242410769;"{\"type\":\"LineString\",\"coordinates\":[[-70.5719871,-33.4062789],[-70.5720494,-33.4061748],[-70.5723531,-33.405667],[-70.5725757,-33.4052947],[-70.5726303,-33.4052034]]}";2;Rosario Norte;1;60;false;false;true;false;false;false;334.0;2;2;0;0;0;false;Rosario Norte / Cerro El Plomo;1175352985;-70.5723175;-33.4049937;Warren Smith / Los Militares;1175352808;-70.5755861;-33.407609;0;24;25;6712766;Hacia (M) Escuela Militar;#ED1C24;Redbus Urbano S.A.;C14;Los Trapenses;(M) Escuela Militar
441714427;"{\"type\":\"LineString\",\"coordinates\":[[-70.573426,-33.4068394],[-70.5732927,-33.4067868],[-70.5731536,-33.4067302],[-70.5730606,-33.4066921],[-70.5729746,-33.4066578],[-70.5720537,-33.4063018],[-70.5719871,-33.4062789]]}";3;Los Militares;4;50;false;false;true;false;false;false;370.0;2;2;0;0;0;false;Rosario Norte / Cerro El Plomo;1175352985;-70.5723175;-33.4049937;Warren Smith / Los Militares;1175352808;-70.5755861;-33.407609;0;24;25;6712766;Hacia (M) Escuela Militar;#ED1C24;Redbus Urbano S.A.;C14;Los Trapenses;(M) Escuela Militar
453564443;"{\"type\":\"LineString\",\"coordinates\":[[-70.5757741,-33.4078724],[-70.5754087,-33.4077054],[-70.5749095,-33.4074751],[-70.574368,-33.4072334],[-70.5738335,-33.4070091],[-70.5737175,-33.4069619],[-70.573426,-33.4068394]]}";4;Los Militares;3;50;false;false;true;false;false;false;309.0;2;1;0;0;0;false;Rosario Norte / Cerro El Plomo;1175352985;-70.5723175;-33.4049937;Warren Smith / Los Militares;1175352808;-70.5755861;-33.407609;1;24;25;6712766;Hacia (M) Escuela Militar;#ED1C24;Redbus Urbano S.A.;C14;Los Trapenses;(M) Escuela Militar
453564443;"{\"type\":\"LineString\",\"coordinates\":[[-70.5757741,-33.4078724],[-70.5754087,-33.4077054],[-70.5749095,-33.4074751],[-70.574368,-33.4072334],[-70.5738335,-33.4070091],[-70.5737175,-33.4069619],[-70.573426,-33.4068394]]}";1;Los Militares;3;50;false;false;true;false;false;false;309.0;2;1;0;0;0;false;Warren Smith / Los Militares;1175352808;-70.5755861;-33.407609;Alonso de Cordova / Los Militares;1175352823;-70.573319;-33.406695;1;25;26;6712766;Hacia (M) Escuela Militar;#ED1C24;Redbus Urbano S.A.;C14;Los Trapenses;(M) Escuela Militar
441714427;"{\"type\":\"LineString\",\"coordinates\":[[-70.573426,-33.4068394],[-70.5732927,-33.4067868],[-70.5731536,-33.4067302],[-70.5730606,-33.4066921],[-70.5729746,-33.4066578],[-70.5720537,-33.4063018],[-70.5719871,-33.4062789]]}";2;Los Militares;4;50;false;false;true;false;false;false;185.0;2;2;0;0;0;false;Warren Smith / Los Militares;1175352808;-70.5755861;-33.407609;Alonso de Cordova / Los Militares;1175352823;-70.573319;-33.406695;1;25;26;6712766;Hacia (M) Escuela Militar;#ED1C24;Redbus Urbano S.A.;C14;Los Trapenses;(M) Escuela Militar
441714427;"{\"type\":\"LineString\",\"coordinates\":[[-70.573426,-33.4068394],[-70.5732927,-33.4067868],[-70.5731536,-33.4067302],[-70.5730606,-33.4066921],[-70.5729746,-33.4066578],[-70.5720537,-33.4063018],[-70.5719871,-33.4062789]]}";1;Los Militares;4;50;false;false;true;false;false;false;185.0;2;2;0;0;0;false;Alonso de Cordova / Los Militares;1175352823;-70.573319;-33.406695;Avenida Apoquindo / Warren Smith;1175352962;-70.5743695;-33.410587;1;26;27;6712766;Hacia (M) Escuela Militar;#ED1C24;Redbus Urbano S.A.;C14;Los Trapenses;(M) Escuela Militar
453564443;"{\"type\":\"LineString\",\"coordinates\":[[-70.5757741,-33.4078724],[-70.5754087,-33.4077054],[-70.5749095,-33.4074751],[-70.574368,-33.4072334],[-70.5738335,-33.4070091],[-70.5737175,-33.4069619],[-70.573426,-33.4068394]]}";2;Los Militares;3;50;false;false;true;false;false;false;618.0;2;1;0;0;0;false;Alonso de Cordova / Los Militares;1175352823;-70.573319;-33.406695;Avenida Apoquindo / Warren Smith;1175352962;-70.5743695;-33.410587;0;26;27;6712766;Hacia (M) Escuela Militar;#ED1C24;Redbus Urbano S.A.;C14;Los Trapenses;(M) Escuela Militar
23363789;"{\"type\":\"LineString\",\"coordinates\":[[-70.5757741,-33.4078724],[-70.5755743,-33.4082455],[-70.5755421,-33.4083055],[-70.5754425,-33.4084989],[-70.5754349,-33.4085144],[-70.5753113,-33.4087427],[-70.5752327,-33.4088837],[-70.575169,-33.4090072],[-70.5748745,-33.4095628],[-70.5748307,-33.4096453],[-70.5747491,-33.4097992],[-70.5746543,-33.4099781],[-70.5746495,-33.4099871],[-70.5746042,-33.4100713],[-70.5744788,-33.4103048],[-70.5743278,-33.4106533],[-70.5742768,-33.4107593]]}";3;Warren Smith;1;50;false;true;true;false;false;false;437.0;1;1;0;0;0;false;Alonso de Cordova / Los Militares;1175352823;-70.573319;-33.406695;Avenida Apoquindo / Warren Smith;1175352962;-70.5743695;-33.410587;1;26;27;6712766;Hacia (M) Escuela Militar;#ED1C24;Redbus Urbano S.A.;C14;Los Trapenses;(M) Escuela Militar
23363789;"{\"type\":\"LineString\",\"coordinates\":[[-70.5757741,-33.4078724],[-70.5755743,-33.4082455],[-70.5755421,-33.4083055],[-70.5754425,-33.4084989],[-70.5754349,-33.4085144],[-70.5753113,-33.4087427],[-70.5752327,-33.4088837],[-70.575169,-33.4090072],[-70.5748745,-33.4095628],[-70.5748307,-33.4096453],[-70.5747491,-33.4097992],[-70.5746543,-33.4099781],[-70.5746495,-33.4099871],[-70.5746042,-33.4100713],[-70.5744788,-33.4103048],[-70.5743278,-33.4106533],[-70.5742768,-33.4107593]]}";1;Warren Smith;1;50;false;true;true;false;false;false;437.0;1;1;0;0;0;false;Avenida Apoquindo / Warren Smith;1175352962;-70.5743695;-33.410587;La Gloria / Avenida Apoquindo;1175607775;-70.5755588;-33.4111194;1;27;28;6712766;Hacia (M) Escuela Militar;#ED1C24;Redbus Urbano S.A.;C14;Los Trapenses;(M) Escuela Militar
238959514;"{\"type\":\"LineString\",\"coordinates\":[[-70.5742768,-33.4107593],[-70.5743539,-33.4107836],[-70.5744123,-33.4108019],[-70.5747593,-33.4109107],[-70.5751657,-33.4110383],[-70.5758401,-33.4112498],[-70.5759293,-33.4112778],[-70.5760108,-33.4113034]]}";2;Avenida Apoquindo;3;50;false;true;true;false;false;false;215.5;3;2;0;0;0;false;Avenida Apoquindo / Warren Smith;1175352962;-70.5743695;-33.410587;La Gloria / Avenida Apoquindo;1175607775;-70.5755588;-33.4111194;1;27;28;6712766;Hacia (M) Escuela Militar;#ED1C24;Redbus Urbano S.A.;C14;Los Trapenses;(M) Escuela Militar
238959514;"{\"type\":\"LineString\",\"coordinates\":[[-70.5742768,-33.4107593],[-70.5743539,-33.4107836],[-70.5744123,-33.4108019],[-70.5747593,-33.4109107],[-70.5751657,-33.4110383],[-70.5758401,-33.4112498],[-70.5759293,-33.4112778],[-70.5760108,-33.4113034]]}";1;Avenida Apoquindo;3;50;false;true;true;false;false;false;215.5;3;2;0;0;0;false;La Gloria / Avenida Apoquindo;1175607775;-70.5755588;-33.4111194;Omnium;1175607797;-70.5780753;-33.4118713;1;28;29;6712766;Hacia (M) Escuela Militar;#ED1C24;Redbus Urbano S.A.;C14;Los Trapenses;(M) Escuela Militar
238959516;"{\"type\":\"LineString\",\"coordinates\":[[-70.5760108,-33.4113034],[-70.5760896,-33.4113285],[-70.5770886,-33.4116385]]}";2;Avenida Apoquindo;3;50;false;true;true;false;false;false;268.0;1;1;0;0;0;false;La Gloria / Avenida Apoquindo;1175607775;-70.5755588;-33.4111194;Omnium;1175607797;-70.5780753;-33.4118713;0;28;29;6712766;Hacia (M) Escuela Militar;#ED1C24;Redbus Urbano S.A.;C14;Los Trapenses;(M) Escuela Militar
445128892;"{\"type\":\"LineString\",\"coordinates\":[[-70.5770886,-33.4116385],[-70.5772407,-33.4116842],[-70.5784081,-33.4119945],[-70.5796153,-33.4123212],[-70.5796732,-33.4123369],[-70.580252,-33.4124936],[-70.580877,-33.4126951],[-70.5813062,-33.4128682],[-70.581375,-33.4128984]]}";3;Avenida Apoquindo;3;50;false;true;true;false;false;false;529.5;2;2;0;0;0;false;La Gloria / Avenida Apoquindo;1175607775;-70.5755588;-33.4111194;Omnium;1175607797;-70.5780753;-33.4118713;1;28;29;6712766;Hacia (M) Escuela Militar;#ED1C24;Redbus Urbano S.A.;C14;Los Trapenses;(M) Escuela Militar
445128892;"{\"type\":\"LineString\",\"coordinates\":[[-70.5770886,-33.4116385],[-70.5772407,-33.4116842],[-70.5784081,-33.4119945],[-70.5796153,-33.4123212],[-70.5796732,-33.4123369],[-70.580252,-33.4124936],[-70.580877,-33.4126951],[-70.5813062,-33.4128682],[-70.581375,-33.4128984]]}";1;Avenida Apoquindo;3;50;false;true;true;false;false;false;529.5;2;2;0;0;0;false;Omnium;1175607797;-70.5780753;-33.4118713;Parada 1 / (M) Escuela Militar;1175278652;-70.5819402;-33.4130789;1;29;30;6712766;Hacia (M) Escuela Militar;#ED1C24;Redbus Urbano S.A.;C14;Los Trapenses;(M) Escuela Militar
238959523;"{\"type\":\"LineString\",\"coordinates\":[[-70.581375,-33.4128984],[-70.5819272,-33.4131262]]}";2;Avenida Apoquindo;3;50;false;true;true;false;true;false;144.0;1;0;0;0;0;false;Omnium;1175607797;-70.5780753;-33.4118713;Parada 1 / (M) Escuela Militar;1175278652;-70.5819402;-33.4130789;1;29;30;6712766;Hacia (M) Escuela Militar;#ED1C24;Redbus Urbano S.A.;C14;Los Trapenses;(M) Escuela Militar
