way_id;shape;index;name;nb_lanes;legal_speed;speed_zone_30;oneway;shares_bike;bike_box;bus_lane;dedicated_bus_lane;length;nb_traffic_signals;nb_crossings;nb_stops;nb_give_ways;nb_lvl_crossings;roundabout;stop_id_orig;node_id_orig;coord_x_orig;coord_y_orig;stop_id_dest;node_id_dest;coord_x_dest;coord_y_dest;nb_neighbouring_ways_bus_stop;ordre_orig;ordre_dest;id_line;line_name;colour;operator;ref;from;to
411198616;"{\"type\":\"LineString\",\"coordinates\":[[-73.6131459,45.4927605],[-73.6134356,45.4929019],[-73.6136472,45.4929666],[-73.6137321,45.4929628],[-73.6137754,45.4929525],[-73.6138179,45.4929283],[-73.6138401,45.4928939],[-73.6138249,45.4928345],[-73.6137219,45.4927687],[-73.6135855,45.4927477],[-73.6134215,45.4927535],[-73.6131459,45.4927605]]}";1;Avenue Ridgewood;2;50;false;true;true;false;false;false;128.0;0;0;0;0;0;false;53833;4738339832;-73.613385;45.492699;53741;4738339834;-73.6121198;45.4923092;1;0;1;5909292;Bus 11 : Parc-du-Mont-Royal / Ridgewood Est;"";STM;11-E;Ridgewood / No 3635;Christophe-Colomb / Rachel
393872217;"{\"type\":\"LineString\",\"coordinates\":[[-73.6102919,45.4957305],[-73.6102065,45.4954785],[-73.61012,45.4953054],[-73.6099535,45.4951589],[-73.6097471,45.4950058],[-73.6096473,45.494866],[-73.6096206,45.4946928],[-73.6096541,45.4945674],[-73.6097347,45.4944561],[-73.6098782,45.4943466],[-73.6100491,45.4942888],[-73.6103343,45.4942588],[-73.6118896,45.4942343],[-73.6121375,45.4941943],[-73.612325,45.4940871],[-73.6124558,45.493959],[-73.6124953,45.4938622],[-73.6124534,45.4937203],[-73.6123917,45.4936199],[-73.6122979,45.49353],[-73.6121301,45.4934625],[-73.611903,45.49344],[-73.611658,45.4934345],[-73.6114982,45.4933946],[-73.6113317,45.4933014],[-73.6112385,45.4931882],[-73.6111946,45.4930783],[-73.6111854,45.4929613],[-73.6112319,45.492842],[-73.6113916,45.4926289],[-73.6115376,45.4925193],[-73.6116511,45.4924568],[-73.6118311,45.4923959],[-73.612018,45.4923536],[-73.6121508,45.4923581],[-73.612357,45.4924092],[-73.6131459,45.4927605]]}";2;Avenue Ridgewood;2;50;false;false;true;false;false;false;764.0;1;0;0;0;0;false;53833;4738339832;-73.613385;45.492699;53741;4738339834;-73.6121198;45.4923092;2;0;1;5909292;Bus 11 : Parc-du-Mont-Royal / Ridgewood Est;"";STM;11-E;Ridgewood / No 3635;Christophe-Colomb / Rachel
393872217;"{\"type\":\"LineString\",\"coordinates\":[[-73.6102919,45.4957305],[-73.6102065,45.4954785],[-73.61012,45.4953054],[-73.6099535,45.4951589],[-73.6097471,45.4950058],[-73.6096473,45.494866],[-73.6096206,45.4946928],[-73.6096541,45.4945674],[-73.6097347,45.4944561],[-73.6098782,45.4943466],[-73.6100491,45.4942888],[-73.6103343,45.4942588],[-73.6118896,45.4942343],[-73.6121375,45.4941943],[-73.612325,45.4940871],[-73.6124558,45.493959],[-73.6124953,45.4938622],[-73.6124534,45.4937203],[-73.6123917,45.4936199],[-73.6122979,45.49353],[-73.6121301,45.4934625],[-73.611903,45.49344],[-73.611658,45.4934345],[-73.6114982,45.4933946],[-73.6113317,45.4933014],[-73.6112385,45.4931882],[-73.6111946,45.4930783],[-73.6111854,45.4929613],[-73.6112319,45.492842],[-73.6113916,45.4926289],[-73.6115376,45.4925193],[-73.6116511,45.4924568],[-73.6118311,45.4923959],[-73.612018,45.4923536],[-73.6121508,45.4923581],[-73.612357,45.4924092],[-73.6131459,45.4927605]]}";1;Avenue Ridgewood;2;50;false;false;true;false;false;false;382.0;1;0;0;0;0;false;51428;4738339840;-73.6100914;45.4954707;51487;6010971110;-73.607597;45.495509;1;6;7;5909292;Bus 11 : Parc-du-Mont-Royal / Ridgewood Est;"";STM;11-E;Ridgewood / No 3635;Christophe-Colomb / Rachel
393872214;"{\"type\":\"LineString\",\"coordinates\":[[-73.6102919,45.4957305],[-73.6096575,45.4958342],[-73.6093967,45.4958663],[-73.6090938,45.4958819],[-73.6087552,45.4958657]]}";2;Chemin de la Côte-des-Neiges;3;50;false;true;true;false;false;false;122.0;2;0;0;0;0;false;51428;4738339840;-73.6100914;45.4954707;51487;6010971110;-73.607597;45.495509;0;6;7;5909292;Bus 11 : Parc-du-Mont-Royal / Ridgewood Est;"";STM;11-E;Ridgewood / No 3635;Christophe-Colomb / Rachel
433808921;"{\"type\":\"LineString\",\"coordinates\":[[-73.6087552,45.4958657],[-73.6084227,45.4957961],[-73.6073731,45.4954887]]}";3;Chemin de la Côte-des-Neiges;3;50;false;true;true;false;false;false;58.0;2;0;0;0;0;false;51428;4738339840;-73.6100914;45.4954707;51487;6010971110;-73.607597;45.495509;1;6;7;5909292;Bus 11 : Parc-du-Mont-Royal / Ridgewood Est;"";STM;11-E;Ridgewood / No 3635;Christophe-Colomb / Rachel
4872830;"{\"type\":\"LineString\",\"coordinates\":[[-73.6073731,45.4954887],[-73.6069194,45.4953565],[-73.6054049,45.4949595],[-73.6049285,45.494859],[-73.6046008,45.4948079]]}";1;Chemin de la Côte-des-Neiges;3;50;false;true;true;false;false;false;230.0;1;0;0;0;0;false;51487;6010971110;-73.607597;45.495509;51544;4738339841;-73.603343;45.4965;2;7;8;5909292;Bus 11 : Parc-du-Mont-Royal / Ridgewood Est;"";STM;11-E;Ridgewood / No 3635;Christophe-Colomb / Rachel
393872765;"{\"type\":\"LineString\",\"coordinates\":[[-73.6046008,45.4948079],[-73.6043929,45.4948211],[-73.6041962,45.4948635],[-73.6040362,45.4949228],[-73.6039442,45.494993],[-73.603878,45.495066],[-73.6038411,45.4951441],[-73.6038194,45.495271],[-73.6038261,45.495366],[-73.6038651,45.4954632],[-73.6039104,45.4955508],[-73.6039674,45.4956558],[-73.6039869,45.4957196],[-73.603988,45.4958139],[-73.6039573,45.4959239],[-73.6038837,45.4960229],[-73.6038168,45.496097]]}";2;Chemin Remembrance;1;50;false;true;true;false;false;false;187.0;0;0;0;0;0;false;51487;6010971110;-73.607597;45.495509;51544;4738339841;-73.603343;45.4965;0;7;8;5909292;Bus 11 : Parc-du-Mont-Royal / Ridgewood Est;"";STM;11-E;Ridgewood / No 3635;Christophe-Colomb / Rachel
393872824;"{\"type\":\"LineString\",\"coordinates\":[[-73.6038168,45.496097],[-73.6031465,45.4967094],[-73.6028975,45.4968834],[-73.6024846,45.4971419],[-73.6022448,45.497263],[-73.6014714,45.497557],[-73.6014174,45.497617],[-73.6014005,45.4976566],[-73.6013979,45.4977162]]}";3;Chemin Remembrance;2;50;false;true;true;false;false;false;268.0;0;0;1;0;0;false;51487;6010971110;-73.607597;45.495509;51544;4738339841;-73.603343;45.4965;2;7;8;5909292;Bus 11 : Parc-du-Mont-Royal / Ridgewood Est;"";STM;11-E;Ridgewood / No 3635;Christophe-Colomb / Rachel
393872824;"{\"type\":\"LineString\",\"coordinates\":[[-73.6038168,45.496097],[-73.6031465,45.4967094],[-73.6028975,45.4968834],[-73.6024846,45.4971419],[-73.6022448,45.497263],[-73.6014714,45.497557],[-73.6014174,45.497617],[-73.6014005,45.4976566],[-73.6013979,45.4977162]]}";1;Chemin Remembrance;2;50;false;true;true;false;false;false;134.0;0;0;1;0;0;false;51544;4738339841;-73.603343;45.4965;53992;4325318890;-73.6005661;45.4993331;1;8;9;5909292;Bus 11 : Parc-du-Mont-Royal / Ridgewood Est;"";STM;11-E;Ridgewood / No 3635;Christophe-Colomb / Rachel
118255253;"{\"type\":\"LineString\",\"coordinates\":[[-73.6013979,45.4977162],[-73.6014155,45.4977512],[-73.6014468,45.4977854],[-73.6015125,45.4978417],[-73.6015737,45.4978933],[-73.6016487,45.4979852],[-73.6016916,45.4981028],[-73.6016866,45.4981954],[-73.6016391,45.4984719]]}";2;Chemin Remembrance;1;50;false;true;true;false;false;false;91.0;0;0;1;0;0;false;51544;4738339841;-73.603343;45.4965;53992;4325318890;-73.6005661;45.4993331;0;8;9;5909292;Bus 11 : Parc-du-Mont-Royal / Ridgewood Est;"";STM;11-E;Ridgewood / No 3635;Christophe-Colomb / Rachel
636899611;"{\"type\":\"LineString\",\"coordinates\":[[-73.5942099,45.5032546],[-73.5943403,45.5031268],[-73.5945418,45.5029609],[-73.5947878,45.5028065],[-73.5950281,45.5026867],[-73.5952813,45.5025937],[-73.5955612,45.5025075],[-73.5961537,45.502318],[-73.5961693,45.5023128],[-73.5963172,45.5022636],[-73.5964738,45.5022096],[-73.5969456,45.5020258],[-73.5973018,45.5018681],[-73.5977512,45.5016363],[-73.5979102,45.5015478],[-73.5980783,45.5014492],[-73.5981467,45.5014052],[-73.5983672,45.5012633],[-73.5987225,45.5010135],[-73.599367,45.5004839],[-73.5995368,45.500341],[-73.5997099,45.5001981],[-73.6004351,45.4995603],[-73.6005305,45.499478],[-73.6007766,45.4992656],[-73.6012786,45.4988045],[-73.6016391,45.4984719]]}";3;Chemin Remembrance;2;50;false;false;true;false;false;false;400.0;0;0;4;0;0;false;51544;4738339841;-73.603343;45.4965;53992;4325318890;-73.6005661;45.4993331;1;8;9;5909292;Bus 11 : Parc-du-Mont-Royal / Ridgewood Est;"";STM;11-E;Ridgewood / No 3635;Christophe-Colomb / Rachel
636899611;"{\"type\":\"LineString\",\"coordinates\":[[-73.5942099,45.5032546],[-73.5943403,45.5031268],[-73.5945418,45.5029609],[-73.5947878,45.5028065],[-73.5950281,45.5026867],[-73.5952813,45.5025937],[-73.5955612,45.5025075],[-73.5961537,45.502318],[-73.5961693,45.5023128],[-73.5963172,45.5022636],[-73.5964738,45.5022096],[-73.5969456,45.5020258],[-73.5973018,45.5018681],[-73.5977512,45.5016363],[-73.5979102,45.5015478],[-73.5980783,45.5014492],[-73.5981467,45.5014052],[-73.5983672,45.5012633],[-73.5987225,45.5010135],[-73.599367,45.5004839],[-73.5995368,45.500341],[-73.5997099,45.5001981],[-73.6004351,45.4995603],[-73.6005305,45.499478],[-73.6007766,45.4992656],[-73.6012786,45.4988045],[-73.6016391,45.4984719]]}";1;Chemin Remembrance;2;50;false;false;true;false;false;false;400.0;0;0;4;0;0;false;54351;4325314487;-73.5964212;45.5021524;61755;4325314488;-73.5940587;45.5033173;1;10;11;5909292;Bus 11 : Parc-du-Mont-Royal / Ridgewood Est;"";STM;11-E;Ridgewood / No 3635;Christophe-Colomb / Rachel
4886357;"{\"type\":\"LineString\",\"coordinates\":[[-73.5917141,45.5075132],[-73.592742,45.5064108],[-73.5930416,45.5060694],[-73.593208,45.5058224],[-73.5933286,45.5055846],[-73.5934222,45.5053497],[-73.5934864,45.5050209],[-73.5935089,45.5048175],[-73.5935403,45.5044034],[-73.5935593,45.5042833],[-73.5936075,45.5041311],[-73.593669,45.5039713],[-73.5937397,45.5038195],[-73.5938313,45.5036736],[-73.5939764,45.5034863],[-73.594099,45.5033563],[-73.5942099,45.5032546]]}";2;Voie Camillien-Houde;2;40;false;false;false;false;false;false;261.0;0;0;1;0;0;false;54351;4325314487;-73.5964212;45.5021524;61755;4325314488;-73.5940587;45.5033173;1;10;11;5909292;Bus 11 : Parc-du-Mont-Royal / Ridgewood Est;"";STM;11-E;Ridgewood / No 3635;Christophe-Colomb / Rachel
636899611;"{\"type\":\"LineString\",\"coordinates\":[[-73.5942099,45.5032546],[-73.5943403,45.5031268],[-73.5945418,45.5029609],[-73.5947878,45.5028065],[-73.5950281,45.5026867],[-73.5952813,45.5025937],[-73.5955612,45.5025075],[-73.5961537,45.502318],[-73.5961693,45.5023128],[-73.5963172,45.5022636],[-73.5964738,45.5022096],[-73.5969456,45.5020258],[-73.5973018,45.5018681],[-73.5977512,45.5016363],[-73.5979102,45.5015478],[-73.5980783,45.5014492],[-73.5981467,45.5014052],[-73.5983672,45.5012633],[-73.5987225,45.5010135],[-73.599367,45.5004839],[-73.5995368,45.500341],[-73.5997099,45.5001981],[-73.6004351,45.4995603],[-73.6005305,45.499478],[-73.6007766,45.4992656],[-73.6012786,45.4988045],[-73.6016391,45.4984719]]}";1;Chemin Remembrance;2;50;false;false;true;false;false;false;800.0;0;0;4;0;0;false;61755;4325314488;-73.5940587;45.5033173;53747;1423604490;-73.5931674;45.5106447;2;11;12;5909292;Bus 11 : Parc-du-Mont-Royal / Ridgewood Est;"";STM;11-E;Ridgewood / No 3635;Christophe-Colomb / Rachel
4886357;"{\"type\":\"LineString\",\"coordinates\":[[-73.5917141,45.5075132],[-73.592742,45.5064108],[-73.5930416,45.5060694],[-73.593208,45.5058224],[-73.5933286,45.5055846],[-73.5934222,45.5053497],[-73.5934864,45.5050209],[-73.5935089,45.5048175],[-73.5935403,45.5044034],[-73.5935593,45.5042833],[-73.5936075,45.5041311],[-73.593669,45.5039713],[-73.5937397,45.5038195],[-73.5938313,45.5036736],[-73.5939764,45.5034863],[-73.594099,45.5033563],[-73.5942099,45.5032546]]}";2;Voie Camillien-Houde;2;40;false;false;false;false;false;false;522.0;0;0;1;0;0;false;61755;4325314488;-73.5940587;45.5033173;53747;1423604490;-73.5931674;45.5106447;0;11;12;5909292;Bus 11 : Parc-du-Mont-Royal / Ridgewood Est;"";STM;11-E;Ridgewood / No 3635;Christophe-Colomb / Rachel
697467547;"{\"type\":\"LineString\",\"coordinates\":[[-73.5913558,45.507949],[-73.5914959,45.5077649],[-73.5917141,45.5075132]]}";3;Voie Camillien-Houde;2;40;false;false;false;false;false;false;56.0;0;0;0;0;0;false;61755;4325314488;-73.5940587;45.5033173;53747;1423604490;-73.5931674;45.5106447;0;11;12;5909292;Bus 11 : Parc-du-Mont-Royal / Ridgewood Est;"";STM;11-E;Ridgewood / No 3635;Christophe-Colomb / Rachel
606294779;"{\"type\":\"LineString\",\"coordinates\":[[-73.591166,45.5083493],[-73.5911767,45.5083195],[-73.5912087,45.5082332],[-73.5912642,45.5081177],[-73.5913558,45.507949]]}";4;Voie Camillien-Houde;1;40;false;false;false;false;false;false;47.0;0;0;0;0;0;false;61755;4325314488;-73.5940587;45.5033173;53747;1423604490;-73.5931674;45.5106447;0;11;12;5909292;Bus 11 : Parc-du-Mont-Royal / Ridgewood Est;"";STM;11-E;Ridgewood / No 3635;Christophe-Colomb / Rachel
602901214;"{\"type\":\"LineString\",\"coordinates\":[[-73.5912716,45.5095317],[-73.5911836,45.5093994],[-73.5911239,45.5092276],[-73.5910958,45.5090781],[-73.5910782,45.5088709],[-73.5910876,45.5086723],[-73.5911124,45.5085429],[-73.591166,45.5083493]]}";5;Voie Camillien-Houde;2;40;false;false;false;false;false;false;135.0;0;0;0;0;0;false;61755;4325314488;-73.5940587;45.5033173;53747;1423604490;-73.5931674;45.5106447;0;11;12;5909292;Bus 11 : Parc-du-Mont-Royal / Ridgewood Est;"";STM;11-E;Ridgewood / No 3635;Christophe-Colomb / Rachel
561497223;"{\"type\":\"LineString\",\"coordinates\":[[-73.5912716,45.5095317],[-73.5914264,45.5096883],[-73.5914814,45.5097386],[-73.5917083,45.5098625],[-73.5920021,45.5099998],[-73.592164,45.5100441]]}";6;Voie Camillien-Houde;1;40;false;true;false;false;false;false;92.0;0;0;0;0;0;false;61755;4325314488;-73.5940587;45.5033173;53747;1423604490;-73.5931674;45.5106447;0;11;12;5909292;Bus 11 : Parc-du-Mont-Royal / Ridgewood Est;"";STM;11-E;Ridgewood / No 3635;Christophe-Colomb / Rachel
410948561;"{\"type\":\"LineString\",\"coordinates\":[[-73.5933968,45.5107073],[-73.5932604,45.5106339],[-73.592164,45.5100441]]}";7;Voie Camillien-Houde;2;40;false;false;false;false;false;false;122.0;0;1;0;0;0;false;61755;4325314488;-73.5940587;45.5033173;53747;1423604490;-73.5931674;45.5106447;2;11;12;5909292;Bus 11 : Parc-du-Mont-Royal / Ridgewood Est;"";STM;11-E;Ridgewood / No 3635;Christophe-Colomb / Rachel
410948562;"{\"type\":\"LineString\",\"coordinates\":[[-73.5954435,45.5112322],[-73.5952546,45.5111827],[-73.5949712,45.5111241],[-73.5947029,45.5110881],[-73.5943627,45.5110503],[-73.5940622,45.5109923],[-73.5938405,45.5109188],[-73.5936517,45.5108379],[-73.5933968,45.5107073]]}";1;Voie Camillien-Houde;2;40;false;false;false;false;false;false;173.0;0;0;0;0;0;false;53747;1423604490;-73.5931674;45.5106447;51879;1038433032;-73.5897035;45.5161931;2;12;13;5909292;Bus 11 : Parc-du-Mont-Royal / Ridgewood Est;"";STM;11-E;Ridgewood / No 3635;Christophe-Colomb / Rachel
182756791;"{\"type\":\"LineString\",\"coordinates\":[[-73.5954435,45.5112322],[-73.5957251,45.5113492],[-73.5959685,45.5114316],[-73.5962636,45.5115458],[-73.5963938,45.511613],[-73.5964674,45.511659],[-73.5965719,45.5117456],[-73.5966301,45.5118358],[-73.5966608,45.5119163],[-73.5966775,45.5120222],[-73.5966506,45.5121459],[-73.5965985,45.5122359],[-73.5965384,45.5123039],[-73.5964693,45.5123577],[-73.5963177,45.5124436],[-73.5960838,45.5125582],[-73.5959465,45.5126384],[-73.5958188,45.5127212]]}";2;Voie Camillien-Houde;1;40;false;true;false;false;false;false;245.0;0;0;0;0;0;false;53747;1423604490;-73.5931674;45.5106447;51879;1038433032;-73.5897035;45.5161931;0;12;13;5909292;Bus 11 : Parc-du-Mont-Royal / Ridgewood Est;"";STM;11-E;Ridgewood / No 3635;Christophe-Colomb / Rachel
609573123;"{\"type\":\"LineString\",\"coordinates\":[[-73.592628,45.513459],[-73.5929493,45.5134849],[-73.5932013,45.513487],[-73.5934716,45.5134791],[-73.593786,45.5134448],[-73.594056,45.5134015],[-73.5944407,45.513294],[-73.594718,45.5131898],[-73.5954679,45.5128706],[-73.5957331,45.5127577],[-73.5958188,45.5127212]]}";3;Voie Camillien-Houde;2;40;false;false;false;false;false;false;270.0;0;0;0;0;0;false;53747;1423604490;-73.5931674;45.5106447;51879;1038433032;-73.5897035;45.5161931;0;12;13;5909292;Bus 11 : Parc-du-Mont-Royal / Ridgewood Est;"";STM;11-E;Ridgewood / No 3635;Christophe-Colomb / Rachel
182756781;"{\"type\":\"LineString\",\"coordinates\":[[-73.5901353,45.5130133],[-73.5910983,45.5132081],[-73.5920827,45.5133789],[-73.592628,45.513459]]}";4;Voie Camillien-Houde;2;40;false;false;false;false;false;false;201.0;0;0;0;0;0;false;53747;1423604490;-73.5931674;45.5106447;51879;1038433032;-73.5897035;45.5161931;0;12;13;5909292;Bus 11 : Parc-du-Mont-Royal / Ridgewood Est;"";STM;11-E;Ridgewood / No 3635;Christophe-Colomb / Rachel
600826245;"{\"type\":\"LineString\",\"coordinates\":[[-73.5902159,45.5143974],[-73.5896909,45.5140382],[-73.5895539,45.513948],[-73.5894874,45.5139045],[-73.5894061,45.5138512],[-73.5892341,45.5137331],[-73.5891271,45.5136355],[-73.5890783,45.5135184],[-73.5890686,45.5134106],[-73.5890889,45.5133005],[-73.5891488,45.5131954],[-73.5892162,45.5131224],[-73.5893254,45.5130576],[-73.5894932,45.5129928],[-73.589645,45.5129662],[-73.5898154,45.5129706],[-73.5901353,45.5130133]]}";5;Voie Camillien-Houde;2;40;false;false;false;false;false;false;258.0;0;0;0;0;0;false;53747;1423604490;-73.5931674;45.5106447;51879;1038433032;-73.5897035;45.5161931;0;12;13;5909292;Bus 11 : Parc-du-Mont-Royal / Ridgewood Est;"";STM;11-E;Ridgewood / No 3635;Christophe-Colomb / Rachel
51865388;"{\"type\":\"LineString\",\"coordinates\":[[-73.5902159,45.5143974],[-73.5905353,45.5146719],[-73.5906093,45.5147612],[-73.5906695,45.5148797],[-73.5906977,45.5149808],[-73.5906966,45.5150718],[-73.5906426,45.5152224]]}";6;Voie Camillien-Houde;1;40;false;true;true;false;false;false;104.0;1;0;0;0;0;false;53747;1423604490;-73.5931674;45.5106447;51879;1038433032;-73.5897035;45.5161931;0;12;13;5909292;Bus 11 : Parc-du-Mont-Royal / Ridgewood Est;"";STM;11-E;Ridgewood / No 3635;Christophe-Colomb / Rachel
4886363;"{\"type\":\"LineString\",\"coordinates\":[[-73.5906426,45.5152224],[-73.5903052,45.5156373],[-73.5902655,45.5157881]]}";7;Boulevard du Mont-Royal;2;50;false;true;true;false;false;false;71.0;1;0;0;0;0;false;53747;1423604490;-73.5931674;45.5106447;51879;1038433032;-73.5897035;45.5161931;0;12;13;5909292;Bus 11 : Parc-du-Mont-Royal / Ridgewood Est;"";STM;11-E;Ridgewood / No 3635;Christophe-Colomb / Rachel
393885897;"{\"type\":\"LineString\",\"coordinates\":[[-73.5899108,45.5161609],[-73.5901993,45.5158577],[-73.5902655,45.5157881]]}";8;Avenue du Mont-Royal Ouest;1;50;false;false;true;false;false;false;50.0;1;0;0;0;0;false;53747;1423604490;-73.5931674;45.5106447;51879;1038433032;-73.5897035;45.5161931;0;12;13;5909292;Bus 11 : Parc-du-Mont-Royal / Ridgewood Est;"";STM;11-E;Ridgewood / No 3635;Christophe-Colomb / Rachel
453713154;"{\"type\":\"LineString\",\"coordinates\":[[-73.5898051,45.5162721],[-73.5899108,45.5161609]]}";9;Avenue du Mont-Royal Ouest;5;50;false;false;true;false;false;false;15.0;0;0;0;0;0;false;53747;1423604490;-73.5931674;45.5106447;51879;1038433032;-73.5897035;45.5161931;2;12;13;5909292;Bus 11 : Parc-du-Mont-Royal / Ridgewood Est;"";STM;11-E;Ridgewood / No 3635;Christophe-Colomb / Rachel
111771063;"{\"type\":\"LineString\",\"coordinates\":[[-73.5893161,45.5167861],[-73.5898051,45.5162721]]}";1;Avenue du Mont-Royal Ouest;5;50;false;false;true;false;false;false;69.0;1;0;0;0;0;false;51879;1038433032;-73.5897035;45.5161931;51884;1330277022;-73.588838;45.517194;2;13;14;5909292;Bus 11 : Parc-du-Mont-Royal / Ridgewood Est;"";STM;11-E;Ridgewood / No 3635;Christophe-Colomb / Rachel
453713155;"{\"type\":\"LineString\",\"coordinates\":[[-73.5886464,45.517542],[-73.5893161,45.5167861]]}";2;Avenue du Mont-Royal Ouest;2;50;false;false;true;false;false;false;99.0;2;0;0;0;0;false;51879;1038433032;-73.5897035;45.5161931;51884;1330277022;-73.588838;45.517194;2;13;14;5909292;Bus 11 : Parc-du-Mont-Royal / Ridgewood Est;"";STM;11-E;Ridgewood / No 3635;Christophe-Colomb / Rachel
453713155;"{\"type\":\"LineString\",\"coordinates\":[[-73.5886464,45.517542],[-73.5893161,45.5167861]]}";1;Avenue du Mont-Royal Ouest;2;50;false;false;true;false;false;false;49.5;2;0;0;0;0;false;51884;1330277022;-73.588838;45.517194;51939;1330275984;-73.58748;45.518791;1;14;15;5909292;Bus 11 : Parc-du-Mont-Royal / Ridgewood Est;"";STM;11-E;Ridgewood / No 3635;Christophe-Colomb / Rachel
465195712;"{\"type\":\"LineString\",\"coordinates\":[[-73.5883525,45.5178862],[-73.5886464,45.517542]]}";2;Avenue du Mont-Royal Ouest;2;50;false;false;true;false;false;false;45.0;1;0;0;0;0;false;51884;1330277022;-73.588838;45.517194;51939;1330275984;-73.58748;45.518791;0;14;15;5909292;Bus 11 : Parc-du-Mont-Royal / Ridgewood Est;"";STM;11-E;Ridgewood / No 3635;Christophe-Colomb / Rachel
480212640;"{\"type\":\"LineString\",\"coordinates\":[[-73.5881032,45.5181782],[-73.5883525,45.5178862]]}";3;Avenue du Mont-Royal Ouest;2;50;false;false;true;false;false;false;38.0;0;0;0;0;0;false;51884;1330277022;-73.588838;45.517194;51939;1330275984;-73.58748;45.518791;0;14;15;5909292;Bus 11 : Parc-du-Mont-Royal / Ridgewood Est;"";STM;11-E;Ridgewood / No 3635;Christophe-Colomb / Rachel
465195710;"{\"type\":\"LineString\",\"coordinates\":[[-73.5879419,45.5183671],[-73.5879929,45.5183074],[-73.5881032,45.5181782]]}";4;Avenue du Mont-Royal Ouest;2;50;false;false;true;false;false;false;25.0;0;0;0;0;0;false;51884;1330277022;-73.588838;45.517194;51939;1330275984;-73.58748;45.518791;0;14;15;5909292;Bus 11 : Parc-du-Mont-Royal / Ridgewood Est;"";STM;11-E;Ridgewood / No 3635;Christophe-Colomb / Rachel
465195711;"{\"type\":\"LineString\",\"coordinates\":[[-73.5874398,45.5189324],[-73.5875119,45.5188512],[-73.5879419,45.5183671]]}";5;Avenue du Mont-Royal Ouest;2;50;false;false;true;false;false;false;37.5;1;1;0;0;0;false;51884;1330277022;-73.588838;45.517194;51939;1330275984;-73.58748;45.518791;1;14;15;5909292;Bus 11 : Parc-du-Mont-Royal / Ridgewood Est;"";STM;11-E;Ridgewood / No 3635;Christophe-Colomb / Rachel
465195709;"{\"type\":\"LineString\",\"coordinates\":[[-73.586834,45.5195946],[-73.5873909,45.5189858],[-73.5874398,45.5189324]]}";1;Avenue du Mont-Royal Ouest;2;50;false;false;true;false;false;false;88.0;1;1;0;0;0;false;51939;1330275984;-73.58748;45.518791;51966;1574991723;-73.5863493;45.5199747;2;15;16;5909292;Bus 11 : Parc-du-Mont-Royal / Ridgewood Est;"";STM;11-E;Ridgewood / No 3635;Christophe-Colomb / Rachel
4687363;"{\"type\":\"LineString\",\"coordinates\":[[-73.5863671,45.5201178],[-73.5866119,45.5198435],[-73.586834,45.5195946]]}";2;Avenue du Mont-Royal Ouest;2;50;false;false;true;false;false;false;69.0;1;0;0;0;0;false;51939;1330275984;-73.58748;45.518791;51966;1574991723;-73.5863493;45.5199747;2;15;16;5909292;Bus 11 : Parc-du-Mont-Royal / Ridgewood Est;"";STM;11-E;Ridgewood / No 3635;Christophe-Colomb / Rachel
465183712;"{\"type\":\"LineString\",\"coordinates\":[[-73.5859249,45.5206289],[-73.5863671,45.5201178]]}";1;Avenue du Mont-Royal Est;2;50;false;false;true;false;false;false;67.0;1;0;0;0;0;false;51966;1574991723;-73.5863493;45.5199747;52006;1574991722;-73.5851048;45.5213954;2;16;17;5909292;Bus 11 : Parc-du-Mont-Royal / Ridgewood Est;"";STM;11-E;Ridgewood / No 3635;Christophe-Colomb / Rachel
337509255;"{\"type\":\"LineString\",\"coordinates\":[[-73.5849775,45.5216621],[-73.5851083,45.5215218],[-73.5854621,45.5211408],[-73.5855319,45.5210597],[-73.5857255,45.5208475],[-73.5859249,45.5206289]]}";2;Avenue du Mont-Royal Est;2;50;false;false;true;false;false;false;137.0;0;0;0;0;0;false;51966;1574991723;-73.5863493;45.5199747;52006;1574991722;-73.5851048;45.5213954;2;16;17;5909292;Bus 11 : Parc-du-Mont-Royal / Ridgewood Est;"";STM;11-E;Ridgewood / No 3635;Christophe-Colomb / Rachel
337509255;"{\"type\":\"LineString\",\"coordinates\":[[-73.5849775,45.5216621],[-73.5851083,45.5215218],[-73.5854621,45.5211408],[-73.5855319,45.5210597],[-73.5857255,45.5208475],[-73.5859249,45.5206289]]}";1;Avenue du Mont-Royal Est;2;50;false;false;true;false;false;false;68.5;0;0;0;0;0;false;52006;1574991722;-73.5851048;45.5213954;52036;6010967400;-73.583824;45.522814;1;17;18;5909292;Bus 11 : Parc-du-Mont-Royal / Ridgewood Est;"";STM;11-E;Ridgewood / No 3635;Christophe-Colomb / Rachel
463886948;"{\"type\":\"LineString\",\"coordinates\":[[-73.5846879,45.5219751],[-73.5847074,45.521954],[-73.5849775,45.5216621]]}";2;Avenue du Mont-Royal Est;2;50;false;false;true;false;false;false;42.0;1;0;0;0;0;false;52006;1574991722;-73.5851048;45.5213954;52036;6010967400;-73.583824;45.522814;0;17;18;5909292;Bus 11 : Parc-du-Mont-Royal / Ridgewood Est;"";STM;11-E;Ridgewood / No 3635;Christophe-Colomb / Rachel
452096883;"{\"type\":\"LineString\",\"coordinates\":[[-73.5845024,45.5221856],[-73.5846879,45.5219751]]}";3;Avenue du Mont-Royal Est;2;50;false;false;true;false;false;false;28.0;0;0;0;0;0;false;52006;1574991722;-73.5851048;45.5213954;52036;6010967400;-73.583824;45.522814;0;17;18;5909292;Bus 11 : Parc-du-Mont-Royal / Ridgewood Est;"";STM;11-E;Ridgewood / No 3635;Christophe-Colomb / Rachel
725190286;"{\"type\":\"LineString\",\"coordinates\":[[-73.584267,45.5224436],[-73.5844829,45.522207],[-73.5845024,45.5221856]]}";4;Avenue du Mont-Royal Est;2;50;false;false;true;false;false;false;35.0;1;0;0;0;0;false;52006;1574991722;-73.5851048;45.5213954;52036;6010967400;-73.583824;45.522814;0;17;18;5909292;Bus 11 : Parc-du-Mont-Royal / Ridgewood Est;"";STM;11-E;Ridgewood / No 3635;Christophe-Colomb / Rachel
452096884;"{\"type\":\"LineString\",\"coordinates\":[[-73.5832173,45.5236168],[-73.5833858,45.5234138],[-73.5834206,45.5233719],[-73.5838297,45.5229174],[-73.584267,45.5224436]]}";5;Avenue du Mont-Royal Est;2;50;false;false;true;false;false;false;77.0;0;0;0;0;0;false;52006;1574991722;-73.5851048;45.5213954;52036;6010967400;-73.583824;45.522814;1;17;18;5909292;Bus 11 : Parc-du-Mont-Royal / Ridgewood Est;"";STM;11-E;Ridgewood / No 3635;Christophe-Colomb / Rachel
452096884;"{\"type\":\"LineString\",\"coordinates\":[[-73.5832173,45.5236168],[-73.5833858,45.5234138],[-73.5834206,45.5233719],[-73.5838297,45.5229174],[-73.584267,45.5224436]]}";1;Avenue du Mont-Royal Est;2;50;false;false;true;false;false;false;77.0;0;0;0;0;0;false;52036;6010967400;-73.583824;45.522814;52057;1574991725;-73.5829483;45.5238253;1;18;19;5909292;Bus 11 : Parc-du-Mont-Royal / Ridgewood Est;"";STM;11-E;Ridgewood / No 3635;Christophe-Colomb / Rachel
452049817;"{\"type\":\"LineString\",\"coordinates\":[[-73.5829023,45.5239741],[-73.5829846,45.5238807],[-73.5832173,45.5236168]]}";2;Avenue du Mont-Royal Est;2;50;false;false;true;false;false;false;23.5;1;0;0;0;0;false;52036;6010967400;-73.583824;45.522814;52057;1574991725;-73.5829483;45.5238253;1;18;19;5909292;Bus 11 : Parc-du-Mont-Royal / Ridgewood Est;"";STM;11-E;Ridgewood / No 3635;Christophe-Colomb / Rachel
452049816;"{\"type\":\"LineString\",\"coordinates\":[[-73.5825993,45.5243126],[-73.5828396,45.5240442],[-73.5829023,45.5239741]]}";1;Avenue du Mont-Royal Est;2;50;false;false;true;false;false;false;45.0;1;0;0;0;0;false;52057;1574991725;-73.5829483;45.5238253;52083;1456304182;-73.5821338;45.5247112;2;19;20;5909292;Bus 11 : Parc-du-Mont-Royal / Ridgewood Est;"";STM;11-E;Ridgewood / No 3635;Christophe-Colomb / Rachel
393792173;"{\"type\":\"LineString\",\"coordinates\":[[-73.5824039,45.5245308],[-73.5824473,45.5244824],[-73.5825993,45.5243126]]}";2;Avenue du Mont-Royal Est;2;50;false;false;true;false;false;false;29.0;1;0;0;0;0;false;52057;1574991725;-73.5829483;45.5238253;52083;1456304182;-73.5821338;45.5247112;0;19;20;5909292;Bus 11 : Parc-du-Mont-Royal / Ridgewood Est;"";STM;11-E;Ridgewood / No 3635;Christophe-Colomb / Rachel
4320351;"{\"type\":\"LineString\",\"coordinates\":[[-73.5820089,45.5249843],[-73.5820543,45.524931],[-73.5823683,45.5245717],[-73.5824039,45.5245308]]}";3;Avenue du Mont-Royal Est;2;50;false;false;true;false;false;false;60.0;2;0;0;0;0;false;52057;1574991725;-73.5829483;45.5238253;52083;1456304182;-73.5821338;45.5247112;2;19;20;5909292;Bus 11 : Parc-du-Mont-Royal / Ridgewood Est;"";STM;11-E;Ridgewood / No 3635;Christophe-Colomb / Rachel
4320351;"{\"type\":\"LineString\",\"coordinates\":[[-73.5820089,45.5249843],[-73.5820543,45.524931],[-73.5823683,45.5245717],[-73.5824039,45.5245308]]}";1;Avenue du Mont-Royal Est;2;50;false;false;true;false;false;false;30.0;2;0;0;0;0;false;52083;1456304182;-73.5821338;45.5247112;52138;1456307146;-73.5801253;45.5269231;1;20;21;5909292;Bus 11 : Parc-du-Mont-Royal / Ridgewood Est;"";STM;11-E;Ridgewood / No 3635;Christophe-Colomb / Rachel
452098812;"{\"type\":\"LineString\",\"coordinates\":[[-73.5820089,45.5249843],[-73.5817733,45.5252518]]}";2;Avenue du Mont-Royal Est;2;50;false;false;true;false;false;false;35.0;1;0;0;0;0;false;52083;1456304182;-73.5821338;45.5247112;52138;1456307146;-73.5801253;45.5269231;0;20;21;5909292;Bus 11 : Parc-du-Mont-Royal / Ridgewood Est;"";STM;11-E;Ridgewood / No 3635;Christophe-Colomb / Rachel
452098813;"{\"type\":\"LineString\",\"coordinates\":[[-73.5817733,45.5252518],[-73.5815207,45.525541],[-73.581502,45.5255624]]}";3;Avenue du Mont-Royal Est;2;50;false;false;true;false;false;false;41.0;1;0;0;0;0;false;52083;1456304182;-73.5821338;45.5247112;52138;1456307146;-73.5801253;45.5269231;0;20;21;5909292;Bus 11 : Parc-du-Mont-Royal / Ridgewood Est;"";STM;11-E;Ridgewood / No 3635;Christophe-Colomb / Rachel
8140255;"{\"type\":\"LineString\",\"coordinates\":[[-73.581502,45.5255624],[-73.581346,45.5257358],[-73.5813245,45.5257591],[-73.5811223,45.5259777]]}";4;Avenue du Mont-Royal Est;2;50;false;false;true;false;false;false;55.0;1;0;0;0;0;false;52083;1456304182;-73.5821338;45.5247112;52138;1456307146;-73.5801253;45.5269231;0;20;21;5909292;Bus 11 : Parc-du-Mont-Royal / Ridgewood Est;"";STM;11-E;Ridgewood / No 3635;Christophe-Colomb / Rachel
452101821;"{\"type\":\"LineString\",\"coordinates\":[[-73.5811223,45.5259777],[-73.5806744,45.5264537]]}";5;Avenue du Mont-Royal Est;2;50;false;false;true;false;false;false;64.0;0;0;0;0;0;false;52083;1456304182;-73.5821338;45.5247112;52138;1456307146;-73.5801253;45.5269231;0;20;21;5909292;Bus 11 : Parc-du-Mont-Royal / Ridgewood Est;"";STM;11-E;Ridgewood / No 3635;Christophe-Colomb / Rachel
463886942;"{\"type\":\"LineString\",\"coordinates\":[[-73.5806744,45.5264537],[-73.5801263,45.5270326]]}";6;Avenue du Mont-Royal Est;2;50;false;false;true;false;false;false;39.0;1;0;0;0;0;false;52083;1456304182;-73.5821338;45.5247112;52138;1456307146;-73.5801253;45.5269231;1;20;21;5909292;Bus 11 : Parc-du-Mont-Royal / Ridgewood Est;"";STM;11-E;Ridgewood / No 3635;Christophe-Colomb / Rachel
463886941;"{\"type\":\"LineString\",\"coordinates\":[[-73.5801263,45.5270326],[-73.5798146,45.5273624]]}";1;Avenue du Mont-Royal Est;2;50;false;false;true;false;false;false;44.0;1;0;0;0;0;false;52138;1456307146;-73.5801253;45.5269231;52247;5754525212;-73.577032;45.526972;2;21;22;5909292;Bus 11 : Parc-du-Mont-Royal / Ridgewood Est;"";STM;11-E;Ridgewood / No 3635;Christophe-Colomb / Rachel
452101823;"{\"type\":\"LineString\",\"coordinates\":[[-73.5798146,45.5273624],[-73.579303,45.5279018],[-73.5792084,45.5280067]]}";2;Avenue du Mont-Royal Est;2;50;false;false;true;false;false;false;86.0;1;0;0;0;0;false;52138;1456307146;-73.5801253;45.5269231;52247;5754525212;-73.577032;45.526972;0;21;22;5909292;Bus 11 : Parc-du-Mont-Royal / Ridgewood Est;"";STM;11-E;Ridgewood / No 3635;Christophe-Colomb / Rachel
393873618;"{\"type\":\"LineString\",\"coordinates\":[[-73.5792084,45.5280067],[-73.5787476,45.5277927],[-73.5773196,45.5271647],[-73.5768517,45.5269588],[-73.5764005,45.5267554],[-73.5750808,45.52616],[-73.574601,45.5259435]]}";3;Avenue Christophe-Colomb;1;50;false;true;true;false;false;false;427.0;2;0;0;0;0;false;52138;1456307146;-73.5801253;45.5269231;52247;5754525212;-73.577032;45.526972;2;21;22;5909292;Bus 11 : Parc-du-Mont-Royal / Ridgewood Est;"";STM;11-E;Ridgewood / No 3635;Christophe-Colomb / Rachel
