way_id;shape;index;name;nb_lanes;legal_speed;speed_zone_30;oneway;shares_bike;bike_box;bus_lane;dedicated_bus_lane;length;nb_traffic_signals;nb_crossings;nb_stops;nb_give_ways;nb_lvl_crossings;roundabout;stop_id_orig;node_id_orig;coord_x_orig;coord_y_orig;stop_id_dest;node_id_dest;coord_x_dest;coord_y_dest;nb_neighbouring_ways_bus_stop;ordre_orig;ordre_dest;id_line;line_name;colour;operator;ref;from;to
680430226;"{\"type\":\"LineString\",\"coordinates\":[[-73.6531659,45.6981074],[-73.6531964,45.6981594],[-73.6533077,45.6981896],[-73.653539,45.6981751],[-73.6536637,45.6981433]]}";1;BUS;1;50;false;true;true;false;true;false;44.0;0;0;0;0;0;false;84875;6129482927;-73.652978;45.698038;84937;6129482275;-73.651489;45.692318;1;0;1;9443436;Bus 19 : TERMINUS MONTMORENCY;"";EXO;19 S;Terminus Terrebonne;Terminus Montmorency
35166455;"{\"type\":\"LineString\",\"coordinates\":[[-73.6536637,45.6981433],[-73.6539232,45.6982282],[-73.6540021,45.6982737],[-73.6540425,45.6983527],[-73.6540523,45.6991653],[-73.6540265,45.6992256],[-73.6539971,45.6992683]]}";2;BUS;1;50;false;true;true;false;true;false;143.0;0;2;0;0;0;false;84875;6129482927;-73.652978;45.698038;84937;6129482275;-73.651489;45.692318;0;0;1;9443436;Bus 19 : TERMINUS MONTMORENCY;"";EXO;19 S;Terminus Terrebonne;Terminus Montmorency
418196801;"{\"type\":\"LineString\",\"coordinates\":[[-73.6539971,45.6992683],[-73.6539265,45.6993452],[-73.6538596,45.6993765],[-73.6537747,45.6994001],[-73.6536572,45.699406],[-73.6533938,45.6993988],[-73.6530277,45.6993438],[-73.6527703,45.6992836],[-73.6525308,45.6991684],[-73.6522777,45.6989982],[-73.6521336,45.6988856],[-73.6520146,45.6987592],[-73.6519546,45.6986467],[-73.6516615,45.6977674]]}";3;"";1;50;false;true;true;false;true;false;301.0;0;1;0;0;0;false;84875;6129482927;-73.652978;45.698038;84937;6129482275;-73.651489;45.692318;0;0;1;9443436;Bus 19 : TERMINUS MONTMORENCY;"";EXO;19 S;Terminus Terrebonne;Terminus Montmorency
680430225;"{\"type\":\"LineString\",\"coordinates\":[[-73.6516615,45.6977674],[-73.6515704,45.6971362]]}";4;Autoroute 25;3;100;false;true;true;false;false;false;71.0;0;0;0;0;0;false;84875;6129482927;-73.652978;45.698038;84937;6129482275;-73.651489;45.692318;0;0;1;9443436;Bus 19 : TERMINUS MONTMORENCY;"";EXO;19 S;Terminus Terrebonne;Terminus Montmorency
138383579;"{\"type\":\"LineString\",\"coordinates\":[[-73.6515704,45.6971362],[-73.6513221,45.6953678]]}";5;Autoroute 25;3;100;false;true;true;false;false;false;198.0;0;0;0;0;0;false;84875;6129482927;-73.652978;45.698038;84937;6129482275;-73.651489;45.692318;0;0;1;9443436;Bus 19 : TERMINUS MONTMORENCY;"";EXO;19 S;Terminus Terrebonne;Terminus Montmorency
680430224;"{\"type\":\"LineString\",\"coordinates\":[[-73.6513221,45.6953678],[-73.6511974,45.6944919],[-73.6511842,45.6943932]]}";6;Autoroute 25;1;100;false;true;true;false;false;false;109.0;0;0;0;0;0;false;84875;6129482927;-73.652978;45.698038;84937;6129482275;-73.651489;45.692318;0;0;1;9443436;Bus 19 : TERMINUS MONTMORENCY;"";EXO;19 S;Terminus Terrebonne;Terminus Montmorency
229470938;"{\"type\":\"LineString\",\"coordinates\":[[-73.6511842,45.6943932],[-73.6512374,45.6943347],[-73.6512332,45.6942513],[-73.651221,45.6940931],[-73.6512135,45.6939368],[-73.6512122,45.6937803],[-73.6512053,45.6936348],[-73.6512009,45.6934795],[-73.6511959,45.693337],[-73.6511985,45.6931943],[-73.6512151,45.6930555],[-73.6512463,45.6929291],[-73.6512902,45.6928086],[-73.6513329,45.6927171]]}";7;"";1;50;false;true;true;false;false;false;189.0;0;0;0;0;0;false;84875;6129482927;-73.652978;45.698038;84937;6129482275;-73.651489;45.692318;0;0;1;9443436;Bus 19 : TERMINUS MONTMORENCY;"";EXO;19 S;Terminus Terrebonne;Terminus Montmorency
98502631;"{\"type\":\"LineString\",\"coordinates\":[[-73.6513329,45.6927171],[-73.6513592,45.6926755],[-73.6513931,45.6926122],[-73.6514092,45.6925548],[-73.6514087,45.6925023],[-73.6514,45.692419],[-73.6513853,45.6923369],[-73.6513695,45.6922634],[-73.6513614,45.6922276],[-73.6513565,45.692206],[-73.6513402,45.6921218],[-73.6513189,45.6920786]]}";8;"";1;50;false;true;true;false;false;false;36.5;0;0;0;0;0;false;84875;6129482927;-73.652978;45.698038;84937;6129482275;-73.651489;45.692318;1;0;1;9443436;Bus 19 : TERMINUS MONTMORENCY;"";EXO;19 S;Terminus Terrebonne;Terminus Montmorency
98502631;"{\"type\":\"LineString\",\"coordinates\":[[-73.6513329,45.6927171],[-73.6513592,45.6926755],[-73.6513931,45.6926122],[-73.6514092,45.6925548],[-73.6514087,45.6925023],[-73.6514,45.692419],[-73.6513853,45.6923369],[-73.6513695,45.6922634],[-73.6513614,45.6922276],[-73.6513565,45.692206],[-73.6513402,45.6921218],[-73.6513189,45.6920786]]}";1;"";1;50;false;true;true;false;false;false;36.5;0;0;0;0;0;false;84937;6129482275;-73.651489;45.692318;84041;6356686856;-73.732909;45.581951;1;1;2;9443436;Bus 19 : TERMINUS MONTMORENCY;"";EXO;19 S;Terminus Terrebonne;Terminus Montmorency
98502645;"{\"type\":\"LineString\",\"coordinates\":[[-73.6513189,45.6920786],[-73.6512757,45.6920297],[-73.6512134,45.6919674],[-73.6511415,45.6919002],[-73.6510796,45.6918207],[-73.6510215,45.6917315],[-73.650976,45.6916237],[-73.6509376,45.6915092],[-73.6509,45.6913817],[-73.650865,45.691251],[-73.6508329,45.6911138],[-73.6507971,45.6909682],[-73.6507655,45.6908191],[-73.6507321,45.6906648],[-73.6506999,45.6905039],[-73.6506673,45.6903389],[-73.6506407,45.6901714],[-73.6506184,45.6899995],[-73.6505941,45.6898235],[-73.6503925,45.6890517]]}";2;"";1;50;false;true;true;false;false;false;347.0;0;0;0;0;0;false;84937;6129482275;-73.651489;45.692318;84041;6356686856;-73.732909;45.581951;0;1;2;9443436;Bus 19 : TERMINUS MONTMORENCY;"";EXO;19 S;Terminus Terrebonne;Terminus Montmorency
32823779;"{\"type\":\"LineString\",\"coordinates\":[[-73.6503925,45.6890517],[-73.6501554,45.6874793]]}";3;Pont Lepage;3;100;false;true;true;false;false;false;176.0;0;0;0;0;0;false;84937;6129482275;-73.651489;45.692318;84041;6356686856;-73.732909;45.581951;0;1;2;9443436;Bus 19 : TERMINUS MONTMORENCY;"";EXO;19 S;Terminus Terrebonne;Terminus Montmorency
32823758;"{\"type\":\"LineString\",\"coordinates\":[[-73.6501554,45.6874793],[-73.6499968,45.6860162],[-73.6498872,45.6848262],[-73.6498256,45.6831634],[-73.6498443,45.6820446],[-73.6499087,45.6804589],[-73.650018,45.678276],[-73.6502792,45.6715778],[-73.6503594,45.6695225],[-73.650274,45.668142],[-73.649995,45.666687],[-73.649543,45.6649263],[-73.6489878,45.6632668]]}";4;Autoroute 25;3;100;false;true;true;false;false;false;2700.0;0;0;0;0;0;false;84937;6129482275;-73.651489;45.692318;84041;6356686856;-73.732909;45.581951;0;1;2;9443436;Bus 19 : TERMINUS MONTMORENCY;"";EXO;19 S;Terminus Terrebonne;Terminus Montmorency
680923351;"{\"type\":\"LineString\",\"coordinates\":[[-73.6489878,45.6632668],[-73.647485,45.6579068]]}";5;Autoroute Jean-Noël-Lavoie;2;100;false;true;true;false;false;false;607.0;0;0;0;0;0;false;84937;6129482275;-73.651489;45.692318;84041;6356686856;-73.732909;45.581951;0;1;2;9443436;Bus 19 : TERMINUS MONTMORENCY;"";EXO;19 S;Terminus Terrebonne;Terminus Montmorency
116595052;"{\"type\":\"LineString\",\"coordinates\":[[-73.647485,45.6579068],[-73.6467835,45.6557358],[-73.6460812,45.653444]]}";6;Autoroute Jean-Noël-Lavoie;2;100;false;true;true;false;false;false;508.0;0;0;0;0;0;false;84937;6129482275;-73.651489;45.692318;84041;6356686856;-73.732909;45.581951;0;1;2;9443436;Bus 19 : TERMINUS MONTMORENCY;"";EXO;19 S;Terminus Terrebonne;Terminus Montmorency
326316595;"{\"type\":\"LineString\",\"coordinates\":[[-73.6460812,45.653444],[-73.6459701,45.6530241]]}";7;Autoroute Jean-Noël-Lavoie;2;100;false;true;true;false;false;false;48.0;0;0;0;0;0;false;84937;6129482275;-73.651489;45.692318;84041;6356686856;-73.732909;45.581951;0;1;2;9443436;Bus 19 : TERMINUS MONTMORENCY;"";EXO;19 S;Terminus Terrebonne;Terminus Montmorency
51966552;"{\"type\":\"LineString\",\"coordinates\":[[-73.6459701,45.6530241],[-73.6458866,45.6526173]]}";8;Autoroute Jean-Noël-Lavoie;2;100;false;true;true;false;false;false;46.0;0;0;0;0;0;false;84937;6129482275;-73.651489;45.692318;84041;6356686856;-73.732909;45.581951;0;1;2;9443436;Bus 19 : TERMINUS MONTMORENCY;"";EXO;19 S;Terminus Terrebonne;Terminus Montmorency
51966553;"{\"type\":\"LineString\",\"coordinates\":[[-73.6458866,45.6526173],[-73.6457574,45.6519248]]}";9;Autoroute Jean-Noël-Lavoie;2;100;false;true;true;false;false;false;78.0;0;0;0;0;0;false;84937;6129482275;-73.651489;45.692318;84041;6356686856;-73.732909;45.581951;0;1;2;9443436;Bus 19 : TERMINUS MONTMORENCY;"";EXO;19 S;Terminus Terrebonne;Terminus Montmorency
119082377;"{\"type\":\"LineString\",\"coordinates\":[[-73.6457574,45.6519248],[-73.6457071,45.651261]]}";10;Autoroute Jean-Noël-Lavoie;2;100;false;true;true;false;false;false;74.0;0;0;0;0;0;false;84937;6129482275;-73.651489;45.692318;84041;6356686856;-73.732909;45.581951;0;1;2;9443436;Bus 19 : TERMINUS MONTMORENCY;"";EXO;19 S;Terminus Terrebonne;Terminus Montmorency
119082385;"{\"type\":\"LineString\",\"coordinates\":[[-73.6457071,45.651261],[-73.6457499,45.6505546],[-73.6458373,45.6497889],[-73.6459413,45.6493371],[-73.6464104,45.6477117],[-73.6468362,45.6460788],[-73.6471143,45.6452894],[-73.6475772,45.6444301],[-73.650766,45.639855],[-73.654128,45.635084],[-73.6577006,45.63002],[-73.659042,45.628126],[-73.6608283,45.6255778]]}";11;Autoroute Jean-Noël-Lavoie;2;100;false;true;true;false;false;false;3110.0;0;0;0;0;0;false;84937;6129482275;-73.651489;45.692318;84041;6356686856;-73.732909;45.581951;0;1;2;9443436;Bus 19 : TERMINUS MONTMORENCY;"";EXO;19 S;Terminus Terrebonne;Terminus Montmorency
26187989;"{\"type\":\"LineString\",\"coordinates\":[[-73.6608283,45.6255778],[-73.6616675,45.624606],[-73.6621683,45.6240029],[-73.6627756,45.6233209],[-73.6632299,45.6228697],[-73.6646149,45.6214387],[-73.6659081,45.6202705]]}";12;"";1;70;false;true;true;false;false;false;711.0;0;0;0;0;0;false;84937;6129482275;-73.651489;45.692318;84041;6356686856;-73.732909;45.581951;0;1;2;9443436;Bus 19 : TERMINUS MONTMORENCY;"";EXO;19 S;Terminus Terrebonne;Terminus Montmorency
41079155;"{\"type\":\"LineString\",\"coordinates\":[[-73.6659081,45.6202705],[-73.6667559,45.6195991],[-73.6675247,45.6190972],[-73.6686077,45.6184772],[-73.6689735,45.6182986],[-73.6695642,45.6179642]]}";13;"";2;70;false;true;true;false;false;false;385.0;0;0;0;0;0;false;84937;6129482275;-73.651489;45.692318;84041;6356686856;-73.732909;45.581951;0;1;2;9443436;Bus 19 : TERMINUS MONTMORENCY;"";EXO;19 S;Terminus Terrebonne;Terminus Montmorency
326316606;"{\"type\":\"LineString\",\"coordinates\":[[-73.6695642,45.6179642],[-73.6713508,45.6171379]]}";14;"";2;70;false;true;true;false;false;false;167.0;0;0;0;0;0;false;84937;6129482275;-73.651489;45.692318;84041;6356686856;-73.732909;45.581951;0;1;2;9443436;Bus 19 : TERMINUS MONTMORENCY;"";EXO;19 S;Terminus Terrebonne;Terminus Montmorency
240374782;"{\"type\":\"LineString\",\"coordinates\":[[-73.6713508,45.6171379],[-73.6719264,45.6168192],[-73.6764304,45.614638]]}";15;"";1;70;false;true;true;false;false;false;484.0;0;0;0;0;0;false;84937;6129482275;-73.651489;45.692318;84041;6356686856;-73.732909;45.581951;0;1;2;9443436;Bus 19 : TERMINUS MONTMORENCY;"";EXO;19 S;Terminus Terrebonne;Terminus Montmorency
41336526;"{\"type\":\"LineString\",\"coordinates\":[[-73.6764304,45.614638],[-73.6806319,45.6127888],[-73.688223,45.609421],[-73.6925126,45.607537],[-73.6938603,45.6069473],[-73.6979776,45.6051152],[-73.7000912,45.6041511],[-73.7010171,45.6036589],[-73.7018217,45.6031868],[-73.7026359,45.6026689],[-73.7034209,45.6021096],[-73.7042095,45.6014793],[-73.7049716,45.6008158],[-73.7054318,45.6003512],[-73.70796,45.5978787]]}";16;Autoroute Jean-Noël-Lavoie;4;100;false;true;true;false;false;false;3115.0;0;0;0;0;0;false;84937;6129482275;-73.651489;45.692318;84041;6356686856;-73.732909;45.581951;0;1;2;9443436;Bus 19 : TERMINUS MONTMORENCY;"";EXO;19 S;Terminus Terrebonne;Terminus Montmorency
574727209;"{\"type\":\"LineString\",\"coordinates\":[[-73.70796,45.5978787],[-73.7088551,45.5971139]]}";17;Autoroute Jean-Noël-Lavoie;4;100;false;true;true;false;false;false;110.0;0;0;0;0;0;false;84937;6129482275;-73.651489;45.692318;84041;6356686856;-73.732909;45.581951;0;1;2;9443436;Bus 19 : TERMINUS MONTMORENCY;"";EXO;19 S;Terminus Terrebonne;Terminus Montmorency
574727208;"{\"type\":\"LineString\",\"coordinates\":[[-73.7088551,45.5971139],[-73.7094435,45.5966111],[-73.7102664,45.5959865]]}";18;Autoroute Jean-Noël-Lavoie;4;100;false;true;true;false;false;false;167.0;0;0;0;0;0;false;84937;6129482275;-73.651489;45.692318;84041;6356686856;-73.732909;45.581951;0;1;2;9443436;Bus 19 : TERMINUS MONTMORENCY;"";EXO;19 S;Terminus Terrebonne;Terminus Montmorency
574727207;"{\"type\":\"LineString\",\"coordinates\":[[-73.7102664,45.5959865],[-73.7111522,45.5953738],[-73.71212,45.5948104],[-73.7129221,45.5943989],[-73.7136577,45.5940291],[-73.7147464,45.5935458],[-73.7160075,45.5930395],[-73.7239628,45.5903787],[-73.7276083,45.5891008]]}";19;Autoroute Jean-Noël-Lavoie;4;100;false;true;true;false;false;false;1562.0;0;0;0;0;0;false;84937;6129482275;-73.651489;45.692318;84041;6356686856;-73.732909;45.581951;0;1;2;9443436;Bus 19 : TERMINUS MONTMORENCY;"";EXO;19 S;Terminus Terrebonne;Terminus Montmorency
41336532;"{\"type\":\"LineString\",\"coordinates\":[[-73.7276083,45.5891008],[-73.7285677,45.5887806]]}";20;Autoroute Jean-Noël-Lavoie;4;100;false;true;true;false;false;false;83.0;0;0;0;0;0;false;84937;6129482275;-73.651489;45.692318;84041;6356686856;-73.732909;45.581951;0;1;2;9443436;Bus 19 : TERMINUS MONTMORENCY;"";EXO;19 S;Terminus Terrebonne;Terminus Montmorency
32800068;"{\"type\":\"LineString\",\"coordinates\":[[-73.7285677,45.5887806],[-73.7289437,45.5886503]]}";21;Autoroute Jean-Noël-Lavoie;4;100;false;true;true;false;false;false;33.0;0;0;0;0;0;false;84937;6129482275;-73.651489;45.692318;84041;6356686856;-73.732909;45.581951;0;1;2;9443436;Bus 19 : TERMINUS MONTMORENCY;"";EXO;19 S;Terminus Terrebonne;Terminus Montmorency
483692479;"{\"type\":\"LineString\",\"coordinates\":[[-73.7289437,45.5886503],[-73.7309741,45.5881488],[-73.7318072,45.5878728]]}";22;"";2;70;false;true;true;false;false;false;240.0;0;0;0;0;0;false;84937;6129482275;-73.651489;45.692318;84041;6356686856;-73.732909;45.581951;0;1;2;9443436;Bus 19 : TERMINUS MONTMORENCY;"";EXO;19 S;Terminus Terrebonne;Terminus Montmorency
32800159;"{\"type\":\"LineString\",\"coordinates\":[[-73.7318072,45.5878728],[-73.7324186,45.5876782],[-73.7338349,45.5871383],[-73.7341054,45.5870707],[-73.734493,45.5870104],[-73.7348575,45.5869846],[-73.7352096,45.5869979],[-73.7362052,45.5871388],[-73.7368489,45.5871088],[-73.7372078,45.5869043],[-73.7374669,45.5867064],[-73.7377626,45.5864282],[-73.7377924,45.5863755],[-73.7378201,45.58629]]}";23;"";1;50;false;true;true;false;false;false;538.0;0;0;0;0;0;false;84937;6129482275;-73.651489;45.692318;84041;6356686856;-73.732909;45.581951;0;1;2;9443436;Bus 19 : TERMINUS MONTMORENCY;"";EXO;19 S;Terminus Terrebonne;Terminus Montmorency
620406105;"{\"type\":\"LineString\",\"coordinates\":[[-73.7378201,45.58629],[-73.7370635,45.5856372],[-73.7357652,45.5845371],[-73.734749,45.5836753]]}";24;Boulevard Industriel;2;60;false;true;false;false;false;false;377.0;0;0;0;0;0;false;84937;6129482275;-73.651489;45.692318;84041;6356686856;-73.732909;45.581951;0;1;2;9443436;Bus 19 : TERMINUS MONTMORENCY;"";EXO;19 S;Terminus Terrebonne;Terminus Montmorency
455478639;"{\"type\":\"LineString\",\"coordinates\":[[-73.734749,45.5836753],[-73.7343341,45.5833245],[-73.7342081,45.5832123]]}";25;Boulevard Industriel;2;60;false;true;false;false;false;false;67.0;0;0;0;0;0;false;84937;6129482275;-73.651489;45.692318;84041;6356686856;-73.732909;45.581951;0;1;2;9443436;Bus 19 : TERMINUS MONTMORENCY;"";EXO;19 S;Terminus Terrebonne;Terminus Montmorency
455478638;"{\"type\":\"LineString\",\"coordinates\":[[-73.7342081,45.5832123],[-73.7327528,45.5819169]]}";26;Boulevard Industriel;2;60;false;true;true;false;false;false;92.0;1;0;0;0;0;false;84937;6129482275;-73.651489;45.692318;84041;6356686856;-73.732909;45.581951;1;1;2;9443436;Bus 19 : TERMINUS MONTMORENCY;"";EXO;19 S;Terminus Terrebonne;Terminus Montmorency
52920542;"{\"type\":\"LineString\",\"coordinates\":[[-73.7327528,45.5819169],[-73.7314931,45.5807955],[-73.731248,45.5805856],[-73.72963,45.5792],[-73.7285749,45.5782964],[-73.727243,45.5771596],[-73.7249957,45.5751964],[-73.7242523,45.5745658]]}";1;Boulevard Industriel;3;60;false;true;true;false;false;false;526.0;1;0;0;0;0;false;85797;6129480990;-73.724899;45.574637;84637;6129483672;-73.721797;45.571924;1;4;5;9443436;Bus 19 : TERMINUS MONTMORENCY;"";EXO;19 S;Terminus Terrebonne;Terminus Montmorency
679942258;"{\"type\":\"LineString\",\"coordinates\":[[-73.7242523,45.5745658],[-73.7237683,45.5738746],[-73.7233049,45.5734781],[-73.7227563,45.572926],[-73.7216088,45.5718972]]}";2;Boulevard Industriel;3;60;false;true;true;false;false;false;181.5;0;0;0;0;0;false;85797;6129480990;-73.724899;45.574637;84637;6129483672;-73.721797;45.571924;1;4;5;9443436;Bus 19 : TERMINUS MONTMORENCY;"";EXO;19 S;Terminus Terrebonne;Terminus Montmorency
694207282;"{\"type\":\"LineString\",\"coordinates\":[[-73.7216088,45.5718972],[-73.7214083,45.571703]]}";1;Boulevard Industriel;3;60;false;true;true;false;false;false;27.0;0;0;0;0;0;false;84637;6129483672;-73.721797;45.571924;84000;6129485078;-73.7197579;45.5583223;2;5;6;9443436;Bus 19 : TERMINUS MONTMORENCY;"";EXO;19 S;Terminus Terrebonne;Terminus Montmorency
37691525;"{\"type\":\"LineString\",\"coordinates\":[[-73.7214083,45.571703],[-73.7213415,45.5716383]]}";2;Boulevard Industriel;1;50;false;true;true;false;false;false;9.0;1;0;0;0;0;false;84637;6129483672;-73.721797;45.571924;84000;6129485078;-73.7197579;45.5583223;0;5;6;9443436;Bus 19 : TERMINUS MONTMORENCY;"";EXO;19 S;Terminus Terrebonne;Terminus Montmorency
452095366;"{\"type\":\"LineString\",\"coordinates\":[[-73.7213415,45.5716383],[-73.7211966,45.5714979]]}";3;Boulevard Industriel;1;50;false;true;true;false;false;false;20.0;2;0;0;0;0;false;84637;6129483672;-73.721797;45.571924;84000;6129485078;-73.7197579;45.5583223;0;5;6;9443436;Bus 19 : TERMINUS MONTMORENCY;"";EXO;19 S;Terminus Terrebonne;Terminus Montmorency
452095376;"{\"type\":\"LineString\",\"coordinates\":[[-73.7211966,45.5714979],[-73.7209012,45.571202]]}";4;Boulevard Laval;3;50;false;true;false;false;false;false;41.0;1;0;0;0;0;false;84637;6129483672;-73.721797;45.571924;84000;6129485078;-73.7197579;45.5583223;0;5;6;9443436;Bus 19 : TERMINUS MONTMORENCY;"";EXO;19 S;Terminus Terrebonne;Terminus Montmorency
37691522;"{\"type\":\"LineString\",\"coordinates\":[[-73.7209012,45.571202],[-73.7207547,45.5710175],[-73.7206138,45.570788],[-73.7205052,45.5705621],[-73.720425,45.5703095],[-73.7203946,45.5701616],[-73.7203287,45.5693743],[-73.7203035,45.5686366],[-73.7202589,45.5681809],[-73.7201796,45.5675736],[-73.7200851,45.567171],[-73.7198706,45.5667144],[-73.7195101,45.5662457],[-73.7190836,45.5657612],[-73.7185115,45.5651955],[-73.7180853,45.5647675],[-73.7173856,45.5641293]]}";5;Boulevard Laval;3;50;false;true;false;false;false;false;857.0;1;0;0;0;0;false;84637;6129483672;-73.721797;45.571924;84000;6129485078;-73.7197579;45.5583223;0;5;6;9443436;Bus 19 : TERMINUS MONTMORENCY;"";EXO;19 S;Terminus Terrebonne;Terminus Montmorency
165090588;"{\"type\":\"LineString\",\"coordinates\":[[-73.7173856,45.5641293],[-73.7175252,45.564058],[-73.7182549,45.5637161],[-73.7190351,45.5633285],[-73.7196752,45.5629869],[-73.7203549,45.5627098],[-73.7203891,45.562698],[-73.7211787,45.5624216],[-73.7221512,45.5621209],[-73.722162,45.5621176],[-73.7222878,45.5620794]]}";6;Boulevard du Souvenir;3;50;false;true;true;false;false;false;447.0;1;0;0;0;0;false;84637;6129483672;-73.721797;45.571924;84000;6129485078;-73.7197579;45.5583223;0;5;6;9443436;Bus 19 : TERMINUS MONTMORENCY;"";EXO;19 S;Terminus Terrebonne;Terminus Montmorency
475237530;"{\"type\":\"LineString\",\"coordinates\":[[-73.7222878,45.5620794],[-73.7227201,45.561963]]}";7;Boulevard du Souvenir;3;50;false;true;true;false;false;false;37.0;1;0;0;0;0;false;84637;6129483672;-73.721797;45.571924;84000;6129485078;-73.7197579;45.5583223;0;5;6;9443436;Bus 19 : TERMINUS MONTMORENCY;"";EXO;19 S;Terminus Terrebonne;Terminus Montmorency
669709379;"{\"type\":\"LineString\",\"coordinates\":[[-73.7227201,45.561963],[-73.7228972,45.5619121]]}";8;Boulevard du Souvenir;3;50;false;true;true;false;false;false;15.0;2;0;0;0;0;false;84637;6129483672;-73.721797;45.571924;84000;6129485078;-73.7197579;45.5583223;0;5;6;9443436;Bus 19 : TERMINUS MONTMORENCY;"";EXO;19 S;Terminus Terrebonne;Terminus Montmorency
680430220;"{\"type\":\"LineString\",\"coordinates\":[[-73.7228972,45.5619121],[-73.722752,45.5617595]]}";9;Boulevard de l'Avenir;3;50;false;true;false;false;false;false;21.0;2;0;0;0;0;false;84637;6129483672;-73.721797;45.571924;84000;6129485078;-73.7197579;45.5583223;0;5;6;9443436;Bus 19 : TERMINUS MONTMORENCY;"";EXO;19 S;Terminus Terrebonne;Terminus Montmorency
29081985;"{\"type\":\"LineString\",\"coordinates\":[[-73.722752,45.5617595],[-73.7225279,45.561532],[-73.7214827,45.5604479],[-73.7211098,45.5600515],[-73.7210472,45.5599848],[-73.7205915,45.5595102]]}";10;Boulevard de l'Avenir;3;50;false;true;false;false;false;false;302.0;1;0;0;0;0;false;84637;6129483672;-73.721797;45.571924;84000;6129485078;-73.7197579;45.5583223;0;5;6;9443436;Bus 19 : TERMINUS MONTMORENCY;"";EXO;19 S;Terminus Terrebonne;Terminus Montmorency
695738775;"{\"type\":\"LineString\",\"coordinates\":[[-73.7205915,45.5595102],[-73.7199464,45.5588146]]}";11;Boulevard de l'Avenir;3;50;false;true;false;false;false;false;93.0;0;0;0;0;0;false;84637;6129483672;-73.721797;45.571924;84000;6129485078;-73.7197579;45.5583223;0;5;6;9443436;Bus 19 : TERMINUS MONTMORENCY;"";EXO;19 S;Terminus Terrebonne;Terminus Montmorency
475848926;"{\"type\":\"LineString\",\"coordinates\":[[-73.7199464,45.5588146],[-73.719872,45.558742],[-73.7198603,45.5587298],[-73.7197703,45.558636]]}";12;Boulevard de l'Avenir;3;50;false;true;false;false;false;false;25.0;0;1;0;0;0;false;84637;6129483672;-73.721797;45.571924;84000;6129485078;-73.7197579;45.5583223;0;5;6;9443436;Bus 19 : TERMINUS MONTMORENCY;"";EXO;19 S;Terminus Terrebonne;Terminus Montmorency
673250003;"{\"type\":\"LineString\",\"coordinates\":[[-73.7200309,45.5584789],[-73.7198217,45.5586049],[-73.7197703,45.558636]]}";13;"";1;30;false;false;false;false;false;false;27.0;0;1;0;0;0;false;84637;6129483672;-73.721797;45.571924;84000;6129485078;-73.7197579;45.5583223;0;5;6;9443436;Bus 19 : TERMINUS MONTMORENCY;"";EXO;19 S;Terminus Terrebonne;Terminus Montmorency
673246437;"{\"type\":\"LineString\",\"coordinates\":[[-73.7200309,45.5584789],[-73.720124,45.5585758],[-73.7201474,45.5585648]]}";14;"";1;30;false;true;false;false;false;false;16.0;0;0;0;0;0;false;84637;6129483672;-73.721797;45.571924;84000;6129485078;-73.7197579;45.5583223;0;5;6;9443436;Bus 19 : TERMINUS MONTMORENCY;"";EXO;19 S;Terminus Terrebonne;Terminus Montmorency
624217210;"{\"type\":\"LineString\",\"coordinates\":[[-73.7201474,45.5585648],[-73.720206,45.5585372],[-73.7203325,45.5584776]]}";15;"";1;30;false;true;false;false;false;false;18.0;0;0;0;0;0;false;84637;6129483672;-73.721797;45.571924;84000;6129485078;-73.7197579;45.5583223;0;5;6;9443436;Bus 19 : TERMINUS MONTMORENCY;"";EXO;19 S;Terminus Terrebonne;Terminus Montmorency
673264013;"{\"type\":\"LineString\",\"coordinates\":[[-73.7203325,45.5584776],[-73.7205612,45.55837]]}";16;"";1;30;false;true;false;false;false;false;22.0;0;0;0;0;0;false;84637;6129483672;-73.721797;45.571924;84000;6129485078;-73.7197579;45.5583223;0;5;6;9443436;Bus 19 : TERMINUS MONTMORENCY;"";EXO;19 S;Terminus Terrebonne;Terminus Montmorency
673264014;"{\"type\":\"LineString\",\"coordinates\":[[-73.7205612,45.55837],[-73.7207712,45.5582711]]}";17;"";1;30;false;true;false;false;false;false;20.0;0;0;0;0;0;false;84637;6129483672;-73.721797;45.571924;84000;6129485078;-73.7197579;45.5583223;0;5;6;9443436;Bus 19 : TERMINUS MONTMORENCY;"";EXO;19 S;Terminus Terrebonne;Terminus Montmorency
475848923;"{\"type\":\"LineString\",\"coordinates\":[[-73.7207712,45.5582711],[-73.7209137,45.558204]]}";18;"";1;30;false;true;true;false;false;false;14.0;0;0;0;0;0;false;84637;6129483672;-73.721797;45.571924;84000;6129485078;-73.7197579;45.5583223;0;5;6;9443436;Bus 19 : TERMINUS MONTMORENCY;"";EXO;19 S;Terminus Terrebonne;Terminus Montmorency
673264015;"{\"type\":\"LineString\",\"coordinates\":[[-73.7209137,45.558204],[-73.7207353,45.5580182]]}";19;"";1;30;false;true;true;false;false;false;25.0;0;0;0;0;0;false;84637;6129483672;-73.721797;45.571924;84000;6129485078;-73.7197579;45.5583223;0;5;6;9443436;Bus 19 : TERMINUS MONTMORENCY;"";EXO;19 S;Terminus Terrebonne;Terminus Montmorency
669689629;"{\"type\":\"LineString\",\"coordinates\":[[-73.7207353,45.5580182],[-73.720718,45.5580002],[-73.7204415,45.5581303]]}";20;"";1;30;false;true;true;false;false;false;29.0;0;0;0;0;0;false;84637;6129483672;-73.721797;45.571924;84000;6129485078;-73.7197579;45.5583223;0;5;6;9443436;Bus 19 : TERMINUS MONTMORENCY;"";EXO;19 S;Terminus Terrebonne;Terminus Montmorency
669709387;"{\"type\":\"LineString\",\"coordinates\":[[-73.7204415,45.5581303],[-73.7202192,45.558235]]}";21;"";1;30;false;true;true;false;false;false;21.0;0;0;0;0;0;false;84637;6129483672;-73.721797;45.571924;84000;6129485078;-73.7197579;45.5583223;0;5;6;9443436;Bus 19 : TERMINUS MONTMORENCY;"";EXO;19 S;Terminus Terrebonne;Terminus Montmorency
673264017;"{\"type\":\"LineString\",\"coordinates\":[[-73.7202192,45.558235],[-73.7200265,45.5583257]]}";22;"";1;30;false;true;true;false;false;false;19.0;0;0;0;0;0;false;84637;6129483672;-73.721797;45.571924;84000;6129485078;-73.7197579;45.5583223;0;5;6;9443436;Bus 19 : TERMINUS MONTMORENCY;"";EXO;19 S;Terminus Terrebonne;Terminus Montmorency
669709385;"{\"type\":\"LineString\",\"coordinates\":[[-73.7200265,45.5583257],[-73.7199282,45.558372]]}";23;"";1;30;false;true;true;false;false;false;10.0;0;0;0;0;0;false;84637;6129483672;-73.721797;45.571924;84000;6129485078;-73.7197579;45.5583223;1;5;6;9443436;Bus 19 : TERMINUS MONTMORENCY;"";EXO;19 S;Terminus Terrebonne;Terminus Montmorency
