way_id;shape;index;name;nb_lanes;legal_speed;speed_zone_30;oneway;shares_bike;bike_box;bus_lane;dedicated_bus_lane;length;nb_traffic_signals;nb_crossings;nb_stops;nb_give_ways;nb_lvl_crossings;roundabout;stop_id_orig;node_id_orig;coord_x_orig;coord_y_orig;stop_id_dest;node_id_dest;coord_x_dest;coord_y_dest;nb_neighbouring_ways_bus_stop;ordre_orig;ordre_dest;id_line;line_name;colour;operator;ref;from;to
624217211;"{\"type\":\"LineString\",\"coordinates\":[[-73.8724273,45.5545517],[-73.8720045,45.5543616],[-73.8716714,45.5541899]]}";1;Boulevard Arthur-Sauvé;1;50;false;true;true;false;false;false;72.0;0;0;0;0;0;false;43086;5894580450;-73.87247;45.554493;43084;5894580475;-73.86973;45.552468;1;0;1;8670609;Bus : 46 S - Direction Métro Montmorency;"";STL;46S;Arthur-Sauvé / Prévert;Métro Montmorency
476016854;"{\"type\":\"LineString\",\"coordinates\":[[-73.8716714,45.5541899],[-73.8714183,45.5540465],[-73.8711752,45.5538884],[-73.8709734,45.5537462]]}";2;Boulevard Arthur-Sauvé;1;50;false;true;true;false;false;false;74.0;0;0;0;0;0;false;43086;5894580450;-73.87247;45.554493;43084;5894580475;-73.86973;45.552468;0;0;1;8670609;Bus : 46 S - Direction Métro Montmorency;"";STL;46S;Arthur-Sauvé / Prévert;Métro Montmorency
476017448;"{\"type\":\"LineString\",\"coordinates\":[[-73.8709734,45.5537462],[-73.8704228,45.5532236]]}";3;Boulevard Arthur-Sauvé;1;50;false;true;true;false;false;false;73.0;0;0;0;0;0;false;43086;5894580450;-73.87247;45.554493;43084;5894580475;-73.86973;45.552468;0;0;1;8670609;Bus : 46 S - Direction Métro Montmorency;"";STL;46S;Arthur-Sauvé / Prévert;Métro Montmorency
476017447;"{\"type\":\"LineString\",\"coordinates\":[[-73.8704228,45.5532236],[-73.8701516,45.5529631]]}";4;Boulevard Arthur-Sauvé;1;50;false;true;true;false;false;false;36.0;0;0;0;0;0;false;43086;5894580450;-73.87247;45.554493;43084;5894580475;-73.86973;45.552468;0;0;1;8670609;Bus : 46 S - Direction Métro Montmorency;"";STL;46S;Arthur-Sauvé / Prévert;Métro Montmorency
455469448;"{\"type\":\"LineString\",\"coordinates\":[[-73.8701516,45.5529631],[-73.8699656,45.5527746]]}";5;Boulevard Arthur-Sauvé;1;50;false;true;true;false;false;false;26.0;0;0;0;0;0;false;43086;5894580450;-73.87247;45.554493;43084;5894580475;-73.86973;45.552468;0;0;1;8670609;Bus : 46 S - Direction Métro Montmorency;"";STL;46S;Arthur-Sauvé / Prévert;Métro Montmorency
455469447;"{\"type\":\"LineString\",\"coordinates\":[[-73.8699656,45.5527746],[-73.8686958,45.5515852],[-73.868478,45.5513931],[-73.867746,45.5507022],[-73.8674878,45.5504501],[-73.867386,45.5503493],[-73.8663406,45.5493756],[-73.8660092,45.5490695],[-73.8656535,45.5487228],[-73.8656207,45.5486905]]}";6;Boulevard Arthur-Sauvé;2;50;false;true;true;false;false;false;283.5;1;0;0;0;0;false;43086;5894580450;-73.87247;45.554493;43084;5894580475;-73.86973;45.552468;1;0;1;8670609;Bus : 46 S - Direction Métro Montmorency;"";STL;46S;Arthur-Sauvé / Prévert;Métro Montmorency
455469447;"{\"type\":\"LineString\",\"coordinates\":[[-73.8699656,45.5527746],[-73.8686958,45.5515852],[-73.868478,45.5513931],[-73.867746,45.5507022],[-73.8674878,45.5504501],[-73.867386,45.5503493],[-73.8663406,45.5493756],[-73.8660092,45.5490695],[-73.8656535,45.5487228],[-73.8656207,45.5486905]]}";1;Boulevard Arthur-Sauvé;2;50;false;true;true;false;false;false;283.5;1;0;0;0;0;false;43082;5894581091;-73.86789;45.550683;43080;5894581096;-73.86522;45.54819;1;2;3;8670609;Bus : 46 S - Direction Métro Montmorency;"";STL;46S;Arthur-Sauvé / Prévert;Métro Montmorency
680568198;"{\"type\":\"LineString\",\"coordinates\":[[-73.8656207,45.5486905],[-73.8655732,45.5486417]]}";2;Boulevard Arthur-Sauvé;2;50;false;true;true;false;false;false;7.0;1;0;0;0;0;false;43082;5894581091;-73.86789;45.550683;43080;5894581096;-73.86522;45.54819;0;2;3;8670609;Bus : 46 S - Direction Métro Montmorency;"";STL;46S;Arthur-Sauvé / Prévert;Métro Montmorency
680568199;"{\"type\":\"LineString\",\"coordinates\":[[-73.8655732,45.5486417],[-73.8650246,45.5480724],[-73.8647223,45.5477635],[-73.8645175,45.5475541]]}";3;Boulevard Arthur-Sauvé;2;50;false;true;true;false;false;false;73.5;1;0;0;0;0;false;43082;5894581091;-73.86789;45.550683;43080;5894581096;-73.86522;45.54819;1;2;3;8670609;Bus : 46 S - Direction Métro Montmorency;"";STL;46S;Arthur-Sauvé / Prévert;Métro Montmorency
680568199;"{\"type\":\"LineString\",\"coordinates\":[[-73.8655732,45.5486417],[-73.8650246,45.5480724],[-73.8647223,45.5477635],[-73.8645175,45.5475541]]}";1;Boulevard Arthur-Sauvé;2;50;false;true;true;false;false;false;73.5;1;0;0;0;0;false;43080;5894581096;-73.86522;45.54819;43078;5894580441;-73.86407;45.547069;1;3;4;8670609;Bus : 46 S - Direction Métro Montmorency;"";STL;46S;Arthur-Sauvé / Prévert;Métro Montmorency
476021691;"{\"type\":\"LineString\",\"coordinates\":[[-73.8645175,45.5475541],[-73.8639388,45.5470594]]}";2;Boulevard Arthur-Sauvé;1;50;false;true;true;false;false;false;36.0;1;0;0;0;0;false;43080;5894581096;-73.86522;45.54819;43078;5894580441;-73.86407;45.547069;1;3;4;8670609;Bus : 46 S - Direction Métro Montmorency;"";STL;46S;Arthur-Sauvé / Prévert;Métro Montmorency
208087426;"{\"type\":\"LineString\",\"coordinates\":[[-73.8570712,45.5405823],[-73.8574913,45.5409786],[-73.8586657,45.5420863],[-73.8599008,45.5432512],[-73.8599576,45.5433047],[-73.8600147,45.5433586],[-73.8625924,45.5457896],[-73.8635473,45.5466902],[-73.8639388,45.5470594]]}";1;Boulevard Arthur-Sauvé;2;50;false;false;true;false;false;false;448.5;3;2;0;0;0;false;43091;5894580442;-73.85795;45.541356;42764;5894580467;-73.85479;45.541438;1;8;9;8670609;Bus : 46 S - Direction Métro Montmorency;"";STL;46S;Arthur-Sauvé / Prévert;Métro Montmorency
45588787;"{\"type\":\"LineString\",\"coordinates\":[[-73.8570712,45.5405823],[-73.8557945,45.5410704],[-73.8554326,45.5412288],[-73.854695,45.5415995],[-73.8535683,45.5422003],[-73.8528958,45.5425175],[-73.8522752,45.5427993],[-73.8515913,45.5430445],[-73.8512825,45.5431134]]}";2;Chemin Saint-Antoine;2;50;false;false;true;false;false;false;267.0;1;0;0;0;0;false;43091;5894580442;-73.85795;45.541356;42764;5894580467;-73.85479;45.541438;1;8;9;8670609;Bus : 46 S - Direction Métro Montmorency;"";STL;46S;Arthur-Sauvé / Prévert;Métro Montmorency
45588787;"{\"type\":\"LineString\",\"coordinates\":[[-73.8570712,45.5405823],[-73.8557945,45.5410704],[-73.8554326,45.5412288],[-73.854695,45.5415995],[-73.8535683,45.5422003],[-73.8528958,45.5425175],[-73.8522752,45.5427993],[-73.8515913,45.5430445],[-73.8512825,45.5431134]]}";1;Chemin Saint-Antoine;2;50;false;false;true;false;false;false;267.0;1;0;0;0;0;false;42762;5894580483;-73.85214;45.542775;42760;5894581087;-73.84962;45.543326;1;10;11;8670609;Bus : 46 S - Direction Métro Montmorency;"";STL;46S;Arthur-Sauvé / Prévert;Métro Montmorency
500180047;"{\"type\":\"LineString\",\"coordinates\":[[-73.8512825,45.5431134],[-73.8494857,45.543408]]}";2;Rang Saint-Antoine;2;50;false;false;true;false;false;false;72.0;0;0;0;0;0;false;42762;5894580483;-73.85214;45.542775;42760;5894581087;-73.84962;45.543326;1;10;11;8670609;Bus : 46 S - Direction Métro Montmorency;"";STL;46S;Arthur-Sauvé / Prévert;Métro Montmorency
391450690;"{\"type\":\"LineString\",\"coordinates\":[[-73.8493697,45.5428927],[-73.8494642,45.5433214],[-73.8494857,45.543408]]}";1;Rue Principale;2;50;false;false;false;false;false;false;58.0;1;0;0;0;0;false;42760;5894581087;-73.84962;45.543326;42672;5894580434;-73.84887;45.542124;2;11;12;8670609;Bus : 46 S - Direction Métro Montmorency;"";STL;46S;Arthur-Sauvé / Prévert;Métro Montmorency
391450689;"{\"type\":\"LineString\",\"coordinates\":[[-73.8339954,45.5274892],[-73.8342273,45.5276299],[-73.8345279,45.5278757],[-73.8351496,45.5284463],[-73.8394523,45.5327581],[-73.841992,45.535303],[-73.8424188,45.5357327],[-73.8428448,45.5361614],[-73.8461726,45.539511],[-73.846683,45.5400247],[-73.8485995,45.5419368],[-73.8490867,45.5423937],[-73.849207,45.5425439],[-73.8492588,45.5426281],[-73.8493162,45.5427557],[-73.8493697,45.5428927]]}";2;Rue Principale;2;60;false;false;false;false;false;false;2093.0;1;0;0;0;0;false;42760;5894581087;-73.84962;45.543326;42672;5894580434;-73.84887;45.542124;2;11;12;8670609;Bus : 46 S - Direction Métro Montmorency;"";STL;46S;Arthur-Sauvé / Prévert;Métro Montmorency
42045136;"{\"type\":\"LineString\",\"coordinates\":[[-73.8262052,45.527088],[-73.8267905,45.5269585],[-73.826827,45.5269504],[-73.8274395,45.5268557],[-73.827796,45.5268304],[-73.827827,45.5268307],[-73.8282885,45.5268346],[-73.8286454,45.5268376],[-73.8291046,45.5268524],[-73.8296602,45.5268761],[-73.8302575,45.5268896],[-73.8309657,45.526909],[-73.8314784,45.526927],[-73.832023,45.5269517],[-73.8324746,45.526999],[-73.8329262,45.527081],[-73.833743,45.52736],[-73.8339038,45.5274374],[-73.8339954,45.5274892]]}";1;Rue Principale;2;50;false;false;false;false;false;false;313.0;0;0;0;0;0;false;42653;5894580481;-73.82888;45.526785;42655;5894580439;-73.8242169;45.5269788;1;20;21;8670609;Bus : 46 S - Direction Métro Montmorency;"";STL;46S;Arthur-Sauvé / Prévert;Métro Montmorency
222755369;"{\"type\":\"LineString\",\"coordinates\":[[-73.8262052,45.527088],[-73.8253271,45.5274502],[-73.8242626,45.5279686],[-73.8237944,45.5281646],[-73.8232817,45.5283366],[-73.8226041,45.5285688],[-73.8222529,45.5286891],[-73.8215417,45.5289231]]}";2;Rue Principale;2;50;false;false;true;false;false;false;209.5;0;0;0;0;0;false;42653;5894580481;-73.82888;45.526785;42655;5894580439;-73.8242169;45.5269788;1;20;21;8670609;Bus : 46 S - Direction Métro Montmorency;"";STL;46S;Arthur-Sauvé / Prévert;Métro Montmorency
222755369;"{\"type\":\"LineString\",\"coordinates\":[[-73.8262052,45.527088],[-73.8253271,45.5274502],[-73.8242626,45.5279686],[-73.8237944,45.5281646],[-73.8232817,45.5283366],[-73.8226041,45.5285688],[-73.8222529,45.5286891],[-73.8215417,45.5289231]]}";1;Rue Principale;2;50;false;false;true;false;false;false;209.5;0;0;0;0;0;false;42652;5894580451;-73.82333;45.528277;42650;5894580443;-73.82103;45.528994;1;22;23;8670609;Bus : 46 S - Direction Métro Montmorency;"";STL;46S;Arthur-Sauvé / Prévert;Métro Montmorency
686619030;"{\"type\":\"LineString\",\"coordinates\":[[-73.8215417,45.5289231],[-73.8210083,45.5290983],[-73.82093,45.5291226],[-73.8206575,45.5292126],[-73.8205606,45.5292446]]}";2;Rue Principale;2;50;false;false;true;false;false;false;42.5;0;0;0;0;0;false;42652;5894580451;-73.82333;45.528277;42650;5894580443;-73.82103;45.528994;1;22;23;8670609;Bus : 46 S - Direction Métro Montmorency;"";STL;46S;Arthur-Sauvé / Prévert;Métro Montmorency
686619030;"{\"type\":\"LineString\",\"coordinates\":[[-73.8215417,45.5289231],[-73.8210083,45.5290983],[-73.82093,45.5291226],[-73.8206575,45.5292126],[-73.8205606,45.5292446]]}";1;Rue Principale;2;50;false;false;true;false;false;false;42.5;0;0;0;0;0;false;42650;5894580443;-73.82103;45.528994;42647;5894580455;-73.82007;45.52933;1;23;24;8670609;Bus : 46 S - Direction Métro Montmorency;"";STL;46S;Arthur-Sauvé / Prévert;Métro Montmorency
682368053;"{\"type\":\"LineString\",\"coordinates\":[[-73.8205606,45.5292446],[-73.8204605,45.5292776]]}";2;Rue Principale;2;50;false;false;true;false;false;false;9.0;0;0;0;0;0;false;42650;5894580443;-73.82103;45.528994;42647;5894580455;-73.82007;45.52933;0;23;24;8670609;Bus : 46 S - Direction Métro Montmorency;"";STL;46S;Arthur-Sauvé / Prévert;Métro Montmorency
681114640;"{\"type\":\"LineString\",\"coordinates\":[[-73.8204605,45.5292776],[-73.8200178,45.5294092],[-73.8175788,45.5301158],[-73.8160033,45.5305756],[-73.8155293,45.5307139]]}";3;Rue Principale;2;50;false;false;true;false;false;false;208.5;0;0;0;0;0;false;42650;5894580443;-73.82103;45.528994;42647;5894580455;-73.82007;45.52933;1;23;24;8670609;Bus : 46 S - Direction Métro Montmorency;"";STL;46S;Arthur-Sauvé / Prévert;Métro Montmorency
681114640;"{\"type\":\"LineString\",\"coordinates\":[[-73.8204605,45.5292776],[-73.8200178,45.5294092],[-73.8175788,45.5301158],[-73.8160033,45.5305756],[-73.8155293,45.5307139]]}";1;Rue Principale;2;50;false;false;true;false;false;false;208.5;0;0;0;0;0;false;42646;5894580484;-73.81766;45.530057;42644;5894581099;-73.81461;45.530911;1;25;26;8670609;Bus : 46 S - Direction Métro Montmorency;"";STL;46S;Arthur-Sauvé / Prévert;Métro Montmorency
128245162;"{\"type\":\"LineString\",\"coordinates\":[[-73.8155293,45.5307139],[-73.8153442,45.5307594]]}";2;Rue Principale;2;50;false;false;true;false;false;false;16.0;0;0;0;0;0;false;42646;5894580484;-73.81766;45.530057;42644;5894581099;-73.81461;45.530911;0;25;26;8670609;Bus : 46 S - Direction Métro Montmorency;"";STL;46S;Arthur-Sauvé / Prévert;Métro Montmorency
26201425;"{\"type\":\"LineString\",\"coordinates\":[[-73.7965203,45.5371178],[-73.7970642,45.5367732],[-73.797345,45.5366099],[-73.7976636,45.5364246],[-73.7984007,45.5359958],[-73.7988006,45.5357632],[-73.7992044,45.5355859],[-73.8004742,45.5350283],[-73.8017143,45.5344886],[-73.8017578,45.5344697],[-73.8029054,45.533952],[-73.8039492,45.533552],[-73.8048505,45.5332624],[-73.8056974,45.5330559],[-73.8067677,45.532821],[-73.8106907,45.5319988],[-73.8108765,45.5319596],[-73.8111937,45.5318927],[-73.8112551,45.5318798],[-73.8129065,45.5315046],[-73.8134174,45.5313419],[-73.8145691,45.5309828],[-73.814951,45.5308727],[-73.8153442,45.5307594]]}";3;Rue Principale;2;50;false;false;true;false;false;false;824.0;0;0;0;0;0;false;42646;5894580484;-73.81766;45.530057;42644;5894581099;-73.81461;45.530911;1;25;26;8670609;Bus : 46 S - Direction Métro Montmorency;"";STL;46S;Arthur-Sauvé / Prévert;Métro Montmorency
391450692;"{\"type\":\"LineString\",\"coordinates\":[[-73.799513,45.5395303],[-73.7977058,45.5380735],[-73.7965203,45.5371178]]}";1;Montée Champagne;2;50;false;false;true;false;false;false;178.0;0;0;0;0;0;false;41271;5894581097;-73.79842;45.538729;42823;5894580452;-73.79909;45.539645;1;36;37;8670609;Bus : 46 S - Direction Métro Montmorency;"";STL;46S;Arthur-Sauvé / Prévert;Métro Montmorency
405007659;"{\"type\":\"LineString\",\"coordinates\":[[-73.799513,45.5395303],[-73.7985038,45.5400229],[-73.7969123,45.5407898],[-73.7956848,45.5413574]]}";2;Boulevard Saint-Martin Ouest;3;70;false;true;true;false;false;false;181.0;1;0;0;0;0;false;41271;5894581097;-73.79842;45.538729;42823;5894580452;-73.79909;45.539645;1;36;37;8670609;Bus : 46 S - Direction Métro Montmorency;"";STL;46S;Arthur-Sauvé / Prévert;Métro Montmorency
405007659;"{\"type\":\"LineString\",\"coordinates\":[[-73.799513,45.5395303],[-73.7985038,45.5400229],[-73.7969123,45.5407898],[-73.7956848,45.5413574]]}";1;Boulevard Saint-Martin Ouest;3;70;false;true;true;false;false;false;181.0;1;0;0;0;0;false;42823;5894580452;-73.79909;45.539645;42430;5894580465;-73.7891;45.541614;1;37;38;8670609;Bus : 46 S - Direction Métro Montmorency;"";STL;46S;Arthur-Sauvé / Prévert;Métro Montmorency
38816201;"{\"type\":\"LineString\",\"coordinates\":[[-73.7956848,45.5413574],[-73.794444,45.5419387]]}";2;Boulevard Saint-Martin;3;70;false;true;true;false;false;false;117.0;0;0;0;0;0;false;42823;5894580452;-73.79909;45.539645;42430;5894580465;-73.7891;45.541614;0;37;38;8670609;Bus : 46 S - Direction Métro Montmorency;"";STL;46S;Arthur-Sauvé / Prévert;Métro Montmorency
405007658;"{\"type\":\"LineString\",\"coordinates\":[[-73.794444,45.5419387],[-73.7931932,45.5425507]]}";3;Boulevard Saint-Martin Ouest;3;70;false;true;true;false;false;false;119.0;1;0;0;0;0;false;42823;5894580452;-73.79909;45.539645;42430;5894580465;-73.7891;45.541614;0;37;38;8670609;Bus : 46 S - Direction Métro Montmorency;"";STL;46S;Arthur-Sauvé / Prévert;Métro Montmorency
466352802;"{\"type\":\"LineString\",\"coordinates\":[[-73.7931932,45.5425507],[-73.7926294,45.5428054]]}";4;Boulevard Saint-Martin Ouest;3;70;false;true;true;false;false;false;53.0;1;0;0;0;0;false;42823;5894580452;-73.79909;45.539645;42430;5894580465;-73.7891;45.541614;0;37;38;8670609;Bus : 46 S - Direction Métro Montmorency;"";STL;46S;Arthur-Sauvé / Prévert;Métro Montmorency
466352798;"{\"type\":\"LineString\",\"coordinates\":[[-73.7926294,45.5428054],[-73.7921078,45.5430622]]}";5;Boulevard Saint-Martin Ouest;2;70;false;true;true;false;false;false;50.0;0;0;0;0;0;false;42823;5894580452;-73.79909;45.539645;42430;5894580465;-73.7891;45.541614;0;37;38;8670609;Bus : 46 S - Direction Métro Montmorency;"";STL;46S;Arthur-Sauvé / Prévert;Métro Montmorency
38816202;"{\"type\":\"LineString\",\"coordinates\":[[-73.7921078,45.5430622],[-73.7919421,45.543144],[-73.79121,45.5434748]]}";6;Boulevard Saint-Martin Ouest;2;70;false;true;true;false;false;false;84.0;0;0;0;0;0;false;42823;5894580452;-73.79909;45.539645;42430;5894580465;-73.7891;45.541614;0;37;38;8670609;Bus : 46 S - Direction Métro Montmorency;"";STL;46S;Arthur-Sauvé / Prévert;Métro Montmorency
23606059;"{\"type\":\"LineString\",\"coordinates\":[[-73.7888394,45.5415743],[-73.7889402,45.5416552],[-73.7905987,45.5429848],[-73.7907959,45.5431429],[-73.79121,45.5434748]]}";7;Rue Montgolfier;2;50;false;false;true;false;false;false;140.5;0;0;1;0;0;false;42823;5894580452;-73.79909;45.539645;42430;5894580465;-73.7891;45.541614;1;37;38;8670609;Bus : 46 S - Direction Métro Montmorency;"";STL;46S;Arthur-Sauvé / Prévert;Métro Montmorency
23606059;"{\"type\":\"LineString\",\"coordinates\":[[-73.7888394,45.5415743],[-73.7889402,45.5416552],[-73.7905987,45.5429848],[-73.7907959,45.5431429],[-73.79121,45.5434748]]}";1;Rue Montgolfier;2;50;false;false;true;false;false;false;140.5;0;0;1;0;0;false;42430;5894580465;-73.7891;45.541614;42827;5894581085;-73.78642;45.542692;1;38;39;8670609;Bus : 46 S - Direction Métro Montmorency;"";STL;46S;Arthur-Sauvé / Prévert;Métro Montmorency
525679286;"{\"type\":\"LineString\",\"coordinates\":[[-73.7714632,45.5477819],[-73.771943,45.5476576],[-73.7727998,45.5475578],[-73.7732055,45.5475093],[-73.7734085,45.547485],[-73.7740744,45.5474054],[-73.7747669,45.5473226],[-73.7748318,45.5473148],[-73.7752294,45.5472538],[-73.775746,45.5471746],[-73.7763477,45.5470627],[-73.7765195,45.5470321],[-73.7767844,45.5469811],[-73.7768801,45.5469604],[-73.777066,45.5469224],[-73.7771457,45.5469072],[-73.7772782,45.5468734],[-73.7772955,45.5468671],[-73.7773585,45.5468473],[-73.7775018,45.546808],[-73.7776535,45.5467711],[-73.7776836,45.5467611],[-73.7779968,45.5466543],[-73.7781419,45.5466047],[-73.7790246,45.5462517],[-73.7790621,45.546235],[-73.7793249,45.5461185],[-73.7801952,45.5457323],[-73.7804619,45.5456139],[-73.7806929,45.5455114],[-73.7807317,45.5454942],[-73.7809396,45.545402],[-73.7810159,45.5453681],[-73.7811932,45.5452821],[-73.7815178,45.5451247],[-73.7816296,45.5450724],[-73.7817649,45.545009],[-73.7819642,45.5449157],[-73.7820104,45.5448941],[-73.7822538,45.5447802],[-73.782372,45.5447249],[-73.7826982,45.544565],[-73.782995,45.5444195],[-73.7832053,45.5443164],[-73.783458,45.5441925],[-73.7840839,45.5438856],[-73.7844319,45.543715],[-73.7845163,45.5436734],[-73.7846312,45.5436168],[-73.7849267,45.5434712],[-73.7851046,45.5433835],[-73.7851597,45.5433564],[-73.7863045,45.5427923],[-73.7865556,45.5426686],[-73.7868352,45.5425308],[-73.7868886,45.5425043],[-73.7875171,45.5421924],[-73.7877099,45.5421023],[-73.7877979,45.5420614],[-73.7886677,45.5416574],[-73.7888394,45.5415743]]}";2;Boulevard Saint-Martin Ouest;2;50;false;false;true;false;false;false;772.5;0;0;3;0;0;false;42430;5894580465;-73.7891;45.541614;42827;5894581085;-73.78642;45.542692;1;38;39;8670609;Bus : 46 S - Direction Métro Montmorency;"";STL;46S;Arthur-Sauvé / Prévert;Métro Montmorency
681114639;"{\"type\":\"LineString\",\"coordinates\":[[-73.7698569,45.5482821],[-73.7709183,45.5479516],[-73.7714632,45.5477819]]}";1;Boulevard Saint-Martin Ouest;2;50;false;false;true;false;false;false;138.0;0;0;0;0;0;false;42803;5894580445;-73.7716;45.547731;42804;5894580457;-73.76944;45.548339;2;45;46;8670609;Bus : 46 S - Direction Métro Montmorency;"";STL;46S;Arthur-Sauvé / Prévert;Métro Montmorency
257204878;"{\"type\":\"LineString\",\"coordinates\":[[-73.760614,45.5513917],[-73.7610689,45.5511645],[-73.7615649,45.5509167],[-73.7615844,45.550907],[-73.7622332,45.5506123],[-73.7623279,45.5505692],[-73.7629535,45.5503693],[-73.7631444,45.5503083],[-73.7640615,45.5500383],[-73.7642781,45.5499745],[-73.7644738,45.5499169],[-73.7646017,45.5498793],[-73.7654393,45.5496326],[-73.7659314,45.5494949],[-73.7661256,45.5494406],[-73.7664525,45.5493495],[-73.7667787,45.5492512],[-73.7671827,45.5491307],[-73.7672285,45.5491175],[-73.7675822,45.5490155],[-73.7678466,45.5489392],[-73.7681127,45.5488625],[-73.7688135,45.5486293],[-73.7690155,45.5485621],[-73.7698569,45.5482821]]}";2;Boulevard Saint-Martin Ouest;2;50;false;false;false;false;false;false;803.0;0;0;0;0;0;false;42803;5894580445;-73.7716;45.547731;42804;5894580457;-73.76944;45.548339;2;45;46;8670609;Bus : 46 S - Direction Métro Montmorency;"";STL;46S;Arthur-Sauvé / Prévert;Métro Montmorency
455099070;"{\"type\":\"LineString\",\"coordinates\":[[-73.7601678,45.5516056],[-73.7603161,45.5515414],[-73.760614,45.5513917]]}";1;Boulevard Saint-Martin Ouest;2;50;false;false;false;false;false;false;43.0;0;0;0;0;0;false;42814;5894580453;-73.76068;45.551275;41423;5894580466;-73.75878;45.55055;2;51;52;8670609;Bus : 46 S - Direction Métro Montmorency;"";STL;46S;Arthur-Sauvé / Prévert;Métro Montmorency
455094088;"{\"type\":\"LineString\",\"coordinates\":[[-73.7598339,45.5517453],[-73.7601678,45.5516056]]}";2;Boulevard Saint-Martin Ouest;2;50;false;false;false;false;false;false;31.0;0;0;0;0;0;false;42814;5894580453;-73.76068;45.551275;41423;5894580466;-73.75878;45.55055;0;51;52;8670609;Bus : 46 S - Direction Métro Montmorency;"";STL;46S;Arthur-Sauvé / Prévert;Métro Montmorency
391452461;"{\"type\":\"LineString\",\"coordinates\":[[-73.7598339,45.5517453],[-73.7595239,45.5514428],[-73.7584553,45.5502554],[-73.758155,45.5499926]]}";3;Boulevard Curé-Labelle;2;50;false;true;true;false;false;false;235.0;0;0;0;0;0;false;42814;5894580453;-73.76068;45.551275;41423;5894580466;-73.75878;45.55055;2;51;52;8670609;Bus : 46 S - Direction Métro Montmorency;"";STL;46S;Arthur-Sauvé / Prévert;Métro Montmorency
391452461;"{\"type\":\"LineString\",\"coordinates\":[[-73.7598339,45.5517453],[-73.7595239,45.5514428],[-73.7584553,45.5502554],[-73.758155,45.5499926]]}";1;Boulevard Curé-Labelle;2;50;false;true;true;false;false;false;117.5;0;0;0;0;0;false;41423;5894580466;-73.75878;45.55055;41425;5894581095;-73.75742;45.549078;1;52;53;8670609;Bus : 46 S - Direction Métro Montmorency;"";STL;46S;Arthur-Sauvé / Prévert;Métro Montmorency
45828315;"{\"type\":\"LineString\",\"coordinates\":[[-73.7578057,45.5496495],[-73.758155,45.5499926]]}";2;Boulevard Curé-Labelle;4;50;false;false;true;false;false;false;47.0;0;0;0;0;0;false;41423;5894580466;-73.75878;45.55055;41425;5894581095;-73.75742;45.549078;0;52;53;8670609;Bus : 46 S - Direction Métro Montmorency;"";STL;46S;Arthur-Sauvé / Prévert;Métro Montmorency
45592672;"{\"type\":\"LineString\",\"coordinates\":[[-73.7571942,45.5490409],[-73.7578057,45.5496495]]}";3;Boulevard Curé-Labelle;4;50;false;false;true;false;false;false;41.5;0;0;0;0;0;false;41423;5894580466;-73.75878;45.55055;41425;5894581095;-73.75742;45.549078;1;52;53;8670609;Bus : 46 S - Direction Métro Montmorency;"";STL;46S;Arthur-Sauvé / Prévert;Métro Montmorency
58939608;"{\"type\":\"LineString\",\"coordinates\":[[-73.7498771,45.5423837],[-73.7506758,45.543113],[-73.7527936,45.5450467],[-73.7536215,45.5458026],[-73.7542611,45.5463629],[-73.7555498,45.547535],[-73.7560614,45.5480035],[-73.7571942,45.5490409]]}";1;Boulevard Curé-Labelle;4;50;false;false;true;false;false;false;467.5;0;0;0;0;0;false;41418;5894580444;-73.75093;45.543207;42481;5894580470;-73.74784;45.541144;1;56;57;8670609;Bus : 46 S - Direction Métro Montmorency;"";STL;46S;Arthur-Sauvé / Prévert;Métro Montmorency
624217208;"{\"type\":\"LineString\",\"coordinates\":[[-73.7498771,45.5423837],[-73.7497698,45.5422033],[-73.7485747,45.5410328]]}";2;Boulevard Curé-Labelle;2;50;false;true;true;false;false;false;182.0;1;0;0;0;0;false;41418;5894580444;-73.75093;45.543207;42481;5894580470;-73.74784;45.541144;0;56;57;8670609;Bus : 46 S - Direction Métro Montmorency;"";STL;46S;Arthur-Sauvé / Prévert;Métro Montmorency
669689625;"{\"type\":\"LineString\",\"coordinates\":[[-73.7485747,45.5410328],[-73.7484502,45.5410837]]}";3;Boulevard Notre-Dame;2;50;false;false;true;false;false;false;12.0;2;0;0;0;0;false;41418;5894580444;-73.75093;45.543207;42481;5894580470;-73.74784;45.541144;0;56;57;8670609;Bus : 46 S - Direction Métro Montmorency;"";STL;46S;Arthur-Sauvé / Prévert;Métro Montmorency
45601040;"{\"type\":\"LineString\",\"coordinates\":[[-73.7484502,45.5410837],[-73.7477636,45.5412816],[-73.7468845,45.541535]]}";4;Boulevard Notre-Dame;2;50;false;false;true;false;false;false;66.5;1;0;0;0;0;false;41418;5894580444;-73.75093;45.543207;42481;5894580470;-73.74784;45.541144;1;56;57;8670609;Bus : 46 S - Direction Métro Montmorency;"";STL;46S;Arthur-Sauvé / Prévert;Métro Montmorency
45601040;"{\"type\":\"LineString\",\"coordinates\":[[-73.7484502,45.5410837],[-73.7477636,45.5412816],[-73.7468845,45.541535]]}";1;Boulevard Notre-Dame;2;50;false;false;true;false;false;false;66.5;1;0;0;0;0;false;42481;5894580470;-73.74784;45.541144;42514;5894581086;-73.74583;45.541748;1;57;58;8670609;Bus : 46 S - Direction Métro Montmorency;"";STL;46S;Arthur-Sauvé / Prévert;Métro Montmorency
45600849;"{\"type\":\"LineString\",\"coordinates\":[[-73.7468845,45.541535],[-73.7467528,45.541573]]}";2;Boulevard Notre-Dame;2;50;false;false;true;false;false;false;12.0;0;0;0;0;0;false;42481;5894580470;-73.74784;45.541144;42514;5894581086;-73.74583;45.541748;0;57;58;8670609;Bus : 46 S - Direction Métro Montmorency;"";STL;46S;Arthur-Sauvé / Prévert;Métro Montmorency
45600868;"{\"type\":\"LineString\",\"coordinates\":[[-73.7467528,45.541573],[-73.7463569,45.5417017],[-73.7457905,45.5418859]]}";3;Boulevard Notre-Dame;2;50;false;false;true;false;false;false;41.5;0;0;0;0;0;false;42481;5894580470;-73.74784;45.541144;42514;5894581086;-73.74583;45.541748;1;57;58;8670609;Bus : 46 S - Direction Métro Montmorency;"";STL;46S;Arthur-Sauvé / Prévert;Métro Montmorency
45601067;"{\"type\":\"LineString\",\"coordinates\":[[-73.7457905,45.5418859],[-73.7454527,45.5419958]]}";1;Boulevard Notre-Dame;2;50;false;false;true;false;false;false;30.0;0;0;0;0;0;false;42514;5894581086;-73.74583;45.541748;42512;5894581090;-73.7434;45.542559;2;58;59;8670609;Bus : 46 S - Direction Métro Montmorency;"";STL;46S;Arthur-Sauvé / Prévert;Métro Montmorency
45600969;"{\"type\":\"LineString\",\"coordinates\":[[-73.7454527,45.5419958],[-73.745002,45.5421423],[-73.7446208,45.5422663]]}";2;Boulevard Notre-Dame;2;50;false;false;true;false;false;false;72.0;0;0;0;0;0;false;42514;5894581086;-73.74583;45.541748;42512;5894581090;-73.7434;45.542559;0;58;59;8670609;Bus : 46 S - Direction Métro Montmorency;"";STL;46S;Arthur-Sauvé / Prévert;Métro Montmorency
45601058;"{\"type\":\"LineString\",\"coordinates\":[[-73.7446208,45.5422663],[-73.7440281,45.542459]]}";3;Boulevard Notre-Dame;2;50;false;false;true;false;false;false;51.0;0;0;0;0;0;false;42514;5894581086;-73.74583;45.541748;42512;5894581090;-73.7434;45.542559;0;58;59;8670609;Bus : 46 S - Direction Métro Montmorency;"";STL;46S;Arthur-Sauvé / Prévert;Métro Montmorency
45600905;"{\"type\":\"LineString\",\"coordinates\":[[-73.7440281,45.542459],[-73.7430333,45.5427825],[-73.7427076,45.5428884]]}";4;Boulevard Notre-Dame;2;50;false;false;true;false;false;false;114.0;0;0;0;0;0;false;42514;5894581086;-73.74583;45.541748;42512;5894581090;-73.7434;45.542559;2;58;59;8670609;Bus : 46 S - Direction Métro Montmorency;"";STL;46S;Arthur-Sauvé / Prévert;Métro Montmorency
45600905;"{\"type\":\"LineString\",\"coordinates\":[[-73.7440281,45.542459],[-73.7430333,45.5427825],[-73.7427076,45.5428884]]}";1;Boulevard Notre-Dame;2;50;false;false;true;false;false;false;57.0;0;0;0;0;0;false;42512;5894581090;-73.7434;45.542559;42510;5894580436;-73.74191;45.543056;1;59;60;8670609;Bus : 46 S - Direction Métro Montmorency;"";STL;46S;Arthur-Sauvé / Prévert;Métro Montmorency
45600901;"{\"type\":\"LineString\",\"coordinates\":[[-73.7427076,45.5428884],[-73.7416907,45.5432191]]}";2;Boulevard Notre-Dame;2;50;false;false;true;false;false;false;44.0;0;0;0;0;0;false;42512;5894581090;-73.7434;45.542559;42510;5894580436;-73.74191;45.543056;1;59;60;8670609;Bus : 46 S - Direction Métro Montmorency;"";STL;46S;Arthur-Sauvé / Prévert;Métro Montmorency
45600901;"{\"type\":\"LineString\",\"coordinates\":[[-73.7427076,45.5428884],[-73.7416907,45.5432191]]}";1;Boulevard Notre-Dame;2;50;false;false;true;false;false;false;44.0;0;0;0;0;0;false;42510;5894580436;-73.74191;45.543056;42491;5894580458;-73.73927;45.543916;1;60;61;8670609;Bus : 46 S - Direction Métro Montmorency;"";STL;46S;Arthur-Sauvé / Prévert;Métro Montmorency
45601028;"{\"type\":\"LineString\",\"coordinates\":[[-73.7416907,45.5432191],[-73.7415212,45.5432408],[-73.74052,45.5435731]]}";2;Boulevard Notre-Dame;2;50;false;true;true;false;false;false;100.0;0;0;0;0;0;false;42510;5894580436;-73.74191;45.543056;42491;5894580458;-73.73927;45.543916;0;60;61;8670609;Bus : 46 S - Direction Métro Montmorency;"";STL;46S;Arthur-Sauvé / Prévert;Métro Montmorency
45601068;"{\"type\":\"LineString\",\"coordinates\":[[-73.74052,45.5435731],[-73.7397587,45.5438636]]}";3;Boulevard Notre-Dame;2;50;false;true;true;false;false;false;68.0;0;0;0;0;0;false;42510;5894580436;-73.74191;45.543056;42491;5894580458;-73.73927;45.543916;0;60;61;8670609;Bus : 46 S - Direction Métro Montmorency;"";STL;46S;Arthur-Sauvé / Prévert;Métro Montmorency
45601045;"{\"type\":\"LineString\",\"coordinates\":[[-73.7397587,45.5438636],[-73.7391262,45.5440816]]}";4;Boulevard Notre-Dame;2;50;false;true;true;false;false;false;27.5;1;0;0;0;0;false;42510;5894580436;-73.74191;45.543056;42491;5894580458;-73.73927;45.543916;1;60;61;8670609;Bus : 46 S - Direction Métro Montmorency;"";STL;46S;Arthur-Sauvé / Prévert;Métro Montmorency
45601045;"{\"type\":\"LineString\",\"coordinates\":[[-73.7397587,45.5438636],[-73.7391262,45.5440816]]}";1;Boulevard Notre-Dame;2;50;false;true;true;false;false;false;27.5;1;0;0;0;0;false;42491;5894580458;-73.73927;45.543916;46012;5894580474;-73.7369;45.544771;1;61;62;8670609;Bus : 46 S - Direction Métro Montmorency;"";STL;46S;Arthur-Sauvé / Prévert;Métro Montmorency
45600866;"{\"type\":\"LineString\",\"coordinates\":[[-73.7391262,45.5440816],[-73.7389841,45.544134]]}";2;Boulevard Notre-Dame;2;60;false;true;true;false;false;false;13.0;2;0;0;0;0;false;42491;5894580458;-73.73927;45.543916;46012;5894580474;-73.7369;45.544771;0;61;62;8670609;Bus : 46 S - Direction Métro Montmorency;"";STL;46S;Arthur-Sauvé / Prévert;Métro Montmorency
45600994;"{\"type\":\"LineString\",\"coordinates\":[[-73.7389841,45.544134],[-73.7384806,45.5443085]]}";3;Boulevard Notre-Dame;2;60;false;true;true;false;false;false;44.0;1;0;0;0;0;false;42491;5894580458;-73.73927;45.543916;46012;5894580474;-73.7369;45.544771;0;61;62;8670609;Bus : 46 S - Direction Métro Montmorency;"";STL;46S;Arthur-Sauvé / Prévert;Métro Montmorency
45601119;"{\"type\":\"LineString\",\"coordinates\":[[-73.7384806,45.5443085],[-73.7374807,45.5446785]]}";4;Boulevard Notre-Dame;2;60;false;true;true;false;false;false;89.0;1;0;0;0;0;false;42491;5894580458;-73.73927;45.543916;46012;5894580474;-73.7369;45.544771;0;61;62;8670609;Bus : 46 S - Direction Métro Montmorency;"";STL;46S;Arthur-Sauvé / Prévert;Métro Montmorency
45600999;"{\"type\":\"LineString\",\"coordinates\":[[-73.7374807,45.5446785],[-73.7366077,45.5449989],[-73.7362325,45.5451658],[-73.7360185,45.5452832],[-73.7358044,45.5454341],[-73.7355358,45.545662],[-73.7351987,45.5460072],[-73.7350113,45.5462452],[-73.7344424,45.5471438],[-73.734033,45.5477342],[-73.7338366,45.5479786],[-73.7335221,45.5482756],[-73.7332716,45.5484693],[-73.7328629,45.5486647]]}";5;Boulevard Notre-Dame;2;60;false;true;true;false;false;false;294.0;1;0;0;0;0;false;42491;5894580458;-73.73927;45.543916;46012;5894580474;-73.7369;45.544771;1;61;62;8670609;Bus : 46 S - Direction Métro Montmorency;"";STL;46S;Arthur-Sauvé / Prévert;Métro Montmorency
45600999;"{\"type\":\"LineString\",\"coordinates\":[[-73.7374807,45.5446785],[-73.7366077,45.5449989],[-73.7362325,45.5451658],[-73.7360185,45.5452832],[-73.7358044,45.5454341],[-73.7355358,45.545662],[-73.7351987,45.5460072],[-73.7350113,45.5462452],[-73.7344424,45.5471438],[-73.734033,45.5477342],[-73.7338366,45.5479786],[-73.7335221,45.5482756],[-73.7332716,45.5484693],[-73.7328629,45.5486647]]}";1;Boulevard Notre-Dame;2;60;false;true;true;false;false;false;294.0;1;0;0;0;0;false;46013;5894580479;-73.73487;45.546234;46014;5894581094;-73.73223;45.548841;1;63;64;8670609;Bus : 46 S - Direction Métro Montmorency;"";STL;46S;Arthur-Sauvé / Prévert;Métro Montmorency
100514139;"{\"type\":\"LineString\",\"coordinates\":[[-73.7328629,45.5486647],[-73.7322973,45.5488788],[-73.7310175,45.5493063],[-73.730469,45.549516],[-73.729996,45.5497274],[-73.7296697,45.5499011],[-73.729432,45.5500493],[-73.7289697,45.5503376],[-73.7288401,45.5504306],[-73.7287353,45.5505095],[-73.7282213,45.5508703]]}";2;Boulevard Notre-Dame;2;60;false;true;false;false;false;false;221.0;2;0;0;0;0;false;46013;5894580479;-73.73487;45.546234;46014;5894581094;-73.73223;45.548841;1;63;64;8670609;Bus : 46 S - Direction Métro Montmorency;"";STL;46S;Arthur-Sauvé / Prévert;Métro Montmorency
100514139;"{\"type\":\"LineString\",\"coordinates\":[[-73.7328629,45.5486647],[-73.7322973,45.5488788],[-73.7310175,45.5493063],[-73.730469,45.549516],[-73.729996,45.5497274],[-73.7296697,45.5499011],[-73.729432,45.5500493],[-73.7289697,45.5503376],[-73.7288401,45.5504306],[-73.7287353,45.5505095],[-73.7282213,45.5508703]]}";1;Boulevard Notre-Dame;2;60;false;true;false;false;false;false;221.0;2;0;0;0;0;false;46015;5894580449;-73.72901;45.550182;46016;5894580462;-73.72146;45.554769;1;65;66;8670609;Bus : 46 S - Direction Métro Montmorency;"";STL;46S;Arthur-Sauvé / Prévert;Métro Montmorency
500380374;"{\"type\":\"LineString\",\"coordinates\":[[-73.7282213,45.5508703],[-73.7273818,45.5513557]]}";2;Boulevard Notre-Dame;2;60;false;true;true;false;false;false;85.0;1;0;0;0;0;false;46015;5894580449;-73.72901;45.550182;46016;5894580462;-73.72146;45.554769;0;65;66;8670609;Bus : 46 S - Direction Métro Montmorency;"";STL;46S;Arthur-Sauvé / Prévert;Métro Montmorency
652937898;"{\"type\":\"LineString\",\"coordinates\":[[-73.7273818,45.5513557],[-73.7260587,45.5521043],[-73.725552,45.5524243]]}";3;Boulevard Notre-Dame;2;60;false;true;true;false;false;false;186.0;1;0;0;0;0;false;46015;5894580449;-73.72901;45.550182;46016;5894580462;-73.72146;45.554769;0;65;66;8670609;Bus : 46 S - Direction Métro Montmorency;"";STL;46S;Arthur-Sauvé / Prévert;Métro Montmorency
574700265;"{\"type\":\"LineString\",\"coordinates\":[[-73.725552,45.5524243],[-73.7244131,45.5531066],[-73.7237581,45.553498],[-73.7221073,45.5544845]]}";4;Boulevard de la Concorde Ouest;2;60;false;true;true;false;false;false;353.0;1;0;0;0;0;false;46015;5894580449;-73.72901;45.550182;46016;5894580462;-73.72146;45.554769;0;65;66;8670609;Bus : 46 S - Direction Métro Montmorency;"";STL;46S;Arthur-Sauvé / Prévert;Métro Montmorency
574700264;"{\"type\":\"LineString\",\"coordinates\":[[-73.7221073,45.5544845],[-73.7219161,45.5545988]]}";5;Boulevard de la Concorde Ouest;2;60;false;true;true;false;false;false;20.0;2;0;0;0;0;false;46015;5894580449;-73.72901;45.550182;46016;5894580462;-73.72146;45.554769;0;65;66;8670609;Bus : 46 S - Direction Métro Montmorency;"";STL;46S;Arthur-Sauvé / Prévert;Métro Montmorency
574704933;"{\"type\":\"LineString\",\"coordinates\":[[-73.7219161,45.5545988],[-73.720057,45.5556144],[-73.7198132,45.5557476]]}";6;Boulevard de la Concorde Ouest;2;60;false;true;true;false;false;false;104.0;1;0;0;0;0;false;46015;5894580449;-73.72901;45.550182;46016;5894580462;-73.72146;45.554769;1;65;66;8670609;Bus : 46 S - Direction Métro Montmorency;"";STL;46S;Arthur-Sauvé / Prévert;Métro Montmorency
574704933;"{\"type\":\"LineString\",\"coordinates\":[[-73.7219161,45.5545988],[-73.720057,45.5556144],[-73.7198132,45.5557476]]}";1;Boulevard de la Concorde Ouest;2;60;false;true;true;false;false;false;104.0;1;0;0;0;0;false;46016;5894580462;-73.72146;45.554769;"48126;48161;48170;48133;48165;48136;48140;48148;48176;48156;48913;48102;48145;48842";5894580468;-73.72102;45.558276;1;66;67;8670609;Bus : 46 S - Direction Métro Montmorency;"";STL;46S;Arthur-Sauvé / Prévert;Métro Montmorency
342095991;"{\"type\":\"LineString\",\"coordinates\":[[-73.7198132,45.5557476],[-73.7195308,45.5559018],[-73.7187437,45.5563318],[-73.7179908,45.5567341]]}";2;Boulevard de la Concorde Ouest;2;60;false;true;true;false;false;false;180.0;1;0;0;0;0;false;46016;5894580462;-73.72146;45.554769;"48126;48161;48170;48133;48165;48136;48140;48148;48176;48156;48913;48102;48145;48842";5894580468;-73.72102;45.558276;0;66;67;8670609;Bus : 46 S - Direction Métro Montmorency;"";STL;46S;Arthur-Sauvé / Prévert;Métro Montmorency
574726033;"{\"type\":\"LineString\",\"coordinates\":[[-73.7179908,45.5567341],[-73.7178056,45.5568343]]}";3;Boulevard de la Concorde Ouest;2;60;false;true;true;false;false;false;19.0;2;0;0;0;0;false;46016;5894580462;-73.72146;45.554769;"48126;48161;48170;48133;48165;48136;48140;48148;48176;48156;48913;48102;48145;48842";5894580468;-73.72102;45.558276;0;66;67;8670609;Bus : 46 S - Direction Métro Montmorency;"";STL;46S;Arthur-Sauvé / Prévert;Métro Montmorency
477685027;"{\"type\":\"LineString\",\"coordinates\":[[-73.7178056,45.5568343],[-73.7179234,45.5569627]]}";4;Boulevard de l'Avenir;3;50;false;true;true;false;false;false;17.0;2;0;0;0;0;false;46016;5894580462;-73.72146;45.554769;"48126;48161;48170;48133;48165;48136;48140;48148;48176;48156;48913;48102;48145;48842";5894580468;-73.72102;45.558276;0;66;67;8670609;Bus : 46 S - Direction Métro Montmorency;"";STL;46S;Arthur-Sauvé / Prévert;Métro Montmorency
452222557;"{\"type\":\"LineString\",\"coordinates\":[[-73.7179234,45.5569627],[-73.7194731,45.5586204],[-73.7195653,45.558719]]}";5;Boulevard de l'Avenir;3;50;false;true;true;false;false;false;234.0;1;1;0;0;0;false;46016;5894580462;-73.72146;45.554769;"48126;48161;48170;48133;48165;48136;48140;48148;48176;48156;48913;48102;48145;48842";5894580468;-73.72102;45.558276;0;66;67;8670609;Bus : 46 S - Direction Métro Montmorency;"";STL;46S;Arthur-Sauvé / Prévert;Métro Montmorency
292607262;"{\"type\":\"LineString\",\"coordinates\":[[-73.7195653,45.558719],[-73.7197703,45.558636]]}";6;"";1;50;false;false;true;false;false;false;19.0;0;0;0;0;0;false;46016;5894580462;-73.72146;45.554769;"48126;48161;48170;48133;48165;48136;48140;48148;48176;48156;48913;48102;48145;48842";5894580468;-73.72102;45.558276;0;66;67;8670609;Bus : 46 S - Direction Métro Montmorency;"";STL;46S;Arthur-Sauvé / Prévert;Métro Montmorency
673250003;"{\"type\":\"LineString\",\"coordinates\":[[-73.7200309,45.5584789],[-73.7198217,45.5586049],[-73.7197703,45.558636]]}";7;"";1;30;false;false;false;false;false;false;27.0;0;1;0;0;0;false;46016;5894580462;-73.72146;45.554769;"48126;48161;48170;48133;48165;48136;48140;48148;48176;48156;48913;48102;48145;48842";5894580468;-73.72102;45.558276;0;66;67;8670609;Bus : 46 S - Direction Métro Montmorency;"";STL;46S;Arthur-Sauvé / Prévert;Métro Montmorency
673246437;"{\"type\":\"LineString\",\"coordinates\":[[-73.7200309,45.5584789],[-73.720124,45.5585758],[-73.7201474,45.5585648]]}";8;"";1;30;false;true;false;false;false;false;16.0;0;0;0;0;0;false;46016;5894580462;-73.72146;45.554769;"48126;48161;48170;48133;48165;48136;48140;48148;48176;48156;48913;48102;48145;48842";5894580468;-73.72102;45.558276;0;66;67;8670609;Bus : 46 S - Direction Métro Montmorency;"";STL;46S;Arthur-Sauvé / Prévert;Métro Montmorency
624217210;"{\"type\":\"LineString\",\"coordinates\":[[-73.7201474,45.5585648],[-73.720206,45.5585372],[-73.7203325,45.5584776]]}";9;"";1;30;false;true;false;false;false;false;18.0;0;0;0;0;0;false;46016;5894580462;-73.72146;45.554769;"48126;48161;48170;48133;48165;48136;48140;48148;48176;48156;48913;48102;48145;48842";5894580468;-73.72102;45.558276;1;66;67;8670609;Bus : 46 S - Direction Métro Montmorency;"";STL;46S;Arthur-Sauvé / Prévert;Métro Montmorency
