way_id;shape;index;name;nb_lanes;legal_speed;speed_zone_30;oneway;shares_bike;bike_box;bus_lane;dedicated_bus_lane;length;nb_traffic_signals;nb_crossings;nb_stops;nb_give_ways;nb_lvl_crossings;roundabout;stop_id_orig;node_id_orig;coord_x_orig;coord_y_orig;stop_id_dest;node_id_dest;coord_x_dest;coord_y_dest;nb_neighbouring_ways_bus_stop;ordre_orig;ordre_dest;id_line;line_name;colour;operator;ref;from;to
685468122;"{\"type\":\"LineString\",\"coordinates\":[[-73.5644873,45.4981964],[-73.5640536,45.4979933],[-73.5638745,45.4981621]]}";1;"";1;50;false;true;true;false;true;false;65.0;0;0;0;0;0;false;75262;6133323060;-73.564537;45.498127;75466;6133322816;-73.557793;45.496306;1;0;1;9512560;Bus 123 : Direction La Prairie;"";EXO;123 S;Terminus Mansfield (Mansfield / St-Antoine) - Quai 2;avenue Jacques-Martin / rue Benoît-Charlebois I
686910698;"{\"type\":\"LineString\",\"coordinates\":[[-73.564483,45.4984359],[-73.5638745,45.4981621]]}";2;"";1;50;false;false;true;false;true;false;57.0;0;0;0;0;0;false;75262;6133323060;-73.564537;45.498127;75466;6133322816;-73.557793;45.496306;0;0;1;9512560;Bus 123 : Direction La Prairie;"";EXO;123 S;Terminus Mansfield (Mansfield / St-Antoine) - Quai 2;avenue Jacques-Martin / rue Benoît-Charlebois I
449980025;"{\"type\":\"LineString\",\"coordinates\":[[-73.5647776,45.4985685],[-73.564483,45.4984359]]}";3;"";1;50;false;false;true;false;true;false;28.0;0;0;0;0;0;false;75262;6133323060;-73.564537;45.498127;75466;6133322816;-73.557793;45.496306;0;0;1;9512560;Bus 123 : Direction La Prairie;"";EXO;123 S;Terminus Mansfield (Mansfield / St-Antoine) - Quai 2;avenue Jacques-Martin / rue Benoît-Charlebois I
114875712;"{\"type\":\"LineString\",\"coordinates\":[[-73.5646367,45.4986819],[-73.5647776,45.4985685]]}";4;Rue Saint-Antoine Ouest;4;50;false;false;true;false;false;false;17.0;0;0;0;0;0;false;75262;6133323060;-73.564537;45.498127;75466;6133322816;-73.557793;45.496306;0;0;1;9512560;Bus 123 : Direction La Prairie;"";EXO;123 S;Terminus Mansfield (Mansfield / St-Antoine) - Quai 2;avenue Jacques-Martin / rue Benoît-Charlebois I
114875727;"{\"type\":\"LineString\",\"coordinates\":[[-73.5638176,45.4993408],[-73.5646367,45.4986819]]}";5;Rue Saint-Antoine Ouest;1;50;false;false;true;false;false;false;98.0;0;0;0;0;0;false;75262;6133323060;-73.564537;45.498127;75466;6133322816;-73.557793;45.496306;0;0;1;9512560;Bus 123 : Direction La Prairie;"";EXO;123 S;Terminus Mansfield (Mansfield / St-Antoine) - Quai 2;avenue Jacques-Martin / rue Benoît-Charlebois I
456318009;"{\"type\":\"LineString\",\"coordinates\":[[-73.5635034,45.4995899],[-73.5638176,45.4993408]]}";6;Rue Saint-Antoine Ouest;1;50;false;false;true;false;false;false;37.0;1;0;0;0;0;false;75262;6133323060;-73.564537;45.498127;75466;6133322816;-73.557793;45.496306;0;0;1;9512560;Bus 123 : Direction La Prairie;"";EXO;123 S;Terminus Mansfield (Mansfield / St-Antoine) - Quai 2;avenue Jacques-Martin / rue Benoît-Charlebois I
456321034;"{\"type\":\"LineString\",\"coordinates\":[[-73.5635034,45.4995899],[-73.5626665,45.4990006]]}";7;Boulevard Robert-Bourassa;4;50;false;true;true;false;false;false;93.0;2;0;0;0;0;false;75262;6133323060;-73.564537;45.498127;75466;6133322816;-73.557793;45.496306;0;0;1;9512560;Bus 123 : Direction La Prairie;"";EXO;123 S;Terminus Mansfield (Mansfield / St-Antoine) - Quai 2;avenue Jacques-Martin / rue Benoît-Charlebois I
300627773;"{\"type\":\"LineString\",\"coordinates\":[[-73.5626665,45.4990006],[-73.5623547,45.4987872],[-73.5621626,45.4986172],[-73.5620042,45.4984483],[-73.5618002,45.4982427],[-73.5616856,45.4981447],[-73.5616582,45.4981239],[-73.5615338,45.4980295]]}";8;Boulevard Robert-Bourassa;4;50;false;true;true;false;false;false;140.0;2;0;0;0;0;false;75262;6133323060;-73.564537;45.498127;75466;6133322816;-73.557793;45.496306;0;0;1;9512560;Bus 123 : Direction La Prairie;"";EXO;123 S;Terminus Mansfield (Mansfield / St-Antoine) - Quai 2;avenue Jacques-Martin / rue Benoît-Charlebois I
352392847;"{\"type\":\"LineString\",\"coordinates\":[[-73.5615338,45.4980295],[-73.5614113,45.4979602],[-73.5610365,45.4977732],[-73.5606297,45.4975779],[-73.5601383,45.4973487],[-73.5594743,45.4970519],[-73.5591756,45.4969344]]}";9;Boulevard Robert-Bourassa;3;50;false;true;true;false;false;false;221.0;2;0;0;0;0;false;75262;6133323060;-73.564537;45.498127;75466;6133322816;-73.557793;45.496306;0;0;1;9512560;Bus 123 : Direction La Prairie;"";EXO;123 S;Terminus Mansfield (Mansfield / St-Antoine) - Quai 2;avenue Jacques-Martin / rue Benoît-Charlebois I
664696778;"{\"type\":\"LineString\",\"coordinates\":[[-73.5591756,45.4969344],[-73.5576146,45.4963618],[-73.5566334,45.4960019],[-73.5557327,45.4956715]]}";10;Boulevard Robert-Bourassa;5;50;false;true;true;false;false;false;152.0;3;0;0;0;0;false;75262;6133323060;-73.564537;45.498127;75466;6133322816;-73.557793;45.496306;1;0;1;9512560;Bus 123 : Direction La Prairie;"";EXO;123 S;Terminus Mansfield (Mansfield / St-Antoine) - Quai 2;avenue Jacques-Martin / rue Benoît-Charlebois I
664696778;"{\"type\":\"LineString\",\"coordinates\":[[-73.5591756,45.4969344],[-73.5576146,45.4963618],[-73.5566334,45.4960019],[-73.5557327,45.4956715]]}";1;Boulevard Robert-Bourassa;5;50;false;true;true;false;false;false;152.0;3;0;0;0;0;false;75466;6133322816;-73.557793;45.496306;75201;6133323305;-73.467483;45.406666;1;1;2;9512560;Bus 123 : Direction La Prairie;"";EXO;123 S;Terminus Mansfield (Mansfield / St-Antoine) - Quai 2;avenue Jacques-Martin / rue Benoît-Charlebois I
428978765;"{\"type\":\"LineString\",\"coordinates\":[[-73.5557327,45.4956715],[-73.5554185,45.4955444],[-73.5552568,45.4954742],[-73.5551287,45.4953983],[-73.5549327,45.4952567],[-73.5548013,45.4951309],[-73.5547029,45.495014],[-73.5546166,45.494885],[-73.554546,45.494732],[-73.5544449,45.4944655],[-73.5543449,45.4942123],[-73.5542567,45.4939794],[-73.5541868,45.4937959],[-73.5541179,45.4936077],[-73.5540485,45.4934289],[-73.5539834,45.4932646]]}";2;Autoroute Bonaventure Expressway;3;50;false;true;false;false;false;false;314.0;1;0;0;0;0;false;75466;6133322816;-73.557793;45.496306;75201;6133323305;-73.467483;45.406666;0;1;2;9512560;Bus 123 : Direction La Prairie;"";EXO;123 S;Terminus Mansfield (Mansfield / St-Antoine) - Quai 2;avenue Jacques-Martin / rue Benoît-Charlebois I
428978767;"{\"type\":\"LineString\",\"coordinates\":[[-73.5539834,45.4932646],[-73.5538717,45.4930299],[-73.5537919,45.4928613],[-73.5537005,45.492684],[-73.5536109,45.492534],[-73.55351,45.4923856],[-73.5533999,45.4922211],[-73.5532714,45.4920547],[-73.5531387,45.4919071],[-73.5529876,45.4917566],[-73.5528396,45.4916157]]}";3;Autoroute Bonaventure Expressway;3;50;false;true;false;false;false;false;206.0;0;0;0;0;0;false;75466;6133322816;-73.557793;45.496306;75201;6133323305;-73.467483;45.406666;0;1;2;9512560;Bus 123 : Direction La Prairie;"";EXO;123 S;Terminus Mansfield (Mansfield / St-Antoine) - Quai 2;avenue Jacques-Martin / rue Benoît-Charlebois I
385754237;"{\"type\":\"LineString\",\"coordinates\":[[-73.5528396,45.4916157],[-73.5526701,45.4914689],[-73.5524864,45.4913215],[-73.5523393,45.4912103],[-73.5521897,45.4911082],[-73.5520308,45.4910079],[-73.5518578,45.4909001],[-73.5516631,45.4907954],[-73.5514593,45.4906906]]}";4;Autoroute Bonaventure Expressway;4;50;false;true;false;false;false;false;150.0;0;0;0;0;0;false;75466;6133322816;-73.557793;45.496306;75201;6133323305;-73.467483;45.406666;0;1;2;9512560;Bus 123 : Direction La Prairie;"";EXO;123 S;Terminus Mansfield (Mansfield / St-Antoine) - Quai 2;avenue Jacques-Martin / rue Benoît-Charlebois I
361815169;"{\"type\":\"LineString\",\"coordinates\":[[-73.5514593,45.4906906],[-73.5512408,45.4905856],[-73.5509789,45.4904728],[-73.5507265,45.4903708]]}";5;Autoroute Bonaventure Expressway;4;50;false;true;false;false;false;false;68.0;0;0;0;0;0;false;75466;6133322816;-73.557793;45.496306;75201;6133323305;-73.467483;45.406666;0;1;2;9512560;Bus 123 : Direction La Prairie;"";EXO;123 S;Terminus Mansfield (Mansfield / St-Antoine) - Quai 2;avenue Jacques-Martin / rue Benoît-Charlebois I
385754241;"{\"type\":\"LineString\",\"coordinates\":[[-73.5507265,45.4903708],[-73.5505125,45.4902942],[-73.5503197,45.4902333],[-73.5500927,45.4901664],[-73.5498345,45.4901],[-73.5495773,45.4900379],[-73.5492978,45.489978],[-73.5490171,45.4899238],[-73.5461765,45.4893863]]}";6;Autoroute Bonaventure Expressway;3;50;false;true;false;false;false;false;373.0;0;0;0;0;0;false;75466;6133322816;-73.557793;45.496306;75201;6133323305;-73.467483;45.406666;0;1;2;9512560;Bus 123 : Direction La Prairie;"";EXO;123 S;Terminus Mansfield (Mansfield / St-Antoine) - Quai 2;avenue Jacques-Martin / rue Benoît-Charlebois I
567717687;"{\"type\":\"LineString\",\"coordinates\":[[-73.5461765,45.4893863],[-73.5427334,45.4887242]]}";7;Autoroute Bonaventure Expressway;3;70;false;true;false;false;false;false;279.0;0;0;0;0;0;false;75466;6133322816;-73.557793;45.496306;75201;6133323305;-73.467483;45.406666;0;1;2;9512560;Bus 123 : Direction La Prairie;"";EXO;123 S;Terminus Mansfield (Mansfield / St-Antoine) - Quai 2;avenue Jacques-Martin / rue Benoît-Charlebois I
48666271;"{\"type\":\"LineString\",\"coordinates\":[[-73.5427334,45.4887242],[-73.5422116,45.488558],[-73.542016,45.4884998]]}";8;"";1;50;false;true;true;false;false;false;62.0;0;0;0;0;0;false;75466;6133322816;-73.557793;45.496306;75201;6133323305;-73.467483;45.406666;0;1;2;9512560;Bus 123 : Direction La Prairie;"";EXO;123 S;Terminus Mansfield (Mansfield / St-Antoine) - Quai 2;avenue Jacques-Martin / rue Benoît-Charlebois I
48666298;"{\"type\":\"LineString\",\"coordinates\":[[-73.542016,45.4884998],[-73.5418275,45.4884538]]}";9;"";1;50;false;true;true;false;false;false;16.0;0;0;0;0;0;false;75466;6133322816;-73.557793;45.496306;75201;6133323305;-73.467483;45.406666;0;1;2;9512560;Bus 123 : Direction La Prairie;"";EXO;123 S;Terminus Mansfield (Mansfield / St-Antoine) - Quai 2;avenue Jacques-Martin / rue Benoît-Charlebois I
48666297;"{\"type\":\"LineString\",\"coordinates\":[[-73.5418275,45.4884538],[-73.5415554,45.488395],[-73.5411811,45.4883256],[-73.5409718,45.488284],[-73.5407814,45.4882388],[-73.54059,45.4881754],[-73.5404113,45.4881063]]}";10;"";1;50;false;true;true;false;false;false;118.0;0;0;0;0;0;false;75466;6133322816;-73.557793;45.496306;75201;6133323305;-73.467483;45.406666;0;1;2;9512560;Bus 123 : Direction La Prairie;"";EXO;123 S;Terminus Mansfield (Mansfield / St-Antoine) - Quai 2;avenue Jacques-Martin / rue Benoît-Charlebois I
23027190;"{\"type\":\"LineString\",\"coordinates\":[[-73.5404113,45.4881063],[-73.5402157,45.48804],[-73.5400108,45.4879566],[-73.5398209,45.4878687],[-73.5396416,45.4877795],[-73.5394706,45.4876852],[-73.539289,45.4875746],[-73.5391318,45.4874685],[-73.5389634,45.4873398],[-73.5388076,45.4872055],[-73.5386646,45.4870673],[-73.5385313,45.4869226],[-73.5384158,45.4867854],[-73.5383118,45.4866546],[-73.5382178,45.4865288],[-73.5381429,45.4864193],[-73.5380756,45.4863127],[-73.5380134,45.4861965],[-73.5379497,45.4860576],[-73.5378929,45.4859065],[-73.5378527,45.4857565],[-73.5378202,45.4856055],[-73.5377921,45.4854451],[-73.5377756,45.4852961],[-73.5377689,45.4851382],[-73.5377729,45.4849658],[-73.5377873,45.4847776],[-73.5378115,45.4846227],[-73.5378426,45.4844612],[-73.5380341,45.4836661]]}";11;"";1;50;false;true;false;false;false;false;575.0;0;0;0;0;0;false;75466;6133322816;-73.557793;45.496306;75201;6133323305;-73.467483;45.406666;0;1;2;9512560;Bus 123 : Direction La Prairie;"";EXO;123 S;Terminus Mansfield (Mansfield / St-Antoine) - Quai 2;avenue Jacques-Martin / rue Benoît-Charlebois I
685468121;"{\"type\":\"LineString\",\"coordinates\":[[-73.5380341,45.4836661],[-73.5382816,45.4829689],[-73.5384797,45.4824157],[-73.5387112,45.481754],[-73.5389705,45.4810329],[-73.5392547,45.4801208],[-73.5397419,45.478817],[-73.5400333,45.4781293],[-73.5404144,45.4773194]]}";12;Autoroute Bonaventure Expressway;1;70;false;true;false;false;false;false;730.0;0;0;0;0;0;false;75466;6133322816;-73.557793;45.496306;75201;6133323305;-73.467483;45.406666;0;1;2;9512560;Bus 123 : Direction La Prairie;"";EXO;123 S;Terminus Mansfield (Mansfield / St-Antoine) - Quai 2;avenue Jacques-Martin / rue Benoît-Charlebois I
677782935;"{\"type\":\"LineString\",\"coordinates\":[[-73.5404144,45.4773194],[-73.5406017,45.4769354],[-73.5411113,45.4759718],[-73.5413755,45.4754887],[-73.5416588,45.4750109]]}";13;Pont Clément Bridge;2;70;false;true;false;false;false;false;275.0;0;0;0;0;0;false;75466;6133322816;-73.557793;45.496306;75201;6133323305;-73.467483;45.406666;0;1;2;9512560;Bus 123 : Direction La Prairie;"";EXO;123 S;Terminus Mansfield (Mansfield / St-Antoine) - Quai 2;avenue Jacques-Martin / rue Benoît-Charlebois I
567717682;"{\"type\":\"LineString\",\"coordinates\":[[-73.5416588,45.4750109],[-73.5420724,45.4743571]]}";14;Pont Clément Bridge;2;50;false;true;false;false;false;false;80.0;0;0;0;0;0;false;75466;6133322816;-73.557793;45.496306;75201;6133323305;-73.467483;45.406666;0;1;2;9512560;Bus 123 : Direction La Prairie;"";EXO;123 S;Terminus Mansfield (Mansfield / St-Antoine) - Quai 2;avenue Jacques-Martin / rue Benoît-Charlebois I
39180623;"{\"type\":\"LineString\",\"coordinates\":[[-73.5420724,45.4743571],[-73.5422524,45.4740884],[-73.5424157,45.4738315],[-73.5425961,45.4735652],[-73.5430496,45.4729449]]}";15;Autoroute Bonaventure;2;50;false;true;true;false;false;false;175.0;0;0;0;0;0;false;75466;6133322816;-73.557793;45.496306;75201;6133323305;-73.467483;45.406666;0;1;2;9512560;Bus 123 : Direction La Prairie;"";EXO;123 S;Terminus Mansfield (Mansfield / St-Antoine) - Quai 2;avenue Jacques-Martin / rue Benoît-Charlebois I
43068386;"{\"type\":\"LineString\",\"coordinates\":[[-73.5430496,45.4729449],[-73.5432928,45.4726092]]}";16;Autoroute Bonaventure;2;50;false;true;true;false;false;false;42.0;0;0;0;0;0;false;75466;6133322816;-73.557793;45.496306;75201;6133323305;-73.467483;45.406666;0;1;2;9512560;Bus 123 : Direction La Prairie;"";EXO;123 S;Terminus Mansfield (Mansfield / St-Antoine) - Quai 2;avenue Jacques-Martin / rue Benoît-Charlebois I
43068385;"{\"type\":\"LineString\",\"coordinates\":[[-73.5432928,45.4726092],[-73.5436727,45.4721223],[-73.5442333,45.4714332],[-73.5445429,45.4710827],[-73.5450373,45.4705371],[-73.5451519,45.470368],[-73.5451963,45.4702037],[-73.5451777,45.4700648],[-73.5451347,45.4699397],[-73.5450208,45.4697568],[-73.544847,45.4696114],[-73.5446799,45.4695157],[-73.5445055,45.4694536],[-73.5443311,45.4694183],[-73.5441751,45.4694066],[-73.5439949,45.4694138],[-73.5437722,45.4694511],[-73.5436193,45.4694983],[-73.54315,45.469709],[-73.5426519,45.4698258],[-73.542304,45.4699265],[-73.5418403,45.4699973],[-73.541601,45.4700149],[-73.540742,45.4700409],[-73.5400245,45.4700565]]}";17;Autoroute Bonaventure;3;50;false;true;true;false;false;false;777.0;0;0;0;0;0;false;75466;6133322816;-73.557793;45.496306;75201;6133323305;-73.467483;45.406666;0;1;2;9512560;Bus 123 : Direction La Prairie;"";EXO;123 S;Terminus Mansfield (Mansfield / St-Antoine) - Quai 2;avenue Jacques-Martin / rue Benoît-Charlebois I
728797117;"{\"type\":\"LineString\",\"coordinates\":[[-73.5400245,45.4700565],[-73.5382768,45.4700942]]}";18;Autoroute Bonaventure;2;50;false;true;true;false;false;false;137.0;0;0;0;0;0;false;75466;6133322816;-73.557793;45.496306;75201;6133323305;-73.467483;45.406666;0;1;2;9512560;Bus 123 : Direction La Prairie;"";EXO;123 S;Terminus Mansfield (Mansfield / St-Antoine) - Quai 2;avenue Jacques-Martin / rue Benoît-Charlebois I
728797118;"{\"type\":\"LineString\",\"coordinates\":[[-73.5382768,45.4700942],[-73.5378255,45.4701167]]}";19;Autoroute Bonaventure;2;50;false;true;true;false;false;false;36.0;0;0;0;0;0;false;75466;6133322816;-73.557793;45.496306;75201;6133323305;-73.467483;45.406666;0;1;2;9512560;Bus 123 : Direction La Prairie;"";EXO;123 S;Terminus Mansfield (Mansfield / St-Antoine) - Quai 2;avenue Jacques-Martin / rue Benoît-Charlebois I
708682529;"{\"type\":\"LineString\",\"coordinates\":[[-73.5378255,45.4701167],[-73.536113,45.4701171]]}";20;Autoroute 15;5;80;false;true;true;false;false;false;134.0;0;0;0;0;0;false;75466;6133322816;-73.557793;45.496306;75201;6133323305;-73.467483;45.406666;0;1;2;9512560;Bus 123 : Direction La Prairie;"";EXO;123 S;Terminus Mansfield (Mansfield / St-Antoine) - Quai 2;avenue Jacques-Martin / rue Benoît-Charlebois I
364775281;"{\"type\":\"LineString\",\"coordinates\":[[-73.536113,45.4701171],[-73.5335206,45.4700904],[-73.5293215,45.4699928],[-73.5256685,45.4698606],[-73.5246415,45.4698106],[-73.5211502,45.4696112],[-73.5196763,45.4695143],[-73.5181633,45.4694048],[-73.5163826,45.4692646],[-73.5145853,45.4691035],[-73.5082364,45.4684851]]}";21;Pont Samuel-De Champlain;3;80;false;true;true;false;false;false;2188.0;0;0;0;0;0;false;75466;6133322816;-73.557793;45.496306;75201;6133323305;-73.467483;45.406666;0;1;2;9512560;Bus 123 : Direction La Prairie;"";EXO;123 S;Terminus Mansfield (Mansfield / St-Antoine) - Quai 2;avenue Jacques-Martin / rue Benoît-Charlebois I
646417293;"{\"type\":\"LineString\",\"coordinates\":[[-73.5082364,45.4684851],[-73.5072787,45.4683745],[-73.5044923,45.4680805],[-73.5015577,45.4677715]]}";22;Pont Samuel-De Champlain;3;80;false;true;true;false;false;false;528.0;0;0;0;0;0;false;75466;6133322816;-73.557793;45.496306;75201;6133323305;-73.467483;45.406666;0;1;2;9512560;Bus 123 : Direction La Prairie;"";EXO;123 S;Terminus Mansfield (Mansfield / St-Antoine) - Quai 2;avenue Jacques-Martin / rue Benoît-Charlebois I
646417307;"{\"type\":\"LineString\",\"coordinates\":[[-73.5015577,45.4677715],[-73.4986974,45.4674663],[-73.4969674,45.4672651],[-73.4952108,45.4670394],[-73.4920054,45.4666495]]}";23;Pont Samuel-De Champlain;4;80;false;true;true;false;false;false;757.0;0;0;0;0;0;false;75466;6133322816;-73.557793;45.496306;75201;6133323305;-73.467483;45.406666;0;1;2;9512560;Bus 123 : Direction La Prairie;"";EXO;123 S;Terminus Mansfield (Mansfield / St-Antoine) - Quai 2;avenue Jacques-Martin / rue Benoît-Charlebois I
698922475;"{\"type\":\"LineString\",\"coordinates\":[[-73.4920054,45.4666495],[-73.4890674,45.4662312]]}";24;Autoroute des Cantons-de-l'Est;4;80;false;true;true;false;false;false;235.0;0;0;0;0;0;false;75466;6133322816;-73.557793;45.496306;75201;6133323305;-73.467483;45.406666;0;1;2;9512560;Bus 123 : Direction La Prairie;"";EXO;123 S;Terminus Mansfield (Mansfield / St-Antoine) - Quai 2;avenue Jacques-Martin / rue Benoît-Charlebois I
724437661;"{\"type\":\"LineString\",\"coordinates\":[[-73.4890674,45.4662312],[-73.4873281,45.4659783],[-73.4856025,45.4657592],[-73.4848513,45.4656558],[-73.4833534,45.4654796]]}";25;Autoroute des Cantons-de-l'Est;3;80;false;true;true;false;false;false;455.0;0;0;0;0;0;false;75466;6133322816;-73.557793;45.496306;75201;6133323305;-73.467483;45.406666;0;1;2;9512560;Bus 123 : Direction La Prairie;"";EXO;123 S;Terminus Mansfield (Mansfield / St-Antoine) - Quai 2;avenue Jacques-Martin / rue Benoît-Charlebois I
699232599;"{\"type\":\"LineString\",\"coordinates\":[[-73.4833534,45.4654796],[-73.482022,45.4653559],[-73.4802248,45.4652297],[-73.4791933,45.4651729],[-73.4781865,45.4651216],[-73.474282,45.4649227],[-73.4725575,45.4648665]]}";26;Autoroute des Cantons-de-l'Est;1;80;false;true;true;false;false;false;847.0;0;0;0;0;0;false;75466;6133322816;-73.557793;45.496306;75201;6133323305;-73.467483;45.406666;0;1;2;9512560;Bus 123 : Direction La Prairie;"";EXO;123 S;Terminus Mansfield (Mansfield / St-Antoine) - Quai 2;avenue Jacques-Martin / rue Benoît-Charlebois I
593816149;"{\"type\":\"LineString\",\"coordinates\":[[-73.4725575,45.4648665],[-73.4717099,45.4648398],[-73.4708134,45.4648147],[-73.4687585,45.4647357],[-73.4663516,45.4646433]]}";27;Autoroute des Cantons-de-l'Est;3;80;false;true;true;false;false;false;486.0;0;0;0;0;0;false;75466;6133322816;-73.557793;45.496306;75201;6133323305;-73.467483;45.406666;0;1;2;9512560;Bus 123 : Direction La Prairie;"";EXO;123 S;Terminus Mansfield (Mansfield / St-Antoine) - Quai 2;avenue Jacques-Martin / rue Benoît-Charlebois I
25512716;"{\"type\":\"LineString\",\"coordinates\":[[-73.4663516,45.4646433],[-73.4656128,45.4645577]]}";28;"";1;50;false;true;true;false;false;false;59.0;0;0;0;0;0;false;75466;6133322816;-73.557793;45.496306;75201;6133323305;-73.467483;45.406666;0;1;2;9512560;Bus 123 : Direction La Prairie;"";EXO;123 S;Terminus Mansfield (Mansfield / St-Antoine) - Quai 2;avenue Jacques-Martin / rue Benoît-Charlebois I
458455876;"{\"type\":\"LineString\",\"coordinates\":[[-73.4656128,45.4645577],[-73.4644334,45.4644292]]}";29;"";1;50;false;true;true;false;false;false;94.0;0;0;0;0;0;false;75466;6133322816;-73.557793;45.496306;75201;6133323305;-73.467483;45.406666;0;1;2;9512560;Bus 123 : Direction La Prairie;"";EXO;123 S;Terminus Mansfield (Mansfield / St-Antoine) - Quai 2;avenue Jacques-Martin / rue Benoît-Charlebois I
42274521;"{\"type\":\"LineString\",\"coordinates\":[[-73.4644334,45.4644292],[-73.4636347,45.4644009]]}";30;"";1;50;false;true;true;false;false;false;63.0;0;0;0;0;0;false;75466;6133322816;-73.557793;45.496306;75201;6133323305;-73.467483;45.406666;0;1;2;9512560;Bus 123 : Direction La Prairie;"";EXO;123 S;Terminus Mansfield (Mansfield / St-Antoine) - Quai 2;avenue Jacques-Martin / rue Benoît-Charlebois I
686185399;"{\"type\":\"LineString\",\"coordinates\":[[-73.4636347,45.4644009],[-73.4632916,45.4643887]]}";31;"";1;50;false;true;true;false;false;false;27.0;0;0;0;0;0;false;75466;6133322816;-73.557793;45.496306;75201;6133323305;-73.467483;45.406666;0;1;2;9512560;Bus 123 : Direction La Prairie;"";EXO;123 S;Terminus Mansfield (Mansfield / St-Antoine) - Quai 2;avenue Jacques-Martin / rue Benoît-Charlebois I
686185400;"{\"type\":\"LineString\",\"coordinates\":[[-73.4632916,45.4643887],[-73.4619808,45.4643423],[-73.4614171,45.4643234],[-73.460293,45.4642002],[-73.4598384,45.4641289],[-73.4594,45.4640506],[-73.4582842,45.4637255],[-73.4574295,45.4634021]]}";32;"";1;50;false;true;true;false;false;false;478.0;0;0;0;0;0;false;75466;6133322816;-73.557793;45.496306;75201;6133323305;-73.467483;45.406666;0;1;2;9512560;Bus 123 : Direction La Prairie;"";EXO;123 S;Terminus Mansfield (Mansfield / St-Antoine) - Quai 2;avenue Jacques-Martin / rue Benoît-Charlebois I
458455880;"{\"type\":\"LineString\",\"coordinates\":[[-73.4574295,45.4634021],[-73.4567135,45.4630934],[-73.4558381,45.4625577],[-73.455013,45.4619815],[-73.4542672,45.4614177],[-73.4535701,45.4609508],[-73.4522423,45.4600404],[-73.4508364,45.4591591]]}";33;"";1;50;false;true;true;false;false;false;700.0;0;0;0;0;0;false;75466;6133322816;-73.557793;45.496306;75201;6133323305;-73.467483;45.406666;0;1;2;9512560;Bus 123 : Direction La Prairie;"";EXO;123 S;Terminus Mansfield (Mansfield / St-Antoine) - Quai 2;avenue Jacques-Martin / rue Benoît-Charlebois I
685468120;"{\"type\":\"LineString\",\"coordinates\":[[-73.4508364,45.4591591],[-73.4489894,45.4578209],[-73.4467726,45.4562654]]}";34;Autoroute des Cantons-de-l'Est;2;80;false;true;true;false;false;false;452.0;0;0;0;0;0;false;75466;6133322816;-73.557793;45.496306;75201;6133323305;-73.467483;45.406666;0;1;2;9512560;Bus 123 : Direction La Prairie;"";EXO;123 S;Terminus Mansfield (Mansfield / St-Antoine) - Quai 2;avenue Jacques-Martin / rue Benoît-Charlebois I
39800515;"{\"type\":\"LineString\",\"coordinates\":[[-73.4467726,45.4562654],[-73.4460401,45.4557372]]}";35;Autoroute des Cantons-de-l'Est;2;80;false;true;true;false;false;false;82.0;0;0;0;0;0;false;75466;6133322816;-73.557793;45.496306;75201;6133323305;-73.467483;45.406666;0;1;2;9512560;Bus 123 : Direction La Prairie;"";EXO;123 S;Terminus Mansfield (Mansfield / St-Antoine) - Quai 2;avenue Jacques-Martin / rue Benoît-Charlebois I
24366041;"{\"type\":\"LineString\",\"coordinates\":[[-73.4460401,45.4557372],[-73.4446559,45.4546961]]}";36;Autoroute des Cantons-de-l'Est;2;100;false;true;true;false;false;false;159.0;0;0;0;0;0;false;75466;6133322816;-73.557793;45.496306;75201;6133323305;-73.467483;45.406666;0;1;2;9512560;Bus 123 : Direction La Prairie;"";EXO;123 S;Terminus Mansfield (Mansfield / St-Antoine) - Quai 2;avenue Jacques-Martin / rue Benoît-Charlebois I
432329589;"{\"type\":\"LineString\",\"coordinates\":[[-73.4446559,45.4546961],[-73.4436015,45.4538597],[-73.443166,45.4535075],[-73.4427458,45.4531696],[-73.4421994,45.4527667],[-73.441337,45.4521065]]}";37;"";3;70;false;true;true;false;false;false;388.0;0;0;0;0;0;false;75466;6133322816;-73.557793;45.496306;75201;6133323305;-73.467483;45.406666;0;1;2;9512560;Bus 123 : Direction La Prairie;"";EXO;123 S;Terminus Mansfield (Mansfield / St-Antoine) - Quai 2;avenue Jacques-Martin / rue Benoît-Charlebois I
33108310;"{\"type\":\"LineString\",\"coordinates\":[[-73.441337,45.4521065],[-73.4381133,45.4497874]]}";38;"";3;70;false;true;true;false;false;false;361.0;0;0;0;0;0;false;75466;6133322816;-73.557793;45.496306;75201;6133323305;-73.467483;45.406666;0;1;2;9512560;Bus 123 : Direction La Prairie;"";EXO;123 S;Terminus Mansfield (Mansfield / St-Antoine) - Quai 2;avenue Jacques-Martin / rue Benoît-Charlebois I
646081648;"{\"type\":\"LineString\",\"coordinates\":[[-73.4381133,45.4497874],[-73.4369965,45.4489744],[-73.4358656,45.4481446],[-73.4331498,45.4462386]]}";39;"";4;70;false;true;true;false;false;false;554.0;0;0;0;0;0;false;75466;6133322816;-73.557793;45.496306;75201;6133323305;-73.467483;45.406666;0;1;2;9512560;Bus 123 : Direction La Prairie;"";EXO;123 S;Terminus Mansfield (Mansfield / St-Antoine) - Quai 2;avenue Jacques-Martin / rue Benoît-Charlebois I
25574353;"{\"type\":\"LineString\",\"coordinates\":[[-73.4331498,45.4462386],[-73.4329109,45.4459841],[-73.4327741,45.4458666],[-73.4325718,45.4456341],[-73.4324316,45.4454344],[-73.4323315,45.4451584],[-73.4323027,45.4448479],[-73.4323143,45.4445803],[-73.4324602,45.4439179],[-73.4324259,45.443653],[-73.4322029,45.4431474],[-73.4320661,45.4428162],[-73.432011,45.4425505],[-73.4320317,45.4423465],[-73.432098,45.4421832],[-73.4322972,45.4419415],[-73.4323756,45.4418741],[-73.4325045,45.4417736],[-73.4326994,45.4416281],[-73.4333217,45.4411652]]}";40;"";1;70;false;true;true;false;false;false;623.0;0;0;0;0;0;false;75466;6133322816;-73.557793;45.496306;75201;6133323305;-73.467483;45.406666;0;1;2;9512560;Bus 123 : Direction La Prairie;"";EXO;123 S;Terminus Mansfield (Mansfield / St-Antoine) - Quai 2;avenue Jacques-Martin / rue Benoît-Charlebois I
685468119;"{\"type\":\"LineString\",\"coordinates\":[[-73.4333217,45.4411652],[-73.4353973,45.4397401],[-73.4380889,45.4379173]]}";41;"";1;70;false;true;true;false;false;false;519.0;0;0;0;0;0;false;75466;6133322816;-73.557793;45.496306;75201;6133323305;-73.467483;45.406666;0;1;2;9512560;Bus 123 : Direction La Prairie;"";EXO;123 S;Terminus Mansfield (Mansfield / St-Antoine) - Quai 2;avenue Jacques-Martin / rue Benoît-Charlebois I
432360505;"{\"type\":\"LineString\",\"coordinates\":[[-73.4380889,45.4379173],[-73.4384711,45.4376087],[-73.4387094,45.4374323],[-73.4392758,45.4370167],[-73.4403078,45.436243],[-73.440715,45.4359031]]}";42;"";1;70;false;true;true;false;false;false;304.0;0;0;0;0;0;false;75466;6133322816;-73.557793;45.496306;75201;6133323305;-73.467483;45.406666;0;1;2;9512560;Bus 123 : Direction La Prairie;"";EXO;123 S;Terminus Mansfield (Mansfield / St-Antoine) - Quai 2;avenue Jacques-Martin / rue Benoît-Charlebois I
25611486;"{\"type\":\"LineString\",\"coordinates\":[[-73.440715,45.4359031],[-73.441088,45.4356293],[-73.4414333,45.4353586],[-73.4417342,45.4350957]]}";43;Autoroute de l'Acier;3;100;false;true;true;false;false;false;121.0;0;0;0;0;0;false;75466;6133322816;-73.557793;45.496306;75201;6133323305;-73.467483;45.406666;0;1;2;9512560;Bus 123 : Direction La Prairie;"";EXO;123 S;Terminus Mansfield (Mansfield / St-Antoine) - Quai 2;avenue Jacques-Martin / rue Benoît-Charlebois I
750124125;"{\"type\":\"LineString\",\"coordinates\":[[-73.4417342,45.4350957],[-73.4419664,45.4348551],[-73.4423119,45.4345081],[-73.4427597,45.4340075],[-73.4431796,45.433452],[-73.4433707,45.4331553],[-73.4435565,45.4328458],[-73.4437642,45.4324434],[-73.4442553,45.4313503],[-73.444599,45.4305928],[-73.4447556,45.4302611],[-73.4452763,45.4292255],[-73.4455582,45.4286955]]}";44;Autoroute de l'Acier;2;100;false;true;true;false;false;false;776.0;0;0;0;0;0;false;75466;6133322816;-73.557793;45.496306;75201;6133323305;-73.467483;45.406666;0;1;2;9512560;Bus 123 : Direction La Prairie;"";EXO;123 S;Terminus Mansfield (Mansfield / St-Antoine) - Quai 2;avenue Jacques-Martin / rue Benoît-Charlebois I
750124123;"{\"type\":\"LineString\",\"coordinates\":[[-73.4455582,45.4286955],[-73.4457919,45.4282694],[-73.4461957,45.4275777],[-73.446684,45.4267624],[-73.4471199,45.4260679],[-73.447468,45.4255094],[-73.4481775,45.4243938]]}";45;Autoroute de l'Acier;2;100;false;true;true;false;false;false;520.0;0;0;0;0;0;false;75466;6133322816;-73.557793;45.496306;75201;6133323305;-73.467483;45.406666;0;1;2;9512560;Bus 123 : Direction La Prairie;"";EXO;123 S;Terminus Mansfield (Mansfield / St-Antoine) - Quai 2;avenue Jacques-Martin / rue Benoît-Charlebois I
24934971;"{\"type\":\"LineString\",\"coordinates\":[[-73.4481775,45.4243938],[-73.4486003,45.4237301]]}";46;Autoroute de l'Acier;2;100;false;true;true;false;false;false;81.0;0;0;0;0;0;false;75466;6133322816;-73.557793;45.496306;75201;6133323305;-73.467483;45.406666;0;1;2;9512560;Bus 123 : Direction La Prairie;"";EXO;123 S;Terminus Mansfield (Mansfield / St-Antoine) - Quai 2;avenue Jacques-Martin / rue Benoît-Charlebois I
24935378;"{\"type\":\"LineString\",\"coordinates\":[[-73.4486003,45.4237301],[-73.4487732,45.4234483],[-73.4498108,45.4218117],[-73.4510115,45.4199018]]}";47;Autoroute de l'Acier;2;100;false;true;true;false;false;false;466.0;0;0;0;0;0;false;75466;6133322816;-73.557793;45.496306;75201;6133323305;-73.467483;45.406666;0;1;2;9512560;Bus 123 : Direction La Prairie;"";EXO;123 S;Terminus Mansfield (Mansfield / St-Antoine) - Quai 2;avenue Jacques-Martin / rue Benoît-Charlebois I
45265909;"{\"type\":\"LineString\",\"coordinates\":[[-73.4510115,45.4199018],[-73.4511345,45.4197126]]}";48;Autoroute de l'Acier;2;100;false;true;true;false;false;false;24.0;0;0;0;0;0;false;75466;6133322816;-73.557793;45.496306;75201;6133323305;-73.467483;45.406666;0;1;2;9512560;Bus 123 : Direction La Prairie;"";EXO;123 S;Terminus Mansfield (Mansfield / St-Antoine) - Quai 2;avenue Jacques-Martin / rue Benoît-Charlebois I
45265908;"{\"type\":\"LineString\",\"coordinates\":[[-73.4511345,45.4197126],[-73.4514106,45.4192686],[-73.45176,45.4187278],[-73.452138,45.4181381],[-73.4524574,45.4176399],[-73.4531351,45.4165962],[-73.4535008,45.4160424],[-73.4541828,45.415003],[-73.4543582,45.4147319],[-73.454607,45.4143467],[-73.4569844,45.4105979]]}";49;Autoroute de l'Acier;2;100;false;true;true;false;false;false;1111.0;0;0;0;0;0;false;75466;6133322816;-73.557793;45.496306;75201;6133323305;-73.467483;45.406666;0;1;2;9512560;Bus 123 : Direction La Prairie;"";EXO;123 S;Terminus Mansfield (Mansfield / St-Antoine) - Quai 2;avenue Jacques-Martin / rue Benoît-Charlebois I
45364698;"{\"type\":\"LineString\",\"coordinates\":[[-73.4569844,45.4105979],[-73.4571137,45.410393]]}";50;Autoroute de l'Acier;2;100;false;true;true;false;false;false;25.0;0;0;0;0;0;false;75466;6133322816;-73.557793;45.496306;75201;6133323305;-73.467483;45.406666;0;1;2;9512560;Bus 123 : Direction La Prairie;"";EXO;123 S;Terminus Mansfield (Mansfield / St-Antoine) - Quai 2;avenue Jacques-Martin / rue Benoît-Charlebois I
685468117;"{\"type\":\"LineString\",\"coordinates\":[[-73.4571137,45.410393],[-73.4573934,45.4099458],[-73.4578147,45.4092797]]}";51;Autoroute de l'Acier;2;100;false;true;true;false;false;false;136.0;0;0;0;0;0;false;75466;6133322816;-73.557793;45.496306;75201;6133323305;-73.467483;45.406666;0;1;2;9512560;Bus 123 : Direction La Prairie;"";EXO;123 S;Terminus Mansfield (Mansfield / St-Antoine) - Quai 2;avenue Jacques-Martin / rue Benoît-Charlebois I
10378719;"{\"type\":\"LineString\",\"coordinates\":[[-73.4578147,45.4092797],[-73.4581913,45.4087954],[-73.4584823,45.4083954],[-73.4590292,45.4076048],[-73.4602478,45.4057018],[-73.4609211,45.4046176],[-73.4613494,45.403947],[-73.461657,45.4034982],[-73.4618925,45.4031912],[-73.4620294,45.4030278],[-73.4621475,45.40291],[-73.4622741,45.4028091],[-73.4623896,45.402726],[-73.4625106,45.4026515],[-73.4626281,45.4025932],[-73.4627579,45.4025398],[-73.4628732,45.4025027],[-73.4629921,45.4024747],[-73.463055,45.4024623],[-73.4631274,45.4024515],[-73.4632391,45.4024417]]}";52;"";1;65;false;true;true;false;false;false;888.0;0;0;0;0;0;false;75466;6133322816;-73.557793;45.496306;75201;6133323305;-73.467483;45.406666;0;1;2;9512560;Bus 123 : Direction La Prairie;"";EXO;123 S;Terminus Mansfield (Mansfield / St-Antoine) - Quai 2;avenue Jacques-Martin / rue Benoît-Charlebois I
784795722;"{\"type\":\"LineString\",\"coordinates\":[[-73.4632391,45.4024417],[-73.463415,45.4024316],[-73.4635565,45.4024271]]}";53;"";2;65;false;true;true;false;false;false;25.0;0;0;0;0;0;false;75466;6133322816;-73.557793;45.496306;75201;6133323305;-73.467483;45.406666;0;1;2;9512560;Bus 123 : Direction La Prairie;"";EXO;123 S;Terminus Mansfield (Mansfield / St-Antoine) - Quai 2;avenue Jacques-Martin / rue Benoît-Charlebois I
243160053;"{\"type\":\"LineString\",\"coordinates\":[[-73.4635565,45.4024271],[-73.4638687,45.4024401],[-73.4639908,45.4024492],[-73.4640922,45.4024675],[-73.4641522,45.4024807],[-73.4642065,45.4025037],[-73.4642526,45.4025259],[-73.4642905,45.4025538],[-73.4643321,45.4025887],[-73.4643738,45.4026363],[-73.4644118,45.4026994],[-73.4645155,45.4029787]]}";54;"";1;65;false;true;true;false;false;false;112.0;0;0;0;0;0;false;75466;6133322816;-73.557793;45.496306;75201;6133323305;-73.467483;45.406666;0;1;2;9512560;Bus 123 : Direction La Prairie;"";EXO;123 S;Terminus Mansfield (Mansfield / St-Antoine) - Quai 2;avenue Jacques-Martin / rue Benoît-Charlebois I
256198264;"{\"type\":\"LineString\",\"coordinates\":[[-73.4642231,45.4043323],[-73.4642768,45.4042701],[-73.4643317,45.4041989],[-73.4643811,45.4041251],[-73.4644281,45.4040443],[-73.4644738,45.403949],[-73.4644993,45.4038803],[-73.4645238,45.40379],[-73.4645387,45.4036892],[-73.4645435,45.4035861],[-73.4645404,45.4034814],[-73.4645333,45.4033436],[-73.4645155,45.4029787]]}";55;Avenue des Papillons;3;50;false;false;false;false;false;false;156.0;0;0;0;0;0;false;75466;6133322816;-73.557793;45.496306;75201;6133323305;-73.467483;45.406666;0;1;2;9512560;Bus 123 : Direction La Prairie;"";EXO;123 S;Terminus Mansfield (Mansfield / St-Antoine) - Quai 2;avenue Jacques-Martin / rue Benoît-Charlebois I
24203282;"{\"type\":\"LineString\",\"coordinates\":[[-73.4642231,45.4043323],[-73.4638969,45.4046806],[-73.4638746,45.4047044]]}";56;Avenue des Papillons;3;50;false;false;false;false;false;false;50.0;0;0;0;0;0;false;75466;6133322816;-73.557793;45.496306;75201;6133323305;-73.467483;45.406666;0;1;2;9512560;Bus 123 : Direction La Prairie;"";EXO;123 S;Terminus Mansfield (Mansfield / St-Antoine) - Quai 2;avenue Jacques-Martin / rue Benoît-Charlebois I
789353578;"{\"type\":\"LineString\",\"coordinates\":[[-73.4638746,45.4047044],[-73.46386,45.40472],[-73.4637469,45.404841]]}";57;Avenue des Papillons;3;50;false;false;true;false;false;false;19.0;1;0;0;0;0;false;75466;6133322816;-73.557793;45.496306;75201;6133323305;-73.467483;45.406666;0;1;2;9512560;Bus 123 : Direction La Prairie;"";EXO;123 S;Terminus Mansfield (Mansfield / St-Antoine) - Quai 2;avenue Jacques-Martin / rue Benoît-Charlebois I
784826534;"{\"type\":\"LineString\",\"coordinates\":[[-73.4644758,45.4051974],[-73.4642691,45.405106],[-73.4639588,45.4049595],[-73.4638723,45.4049141],[-73.4637469,45.404841]]}";58;Chemin de Saint-Jean;5;50;false;false;true;false;false;false;70.0;1;1;0;0;0;false;75466;6133322816;-73.557793;45.496306;75201;6133323305;-73.467483;45.406666;0;1;2;9512560;Bus 123 : Direction La Prairie;"";EXO;123 S;Terminus Mansfield (Mansfield / St-Antoine) - Quai 2;avenue Jacques-Martin / rue Benoît-Charlebois I
791883709;"{\"type\":\"LineString\",\"coordinates\":[[-73.4719382,45.40857],[-73.4717395,45.4084781],[-73.4713305,45.4083084],[-73.4711525,45.4082328],[-73.4710105,45.408168],[-73.4705855,45.4079739],[-73.4705116,45.4079402],[-73.4703971,45.4078879],[-73.4701624,45.4077807],[-73.4699906,45.4076977],[-73.4695438,45.4074939],[-73.4694662,45.4074584],[-73.4690041,45.4072445],[-73.468748,45.4071257],[-73.4685781,45.4070469],[-73.4684372,45.4069816],[-73.4682538,45.4068965],[-73.4676258,45.4066039],[-73.4671157,45.4063664],[-73.4670804,45.40635],[-73.4668621,45.4062486],[-73.4664436,45.4060543],[-73.4663791,45.4060261],[-73.4662379,45.4059613],[-73.4658317,45.4057733],[-73.4653851,45.4055757],[-73.4652164,45.4055011],[-73.464978,45.4054025],[-73.4644758,45.4051974]]}";59;Chemin de Saint-Jean;4;50;false;false;true;false;false;false;347.0;0;0;0;0;0;false;75466;6133322816;-73.557793;45.496306;75201;6133323305;-73.467483;45.406666;1;1;2;9512560;Bus 123 : Direction La Prairie;"";EXO;123 S;Terminus Mansfield (Mansfield / St-Antoine) - Quai 2;avenue Jacques-Martin / rue Benoît-Charlebois I
791883709;"{\"type\":\"LineString\",\"coordinates\":[[-73.4719382,45.40857],[-73.4717395,45.4084781],[-73.4713305,45.4083084],[-73.4711525,45.4082328],[-73.4710105,45.408168],[-73.4705855,45.4079739],[-73.4705116,45.4079402],[-73.4703971,45.4078879],[-73.4701624,45.4077807],[-73.4699906,45.4076977],[-73.4695438,45.4074939],[-73.4694662,45.4074584],[-73.4690041,45.4072445],[-73.468748,45.4071257],[-73.4685781,45.4070469],[-73.4684372,45.4069816],[-73.4682538,45.4068965],[-73.4676258,45.4066039],[-73.4671157,45.4063664],[-73.4670804,45.40635],[-73.4668621,45.4062486],[-73.4664436,45.4060543],[-73.4663791,45.4060261],[-73.4662379,45.4059613],[-73.4658317,45.4057733],[-73.4653851,45.4055757],[-73.4652164,45.4055011],[-73.464978,45.4054025],[-73.4644758,45.4051974]]}";1;Chemin de Saint-Jean;4;50;false;false;true;false;false;false;347.0;0;0;0;0;0;false;75201;6133323305;-73.467483;45.406666;75189;5175613159;-73.473085;45.408696;1;2;3;9512560;Bus 123 : Direction La Prairie;"";EXO;123 S;Terminus Mansfield (Mansfield / St-Antoine) - Quai 2;avenue Jacques-Martin / rue Benoît-Charlebois I
685129143;"{\"type\":\"LineString\",\"coordinates\":[[-73.4725996,45.4088978],[-73.4724775,45.4088242],[-73.4720657,45.4086294],[-73.4719382,45.40857]]}";2;Chemin de Saint-Jean;5;50;false;false;true;false;false;false;64.0;1;0;0;0;0;false;75201;6133323305;-73.467483;45.406666;75189;5175613159;-73.473085;45.408696;0;2;3;9512560;Bus 123 : Direction La Prairie;"";EXO;123 S;Terminus Mansfield (Mansfield / St-Antoine) - Quai 2;avenue Jacques-Martin / rue Benoît-Charlebois I
685298028;"{\"type\":\"LineString\",\"coordinates\":[[-73.4727014,45.4089536],[-73.4725996,45.4088978]]}";3;Chemin de Saint-Jean;4;50;false;false;true;false;false;false;11.0;0;0;0;0;0;false;75201;6133323305;-73.467483;45.406666;75189;5175613159;-73.473085;45.408696;0;2;3;9512560;Bus 123 : Direction La Prairie;"";EXO;123 S;Terminus Mansfield (Mansfield / St-Antoine) - Quai 2;avenue Jacques-Martin / rue Benoît-Charlebois I
10570565;"{\"type\":\"LineString\",\"coordinates\":[[-73.4727014,45.4089536],[-73.4727917,45.4088494],[-73.4729328,45.408696],[-73.4730529,45.4085654],[-73.4730979,45.4084935]]}";4;Boulevard de Palerme;2;50;false;true;true;false;false;false;30.0;0;1;0;0;0;false;75201;6133323305;-73.467483;45.406666;75189;5175613159;-73.473085;45.408696;1;2;3;9512560;Bus 123 : Direction La Prairie;"";EXO;123 S;Terminus Mansfield (Mansfield / St-Antoine) - Quai 2;avenue Jacques-Martin / rue Benoît-Charlebois I
10570565;"{\"type\":\"LineString\",\"coordinates\":[[-73.4727014,45.4089536],[-73.4727917,45.4088494],[-73.4729328,45.408696],[-73.4730529,45.4085654],[-73.4730979,45.4084935]]}";1;Boulevard de Palerme;2;50;false;true;true;false;false;false;30.0;0;1;0;0;0;false;75189;5175613159;-73.473085;45.408696;75191;6133323313;-73.474177;45.407475;1;3;4;9512560;Bus 123 : Direction La Prairie;"";EXO;123 S;Terminus Mansfield (Mansfield / St-Antoine) - Quai 2;avenue Jacques-Martin / rue Benoît-Charlebois I
791883711;"{\"type\":\"LineString\",\"coordinates\":[[-73.4730979,45.4084935],[-73.4731469,45.4084382],[-73.4731841,45.4083963]]}";2;Boulevard de Palerme;1;50;false;true;true;false;false;false;13.0;0;0;0;0;0;false;75189;5175613159;-73.473085;45.408696;75191;6133323313;-73.474177;45.407475;0;3;4;9512560;Bus 123 : Direction La Prairie;"";EXO;123 S;Terminus Mansfield (Mansfield / St-Antoine) - Quai 2;avenue Jacques-Martin / rue Benoît-Charlebois I
785885041;"{\"type\":\"LineString\",\"coordinates\":[[-73.4731841,45.4083963],[-73.4732308,45.4083474]]}";3;Boulevard de Palerme;1;50;false;true;true;false;false;false;7.0;0;0;0;0;0;false;75189;5175613159;-73.473085;45.408696;75191;6133323313;-73.474177;45.407475;0;3;4;9512560;Bus 123 : Direction La Prairie;"";EXO;123 S;Terminus Mansfield (Mansfield / St-Antoine) - Quai 2;avenue Jacques-Martin / rue Benoît-Charlebois I
791883700;"{\"type\":\"LineString\",\"coordinates\":[[-73.4732308,45.4083474],[-73.4735825,45.4079699],[-73.4736254,45.4079238],[-73.4740536,45.4074629],[-73.4740809,45.407432],[-73.4741429,45.4073669],[-73.4742035,45.4073017],[-73.4744724,45.4070131]]}";4;Boulevard de Palerme;1;50;false;true;false;false;false;false;89.0;0;3;1;0;0;false;75189;5175613159;-73.473085;45.408696;75191;6133323313;-73.474177;45.407475;1;3;4;9512560;Bus 123 : Direction La Prairie;"";EXO;123 S;Terminus Mansfield (Mansfield / St-Antoine) - Quai 2;avenue Jacques-Martin / rue Benoît-Charlebois I
791883700;"{\"type\":\"LineString\",\"coordinates\":[[-73.4732308,45.4083474],[-73.4735825,45.4079699],[-73.4736254,45.4079238],[-73.4740536,45.4074629],[-73.4740809,45.407432],[-73.4741429,45.4073669],[-73.4742035,45.4073017],[-73.4744724,45.4070131]]}";1;Boulevard de Palerme;1;50;false;true;false;false;false;false;89.0;0;3;1;0;0;false;75191;6133323313;-73.474177;45.407475;75242;6133323074;-73.474335;45.405838;1;4;5;9512560;Bus 123 : Direction La Prairie;"";EXO;123 S;Terminus Mansfield (Mansfield / St-Antoine) - Quai 2;avenue Jacques-Martin / rue Benoît-Charlebois I
785878791;"{\"type\":\"LineString\",\"coordinates\":[[-73.4744724,45.4070131],[-73.4744889,45.4069867],[-73.474504,45.4069518],[-73.4745105,45.4069187],[-73.4745126,45.4068834],[-73.474505,45.4068434],[-73.4744684,45.4067359],[-73.4743688,45.4064064]]}";2;Boulevard de Palerme;1;50;false;true;true;false;false;false;70.0;0;0;0;0;0;false;75191;6133323313;-73.474177;45.407475;75242;6133323074;-73.474335;45.405838;0;4;5;9512560;Bus 123 : Direction La Prairie;"";EXO;123 S;Terminus Mansfield (Mansfield / St-Antoine) - Quai 2;avenue Jacques-Martin / rue Benoît-Charlebois I
785876097;"{\"type\":\"LineString\",\"coordinates\":[[-73.4743688,45.4064064],[-73.4742198,45.4059022],[-73.4742122,45.4058774],[-73.4741797,45.4057699],[-73.4741462,45.4056589],[-73.4739855,45.4051253],[-73.4739599,45.4050401],[-73.4739364,45.4049627],[-73.4735442,45.4036705],[-73.4735279,45.4036156],[-73.4733572,45.40304],[-73.4733499,45.4030144],[-73.4733253,45.4029244],[-73.4733021,45.4028449]]}";3;Boulevard de Palerme;1;50;false;true;false;false;false;false;202.5;0;7;1;0;0;false;75191;6133323313;-73.474177;45.407475;75242;6133323074;-73.474335;45.405838;1;4;5;9512560;Bus 123 : Direction La Prairie;"";EXO;123 S;Terminus Mansfield (Mansfield / St-Antoine) - Quai 2;avenue Jacques-Martin / rue Benoît-Charlebois I
785876097;"{\"type\":\"LineString\",\"coordinates\":[[-73.4743688,45.4064064],[-73.4742198,45.4059022],[-73.4742122,45.4058774],[-73.4741797,45.4057699],[-73.4741462,45.4056589],[-73.4739855,45.4051253],[-73.4739599,45.4050401],[-73.4739364,45.4049627],[-73.4735442,45.4036705],[-73.4735279,45.4036156],[-73.4733572,45.40304],[-73.4733499,45.4030144],[-73.4733253,45.4029244],[-73.4733021,45.4028449]]}";1;Boulevard de Palerme;1;50;false;true;false;false;false;false;202.5;0;7;1;0;0;false;75251;6133323068;-73.473488;45.403;75470;5175613161;-73.475012;45.400909;1;7;8;9512560;Bus 123 : Direction La Prairie;"";EXO;123 S;Terminus Mansfield (Mansfield / St-Antoine) - Quai 2;avenue Jacques-Martin / rue Benoît-Charlebois I
533490637;"{\"type\":\"LineString\",\"coordinates\":[[-73.4733021,45.4028449],[-73.4732965,45.402818],[-73.4732877,45.4027653],[-73.4732804,45.4026909],[-73.4732767,45.4026318],[-73.4732739,45.4025609],[-73.4732752,45.4024814],[-73.473279,45.4024436],[-73.4732887,45.4023944],[-73.4732994,45.4023471],[-73.4733128,45.4022984],[-73.4733287,45.4022562],[-73.4733447,45.4022185],[-73.4733591,45.4021839],[-73.4733919,45.4021219],[-73.4734196,45.4020741],[-73.4734544,45.4020223],[-73.4734884,45.4019767],[-73.4735374,45.4019163],[-73.4735828,45.4018635],[-73.4736407,45.4018029],[-73.4737003,45.4017481],[-73.4737478,45.4017089],[-73.4738015,45.4016653],[-73.4738588,45.4016203],[-73.4741529,45.4014066],[-73.47438,45.4012364],[-73.474406,45.4012178],[-73.4744705,45.4011705],[-73.4745551,45.4011103],[-73.474909,45.4008532],[-73.474939,45.4008317],[-73.4750041,45.4007807]]}";2;Boulevard de Palerme;1;30;false;true;false;false;false;false;278.0;0;6;1;0;0;false;75251;6133323068;-73.473488;45.403;75470;5175613161;-73.475012;45.400909;0;7;8;9512560;Bus 123 : Direction La Prairie;"";EXO;123 S;Terminus Mansfield (Mansfield / St-Antoine) - Quai 2;avenue Jacques-Martin / rue Benoît-Charlebois I
53015280;"{\"type\":\"LineString\",\"coordinates\":[[-73.4836709,45.3963062],[-73.483666,45.396396],[-73.483664,45.3964415],[-73.4836587,45.396515],[-73.4836502,45.3965786],[-73.4836396,45.396635],[-73.4836272,45.3967],[-73.4836133,45.3967548],[-73.4835947,45.3968122],[-73.4835754,45.3968648],[-73.4835558,45.3969124],[-73.4835315,45.3969678],[-73.4835042,45.397026],[-73.4834782,45.3970718],[-73.4834387,45.3971368],[-73.483392,45.3972059],[-73.4833509,45.3972624],[-73.4833249,45.3972961],[-73.483301,45.3973261],[-73.4832916,45.3973373],[-73.4832683,45.3973651],[-73.4832284,45.3974105],[-73.483185,45.3974539],[-73.4831616,45.3974764],[-73.4831445,45.3974929],[-73.4830876,45.3975438],[-73.4830296,45.3975924],[-73.4829828,45.3976288],[-73.4829321,45.397668],[-73.482816,45.3977514],[-73.4827439,45.3978025],[-73.4826961,45.3978384],[-73.4820446,45.3983287],[-73.4819576,45.3983911],[-73.4818822,45.3984465],[-73.4813606,45.3988314],[-73.4813168,45.3988631],[-73.4812438,45.3989149],[-73.4811669,45.398973],[-73.481149,45.3989863],[-73.4805419,45.3994357],[-73.480469,45.3994897],[-73.4803843,45.3995506],[-73.4800216,45.3998166],[-73.4799027,45.3999016],[-73.4797901,45.3999801],[-73.4797234,45.4000262],[-73.479695,45.4000443],[-73.4795962,45.4001073],[-73.4795132,45.4001622],[-73.4790752,45.4004526],[-73.4789959,45.4005061],[-73.4789151,45.4005606],[-73.4788279,45.4006189],[-73.4782609,45.4010056],[-73.4782332,45.4010231],[-73.4781609,45.401069],[-73.4780845,45.4011167],[-73.4779539,45.4011904],[-73.4778863,45.4012244],[-73.4778151,45.4012555],[-73.4777498,45.40128],[-73.4776847,45.401301],[-73.477607,45.4013215],[-73.4775251,45.4013393],[-73.4774528,45.4013529],[-73.4773821,45.401363],[-73.4773057,45.4013715],[-73.477225,45.4013768],[-73.4766586,45.4014001],[-73.4765161,45.4014021],[-73.4764632,45.4014015],[-73.4764448,45.4014013],[-73.4763736,45.4013969],[-73.4763206,45.4013928],[-73.4762492,45.4013837],[-73.4761823,45.4013732],[-73.4761041,45.401357],[-73.4760523,45.4013445],[-73.4760259,45.4013381],[-73.475978,45.4013247],[-73.4759474,45.4013163],[-73.4758842,45.4012954],[-73.475805,45.4012656],[-73.4757182,45.4012284],[-73.4756389,45.4011908],[-73.4755934,45.4011654],[-73.4755725,45.4011537],[-73.4755129,45.4011192],[-73.4751431,45.4008715],[-73.4750799,45.4008304],[-73.4750041,45.4007807]]}";3;Avenue Jean-Baptiste-Varin;2;30;false;false;true;false;false;false;488.5;0;17;8;0;0;false;75251;6133323068;-73.473488;45.403;75470;5175613161;-73.475012;45.400909;1;7;8;9512560;Bus 123 : Direction La Prairie;"";EXO;123 S;Terminus Mansfield (Mansfield / St-Antoine) - Quai 2;avenue Jacques-Martin / rue Benoît-Charlebois I
533490637;"{\"type\":\"LineString\",\"coordinates\":[[-73.4733021,45.4028449],[-73.4732965,45.402818],[-73.4732877,45.4027653],[-73.4732804,45.4026909],[-73.4732767,45.4026318],[-73.4732739,45.4025609],[-73.4732752,45.4024814],[-73.473279,45.4024436],[-73.4732887,45.4023944],[-73.4732994,45.4023471],[-73.4733128,45.4022984],[-73.4733287,45.4022562],[-73.4733447,45.4022185],[-73.4733591,45.4021839],[-73.4733919,45.4021219],[-73.4734196,45.4020741],[-73.4734544,45.4020223],[-73.4734884,45.4019767],[-73.4735374,45.4019163],[-73.4735828,45.4018635],[-73.4736407,45.4018029],[-73.4737003,45.4017481],[-73.4737478,45.4017089],[-73.4738015,45.4016653],[-73.4738588,45.4016203],[-73.4741529,45.4014066],[-73.47438,45.4012364],[-73.474406,45.4012178],[-73.4744705,45.4011705],[-73.4745551,45.4011103],[-73.474909,45.4008532],[-73.474939,45.4008317],[-73.4750041,45.4007807]]}";1;Boulevard de Palerme;1;30;false;true;false;false;false;false;278.0;0;6;1;0;0;false;75470;5175613161;-73.475012;45.400909;75471;6133322813;-73.4781343;45.4011911;2;8;9;9512560;Bus 123 : Direction La Prairie;"";EXO;123 S;Terminus Mansfield (Mansfield / St-Antoine) - Quai 2;avenue Jacques-Martin / rue Benoît-Charlebois I
53015280;"{\"type\":\"LineString\",\"coordinates\":[[-73.4836709,45.3963062],[-73.483666,45.396396],[-73.483664,45.3964415],[-73.4836587,45.396515],[-73.4836502,45.3965786],[-73.4836396,45.396635],[-73.4836272,45.3967],[-73.4836133,45.3967548],[-73.4835947,45.3968122],[-73.4835754,45.3968648],[-73.4835558,45.3969124],[-73.4835315,45.3969678],[-73.4835042,45.397026],[-73.4834782,45.3970718],[-73.4834387,45.3971368],[-73.483392,45.3972059],[-73.4833509,45.3972624],[-73.4833249,45.3972961],[-73.483301,45.3973261],[-73.4832916,45.3973373],[-73.4832683,45.3973651],[-73.4832284,45.3974105],[-73.483185,45.3974539],[-73.4831616,45.3974764],[-73.4831445,45.3974929],[-73.4830876,45.3975438],[-73.4830296,45.3975924],[-73.4829828,45.3976288],[-73.4829321,45.397668],[-73.482816,45.3977514],[-73.4827439,45.3978025],[-73.4826961,45.3978384],[-73.4820446,45.3983287],[-73.4819576,45.3983911],[-73.4818822,45.3984465],[-73.4813606,45.3988314],[-73.4813168,45.3988631],[-73.4812438,45.3989149],[-73.4811669,45.398973],[-73.481149,45.3989863],[-73.4805419,45.3994357],[-73.480469,45.3994897],[-73.4803843,45.3995506],[-73.4800216,45.3998166],[-73.4799027,45.3999016],[-73.4797901,45.3999801],[-73.4797234,45.4000262],[-73.479695,45.4000443],[-73.4795962,45.4001073],[-73.4795132,45.4001622],[-73.4790752,45.4004526],[-73.4789959,45.4005061],[-73.4789151,45.4005606],[-73.4788279,45.4006189],[-73.4782609,45.4010056],[-73.4782332,45.4010231],[-73.4781609,45.401069],[-73.4780845,45.4011167],[-73.4779539,45.4011904],[-73.4778863,45.4012244],[-73.4778151,45.4012555],[-73.4777498,45.40128],[-73.4776847,45.401301],[-73.477607,45.4013215],[-73.4775251,45.4013393],[-73.4774528,45.4013529],[-73.4773821,45.401363],[-73.4773057,45.4013715],[-73.477225,45.4013768],[-73.4766586,45.4014001],[-73.4765161,45.4014021],[-73.4764632,45.4014015],[-73.4764448,45.4014013],[-73.4763736,45.4013969],[-73.4763206,45.4013928],[-73.4762492,45.4013837],[-73.4761823,45.4013732],[-73.4761041,45.401357],[-73.4760523,45.4013445],[-73.4760259,45.4013381],[-73.475978,45.4013247],[-73.4759474,45.4013163],[-73.4758842,45.4012954],[-73.475805,45.4012656],[-73.4757182,45.4012284],[-73.4756389,45.4011908],[-73.4755934,45.4011654],[-73.4755725,45.4011537],[-73.4755129,45.4011192],[-73.4751431,45.4008715],[-73.4750799,45.4008304],[-73.4750041,45.4007807]]}";2;Avenue Jean-Baptiste-Varin;2;30;false;false;true;false;false;false;977.0;0;17;8;0;0;false;75470;5175613161;-73.475012;45.400909;75471;6133322813;-73.4781343;45.4011911;2;8;9;9512560;Bus 123 : Direction La Prairie;"";EXO;123 S;Terminus Mansfield (Mansfield / St-Antoine) - Quai 2;avenue Jacques-Martin / rue Benoît-Charlebois I
10149095;"{\"type\":\"LineString\",\"coordinates\":[[-73.4836709,45.3963062],[-73.4837651,45.3963081],[-73.483835,45.3963099],[-73.4839576,45.3963138],[-73.484167,45.3963141],[-73.4842316,45.396315],[-73.4842953,45.3963172],[-73.4843659,45.3963235],[-73.4844045,45.3963301],[-73.4844304,45.3963343],[-73.4844971,45.3963492],[-73.4845461,45.396364],[-73.4846055,45.3963854],[-73.4846675,45.3964097],[-73.4847497,45.3964474]]}";1;Avenue de la Briqueterie;2;30;false;false;true;false;false;false;88.0;0;1;1;0;0;false;75418;6133322849;-73.483803;45.396441;75419;6133322848;-73.486103;45.397263;2;11;12;9512560;Bus 123 : Direction La Prairie;"";EXO;123 S;Terminus Mansfield (Mansfield / St-Antoine) - Quai 2;avenue Jacques-Martin / rue Benoît-Charlebois I
804274280;"{\"type\":\"LineString\",\"coordinates\":[[-73.4847497,45.3964474],[-73.4850012,45.3965654],[-73.4854755,45.3967916],[-73.4860095,45.3970391],[-73.4860605,45.3970639],[-73.4861096,45.3970927],[-73.4861462,45.3971197],[-73.4861926,45.3971574],[-73.486219,45.3971819],[-73.4862397,45.3972138],[-73.4862904,45.3972905]]}";2;Avenue de la Briqueterie;2;40;false;false;true;false;false;false;155.0;0;1;1;0;0;false;75418;6133322849;-73.483803;45.396441;75419;6133322848;-73.486103;45.397263;2;11;12;9512560;Bus 123 : Direction La Prairie;"";EXO;123 S;Terminus Mansfield (Mansfield / St-Antoine) - Quai 2;avenue Jacques-Martin / rue Benoît-Charlebois I
804483941;"{\"type\":\"LineString\",\"coordinates\":[[-73.4862904,45.3972905],[-73.4863314,45.3973532],[-73.4863512,45.3973828],[-73.4867093,45.3978556],[-73.4867891,45.3979646],[-73.4868541,45.3980616],[-73.4869055,45.3981254],[-73.4869526,45.3981783],[-73.4870184,45.3982478],[-73.4870736,45.3982972],[-73.4871267,45.3983394],[-73.4871883,45.3983818],[-73.4872542,45.3984231],[-73.4873205,45.39846],[-73.4875038,45.3985521],[-73.488227,45.3988885],[-73.4883981,45.3989666],[-73.4885119,45.3990164],[-73.4886185,45.3990595],[-73.4886829,45.399082],[-73.4887525,45.3991012],[-73.4888227,45.3991174],[-73.4889108,45.3991348],[-73.488993,45.3991481],[-73.4890924,45.3991571],[-73.4891973,45.3991613],[-73.489295,45.3991604],[-73.4893352,45.3991587],[-73.4893946,45.3991561],[-73.4895047,45.3991495],[-73.4895645,45.3991429],[-73.489629,45.399134],[-73.4896874,45.399123],[-73.4899812,45.3990626],[-73.4901929,45.3990054],[-73.4903676,45.3989653],[-73.4904519,45.3989475],[-73.4905331,45.3989318]]}";1;Avenue de la Briqueterie;2;40;false;false;true;false;false;false;215.5;0;3;3;0;0;false;75435;6133322839;-73.489372;45.399277;75237;6133323077;-73.4917046;45.3966809;1;13;14;9512560;Bus 123 : Direction La Prairie;"";EXO;123 S;Terminus Mansfield (Mansfield / St-Antoine) - Quai 2;avenue Jacques-Martin / rue Benoît-Charlebois I
804237690;"{\"type\":\"LineString\",\"coordinates\":[[-73.4905331,45.3989318],[-73.4907072,45.3988997],[-73.490899,45.3988655],[-73.4911372,45.3988271],[-73.4913908,45.3987904]]}";2;Avenue de la Briqueterie;2;40;false;false;true;false;false;false;69.0;0;0;0;0;0;false;75435;6133322839;-73.489372;45.399277;75237;6133323077;-73.4917046;45.3966809;0;13;14;9512560;Bus 123 : Direction La Prairie;"";EXO;123 S;Terminus Mansfield (Mansfield / St-Antoine) - Quai 2;avenue Jacques-Martin / rue Benoît-Charlebois I
804237682;"{\"type\":\"LineString\",\"coordinates\":[[-73.4913908,45.3987904],[-73.4916112,45.3987964],[-73.4919001,45.3987725],[-73.4919452,45.3987542],[-73.4920016,45.3987313],[-73.4920669,45.3987048]]}";3;Avenue de la Briqueterie;1;40;false;true;true;false;false;false;56.0;0;2;1;0;0;false;75435;6133322839;-73.489372;45.399277;75237;6133323077;-73.4917046;45.3966809;0;13;14;9512560;Bus 123 : Direction La Prairie;"";EXO;123 S;Terminus Mansfield (Mansfield / St-Antoine) - Quai 2;avenue Jacques-Martin / rue Benoît-Charlebois I
804237685;"{\"type\":\"LineString\",\"coordinates\":[[-73.4920556,45.3985904],[-73.4920669,45.3987048]]}";4;Chemin Saint-José;2;40;false;false;true;false;false;false;13.0;0;0;0;0;0;false;75435;6133322839;-73.489372;45.399277;75237;6133323077;-73.4917046;45.3966809;0;13;14;9512560;Bus 123 : Direction La Prairie;"";EXO;123 S;Terminus Mansfield (Mansfield / St-Antoine) - Quai 2;avenue Jacques-Martin / rue Benoît-Charlebois I
785580327;"{\"type\":\"LineString\",\"coordinates\":[[-73.4921495,45.3946195],[-73.4920754,45.394694],[-73.4920131,45.3947638],[-73.491957,45.3948288],[-73.4919129,45.3948847],[-73.4918694,45.3949479],[-73.4918314,45.3950033],[-73.4917943,45.3950642],[-73.4917606,45.39512],[-73.491728,45.3951785],[-73.4916966,45.395234],[-73.4916685,45.3952981],[-73.4916421,45.3953592],[-73.4916159,45.3954237],[-73.4915982,45.3954826],[-73.4915777,45.3955504],[-73.491561,45.3956189],[-73.4915418,45.395701],[-73.4915261,45.3957855],[-73.4915173,45.3958376],[-73.4915127,45.3958882],[-73.491508,45.3959444],[-73.4915052,45.3959979],[-73.491505,45.3960571],[-73.4915076,45.3961186],[-73.4915116,45.396179],[-73.4915183,45.3962374],[-73.4915268,45.3963052],[-73.4915369,45.3963689],[-73.4915548,45.3964554],[-73.4915613,45.3964833],[-73.4915805,45.3965643],[-73.4916005,45.3966416],[-73.49174,45.397153],[-73.4918353,45.3975072],[-73.4919621,45.3979895],[-73.4919775,45.3980603],[-73.4919895,45.3981199],[-73.4920012,45.3981872],[-73.4920035,45.3982013],[-73.4920125,45.3982561],[-73.4920241,45.3983339],[-73.4920395,45.3984434],[-73.4920542,45.3985755],[-73.4920556,45.3985904]]}";5;Chemin Saint-José;2;40;false;false;false;false;false;false;228.0;0;2;2;0;0;false;75435;6133322839;-73.489372;45.399277;75237;6133323077;-73.4917046;45.3966809;1;13;14;9512560;Bus 123 : Direction La Prairie;"";EXO;123 S;Terminus Mansfield (Mansfield / St-Antoine) - Quai 2;avenue Jacques-Martin / rue Benoît-Charlebois I
785580327;"{\"type\":\"LineString\",\"coordinates\":[[-73.4921495,45.3946195],[-73.4920754,45.394694],[-73.4920131,45.3947638],[-73.491957,45.3948288],[-73.4919129,45.3948847],[-73.4918694,45.3949479],[-73.4918314,45.3950033],[-73.4917943,45.3950642],[-73.4917606,45.39512],[-73.491728,45.3951785],[-73.4916966,45.395234],[-73.4916685,45.3952981],[-73.4916421,45.3953592],[-73.4916159,45.3954237],[-73.4915982,45.3954826],[-73.4915777,45.3955504],[-73.491561,45.3956189],[-73.4915418,45.395701],[-73.4915261,45.3957855],[-73.4915173,45.3958376],[-73.4915127,45.3958882],[-73.491508,45.3959444],[-73.4915052,45.3959979],[-73.491505,45.3960571],[-73.4915076,45.3961186],[-73.4915116,45.396179],[-73.4915183,45.3962374],[-73.4915268,45.3963052],[-73.4915369,45.3963689],[-73.4915548,45.3964554],[-73.4915613,45.3964833],[-73.4915805,45.3965643],[-73.4916005,45.3966416],[-73.49174,45.397153],[-73.4918353,45.3975072],[-73.4919621,45.3979895],[-73.4919775,45.3980603],[-73.4919895,45.3981199],[-73.4920012,45.3981872],[-73.4920035,45.3982013],[-73.4920125,45.3982561],[-73.4920241,45.3983339],[-73.4920395,45.3984434],[-73.4920542,45.3985755],[-73.4920556,45.3985904]]}";1;Chemin Saint-José;2;40;false;false;false;false;false;false;228.0;0;2;2;0;0;false;75237;6133323077;-73.4917046;45.3966809;75165;6133323331;-73.493853;45.393203;1;14;15;9512560;Bus 123 : Direction La Prairie;"";EXO;123 S;Terminus Mansfield (Mansfield / St-Antoine) - Quai 2;avenue Jacques-Martin / rue Benoît-Charlebois I
11395266;"{\"type\":\"LineString\",\"coordinates\":[[-73.4937968,45.3931622],[-73.4937322,45.3932176],[-73.4932126,45.3936738],[-73.4926628,45.3941532],[-73.4924479,45.3943456],[-73.4923621,45.3944211],[-73.4923104,45.3944705],[-73.4922424,45.3945339],[-73.4921763,45.3945947],[-73.4921495,45.3946195]]}";2;Chemin Saint-José;2;50;false;false;true;false;false;false;103.5;0;0;1;0;0;false;75237;6133323077;-73.4917046;45.3966809;75165;6133323331;-73.493853;45.393203;1;14;15;9512560;Bus 123 : Direction La Prairie;"";EXO;123 S;Terminus Mansfield (Mansfield / St-Antoine) - Quai 2;avenue Jacques-Martin / rue Benoît-Charlebois I
685468127;"{\"type\":\"LineString\",\"coordinates\":[[-73.4938753,45.3930954],[-73.4937968,45.3931622]]}";1;Chemin Saint-José;2;50;false;false;false;false;false;false;10.0;0;0;0;0;0;false;75165;6133323331;-73.493853;45.393203;75433;6133322840;-73.491471;45.391866;2;15;16;9512560;Bus 123 : Direction La Prairie;"";EXO;123 S;Terminus Mansfield (Mansfield / St-Antoine) - Quai 2;avenue Jacques-Martin / rue Benoît-Charlebois I
119245381;"{\"type\":\"LineString\",\"coordinates\":[[-73.4938753,45.3930954],[-73.4937958,45.3930575],[-73.493355,45.3928423]]}";2;Boulevard Pompidou;1;50;false;true;true;false;false;false;50.0;0;1;0;0;0;false;75165;6133323331;-73.493853;45.393203;75433;6133322840;-73.491471;45.391866;0;15;16;9512560;Bus 123 : Direction La Prairie;"";EXO;123 S;Terminus Mansfield (Mansfield / St-Antoine) - Quai 2;avenue Jacques-Martin / rue Benoît-Charlebois I
790764474;"{\"type\":\"LineString\",\"coordinates\":[[-73.493355,45.3928423],[-73.4928867,45.3926202]]}";3;Boulevard Pompidou;1;50;false;true;true;false;false;false;45.0;0;1;0;0;0;false;75165;6133323331;-73.493853;45.393203;75433;6133322840;-73.491471;45.391866;0;15;16;9512560;Bus 123 : Direction La Prairie;"";EXO;123 S;Terminus Mansfield (Mansfield / St-Antoine) - Quai 2;avenue Jacques-Martin / rue Benoît-Charlebois I
790764473;"{\"type\":\"LineString\",\"coordinates\":[[-73.4928867,45.3926202],[-73.4927956,45.3925769],[-73.4926898,45.3925263],[-73.4913041,45.3918629],[-73.4907839,45.3916114],[-73.4905194,45.3914812],[-73.49022,45.3913381],[-73.4898096,45.3911577],[-73.4896527,45.3911201]]}";4;Boulevard Pompidou;1;50;false;true;true;false;false;false;304.0;0;2;1;0;0;false;75165;6133323331;-73.493853;45.393203;75433;6133322840;-73.491471;45.391866;2;15;16;9512560;Bus 123 : Direction La Prairie;"";EXO;123 S;Terminus Mansfield (Mansfield / St-Antoine) - Quai 2;avenue Jacques-Martin / rue Benoît-Charlebois I
