way_id;shape;index;name;nb_lanes;legal_speed;speed_zone_30;oneway;shares_bike;bike_box;bus_lane;dedicated_bus_lane;length;nb_traffic_signals;nb_crossings;nb_stops;nb_give_ways;nb_lvl_crossings;roundabout;stop_id_orig;node_id_orig;coord_x_orig;coord_y_orig;stop_id_dest;node_id_dest;coord_x_dest;coord_y_dest;nb_neighbouring_ways_bus_stop;ordre_orig;ordre_dest;id_line;line_name;colour;operator;ref;from;to
250809289;"{\"type\":\"LineString\",\"coordinates\":[[-73.6249364,45.7278101],[-73.6266065,45.727753],[-73.6274732,45.7277134]]}";1;Avenue de l'Esplanade;4;50;false;false;false;false;false;false;198.0;0;0;0;0;0;false;85802;6129480985;-73.627458;45.727803;84042;6129485040;-73.632111;45.727429;1;5;6;9453577;Bus 427 : CITÉ DU SPORT / CÉGEP TERREBONNE;"";EXO;427 O;Gare Mascouche;Cité du Sport
250809312;"{\"type\":\"LineString\",\"coordinates\":[[-73.6274732,45.7277134],[-73.6277823,45.7277285],[-73.6279602,45.7277702],[-73.6281798,45.7278599]]}";2;Avenue de l'Esplanade;2;50;false;true;true;false;false;false;59.0;0;0;0;0;0;false;85802;6129480985;-73.627458;45.727803;84042;6129485040;-73.632111;45.727429;0;5;6;9453577;Bus 427 : CITÉ DU SPORT / CÉGEP TERREBONNE;"";EXO;427 O;Gare Mascouche;Cité du Sport
680913813;"{\"type\":\"LineString\",\"coordinates\":[[-73.6281798,45.7278599],[-73.6282139,45.7278842],[-73.6282536,45.7279039],[-73.628328,45.7279249],[-73.6284078,45.7279302],[-73.6284864,45.7279192],[-73.6285573,45.727893],[-73.6285951,45.7278696],[-73.6286263,45.7278418]]}";3;"";2;50;false;true;true;false;false;false;41.0;0;0;0;0;0;true;85802;6129480985;-73.627458;45.727803;84042;6129485040;-73.632111;45.727429;0;5;6;9453577;Bus 427 : CITÉ DU SPORT / CÉGEP TERREBONNE;"";EXO;427 O;Gare Mascouche;Cité du Sport
251501273;"{\"type\":\"LineString\",\"coordinates\":[[-73.6286263,45.7278418],[-73.6287791,45.7277263],[-73.628963,45.727677],[-73.6292637,45.727619]]}";4;Avenue de l'Esplanade;2;50;false;true;true;false;false;false;58.0;0;0;0;0;0;false;85802;6129480985;-73.627458;45.727803;84042;6129485040;-73.632111;45.727429;0;5;6;9453577;Bus 427 : CITÉ DU SPORT / CÉGEP TERREBONNE;"";EXO;427 O;Gare Mascouche;Cité du Sport
32956385;"{\"type\":\"LineString\",\"coordinates\":[[-73.6292637,45.727619],[-73.6300153,45.7275813],[-73.6310141,45.72752],[-73.6316854,45.7274353],[-73.6322477,45.7273371],[-73.6328617,45.7271718],[-73.6370059,45.7257171],[-73.6378596,45.7254865],[-73.6384767,45.7253826],[-73.6393022,45.7252641],[-73.6412828,45.724984],[-73.6459337,45.7243452],[-73.6462807,45.7243292],[-73.6466151,45.724357],[-73.6485326,45.7245779],[-73.6509578,45.7249853],[-73.6549869,45.7255722],[-73.6552084,45.7255998],[-73.6553944,45.7256727],[-73.6564227,45.7263638],[-73.6566662,45.7264674],[-73.6569212,45.7264967],[-73.6573313,45.7265054]]}";5;Avenue de l'Esplanade;4;50;false;false;false;false;false;false;2296.0;1;0;0;0;0;false;85802;6129480985;-73.627458;45.727803;84042;6129485040;-73.632111;45.727429;2;5;6;9453577;Bus 427 : CITÉ DU SPORT / CÉGEP TERREBONNE;"";EXO;427 O;Gare Mascouche;Cité du Sport
32956385;"{\"type\":\"LineString\",\"coordinates\":[[-73.6292637,45.727619],[-73.6300153,45.7275813],[-73.6310141,45.72752],[-73.6316854,45.7274353],[-73.6322477,45.7273371],[-73.6328617,45.7271718],[-73.6370059,45.7257171],[-73.6378596,45.7254865],[-73.6384767,45.7253826],[-73.6393022,45.7252641],[-73.6412828,45.724984],[-73.6459337,45.7243452],[-73.6462807,45.7243292],[-73.6466151,45.724357],[-73.6485326,45.7245779],[-73.6509578,45.7249853],[-73.6549869,45.7255722],[-73.6552084,45.7255998],[-73.6553944,45.7256727],[-73.6564227,45.7263638],[-73.6566662,45.7264674],[-73.6569212,45.7264967],[-73.6573313,45.7265054]]}";1;Avenue de l'Esplanade;4;50;false;false;false;false;false;false;1148.0;1;0;0;0;0;false;84044;6129485038;-73.656958;45.726565;84142;6129484954;-73.657964;45.721282;1;8;9;9453577;Bus 427 : CITÉ DU SPORT / CÉGEP TERREBONNE;"";EXO;427 O;Gare Mascouche;Cité du Sport
680913796;"{\"type\":\"LineString\",\"coordinates\":[[-73.6573313,45.7265054],[-73.6575206,45.7265035]]}";2;Avenue de l'Esplanade;4;50;false;false;false;false;false;false;15.0;2;0;0;0;0;false;84044;6129485038;-73.656958;45.726565;84142;6129484954;-73.657964;45.721282;0;8;9;9453577;Bus 427 : CITÉ DU SPORT / CÉGEP TERREBONNE;"";EXO;427 O;Gare Mascouche;Cité du Sport
680913812;"{\"type\":\"LineString\",\"coordinates\":[[-73.6575206,45.7265035],[-73.6575297,45.7261325],[-73.6575351,45.7259377],[-73.6575313,45.725859]]}";3;Chemin des Anglais;1;50;false;true;true;false;false;false;72.0;1;0;0;0;0;false;84044;6129485038;-73.656958;45.726565;84142;6129484954;-73.657964;45.721282;0;8;9;9453577;Bus 427 : CITÉ DU SPORT / CÉGEP TERREBONNE;"";EXO;427 O;Gare Mascouche;Cité du Sport
455482397;"{\"type\":\"LineString\",\"coordinates\":[[-73.6575313,45.725859],[-73.6575242,45.7254102]]}";4;Chemin des Anglais;1;50;false;true;true;false;false;false;50.0;0;0;0;0;0;false;84044;6129485038;-73.656958;45.726565;84142;6129484954;-73.657964;45.721282;0;8;9;9453577;Bus 427 : CITÉ DU SPORT / CÉGEP TERREBONNE;"";EXO;427 O;Gare Mascouche;Cité du Sport
455482396;"{\"type\":\"LineString\",\"coordinates\":[[-73.6575242,45.7254102],[-73.6575056,45.7248573],[-73.6574977,45.7244683],[-73.6574492,45.7242413],[-73.6574331,45.7239548],[-73.657367,45.7238876]]}";5;Chemin des Anglais;2;50;false;true;true;false;false;false;172.0;0;0;0;0;0;false;84044;6129485038;-73.656958;45.726565;84142;6129484954;-73.657964;45.721282;0;8;9;9453577;Bus 427 : CITÉ DU SPORT / CÉGEP TERREBONNE;"";EXO;427 O;Gare Mascouche;Cité du Sport
455482405;"{\"type\":\"LineString\",\"coordinates\":[[-73.6588368,45.7197388],[-73.65854,45.7199576],[-73.6584267,45.720093],[-73.6581919,45.7205731],[-73.6581229,45.7207252],[-73.6577839,45.7214124],[-73.6575015,45.7220883],[-73.6573852,45.7224202],[-73.6573539,45.7225413],[-73.6573368,45.7226724],[-73.6573555,45.7234229],[-73.657367,45.7238876]]}";6;Chemin des Anglais;4;50;false;false;true;false;false;false;243.0;0;0;0;0;0;false;84044;6129485038;-73.656958;45.726565;84142;6129484954;-73.657964;45.721282;1;8;9;9453577;Bus 427 : CITÉ DU SPORT / CÉGEP TERREBONNE;"";EXO;427 O;Gare Mascouche;Cité du Sport
455498689;"{\"type\":\"LineString\",\"coordinates\":[[-73.6588368,45.7197388],[-73.65993,45.7204702],[-73.661124,45.7212658],[-73.6612549,45.7213536],[-73.6618342,45.7217409],[-73.6640988,45.7232647]]}";1;Chemin Gascon;1;50;false;false;true;false;false;false;283.5;0;0;0;0;0;false;84790;6129483596;-73.661981;45.721976;84840;6129482954;-73.666405;45.723916;1;11;12;9453577;Bus 427 : CITÉ DU SPORT / CÉGEP TERREBONNE;"";EXO;427 O;Gare Mascouche;Cité du Sport
414860417;"{\"type\":\"LineString\",\"coordinates\":[[-73.6640988,45.7232647],[-73.6641175,45.7233574],[-73.6642986,45.7234707],[-73.6647076,45.7237431],[-73.6649839,45.7239397],[-73.6650958,45.7240161]]}";2;Chemin Gascon;1;50;false;true;true;false;false;false;116.0;0;0;0;0;0;false;84790;6129483596;-73.661981;45.721976;84840;6129482954;-73.666405;45.723916;0;11;12;9453577;Bus 427 : CITÉ DU SPORT / CÉGEP TERREBONNE;"";EXO;427 O;Gare Mascouche;Cité du Sport
678900136;"{\"type\":\"LineString\",\"coordinates\":[[-73.6652089,45.72395],[-73.6650958,45.7240161]]}";3;Boulevard de la Pinière;1;50;false;false;true;false;false;false;12.0;0;0;0;0;0;false;84790;6129483596;-73.661981;45.721976;84840;6129482954;-73.666405;45.723916;0;11;12;9453577;Bus 427 : CITÉ DU SPORT / CÉGEP TERREBONNE;"";EXO;427 O;Gare Mascouche;Cité du Sport
678900137;"{\"type\":\"LineString\",\"coordinates\":[[-73.6680618,45.7250583],[-73.6679399,45.7250056],[-73.6674931,45.7247319],[-73.6673711,45.7246538],[-73.6669647,45.7243936],[-73.6668683,45.7243199],[-73.6667825,45.7242236],[-73.6665656,45.7238928],[-73.6664378,45.7237917],[-73.6662948,45.7237335],[-73.666114,45.7236892],[-73.6659218,45.7236773],[-73.6657911,45.7236879],[-73.6656017,45.7237322],[-73.6654379,45.7238168],[-73.6652089,45.72395]]}";4;Boulevard de la Pinière;1;50;false;false;true;false;false;false;150.0;0;0;0;0;0;false;84790;6129483596;-73.661981;45.721976;84840;6129482954;-73.666405;45.723916;1;11;12;9453577;Bus 427 : CITÉ DU SPORT / CÉGEP TERREBONNE;"";EXO;427 O;Gare Mascouche;Cité du Sport
678900137;"{\"type\":\"LineString\",\"coordinates\":[[-73.6680618,45.7250583],[-73.6679399,45.7250056],[-73.6674931,45.7247319],[-73.6673711,45.7246538],[-73.6669647,45.7243936],[-73.6668683,45.7243199],[-73.6667825,45.7242236],[-73.6665656,45.7238928],[-73.6664378,45.7237917],[-73.6662948,45.7237335],[-73.666114,45.7236892],[-73.6659218,45.7236773],[-73.6657911,45.7236879],[-73.6656017,45.7237322],[-73.6654379,45.7238168],[-73.6652089,45.72395]]}";1;Boulevard de la Pinière;1;50;false;false;true;false;false;false;150.0;0;0;0;0;0;false;85441;6129481594;-73.667784;45.725039;84046;6129485036;-73.680988;45.724283;1;13;14;9453577;Bus 427 : CITÉ DU SPORT / CÉGEP TERREBONNE;"";EXO;427 O;Gare Mascouche;Cité du Sport
100706424;"{\"type\":\"LineString\",\"coordinates\":[[-73.6811183,45.7241503],[-73.6804944,45.7242253],[-73.678083,45.7245153],[-73.6776053,45.7245727],[-73.6743491,45.7249632],[-73.6714387,45.7251309],[-73.6689559,45.7252427],[-73.6686151,45.7252268],[-73.6683154,45.7251647],[-73.6680618,45.7250583]]}";2;Boulevard de la Pinière;1;50;false;false;true;false;false;false;514.5;0;0;0;0;0;false;85441;6129481594;-73.667784;45.725039;84046;6129485036;-73.680988;45.724283;1;13;14;9453577;Bus 427 : CITÉ DU SPORT / CÉGEP TERREBONNE;"";EXO;427 O;Gare Mascouche;Cité du Sport
212719385;"{\"type\":\"LineString\",\"coordinates\":[[-73.6977693,45.717002],[-73.6974359,45.7171296],[-73.6970731,45.7173415],[-73.696844,45.7175555],[-73.6967085,45.7177235],[-73.6966094,45.7178735],[-73.6965237,45.718064],[-73.696492,45.7182351],[-73.6964934,45.7185096],[-73.6966653,45.7191396],[-73.6966994,45.7192647],[-73.6967394,45.7195988],[-73.6967194,45.7198681],[-73.6965754,45.7202361],[-73.6963228,45.7205543],[-73.6960074,45.7208201],[-73.6955876,45.7210855],[-73.6950714,45.7213516],[-73.6945158,45.7216091],[-73.6938567,45.7218977],[-73.6930657,45.7222083],[-73.6921933,45.7224989],[-73.6911449,45.7227772],[-73.6899257,45.7230257]]}";1;Boulevard de la Pinière;2;50;false;false;true;false;false;false;510.0;0;0;0;0;0;false;84048;6129485034;-73.693015;45.72232;84050;6129485032;-73.699025;45.71678;1;17;18;9453577;Bus 427 : CITÉ DU SPORT / CÉGEP TERREBONNE;"";EXO;427 O;Gare Mascouche;Cité du Sport
476019492;"{\"type\":\"LineString\",\"coordinates\":[[-73.6977693,45.717002],[-73.6983734,45.7168363]]}";2;Boulevard de la Pinière;1;50;false;true;true;false;false;false;51.0;0;0;0;0;0;false;84048;6129485034;-73.693015;45.72232;84050;6129485032;-73.699025;45.71678;0;17;18;9453577;Bus 427 : CITÉ DU SPORT / CÉGEP TERREBONNE;"";EXO;427 O;Gare Mascouche;Cité du Sport
32824163;"{\"type\":\"LineString\",\"coordinates\":[[-73.6983734,45.7168363],[-73.6989438,45.7166544],[-73.6990404,45.7166263]]}";3;Boulevard de la Pinière;1;50;false;true;true;false;false;false;57.0;1;0;0;0;0;false;84048;6129485034;-73.693015;45.72232;84050;6129485032;-73.699025;45.71678;0;17;18;9453577;Bus 427 : CITÉ DU SPORT / CÉGEP TERREBONNE;"";EXO;427 O;Gare Mascouche;Cité du Sport
476019490;"{\"type\":\"LineString\",\"coordinates\":[[-73.6990404,45.7166263],[-73.6993325,45.7170296]]}";4;Avenue Claude-Léveillée;1;50;false;true;true;false;false;false;25.5;1;0;0;0;0;false;84048;6129485034;-73.693015;45.72232;84050;6129485032;-73.699025;45.71678;1;17;18;9453577;Bus 427 : CITÉ DU SPORT / CÉGEP TERREBONNE;"";EXO;427 O;Gare Mascouche;Cité du Sport
32824163;"{\"type\":\"LineString\",\"coordinates\":[[-73.6983734,45.7168363],[-73.6989438,45.7166544],[-73.6990404,45.7166263]]}";1;Boulevard de la Pinière;1;50;false;true;true;false;false;false;57.0;1;0;0;0;0;false;84050;6129485032;-73.699025;45.71678;84726;6129483655;-73.70191;45.72111;2;18;19;9453577;Bus 427 : CITÉ DU SPORT / CÉGEP TERREBONNE;"";EXO;427 O;Gare Mascouche;Cité du Sport
476019490;"{\"type\":\"LineString\",\"coordinates\":[[-73.6990404,45.7166263],[-73.6993325,45.7170296]]}";2;Avenue Claude-Léveillée;1;50;false;true;true;false;false;false;51.0;1;0;0;0;0;false;84050;6129485032;-73.699025;45.71678;84726;6129483655;-73.70191;45.72111;0;18;19;9453577;Bus 427 : CITÉ DU SPORT / CÉGEP TERREBONNE;"";EXO;427 O;Gare Mascouche;Cité du Sport
680913807;"{\"type\":\"LineString\",\"coordinates\":[[-73.6993325,45.7170296],[-73.7000788,45.7180411]]}";3;Avenue Claude-Léveillée;2;50;false;true;true;false;false;false;127.0;0;0;0;0;0;false;84050;6129485032;-73.699025;45.71678;84726;6129483655;-73.70191;45.72111;0;18;19;9453577;Bus 427 : CITÉ DU SPORT / CÉGEP TERREBONNE;"";EXO;427 O;Gare Mascouche;Cité du Sport
212719384;"{\"type\":\"LineString\",\"coordinates\":[[-73.7000788,45.7180411],[-73.7004546,45.7186053]]}";4;Avenue Claude-Léveillée;4;50;false;false;true;false;false;false;70.0;0;0;0;0;0;false;84050;6129485032;-73.699025;45.71678;84726;6129483655;-73.70191;45.72111;0;18;19;9453577;Bus 427 : CITÉ DU SPORT / CÉGEP TERREBONNE;"";EXO;427 O;Gare Mascouche;Cité du Sport
96333801;"{\"type\":\"LineString\",\"coordinates\":[[-73.7004546,45.7186053],[-73.7010282,45.71946]]}";5;Avenue Claude-Léveillée;4;50;false;false;true;false;false;false;105.0;0;0;0;0;0;false;84050;6129485032;-73.699025;45.71678;84726;6129483655;-73.70191;45.72111;0;18;19;9453577;Bus 427 : CITÉ DU SPORT / CÉGEP TERREBONNE;"";EXO;427 O;Gare Mascouche;Cité du Sport
680114120;"{\"type\":\"LineString\",\"coordinates\":[[-73.7010282,45.71946],[-73.7021116,45.7211435]]}";6;Avenue Claude-Léveillée;4;50;false;false;true;false;false;false;206.0;1;0;0;0;0;false;84050;6129485032;-73.699025;45.71678;84726;6129483655;-73.70191;45.72111;2;18;19;9453577;Bus 427 : CITÉ DU SPORT / CÉGEP TERREBONNE;"";EXO;427 O;Gare Mascouche;Cité du Sport
96333800;"{\"type\":\"LineString\",\"coordinates\":[[-73.7021116,45.7211435],[-73.7022285,45.7213194],[-73.7028356,45.7222323],[-73.7030454,45.7225479]]}";1;Avenue Claude-Léveillée;4;50;false;false;true;false;false;false;173.0;2;0;0;0;0;false;84726;6129483655;-73.70191;45.72111;85782;6129481005;-73.707138;45.719355;2;19;20;9453577;Bus 427 : CITÉ DU SPORT / CÉGEP TERREBONNE;"";EXO;427 O;Gare Mascouche;Cité du Sport
455504604;"{\"type\":\"LineString\",\"coordinates\":[[-73.7030454,45.7225479],[-73.7032507,45.7228554],[-73.7032873,45.7229104],[-73.7033868,45.7230502]]}";2;Avenue Claude-Léveillée;4;50;false;false;true;false;false;false;62.0;1;1;0;0;0;false;84726;6129483655;-73.70191;45.72111;85782;6129481005;-73.707138;45.719355;0;19;20;9453577;Bus 427 : CITÉ DU SPORT / CÉGEP TERREBONNE;"";EXO;427 O;Gare Mascouche;Cité du Sport
679593573;"{\"type\":\"LineString\",\"coordinates\":[[-73.7033868,45.7230502],[-73.7036485,45.7229833],[-73.7048637,45.7223462],[-73.7063726,45.7215551],[-73.7070323,45.7211507]]}";3;Boulevard des Entreprises;2;50;false;true;true;false;false;false;355.0;0;0;0;0;0;false;84726;6129483655;-73.70191;45.72111;85782;6129481005;-73.707138;45.719355;0;19;20;9453577;Bus 427 : CITÉ DU SPORT / CÉGEP TERREBONNE;"";EXO;427 O;Gare Mascouche;Cité du Sport
465063717;"{\"type\":\"LineString\",\"coordinates\":[[-73.7070323,45.7211507],[-73.7069671,45.7210877],[-73.7057559,45.7199475],[-73.7057331,45.719852],[-73.7057597,45.719791],[-73.7057863,45.719738]]}";4;"";1;50;false;false;true;false;false;false;191.0;0;0;0;0;0;false;84726;6129483655;-73.70191;45.72111;85782;6129481005;-73.707138;45.719355;0;19;20;9453577;Bus 427 : CITÉ DU SPORT / CÉGEP TERREBONNE;"";EXO;427 O;Gare Mascouche;Cité du Sport
679593572;"{\"type\":\"LineString\",\"coordinates\":[[-73.7057863,45.719738],[-73.7075197,45.7188701],[-73.7076716,45.7188489],[-73.7078008,45.718886],[-73.7080571,45.7189873]]}";5;"";1;50;false;false;true;false;false;false;212.0;0;0;0;0;0;false;84726;6129483655;-73.70191;45.72111;85782;6129481005;-73.707138;45.719355;1;19;20;9453577;Bus 427 : CITÉ DU SPORT / CÉGEP TERREBONNE;"";EXO;427 O;Gare Mascouche;Cité du Sport
