way_id;shape;index;name;nb_lanes;legal_speed;speed_zone_30;oneway;shares_bike;bike_box;bus_lane;dedicated_bus_lane;length;nb_traffic_signals;nb_crossings;nb_stops;nb_give_ways;nb_lvl_crossings;roundabout;stop_id_orig;node_id_orig;coord_x_orig;coord_y_orig;stop_id_dest;node_id_dest;coord_x_dest;coord_y_dest;nb_neighbouring_ways_bus_stop;ordre_orig;ordre_dest;id_line;line_name;colour;operator;ref;from;to
681441411;"{\"type\":\"LineString\",\"coordinates\":[[-73.4711628,45.7166175],[-73.471316,45.7167077],[-73.471399,45.7167491],[-73.47186,45.7169157],[-73.4723723,45.717084]]}";1;Boulevard Claude-David;1;50;false;true;true;false;false;false;108.0;0;1;0;0;0;false;87555;692299719;-73.472131;45.717082;87556;6127178136;-73.474488;45.7178;1;0;1;9456289;Bus 1 : Direction L'Assomption;"";EXO;1 E;boul. Claude-David / rue Notre-Dame;rue Dorval / boul. l'Ange-Gardien
759205432;"{\"type\":\"LineString\",\"coordinates\":[[-73.4723723,45.717084],[-73.4726542,45.7171812],[-73.4730272,45.7172968],[-73.4731075,45.7173169],[-73.4735194,45.7174384],[-73.4736412,45.7174401]]}";2;Boulevard Claude-David;1;50;false;true;true;false;false;false;108.0;0;0;0;0;0;false;87555;692299719;-73.472131;45.717082;87556;6127178136;-73.474488;45.7178;0;0;1;9456289;Bus 1 : Direction L'Assomption;"";EXO;1 E;boul. Claude-David / rue Notre-Dame;rue Dorval / boul. l'Ange-Gardien
24817588;"{\"type\":\"LineString\",\"coordinates\":[[-73.4798616,45.7195767],[-73.4791747,45.7193549],[-73.476853,45.7185636],[-73.4749089,45.7178808],[-73.4746426,45.7177921],[-73.4736412,45.7174401]]}";3;Boulevard Claude-David;1;50;false;false;true;false;false;false;539.0;0;0;0;0;0;false;87555;692299719;-73.472131;45.717082;87556;6127178136;-73.474488;45.7178;2;0;1;9456289;Bus 1 : Direction L'Assomption;"";EXO;1 E;boul. Claude-David / rue Notre-Dame;rue Dorval / boul. l'Ange-Gardien
24817588;"{\"type\":\"LineString\",\"coordinates\":[[-73.4798616,45.7195767],[-73.4791747,45.7193549],[-73.476853,45.7185636],[-73.4749089,45.7178808],[-73.4746426,45.7177921],[-73.4736412,45.7174401]]}";1;Boulevard Claude-David;1;50;false;false;true;false;false;false;269.5;0;0;0;0;0;false;87556;6127178136;-73.474488;45.7178;87557;6127178135;-73.479771;45.719629;1;1;2;9456289;Bus 1 : Direction L'Assomption;"";EXO;1 E;boul. Claude-David / rue Notre-Dame;rue Dorval / boul. l'Ange-Gardien
681441410;"{\"type\":\"LineString\",\"coordinates\":[[-73.4798616,45.7195767],[-73.4797911,45.7203126],[-73.4797402,45.7210868]]}";2;Boulevard de L'Assomption;1;50;false;false;true;false;false;false;84.0;0;0;0;0;0;false;87556;6127178136;-73.474488;45.7178;87557;6127178135;-73.479771;45.719629;1;1;2;9456289;Bus 1 : Direction L'Assomption;"";EXO;1 E;boul. Claude-David / rue Notre-Dame;rue Dorval / boul. l'Ange-Gardien
24817588;"{\"type\":\"LineString\",\"coordinates\":[[-73.4798616,45.7195767],[-73.4791747,45.7193549],[-73.476853,45.7185636],[-73.4749089,45.7178808],[-73.4746426,45.7177921],[-73.4736412,45.7174401]]}";1;Boulevard Claude-David;1;50;false;false;true;false;false;false;539.0;0;0;0;0;0;false;87557;6127178135;-73.479771;45.719629;87103;6127178548;-73.479678;45.721019;2;2;3;9456289;Bus 1 : Direction L'Assomption;"";EXO;1 E;boul. Claude-David / rue Notre-Dame;rue Dorval / boul. l'Ange-Gardien
681441410;"{\"type\":\"LineString\",\"coordinates\":[[-73.4798616,45.7195767],[-73.4797911,45.7203126],[-73.4797402,45.7210868]]}";2;Boulevard de L'Assomption;1;50;false;false;true;false;false;false;168.0;0;0;0;0;0;false;87557;6127178135;-73.479771;45.719629;87103;6127178548;-73.479678;45.721019;2;2;3;9456289;Bus 1 : Direction L'Assomption;"";EXO;1 E;boul. Claude-David / rue Notre-Dame;rue Dorval / boul. l'Ange-Gardien
