way_id;shape;index;name;nb_lanes;legal_speed;speed_zone_30;oneway;shares_bike;bike_box;bus_lane;dedicated_bus_lane;length;nb_traffic_signals;nb_crossings;nb_stops;nb_give_ways;nb_lvl_crossings;roundabout;stop_id_orig;node_id_orig;coord_x_orig;coord_y_orig;stop_id_dest;node_id_dest;coord_x_dest;coord_y_dest;nb_neighbouring_ways_bus_stop;ordre_orig;ordre_dest;id_line;line_name;colour;operator;ref;from;to
218176970;"{\"type\":\"LineString\",\"coordinates\":[[3.1154287,36.72134],[3.1157103,36.7214093]]}";1;"";1;50;false;false;true;false;false;false;27.0;0;0;0;0;0;false;Gare routière Bachdjerrah 2 -ETUSA-;2274503073;3.115703;36.7214326;Bachdjarah la Poste;2488787634;3.1196413;36.7220532;1;0;1;7980872;Bus: Bach Djarah -> Place des Martyrs;"";ETUSA;74;Bach Djarah;Place des Martyrs
202171694;"{\"type\":\"LineString\",\"coordinates\":[[3.1154287,36.72134],[3.115375,36.7212825],[3.1153482,36.7212374],[3.1152641,36.7211199]]}";2;"";1;50;false;false;true;false;false;false;29.0;0;0;0;0;0;false;Gare routière Bachdjerrah 2 -ETUSA-;2274503073;3.115703;36.7214326;Bachdjarah la Poste;2488787634;3.1196413;36.7220532;0;0;1;7980872;Bus: Bach Djarah -> Place des Martyrs;"";ETUSA;74;Bach Djarah;Place des Martyrs
558562525;"{\"type\":\"LineString\",\"coordinates\":[[3.1152641,36.7211199],[3.1154165,36.7212],[3.1155534,36.7212555],[3.1157826,36.7213202],[3.1161248,36.7213726]]}";3;Bachdjerah Boulevard;1;50;false;false;true;false;false;false;84.0;0;0;0;0;0;false;Gare routière Bachdjerrah 2 -ETUSA-;2274503073;3.115703;36.7214326;Bachdjarah la Poste;2488787634;3.1196413;36.7220532;0;0;1;7980872;Bus: Bach Djarah -> Place des Martyrs;"";ETUSA;74;Bach Djarah;Place des Martyrs
218177047;"{\"type\":\"LineString\",\"coordinates\":[[3.1161248,36.7213726],[3.1163909,36.7214073],[3.1169682,36.7214825],[3.1170848,36.7214936],[3.1172289,36.7215165],[3.1176687,36.7215909],[3.1180923,36.7216808],[3.1184544,36.7217517],[3.1188319,36.7218429],[3.1192667,36.7219735],[3.1196361,36.7220665],[3.1198161,36.7221119],[3.1204253,36.7223092]]}";4;Bachdjerah Boulevard;1;50;false;false;true;false;false;false;405.0;0;0;0;0;0;false;Gare routière Bachdjerrah 2 -ETUSA-;2274503073;3.115703;36.7214326;Bachdjarah la Poste;2488787634;3.1196413;36.7220532;2;0;1;7980872;Bus: Bach Djarah -> Place des Martyrs;"";ETUSA;74;Bach Djarah;Place des Martyrs
218177047;"{\"type\":\"LineString\",\"coordinates\":[[3.1161248,36.7213726],[3.1163909,36.7214073],[3.1169682,36.7214825],[3.1170848,36.7214936],[3.1172289,36.7215165],[3.1176687,36.7215909],[3.1180923,36.7216808],[3.1184544,36.7217517],[3.1188319,36.7218429],[3.1192667,36.7219735],[3.1196361,36.7220665],[3.1198161,36.7221119],[3.1204253,36.7223092]]}";1;Bachdjerah Boulevard;1;50;false;false;true;false;false;false;202.5;0;0;0;0;0;false;Bachdjarah la Poste;2488787634;3.1196413;36.7220532;Gare routière Bachdjerrah 2 -ETUSA-;5387463220;3.123765;36.722782;1;1;2;7980872;Bus: Bach Djarah -> Place des Martyrs;"";ETUSA;74;Bach Djarah;Place des Martyrs
26323944;"{\"type\":\"LineString\",\"coordinates\":[[3.1204253,36.7223092],[3.1204433,36.7223122],[3.1208348,36.7223787],[3.1209226,36.7223889],[3.1210516,36.7224226]]}";2;"";1;50;false;true;true;false;false;false;59.0;0;1;0;0;0;false;Bachdjarah la Poste;2488787634;3.1196413;36.7220532;Gare routière Bachdjerrah 2 -ETUSA-;5387463220;3.123765;36.722782;0;1;2;7980872;Bus: Bach Djarah -> Place des Martyrs;"";ETUSA;74;Bach Djarah;Place des Martyrs
39408709;"{\"type\":\"LineString\",\"coordinates\":[[3.1210516,36.7224226],[3.1210763,36.7224285],[3.121097,36.7224408],[3.1211112,36.722458],[3.1211171,36.7224781],[3.121115,36.7224963],[3.1211044,36.7225151],[3.1210865,36.7225299],[3.1210632,36.7225389],[3.1210376,36.722541],[3.1210226,36.7225389],[3.1209995,36.7225298],[3.1209815,36.722515],[3.120971,36.7224961],[3.1209688,36.7224823],[3.1209731,36.7224619],[3.1209857,36.7224439],[3.1210053,36.7224305],[3.1210295,36.7224232],[3.1210516,36.7224226]]}";3;"";1;50;false;false;true;false;false;false;42.0;0;0;0;0;0;true;Bachdjarah la Poste;2488787634;3.1196413;36.7220532;Gare routière Bachdjerrah 2 -ETUSA-;5387463220;3.123765;36.722782;0;1;2;7980872;Bus: Bach Djarah -> Place des Martyrs;"";ETUSA;74;Bach Djarah;Place des Martyrs
306008052;"{\"type\":\"LineString\",\"coordinates\":[[3.1210763,36.7224285],[3.1220133,36.7225598],[3.1229001,36.7226525],[3.123146,36.7226916],[3.1235398,36.7227859],[3.1237415,36.7228392],[3.1247947,36.7231175],[3.1250952,36.723184],[3.1254171,36.7232238],[3.1256534,36.7232414],[3.1258191,36.7232363],[3.1259416,36.7232325],[3.1263339,36.7231811],[3.1266149,36.7231171],[3.1268879,36.723005],[3.1272322,36.7228804]]}";4;شارع باش جراح;1;50;false;true;true;false;false;false;288.0;0;1;0;0;0;false;Bachdjarah la Poste;2488787634;3.1196413;36.7220532;Gare routière Bachdjerrah 2 -ETUSA-;5387463220;3.123765;36.722782;1;1;2;7980872;Bus: Bach Djarah -> Place des Martyrs;"";ETUSA;74;Bach Djarah;Place des Martyrs
306008052;"{\"type\":\"LineString\",\"coordinates\":[[3.1210763,36.7224285],[3.1220133,36.7225598],[3.1229001,36.7226525],[3.123146,36.7226916],[3.1235398,36.7227859],[3.1237415,36.7228392],[3.1247947,36.7231175],[3.1250952,36.723184],[3.1254171,36.7232238],[3.1256534,36.7232414],[3.1258191,36.7232363],[3.1259416,36.7232325],[3.1263339,36.7231811],[3.1266149,36.7231171],[3.1268879,36.723005],[3.1272322,36.7228804]]}";1;شارع باش جراح;1;50;false;true;true;false;false;false;288.0;0;1;0;0;0;false;Djenan Mabrouk;2488750882;3.1258171;36.7231938;Diar Djemâa;5387463923;3.1285916;36.7296205;1;3;4;7980872;Bus: Bach Djarah -> Place des Martyrs;"";ETUSA;74;Bach Djarah;Place des Martyrs
26323940;"{\"type\":\"LineString\",\"coordinates\":[[3.1272322,36.7228804],[3.127609,36.7226905],[3.1279114,36.7225959],[3.1282012,36.7225328],[3.1284585,36.7225068],[3.128649,36.7225134],[3.1289563,36.7225431],[3.1291741,36.7225731],[3.1295276,36.7226146],[3.1297449,36.7226607],[3.129958,36.722729],[3.1301348,36.7228215],[3.1301754,36.7228427],[3.1304371,36.7230014],[3.1305844,36.7231246],[3.1308915,36.7233991],[3.131084,36.7235028],[3.1312469,36.7236472],[3.1313483,36.7237587],[3.1314096,36.723914],[3.1314266,36.7241209],[3.1313864,36.724283],[3.1312834,36.7244344],[3.1310774,36.7246133],[3.1308089,36.7247273],[3.1306549,36.7247788],[3.1304693,36.7248481],[3.1303478,36.7249641],[3.1303564,36.7251636],[3.1304292,36.7253336],[3.130702,36.7257392]]}";2;Bachdjerah Boulevard;1;50;false;false;true;false;false;false;711.0;0;0;0;0;0;false;Djenan Mabrouk;2488750882;3.1258171;36.7231938;Diar Djemâa;5387463923;3.1285916;36.7296205;0;3;4;7980872;Bus: Bach Djarah -> Place des Martyrs;"";ETUSA;74;Bach Djarah;Place des Martyrs
136217365;"{\"type\":\"LineString\",\"coordinates\":[[3.1311428,36.7258882],[3.130702,36.7257392]]}";3;"";2;50;false;false;true;false;false;false;44.0;0;0;0;0;0;false;Djenan Mabrouk;2488750882;3.1258171;36.7231938;Diar Djemâa;5387463923;3.1285916;36.7296205;0;3;4;7980872;Bus: Bach Djarah -> Place des Martyrs;"";ETUSA;74;Bach Djarah;Place des Martyrs
26323438;"{\"type\":\"LineString\",\"coordinates\":[[3.1282999,36.7297692],[3.1284473,36.7296251],[3.1285104,36.7295654],[3.1285907,36.7294894],[3.1290087,36.7290531],[3.1293305,36.7286941],[3.1296016,36.7283888],[3.1298831,36.7280782],[3.1300413,36.7278525],[3.1301727,36.727659],[3.1305161,36.7270785],[3.1311428,36.7258882]]}";4;Rue Hassen Bey Ali;2;50;false;false;true;false;false;false;255.0;0;0;0;0;0;false;Djenan Mabrouk;2488750882;3.1258171;36.7231938;Diar Djemâa;5387463923;3.1285916;36.7296205;1;3;4;7980872;Bus: Bach Djarah -> Place des Martyrs;"";ETUSA;74;Bach Djarah;Place des Martyrs
26323438;"{\"type\":\"LineString\",\"coordinates\":[[3.1282999,36.7297692],[3.1284473,36.7296251],[3.1285104,36.7295654],[3.1285907,36.7294894],[3.1290087,36.7290531],[3.1293305,36.7286941],[3.1296016,36.7283888],[3.1298831,36.7280782],[3.1300413,36.7278525],[3.1301727,36.727659],[3.1305161,36.7270785],[3.1311428,36.7258882]]}";1;Rue Hassen Bey Ali;2;50;false;false;true;false;false;false;255.0;0;0;0;0;0;false;Diar Djemâa;5387463923;3.1285916;36.7296205;Bel Air - La Glacière;3009232528;3.124167;36.7335103;1;4;5;7980872;Bus: Bach Djarah -> Place des Martyrs;"";ETUSA;74;Bach Djarah;Place des Martyrs
26323495;"{\"type\":\"LineString\",\"coordinates\":[[3.1282999,36.7297692],[3.1280727,36.7301204],[3.1279626,36.7302451],[3.1277937,36.7303977],[3.1276756,36.7304902],[3.1276087,36.7305411],[3.1275688,36.7305921],[3.1275551,36.7306105],[3.1275415,36.7306578],[3.127563,36.7306944],[3.1276383,36.7307474]]}";2;"";1;50;false;true;true;false;false;false;137.0;0;0;0;0;0;false;Diar Djemâa;5387463923;3.1285916;36.7296205;Bel Air - La Glacière;3009232528;3.124167;36.7335103;0;4;5;7980872;Bus: Bach Djarah -> Place des Martyrs;"";ETUSA;74;Bach Djarah;Place des Martyrs
133683191;"{\"type\":\"LineString\",\"coordinates\":[[3.1276383,36.7307474],[3.1291444,36.7306117]]}";3;Avenue Bekri Bouguerra;2;60;false;true;true;false;false;false;138.0;0;0;0;0;0;false;Diar Djemâa;5387463923;3.1285916;36.7296205;Bel Air - La Glacière;3009232528;3.124167;36.7335103;0;4;5;7980872;Bus: Bach Djarah -> Place des Martyrs;"";ETUSA;74;Bach Djarah;Place des Martyrs
215948836;"{\"type\":\"LineString\",\"coordinates\":[[3.1291444,36.7306117],[3.1292835,36.7305964]]}";4;Avenue Bekri Bouguerra;2;60;false;true;true;false;false;false;13.0;0;0;0;0;0;false;Diar Djemâa;5387463923;3.1285916;36.7296205;Bel Air - La Glacière;3009232528;3.124167;36.7335103;0;4;5;7980872;Bus: Bach Djarah -> Place des Martyrs;"";ETUSA;74;Bach Djarah;Place des Martyrs
60903029;"{\"type\":\"LineString\",\"coordinates\":[[3.1292835,36.7305964],[3.1293695,36.7305481],[3.1294688,36.7305085],[3.1297001,36.7304667],[3.1299378,36.7304302],[3.130256,36.7303808],[3.1305917,36.7303233]]}";5;"";2;30;false;true;true;false;false;false;124.0;0;0;0;0;0;false;Diar Djemâa;5387463923;3.1285916;36.7296205;Bel Air - La Glacière;3009232528;3.124167;36.7335103;0;4;5;7980872;Bus: Bach Djarah -> Place des Martyrs;"";ETUSA;74;Bach Djarah;Place des Martyrs
297214772;"{\"type\":\"LineString\",\"coordinates\":[[3.1304837,36.7308106],[3.1304772,36.7307346],[3.1304846,36.7306734],[3.1305081,36.7305723],[3.1305228,36.7305245],[3.1305496,36.7304541],[3.1305798,36.7303686],[3.1305917,36.7303233]]}";6;Rue Khettab Benyoucef;2;40;false;true;true;false;false;false;57.0;0;0;0;0;0;false;Diar Djemâa;5387463923;3.1285916;36.7296205;Bel Air - La Glacière;3009232528;3.124167;36.7335103;0;4;5;7980872;Bus: Bach Djarah -> Place des Martyrs;"";ETUSA;74;Bach Djarah;Place des Martyrs
297214767;"{\"type\":\"LineString\",\"coordinates\":[[3.1305081,36.7305723],[3.1302584,36.7306192],[3.1299314,36.7307028],[3.1296427,36.7307737],[3.1292718,36.7308048]]}";7;"";2;30;false;true;true;false;false;false;116.0;0;0;0;0;0;false;Diar Djemâa;5387463923;3.1285916;36.7296205;Bel Air - La Glacière;3009232528;3.124167;36.7335103;0;4;5;7980872;Bus: Bach Djarah -> Place des Martyrs;"";ETUSA;74;Bach Djarah;Place des Martyrs
558590284;"{\"type\":\"LineString\",\"coordinates\":[[3.1292718,36.7308048],[3.1291636,36.7308241]]}";8;Avenue Bekri Bouguerra;2;60;false;true;true;false;false;false;11.0;0;0;0;0;0;false;Diar Djemâa;5387463923;3.1285916;36.7296205;Bel Air - La Glacière;3009232528;3.124167;36.7335103;0;4;5;7980872;Bus: Bach Djarah -> Place des Martyrs;"";ETUSA;74;Bach Djarah;Place des Martyrs
215948821;"{\"type\":\"LineString\",\"coordinates\":[[3.1291636,36.7308241],[3.129046,36.730841],[3.1288945,36.7308571],[3.1275952,36.7309674],[3.1273915,36.7309996],[3.1272411,36.7310448],[3.1270963,36.7311157],[3.1269382,36.7312425]]}";9;Avenue Bekri Bouguerra;2;60;false;true;true;false;false;false;212.0;0;0;0;0;0;false;Diar Djemâa;5387463923;3.1285916;36.7296205;Bel Air - La Glacière;3009232528;3.124167;36.7335103;0;4;5;7980872;Bus: Bach Djarah -> Place des Martyrs;"";ETUSA;74;Bach Djarah;Place des Martyrs
231921528;"{\"type\":\"LineString\",\"coordinates\":[[3.1269382,36.7312425],[3.1263588,36.7316703],[3.1254253,36.7324227],[3.1252043,36.7325955],[3.1247883,36.7329209],[3.124205,36.7333771],[3.1241015,36.733453],[3.1239822,36.7335405],[3.1237488,36.7337134],[3.1232296,36.7340185],[3.1227601,36.7343057],[3.1224781,36.7344661],[3.1222215,36.7345989],[3.1220541,36.7346794],[3.121901,36.7347443],[3.1212861,36.7350007],[3.1205234,36.7353277],[3.1200646,36.7355111],[3.119427,36.7357659],[3.1188517,36.7359959],[3.1172921,36.7365922],[3.116984,36.7367113],[3.1150913,36.7377233],[3.1139335,36.7384965],[3.1129731,36.7391445],[3.1124702,36.7394836],[3.1120588,36.7397344],[3.1117444,36.7399146],[3.1114313,36.7400806],[3.1111444,36.7402166],[3.1100059,36.740728],[3.1069762,36.7420755],[3.1064461,36.7423015],[3.1058894,36.7425472]]}";10;Avenue de l'ALN;2;60;false;true;true;false;false;false;1152.5;0;0;0;0;0;false;Diar Djemâa;5387463923;3.1285916;36.7296205;Bel Air - La Glacière;3009232528;3.124167;36.7335103;1;4;5;7980872;Bus: Bach Djarah -> Place des Martyrs;"";ETUSA;74;Bach Djarah;Place des Martyrs
567143503;"{\"type\":\"LineString\",\"coordinates\":[[3.1058894,36.7425472],[3.1037495,36.7434918],[3.1036329,36.7435433]]}";1;Avenue de l'ALN;2;60;false;true;true;false;false;false;233.0;0;0;0;0;0;false;CAROBIER GARE ROUTIERE;3009232531;3.1059483;36.7426329;Les Ateliers;3009229269;3.0663331;36.7565028;2;7;8;7980872;Bus: Bach Djarah -> Place des Martyrs;"";ETUSA;74;Bach Djarah;Place des Martyrs
25977990;"{\"type\":\"LineString\",\"coordinates\":[[3.1036329,36.7435433],[3.1029919,36.7438245]]}";2;Avenue de l'ALN;2;40;false;true;true;false;false;false;67.0;0;0;0;0;0;false;CAROBIER GARE ROUTIERE;3009232531;3.1059483;36.7426329;Les Ateliers;3009229269;3.0663331;36.7565028;0;7;8;7980872;Bus: Bach Djarah -> Place des Martyrs;"";ETUSA;74;Bach Djarah;Place des Martyrs
408839287;"{\"type\":\"LineString\",\"coordinates\":[[3.1029919,36.7438245],[3.1026575,36.743994],[3.1024284,36.7441634],[3.102225,36.7443429],[3.1020835,36.7445254],[3.1019829,36.7447108]]}";3;Avenue de l'ALN;2;40;false;true;true;false;false;false;139.0;0;0;0;0;0;false;CAROBIER GARE ROUTIERE;3009232531;3.1059483;36.7426329;Les Ateliers;3009229269;3.0663331;36.7565028;0;7;8;7980872;Bus: Bach Djarah -> Place des Martyrs;"";ETUSA;74;Bach Djarah;Place des Martyrs
25978010;"{\"type\":\"LineString\",\"coordinates\":[[3.1019829,36.7447108],[3.1018162,36.7450694],[3.1016598,36.7453585],[3.1015201,36.7455104],[3.1013873,36.7456169],[3.1011996,36.7457275],[3.1010359,36.7457963],[3.1008241,36.7458597],[3.1005773,36.7459016],[3.0992299,36.7460241]]}";4;"";2;40;false;true;true;false;false;false;321.0;0;0;0;0;0;false;CAROBIER GARE ROUTIERE;3009232531;3.1059483;36.7426329;Les Ateliers;3009229269;3.0663331;36.7565028;0;7;8;7980872;Bus: Bach Djarah -> Place des Martyrs;"";ETUSA;74;Bach Djarah;Place des Martyrs
309061212;"{\"type\":\"LineString\",\"coordinates\":[[3.0992299,36.7460241],[3.0983243,36.7461617],[3.0965701,36.7464021]]}";5;Rocade Nord;1;50;false;true;true;false;false;false;245.0;0;0;0;0;0;false;CAROBIER GARE ROUTIERE;3009232531;3.1059483;36.7426329;Les Ateliers;3009229269;3.0663331;36.7565028;0;7;8;7980872;Bus: Bach Djarah -> Place des Martyrs;"";ETUSA;74;Bach Djarah;Place des Martyrs
404548599;"{\"type\":\"LineString\",\"coordinates\":[[3.0965701,36.7464021],[3.0956103,36.7465462],[3.0946749,36.7467065]]}";6;Rocade Nord;4;80;false;true;true;false;false;false;175.0;0;0;0;0;0;false;CAROBIER GARE ROUTIERE;3009232531;3.1059483;36.7426329;Les Ateliers;3009229269;3.0663331;36.7565028;0;7;8;7980872;Bus: Bach Djarah -> Place des Martyrs;"";ETUSA;74;Bach Djarah;Place des Martyrs
404275989;"{\"type\":\"LineString\",\"coordinates\":[[3.0946749,36.7467065],[3.0936733,36.7468654],[3.0926408,36.7470557],[3.089739,36.7476912],[3.0882046,36.748068],[3.0853506,36.7488524],[3.083872,36.7493317]]}";7;Rocade Nord;3;80;false;true;true;false;false;false;1023.0;0;0;0;0;0;false;CAROBIER GARE ROUTIERE;3009232531;3.1059483;36.7426329;Les Ateliers;3009229269;3.0663331;36.7565028;0;7;8;7980872;Bus: Bach Djarah -> Place des Martyrs;"";ETUSA;74;Bach Djarah;Place des Martyrs
309061204;"{\"type\":\"LineString\",\"coordinates\":[[3.083872,36.7493317],[3.0823963,36.7497994],[3.081749,36.750013],[3.0799518,36.7506262],[3.0792301,36.7508787],[3.0773481,36.7514937],[3.0765555,36.751751]]}";8;Avenue de l'ALN;3;80;false;true;true;false;false;false;716.0;0;0;0;0;0;false;CAROBIER GARE ROUTIERE;3009232531;3.1059483;36.7426329;Les Ateliers;3009229269;3.0663331;36.7565028;0;7;8;7980872;Bus: Bach Djarah -> Place des Martyrs;"";ETUSA;74;Bach Djarah;Place des Martyrs
374417228;"{\"type\":\"LineString\",\"coordinates\":[[3.0765555,36.751751],[3.0757998,36.752004],[3.0757249,36.7520358],[3.0741613,36.752674],[3.0706242,36.7542951],[3.0689992,36.7550347],[3.0673927,36.7557241],[3.0669826,36.7559401],[3.0666406,36.7561754],[3.0662768,36.7564333],[3.0661018,36.7565631]]}";9;Avenue de l'ALN;3;80;false;true;true;false;false;false;1093.0;0;0;0;0;0;false;CAROBIER GARE ROUTIERE;3009232531;3.1059483;36.7426329;Les Ateliers;3009229269;3.0663331;36.7565028;2;7;8;7980872;Bus: Bach Djarah -> Place des Martyrs;"";ETUSA;74;Bach Djarah;Place des Martyrs
374417228;"{\"type\":\"LineString\",\"coordinates\":[[3.0765555,36.751751],[3.0757998,36.752004],[3.0757249,36.7520358],[3.0741613,36.752674],[3.0706242,36.7542951],[3.0689992,36.7550347],[3.0673927,36.7557241],[3.0669826,36.7559401],[3.0666406,36.7561754],[3.0662768,36.7564333],[3.0661018,36.7565631]]}";1;Avenue de l'ALN;3;80;false;true;true;false;false;false;546.5;0;0;0;0;0;false;Les Ateliers;3009229269;3.0663331;36.7565028;STATION 2 MAI;5387463211;3.0588032;36.7642369;1;8;9;7980872;Bus: Bach Djarah -> Place des Martyrs;"";ETUSA;74;Bach Djarah;Place des Martyrs
404285761;"{\"type\":\"LineString\",\"coordinates\":[[3.0661018,36.7565631],[3.0652826,36.7572434],[3.0643195,36.7580925],[3.0639323,36.7584129]]}";2;Avenue de l'ALN;3;80;false;true;true;false;false;false;286.0;0;0;0;0;0;false;Les Ateliers;3009229269;3.0663331;36.7565028;STATION 2 MAI;5387463211;3.0588032;36.7642369;0;8;9;7980872;Bus: Bach Djarah -> Place des Martyrs;"";ETUSA;74;Bach Djarah;Place des Martyrs
404285760;"{\"type\":\"LineString\",\"coordinates\":[[3.0639323,36.7584129],[3.0637929,36.7585338],[3.0632788,36.7589898]]}";3;Avenue de l'ALN;3;80;false;true;true;false;false;false;88.0;0;0;0;0;0;false;Les Ateliers;3009229269;3.0663331;36.7565028;STATION 2 MAI;5387463211;3.0588032;36.7642369;0;8;9;7980872;Bus: Bach Djarah -> Place des Martyrs;"";ETUSA;74;Bach Djarah;Place des Martyrs
404285762;"{\"type\":\"LineString\",\"coordinates\":[[3.0632788,36.7589898],[3.0624942,36.7596478],[3.0614294,36.7605723],[3.060957,36.7610016],[3.0603555,36.7615156]]}";4;Avenue de l'ALN;3;80;false;true;true;false;false;false;388.0;0;0;0;0;0;false;Les Ateliers;3009229269;3.0663331;36.7565028;STATION 2 MAI;5387463211;3.0588032;36.7642369;0;8;9;7980872;Bus: Bach Djarah -> Place des Martyrs;"";ETUSA;74;Bach Djarah;Place des Martyrs
25976836;"{\"type\":\"LineString\",\"coordinates\":[[3.0603555,36.7615156],[3.059687,36.7621332],[3.0594564,36.7623825],[3.0593008,36.7625802],[3.0591766,36.7627802],[3.0590524,36.7630712],[3.0588416,36.7636658],[3.0588206,36.7637558],[3.0587117,36.7642232],[3.0587007,36.7642705],[3.0586894,36.7643902]]}";5;Rue Abroune Ahcène;3;50;false;true;true;false;false;false;183.0;0;0;0;0;0;false;Les Ateliers;3009229269;3.0663331;36.7565028;STATION 2 MAI;5387463211;3.0588032;36.7642369;1;8;9;7980872;Bus: Bach Djarah -> Place des Martyrs;"";ETUSA;74;Bach Djarah;Place des Martyrs
25976836;"{\"type\":\"LineString\",\"coordinates\":[[3.0603555,36.7615156],[3.059687,36.7621332],[3.0594564,36.7623825],[3.0593008,36.7625802],[3.0591766,36.7627802],[3.0590524,36.7630712],[3.0588416,36.7636658],[3.0588206,36.7637558],[3.0587117,36.7642232],[3.0587007,36.7642705],[3.0586894,36.7643902]]}";1;Rue Abroune Ahcène;3;50;false;true;true;false;false;false;183.0;0;0;0;0;0;false;STATION 2 MAI;5387463211;3.0588032;36.7642369;Grand Poste;5387463209;3.0607894;36.7727121;1;9;10;7980872;Bus: Bach Djarah -> Place des Martyrs;"";ETUSA;74;Bach Djarah;Place des Martyrs
559914527;"{\"type\":\"LineString\",\"coordinates\":[[3.0586894,36.7643902],[3.0585668,36.7650434],[3.0585373,36.7651595],[3.0585453,36.7652884],[3.058693,36.7658134]]}";2;Rue Abroune Ahcène;3;50;false;true;true;false;false;false;163.0;0;0;0;0;0;false;STATION 2 MAI;5387463211;3.0588032;36.7642369;Grand Poste;5387463209;3.0607894;36.7727121;0;9;10;7980872;Bus: Bach Djarah -> Place des Martyrs;"";ETUSA;74;Bach Djarah;Place des Martyrs
564986163;"{\"type\":\"LineString\",\"coordinates\":[[3.058693,36.7658134],[3.0587962,36.7661438],[3.0588101,36.7661841],[3.0588911,36.766417]]}";3;Rue Abroune Ahcène;3;50;false;true;true;false;false;false;71.0;1;1;0;0;0;false;STATION 2 MAI;5387463211;3.0588032;36.7642369;Grand Poste;5387463209;3.0607894;36.7727121;0;9;10;7980872;Bus: Bach Djarah -> Place des Martyrs;"";ETUSA;74;Bach Djarah;Place des Martyrs
527848023;"{\"type\":\"LineString\",\"coordinates\":[[3.0588911,36.766417],[3.0590359,36.7668013]]}";4;Rue de Bauvais;3;50;false;true;true;false;false;false;46.0;0;0;0;0;0;false;STATION 2 MAI;5387463211;3.0588032;36.7642369;Grand Poste;5387463209;3.0607894;36.7727121;0;9;10;7980872;Bus: Bach Djarah -> Place des Martyrs;"";ETUSA;74;Bach Djarah;Place des Martyrs
295263725;"{\"type\":\"LineString\",\"coordinates\":[[3.0590359,36.7668013],[3.0591626,36.7672129],[3.059647,36.7686109],[3.0596605,36.7686533],[3.0598562,36.7692659],[3.05998,36.7696521]]}";5;Rue de Bauvais;3;50;false;true;true;false;false;false;332.0;0;0;0;0;0;false;STATION 2 MAI;5387463211;3.0588032;36.7642369;Grand Poste;5387463209;3.0607894;36.7727121;0;9;10;7980872;Bus: Bach Djarah -> Place des Martyrs;"";ETUSA;74;Bach Djarah;Place des Martyrs
51039685;"{\"type\":\"LineString\",\"coordinates\":[[3.05998,36.7696521],[3.0599959,36.7698464],[3.060083,36.7701333]]}";6;Rampe Tafourah;1;40;false;true;true;false;false;false;56.0;0;0;0;0;0;false;STATION 2 MAI;5387463211;3.0588032;36.7642369;Grand Poste;5387463209;3.0607894;36.7727121;0;9;10;7980872;Bus: Bach Djarah -> Place des Martyrs;"";ETUSA;74;Bach Djarah;Place des Martyrs
213662346;"{\"type\":\"LineString\",\"coordinates\":[[3.060083,36.7701333],[3.0601188,36.7702188],[3.0601697,36.770296],[3.0602542,36.7703955]]}";7;Rampe Tafourah;1;40;false;true;true;false;false;false;34.0;0;0;0;0;0;false;STATION 2 MAI;5387463211;3.0588032;36.7642369;Grand Poste;5387463209;3.0607894;36.7727121;0;9;10;7980872;Bus: Bach Djarah -> Place des Martyrs;"";ETUSA;74;Bach Djarah;Place des Martyrs
213662347;"{\"type\":\"LineString\",\"coordinates\":[[3.0605798,36.7706389],[3.0602542,36.7703955]]}";8;Rampe Tafourah;2;40;false;false;true;false;false;false;41.0;0;0;0;0;0;false;STATION 2 MAI;5387463211;3.0588032;36.7642369;Grand Poste;5387463209;3.0607894;36.7727121;0;9;10;7980872;Bus: Bach Djarah -> Place des Martyrs;"";ETUSA;74;Bach Djarah;Place des Martyrs
468802308;"{\"type\":\"LineString\",\"coordinates\":[[3.0605798,36.7706389],[3.0609529,36.7709268],[3.0610263,36.7709793],[3.0612462,36.7711641]]}";9;Rampe Tafourah;2;40;false;true;true;false;false;false;85.0;0;0;0;0;0;false;STATION 2 MAI;5387463211;3.0588032;36.7642369;Grand Poste;5387463209;3.0607894;36.7727121;0;9;10;7980872;Bus: Bach Djarah -> Place des Martyrs;"";ETUSA;74;Bach Djarah;Place des Martyrs
26019878;"{\"type\":\"LineString\",\"coordinates\":[[3.0612462,36.7711641],[3.0612086,36.7712307],[3.0611496,36.7712887],[3.0609886,36.7714333],[3.060801,36.7715874],[3.0601539,36.7720742],[3.0600445,36.7721739]]}";10;Rampe Tafourah;2;40;false;true;true;false;false;false;158.0;2;0;0;0;0;false;STATION 2 MAI;5387463211;3.0588032;36.7642369;Grand Poste;5387463209;3.0607894;36.7727121;0;9;10;7980872;Bus: Bach Djarah -> Place des Martyrs;"";ETUSA;74;Bach Djarah;Place des Martyrs
26019107;"{\"type\":\"LineString\",\"coordinates\":[[3.0600445,36.7721739],[3.0602137,36.7723021],[3.0603703,36.7724275],[3.060522,36.7725542],[3.060732,36.7727304],[3.0607489,36.7727441],[3.0611057,36.773034],[3.0611267,36.7730801],[3.0611306,36.7731257],[3.0610489,36.7734352],[3.060954,36.7738274],[3.0608234,36.7743553],[3.0608167,36.7743898],[3.0607226,36.7747652],[3.0606636,36.7750943],[3.0606387,36.7752116],[3.0605201,36.7757393],[3.0602974,36.7766778],[3.0602711,36.7767619],[3.0602426,36.7769223],[3.0601901,36.7771919]]}";11;Boulevard Zighoud Youcef;3;50;false;true;true;false;false;false;306.0;1;5;0;0;0;false;STATION 2 MAI;5387463211;3.0588032;36.7642369;Grand Poste;5387463209;3.0607894;36.7727121;1;9;10;7980872;Bus: Bach Djarah -> Place des Martyrs;"";ETUSA;74;Bach Djarah;Place des Martyrs
26019107;"{\"type\":\"LineString\",\"coordinates\":[[3.0600445,36.7721739],[3.0602137,36.7723021],[3.0603703,36.7724275],[3.060522,36.7725542],[3.060732,36.7727304],[3.0607489,36.7727441],[3.0611057,36.773034],[3.0611267,36.7730801],[3.0611306,36.7731257],[3.0610489,36.7734352],[3.060954,36.7738274],[3.0608234,36.7743553],[3.0608167,36.7743898],[3.0607226,36.7747652],[3.0606636,36.7750943],[3.0606387,36.7752116],[3.0605201,36.7757393],[3.0602974,36.7766778],[3.0602711,36.7767619],[3.0602426,36.7769223],[3.0601901,36.7771919]]}";1;Boulevard Zighoud Youcef;3;50;false;true;true;false;false;false;306.0;1;5;0;0;0;false;Grand Poste;5387463209;3.0607894;36.7727121;Hôtel Es-Safir;5387463207;3.0603997;36.7776762;1;10;11;7980872;Bus: Bach Djarah -> Place des Martyrs;"";ETUSA;74;Bach Djarah;Place des Martyrs
26026661;"{\"type\":\"LineString\",\"coordinates\":[[3.0601901,36.7771919],[3.0602273,36.7773808],[3.0602984,36.7775468],[3.0603655,36.7776856],[3.0604196,36.7778015],[3.0605568,36.7783004]]}";2;Boulevard Zighoud Youcef;1;40;false;true;true;false;false;false;65.0;0;1;0;0;0;false;Grand Poste;5387463209;3.0607894;36.7727121;Hôtel Es-Safir;5387463207;3.0603997;36.7776762;1;10;11;7980872;Bus: Bach Djarah -> Place des Martyrs;"";ETUSA;74;Bach Djarah;Place des Martyrs
26026661;"{\"type\":\"LineString\",\"coordinates\":[[3.0601901,36.7771919],[3.0602273,36.7773808],[3.0602984,36.7775468],[3.0603655,36.7776856],[3.0604196,36.7778015],[3.0605568,36.7783004]]}";1;Boulevard Zighoud Youcef;1;40;false;true;true;false;false;false;65.0;0;1;0;0;0;false;Hôtel Es-Safir;5387463207;3.0603997;36.7776762;Port Saïd;5387463206;3.0618677;36.7809049;1;11;12;7980872;Bus: Bach Djarah -> Place des Martyrs;"";ETUSA;74;Bach Djarah;Place des Martyrs
25966398;"{\"type\":\"LineString\",\"coordinates\":[[3.0617721,36.7808246],[3.0615728,36.7803533],[3.0613987,36.7800026],[3.0612302,36.7796748],[3.061048,36.7793061],[3.0608123,36.778838],[3.0607876,36.7787911],[3.060634,36.7784874],[3.0605568,36.7783004]]}";2;Boulevard Zighoud Youcef;4;50;false;false;true;false;false;false;305.0;0;1;0;0;0;false;Hôtel Es-Safir;5387463207;3.0603997;36.7776762;Port Saïd;5387463206;3.0618677;36.7809049;0;11;12;7980872;Bus: Bach Djarah -> Place des Martyrs;"";ETUSA;74;Bach Djarah;Place des Martyrs
26002687;"{\"type\":\"LineString\",\"coordinates\":[[3.0628288,36.783893],[3.0627773,36.7837559],[3.0626672,36.7834312],[3.0626167,36.7832855],[3.062505,36.7829636],[3.0624043,36.7826224],[3.0622961,36.7823004],[3.0621964,36.7820155],[3.0620864,36.7817083],[3.0619188,36.7811791],[3.0618348,36.7809841],[3.0618095,36.7809196],[3.0617721,36.7808246]]}";3;Boulevard Ernesto Che Guevara;4;50;false;false;true;false;false;false;179.0;0;1;0;0;0;false;Hôtel Es-Safir;5387463207;3.0603997;36.7776762;Port Saïd;5387463206;3.0618677;36.7809049;1;11;12;7980872;Bus: Bach Djarah -> Place des Martyrs;"";ETUSA;74;Bach Djarah;Place des Martyrs
26002687;"{\"type\":\"LineString\",\"coordinates\":[[3.0628288,36.783893],[3.0627773,36.7837559],[3.0626672,36.7834312],[3.0626167,36.7832855],[3.062505,36.7829636],[3.0624043,36.7826224],[3.0622961,36.7823004],[3.0621964,36.7820155],[3.0620864,36.7817083],[3.0619188,36.7811791],[3.0618348,36.7809841],[3.0618095,36.7809196],[3.0617721,36.7808246]]}";1;Boulevard Ernesto Che Guevara;4;50;false;false;true;false;false;false;358.0;0;1;0;0;0;false;Port Saïd;5387463206;3.0618677;36.7809049;Place des Martyrs;2740633594;3.0635279;36.785431;2;12;13;7980872;Bus: Bach Djarah -> Place des Martyrs;"";ETUSA;74;Bach Djarah;Place des Martyrs
265265639;"{\"type\":\"LineString\",\"coordinates\":[[3.0628593,36.7839662],[3.0628288,36.783893]]}";2;Rue Saadi et Mokhtar Ben Hafidh;1;50;false;false;true;false;false;false;9.0;0;0;0;0;0;false;Port Saïd;5387463206;3.0618677;36.7809049;Place des Martyrs;2740633594;3.0635279;36.785431;0;12;13;7980872;Bus: Bach Djarah -> Place des Martyrs;"";ETUSA;74;Bach Djarah;Place des Martyrs
26002660;"{\"type\":\"LineString\",\"coordinates\":[[3.0628593,36.7839662],[3.0630153,36.7842883],[3.0630799,36.7843721],[3.0631389,36.784428],[3.0632866,36.7845085]]}";3;Rue Saadi et Mokhtar Ben Hafidh;2;50;false;true;true;false;false;false;75.0;0;0;0;0;0;false;Port Saïd;5387463206;3.0618677;36.7809049;Place des Martyrs;2740633594;3.0635279;36.785431;0;12;13;7980872;Bus: Bach Djarah -> Place des Martyrs;"";ETUSA;74;Bach Djarah;Place des Martyrs
82561327;"{\"type\":\"LineString\",\"coordinates\":[[3.0632866,36.7845085],[3.0635051,36.7846262],[3.0634767,36.78466],[3.0633362,36.784869],[3.063319,36.7850271],[3.0633526,36.7851796],[3.0634131,36.785454]]}";4;Avenue du 1e Novembre;2;50;false;true;true;false;false;false;122.0;0;1;0;0;0;false;Port Saïd;5387463206;3.0618677;36.7809049;Place des Martyrs;2740633594;3.0635279;36.785431;1;12;13;7980872;Bus: Bach Djarah -> Place des Martyrs;"";ETUSA;74;Bach Djarah;Place des Martyrs
