way_id;shape;index;name;nb_lanes;legal_speed;speed_zone_30;oneway;shares_bike;bike_box;bus_lane;dedicated_bus_lane;length;nb_traffic_signals;nb_crossings;nb_stops;nb_give_ways;nb_lvl_crossings;roundabout;stop_id_orig;node_id_orig;coord_x_orig;coord_y_orig;stop_id_dest;node_id_dest;coord_x_dest;coord_y_dest;nb_neighbouring_ways_bus_stop;ordre_orig;ordre_dest;id_line;line_name;colour;operator;ref;from;to
683821955;"{\"type\":\"LineString\",\"coordinates\":[[-73.667224,45.5560572],[-73.6672565,45.5560017],[-73.6672957,45.5559346]]}";1;"";1;50;false;false;true;false;true;false;15.0;0;1;0;0;0;false;40002;6269510382;-73.6672;45.555819;42794;6269510265;-73.67968;45.560951;1;0;1;9312789;Bus : 2 O - Direction Métro Montmorency;"";STL;2O;Terminus Henri-Bourassa Quai:4;Métro Montmorency
683821958;"{\"type\":\"LineString\",\"coordinates\":[[-73.667132,45.5562148],[-73.667224,45.5560572]]}";2;"";1;50;false;false;true;false;true;false;19.0;0;0;0;0;0;false;40002;6269510382;-73.6672;45.555819;42794;6269510265;-73.67968;45.560951;0;0;1;9312789;Bus : 2 O - Direction Métro Montmorency;"";STL;2O;Terminus Henri-Bourassa Quai:4;Métro Montmorency
144841881;"{\"type\":\"LineString\",\"coordinates\":[[-73.6670617,45.55654],[-73.667003,45.5564705],[-73.6670078,45.5564192],[-73.667132,45.5562148]]}";3;"";1;50;false;false;true;false;true;false;40.0;0;0;0;0;0;false;40002;6269510382;-73.6672;45.555819;42794;6269510265;-73.67968;45.560951;0;0;1;9312789;Bus : 2 O - Direction Métro Montmorency;"";STL;2O;Terminus Henri-Bourassa Quai:4;Métro Montmorency
144838921;"{\"type\":\"LineString\",\"coordinates\":[[-73.6670617,45.55654],[-73.6671454,45.5566037],[-73.6672641,45.556694]]}";4;"";1;50;false;true;true;false;true;false;24.0;1;1;0;0;0;false;40002;6269510382;-73.6672;45.555819;42794;6269510265;-73.67968;45.560951;0;0;1;9312789;Bus : 2 O - Direction Métro Montmorency;"";STL;2O;Terminus Henri-Bourassa Quai:4;Métro Montmorency
18562808;"{\"type\":\"LineString\",\"coordinates\":[[-73.6672641,45.556694],[-73.6674848,45.5567468]]}";5;Avenue Millen;1;50;false;true;true;false;false;false;19.0;2;0;0;0;0;false;40002;6269510382;-73.6672;45.555819;42794;6269510265;-73.67968;45.560951;0;0;1;9312789;Bus : 2 O - Direction Métro Montmorency;"";STL;2O;Terminus Henri-Bourassa Quai:4;Métro Montmorency
607079704;"{\"type\":\"LineString\",\"coordinates\":[[-73.6674848,45.5567468],[-73.6675221,45.5566238]]}";6;Boulevard Henri-Bourassa Est;3;50;false;true;true;false;false;false;14.0;2;0;0;0;0;false;40002;6269510382;-73.6672;45.555819;42794;6269510265;-73.67968;45.560951;0;0;1;9312789;Bus : 2 O - Direction Métro Montmorency;"";STL;2O;Terminus Henri-Bourassa Quai:4;Métro Montmorency
460561571;"{\"type\":\"LineString\",\"coordinates\":[[-73.6675221,45.5566238],[-73.6675531,45.5565663],[-73.66766,45.5563683],[-73.6679004,45.5559345],[-73.6681051,45.555583],[-73.6681849,45.555446],[-73.6682603,45.5553166],[-73.6682973,45.555253]]}";7;Boulevard Henri-Bourassa Est;3;50;false;true;true;false;false;false;164.0;2;1;0;0;0;false;40002;6269510382;-73.6672;45.555819;42794;6269510265;-73.67968;45.560951;0;0;1;9312789;Bus : 2 O - Direction Métro Montmorency;"";STL;2O;Terminus Henri-Bourassa Quai:4;Métro Montmorency
460561573;"{\"type\":\"LineString\",\"coordinates\":[[-73.6682973,45.555253],[-73.6684106,45.555284],[-73.6689503,45.5554316],[-73.6690569,45.5554608],[-73.6699556,45.555716]]}";8;Rue Lajeunesse;2;50;false;true;false;false;false;false;140.0;1;1;0;0;0;false;40002;6269510382;-73.6672;45.555819;42794;6269510265;-73.67968;45.560951;0;0;1;9312789;Bus : 2 O - Direction Métro Montmorency;"";STL;2O;Terminus Henri-Bourassa Quai:4;Métro Montmorency
679446411;"{\"type\":\"LineString\",\"coordinates\":[[-73.6699556,45.555716],[-73.6704056,45.5558438],[-73.6704587,45.5558589],[-73.6708807,45.5559787],[-73.6709441,45.5559967]]}";9;Rue Lajeunesse;2;50;false;true;false;false;false;false;84.0;1;1;0;0;0;false;40002;6269510382;-73.6672;45.555819;42794;6269510265;-73.67968;45.560951;0;0;1;9312789;Bus : 2 O - Direction Métro Montmorency;"";STL;2O;Terminus Henri-Bourassa Quai:4;Métro Montmorency
460561564;"{\"type\":\"LineString\",\"coordinates\":[[-73.6709441,45.5559967],[-73.6710759,45.5560333]]}";10;Rue Lajeunesse;2;50;false;true;false;false;false;false;12.0;2;0;0;0;0;false;40002;6269510382;-73.6672;45.555819;42794;6269510265;-73.67968;45.560951;0;0;1;9312789;Bus : 2 O - Direction Métro Montmorency;"";STL;2O;Terminus Henri-Bourassa Quai:4;Métro Montmorency
455492071;"{\"type\":\"LineString\",\"coordinates\":[[-73.6710759,45.5560333],[-73.6711735,45.5560613],[-73.671546,45.5561681]]}";11;Rue Lajeunesse;2;50;false;true;true;false;false;false;40.0;1;1;0;0;0;false;40002;6269510382;-73.6672;45.555819;42794;6269510265;-73.67968;45.560951;0;0;1;9312789;Bus : 2 O - Direction Métro Montmorency;"";STL;2O;Terminus Henri-Bourassa Quai:4;Métro Montmorency
234155503;"{\"type\":\"LineString\",\"coordinates\":[[-73.671546,45.5561681],[-73.6721543,45.5563465],[-73.6725285,45.5564502]]}";12;Rue Lajeunesse;2;50;false;true;true;false;false;false;83.0;0;0;0;0;0;false;40002;6269510382;-73.6672;45.555819;42794;6269510265;-73.67968;45.560951;0;0;1;9312789;Bus : 2 O - Direction Métro Montmorency;"";STL;2O;Terminus Henri-Bourassa Quai:4;Métro Montmorency
18586547;"{\"type\":\"LineString\",\"coordinates\":[[-73.6725285,45.5564502],[-73.6781811,45.5581176]]}";13;Pont Viau;2;50;false;true;true;false;false;false;479.0;0;0;0;0;0;false;40002;6269510382;-73.6672;45.555819;42794;6269510265;-73.67968;45.560951;0;0;1;9312789;Bus : 2 O - Direction Métro Montmorency;"";STL;2O;Terminus Henri-Bourassa Quai:4;Métro Montmorency
38330850;"{\"type\":\"LineString\",\"coordinates\":[[-73.6781811,45.5581176],[-73.678462,45.5582116]]}";14;Boulevard des Laurentides;2;50;false;true;false;false;false;false;25.0;0;0;0;0;0;false;40002;6269510382;-73.6672;45.555819;42794;6269510265;-73.67968;45.560951;0;0;1;9312789;Bus : 2 O - Direction Métro Montmorency;"";STL;2O;Terminus Henri-Bourassa Quai:4;Métro Montmorency
234155504;"{\"type\":\"LineString\",\"coordinates\":[[-73.678462,45.5582116],[-73.67876,45.5583584],[-73.6790385,45.5585743],[-73.6793735,45.5588931],[-73.6798509,45.5593983]]}";15;Boulevard des Laurentides;2;50;false;true;true;false;false;false;173.0;0;0;0;0;0;false;40002;6269510382;-73.6672;45.555819;42794;6269510265;-73.67968;45.560951;0;0;1;9312789;Bus : 2 O - Direction Métro Montmorency;"";STL;2O;Terminus Henri-Bourassa Quai:4;Métro Montmorency
29016321;"{\"type\":\"LineString\",\"coordinates\":[[-73.6798509,45.5593983],[-73.6799931,45.5596387],[-73.6799941,45.5597426],[-73.6799795,45.5598065],[-73.6799487,45.5598841],[-73.6798365,45.5599935],[-73.6794537,45.5601992]]}";16;Rue de Quimper;2;50;false;true;true;false;false;false;110.0;0;0;0;0;0;false;40002;6269510382;-73.6672;45.555819;42794;6269510265;-73.67968;45.560951;0;0;1;9312789;Bus : 2 O - Direction Métro Montmorency;"";STL;2O;Terminus Henri-Bourassa Quai:4;Métro Montmorency
46088939;"{\"type\":\"LineString\",\"coordinates\":[[-73.6794537,45.5601992],[-73.6791483,45.5603832]]}";17;Rue de Quimper;2;50;false;true;true;false;false;false;32.0;1;0;0;0;0;false;40002;6269510382;-73.6672;45.555819;42794;6269510265;-73.67968;45.560951;0;0;1;9312789;Bus : 2 O - Direction Métro Montmorency;"";STL;2O;Terminus Henri-Bourassa Quai:4;Métro Montmorency
478051945;"{\"type\":\"LineString\",\"coordinates\":[[-73.6799014,45.5610385],[-73.679803,45.5609529],[-73.6797477,45.5609048],[-73.6791483,45.5603832]]}";18;Rue Saint-Hubert;1;50;false;false;false;false;false;false;47.0;1;0;0;0;0;false;40002;6269510382;-73.6672;45.555819;42794;6269510265;-73.67968;45.560951;1;0;1;9312789;Bus : 2 O - Direction Métro Montmorency;"";STL;2O;Terminus Henri-Bourassa Quai:4;Métro Montmorency
38311579;"{\"type\":\"LineString\",\"coordinates\":[[-73.6799014,45.5610385],[-73.6799939,45.5611189],[-73.6802218,45.5613173],[-73.6805434,45.5615971]]}";1;Rue Saint-Hubert;1;50;false;false;true;false;false;false;80.0;1;0;0;0;0;false;42794;6269510265;-73.67968;45.560951;"47128;47170;47120;47012;47002;47173;47058;47158;47141;47102;47122;47911;47133;47160;47163;47127;47137;47117;47031;47143;47174;47124;47112;47070;47148;47017";6269510222;-73.6825;45.559923;2;1;2;9312789;Bus : 2 O - Direction Métro Montmorency;"";STL;2O;Terminus Henri-Bourassa Quai:4;Métro Montmorency
292641475;"{\"type\":\"LineString\",\"coordinates\":[[-73.6806516,45.5616861],[-73.6805434,45.5615971]]}";2;Rue Saint-Hubert;1;50;false;false;true;false;false;false;13.0;2;0;0;0;0;false;42794;6269510265;-73.67968;45.560951;"47128;47170;47120;47012;47002;47173;47058;47158;47141;47102;47122;47911;47133;47160;47163;47127;47137;47117;47031;47143;47174;47124;47112;47070;47148;47017";6269510222;-73.6825;45.559923;0;1;2;9312789;Bus : 2 O - Direction Métro Montmorency;"";STL;2O;Terminus Henri-Bourassa Quai:4;Métro Montmorency
46088915;"{\"type\":\"LineString\",\"coordinates\":[[-73.6806516,45.5616861],[-73.680801,45.5616127],[-73.6811135,45.5614588],[-73.68169,45.5611749],[-73.6818442,45.561099]]}";3;Boulevard Cartier Ouest;2;50;false;true;true;false;false;false;114.0;3;0;0;0;0;false;42794;6269510265;-73.67968;45.560951;"47128;47170;47120;47012;47002;47173;47058;47158;47141;47102;47122;47911;47133;47160;47163;47127;47137;47117;47031;47143;47174;47124;47112;47070;47148;47017";6269510222;-73.6825;45.559923;0;1;2;9312789;Bus : 2 O - Direction Métro Montmorency;"";STL;2O;Terminus Henri-Bourassa Quai:4;Métro Montmorency
259643625;"{\"type\":\"LineString\",\"coordinates\":[[-73.6818442,45.561099],[-73.6826796,45.5606463],[-73.6831194,45.5604083]]}";4;Boulevard Cartier Ouest;2;50;false;true;true;false;false;false;126.0;2;0;0;0;0;false;42794;6269510265;-73.67968;45.560951;"47128;47170;47120;47012;47002;47173;47058;47158;47141;47102;47122;47911;47133;47160;47163;47127;47137;47117;47031;47143;47174;47124;47112;47070;47148;47017";6269510222;-73.6825;45.559923;0;1;2;9312789;Bus : 2 O - Direction Métro Montmorency;"";STL;2O;Terminus Henri-Bourassa Quai:4;Métro Montmorency
259643631;"{\"type\":\"LineString\",\"coordinates\":[[-73.6831194,45.5604083],[-73.6830194,45.5603075]]}";5;"";1;50;false;false;true;false;false;false;14.0;2;0;0;0;0;false;42794;6269510265;-73.67968;45.560951;"47128;47170;47120;47012;47002;47173;47058;47158;47141;47102;47122;47911;47133;47160;47163;47127;47137;47117;47031;47143;47174;47124;47112;47070;47148;47017";6269510222;-73.6825;45.559923;0;1;2;9312789;Bus : 2 O - Direction Métro Montmorency;"";STL;2O;Terminus Henri-Bourassa Quai:4;Métro Montmorency
258700554;"{\"type\":\"LineString\",\"coordinates\":[[-73.6830194,45.5603075],[-73.6827075,45.5604638],[-73.6824175,45.5606264],[-73.6822665,45.5607085]]}";6;Boulevard Cartier Ouest;2;50;false;true;true;false;false;false;74.0;1;0;0;0;0;false;42794;6269510265;-73.67968;45.560951;"47128;47170;47120;47012;47002;47173;47058;47158;47141;47102;47122;47911;47133;47160;47163;47127;47137;47117;47031;47143;47174;47124;47112;47070;47148;47017";6269510222;-73.6825;45.559923;0;1;2;9312789;Bus : 2 O - Direction Métro Montmorency;"";STL;2O;Terminus Henri-Bourassa Quai:4;Métro Montmorency
242652088;"{\"type\":\"LineString\",\"coordinates\":[[-73.6830194,45.5603075],[-73.6828755,45.560162]]}";7;"";1;50;false;false;true;false;false;false;20.0;1;0;0;0;0;false;42794;6269510265;-73.67968;45.560951;"47128;47170;47120;47012;47002;47173;47058;47158;47141;47102;47122;47911;47133;47160;47163;47127;47137;47117;47031;47143;47174;47124;47112;47070;47148;47017";6269510222;-73.6825;45.559923;0;1;2;9312789;Bus : 2 O - Direction Métro Montmorency;"";STL;2O;Terminus Henri-Bourassa Quai:4;Métro Montmorency
259643630;"{\"type\":\"LineString\",\"coordinates\":[[-73.683108,45.5597546],[-73.6832991,45.5596564],[-73.6834151,45.5595825],[-73.6834772,45.5596133],[-73.6835498,45.5596565],[-73.6835923,45.5597297],[-73.6835737,45.5597964],[-73.6834678,45.5598527],[-73.6828755,45.560162]]}";8;"";1;50;false;false;true;false;false;false;129.0;0;0;0;0;0;false;42794;6269510265;-73.67968;45.560951;"47128;47170;47120;47012;47002;47173;47058;47158;47141;47102;47122;47911;47133;47160;47163;47127;47137;47117;47031;47143;47174;47124;47112;47070;47148;47017";6269510222;-73.6825;45.559923;0;1;2;9312789;Bus : 2 O - Direction Métro Montmorency;"";STL;2O;Terminus Henri-Bourassa Quai:4;Métro Montmorency
669902231;"{\"type\":\"LineString\",\"coordinates\":[[-73.6828755,45.560162],[-73.6828112,45.5601876],[-73.6827077,45.5602109],[-73.682644,45.5602049],[-73.6825892,45.560184],[-73.6825263,45.5601334],[-73.6825179,45.560095],[-73.6825372,45.5600624],[-73.6826117,45.5600129]]}";9;"";1;50;false;false;true;false;false;false;48.0;0;0;0;0;0;false;42794;6269510265;-73.67968;45.560951;"47128;47170;47120;47012;47002;47173;47058;47158;47141;47102;47122;47911;47133;47160;47163;47127;47137;47117;47031;47143;47174;47124;47112;47070;47148;47017";6269510222;-73.6825;45.559923;0;1;2;9312789;Bus : 2 O - Direction Métro Montmorency;"";STL;2O;Terminus Henri-Bourassa Quai:4;Métro Montmorency
669902223;"{\"type\":\"LineString\",\"coordinates\":[[-73.6826117,45.5600129],[-73.6827819,45.5599253]]}";10;"";1;50;false;false;true;false;false;false;17.0;0;0;0;0;0;false;42794;6269510265;-73.67968;45.560951;"47128;47170;47120;47012;47002;47173;47058;47158;47141;47102;47122;47911;47133;47160;47163;47127;47137;47117;47031;47143;47174;47124;47112;47070;47148;47017";6269510222;-73.6825;45.559923;2;1;2;9312789;Bus : 2 O - Direction Métro Montmorency;"";STL;2O;Terminus Henri-Bourassa Quai:4;Métro Montmorency
669902231;"{\"type\":\"LineString\",\"coordinates\":[[-73.6828755,45.560162],[-73.6828112,45.5601876],[-73.6827077,45.5602109],[-73.682644,45.5602049],[-73.6825892,45.560184],[-73.6825263,45.5601334],[-73.6825179,45.560095],[-73.6825372,45.5600624],[-73.6826117,45.5600129]]}";1;"";1;50;false;false;true;false;false;false;48.0;0;0;0;0;0;false;"47128;47170;47120;47012;47002;47173;47058;47158;47141;47102;47122;47911;47133;47160;47163;47127;47137;47117;47031;47143;47174;47124;47112;47070;47148;47017";6269510222;-73.6825;45.559923;41842;6269510244;-73.68204;45.56156;2;2;3;9312789;Bus : 2 O - Direction Métro Montmorency;"";STL;2O;Terminus Henri-Bourassa Quai:4;Métro Montmorency
242652088;"{\"type\":\"LineString\",\"coordinates\":[[-73.6830194,45.5603075],[-73.6828755,45.560162]]}";2;"";1;50;false;false;true;false;false;false;20.0;1;0;0;0;0;false;"47128;47170;47120;47012;47002;47173;47058;47158;47141;47102;47122;47911;47133;47160;47163;47127;47137;47117;47031;47143;47174;47124;47112;47070;47148;47017";6269510222;-73.6825;45.559923;41842;6269510244;-73.68204;45.56156;0;2;3;9312789;Bus : 2 O - Direction Métro Montmorency;"";STL;2O;Terminus Henri-Bourassa Quai:4;Métro Montmorency
259643631;"{\"type\":\"LineString\",\"coordinates\":[[-73.6831194,45.5604083],[-73.6830194,45.5603075]]}";3;"";1;50;false;false;true;false;false;false;14.0;2;0;0;0;0;false;"47128;47170;47120;47012;47002;47173;47058;47158;47141;47102;47122;47911;47133;47160;47163;47127;47137;47117;47031;47143;47174;47124;47112;47070;47148;47017";6269510222;-73.6825;45.559923;41842;6269510244;-73.68204;45.56156;0;2;3;9312789;Bus : 2 O - Direction Métro Montmorency;"";STL;2O;Terminus Henri-Bourassa Quai:4;Métro Montmorency
258700554;"{\"type\":\"LineString\",\"coordinates\":[[-73.6830194,45.5603075],[-73.6827075,45.5604638],[-73.6824175,45.5606264],[-73.6822665,45.5607085]]}";4;Boulevard Cartier Ouest;2;50;false;true;true;false;false;false;74.0;1;0;0;0;0;false;"47128;47170;47120;47012;47002;47173;47058;47158;47141;47102;47122;47911;47133;47160;47163;47127;47137;47117;47031;47143;47174;47124;47112;47070;47148;47017";6269510222;-73.6825;45.559923;41842;6269510244;-73.68204;45.56156;0;2;3;9312789;Bus : 2 O - Direction Métro Montmorency;"";STL;2O;Terminus Henri-Bourassa Quai:4;Métro Montmorency
455492089;"{\"type\":\"LineString\",\"coordinates\":[[-73.6822665,45.5607085],[-73.6819634,45.5608959],[-73.6817505,45.5610049]]}";5;Boulevard Cartier Ouest;2;50;false;true;true;false;false;false;53.0;1;0;0;0;0;false;"47128;47170;47120;47012;47002;47173;47058;47158;47141;47102;47122;47911;47133;47160;47163;47127;47137;47117;47031;47143;47174;47124;47112;47070;47148;47017";6269510222;-73.6825;45.559923;41842;6269510244;-73.68204;45.56156;0;2;3;9312789;Bus : 2 O - Direction Métro Montmorency;"";STL;2O;Terminus Henri-Bourassa Quai:4;Métro Montmorency
292641472;"{\"type\":\"LineString\",\"coordinates\":[[-73.6817505,45.5610049],[-73.6816926,45.5610324],[-73.6815922,45.5610802]]}";6;Boulevard Cartier Ouest;2;50;false;true;true;false;false;false;15.0;2;0;0;0;0;false;"47128;47170;47120;47012;47002;47173;47058;47158;47141;47102;47122;47911;47133;47160;47163;47127;47137;47117;47031;47143;47174;47124;47112;47070;47148;47017";6269510222;-73.6825;45.559923;41842;6269510244;-73.68204;45.56156;0;2;3;9312789;Bus : 2 O - Direction Métro Montmorency;"";STL;2O;Terminus Henri-Bourassa Quai:4;Métro Montmorency
258700557;"{\"type\":\"LineString\",\"coordinates\":[[-73.6815922,45.5610802],[-73.68169,45.5611749],[-73.6819137,45.5613673],[-73.6823486,45.5617409],[-73.6823502,45.5617422],[-73.6826844,45.5619598]]}";7;Boulevard des Laurentides;2;50;false;true;true;false;false;false;130.0;2;0;0;0;0;false;"47128;47170;47120;47012;47002;47173;47058;47158;47141;47102;47122;47911;47133;47160;47163;47127;47137;47117;47031;47143;47174;47124;47112;47070;47148;47017";6269510222;-73.6825;45.559923;41842;6269510244;-73.68204;45.56156;2;2;3;9312789;Bus : 2 O - Direction Métro Montmorency;"";STL;2O;Terminus Henri-Bourassa Quai:4;Métro Montmorency
258700557;"{\"type\":\"LineString\",\"coordinates\":[[-73.6815922,45.5610802],[-73.68169,45.5611749],[-73.6819137,45.5613673],[-73.6823486,45.5617409],[-73.6823502,45.5617422],[-73.6826844,45.5619598]]}";1;Boulevard des Laurentides;2;50;false;true;true;false;false;false;65.0;2;0;0;0;0;false;41842;6269510244;-73.68204;45.56156;41865;6269510199;-73.68424;45.563491;1;3;4;9312789;Bus : 2 O - Direction Métro Montmorency;"";STL;2O;Terminus Henri-Bourassa Quai:4;Métro Montmorency
452227549;"{\"type\":\"LineString\",\"coordinates\":[[-73.6826844,45.5619598],[-73.684522,45.5635813]]}";2;Boulevard des Laurentides;4;50;false;false;true;false;false;false;115.5;0;0;0;0;0;false;41842;6269510244;-73.68204;45.56156;41865;6269510199;-73.68424;45.563491;1;3;4;9312789;Bus : 2 O - Direction Métro Montmorency;"";STL;2O;Terminus Henri-Bourassa Quai:4;Métro Montmorency
452227549;"{\"type\":\"LineString\",\"coordinates\":[[-73.6826844,45.5619598],[-73.684522,45.5635813]]}";1;Boulevard des Laurentides;4;50;false;false;true;false;false;false;115.5;0;0;0;0;0;false;41865;6269510199;-73.68424;45.563491;41887;6269510068;-73.68568;45.564778;1;4;5;9312789;Bus : 2 O - Direction Métro Montmorency;"";STL;2O;Terminus Henri-Bourassa Quai:4;Métro Montmorency
452227544;"{\"type\":\"LineString\",\"coordinates\":[[-73.684522,45.5635813],[-73.6864142,45.565271]]}";2;Boulevard des Laurentides;4;50;false;false;true;false;false;false;119.5;0;0;0;0;0;false;41865;6269510199;-73.68424;45.563491;41887;6269510068;-73.68568;45.564778;1;4;5;9312789;Bus : 2 O - Direction Métro Montmorency;"";STL;2O;Terminus Henri-Bourassa Quai:4;Métro Montmorency
452227544;"{\"type\":\"LineString\",\"coordinates\":[[-73.684522,45.5635813],[-73.6864142,45.565271]]}";1;Boulevard des Laurentides;4;50;false;false;true;false;false;false;119.5;0;0;0;0;0;false;41887;6269510068;-73.68568;45.564778;41796;6269510010;-73.68855;45.567342;1;5;6;9312789;Bus : 2 O - Direction Métro Montmorency;"";STL;2O;Terminus Henri-Bourassa Quai:4;Métro Montmorency
46086120;"{\"type\":\"LineString\",\"coordinates\":[[-73.6864142,45.565271],[-73.68769,45.5664197]]}";2;Boulevard des Laurentides;4;50;false;false;true;false;false;false;162.0;0;0;0;0;0;false;41887;6269510068;-73.68568;45.564778;41796;6269510010;-73.68855;45.567342;0;5;6;9312789;Bus : 2 O - Direction Métro Montmorency;"";STL;2O;Terminus Henri-Bourassa Quai:4;Métro Montmorency
452227546;"{\"type\":\"LineString\",\"coordinates\":[[-73.68769,45.5664197],[-73.6883244,45.5669908]]}";3;Boulevard des Laurentides;4;50;false;false;true;false;false;false;81.0;0;0;0;0;0;false;41887;6269510068;-73.68568;45.564778;41796;6269510010;-73.68855;45.567342;0;5;6;9312789;Bus : 2 O - Direction Métro Montmorency;"";STL;2O;Terminus Henri-Bourassa Quai:4;Métro Montmorency
452227547;"{\"type\":\"LineString\",\"coordinates\":[[-73.6883244,45.5669908],[-73.6901977,45.568689]]}";4;Boulevard des Laurentides;4;50;false;false;true;false;false;false;119.5;0;0;0;0;0;false;41887;6269510068;-73.68568;45.564778;41796;6269510010;-73.68855;45.567342;1;5;6;9312789;Bus : 2 O - Direction Métro Montmorency;"";STL;2O;Terminus Henri-Bourassa Quai:4;Métro Montmorency
452227548;"{\"type\":\"LineString\",\"coordinates\":[[-73.6901977,45.568689],[-73.6920842,45.5703911]]}";1;Boulevard des Laurentides;4;50;false;false;true;false;false;false;240.0;1;0;0;0;0;false;41798;6269509572;-73.68998;45.568637;41340;6269509525;-73.69286;45.570153;2;7;8;9312789;Bus : 2 O - Direction Métro Montmorency;"";STL;2O;Terminus Henri-Bourassa Quai:4;Métro Montmorency
258700555;"{\"type\":\"LineString\",\"coordinates\":[[-73.6920842,45.5703911],[-73.6921816,45.5704852]]}";2;Boulevard des Laurentides;4;50;false;false;true;false;false;false;13.0;2;0;0;0;0;false;41798;6269509572;-73.68998;45.568637;41340;6269509525;-73.69286;45.570153;0;7;8;9312789;Bus : 2 O - Direction Métro Montmorency;"";STL;2O;Terminus Henri-Bourassa Quai:4;Métro Montmorency
679942243;"{\"type\":\"LineString\",\"coordinates\":[[-73.6921816,45.5704852],[-73.6930566,45.5699931],[-73.6938939,45.5695406],[-73.6947172,45.5691062],[-73.6954519,45.5686871],[-73.6965304,45.5680876],[-73.6968828,45.5678918],[-73.6968949,45.567885],[-73.6972652,45.5676791],[-73.6981918,45.567164]]}";3;Boulevard de la Concorde Ouest;1;50;false;true;true;false;false;false;597.0;1;0;0;0;0;false;41798;6269509572;-73.68998;45.568637;41340;6269509525;-73.69286;45.570153;2;7;8;9312789;Bus : 2 O - Direction Métro Montmorency;"";STL;2O;Terminus Henri-Bourassa Quai:4;Métro Montmorency
679942243;"{\"type\":\"LineString\",\"coordinates\":[[-73.6921816,45.5704852],[-73.6930566,45.5699931],[-73.6938939,45.5695406],[-73.6947172,45.5691062],[-73.6954519,45.5686871],[-73.6965304,45.5680876],[-73.6968828,45.5678918],[-73.6968949,45.567885],[-73.6972652,45.5676791],[-73.6981918,45.567164]]}";1;Boulevard de la Concorde Ouest;1;50;false;true;true;false;false;false;298.5;1;0;0;0;0;false;41335;6269509579;-73.69685;45.567969;41333;6269510034;-73.69951;45.566482;1;10;11;9312789;Bus : 2 O - Direction Métro Montmorency;"";STL;2O;Terminus Henri-Bourassa Quai:4;Métro Montmorency
679942242;"{\"type\":\"LineString\",\"coordinates\":[[-73.6981918,45.567164],[-73.6983411,45.5670755],[-73.6991163,45.5666292],[-73.7000594,45.5660912],[-73.700518,45.5658577],[-73.7015319,45.5653411]]}";2;Boulevard de la Concorde Ouest;1;50;false;true;true;false;false;false;165.5;0;0;0;0;0;false;41335;6269509579;-73.69685;45.567969;41333;6269510034;-73.69951;45.566482;1;10;11;9312789;Bus : 2 O - Direction Métro Montmorency;"";STL;2O;Terminus Henri-Bourassa Quai:4;Métro Montmorency
679942242;"{\"type\":\"LineString\",\"coordinates\":[[-73.6981918,45.567164],[-73.6983411,45.5670755],[-73.6991163,45.5666292],[-73.7000594,45.5660912],[-73.700518,45.5658577],[-73.7015319,45.5653411]]}";1;Boulevard de la Concorde Ouest;1;50;false;true;true;false;false;false;165.5;0;0;0;0;0;false;41328;6269510061;-73.70135;45.565495;41326;6269510193;-73.70446;45.563933;1;12;13;9312789;Bus : 2 O - Direction Métro Montmorency;"";STL;2O;Terminus Henri-Bourassa Quai:4;Métro Montmorency
165087294;"{\"type\":\"LineString\",\"coordinates\":[[-73.7015319,45.5653411],[-73.7022337,45.5649862],[-73.7037842,45.5642014],[-73.7046109,45.5637879],[-73.7066325,45.5627769],[-73.7068741,45.5626544],[-73.7087014,45.5617417]]}";2;Boulevard de la Concorde Ouest;1;50;false;true;true;false;false;false;344.0;0;0;0;0;0;false;41328;6269510061;-73.70135;45.565495;41326;6269510193;-73.70446;45.563933;1;12;13;9312789;Bus : 2 O - Direction Métro Montmorency;"";STL;2O;Terminus Henri-Bourassa Quai:4;Métro Montmorency
766599379;"{\"type\":\"LineString\",\"coordinates\":[[-73.7087014,45.5617417],[-73.7099965,45.5610408],[-73.7100917,45.5609945]]}";1;Boulevard de la Concorde Ouest;2;50;false;true;false;false;false;false;137.0;0;0;0;0;0;false;41322;6269510241;-73.70857;45.561874;41391;6269510300;-73.71266;45.559797;2;15;16;9312789;Bus : 2 O - Direction Métro Montmorency;"";STL;2O;Terminus Henri-Bourassa Quai:4;Métro Montmorency
766599377;"{\"type\":\"LineString\",\"coordinates\":[[-73.7100917,45.5609945],[-73.7103592,45.5608644]]}";2;Boulevard de la Concorde Ouest;2;50;false;true;false;false;false;false;26.0;0;0;0;0;0;false;41322;6269510241;-73.70857;45.561874;41391;6269510300;-73.71266;45.559797;0;15;16;9312789;Bus : 2 O - Direction Métro Montmorency;"";STL;2O;Terminus Henri-Bourassa Quai:4;Métro Montmorency
289092142;"{\"type\":\"LineString\",\"coordinates\":[[-73.7103592,45.5608644],[-73.7105432,45.5607749],[-73.7118734,45.5601274],[-73.7124596,45.5598442],[-73.7127109,45.5597165],[-73.7127672,45.5596899],[-73.7128358,45.5596589]]}";3;Boulevard de la Concorde Ouest;2;50;false;true;false;false;false;false;236.0;1;1;0;0;0;false;41322;6269510241;-73.70857;45.561874;41391;6269510300;-73.71266;45.559797;2;15;16;9312789;Bus : 2 O - Direction Métro Montmorency;"";STL;2O;Terminus Henri-Bourassa Quai:4;Métro Montmorency
289092142;"{\"type\":\"LineString\",\"coordinates\":[[-73.7103592,45.5608644],[-73.7105432,45.5607749],[-73.7118734,45.5601274],[-73.7124596,45.5598442],[-73.7127109,45.5597165],[-73.7127672,45.5596899],[-73.7128358,45.5596589]]}";1;Boulevard de la Concorde Ouest;2;50;false;true;false;false;false;false;118.0;1;1;0;0;0;false;41391;6269510300;-73.71266;45.559797;41370;6269510324;-73.71475;45.558704;1;16;17;9312789;Bus : 2 O - Direction Métro Montmorency;"";STL;2O;Terminus Henri-Bourassa Quai:4;Métro Montmorency
476096576;"{\"type\":\"LineString\",\"coordinates\":[[-73.7128358,45.5596589],[-73.7129896,45.5595835]]}";2;Boulevard de la Concorde Ouest;1;60;false;true;false;false;false;false;15.0;2;0;0;0;0;false;41391;6269510300;-73.71266;45.559797;41370;6269510324;-73.71475;45.558704;0;16;17;9312789;Bus : 2 O - Direction Métro Montmorency;"";STL;2O;Terminus Henri-Bourassa Quai:4;Métro Montmorency
452222558;"{\"type\":\"LineString\",\"coordinates\":[[-73.7129896,45.5595835],[-73.7130758,45.5595368],[-73.7134814,45.5593215],[-73.713783,45.5591613],[-73.7138247,45.5591392],[-73.7142037,45.5589379],[-73.7149235,45.5585557],[-73.7153543,45.558327],[-73.7158799,45.5580479],[-73.7164947,45.5577214],[-73.7179234,45.5569627]]}";3;Boulevard de la Concorde Ouest;1;60;false;true;true;false;false;false;241.5;2;1;0;0;0;false;41391;6269510300;-73.71266;45.559797;41370;6269510324;-73.71475;45.558704;1;16;17;9312789;Bus : 2 O - Direction Métro Montmorency;"";STL;2O;Terminus Henri-Bourassa Quai:4;Métro Montmorency
452222558;"{\"type\":\"LineString\",\"coordinates\":[[-73.7129896,45.5595835],[-73.7130758,45.5595368],[-73.7134814,45.5593215],[-73.713783,45.5591613],[-73.7138247,45.5591392],[-73.7142037,45.5589379],[-73.7149235,45.5585557],[-73.7153543,45.558327],[-73.7158799,45.5580479],[-73.7164947,45.5577214],[-73.7179234,45.5569627]]}";1;Boulevard de la Concorde Ouest;1;60;false;true;true;false;false;false;241.5;2;1;0;0;0;false;41351;6269510346;-73.71631;45.557873;"48126;48161;48170;48133;48165;48136;48140;48148;48176;48156;48913;48102;48145;48842";5894580468;-73.72102;45.558276;1;18;19;9312789;Bus : 2 O - Direction Métro Montmorency;"";STL;2O;Terminus Henri-Bourassa Quai:4;Métro Montmorency
452222557;"{\"type\":\"LineString\",\"coordinates\":[[-73.7179234,45.5569627],[-73.7194731,45.5586204],[-73.7195653,45.558719]]}";2;Boulevard de l'Avenir;3;50;false;true;true;false;false;false;234.0;1;1;0;0;0;false;41351;6269510346;-73.71631;45.557873;"48126;48161;48170;48133;48165;48136;48140;48148;48176;48156;48913;48102;48145;48842";5894580468;-73.72102;45.558276;0;18;19;9312789;Bus : 2 O - Direction Métro Montmorency;"";STL;2O;Terminus Henri-Bourassa Quai:4;Métro Montmorency
292607262;"{\"type\":\"LineString\",\"coordinates\":[[-73.7195653,45.558719],[-73.7197703,45.558636]]}";3;"";1;50;false;false;true;false;false;false;19.0;0;0;0;0;0;false;41351;6269510346;-73.71631;45.557873;"48126;48161;48170;48133;48165;48136;48140;48148;48176;48156;48913;48102;48145;48842";5894580468;-73.72102;45.558276;0;18;19;9312789;Bus : 2 O - Direction Métro Montmorency;"";STL;2O;Terminus Henri-Bourassa Quai:4;Métro Montmorency
673250003;"{\"type\":\"LineString\",\"coordinates\":[[-73.7200309,45.5584789],[-73.7198217,45.5586049],[-73.7197703,45.558636]]}";4;"";1;30;false;false;false;false;false;false;27.0;0;1;0;0;0;false;41351;6269510346;-73.71631;45.557873;"48126;48161;48170;48133;48165;48136;48140;48148;48176;48156;48913;48102;48145;48842";5894580468;-73.72102;45.558276;0;18;19;9312789;Bus : 2 O - Direction Métro Montmorency;"";STL;2O;Terminus Henri-Bourassa Quai:4;Métro Montmorency
673246437;"{\"type\":\"LineString\",\"coordinates\":[[-73.7200309,45.5584789],[-73.720124,45.5585758],[-73.7201474,45.5585648]]}";5;"";1;30;false;true;false;false;false;false;16.0;0;0;0;0;0;false;41351;6269510346;-73.71631;45.557873;"48126;48161;48170;48133;48165;48136;48140;48148;48176;48156;48913;48102;48145;48842";5894580468;-73.72102;45.558276;0;18;19;9312789;Bus : 2 O - Direction Métro Montmorency;"";STL;2O;Terminus Henri-Bourassa Quai:4;Métro Montmorency
624217210;"{\"type\":\"LineString\",\"coordinates\":[[-73.7201474,45.5585648],[-73.720206,45.5585372],[-73.7203325,45.5584776]]}";6;"";1;30;false;true;false;false;false;false;18.0;0;0;0;0;0;false;41351;6269510346;-73.71631;45.557873;"48126;48161;48170;48133;48165;48136;48140;48148;48176;48156;48913;48102;48145;48842";5894580468;-73.72102;45.558276;0;18;19;9312789;Bus : 2 O - Direction Métro Montmorency;"";STL;2O;Terminus Henri-Bourassa Quai:4;Métro Montmorency
673264013;"{\"type\":\"LineString\",\"coordinates\":[[-73.7203325,45.5584776],[-73.7205612,45.55837]]}";7;"";1;30;false;true;false;false;false;false;22.0;0;0;0;0;0;false;41351;6269510346;-73.71631;45.557873;"48126;48161;48170;48133;48165;48136;48140;48148;48176;48156;48913;48102;48145;48842";5894580468;-73.72102;45.558276;0;18;19;9312789;Bus : 2 O - Direction Métro Montmorency;"";STL;2O;Terminus Henri-Bourassa Quai:4;Métro Montmorency
673264014;"{\"type\":\"LineString\",\"coordinates\":[[-73.7205612,45.55837],[-73.7207712,45.5582711]]}";8;"";1;30;false;true;false;false;false;false;20.0;0;0;0;0;0;false;41351;6269510346;-73.71631;45.557873;"48126;48161;48170;48133;48165;48136;48140;48148;48176;48156;48913;48102;48145;48842";5894580468;-73.72102;45.558276;0;18;19;9312789;Bus : 2 O - Direction Métro Montmorency;"";STL;2O;Terminus Henri-Bourassa Quai:4;Métro Montmorency
475848923;"{\"type\":\"LineString\",\"coordinates\":[[-73.7207712,45.5582711],[-73.7209137,45.558204]]}";9;"";1;30;false;true;true;false;false;false;14.0;0;0;0;0;0;false;41351;6269510346;-73.71631;45.557873;"48126;48161;48170;48133;48165;48136;48140;48148;48176;48156;48913;48102;48145;48842";5894580468;-73.72102;45.558276;1;18;19;9312789;Bus : 2 O - Direction Métro Montmorency;"";STL;2O;Terminus Henri-Bourassa Quai:4;Métro Montmorency
