way_id;shape;index;name;nb_lanes;legal_speed;speed_zone_30;oneway;shares_bike;bike_box;bus_lane;dedicated_bus_lane;length;nb_traffic_signals;nb_crossings;nb_stops;nb_give_ways;nb_lvl_crossings;roundabout;stop_id_orig;node_id_orig;coord_x_orig;coord_y_orig;stop_id_dest;node_id_dest;coord_x_dest;coord_y_dest;nb_neighbouring_ways_bus_stop;ordre_orig;ordre_dest;id_line;line_name;colour;operator;ref;from;to
676383651;"{\"type\":\"LineString\",\"coordinates\":[[-73.8271878,45.6481927],[-73.8272832,45.6482574],[-73.8273769,45.6483209],[-73.827395,45.6483332]]}";1;Boulevard du Domaine;1;50;false;true;false;false;false;false;23.0;0;0;0;0;0;false;82311;6119524699;-73.827272;45.64834;82312;6119524698;-73.832157;45.64936;1;0;1;9392092;Bus 60 : GARE STE-THÉRÈSE;"";EXO;60;du Domaine / devant la polyvalente Sainte-Thérèse;Gare Sainte-Thérèse
633738354;"{\"type\":\"LineString\",\"coordinates\":[[-73.827395,45.6483332],[-73.8278459,45.6486522],[-73.8284078,45.6490026],[-73.8287904,45.649189],[-73.8290627,45.6492934],[-73.8295485,45.6493528],[-73.8307247,45.649349],[-73.831548,45.6493429],[-73.8320042,45.6493588],[-73.8323312,45.6493277],[-73.8333048,45.6490773],[-73.8347793,45.6486475],[-73.8353908,45.648427],[-73.8362597,45.6479282],[-73.8368432,45.6475664],[-73.8371257,45.647499],[-73.8377278,45.647359],[-73.8379236,45.6473037]]}";2;Boulevard du Domaine;1;50;false;true;false;false;false;false;921.0;0;0;0;0;0;false;82311;6119524699;-73.827272;45.64834;82312;6119524698;-73.832157;45.64936;2;0;1;9392092;Bus 60 : GARE STE-THÉRÈSE;"";EXO;60;du Domaine / devant la polyvalente Sainte-Thérèse;Gare Sainte-Thérèse
633738354;"{\"type\":\"LineString\",\"coordinates\":[[-73.827395,45.6483332],[-73.8278459,45.6486522],[-73.8284078,45.6490026],[-73.8287904,45.649189],[-73.8290627,45.6492934],[-73.8295485,45.6493528],[-73.8307247,45.649349],[-73.831548,45.6493429],[-73.8320042,45.6493588],[-73.8323312,45.6493277],[-73.8333048,45.6490773],[-73.8347793,45.6486475],[-73.8353908,45.648427],[-73.8362597,45.6479282],[-73.8368432,45.6475664],[-73.8371257,45.647499],[-73.8377278,45.647359],[-73.8379236,45.6473037]]}";1;Boulevard du Domaine;1;50;false;true;false;false;false;false;460.5;0;0;0;0;0;false;82313;6119524697;-73.836661;45.647776;82314;6119524696;-73.838837;45.646919;1;2;3;9392092;Bus 60 : GARE STE-THÉRÈSE;"";EXO;60;du Domaine / devant la polyvalente Sainte-Thérèse;Gare Sainte-Thérèse
42896513;"{\"type\":\"LineString\",\"coordinates\":[[-73.8379236,45.6473037],[-73.8381548,45.6472028],[-73.8383207,45.6471137],[-73.8383909,45.6470759],[-73.8388089,45.6467565]]}";2;Boulevard du Domaine;1;50;false;true;true;false;false;false;93.0;0;0;0;0;0;false;82313;6119524697;-73.836661;45.647776;82314;6119524696;-73.838837;45.646919;0;2;3;9392092;Bus 60 : GARE STE-THÉRÈSE;"";EXO;60;du Domaine / devant la polyvalente Sainte-Thérèse;Gare Sainte-Thérèse
635190099;"{\"type\":\"LineString\",\"coordinates\":[[-73.8388089,45.6467565],[-73.8401755,45.6476693]]}";3;Boulevard Curé-Labelle;1;50;false;true;true;false;false;false;73.5;0;0;0;0;0;false;82313;6119524697;-73.836661;45.647776;82314;6119524696;-73.838837;45.646919;1;2;3;9392092;Bus 60 : GARE STE-THÉRÈSE;"";EXO;60;du Domaine / devant la polyvalente Sainte-Thérèse;Gare Sainte-Thérèse
42896513;"{\"type\":\"LineString\",\"coordinates\":[[-73.8379236,45.6473037],[-73.8381548,45.6472028],[-73.8383207,45.6471137],[-73.8383909,45.6470759],[-73.8388089,45.6467565]]}";1;Boulevard du Domaine;1;50;false;true;true;false;false;false;93.0;0;0;0;0;0;false;82314;6119524696;-73.838837;45.646919;82117;6119525240;-73.841028;45.647324;2;3;4;9392092;Bus 60 : GARE STE-THÉRÈSE;"";EXO;60;du Domaine / devant la polyvalente Sainte-Thérèse;Gare Sainte-Thérèse
635190099;"{\"type\":\"LineString\",\"coordinates\":[[-73.8388089,45.6467565],[-73.8401755,45.6476693]]}";2;Boulevard Curé-Labelle;1;50;false;true;true;false;false;false;147.0;0;0;0;0;0;false;82314;6119524696;-73.838837;45.646919;82117;6119525240;-73.841028;45.647324;0;3;4;9392092;Bus 60 : GARE STE-THÉRÈSE;"";EXO;60;du Domaine / devant la polyvalente Sainte-Thérèse;Gare Sainte-Thérèse
635190100;"{\"type\":\"LineString\",\"coordinates\":[[-73.8401755,45.6476693],[-73.8403863,45.6475986]]}";3;Boulevard Ducharme;1;50;false;true;false;false;false;false;19.0;0;0;0;0;0;false;82314;6119524696;-73.838837;45.646919;82117;6119525240;-73.841028;45.647324;0;3;4;9392092;Bus 60 : GARE STE-THÉRÈSE;"";EXO;60;du Domaine / devant la polyvalente Sainte-Thérèse;Gare Sainte-Thérèse
23442703;"{\"type\":\"LineString\",\"coordinates\":[[-73.8403863,45.6475986],[-73.8408182,45.6473164],[-73.8412654,45.6470241],[-73.8420688,45.6464992],[-73.8425557,45.646181],[-73.8427134,45.6460779],[-73.8427426,45.6460589],[-73.8429355,45.6459328],[-73.843473,45.6455816]]}";4;Boulevard Ducharme;1;50;false;true;false;false;false;false;329.0;0;0;0;0;0;false;82314;6119524696;-73.838837;45.646919;82117;6119525240;-73.841028;45.647324;2;3;4;9392092;Bus 60 : GARE STE-THÉRÈSE;"";EXO;60;du Domaine / devant la polyvalente Sainte-Thérèse;Gare Sainte-Thérèse
110941726;"{\"type\":\"LineString\",\"coordinates\":[[-73.843473,45.6455816],[-73.845081,45.6445308],[-73.8451682,45.6444738],[-73.8458612,45.6440209],[-73.8463527,45.6436997],[-73.8466386,45.6435129]]}";1;Boulevard Ducharme;1;50;false;true;false;false;false;false;169.0;0;0;0;0;0;false;82119;6119525238;-73.845463;45.644398;82306;6119524704;-73.8498125;45.6457344;1;6;7;9392092;Bus 60 : GARE STE-THÉRÈSE;"";EXO;60;du Domaine / devant la polyvalente Sainte-Thérèse;Gare Sainte-Thérèse
434875350;"{\"type\":\"LineString\",\"coordinates\":[[-73.8466386,45.6435129],[-73.8469717,45.6437425],[-73.8474178,45.6440501],[-73.8477272,45.6442634],[-73.8484099,45.644734],[-73.8490928,45.6452048],[-73.8492695,45.6453266],[-73.8494558,45.6454551],[-73.8499945,45.6458264],[-73.85102,45.6465334]]}";2;Rue Saint-Louis;1;50;false;true;false;false;false;false;239.5;0;0;0;0;0;false;82119;6119525238;-73.845463;45.644398;82306;6119524704;-73.8498125;45.6457344;1;6;7;9392092;Bus 60 : GARE STE-THÉRÈSE;"";EXO;60;du Domaine / devant la polyvalente Sainte-Thérèse;Gare Sainte-Thérèse
434875350;"{\"type\":\"LineString\",\"coordinates\":[[-73.8466386,45.6435129],[-73.8469717,45.6437425],[-73.8474178,45.6440501],[-73.8477272,45.6442634],[-73.8484099,45.644734],[-73.8490928,45.6452048],[-73.8492695,45.6453266],[-73.8494558,45.6454551],[-73.8499945,45.6458264],[-73.85102,45.6465334]]}";1;Rue Saint-Louis;1;50;false;true;false;false;false;false;239.5;0;0;0;0;0;false;82306;6119524704;-73.8498125;45.6457344;82316;6119524694;-73.8512174;45.6467726;1;7;8;9392092;Bus 60 : GARE STE-THÉRÈSE;"";EXO;60;du Domaine / devant la polyvalente Sainte-Thérèse;Gare Sainte-Thérèse
733901799;"{\"type\":\"LineString\",\"coordinates\":[[-73.85102,45.6465334],[-73.8517371,45.6470277]]}";2;Rue Saint-Louis;1;50;false;true;true;false;false;false;39.5;1;0;0;0;0;false;82306;6119524704;-73.8498125;45.6457344;82316;6119524694;-73.8512174;45.6467726;1;7;8;9392092;Bus 60 : GARE STE-THÉRÈSE;"";EXO;60;du Domaine / devant la polyvalente Sainte-Thérèse;Gare Sainte-Thérèse
733901799;"{\"type\":\"LineString\",\"coordinates\":[[-73.85102,45.6465334],[-73.8517371,45.6470277]]}";1;Rue Saint-Louis;1;50;false;true;true;false;false;false;39.5;1;0;0;0;0;false;82316;6119524694;-73.8512174;45.6467726;82317;6119524693;-73.8550524;45.6493266;1;8;9;9392092;Bus 60 : GARE STE-THÉRÈSE;"";EXO;60;du Domaine / devant la polyvalente Sainte-Thérèse;Gare Sainte-Thérèse
46424709;"{\"type\":\"LineString\",\"coordinates\":[[-73.8517371,45.6470277],[-73.8518282,45.6470897]]}";2;Boulevard des Mille-Îles Est;2;50;false;true;false;false;false;false;10.0;2;0;0;0;0;false;82316;6119524694;-73.8512174;45.6467726;82317;6119524693;-73.8550524;45.6493266;0;8;9;9392092;Bus 60 : GARE STE-THÉRÈSE;"";EXO;60;du Domaine / devant la polyvalente Sainte-Thérèse;Gare Sainte-Thérèse
46424706;"{\"type\":\"LineString\",\"coordinates\":[[-73.8518282,45.6470897],[-73.8527938,45.6477448],[-73.8543208,45.6487807],[-73.8551438,45.649339],[-73.8566372,45.6503521],[-73.8566471,45.6503588],[-73.8566802,45.6503813]]}";3;Boulevard des Mille-Îles Est;2;50;false;true;false;false;false;false;263.0;1;0;0;0;0;false;82316;6119524694;-73.8512174;45.6467726;82317;6119524693;-73.8550524;45.6493266;1;8;9;9392092;Bus 60 : GARE STE-THÉRÈSE;"";EXO;60;du Domaine / devant la polyvalente Sainte-Thérèse;Gare Sainte-Thérèse
273593869;"{\"type\":\"LineString\",\"coordinates\":[[-73.8566802,45.6503813],[-73.8567285,45.650414],[-73.8567672,45.6504402],[-73.8571662,45.6507105],[-73.8573857,45.6508591],[-73.8574951,45.6509332]]}";1;Boulevard des Mille-Îles Est;2;50;false;true;true;false;false;false;89.0;0;0;0;0;0;false;82318;6119524692;-73.8565645;45.6503415;82319;6119524691;-73.858581;45.6521356;2;10;11;9392092;Bus 60 : GARE STE-THÉRÈSE;"";EXO;60;du Domaine / devant la polyvalente Sainte-Thérèse;Gare Sainte-Thérèse
239363501;"{\"type\":\"LineString\",\"coordinates\":[[-73.8574951,45.6509332],[-73.8579678,45.6512466],[-73.8584228,45.6515932],[-73.8585101,45.6517201],[-73.8586553,45.6521536],[-73.8588173,45.6523892],[-73.859032,45.6525624],[-73.8594463,45.6528162],[-73.8597928,45.6530201],[-73.8608443,45.6536966],[-73.8616424,45.6542176],[-73.8617811,45.654336]]}";2;Boulevard des Mille-Îles Est;2;50;false;true;false;false;false;false;514.0;0;0;0;0;0;false;82318;6119524692;-73.8565645;45.6503415;82319;6119524691;-73.858581;45.6521356;2;10;11;9392092;Bus 60 : GARE STE-THÉRÈSE;"";EXO;60;du Domaine / devant la polyvalente Sainte-Thérèse;Gare Sainte-Thérèse
46424668;"{\"type\":\"LineString\",\"coordinates\":[[-73.8729229,45.6562017],[-73.8728889,45.6553372],[-73.8728178,45.6550395],[-73.8726179,45.6547675],[-73.8713262,45.6538997],[-73.8706805,45.6534612],[-73.8702247,45.6531507],[-73.8691862,45.6524564],[-73.8688316,45.6522188],[-73.8686429,45.6520279],[-73.8684684,45.6517742],[-73.8680134,45.6507327],[-73.8678645,45.6505351],[-73.867751,45.6504349],[-73.86712,45.6500003],[-73.8663586,45.649476],[-73.8660781,45.6493832],[-73.865196,45.6492125],[-73.8642321,45.6490309],[-73.8632666,45.6488533]]}";1;Boulevard des Mille-Îles Ouest;2;50;false;true;true;false;false;false;596.5;0;0;0;0;0;false;82330;4917847680;-73.865387;45.649137;82331;6119524379;-73.8613806;45.6475773;1;21;22;9392092;Bus 60 : GARE STE-THÉRÈSE;"";EXO;60;du Domaine / devant la polyvalente Sainte-Thérèse;Gare Sainte-Thérèse
788156803;"{\"type\":\"LineString\",\"coordinates\":[[-73.8632666,45.6488533],[-73.8629208,45.6487578],[-73.8626044,45.6485386]]}";2;Boulevard des Mille-Îles Ouest;2;50;false;true;true;false;false;false;64.0;0;0;0;0;0;false;82330;4917847680;-73.865387;45.649137;82331;6119524379;-73.8613806;45.6475773;0;21;22;9392092;Bus 60 : GARE STE-THÉRÈSE;"";EXO;60;du Domaine / devant la polyvalente Sainte-Thérèse;Gare Sainte-Thérèse
788156804;"{\"type\":\"LineString\",\"coordinates\":[[-73.8626044,45.6485386],[-73.8619961,45.6481204],[-73.8612085,45.6475822]]}";3;Boulevard des Mille-Îles Ouest;2;50;false;true;true;false;false;false;152.0;0;0;0;0;0;false;82330;4917847680;-73.865387;45.649137;82331;6119524379;-73.8613806;45.6475773;0;21;22;9392092;Bus 60 : GARE STE-THÉRÈSE;"";EXO;60;du Domaine / devant la polyvalente Sainte-Thérèse;Gare Sainte-Thérèse
676383648;"{\"type\":\"LineString\",\"coordinates\":[[-73.8612085,45.6475822],[-73.8618881,45.6471543],[-73.8625778,45.6466842],[-73.8629474,45.6461748],[-73.8634514,45.6454674],[-73.8637732,45.6450156],[-73.8637134,45.6448893]]}";4;Boulevard du Coteau;2;50;false;true;true;false;false;false;184.5;2;0;0;0;0;false;82330;4917847680;-73.865387;45.649137;82331;6119524379;-73.8613806;45.6475773;1;21;22;9392092;Bus 60 : GARE STE-THÉRÈSE;"";EXO;60;du Domaine / devant la polyvalente Sainte-Thérèse;Gare Sainte-Thérèse
788156804;"{\"type\":\"LineString\",\"coordinates\":[[-73.8626044,45.6485386],[-73.8619961,45.6481204],[-73.8612085,45.6475822]]}";1;Boulevard des Mille-Îles Ouest;2;50;false;true;true;false;false;false;152.0;0;0;0;0;0;false;82331;6119524379;-73.8613806;45.6475773;82174;6119525206;-73.860643;45.643848;2;22;23;9392092;Bus 60 : GARE STE-THÉRÈSE;"";EXO;60;du Domaine / devant la polyvalente Sainte-Thérèse;Gare Sainte-Thérèse
676383648;"{\"type\":\"LineString\",\"coordinates\":[[-73.8612085,45.6475822],[-73.8618881,45.6471543],[-73.8625778,45.6466842],[-73.8629474,45.6461748],[-73.8634514,45.6454674],[-73.8637732,45.6450156],[-73.8637134,45.6448893]]}";2;Boulevard du Coteau;2;50;false;true;true;false;false;false;369.0;2;0;0;0;0;false;82331;6119524379;-73.8613806;45.6475773;82174;6119525206;-73.860643;45.643848;0;22;23;9392092;Bus 60 : GARE STE-THÉRÈSE;"";EXO;60;du Domaine / devant la polyvalente Sainte-Thérèse;Gare Sainte-Thérèse
46424661;"{\"type\":\"LineString\",\"coordinates\":[[-73.8637134,45.6448893],[-73.8630798,45.6447006]]}";3;Rue Saint-Charles;2;50;false;true;true;false;false;false;54.0;1;0;0;0;0;false;82331;6119524379;-73.8613806;45.6475773;82174;6119525206;-73.860643;45.643848;0;22;23;9392092;Bus 60 : GARE STE-THÉRÈSE;"";EXO;60;du Domaine / devant la polyvalente Sainte-Thérèse;Gare Sainte-Thérèse
46424630;"{\"type\":\"LineString\",\"coordinates\":[[-73.8630798,45.6447006],[-73.8614055,45.6441869],[-73.8612719,45.6441459]]}";4;Rue Saint-Charles;2;50;false;true;true;false;false;false;154.0;2;0;0;0;0;false;82331;6119524379;-73.8613806;45.6475773;82174;6119525206;-73.860643;45.643848;0;22;23;9392092;Bus 60 : GARE STE-THÉRÈSE;"";EXO;60;du Domaine / devant la polyvalente Sainte-Thérèse;Gare Sainte-Thérèse
276152569;"{\"type\":\"LineString\",\"coordinates\":[[-73.8612719,45.6441459],[-73.8606823,45.643965]]}";5;Rue Saint-Charles;2;50;false;true;true;false;false;false;51.0;1;0;0;0;0;false;82331;6119524379;-73.8613806;45.6475773;82174;6119525206;-73.860643;45.643848;0;22;23;9392092;Bus 60 : GARE STE-THÉRÈSE;"";EXO;60;du Domaine / devant la polyvalente Sainte-Thérèse;Gare Sainte-Thérèse
46424683;"{\"type\":\"LineString\",\"coordinates\":[[-73.8606823,45.643965],[-73.8602135,45.6437664],[-73.8601241,45.643669],[-73.8600861,45.6435807],[-73.8600727,45.6433977]]}";6;"";1;50;false;true;true;false;false;false;87.0;0;0;0;0;0;false;82331;6119524379;-73.8613806;45.6475773;82174;6119525206;-73.860643;45.643848;2;22;23;9392092;Bus 60 : GARE STE-THÉRÈSE;"";EXO;60;du Domaine / devant la polyvalente Sainte-Thérèse;Gare Sainte-Thérèse
276152569;"{\"type\":\"LineString\",\"coordinates\":[[-73.8612719,45.6441459],[-73.8606823,45.643965]]}";1;Rue Saint-Charles;2;50;false;true;true;false;false;false;51.0;1;0;0;0;0;false;82174;6119525206;-73.860643;45.643848;83121;6119523004;-73.855224;45.642177;2;23;24;9392092;Bus 60 : GARE STE-THÉRÈSE;"";EXO;60;du Domaine / devant la polyvalente Sainte-Thérèse;Gare Sainte-Thérèse
46424683;"{\"type\":\"LineString\",\"coordinates\":[[-73.8606823,45.643965],[-73.8602135,45.6437664],[-73.8601241,45.643669],[-73.8600861,45.6435807],[-73.8600727,45.6433977]]}";2;"";1;50;false;true;true;false;false;false;87.0;0;0;0;0;0;false;82174;6119525206;-73.860643;45.643848;83121;6119523004;-73.855224;45.642177;0;23;24;9392092;Bus 60 : GARE STE-THÉRÈSE;"";EXO;60;du Domaine / devant la polyvalente Sainte-Thérèse;Gare Sainte-Thérèse
43204691;"{\"type\":\"LineString\",\"coordinates\":[[-73.8600727,45.6433977],[-73.8600886,45.6433126],[-73.8600559,45.6432333],[-73.8599933,45.6431807],[-73.8598225,45.6431001],[-73.8597046,45.643063],[-73.8593933,45.642965],[-73.8587253,45.6425963],[-73.857737,45.6420507],[-73.8571006,45.6416807],[-73.8564438,45.6412353]]}";3;Rue Sicard;2;50;false;true;true;false;false;false;379.0;0;0;0;0;0;false;82174;6119525206;-73.860643;45.643848;83121;6119523004;-73.855224;45.642177;0;23;24;9392092;Bus 60 : GARE STE-THÉRÈSE;"";EXO;60;du Domaine / devant la polyvalente Sainte-Thérèse;Gare Sainte-Thérèse
297085931;"{\"type\":\"LineString\",\"coordinates\":[[-73.85636,45.6413386],[-73.8564438,45.6412353]]}";4;Rue Mayer;1;50;false;false;true;false;false;false;14.0;0;0;0;0;0;false;82174;6119525206;-73.860643;45.643848;83121;6119523004;-73.855224;45.642177;0;23;24;9392092;Bus 60 : GARE STE-THÉRÈSE;"";EXO;60;du Domaine / devant la polyvalente Sainte-Thérèse;Gare Sainte-Thérèse
43205290;"{\"type\":\"LineString\",\"coordinates\":[[-73.8552922,45.6423255],[-73.8553991,45.6421229],[-73.8554968,45.6420243],[-73.85636,45.6413386]]}";5;Rue Mayer;1;50;false;false;true;false;false;false;139.0;0;0;0;0;0;false;82174;6119525206;-73.860643;45.643848;83121;6119523004;-73.855224;45.642177;2;23;24;9392092;Bus 60 : GARE STE-THÉRÈSE;"";EXO;60;du Domaine / devant la polyvalente Sainte-Thérèse;Gare Sainte-Thérèse
233515039;"{\"type\":\"LineString\",\"coordinates\":[[-73.8446447,45.6408857],[-73.845017,45.64083],[-73.8454557,45.6407611],[-73.8459229,45.6407186],[-73.846445,45.64071],[-73.8472946,45.6408597],[-73.847843,45.640952],[-73.8491585,45.6412505],[-73.8493154,45.641286],[-73.8493643,45.6412971],[-73.849409,45.6413073],[-73.851162,45.641705],[-73.8515986,45.6417817],[-73.8523571,45.6419284],[-73.8532148,45.6420809],[-73.8547763,45.6422453],[-73.8552922,45.6423255]]}";1;Rue Saint-Charles;1;50;false;false;true;false;false;false;428.0;1;0;0;0;0;false;82821;6119523790;-73.845456;45.640531;82121;6119525236;-73.844238;45.640259;1;27;28;9392092;Bus 60 : GARE STE-THÉRÈSE;"";EXO;60;du Domaine / devant la polyvalente Sainte-Thérèse;Gare Sainte-Thérèse
46493584;"{\"type\":\"LineString\",\"coordinates\":[[-73.8438792,45.6396826],[-73.8439119,45.6399256],[-73.8439693,45.6400621],[-73.84412,45.640292],[-73.8446447,45.6408857]]}";2;Rue de l'Église;2;50;false;false;false;false;false;false;74.5;2;0;0;0;0;false;82821;6119523790;-73.845456;45.640531;82121;6119525236;-73.844238;45.640259;1;27;28;9392092;Bus 60 : GARE STE-THÉRÈSE;"";EXO;60;du Domaine / devant la polyvalente Sainte-Thérèse;Gare Sainte-Thérèse
46493584;"{\"type\":\"LineString\",\"coordinates\":[[-73.8438792,45.6396826],[-73.8439119,45.6399256],[-73.8439693,45.6400621],[-73.84412,45.640292],[-73.8446447,45.6408857]]}";1;Rue de l'Église;2;50;false;false;false;false;false;false;74.5;2;0;0;0;0;false;82121;6119525236;-73.844238;45.640259;82332;6119524378;-73.841611;45.639479;1;28;29;9392092;Bus 60 : GARE STE-THÉRÈSE;"";EXO;60;du Domaine / devant la polyvalente Sainte-Thérèse;Gare Sainte-Thérèse
676383645;"{\"type\":\"LineString\",\"coordinates\":[[-73.8415949,45.6395102],[-73.8431476,45.6396409],[-73.84332,45.6396554],[-73.84337,45.6396596],[-73.8438792,45.6396826]]}";2;Rue Blainville Ouest;2;40;false;false;true;false;false;false;90.0;2;0;0;0;0;false;82121;6119525236;-73.844238;45.640259;82332;6119524378;-73.841611;45.639479;1;28;29;9392092;Bus 60 : GARE STE-THÉRÈSE;"";EXO;60;du Domaine / devant la polyvalente Sainte-Thérèse;Gare Sainte-Thérèse
676554967;"{\"type\":\"LineString\",\"coordinates\":[[-73.8358544,45.6389789],[-73.8364076,45.6389668],[-73.837478,45.639033],[-73.8380776,45.6390924],[-73.8390684,45.6392265],[-73.8391741,45.6392388],[-73.8397097,45.6393095],[-73.8401016,45.639367],[-73.8407412,45.6394304],[-73.8415949,45.6395102]]}";1;Rue Blainville Est;1;40;false;false;true;false;false;false;226.5;1;0;0;0;0;false;82334;6119524376;-73.836572;45.638851;82335;6119524375;-73.832768;45.639173;1;31;32;9392092;Bus 60 : GARE STE-THÉRÈSE;"";EXO;60;du Domaine / devant la polyvalente Sainte-Thérèse;Gare Sainte-Thérèse
24677490;"{\"type\":\"LineString\",\"coordinates\":[[-73.8286642,45.6393521],[-73.8292969,45.639503],[-73.829695,45.6395832],[-73.8298734,45.63961],[-73.8302846,45.6396178],[-73.8305716,45.6395878],[-73.8324486,45.6393142],[-73.8325804,45.6392984],[-73.8335681,45.6391819],[-73.8358544,45.6389789]]}";2;Rue Blainville Est;2;40;false;false;true;false;false;false;285.5;0;0;0;0;0;false;82334;6119524376;-73.836572;45.638851;82335;6119524375;-73.832768;45.639173;1;31;32;9392092;Bus 60 : GARE STE-THÉRÈSE;"";EXO;60;du Domaine / devant la polyvalente Sainte-Thérèse;Gare Sainte-Thérèse
24677490;"{\"type\":\"LineString\",\"coordinates\":[[-73.8286642,45.6393521],[-73.8292969,45.639503],[-73.829695,45.6395832],[-73.8298734,45.63961],[-73.8302846,45.6396178],[-73.8305716,45.6395878],[-73.8324486,45.6393142],[-73.8325804,45.6392984],[-73.8335681,45.6391819],[-73.8358544,45.6389789]]}";1;Rue Blainville Est;2;40;false;false;true;false;false;false;285.5;0;0;0;0;0;false;82335;6119524375;-73.832768;45.639173;82336;6119524374;-73.828049;45.639139;1;32;33;9392092;Bus 60 : GARE STE-THÉRÈSE;"";EXO;60;du Domaine / devant la polyvalente Sainte-Thérèse;Gare Sainte-Thérèse
438840162;"{\"type\":\"LineString\",\"coordinates\":[[-73.8277773,45.6391586],[-73.8286642,45.6393521]]}";2;Rue Blainville Est;2;50;false;false;true;false;false;false;36.5;1;0;0;0;0;false;82335;6119524375;-73.832768;45.639173;82336;6119524374;-73.828049;45.639139;1;32;33;9392092;Bus 60 : GARE STE-THÉRÈSE;"";EXO;60;du Domaine / devant la polyvalente Sainte-Thérèse;Gare Sainte-Thérèse
438840162;"{\"type\":\"LineString\",\"coordinates\":[[-73.8277773,45.6391586],[-73.8286642,45.6393521]]}";1;Rue Blainville Est;2;50;false;false;true;false;false;false;36.5;1;0;0;0;0;false;82336;6119524374;-73.828049;45.639139;82337;6119524373;-73.825606;45.637741;1;33;34;9392092;Bus 60 : GARE STE-THÉRÈSE;"";EXO;60;du Domaine / devant la polyvalente Sainte-Thérèse;Gare Sainte-Thérèse
46493758;"{\"type\":\"LineString\",\"coordinates\":[[-73.8277773,45.6391586],[-73.8261959,45.6380802],[-73.8256247,45.6377863]]}";2;Boulevard Curé-Labelle;2;50;false;true;true;false;false;false;227.0;1;0;0;0;0;false;82336;6119524374;-73.828049;45.639139;82337;6119524373;-73.825606;45.637741;0;33;34;9392092;Bus 60 : GARE STE-THÉRÈSE;"";EXO;60;du Domaine / devant la polyvalente Sainte-Thérèse;Gare Sainte-Thérèse
46493752;"{\"type\":\"LineString\",\"coordinates\":[[-73.8256247,45.6377863],[-73.8240921,45.6367178]]}";3;Boulevard Curé-Labelle;4;50;false;false;true;false;false;false;84.5;0;0;0;0;0;false;82336;6119524374;-73.828049;45.639139;82337;6119524373;-73.825606;45.637741;1;33;34;9392092;Bus 60 : GARE STE-THÉRÈSE;"";EXO;60;du Domaine / devant la polyvalente Sainte-Thérèse;Gare Sainte-Thérèse
46493758;"{\"type\":\"LineString\",\"coordinates\":[[-73.8277773,45.6391586],[-73.8261959,45.6380802],[-73.8256247,45.6377863]]}";1;Boulevard Curé-Labelle;2;50;false;true;true;false;false;false;227.0;1;0;0;0;0;false;82337;6119524373;-73.825606;45.637741;82033;6119525319;-73.822636;45.634986;2;34;35;9392092;Bus 60 : GARE STE-THÉRÈSE;"";EXO;60;du Domaine / devant la polyvalente Sainte-Thérèse;Gare Sainte-Thérèse
46493752;"{\"type\":\"LineString\",\"coordinates\":[[-73.8256247,45.6377863],[-73.8240921,45.6367178]]}";2;Boulevard Curé-Labelle;4;50;false;false;true;false;false;false;169.0;0;0;0;0;0;false;82337;6119524373;-73.825606;45.637741;82033;6119525319;-73.822636;45.634986;0;34;35;9392092;Bus 60 : GARE STE-THÉRÈSE;"";EXO;60;du Domaine / devant la polyvalente Sainte-Thérèse;Gare Sainte-Thérèse
44625812;"{\"type\":\"LineString\",\"coordinates\":[[-73.8240921,45.6367178],[-73.8233154,45.636221]]}";3;Boulevard Curé-Labelle;4;50;false;false;true;false;false;false;82.0;0;0;0;0;0;false;82337;6119524373;-73.825606;45.637741;82033;6119525319;-73.822636;45.634986;0;34;35;9392092;Bus 60 : GARE STE-THÉRÈSE;"";EXO;60;du Domaine / devant la polyvalente Sainte-Thérèse;Gare Sainte-Thérèse
44625813;"{\"type\":\"LineString\",\"coordinates\":[[-73.8233154,45.636221],[-73.8226035,45.6357059]]}";4;Boulevard Curé-Labelle;4;50;false;true;true;false;false;false;80.0;0;0;0;0;0;false;82337;6119524373;-73.825606;45.637741;82033;6119525319;-73.822636;45.634986;0;34;35;9392092;Bus 60 : GARE STE-THÉRÈSE;"";EXO;60;du Domaine / devant la polyvalente Sainte-Thérèse;Gare Sainte-Thérèse
676299803;"{\"type\":\"LineString\",\"coordinates\":[[-73.8226035,45.6357059],[-73.821862,45.635093],[-73.8218171,45.6349743],[-73.8218421,45.6348458],[-73.8219389,45.634754],[-73.8220742,45.6347142],[-73.8222244,45.6346836]]}";5;Boulevard Desjardins Est;2;50;false;true;true;false;false;false;154.0;0;0;0;0;0;false;82337;6119524373;-73.825606;45.637741;82033;6119525319;-73.822636;45.634986;0;34;35;9392092;Bus 60 : GARE STE-THÉRÈSE;"";EXO;60;du Domaine / devant la polyvalente Sainte-Thérèse;Gare Sainte-Thérèse
24783787;"{\"type\":\"LineString\",\"coordinates\":[[-73.8222244,45.6346836],[-73.8224752,45.6346844],[-73.8227957,45.6347287],[-73.8237039,45.6348755],[-73.8242893,45.6349395],[-73.8246625,45.6349529],[-73.8249806,45.6349644],[-73.82603,45.6349616],[-73.826275,45.63497],[-73.8265576,45.6349691],[-73.8277393,45.6349655],[-73.8279516,45.6349649],[-73.828371,45.6349636],[-73.828543,45.6349631],[-73.8288256,45.6349593],[-73.8295015,45.6349502],[-73.8297348,45.634928],[-73.83011,45.6348568],[-73.8303031,45.6348021],[-73.830473,45.6347483],[-73.8306253,45.634692],[-73.8308909,45.6346017],[-73.8312648,45.6344038],[-73.8312914,45.6343832]]}";6;Boulevard Desjardins Est;2;40;false;true;true;false;false;false;726.0;0;0;0;0;0;false;82337;6119524373;-73.825606;45.637741;82033;6119525319;-73.822636;45.634986;2;34;35;9392092;Bus 60 : GARE STE-THÉRÈSE;"";EXO;60;du Domaine / devant la polyvalente Sainte-Thérèse;Gare Sainte-Thérèse
24783787;"{\"type\":\"LineString\",\"coordinates\":[[-73.8222244,45.6346836],[-73.8224752,45.6346844],[-73.8227957,45.6347287],[-73.8237039,45.6348755],[-73.8242893,45.6349395],[-73.8246625,45.6349529],[-73.8249806,45.6349644],[-73.82603,45.6349616],[-73.826275,45.63497],[-73.8265576,45.6349691],[-73.8277393,45.6349655],[-73.8279516,45.6349649],[-73.828371,45.6349636],[-73.828543,45.6349631],[-73.8288256,45.6349593],[-73.8295015,45.6349502],[-73.8297348,45.634928],[-73.83011,45.6348568],[-73.8303031,45.6348021],[-73.830473,45.6347483],[-73.8306253,45.634692],[-73.8308909,45.6346017],[-73.8312648,45.6344038],[-73.8312914,45.6343832]]}";1;Boulevard Desjardins Est;2;40;false;true;true;false;false;false;363.0;0;0;0;0;0;false;82844;6119523785;-73.829385;45.634908;82035;6119525317;-73.834747;45.635784;1;37;38;9392092;Bus 60 : GARE STE-THÉRÈSE;"";EXO;60;du Domaine / devant la polyvalente Sainte-Thérèse;Gare Sainte-Thérèse
653256415;"{\"type\":\"LineString\",\"coordinates\":[[-73.8312914,45.6343832],[-73.8319665,45.6348309],[-73.8321067,45.6349239],[-73.8322795,45.6350385],[-73.8326436,45.6352799],[-73.8329976,45.6355146]]}";2;Rue Saint-Alphonse;1;50;false;false;true;false;false;false;183.0;0;0;0;0;0;false;82844;6119523785;-73.829385;45.634908;82035;6119525317;-73.834747;45.635784;0;37;38;9392092;Bus 60 : GARE STE-THÉRÈSE;"";EXO;60;du Domaine / devant la polyvalente Sainte-Thérèse;Gare Sainte-Thérèse
529203724;"{\"type\":\"LineString\",\"coordinates\":[[-73.8339481,45.6356843],[-73.8337953,45.6356449],[-73.8337255,45.6356355],[-73.8335183,45.6356418],[-73.8331872,45.6356518],[-73.8329976,45.6355146]]}";3;"";1;50;false;false;true;false;false;false;82.0;0;0;0;0;0;false;82844;6119523785;-73.829385;45.634908;82035;6119525317;-73.834747;45.635784;0;37;38;9392092;Bus 60 : GARE STE-THÉRÈSE;"";EXO;60;du Domaine / devant la polyvalente Sainte-Thérèse;Gare Sainte-Thérèse
529203723;"{\"type\":\"LineString\",\"coordinates\":[[-73.8339481,45.6356843],[-73.8343198,45.635673],[-73.8355432,45.6356357],[-73.835722,45.6356303],[-73.8358794,45.6356222],[-73.8360357,45.6356141]]}";4;"";1;50;false;true;true;false;false;false;163.0;0;0;0;0;0;false;82844;6119523785;-73.829385;45.634908;82035;6119525317;-73.834747;45.635784;0;37;38;9392092;Bus 60 : GARE STE-THÉRÈSE;"";EXO;60;du Domaine / devant la polyvalente Sainte-Thérèse;Gare Sainte-Thérèse
293537867;"{\"type\":\"LineString\",\"coordinates\":[[-73.8360357,45.6356141],[-73.8360384,45.635693],[-73.8360089,45.6357774],[-73.8359547,45.6358045],[-73.8358842,45.6358399]]}";5;"";1;50;false;true;true;false;false;false;31.0;0;0;0;0;0;false;82844;6119523785;-73.829385;45.634908;82035;6119525317;-73.834747;45.635784;0;37;38;9392092;Bus 60 : GARE STE-THÉRÈSE;"";EXO;60;du Domaine / devant la polyvalente Sainte-Thérèse;Gare Sainte-Thérèse
676299802;"{\"type\":\"LineString\",\"coordinates\":[[-73.8358842,45.6358399],[-73.8355794,45.6358509],[-73.834757,45.6358805]]}";6;"";1;50;false;true;true;false;false;false;88.0;0;0;0;0;0;false;82844;6119523785;-73.829385;45.634908;82035;6119525317;-73.834747;45.635784;1;37;38;9392092;Bus 60 : GARE STE-THÉRÈSE;"";EXO;60;du Domaine / devant la polyvalente Sainte-Thérèse;Gare Sainte-Thérèse
