way_id;shape;index;name;nb_lanes;legal_speed;speed_zone_30;oneway;shares_bike;bike_box;bus_lane;dedicated_bus_lane;length;nb_traffic_signals;nb_crossings;nb_stops;nb_give_ways;nb_lvl_crossings;roundabout;stop_id_orig;node_id_orig;coord_x_orig;coord_y_orig;stop_id_dest;node_id_dest;coord_x_dest;coord_y_dest;nb_neighbouring_ways_bus_stop;ordre_orig;ordre_dest;id_line;line_name;colour;operator;ref;from;to
49156278;"{\"type\":\"LineString\",\"coordinates\":[[-73.3857271,45.6281247],[-73.3830417,45.6298718],[-73.3829206,45.6299506],[-73.3821901,45.6303889],[-73.382014,45.6304945],[-73.3819222,45.6305447],[-73.3815621,45.6307418],[-73.3808553,45.6311284],[-73.380555,45.6312733],[-73.3802838,45.6314042],[-73.3795948,45.6318292],[-73.3795136,45.6319012],[-73.3791993,45.6321799],[-73.3788433,45.6324668],[-73.3781907,45.632965],[-73.3781611,45.6330168],[-73.3781713,45.6330945],[-73.3783614,45.6332679],[-73.3819228,45.6359458]]}";1;Rue Jean Coutu;2;50;false;false;true;false;false;false;1245.0;0;0;0;0;0;false;70031;6133410513;-73.378736;45.632278;70000;3395466650;-73.522601;45.524188;1;4;5;9622352;Bus 707 : Direction Longueuil;"";EXO;707 O;Terminus de Sorel;Terminus Longueuil
692278950;"{\"type\":\"LineString\",\"coordinates\":[[-73.3911038,45.6323057],[-73.3909115,45.632449],[-73.3904395,45.6326553],[-73.3895487,45.6329792],[-73.3869122,45.6339312],[-73.3846742,45.6347393],[-73.3819228,45.6359458]]}";2;Chemin de l'Énergie;1;50;false;false;true;false;false;false;824.0;0;0;0;0;0;false;70031;6133410513;-73.378736;45.632278;70000;3395466650;-73.522601;45.524188;0;4;5;9622352;Bus 707 : Direction Longueuil;"";EXO;707 O;Terminus de Sorel;Terminus Longueuil
692278948;"{\"type\":\"LineString\",\"coordinates\":[[-73.4048023,45.6429459],[-73.403943,45.6422785],[-73.3911038,45.6323057]]}";3;Boulevard Lionel-Boulet;2;50;false;false;false;false;false;false;1593.0;0;0;0;0;0;false;70031;6133410513;-73.378736;45.632278;70000;3395466650;-73.522601;45.524188;0;4;5;9622352;Bus 707 : Direction Longueuil;"";EXO;707 O;Terminus de Sorel;Terminus Longueuil
472637019;"{\"type\":\"LineString\",\"coordinates\":[[-73.4230036,45.632418],[-73.421093,45.633086],[-73.4200115,45.6334761],[-73.4195995,45.6335841],[-73.4190931,45.6335841],[-73.4169474,45.6335481],[-73.4166899,45.6336081],[-73.4165092,45.6336839],[-73.4157458,45.6340042],[-73.4146128,45.6344123],[-73.4134884,45.6351265],[-73.4130421,45.6353306],[-73.4118748,45.6356907],[-73.4109049,45.6359547],[-73.410553,45.6360928],[-73.4103041,45.6362608],[-73.4091282,45.6376831],[-73.4069138,45.6403956],[-73.4048023,45.6429459]]}";4;Chemin du Général-Vanier;1;50;false;false;true;false;false;false;1964.0;0;0;0;0;0;false;70031;6133410513;-73.378736;45.632278;70000;3395466650;-73.522601;45.524188;0;4;5;9622352;Bus 707 : Direction Longueuil;"";EXO;707 O;Terminus de Sorel;Terminus Longueuil
472637017;"{\"type\":\"LineString\",\"coordinates\":[[-73.4238716,45.6320841],[-73.4236764,45.6321581],[-73.4236371,45.632173],[-73.4230036,45.632418]]}";5;Chemin du Général-Vanier;1;50;false;false;true;false;false;false;78.0;0;0;1;0;0;false;70031;6133410513;-73.378736;45.632278;70000;3395466650;-73.522601;45.524188;0;4;5;9622352;Bus 707 : Direction Longueuil;"";EXO;707 O;Terminus de Sorel;Terminus Longueuil
472637018;"{\"type\":\"LineString\",\"coordinates\":[[-73.4241578,45.6320004],[-73.4238716,45.6320841]]}";6;Chemin du Général-Vanier;1;50;false;false;true;false;false;false;25.0;0;0;0;0;0;false;70031;6133410513;-73.378736;45.632278;70000;3395466650;-73.522601;45.524188;0;4;5;9622352;Bus 707 : Direction Longueuil;"";EXO;707 O;Terminus de Sorel;Terminus Longueuil
472637013;"{\"type\":\"LineString\",\"coordinates\":[[-73.4241578,45.6320004],[-73.4241991,45.6318757],[-73.4243544,45.6314079],[-73.4244124,45.6312496],[-73.4244835,45.6310622],[-73.4246134,45.6307697]]}";7;Route 132;3;90;false;true;true;false;false;false;142.0;0;0;0;0;0;false;70031;6133410513;-73.378736;45.632278;70000;3395466650;-73.522601;45.524188;0;4;5;9622352;Bus 707 : Direction Longueuil;"";EXO;707 O;Terminus de Sorel;Terminus Longueuil
751928535;"{\"type\":\"LineString\",\"coordinates\":[[-73.4246134,45.6307697],[-73.4247361,45.6305124]]}";8;Route 132;3;90;false;true;true;false;false;false;31.0;0;0;0;0;0;false;70031;6133410513;-73.378736;45.632278;70000;3395466650;-73.522601;45.524188;0;4;5;9622352;Bus 707 : Direction Longueuil;"";EXO;707 O;Terminus de Sorel;Terminus Longueuil
751928533;"{\"type\":\"LineString\",\"coordinates\":[[-73.4247361,45.6305124],[-73.4248127,45.6303564],[-73.4248854,45.6302166],[-73.4250227,45.6299857],[-73.4251443,45.6297855],[-73.4252587,45.6296063],[-73.4253631,45.6294504],[-73.4254484,45.6293287],[-73.4255387,45.6291997],[-73.4257003,45.6289919],[-73.4258827,45.628767],[-73.4263885,45.628178],[-73.427592,45.6267911],[-73.429206,45.6249409]]}";9;Route 132;2;90;false;true;true;false;false;false;712.0;0;0;0;0;0;false;70031;6133410513;-73.378736;45.632278;70000;3395466650;-73.522601;45.524188;0;4;5;9622352;Bus 707 : Direction Longueuil;"";EXO;707 O;Terminus de Sorel;Terminus Longueuil
752686985;"{\"type\":\"LineString\",\"coordinates\":[[-73.429206,45.6249409],[-73.4294172,45.6246988],[-73.4298789,45.6241602],[-73.4308704,45.6230158],[-73.4311708,45.6226763],[-73.4314696,45.6223248],[-73.4326006,45.6210355],[-73.4326475,45.620982],[-73.4334964,45.6200011],[-73.4348023,45.6185015],[-73.4356314,45.6175545],[-73.4372845,45.6156447],[-73.4378092,45.6150411],[-73.4388079,45.6138347],[-73.4389605,45.6136503]]}";10;Route 132;2;90;false;true;true;false;true;false;1467.0;0;0;0;0;0;false;70031;6133410513;-73.378736;45.632278;70000;3395466650;-73.522601;45.524188;0;4;5;9622352;Bus 707 : Direction Longueuil;"";EXO;707 O;Terminus de Sorel;Terminus Longueuil
751863585;"{\"type\":\"LineString\",\"coordinates\":[[-73.4389605,45.6136503],[-73.4396347,45.6128738]]}";11;Route 132;4;90;false;true;true;false;false;false;101.0;0;0;0;0;0;false;70031;6133410513;-73.378736;45.632278;70000;3395466650;-73.522601;45.524188;0;4;5;9622352;Bus 707 : Direction Longueuil;"";EXO;707 O;Terminus de Sorel;Terminus Longueuil
469470384;"{\"type\":\"LineString\",\"coordinates\":[[-73.4396347,45.6128738],[-73.4399176,45.6125585],[-73.4399446,45.6125284],[-73.4400521,45.6124128]]}";12;Route 132;2;90;false;true;true;false;false;false;61.0;1;0;0;0;0;false;70031;6133410513;-73.378736;45.632278;70000;3395466650;-73.522601;45.524188;0;4;5;9622352;Bus 707 : Direction Longueuil;"";EXO;707 O;Terminus de Sorel;Terminus Longueuil
469470385;"{\"type\":\"LineString\",\"coordinates\":[[-73.4400521,45.6124128],[-73.4404717,45.6119614]]}";13;Route 132;3;90;false;true;true;false;false;false;60.0;0;0;0;0;0;false;70031;6133410513;-73.378736;45.632278;70000;3395466650;-73.522601;45.524188;0;4;5;9622352;Bus 707 : Direction Longueuil;"";EXO;707 O;Terminus de Sorel;Terminus Longueuil
24351601;"{\"type\":\"LineString\",\"coordinates\":[[-73.4404717,45.6119614],[-73.4406102,45.6117935],[-73.4408458,45.611517],[-73.4413151,45.6109839],[-73.4416227,45.6106247]]}";14;Route 132;3;90;false;true;true;false;false;false;174.0;0;0;0;0;0;false;70031;6133410513;-73.378736;45.632278;70000;3395466650;-73.522601;45.524188;0;4;5;9622352;Bus 707 : Direction Longueuil;"";EXO;707 O;Terminus de Sorel;Terminus Longueuil
751932232;"{\"type\":\"LineString\",\"coordinates\":[[-73.4416227,45.6106247],[-73.4419854,45.6101932],[-73.4422127,45.6099109],[-73.4423804,45.6096675],[-73.4425123,45.6094363],[-73.4426309,45.6091964],[-73.4427143,45.6089934],[-73.4427721,45.6088202],[-73.4428753,45.6084093],[-73.4429107,45.6082366],[-73.4429307,45.60807],[-73.4429468,45.6078393],[-73.4429509,45.6076094],[-73.4429273,45.6070297],[-73.4429002,45.6065783],[-73.4429053,45.6062105],[-73.442928,45.6059801],[-73.4429577,45.6058142],[-73.4430137,45.6056124],[-73.4430611,45.6054545],[-73.443113,45.6053214],[-73.4431518,45.6052113],[-73.4432203,45.605072],[-73.443332,45.6048735],[-73.4434403,45.6047033],[-73.4435367,45.604567],[-73.4436678,45.6044001],[-73.443784,45.6042667],[-73.4439465,45.6040994],[-73.4440926,45.6039621],[-73.4442813,45.6037988],[-73.4447331,45.6034415],[-73.4452696,45.6030749]]}";15;Route 132;2;90;false;true;true;false;false;false;917.0;0;0;0;0;0;false;70031;6133410513;-73.378736;45.632278;70000;3395466650;-73.522601;45.524188;0;4;5;9622352;Bus 707 : Direction Longueuil;"";EXO;707 O;Terminus de Sorel;Terminus Longueuil
690006347;"{\"type\":\"LineString\",\"coordinates\":[[-73.4452696,45.6030749],[-73.4457033,45.6027841]]}";16;Route 132;2;100;false;true;true;false;false;false;47.0;0;0;0;0;0;false;70031;6133410513;-73.378736;45.632278;70000;3395466650;-73.522601;45.524188;0;4;5;9622352;Bus 707 : Direction Longueuil;"";EXO;707 O;Terminus de Sorel;Terminus Longueuil
567727174;"{\"type\":\"LineString\",\"coordinates\":[[-73.4457033,45.6027841],[-73.4463391,45.6023661],[-73.4471945,45.6018435],[-73.4480709,45.6013186],[-73.4485685,45.6010027],[-73.4493767,45.6005191],[-73.4502073,45.6000209],[-73.4518864,45.5990124],[-73.453585,45.5980313]]}";17;Route 132;2;100;false;true;true;false;false;false;811.0;0;0;0;0;0;false;70031;6133410513;-73.378736;45.632278;70000;3395466650;-73.522601;45.524188;0;4;5;9622352;Bus 707 : Direction Longueuil;"";EXO;707 O;Terminus de Sorel;Terminus Longueuil
148279853;"{\"type\":\"LineString\",\"coordinates\":[[-73.453585,45.5980313],[-73.4556728,45.596787],[-73.4605841,45.5937361],[-73.4650902,45.5899822],[-73.4656553,45.5895475]]}";18;Route 132;2;100;false;true;true;false;false;false;1336.0;0;0;0;0;0;false;70031;6133410513;-73.378736;45.632278;70000;3395466650;-73.522601;45.524188;0;4;5;9622352;Bus 707 : Direction Longueuil;"";EXO;707 O;Terminus de Sorel;Terminus Longueuil
39452101;"{\"type\":\"LineString\",\"coordinates\":[[-73.4656553,45.5895475],[-73.4672033,45.5882801],[-73.4692387,45.5865355],[-73.469762,45.5858516],[-73.4701869,45.5852543],[-73.4707074,45.5843943],[-73.4709523,45.5839767],[-73.4713788,45.5831819],[-73.471825,45.5824453],[-73.47226,45.5817886],[-73.4725432,45.5814402],[-73.472819,45.5811433],[-73.4731637,45.5808345],[-73.4735045,45.5805534],[-73.4739234,45.5802708],[-73.4746632,45.5798062],[-73.4752812,45.5794037],[-73.4757962,45.5790372],[-73.4763038,45.5786503]]}";19;Route 132;2;100;false;true;false;false;false;false;1487.0;0;0;0;0;0;false;70031;6133410513;-73.378736;45.632278;70000;3395466650;-73.522601;45.524188;0;4;5;9622352;Bus 707 : Direction Longueuil;"";EXO;707 O;Terminus de Sorel;Terminus Longueuil
19785171;"{\"type\":\"LineString\",\"coordinates\":[[-73.4763038,45.5786503],[-73.4776712,45.5774315],[-73.4785996,45.5765957],[-73.4806879,45.5748293],[-73.4824888,45.5732742],[-73.4838355,45.5721236],[-73.4846286,45.5714777],[-73.4852828,45.570907],[-73.4860454,45.5702177],[-73.4866684,45.5695828],[-73.4874447,45.5687875],[-73.4884328,45.5677502],[-73.488826,45.5672787],[-73.4896401,45.5663288],[-73.4902819,45.5654599],[-73.4909273,45.5646241],[-73.4911786,45.5642046],[-73.4921447,45.5626369],[-73.4928727,45.5616424],[-73.4933761,45.5609791],[-73.4940206,45.5601339],[-73.4943267,45.5597498],[-73.4953003,45.5585886],[-73.4963657,45.5573095],[-73.4980574,45.5552456],[-73.4990801,45.5539921],[-73.5001792,45.5526602],[-73.5011394,45.5515427],[-73.5021627,45.5503187]]}";20;Autoroute René-Levesque;3;100;false;true;true;false;false;false;3752.0;0;0;0;0;0;false;70031;6133410513;-73.378736;45.632278;70000;3395466650;-73.522601;45.524188;0;4;5;9622352;Bus 707 : Direction Longueuil;"";EXO;707 O;Terminus de Sorel;Terminus Longueuil
689748826;"{\"type\":\"LineString\",\"coordinates\":[[-73.5021627,45.5503187],[-73.5025543,45.5498384],[-73.5036218,45.5486609],[-73.5044977,45.5476804],[-73.5054103,45.5467363]]}";21;Autoroute René-Levesque;3;100;false;true;true;false;false;false;472.0;0;0;0;0;0;false;70031;6133410513;-73.378736;45.632278;70000;3395466650;-73.522601;45.524188;0;4;5;9622352;Bus 707 : Direction Longueuil;"";EXO;707 O;Terminus de Sorel;Terminus Longueuil
685121043;"{\"type\":\"LineString\",\"coordinates\":[[-73.5054103,45.5467363],[-73.5062442,45.5458564],[-73.5071746,45.5448793],[-73.5084193,45.5435714],[-73.5100528,45.5419827],[-73.5104569,45.5416335],[-73.5107712,45.54137],[-73.5114028,45.5408868],[-73.5128156,45.5398615],[-73.5136993,45.5392449],[-73.5146451,45.538535],[-73.5156691,45.5377627],[-73.516264,45.5372571],[-73.5167127,45.5367673],[-73.5186691,45.5344472],[-73.5189937,45.5340787]]}";22;Autoroute René-Levesque;3;100;false;true;true;false;false;false;1768.0;0;0;0;0;0;false;70031;6133410513;-73.378736;45.632278;70000;3395466650;-73.522601;45.524188;0;4;5;9622352;Bus 707 : Direction Longueuil;"";EXO;707 O;Terminus de Sorel;Terminus Longueuil
42294710;"{\"type\":\"LineString\",\"coordinates\":[[-73.5189937,45.5340787],[-73.5197701,45.533312],[-73.520165,45.5330174],[-73.5205426,45.532813],[-73.5209289,45.5326915],[-73.5214272,45.5326145],[-73.5217598,45.53256],[-73.5219207,45.5325224],[-73.5221111,45.5324698],[-73.5221889,45.5324435],[-73.5222533,45.5324153],[-73.5223284,45.5323759],[-73.5224088,45.5323251],[-73.5225456,45.5322331]]}";23;"";1;50;false;true;true;false;false;false;359.0;0;0;0;0;0;false;70031;6133410513;-73.378736;45.632278;70000;3395466650;-73.522601;45.524188;0;4;5;9622352;Bus 707 : Direction Longueuil;"";EXO;707 O;Terminus de Sorel;Terminus Longueuil
453297309;"{\"type\":\"LineString\",\"coordinates\":[[-73.5225456,45.5322331],[-73.5230284,45.5318404]]}";24;"";1;50;false;true;true;false;false;false;58.0;0;0;0;0;0;false;70031;6133410513;-73.378736;45.632278;70000;3395466650;-73.522601;45.524188;0;4;5;9622352;Bus 707 : Direction Longueuil;"";EXO;707 O;Terminus de Sorel;Terminus Longueuil
453297308;"{\"type\":\"LineString\",\"coordinates\":[[-73.5230284,45.5318404],[-73.5231182,45.5317622]]}";25;"";1;50;false;true;true;false;false;false;12.0;0;0;0;0;0;false;70031;6133410513;-73.378736;45.632278;70000;3395466650;-73.522601;45.524188;0;4;5;9622352;Bus 707 : Direction Longueuil;"";EXO;707 O;Terminus de Sorel;Terminus Longueuil
453297307;"{\"type\":\"LineString\",\"coordinates\":[[-73.5231182,45.5317622],[-73.5225054,45.5313575],[-73.5220441,45.5310211]]}";26;Boulevard Taschereau;2;50;false;true;false;false;false;false;118.0;0;0;0;0;0;false;70031;6133410513;-73.378736;45.632278;70000;3395466650;-73.522601;45.524188;0;4;5;9622352;Bus 707 : Direction Longueuil;"";EXO;707 O;Terminus de Sorel;Terminus Longueuil
685506748;"{\"type\":\"LineString\",\"coordinates\":[[-73.5220441,45.5310211],[-73.520197,45.5295718]]}";27;Boulevard Taschereau;2;50;false;true;false;false;false;false;217.0;0;0;0;0;0;false;70031;6133410513;-73.378736;45.632278;70000;3395466650;-73.522601;45.524188;0;4;5;9622352;Bus 707 : Direction Longueuil;"";EXO;707 O;Terminus de Sorel;Terminus Longueuil
687150633;"{\"type\":\"LineString\",\"coordinates\":[[-73.520197,45.5295718],[-73.5195008,45.5290293],[-73.5193219,45.5288899]]}";28;Boulevard Taschereau;2;50;false;true;false;false;true;false;102.0;0;0;0;0;0;false;70031;6133410513;-73.378736;45.632278;70000;3395466650;-73.522601;45.524188;0;4;5;9622352;Bus 707 : Direction Longueuil;"";EXO;707 O;Terminus de Sorel;Terminus Longueuil
39279657;"{\"type\":\"LineString\",\"coordinates\":[[-73.5193219,45.5288899],[-73.5177955,45.5277759],[-73.517539,45.5275796],[-73.517408,45.5274598],[-73.517277,45.5273413],[-73.5171969,45.5272431],[-73.5169935,45.5269944],[-73.5169318,45.5268892],[-73.5168889,45.5267897]]}";29;Boulevard Taschereau;2;50;false;true;false;false;true;false;304.0;0;0;0;0;0;false;70031;6133410513;-73.378736;45.632278;70000;3395466650;-73.522601;45.524188;0;4;5;9622352;Bus 707 : Direction Longueuil;"";EXO;707 O;Terminus de Sorel;Terminus Longueuil
25695939;"{\"type\":\"LineString\",\"coordinates\":[[-73.5168889,45.5267897],[-73.5167212,45.5260896],[-73.5167159,45.5260051],[-73.5167239,45.5259412],[-73.51674,45.525881],[-73.5167695,45.525819],[-73.5168124,45.5257608],[-73.5168661,45.5257063],[-73.5169197,45.5256612],[-73.5170136,45.5256029],[-73.5170645,45.5255748]]}";30;"";1;50;false;true;false;false;false;false;146.0;0;0;0;0;0;false;70031;6133410513;-73.378736;45.632278;70000;3395466650;-73.522601;45.524188;0;4;5;9622352;Bus 707 : Direction Longueuil;"";EXO;707 O;Terminus de Sorel;Terminus Longueuil
519511371;"{\"type\":\"LineString\",\"coordinates\":[[-73.5170645,45.5255748],[-73.5171504,45.5255315],[-73.517255,45.5254996],[-73.517381,45.5254733],[-73.5177297,45.5254319],[-73.5179225,45.5254128],[-73.5183025,45.5253752]]}";31;"";1;50;false;true;false;false;false;false;101.0;0;1;0;0;0;false;70031;6133410513;-73.378736;45.632278;70000;3395466650;-73.522601;45.524188;0;4;5;9622352;Bus 707 : Direction Longueuil;"";EXO;707 O;Terminus de Sorel;Terminus Longueuil
42257927;"{\"type\":\"LineString\",\"coordinates\":[[-73.5183025,45.5253752],[-73.5185363,45.5254127],[-73.5186085,45.5254243],[-73.519107,45.5254545],[-73.5191533,45.5254573],[-73.5192762,45.5254647]]}";32;Place Charles Le Moyne;2;50;false;true;true;false;false;false;77.0;1;1;0;0;0;false;70031;6133410513;-73.378736;45.632278;70000;3395466650;-73.522601;45.524188;0;4;5;9622352;Bus 707 : Direction Longueuil;"";EXO;707 O;Terminus de Sorel;Terminus Longueuil
470637266;"{\"type\":\"LineString\",\"coordinates\":[[-73.5192762,45.5254647],[-73.5194188,45.5254751]]}";33;Place Charles Le Moyne;1;50;false;true;true;false;false;false;12.0;0;0;0;0;0;false;70031;6133410513;-73.378736;45.632278;70000;3395466650;-73.522601;45.524188;0;4;5;9622352;Bus 707 : Direction Longueuil;"";EXO;707 O;Terminus de Sorel;Terminus Longueuil
470637264;"{\"type\":\"LineString\",\"coordinates\":[[-73.5194188,45.5254751],[-73.5194138,45.5253599],[-73.5194143,45.5251752]]}";34;Rue Saint-Charles Ouest;3;50;false;true;true;false;true;false;34.0;0;0;0;0;0;false;70031;6133410513;-73.378736;45.632278;70000;3395466650;-73.522601;45.524188;0;4;5;9622352;Bus 707 : Direction Longueuil;"";EXO;707 O;Terminus de Sorel;Terminus Longueuil
41785842;"{\"type\":\"LineString\",\"coordinates\":[[-73.5194143,45.5251752],[-73.519413,45.5251268],[-73.5194127,45.5251028],[-73.5194199,45.5248513],[-73.5194241,45.5246868],[-73.5194385,45.5243581],[-73.5194449,45.5243065],[-73.5194848,45.5239838],[-73.5195893,45.5235576],[-73.519603,45.5235018],[-73.5196342,45.5233746]]}";35;Rue Saint-Charles Ouest;2;50;false;true;true;false;true;false;202.0;1;3;0;0;0;false;70031;6133410513;-73.378736;45.632278;70000;3395466650;-73.522601;45.524188;0;4;5;9622352;Bus 707 : Direction Longueuil;"";EXO;707 O;Terminus de Sorel;Terminus Longueuil
725167105;"{\"type\":\"LineString\",\"coordinates\":[[-73.5203039,45.5234015],[-73.5198457,45.5233843],[-73.5198012,45.5233819],[-73.5197533,45.5233798],[-73.5196342,45.5233746]]}";36;Rue du Terminus;1;50;false;false;true;false;true;false;53.0;1;1;0;0;0;false;70031;6133410513;-73.378736;45.632278;70000;3395466650;-73.522601;45.524188;0;4;5;9622352;Bus 707 : Direction Longueuil;"";EXO;707 O;Terminus de Sorel;Terminus Longueuil
685121063;"{\"type\":\"LineString\",\"coordinates\":[[-73.522126,45.5234843],[-73.5212972,45.5234483],[-73.5204366,45.5234068],[-73.5203039,45.5234015]]}";37;Rue du Terminus;1;50;false;false;true;false;true;false;143.0;0;1;1;0;0;false;70031;6133410513;-73.378736;45.632278;70000;3395466650;-73.522601;45.524188;0;4;5;9622352;Bus 707 : Direction Longueuil;"";EXO;707 O;Terminus de Sorel;Terminus Longueuil
725167099;"{\"type\":\"LineString\",\"coordinates\":[[-73.5225484,45.5235009],[-73.5224252,45.5234948],[-73.522126,45.5234843]]}";38;Rue du Terminus;1;50;false;false;true;false;true;false;34.0;0;0;1;0;0;false;70031;6133410513;-73.378736;45.632278;70000;3395466650;-73.522601;45.524188;0;4;5;9622352;Bus 707 : Direction Longueuil;"";EXO;707 O;Terminus de Sorel;Terminus Longueuil
725167102;"{\"type\":\"LineString\",\"coordinates\":[[-73.5225484,45.5235009],[-73.5225444,45.5235685],[-73.522529,45.5237433]]}";39;"";1;50;false;false;true;false;true;false;27.0;0;0;1;0;0;false;70031;6133410513;-73.378736;45.632278;70000;3395466650;-73.522601;45.524188;0;4;5;9622352;Bus 707 : Direction Longueuil;"";EXO;707 O;Terminus de Sorel;Terminus Longueuil
685121058;"{\"type\":\"LineString\",\"coordinates\":[[-73.522529,45.5237433],[-73.5225083,45.5239595]]}";40;"";1;50;false;false;true;false;true;false;25.0;0;0;0;0;0;false;70031;6133410513;-73.378736;45.632278;70000;3395466650;-73.522601;45.524188;0;4;5;9622352;Bus 707 : Direction Longueuil;"";EXO;707 O;Terminus de Sorel;Terminus Longueuil
725167101;"{\"type\":\"LineString\",\"coordinates\":[[-73.5225083,45.5239595],[-73.5224879,45.524182]]}";41;"";1;50;false;false;true;false;true;false;25.0;0;0;0;0;0;false;70031;6133410513;-73.378736;45.632278;70000;3395466650;-73.522601;45.524188;0;4;5;9622352;Bus 707 : Direction Longueuil;"";EXO;707 O;Terminus de Sorel;Terminus Longueuil
47188506;"{\"type\":\"LineString\",\"coordinates\":[[-73.5224879,45.524182],[-73.5215749,45.5241423],[-73.5215148,45.5241489],[-73.5214744,45.5241698],[-73.5214576,45.5241997],[-73.5214442,45.5243418],[-73.5214546,45.524372],[-73.5214822,45.5243964],[-73.5215117,45.5244068],[-73.5223532,45.5244498],[-73.5224035,45.5244486],[-73.5224413,45.5244341],[-73.5224694,45.5244115],[-73.5224792,45.5243813],[-73.5224879,45.524182]]}";42;"";1;50;false;true;true;false;true;false;212.0;0;0;0;0;0;false;70031;6133410513;-73.378736;45.632278;70000;3395466650;-73.522601;45.524188;1;4;5;9622352;Bus 707 : Direction Longueuil;"";EXO;707 O;Terminus de Sorel;Terminus Longueuil
