way_id;shape;index;name;nb_lanes;legal_speed;speed_zone_30;oneway;shares_bike;bike_box;bus_lane;dedicated_bus_lane;length;nb_traffic_signals;nb_crossings;nb_stops;nb_give_ways;nb_lvl_crossings;roundabout;stop_id_orig;node_id_orig;coord_x_orig;coord_y_orig;stop_id_dest;node_id_dest;coord_x_dest;coord_y_dest;nb_neighbouring_ways_bus_stop;ordre_orig;ordre_dest;id_line;line_name;colour;operator;ref;from;to
685493152;"{\"type\":\"LineString\",\"coordinates\":[[-73.5657572,45.4981627],[-73.5660382,45.4978987]]}";1;"";1;50;false;true;true;false;true;false;37.0;0;0;0;0;0;false;76142;6133353982;-73.565987;45.498059;76080;6133354127;-73.5478906;45.3844531;1;0;1;9517680;Bus 100 : Direction Delson;"";EXO;100 S;Terminus Centre-Ville;Stationnement Incitatif Georges-Gagné
114875709;"{\"type\":\"LineString\",\"coordinates\":[[-73.5660382,45.4978987],[-73.5661483,45.4977952],[-73.5662099,45.4977103]]}";2;"";1;50;false;true;true;false;true;false;25.0;0;0;0;0;0;false;76142;6133353982;-73.565987;45.498059;76080;6133354127;-73.5478906;45.3844531;0;0;1;9517680;Bus 100 : Direction Delson;"";EXO;100 S;Terminus Centre-Ville;Stationnement Incitatif Georges-Gagné
114875719;"{\"type\":\"LineString\",\"coordinates\":[[-73.5662099,45.4977103],[-73.5662723,45.4976542]]}";3;"";1;50;false;true;true;false;true;false;8.0;0;0;0;0;0;false;76142;6133353982;-73.565987;45.498059;76080;6133354127;-73.5478906;45.3844531;0;0;1;9517680;Bus 100 : Direction Delson;"";EXO;100 S;Terminus Centre-Ville;Stationnement Incitatif Georges-Gagné
685493151;"{\"type\":\"LineString\",\"coordinates\":[[-73.5662723,45.4976542],[-73.566035,45.497542]]}";4;Rue de la Cathédrale;1;50;false;true;true;false;false;false;23.0;1;0;0;0;0;false;76142;6133353982;-73.565987;45.498059;76080;6133354127;-73.5478906;45.3844531;0;0;1;9517680;Bus 100 : Direction Delson;"";EXO;100 S;Terminus Centre-Ville;Stationnement Incitatif Georges-Gagné
465653669;"{\"type\":\"LineString\",\"coordinates\":[[-73.565584,45.4979128],[-73.566035,45.497542]]}";5;Rue Saint-Antoine Ouest;4;50;false;false;true;false;false;false;55.0;1;0;0;0;0;false;76142;6133353982;-73.565987;45.498059;76080;6133354127;-73.5478906;45.3844531;0;0;1;9517680;Bus 100 : Direction Delson;"";EXO;100 S;Terminus Centre-Ville;Stationnement Incitatif Georges-Gagné
465653670;"{\"type\":\"LineString\",\"coordinates\":[[-73.5651977,45.4982305],[-73.565584,45.4979128]]}";6;Rue Saint-Antoine Ouest;4;50;false;false;true;false;false;false;47.0;1;0;0;0;0;false;76142;6133353982;-73.565987;45.498059;76080;6133354127;-73.5478906;45.3844531;0;0;1;9517680;Bus 100 : Direction Delson;"";EXO;100 S;Terminus Centre-Ville;Stationnement Incitatif Georges-Gagné
465653668;"{\"type\":\"LineString\",\"coordinates\":[[-73.5647776,45.4985685],[-73.5651977,45.4982305]]}";7;Rue Saint-Antoine Ouest;4;50;false;false;true;false;false;false;50.0;1;0;0;0;0;false;76142;6133353982;-73.565987;45.498059;76080;6133354127;-73.5478906;45.3844531;0;0;1;9517680;Bus 100 : Direction Delson;"";EXO;100 S;Terminus Centre-Ville;Stationnement Incitatif Georges-Gagné
114875712;"{\"type\":\"LineString\",\"coordinates\":[[-73.5646367,45.4986819],[-73.5647776,45.4985685]]}";8;Rue Saint-Antoine Ouest;4;50;false;false;true;false;false;false;17.0;0;0;0;0;0;false;76142;6133353982;-73.565987;45.498059;76080;6133354127;-73.5478906;45.3844531;0;0;1;9517680;Bus 100 : Direction Delson;"";EXO;100 S;Terminus Centre-Ville;Stationnement Incitatif Georges-Gagné
114875727;"{\"type\":\"LineString\",\"coordinates\":[[-73.5638176,45.4993408],[-73.5646367,45.4986819]]}";9;Rue Saint-Antoine Ouest;1;50;false;false;true;false;false;false;98.0;0;0;0;0;0;false;76142;6133353982;-73.565987;45.498059;76080;6133354127;-73.5478906;45.3844531;0;0;1;9517680;Bus 100 : Direction Delson;"";EXO;100 S;Terminus Centre-Ville;Stationnement Incitatif Georges-Gagné
456318009;"{\"type\":\"LineString\",\"coordinates\":[[-73.5635034,45.4995899],[-73.5638176,45.4993408]]}";10;Rue Saint-Antoine Ouest;1;50;false;false;true;false;false;false;37.0;1;0;0;0;0;false;76142;6133353982;-73.565987;45.498059;76080;6133354127;-73.5478906;45.3844531;0;0;1;9517680;Bus 100 : Direction Delson;"";EXO;100 S;Terminus Centre-Ville;Stationnement Incitatif Georges-Gagné
456321034;"{\"type\":\"LineString\",\"coordinates\":[[-73.5635034,45.4995899],[-73.5626665,45.4990006]]}";11;Boulevard Robert-Bourassa;4;50;false;true;true;false;false;false;93.0;2;0;0;0;0;false;76142;6133353982;-73.565987;45.498059;76080;6133354127;-73.5478906;45.3844531;0;0;1;9517680;Bus 100 : Direction Delson;"";EXO;100 S;Terminus Centre-Ville;Stationnement Incitatif Georges-Gagné
300627773;"{\"type\":\"LineString\",\"coordinates\":[[-73.5626665,45.4990006],[-73.5623547,45.4987872],[-73.5621626,45.4986172],[-73.5620042,45.4984483],[-73.5618002,45.4982427],[-73.5616856,45.4981447],[-73.5616582,45.4981239],[-73.5615338,45.4980295]]}";12;Boulevard Robert-Bourassa;4;50;false;true;true;false;false;false;140.0;2;0;0;0;0;false;76142;6133353982;-73.565987;45.498059;76080;6133354127;-73.5478906;45.3844531;0;0;1;9517680;Bus 100 : Direction Delson;"";EXO;100 S;Terminus Centre-Ville;Stationnement Incitatif Georges-Gagné
352392847;"{\"type\":\"LineString\",\"coordinates\":[[-73.5615338,45.4980295],[-73.5614113,45.4979602],[-73.5610365,45.4977732],[-73.5606297,45.4975779],[-73.5601383,45.4973487],[-73.5594743,45.4970519],[-73.5591756,45.4969344]]}";13;Boulevard Robert-Bourassa;3;50;false;true;true;false;false;false;221.0;2;0;0;0;0;false;76142;6133353982;-73.565987;45.498059;76080;6133354127;-73.5478906;45.3844531;0;0;1;9517680;Bus 100 : Direction Delson;"";EXO;100 S;Terminus Centre-Ville;Stationnement Incitatif Georges-Gagné
664696778;"{\"type\":\"LineString\",\"coordinates\":[[-73.5591756,45.4969344],[-73.5576146,45.4963618],[-73.5566334,45.4960019],[-73.5557327,45.4956715]]}";14;Boulevard Robert-Bourassa;5;50;false;true;true;false;false;false;304.0;3;0;0;0;0;false;76142;6133353982;-73.565987;45.498059;76080;6133354127;-73.5478906;45.3844531;0;0;1;9517680;Bus 100 : Direction Delson;"";EXO;100 S;Terminus Centre-Ville;Stationnement Incitatif Georges-Gagné
428978765;"{\"type\":\"LineString\",\"coordinates\":[[-73.5557327,45.4956715],[-73.5554185,45.4955444],[-73.5552568,45.4954742],[-73.5551287,45.4953983],[-73.5549327,45.4952567],[-73.5548013,45.4951309],[-73.5547029,45.495014],[-73.5546166,45.494885],[-73.554546,45.494732],[-73.5544449,45.4944655],[-73.5543449,45.4942123],[-73.5542567,45.4939794],[-73.5541868,45.4937959],[-73.5541179,45.4936077],[-73.5540485,45.4934289],[-73.5539834,45.4932646]]}";15;Autoroute Bonaventure Expressway;3;50;false;true;false;false;false;false;314.0;1;0;0;0;0;false;76142;6133353982;-73.565987;45.498059;76080;6133354127;-73.5478906;45.3844531;0;0;1;9517680;Bus 100 : Direction Delson;"";EXO;100 S;Terminus Centre-Ville;Stationnement Incitatif Georges-Gagné
428978767;"{\"type\":\"LineString\",\"coordinates\":[[-73.5539834,45.4932646],[-73.5538717,45.4930299],[-73.5537919,45.4928613],[-73.5537005,45.492684],[-73.5536109,45.492534],[-73.55351,45.4923856],[-73.5533999,45.4922211],[-73.5532714,45.4920547],[-73.5531387,45.4919071],[-73.5529876,45.4917566],[-73.5528396,45.4916157]]}";16;Autoroute Bonaventure Expressway;3;50;false;true;false;false;false;false;206.0;0;0;0;0;0;false;76142;6133353982;-73.565987;45.498059;76080;6133354127;-73.5478906;45.3844531;0;0;1;9517680;Bus 100 : Direction Delson;"";EXO;100 S;Terminus Centre-Ville;Stationnement Incitatif Georges-Gagné
385754237;"{\"type\":\"LineString\",\"coordinates\":[[-73.5528396,45.4916157],[-73.5526701,45.4914689],[-73.5524864,45.4913215],[-73.5523393,45.4912103],[-73.5521897,45.4911082],[-73.5520308,45.4910079],[-73.5518578,45.4909001],[-73.5516631,45.4907954],[-73.5514593,45.4906906]]}";17;Autoroute Bonaventure Expressway;4;50;false;true;false;false;false;false;150.0;0;0;0;0;0;false;76142;6133353982;-73.565987;45.498059;76080;6133354127;-73.5478906;45.3844531;0;0;1;9517680;Bus 100 : Direction Delson;"";EXO;100 S;Terminus Centre-Ville;Stationnement Incitatif Georges-Gagné
361815169;"{\"type\":\"LineString\",\"coordinates\":[[-73.5514593,45.4906906],[-73.5512408,45.4905856],[-73.5509789,45.4904728],[-73.5507265,45.4903708]]}";18;Autoroute Bonaventure Expressway;4;50;false;true;false;false;false;false;68.0;0;0;0;0;0;false;76142;6133353982;-73.565987;45.498059;76080;6133354127;-73.5478906;45.3844531;0;0;1;9517680;Bus 100 : Direction Delson;"";EXO;100 S;Terminus Centre-Ville;Stationnement Incitatif Georges-Gagné
385754241;"{\"type\":\"LineString\",\"coordinates\":[[-73.5507265,45.4903708],[-73.5505125,45.4902942],[-73.5503197,45.4902333],[-73.5500927,45.4901664],[-73.5498345,45.4901],[-73.5495773,45.4900379],[-73.5492978,45.489978],[-73.5490171,45.4899238],[-73.5461765,45.4893863]]}";19;Autoroute Bonaventure Expressway;3;50;false;true;false;false;false;false;373.0;0;0;0;0;0;false;76142;6133353982;-73.565987;45.498059;76080;6133354127;-73.5478906;45.3844531;0;0;1;9517680;Bus 100 : Direction Delson;"";EXO;100 S;Terminus Centre-Ville;Stationnement Incitatif Georges-Gagné
567717687;"{\"type\":\"LineString\",\"coordinates\":[[-73.5461765,45.4893863],[-73.5427334,45.4887242]]}";20;Autoroute Bonaventure Expressway;3;70;false;true;false;false;false;false;279.0;0;0;0;0;0;false;76142;6133353982;-73.565987;45.498059;76080;6133354127;-73.5478906;45.3844531;0;0;1;9517680;Bus 100 : Direction Delson;"";EXO;100 S;Terminus Centre-Ville;Stationnement Incitatif Georges-Gagné
48666271;"{\"type\":\"LineString\",\"coordinates\":[[-73.5427334,45.4887242],[-73.5422116,45.488558],[-73.542016,45.4884998]]}";21;"";1;50;false;true;true;false;false;false;62.0;0;0;0;0;0;false;76142;6133353982;-73.565987;45.498059;76080;6133354127;-73.5478906;45.3844531;0;0;1;9517680;Bus 100 : Direction Delson;"";EXO;100 S;Terminus Centre-Ville;Stationnement Incitatif Georges-Gagné
48666298;"{\"type\":\"LineString\",\"coordinates\":[[-73.542016,45.4884998],[-73.5418275,45.4884538]]}";22;"";1;50;false;true;true;false;false;false;16.0;0;0;0;0;0;false;76142;6133353982;-73.565987;45.498059;76080;6133354127;-73.5478906;45.3844531;0;0;1;9517680;Bus 100 : Direction Delson;"";EXO;100 S;Terminus Centre-Ville;Stationnement Incitatif Georges-Gagné
48666297;"{\"type\":\"LineString\",\"coordinates\":[[-73.5418275,45.4884538],[-73.5415554,45.488395],[-73.5411811,45.4883256],[-73.5409718,45.488284],[-73.5407814,45.4882388],[-73.54059,45.4881754],[-73.5404113,45.4881063]]}";23;"";1;50;false;true;true;false;false;false;118.0;0;0;0;0;0;false;76142;6133353982;-73.565987;45.498059;76080;6133354127;-73.5478906;45.3844531;0;0;1;9517680;Bus 100 : Direction Delson;"";EXO;100 S;Terminus Centre-Ville;Stationnement Incitatif Georges-Gagné
23027190;"{\"type\":\"LineString\",\"coordinates\":[[-73.5404113,45.4881063],[-73.5402157,45.48804],[-73.5400108,45.4879566],[-73.5398209,45.4878687],[-73.5396416,45.4877795],[-73.5394706,45.4876852],[-73.539289,45.4875746],[-73.5391318,45.4874685],[-73.5389634,45.4873398],[-73.5388076,45.4872055],[-73.5386646,45.4870673],[-73.5385313,45.4869226],[-73.5384158,45.4867854],[-73.5383118,45.4866546],[-73.5382178,45.4865288],[-73.5381429,45.4864193],[-73.5380756,45.4863127],[-73.5380134,45.4861965],[-73.5379497,45.4860576],[-73.5378929,45.4859065],[-73.5378527,45.4857565],[-73.5378202,45.4856055],[-73.5377921,45.4854451],[-73.5377756,45.4852961],[-73.5377689,45.4851382],[-73.5377729,45.4849658],[-73.5377873,45.4847776],[-73.5378115,45.4846227],[-73.5378426,45.4844612],[-73.5380341,45.4836661]]}";24;"";1;50;false;true;false;false;false;false;575.0;0;0;0;0;0;false;76142;6133353982;-73.565987;45.498059;76080;6133354127;-73.5478906;45.3844531;0;0;1;9517680;Bus 100 : Direction Delson;"";EXO;100 S;Terminus Centre-Ville;Stationnement Incitatif Georges-Gagné
685468121;"{\"type\":\"LineString\",\"coordinates\":[[-73.5380341,45.4836661],[-73.5382816,45.4829689],[-73.5384797,45.4824157],[-73.5387112,45.481754],[-73.5389705,45.4810329],[-73.5392547,45.4801208],[-73.5397419,45.478817],[-73.5400333,45.4781293],[-73.5404144,45.4773194]]}";25;Autoroute Bonaventure Expressway;1;70;false;true;false;false;false;false;730.0;0;0;0;0;0;false;76142;6133353982;-73.565987;45.498059;76080;6133354127;-73.5478906;45.3844531;0;0;1;9517680;Bus 100 : Direction Delson;"";EXO;100 S;Terminus Centre-Ville;Stationnement Incitatif Georges-Gagné
677782935;"{\"type\":\"LineString\",\"coordinates\":[[-73.5404144,45.4773194],[-73.5406017,45.4769354],[-73.5411113,45.4759718],[-73.5413755,45.4754887],[-73.5416588,45.4750109]]}";26;Pont Clément Bridge;2;70;false;true;false;false;false;false;275.0;0;0;0;0;0;false;76142;6133353982;-73.565987;45.498059;76080;6133354127;-73.5478906;45.3844531;0;0;1;9517680;Bus 100 : Direction Delson;"";EXO;100 S;Terminus Centre-Ville;Stationnement Incitatif Georges-Gagné
567717682;"{\"type\":\"LineString\",\"coordinates\":[[-73.5416588,45.4750109],[-73.5420724,45.4743571]]}";27;Pont Clément Bridge;2;50;false;true;false;false;false;false;80.0;0;0;0;0;0;false;76142;6133353982;-73.565987;45.498059;76080;6133354127;-73.5478906;45.3844531;0;0;1;9517680;Bus 100 : Direction Delson;"";EXO;100 S;Terminus Centre-Ville;Stationnement Incitatif Georges-Gagné
39180623;"{\"type\":\"LineString\",\"coordinates\":[[-73.5420724,45.4743571],[-73.5422524,45.4740884],[-73.5424157,45.4738315],[-73.5425961,45.4735652],[-73.5430496,45.4729449]]}";28;Autoroute Bonaventure;2;50;false;true;true;false;false;false;175.0;0;0;0;0;0;false;76142;6133353982;-73.565987;45.498059;76080;6133354127;-73.5478906;45.3844531;0;0;1;9517680;Bus 100 : Direction Delson;"";EXO;100 S;Terminus Centre-Ville;Stationnement Incitatif Georges-Gagné
43068386;"{\"type\":\"LineString\",\"coordinates\":[[-73.5430496,45.4729449],[-73.5432928,45.4726092]]}";29;Autoroute Bonaventure;2;50;false;true;true;false;false;false;42.0;0;0;0;0;0;false;76142;6133353982;-73.565987;45.498059;76080;6133354127;-73.5478906;45.3844531;0;0;1;9517680;Bus 100 : Direction Delson;"";EXO;100 S;Terminus Centre-Ville;Stationnement Incitatif Georges-Gagné
43068385;"{\"type\":\"LineString\",\"coordinates\":[[-73.5432928,45.4726092],[-73.5436727,45.4721223],[-73.5442333,45.4714332],[-73.5445429,45.4710827],[-73.5450373,45.4705371],[-73.5451519,45.470368],[-73.5451963,45.4702037],[-73.5451777,45.4700648],[-73.5451347,45.4699397],[-73.5450208,45.4697568],[-73.544847,45.4696114],[-73.5446799,45.4695157],[-73.5445055,45.4694536],[-73.5443311,45.4694183],[-73.5441751,45.4694066],[-73.5439949,45.4694138],[-73.5437722,45.4694511],[-73.5436193,45.4694983],[-73.54315,45.469709],[-73.5426519,45.4698258],[-73.542304,45.4699265],[-73.5418403,45.4699973],[-73.541601,45.4700149],[-73.540742,45.4700409],[-73.5400245,45.4700565]]}";30;Autoroute Bonaventure;3;50;false;true;true;false;false;false;777.0;0;0;0;0;0;false;76142;6133353982;-73.565987;45.498059;76080;6133354127;-73.5478906;45.3844531;0;0;1;9517680;Bus 100 : Direction Delson;"";EXO;100 S;Terminus Centre-Ville;Stationnement Incitatif Georges-Gagné
728797117;"{\"type\":\"LineString\",\"coordinates\":[[-73.5400245,45.4700565],[-73.5382768,45.4700942]]}";31;Autoroute Bonaventure;2;50;false;true;true;false;false;false;137.0;0;0;0;0;0;false;76142;6133353982;-73.565987;45.498059;76080;6133354127;-73.5478906;45.3844531;0;0;1;9517680;Bus 100 : Direction Delson;"";EXO;100 S;Terminus Centre-Ville;Stationnement Incitatif Georges-Gagné
728797118;"{\"type\":\"LineString\",\"coordinates\":[[-73.5382768,45.4700942],[-73.5378255,45.4701167]]}";32;Autoroute Bonaventure;2;50;false;true;true;false;false;false;36.0;0;0;0;0;0;false;76142;6133353982;-73.565987;45.498059;76080;6133354127;-73.5478906;45.3844531;0;0;1;9517680;Bus 100 : Direction Delson;"";EXO;100 S;Terminus Centre-Ville;Stationnement Incitatif Georges-Gagné
708682529;"{\"type\":\"LineString\",\"coordinates\":[[-73.5378255,45.4701167],[-73.536113,45.4701171]]}";33;Autoroute 15;5;80;false;true;true;false;false;false;134.0;0;0;0;0;0;false;76142;6133353982;-73.565987;45.498059;76080;6133354127;-73.5478906;45.3844531;0;0;1;9517680;Bus 100 : Direction Delson;"";EXO;100 S;Terminus Centre-Ville;Stationnement Incitatif Georges-Gagné
364775281;"{\"type\":\"LineString\",\"coordinates\":[[-73.536113,45.4701171],[-73.5335206,45.4700904],[-73.5293215,45.4699928],[-73.5256685,45.4698606],[-73.5246415,45.4698106],[-73.5211502,45.4696112],[-73.5196763,45.4695143],[-73.5181633,45.4694048],[-73.5163826,45.4692646],[-73.5145853,45.4691035],[-73.5082364,45.4684851]]}";34;Pont Samuel-De Champlain;3;80;false;true;true;false;false;false;2188.0;0;0;0;0;0;false;76142;6133353982;-73.565987;45.498059;76080;6133354127;-73.5478906;45.3844531;0;0;1;9517680;Bus 100 : Direction Delson;"";EXO;100 S;Terminus Centre-Ville;Stationnement Incitatif Georges-Gagné
646417293;"{\"type\":\"LineString\",\"coordinates\":[[-73.5082364,45.4684851],[-73.5072787,45.4683745],[-73.5044923,45.4680805],[-73.5015577,45.4677715]]}";35;Pont Samuel-De Champlain;3;80;false;true;true;false;false;false;528.0;0;0;0;0;0;false;76142;6133353982;-73.565987;45.498059;76080;6133354127;-73.5478906;45.3844531;0;0;1;9517680;Bus 100 : Direction Delson;"";EXO;100 S;Terminus Centre-Ville;Stationnement Incitatif Georges-Gagné
646417307;"{\"type\":\"LineString\",\"coordinates\":[[-73.5015577,45.4677715],[-73.4986974,45.4674663],[-73.4969674,45.4672651],[-73.4952108,45.4670394],[-73.4920054,45.4666495]]}";36;Pont Samuel-De Champlain;4;80;false;true;true;false;false;false;757.0;0;0;0;0;0;false;76142;6133353982;-73.565987;45.498059;76080;6133354127;-73.5478906;45.3844531;0;0;1;9517680;Bus 100 : Direction Delson;"";EXO;100 S;Terminus Centre-Ville;Stationnement Incitatif Georges-Gagné
698922475;"{\"type\":\"LineString\",\"coordinates\":[[-73.4920054,45.4666495],[-73.4890674,45.4662312]]}";37;Autoroute des Cantons-de-l'Est;4;80;false;true;true;false;false;false;235.0;0;0;0;0;0;false;76142;6133353982;-73.565987;45.498059;76080;6133354127;-73.5478906;45.3844531;0;0;1;9517680;Bus 100 : Direction Delson;"";EXO;100 S;Terminus Centre-Ville;Stationnement Incitatif Georges-Gagné
724437661;"{\"type\":\"LineString\",\"coordinates\":[[-73.4890674,45.4662312],[-73.4873281,45.4659783],[-73.4856025,45.4657592],[-73.4848513,45.4656558],[-73.4833534,45.4654796]]}";38;Autoroute des Cantons-de-l'Est;3;80;false;true;true;false;false;false;455.0;0;0;0;0;0;false;76142;6133353982;-73.565987;45.498059;76080;6133354127;-73.5478906;45.3844531;0;0;1;9517680;Bus 100 : Direction Delson;"";EXO;100 S;Terminus Centre-Ville;Stationnement Incitatif Georges-Gagné
699232599;"{\"type\":\"LineString\",\"coordinates\":[[-73.4833534,45.4654796],[-73.482022,45.4653559],[-73.4802248,45.4652297],[-73.4791933,45.4651729],[-73.4781865,45.4651216],[-73.474282,45.4649227],[-73.4725575,45.4648665]]}";39;Autoroute des Cantons-de-l'Est;1;80;false;true;true;false;false;false;847.0;0;0;0;0;0;false;76142;6133353982;-73.565987;45.498059;76080;6133354127;-73.5478906;45.3844531;0;0;1;9517680;Bus 100 : Direction Delson;"";EXO;100 S;Terminus Centre-Ville;Stationnement Incitatif Georges-Gagné
8289420;"{\"type\":\"LineString\",\"coordinates\":[[-73.4725575,45.4648665],[-73.4719735,45.4648082],[-73.4712459,45.46474],[-73.4703174,45.4646608],[-73.4692837,45.4645546],[-73.4687007,45.4644601],[-73.4682854,45.4643283],[-73.4677692,45.4640481],[-73.4674681,45.4638296],[-73.4671112,45.4636309],[-73.4668634,45.4635538],[-73.4665806,45.4635239]]}";40;"";1;50;false;true;true;false;false;false;505.0;0;0;0;0;0;false;76142;6133353982;-73.565987;45.498059;76080;6133354127;-73.5478906;45.3844531;0;0;1;9517680;Bus 100 : Direction Delson;"";EXO;100 S;Terminus Centre-Ville;Stationnement Incitatif Georges-Gagné
458455128;"{\"type\":\"LineString\",\"coordinates\":[[-73.4665806,45.4635239],[-73.4660691,45.4636232],[-73.4658502,45.4636921],[-73.465718,45.4637337]]}";41;"";1;50;false;true;true;false;false;false;72.0;1;0;0;0;0;false;76142;6133353982;-73.565987;45.498059;76080;6133354127;-73.5478906;45.3844531;0;0;1;9517680;Bus 100 : Direction Delson;"";EXO;100 S;Terminus Centre-Ville;Stationnement Incitatif Georges-Gagné
39239388;"{\"type\":\"LineString\",\"coordinates\":[[-73.465718,45.4637337],[-73.4655435,45.4637896]]}";42;"";1;50;false;true;true;false;false;false;15.0;0;0;0;0;0;false;76142;6133353982;-73.565987;45.498059;76080;6133354127;-73.5478906;45.3844531;0;0;1;9517680;Bus 100 : Direction Delson;"";EXO;100 S;Terminus Centre-Ville;Stationnement Incitatif Georges-Gagné
39239394;"{\"type\":\"LineString\",\"coordinates\":[[-73.4655435,45.4637896],[-73.4655823,45.4639539],[-73.4656533,45.46418],[-73.4660166,45.4650769]]}";43;Boulevard Taschereau;1;50;false;true;false;false;true;false;148.0;0;0;0;0;0;false;76142;6133353982;-73.565987;45.498059;76080;6133354127;-73.5478906;45.3844531;0;0;1;9517680;Bus 100 : Direction Delson;"";EXO;100 S;Terminus Centre-Ville;Stationnement Incitatif Georges-Gagné
476012636;"{\"type\":\"LineString\",\"coordinates\":[[-73.4660166,45.4650769],[-73.4662107,45.4654681],[-73.4662619,45.4655763],[-73.4663131,45.4656845]]}";44;Boulevard Taschereau;1;50;false;true;false;false;true;false;72.0;1;0;0;0;0;false;76142;6133353982;-73.565987;45.498059;76080;6133354127;-73.5478906;45.3844531;0;0;1;9517680;Bus 100 : Direction Delson;"";EXO;100 S;Terminus Centre-Ville;Stationnement Incitatif Georges-Gagné
473778377;"{\"type\":\"LineString\",\"coordinates\":[[-73.4663131,45.4656845],[-73.4665181,45.4656358]]}";45;"";1;50;false;false;true;false;false;false;17.0;0;0;0;0;0;false;76142;6133353982;-73.565987;45.498059;76080;6133354127;-73.5478906;45.3844531;0;0;1;9517680;Bus 100 : Direction Delson;"";EXO;100 S;Terminus Centre-Ville;Stationnement Incitatif Georges-Gagné
476012634;"{\"type\":\"LineString\",\"coordinates\":[[-73.466996,45.4655796],[-73.4667315,45.4656026],[-73.4667003,45.4656075],[-73.4665181,45.4656358]]}";46;"";1;50;false;false;false;false;true;false;38.0;1;0;0;0;0;false;76142;6133353982;-73.565987;45.498059;76080;6133354127;-73.5478906;45.3844531;0;0;1;9517680;Bus 100 : Direction Delson;"";EXO;100 S;Terminus Centre-Ville;Stationnement Incitatif Georges-Gagné
37637927;"{\"type\":\"LineString\",\"coordinates\":[[-73.468025,45.4659377],[-73.4677887,45.4657888],[-73.4677335,45.4657546],[-73.4676442,45.4657151],[-73.4674983,45.4656589],[-73.4673546,45.4656184],[-73.4671835,45.4655895],[-73.466996,45.4655796]]}";47;"";1;50;false;false;false;false;true;false;93.0;0;0;0;0;0;false;76142;6133353982;-73.565987;45.498059;76080;6133354127;-73.5478906;45.3844531;0;0;1;9517680;Bus 100 : Direction Delson;"";EXO;100 S;Terminus Centre-Ville;Stationnement Incitatif Georges-Gagné
703233488;"{\"type\":\"LineString\",\"coordinates\":[[-73.4733357,45.4656186],[-73.4699508,45.4656907],[-73.4695234,45.4656998],[-73.4691508,45.4657186],[-73.4688021,45.4657429],[-73.4685139,45.465784],[-73.4682324,45.4658535],[-73.468025,45.4659377]]}";48;"";1;50;false;false;true;false;true;false;420.0;0;0;0;0;0;false;76142;6133353982;-73.565987;45.498059;76080;6133354127;-73.5478906;45.3844531;0;0;1;9517680;Bus 100 : Direction Delson;"";EXO;100 S;Terminus Centre-Ville;Stationnement Incitatif Georges-Gagné
684189916;"{\"type\":\"LineString\",\"coordinates\":[[-73.4733357,45.4656186],[-73.4735794,45.4655613],[-73.4739808,45.4655103],[-73.4741277,45.4654925],[-73.4747925,45.4654563],[-73.4752773,45.4654395],[-73.4757455,45.4654647],[-73.4762138,45.465479],[-73.4767771,45.4654808],[-73.4776483,45.4653783]]}";49;"";1;50;false;true;true;false;true;false;341.0;0;0;0;0;0;false;76142;6133353982;-73.565987;45.498059;76080;6133354127;-73.5478906;45.3844531;0;0;1;9517680;Bus 100 : Direction Delson;"";EXO;100 S;Terminus Centre-Ville;Stationnement Incitatif Georges-Gagné
596245859;"{\"type\":\"LineString\",\"coordinates\":[[-73.4776483,45.4653783],[-73.47817,45.4654129],[-73.4791657,45.4654646],[-73.480342,45.4655445],[-73.4815645,45.4656424],[-73.4827092,45.4657465],[-73.483758,45.4658456]]}";50;Autoroute des Cantons-de-l'Est;4;80;false;true;true;false;false;false;481.0;0;0;0;0;0;false;76142;6133353982;-73.565987;45.498059;76080;6133354127;-73.5478906;45.3844531;0;0;1;9517680;Bus 100 : Direction Delson;"";EXO;100 S;Terminus Centre-Ville;Stationnement Incitatif Georges-Gagné
24202953;"{\"type\":\"LineString\",\"coordinates\":[[-73.483758,45.4658456],[-73.4845839,45.4660258],[-73.4853256,45.4662198],[-73.4855651,45.4663443],[-73.485677,45.4664187],[-73.4857946,45.4665365],[-73.4860208,45.4668293],[-73.4862134,45.46713],[-73.4862903,45.4672259],[-73.4863887,45.4673197],[-73.4865657,45.467447],[-73.4868062,45.4675538],[-73.4871637,45.4676167],[-73.4873984,45.4676437],[-73.4913533,45.4679597]]}";51;"";1;50;false;true;true;false;false;false;680.0;0;0;0;0;0;false;76142;6133353982;-73.565987;45.498059;76080;6133354127;-73.5478906;45.3844531;0;0;1;9517680;Bus 100 : Direction Delson;"";EXO;100 S;Terminus Centre-Ville;Stationnement Incitatif Georges-Gagné
40662133;"{\"type\":\"LineString\",\"coordinates\":[[-73.4913533,45.4679597],[-73.4923325,45.4680326],[-73.4942598,45.4681927]]}";52;"";1;50;false;true;true;false;false;false;229.0;0;0;0;0;0;false;76142;6133353982;-73.565987;45.498059;76080;6133354127;-73.5478906;45.3844531;0;0;1;9517680;Bus 100 : Direction Delson;"";EXO;100 S;Terminus Centre-Ville;Stationnement Incitatif Georges-Gagné
40662045;"{\"type\":\"LineString\",\"coordinates\":[[-73.4942598,45.4681927],[-73.4953817,45.4682869]]}";53;"";1;50;false;true;true;false;false;false;89.0;0;0;0;0;0;false;76142;6133353982;-73.565987;45.498059;76080;6133354127;-73.5478906;45.3844531;0;0;1;9517680;Bus 100 : Direction Delson;"";EXO;100 S;Terminus Centre-Ville;Stationnement Incitatif Georges-Gagné
40662044;"{\"type\":\"LineString\",\"coordinates\":[[-73.4953817,45.4682869],[-73.4960865,45.4683472],[-73.496344,45.4683874],[-73.4965798,45.4684553],[-73.4967904,45.4685664],[-73.496938,45.4687121],[-73.4970395,45.4688771],[-73.497079,45.4690667],[-73.4970109,45.4692555],[-73.4968623,45.4694095],[-73.4966766,45.469497],[-73.4964206,45.4695453],[-73.4961627,45.4695317],[-73.4959295,45.4694518],[-73.495793,45.4693173],[-73.4955175,45.4688872]]}";54;"";1;50;false;true;true;false;false;false;370.0;0;0;0;0;0;false;76142;6133353982;-73.565987;45.498059;76080;6133354127;-73.5478906;45.3844531;0;0;1;9517680;Bus 100 : Direction Delson;"";EXO;100 S;Terminus Centre-Ville;Stationnement Incitatif Georges-Gagné
548146997;"{\"type\":\"LineString\",\"coordinates\":[[-73.4955175,45.4688872],[-73.4950264,45.4675448]]}";55;"";1;50;false;true;false;false;false;false;154.0;0;0;0;0;0;false;76142;6133353982;-73.565987;45.498059;76080;6133354127;-73.5478906;45.3844531;0;0;1;9517680;Bus 100 : Direction Delson;"";EXO;100 S;Terminus Centre-Ville;Stationnement Incitatif Georges-Gagné
458294572;"{\"type\":\"LineString\",\"coordinates\":[[-73.4950264,45.4675448],[-73.4946279,45.4665455],[-73.4943882,45.4658376],[-73.4941082,45.4650141]]}";56;"";1;50;false;true;false;false;false;false;291.0;0;0;0;0;0;false;76142;6133353982;-73.565987;45.498059;76080;6133354127;-73.5478906;45.3844531;0;0;1;9517680;Bus 100 : Direction Delson;"";EXO;100 S;Terminus Centre-Ville;Stationnement Incitatif Georges-Gagné
357283846;"{\"type\":\"LineString\",\"coordinates\":[[-73.4941082,45.4650141],[-73.4938388,45.4642216],[-73.4936624,45.4636499],[-73.4935138,45.4632189],[-73.4934836,45.4630971]]}";57;Boulevard Marie-Victorin;2;70;false;true;false;false;false;false;219.0;0;0;0;0;0;false;76142;6133353982;-73.565987;45.498059;76080;6133354127;-73.5478906;45.3844531;0;0;1;9517680;Bus 100 : Direction Delson;"";EXO;100 S;Terminus Centre-Ville;Stationnement Incitatif Georges-Gagné
749923831;"{\"type\":\"LineString\",\"coordinates\":[[-73.4934836,45.4630971],[-73.4934194,45.46278],[-73.4933713,45.4624871]]}";58;Boulevard Marie-Victorin;3;70;false;true;false;false;false;false;69.0;0;0;0;0;0;false;76142;6133353982;-73.565987;45.498059;76080;6133354127;-73.5478906;45.3844531;0;0;1;9517680;Bus 100 : Direction Delson;"";EXO;100 S;Terminus Centre-Ville;Stationnement Incitatif Georges-Gagné
560560319;"{\"type\":\"LineString\",\"coordinates\":[[-73.4933713,45.4624871],[-73.4933019,45.4624145],[-73.4932419,45.4622418],[-73.4931801,45.4618868],[-73.4929245,45.4599321]]}";59;"";1;50;false;true;true;false;false;false;288.0;0;0;0;0;0;false;76142;6133353982;-73.565987;45.498059;76080;6133354127;-73.5478906;45.3844531;0;0;1;9517680;Bus 100 : Direction Delson;"";EXO;100 S;Terminus Centre-Ville;Stationnement Incitatif Georges-Gagné
39180615;"{\"type\":\"LineString\",\"coordinates\":[[-73.4929245,45.4599321],[-73.4927255,45.457448]]}";60;Autoroute René-Levesque;3;100;false;true;true;false;false;false;277.0;0;0;0;0;0;false;76142;6133353982;-73.565987;45.498059;76080;6133354127;-73.5478906;45.3844531;0;0;1;9517680;Bus 100 : Direction Delson;"";EXO;100 S;Terminus Centre-Ville;Stationnement Incitatif Georges-Gagné
24554942;"{\"type\":\"LineString\",\"coordinates\":[[-73.4927255,45.457448],[-73.4926621,45.4566531]]}";61;Autoroute René-Levesque;3;100;false;true;true;false;false;false;89.0;0;0;0;0;0;false;76142;6133353982;-73.565987;45.498059;76080;6133354127;-73.5478906;45.3844531;0;0;1;9517680;Bus 100 : Direction Delson;"";EXO;100 S;Terminus Centre-Ville;Stationnement Incitatif Georges-Gagné
24554944;"{\"type\":\"LineString\",\"coordinates\":[[-73.4926621,45.4566531],[-73.4924915,45.4545157]]}";62;Autoroute René-Levesque;3;100;false;true;true;false;false;false;238.0;0;0;0;0;0;false;76142;6133353982;-73.565987;45.498059;76080;6133354127;-73.5478906;45.3844531;0;0;1;9517680;Bus 100 : Direction Delson;"";EXO;100 S;Terminus Centre-Ville;Stationnement Incitatif Georges-Gagné
800146076;"{\"type\":\"LineString\",\"coordinates\":[[-73.4924915,45.4545157],[-73.4924235,45.4535918],[-73.4923893,45.4527641],[-73.4924082,45.4522522],[-73.4924962,45.4511447],[-73.4925549,45.4504782],[-73.4926634,45.4492725],[-73.4928608,45.4470506],[-73.4929654,45.4459444],[-73.4930668,45.4447443]]}";63;Autoroute René-Levesque;3;100;false;true;true;false;false;false;1087.0;0;0;0;0;0;false;76142;6133353982;-73.565987;45.498059;76080;6133354127;-73.5478906;45.3844531;0;0;1;9517680;Bus 100 : Direction Delson;"";EXO;100 S;Terminus Centre-Ville;Stationnement Incitatif Georges-Gagné
800146075;"{\"type\":\"LineString\",\"coordinates\":[[-73.4930668,45.4447443],[-73.4932857,45.4424508],[-73.4932942,45.4420927],[-73.493279,45.4417346],[-73.4932392,45.4413342],[-73.4931526,45.4407637],[-73.4929911,45.4402604],[-73.492732,45.4396251],[-73.4923683,45.4388743],[-73.4922265,45.4385936],[-73.492097,45.4383042],[-73.4920028,45.4380745],[-73.491884,45.4377502],[-73.4917975,45.4374846],[-73.4917208,45.4372128],[-73.4916486,45.4369119],[-73.4916033,45.4366833],[-73.4915624,45.4364578],[-73.4915118,45.436116],[-73.4914274,45.4355241]]}";64;Autoroute René-Levesque;3;100;false;true;true;false;false;false;1043.0;0;0;0;0;0;false;76142;6133353982;-73.565987;45.498059;76080;6133354127;-73.5478906;45.3844531;0;0;1;9517680;Bus 100 : Direction Delson;"";EXO;100 S;Terminus Centre-Ville;Stationnement Incitatif Georges-Gagné
34395765;"{\"type\":\"LineString\",\"coordinates\":[[-73.4914274,45.4355241],[-73.4913492,45.4349669]]}";65;Autoroute René-Levesque;3;100;false;true;true;false;false;false;63.0;0;0;0;0;0;false;76142;6133353982;-73.565987;45.498059;76080;6133354127;-73.5478906;45.3844531;0;0;1;9517680;Bus 100 : Direction Delson;"";EXO;100 S;Terminus Centre-Ville;Stationnement Incitatif Georges-Gagné
34395766;"{\"type\":\"LineString\",\"coordinates\":[[-73.4913492,45.4349669],[-73.4912152,45.4340087],[-73.4911346,45.4334275],[-73.4909583,45.4321926],[-73.4908908,45.431756]]}";66;Autoroute René-Levesque;3;100;false;true;true;false;false;false;359.0;0;0;0;0;0;false;76142;6133353982;-73.565987;45.498059;76080;6133354127;-73.5478906;45.3844531;0;0;1;9517680;Bus 100 : Direction Delson;"";EXO;100 S;Terminus Centre-Ville;Stationnement Incitatif Georges-Gagné
13511249;"{\"type\":\"LineString\",\"coordinates\":[[-73.4908908,45.431756],[-73.4908483,45.4314654]]}";67;Autoroute René-Levesque;3;100;false;true;true;false;false;false;33.0;0;0;0;0;0;false;76142;6133353982;-73.565987;45.498059;76080;6133354127;-73.5478906;45.3844531;0;0;1;9517680;Bus 100 : Direction Delson;"";EXO;100 S;Terminus Centre-Ville;Stationnement Incitatif Georges-Gagné
685495610;"{\"type\":\"LineString\",\"coordinates\":[[-73.4908483,45.4314654],[-73.4907887,45.4310777],[-73.4907346,45.4306734],[-73.4907182,45.430535],[-73.4907071,45.4304232],[-73.4906981,45.430309],[-73.4906912,45.4301743],[-73.4906899,45.4300238],[-73.4906954,45.4298224],[-73.4907042,45.4295976]]}";68;Autoroute René-Levesque;3;100;false;true;true;false;false;false;209.0;0;0;0;0;0;false;76142;6133353982;-73.565987;45.498059;76080;6133354127;-73.5478906;45.3844531;0;0;1;9517680;Bus 100 : Direction Delson;"";EXO;100 S;Terminus Centre-Ville;Stationnement Incitatif Georges-Gagné
13511250;"{\"type\":\"LineString\",\"coordinates\":[[-73.4907042,45.4295976],[-73.4907159,45.4294696],[-73.4907325,45.4293173],[-73.4907543,45.429176],[-73.4907932,45.4289653],[-73.4908414,45.4287416],[-73.4908962,45.4285468],[-73.4909584,45.4283457],[-73.4910317,45.4281458],[-73.4910934,45.4279931],[-73.4911698,45.4278108],[-73.4912637,45.4276162],[-73.4913816,45.42739],[-73.4914855,45.4272115],[-73.4915933,45.4270385],[-73.4916972,45.4268827],[-73.4918373,45.4266838],[-73.4919801,45.426498],[-73.4921056,45.4263428],[-73.492252,45.4261773],[-73.4923593,45.4260603],[-73.4924942,45.4259184],[-73.4926208,45.4257946],[-73.4927942,45.4256294],[-73.492961,45.4254788],[-73.4930792,45.4253813],[-73.4932886,45.4252119],[-73.4938419,45.4247857],[-73.4945819,45.4242095],[-73.4948498,45.4239914],[-73.4950456,45.4238263],[-73.4952036,45.4236904],[-73.4954983,45.4234241]]}";69;Autoroute René-Levesque;3;100;false;true;true;false;false;false;801.0;0;0;0;0;0;false;76142;6133353982;-73.565987;45.498059;76080;6133354127;-73.5478906;45.3844531;0;0;1;9517680;Bus 100 : Direction Delson;"";EXO;100 S;Terminus Centre-Ville;Stationnement Incitatif Georges-Gagné
800146073;"{\"type\":\"LineString\",\"coordinates\":[[-73.4954983,45.4234241],[-73.4959169,45.4230327],[-73.4962695,45.4226778],[-73.4964583,45.4224811],[-73.4968249,45.422074],[-73.4971408,45.4216995],[-73.4974,45.4213777],[-73.4976032,45.4211087],[-73.4977741,45.4208694],[-73.4979737,45.4205847],[-73.4981175,45.4203698],[-73.498257,45.4201474],[-73.4984084,45.4198946],[-73.4985968,45.4195686],[-73.498685,45.4194095],[-73.4987977,45.4191968],[-73.4998854,45.4169966],[-73.500022,45.4167161],[-73.500251,45.4162527],[-73.5004272,45.4158945],[-73.5005974,45.4155613],[-73.500777,45.4151976],[-73.5009105,45.4149411],[-73.501016,45.4147568],[-73.5011274,45.4145886],[-73.5012502,45.4144124],[-73.5013956,45.4142223],[-73.5015364,45.4140513],[-73.5017,45.4138688],[-73.5018777,45.4136831],[-73.5020738,45.4134938],[-73.5022541,45.4133336],[-73.502453,45.413167]]}";70;Autoroute René-Levesque;3;100;false;true;true;false;false;false;1271.0;0;0;0;0;0;false;76142;6133353982;-73.565987;45.498059;76080;6133354127;-73.5478906;45.3844531;0;0;1;9517680;Bus 100 : Direction Delson;"";EXO;100 S;Terminus Centre-Ville;Stationnement Incitatif Georges-Gagné
25336992;"{\"type\":\"LineString\",\"coordinates\":[[-73.502453,45.413167],[-73.5027774,45.4129338],[-73.5029836,45.4127816],[-73.5032421,45.4125868],[-73.5035147,45.4123763],[-73.5036214,45.4122862],[-73.5037729,45.4121546],[-73.5039782,45.4119749],[-73.5040761,45.4118844],[-73.5042181,45.4117529],[-73.5043296,45.4116407],[-73.5044694,45.4114938],[-73.5045881,45.411364],[-73.5047754,45.4111403],[-73.5049384,45.4109396],[-73.5050554,45.4107771],[-73.505167,45.4106054],[-73.5052848,45.4103979],[-73.5054457,45.4100983],[-73.5056041,45.4098093],[-73.5058565,45.4093357],[-73.5059964,45.4090776],[-73.5061621,45.4087666]]}";71;"";1;65;false;true;true;false;false;false;576.0;0;0;0;0;0;false;76142;6133353982;-73.565987;45.498059;76080;6133354127;-73.5478906;45.3844531;0;0;1;9517680;Bus 100 : Direction Delson;"";EXO;100 S;Terminus Centre-Ville;Stationnement Incitatif Georges-Gagné
477422450;"{\"type\":\"LineString\",\"coordinates\":[[-73.5061621,45.4087666],[-73.5062836,45.4086154],[-73.5063305,45.4085609],[-73.5063741,45.408515],[-73.5064235,45.4084701],[-73.5064701,45.4084336],[-73.5064906,45.4084183],[-73.5064999,45.4084113],[-73.506533,45.40839],[-73.5065824,45.4083639],[-73.5066378,45.4083431],[-73.5066903,45.408324],[-73.5067412,45.4083052]]}";72;"";1;50;false;true;true;false;false;false;71.0;0;1;0;0;0;false;76142;6133353982;-73.565987;45.498059;76080;6133354127;-73.5478906;45.3844531;0;0;1;9517680;Bus 100 : Direction Delson;"";EXO;100 S;Terminus Centre-Ville;Stationnement Incitatif Georges-Gagné
477422448;"{\"type\":\"LineString\",\"coordinates\":[[-73.5067412,45.4083052],[-73.5068212,45.4082936],[-73.5068929,45.408282],[-73.5070281,45.4082581],[-73.5071295,45.4082375],[-73.5072115,45.4082197],[-73.5072679,45.4082042],[-73.5073494,45.4081788],[-73.5074199,45.4081563],[-73.5075058,45.4081256]]}";73;Route Marie-Victorin;2;50;false;false;true;false;false;false;64.0;0;1;0;0;0;false;76142;6133353982;-73.565987;45.498059;76080;6133354127;-73.5478906;45.3844531;0;0;1;9517680;Bus 100 : Direction Delson;"";EXO;100 S;Terminus Centre-Ville;Stationnement Incitatif Georges-Gagné
786055716;"{\"type\":\"LineString\",\"coordinates\":[[-73.5075058,45.4081256],[-73.5075841,45.4080933],[-73.5083763,45.4077565],[-73.508442,45.4077291],[-73.508714,45.4076157],[-73.5102556,45.4069731],[-73.5103743,45.4069236]]}";74;Route Marie-Victorin;2;50;false;false;true;false;false;false;262.0;0;2;1;0;0;false;76142;6133353982;-73.565987;45.498059;76080;6133354127;-73.5478906;45.3844531;0;0;1;9517680;Bus 100 : Direction Delson;"";EXO;100 S;Terminus Centre-Ville;Stationnement Incitatif Georges-Gagné
786055718;"{\"type\":\"LineString\",\"coordinates\":[[-73.5103743,45.4069236],[-73.5104504,45.4068934],[-73.510492,45.4068769],[-73.5108917,45.4067114],[-73.5114918,45.4064479],[-73.5116664,45.4063678],[-73.5118176,45.406294],[-73.5121953,45.4060998]]}";75;Route Marie-Victorin;2;50;false;false;true;false;false;false;170.0;0;1;1;0;0;false;76142;6133353982;-73.565987;45.498059;76080;6133354127;-73.5478906;45.3844531;0;0;1;9517680;Bus 100 : Direction Delson;"";EXO;100 S;Terminus Centre-Ville;Stationnement Incitatif Georges-Gagné
786210504;"{\"type\":\"LineString\",\"coordinates\":[[-73.5121953,45.4060998],[-73.5124038,45.4060235],[-73.5125735,45.4059605],[-73.5126962,45.4059066],[-73.5127728,45.4058705]]}";76;Route Marie-Victorin;1;50;false;true;true;false;false;false;52.0;0;0;0;0;0;false;76142;6133353982;-73.565987;45.498059;76080;6133354127;-73.5478906;45.3844531;0;0;1;9517680;Bus 100 : Direction Delson;"";EXO;100 S;Terminus Centre-Ville;Stationnement Incitatif Georges-Gagné
786210505;"{\"type\":\"LineString\",\"coordinates\":[[-73.5127728,45.4058705],[-73.5130433,45.4057479]]}";77;Route Marie-Victorin;2;50;false;true;true;false;false;false;26.0;0;0;0;0;0;false;76142;6133353982;-73.565987;45.498059;76080;6133354127;-73.5478906;45.3844531;0;0;1;9517680;Bus 100 : Direction Delson;"";EXO;100 S;Terminus Centre-Ville;Stationnement Incitatif Georges-Gagné
786210506;"{\"type\":\"LineString\",\"coordinates\":[[-73.5130433,45.4057479],[-73.5131603,45.4056952]]}";78;Route Marie-Victorin;1;50;false;true;true;false;false;false;11.0;0;1;0;0;0;false;76142;6133353982;-73.565987;45.498059;76080;6133354127;-73.5478906;45.3844531;0;0;1;9517680;Bus 100 : Direction Delson;"";EXO;100 S;Terminus Centre-Ville;Stationnement Incitatif Georges-Gagné
786210518;"{\"type\":\"LineString\",\"coordinates\":[[-73.5131603,45.4056952],[-73.5131964,45.4056786],[-73.5134947,45.4055341],[-73.5136588,45.405435]]}";79;Boulevard Marie-Victorin;1;50;false;true;true;false;false;false;49.0;0;1;0;0;0;false;76142;6133353982;-73.565987;45.498059;76080;6133354127;-73.5478906;45.3844531;0;0;1;9517680;Bus 100 : Direction Delson;"";EXO;100 S;Terminus Centre-Ville;Stationnement Incitatif Georges-Gagné
10271279;"{\"type\":\"LineString\",\"coordinates\":[[-73.5136588,45.405435],[-73.5144104,45.4050757],[-73.5145425,45.4050149],[-73.5145882,45.404995],[-73.5146405,45.4049722],[-73.514676,45.4049568]]}";80;Boulevard Marie-Victorin;2;50;false;false;true;false;false;false;96.0;0;1;0;0;0;false;76142;6133353982;-73.565987;45.498059;76080;6133354127;-73.5478906;45.3844531;0;0;1;9517680;Bus 100 : Direction Delson;"";EXO;100 S;Terminus Centre-Ville;Stationnement Incitatif Georges-Gagné
786210512;"{\"type\":\"LineString\",\"coordinates\":[[-73.514676,45.4049568],[-73.5148952,45.4048875],[-73.5150465,45.4048265],[-73.5151876,45.404768],[-73.515449,45.404653],[-73.5157705,45.4044771],[-73.5158866,45.4044136]]}";81;Boulevard Marie-Victorin;2;50;false;true;true;false;false;false;113.0;0;0;0;0;0;false;76142;6133353982;-73.565987;45.498059;76080;6133354127;-73.5478906;45.3844531;0;0;1;9517680;Bus 100 : Direction Delson;"";EXO;100 S;Terminus Centre-Ville;Stationnement Incitatif Georges-Gagné
786210511;"{\"type\":\"LineString\",\"coordinates\":[[-73.5158866,45.4044136],[-73.5164674,45.4041394],[-73.5166389,45.4040584],[-73.5167645,45.4039991],[-73.5168787,45.4039452],[-73.517009,45.4038833],[-73.5171119,45.4038344],[-73.5173099,45.4037417],[-73.5173578,45.4037193],[-73.5175048,45.4036495],[-73.5175656,45.4036206],[-73.5177457,45.4035327],[-73.5178616,45.4034761],[-73.5179864,45.4034101],[-73.5181805,45.4033075],[-73.518278,45.4032522],[-73.5182959,45.403242],[-73.5184717,45.4031423],[-73.5188502,45.4029276],[-73.5189911,45.4028477]]}";82;Boulevard Marie-Victorin;2;50;false;false;true;false;false;false;299.0;0;2;0;0;0;false;76142;6133353982;-73.565987;45.498059;76080;6133354127;-73.5478906;45.3844531;0;0;1;9517680;Bus 100 : Direction Delson;"";EXO;100 S;Terminus Centre-Ville;Stationnement Incitatif Georges-Gagné
786210536;"{\"type\":\"LineString\",\"coordinates\":[[-73.5189911,45.4028477],[-73.5191171,45.4028007],[-73.5191504,45.4027882],[-73.5192097,45.402766],[-73.5194247,45.4026442],[-73.5195609,45.4025643],[-73.5196485,45.4025112],[-73.5197431,45.402445],[-73.5198191,45.402373]]}";83;Boulevard Marie-Victorin;2;50;false;true;true;false;false;false;85.0;0;0;0;0;0;false;76142;6133353982;-73.565987;45.498059;76080;6133354127;-73.5478906;45.3844531;0;0;1;9517680;Bus 100 : Direction Delson;"";EXO;100 S;Terminus Centre-Ville;Stationnement Incitatif Georges-Gagné
786210534;"{\"type\":\"LineString\",\"coordinates\":[[-73.5198191,45.402373],[-73.5198551,45.4023518],[-73.5200557,45.4022341],[-73.5202765,45.4021045],[-73.5203691,45.4020501],[-73.5209612,45.4017025]]}";84;Boulevard Marie-Victorin;2;50;false;false;true;false;false;false;117.0;0;2;0;0;0;false;76142;6133353982;-73.565987;45.498059;76080;6133354127;-73.5478906;45.3844531;0;0;1;9517680;Bus 100 : Direction Delson;"";EXO;100 S;Terminus Centre-Ville;Stationnement Incitatif Georges-Gagné
786218484;"{\"type\":\"LineString\",\"coordinates\":[[-73.5209612,45.4017025],[-73.5210581,45.4016693],[-73.5210976,45.4016557],[-73.5213228,45.4015298],[-73.5215053,45.4014244],[-73.5216094,45.4013558],[-73.5216889,45.4013014],[-73.5217313,45.4012724],[-73.5219098,45.4011402]]}";85;Boulevard Marie-Victorin;2;50;false;true;true;false;false;false;98.0;0;1;0;0;0;false;76142;6133353982;-73.565987;45.498059;76080;6133354127;-73.5478906;45.3844531;0;0;1;9517680;Bus 100 : Direction Delson;"";EXO;100 S;Terminus Centre-Ville;Stationnement Incitatif Georges-Gagné
786218483;"{\"type\":\"LineString\",\"coordinates\":[[-73.5219098,45.4011402],[-73.5222493,45.400943],[-73.5223009,45.400913],[-73.5225047,45.4007947],[-73.5226491,45.4007108],[-73.5227246,45.400667],[-73.5229177,45.4005548],[-73.5230088,45.4005019]]}";86;Boulevard Marie-Victorin;2;50;false;false;true;false;false;false;112.0;0;2;0;0;0;false;76142;6133353982;-73.565987;45.498059;76080;6133354127;-73.5478906;45.3844531;0;0;1;9517680;Bus 100 : Direction Delson;"";EXO;100 S;Terminus Centre-Ville;Stationnement Incitatif Georges-Gagné
786218503;"{\"type\":\"LineString\",\"coordinates\":[[-73.5230088,45.4005019],[-73.523305,45.4003275],[-73.5234088,45.4002671]]}";87;Boulevard Marie-Victorin;3;50;false;false;true;false;false;false;41.0;1;0;0;0;0;false;76142;6133353982;-73.565987;45.498059;76080;6133354127;-73.5478906;45.3844531;0;0;1;9517680;Bus 100 : Direction Delson;"";EXO;100 S;Terminus Centre-Ville;Stationnement Incitatif Georges-Gagné
685306394;"{\"type\":\"LineString\",\"coordinates\":[[-73.5234088,45.4002671],[-73.5234972,45.4002171]]}";88;Boulevard Marie-Victorin;4;50;false;false;true;false;false;false;9.0;0;1;0;0;0;false;76142;6133353982;-73.565987;45.498059;76080;6133354127;-73.5478906;45.3844531;0;0;1;9517680;Bus 100 : Direction Delson;"";EXO;100 S;Terminus Centre-Ville;Stationnement Incitatif Georges-Gagné
786243089;"{\"type\":\"LineString\",\"coordinates\":[[-73.5234972,45.4002171],[-73.5235304,45.4001984],[-73.5241612,45.3998442]]}";89;Boulevard Marie-Victorin;4;50;false;false;true;false;false;false;67.0;1;1;0;0;0;false;76142;6133353982;-73.565987;45.498059;76080;6133354127;-73.5478906;45.3844531;0;0;1;9517680;Bus 100 : Direction Delson;"";EXO;100 S;Terminus Centre-Ville;Stationnement Incitatif Georges-Gagné
786231988;"{\"type\":\"LineString\",\"coordinates\":[[-73.5241612,45.3998442],[-73.5246407,45.3995749]]}";90;Boulevard Marie-Victorin;4;50;false;false;true;false;false;false;48.0;0;0;0;0;0;false;76142;6133353982;-73.565987;45.498059;76080;6133354127;-73.5478906;45.3844531;0;0;1;9517680;Bus 100 : Direction Delson;"";EXO;100 S;Terminus Centre-Ville;Stationnement Incitatif Georges-Gagné
797707720;"{\"type\":\"LineString\",\"coordinates\":[[-73.5246407,45.3995749],[-73.5250824,45.3993268]]}";91;Boulevard Marie-Victorin;4;50;false;false;true;false;false;false;45.0;0;0;0;0;0;false;76142;6133353982;-73.565987;45.498059;76080;6133354127;-73.5478906;45.3844531;0;0;1;9517680;Bus 100 : Direction Delson;"";EXO;100 S;Terminus Centre-Ville;Stationnement Incitatif Georges-Gagné
797707719;"{\"type\":\"LineString\",\"coordinates\":[[-73.5250824,45.3993268],[-73.5257006,45.3989787],[-73.5260993,45.3987542],[-73.5262037,45.3986955],[-73.5263422,45.3986148],[-73.5265623,45.3984866],[-73.5266896,45.3984124],[-73.5271132,45.3981656],[-73.5271388,45.3981511],[-73.5272515,45.3980886]]}";92;Boulevard Marie-Victorin;4;50;false;false;true;false;false;false;219.0;1;1;0;0;0;false;76142;6133353982;-73.565987;45.498059;76080;6133354127;-73.5478906;45.3844531;0;0;1;9517680;Bus 100 : Direction Delson;"";EXO;100 S;Terminus Centre-Ville;Stationnement Incitatif Georges-Gagné
685306396;"{\"type\":\"LineString\",\"coordinates\":[[-73.5272515,45.3980886],[-73.5273647,45.398023],[-73.5273894,45.3980085],[-73.5277733,45.3977872],[-73.5280796,45.3976132],[-73.5281618,45.3975671],[-73.5285219,45.3973651],[-73.5287467,45.3972349],[-73.5295364,45.3967776],[-73.529713,45.3966755],[-73.5297515,45.3966532],[-73.5298405,45.3966044]]}";93;Chemin Saint-François-Xavier;2;50;false;false;true;false;false;false;262.0;1;3;1;0;0;false;76142;6133353982;-73.565987;45.498059;76080;6133354127;-73.5478906;45.3844531;0;0;1;9517680;Bus 100 : Direction Delson;"";EXO;100 S;Terminus Centre-Ville;Stationnement Incitatif Georges-Gagné
23845494;"{\"type\":\"LineString\",\"coordinates\":[[-73.5298405,45.3966044],[-73.5299185,45.3965583],[-73.5299456,45.3965425],[-73.5309517,45.3959629],[-73.5310689,45.3958928],[-73.5312084,45.3958084],[-73.5313067,45.3957481],[-73.5313948,45.3956902],[-73.5314696,45.3956386],[-73.5315607,45.3955708],[-73.5316437,45.3955062],[-73.5317234,45.3954388],[-73.5317926,45.395378],[-73.531862,45.3953088],[-73.5319152,45.3952538],[-73.5319841,45.3951787],[-73.5320385,45.3951156],[-73.5320922,45.3950509],[-73.5321489,45.3949767]]}";94;Chemin Saint-François-Xavier;2;50;false;false;true;false;false;false;258.0;0;1;1;0;0;false;76142;6133353982;-73.565987;45.498059;76080;6133354127;-73.5478906;45.3844531;0;0;1;9517680;Bus 100 : Direction Delson;"";EXO;100 S;Terminus Centre-Ville;Stationnement Incitatif Georges-Gagné
685306393;"{\"type\":\"LineString\",\"coordinates\":[[-73.5321489,45.3949767],[-73.5322226,45.394874],[-73.532274,45.3947888],[-73.5323165,45.3947168],[-73.5323604,45.3946312],[-73.5324033,45.3945354],[-73.5324477,45.3944281],[-73.5325001,45.3942906],[-73.5325507,45.3941597],[-73.5325912,45.3940521],[-73.5326193,45.3939632],[-73.5326413,45.3938871],[-73.5326635,45.3937876],[-73.5326852,45.3936905],[-73.5326983,45.3936224],[-73.5327018,45.3936016],[-73.5327178,45.3935062],[-73.53273,45.3933906],[-73.5327353,45.3932777],[-73.5327373,45.3931764],[-73.5327358,45.3930487],[-73.5327299,45.3928789],[-73.5327098,45.3923528],[-73.5327089,45.3923299],[-73.5327071,45.3922789]]}";95;Chemin Saint-François-Xavier;2;50;false;false;true;false;false;false;307.0;0;2;3;0;0;false;76142;6133353982;-73.565987;45.498059;76080;6133354127;-73.5478906;45.3844531;0;0;1;9517680;Bus 100 : Direction Delson;"";EXO;100 S;Terminus Centre-Ville;Stationnement Incitatif Georges-Gagné
43665447;"{\"type\":\"LineString\",\"coordinates\":[[-73.5327071,45.3922789],[-73.5327036,45.3921968],[-73.5326579,45.3911048],[-73.5326193,45.3902598],[-73.5325974,45.3896896]]}";96;Chemin Saint-François-Xavier;2;50;false;false;true;false;false;false;288.0;0;1;1;0;0;false;76142;6133353982;-73.565987;45.498059;76080;6133354127;-73.5478906;45.3844531;0;0;1;9517680;Bus 100 : Direction Delson;"";EXO;100 S;Terminus Centre-Ville;Stationnement Incitatif Georges-Gagné
798138682;"{\"type\":\"LineString\",\"coordinates\":[[-73.5325974,45.3896896],[-73.5325967,45.3896696],[-73.5325633,45.3886473],[-73.5325622,45.3886094],[-73.5325493,45.388199],[-73.5325492,45.3881471],[-73.5325534,45.3879557],[-73.5325599,45.3878588],[-73.5325664,45.3877726],[-73.5325783,45.3876839],[-73.5325903,45.387611],[-73.5326015,45.3875387],[-73.5326209,45.3874504],[-73.5326442,45.387353],[-73.5326939,45.3871884],[-73.53273,45.3870757],[-73.5327368,45.3870547],[-73.5327606,45.3869889]]}";97;Chemin Saint-François-Xavier;2;30;false;false;true;false;false;false;302.0;0;4;1;0;0;false;76142;6133353982;-73.565987;45.498059;76080;6133354127;-73.5478906;45.3844531;0;0;1;9517680;Bus 100 : Direction Delson;"";EXO;100 S;Terminus Centre-Ville;Stationnement Incitatif Georges-Gagné
685306392;"{\"type\":\"LineString\",\"coordinates\":[[-73.5327606,45.3869889],[-73.5327815,45.3869326],[-73.5328033,45.38687],[-73.5328331,45.3868011],[-73.5328746,45.3867141],[-73.533315,45.3858182],[-73.533435,45.3855795],[-73.5335174,45.3854194],[-73.533557,45.3853432],[-73.5335999,45.3852671],[-73.5336348,45.3852078]]}";98;Chemin Saint-François-Xavier;2;50;false;false;true;false;false;false;210.0;0;1;0;0;0;false;76142;6133353982;-73.565987;45.498059;76080;6133354127;-73.5478906;45.3844531;0;0;1;9517680;Bus 100 : Direction Delson;"";EXO;100 S;Terminus Centre-Ville;Stationnement Incitatif Georges-Gagné
312847935;"{\"type\":\"LineString\",\"coordinates\":[[-73.5336348,45.3852078],[-73.5337496,45.3850641],[-73.533768,45.3850377],[-73.5338013,45.38499],[-73.5338583,45.384915],[-73.5338721,45.3848969],[-73.5339778,45.3847606],[-73.534265,45.3844118],[-73.5342823,45.3843902],[-73.5343501,45.384306]]}";99;Chemin Saint-François-Xavier;2;50;false;true;true;false;false;false;115.0;0;1;1;0;0;false;76142;6133353982;-73.565987;45.498059;76080;6133354127;-73.5478906;45.3844531;0;0;1;9517680;Bus 100 : Direction Delson;"";EXO;100 S;Terminus Centre-Ville;Stationnement Incitatif Georges-Gagné
803086563;"{\"type\":\"LineString\",\"coordinates\":[[-73.5343501,45.384306],[-73.5343773,45.3842682],[-73.5344277,45.3842046],[-73.5344802,45.3841343],[-73.5345434,45.3840481],[-73.5345857,45.38398],[-73.5346178,45.3839261],[-73.5347003,45.3837912]]}";100;Chemin Saint-François-Xavier;2;50;false;true;true;false;false;false;64.0;0;0;0;0;0;false;76142;6133353982;-73.565987;45.498059;76080;6133354127;-73.5478906;45.3844531;0;0;1;9517680;Bus 100 : Direction Delson;"";EXO;100 S;Terminus Centre-Ville;Stationnement Incitatif Georges-Gagné
803086577;"{\"type\":\"LineString\",\"coordinates\":[[-73.5347003,45.3837912],[-73.5347378,45.3837255],[-73.5347659,45.3836722],[-73.5347892,45.3836237],[-73.5348029,45.3835928]]}";101;Chemin Saint-François-Xavier;3;50;false;true;true;false;false;false;24.0;0;0;0;0;0;false;76142;6133353982;-73.565987;45.498059;76080;6133354127;-73.5478906;45.3844531;0;0;1;9517680;Bus 100 : Direction Delson;"";EXO;100 S;Terminus Centre-Ville;Stationnement Incitatif Georges-Gagné
803086576;"{\"type\":\"LineString\",\"coordinates\":[[-73.5348029,45.3835928],[-73.5348431,45.3835021],[-73.5348915,45.3834018],[-73.5349531,45.3832589],[-73.5349751,45.3832034],[-73.5350024,45.3831334],[-73.5350282,45.3830549],[-73.5350635,45.3829344],[-73.5350862,45.3828521],[-73.5351044,45.3827745],[-73.5351306,45.3826665],[-73.5351511,45.3825616],[-73.5351666,45.3824822],[-73.5351844,45.382412],[-73.5351998,45.3823635],[-73.5352272,45.3822785],[-73.5352587,45.3821879],[-73.5352925,45.3820984],[-73.5352998,45.3820782],[-73.5353204,45.3820212]]}";102;Chemin Saint-François-Xavier;2;50;false;true;true;false;false;false;180.0;1;1;0;0;0;false;76142;6133353982;-73.565987;45.498059;76080;6133354127;-73.5478906;45.3844531;0;0;1;9517680;Bus 100 : Direction Delson;"";EXO;100 S;Terminus Centre-Ville;Stationnement Incitatif Georges-Gagné
719455494;"{\"type\":\"LineString\",\"coordinates\":[[-73.5353204,45.3820212],[-73.535578,45.3821367],[-73.5357105,45.3821962]]}";103;"";2;50;false;true;true;false;false;false;37.0;0;0;0;0;0;false;76142;6133353982;-73.565987;45.498059;76080;6133354127;-73.5478906;45.3844531;0;0;1;9517680;Bus 100 : Direction Delson;"";EXO;100 S;Terminus Centre-Ville;Stationnement Incitatif Georges-Gagné
419586846;"{\"type\":\"LineString\",\"coordinates\":[[-73.5357105,45.3821962],[-73.5361886,45.3823487],[-73.5363199,45.3823896],[-73.5364525,45.382426],[-73.5365924,45.3824647],[-73.5370097,45.3825784],[-73.5374196,45.3826926],[-73.5375705,45.3827339],[-73.5377554,45.3827836],[-73.5380271,45.3828576],[-73.5381385,45.3828914],[-73.5382329,45.3829199]]}";104;"";1;65;false;true;false;false;false;false;214.0;0;0;0;0;0;false;76142;6133353982;-73.565987;45.498059;76080;6133354127;-73.5478906;45.3844531;0;0;1;9517680;Bus 100 : Direction Delson;"";EXO;100 S;Terminus Centre-Ville;Stationnement Incitatif Georges-Gagné
800562607;"{\"type\":\"LineString\",\"coordinates\":[[-73.5382329,45.3829199],[-73.5385474,45.3830212]]}";105;"";1;65;false;true;false;false;false;false;28.0;0;0;0;0;0;false;76142;6133353982;-73.565987;45.498059;76080;6133354127;-73.5478906;45.3844531;0;0;1;9517680;Bus 100 : Direction Delson;"";EXO;100 S;Terminus Centre-Ville;Stationnement Incitatif Georges-Gagné
800562608;"{\"type\":\"LineString\",\"coordinates\":[[-73.5385474,45.3830212],[-73.5387316,45.3830789],[-73.5388739,45.3831211],[-73.5390051,45.3831598],[-73.5391979,45.3832115],[-73.5393977,45.3832646],[-73.539577,45.3833089],[-73.5398524,45.3833743],[-73.5400723,45.3834227]]}";106;"";1;65;false;true;false;false;false;false;128.0;0;0;0;0;0;false;76142;6133353982;-73.565987;45.498059;76080;6133354127;-73.5478906;45.3844531;0;0;1;9517680;Bus 100 : Direction Delson;"";EXO;100 S;Terminus Centre-Ville;Stationnement Incitatif Georges-Gagné
800562606;"{\"type\":\"LineString\",\"coordinates\":[[-73.5400723,45.3834227],[-73.5402991,45.3834779],[-73.5406129,45.3835504]]}";107;Route 132;4;70;false;true;false;false;false;false;45.0;0;0;0;0;0;false;76142;6133353982;-73.565987;45.498059;76080;6133354127;-73.5478906;45.3844531;0;0;1;9517680;Bus 100 : Direction Delson;"";EXO;100 S;Terminus Centre-Ville;Stationnement Incitatif Georges-Gagné
803003041;"{\"type\":\"LineString\",\"coordinates\":[[-73.5406129,45.3835504],[-73.5406941,45.3835692],[-73.5412765,45.383704],[-73.5414041,45.3837355]]}";108;Route 132;4;70;false;true;false;false;false;false;66.0;1;0;0;0;0;false;76142;6133353982;-73.565987;45.498059;76080;6133354127;-73.5478906;45.3844531;0;0;1;9517680;Bus 100 : Direction Delson;"";EXO;100 S;Terminus Centre-Ville;Stationnement Incitatif Georges-Gagné
86578390;"{\"type\":\"LineString\",\"coordinates\":[[-73.5414041,45.3837355],[-73.5415329,45.3837697]]}";109;Route 132;3;70;false;true;true;false;false;false;11.0;0;0;0;0;0;false;76142;6133353982;-73.565987;45.498059;76080;6133354127;-73.5478906;45.3844531;0;0;1;9517680;Bus 100 : Direction Delson;"";EXO;100 S;Terminus Centre-Ville;Stationnement Incitatif Georges-Gagné
800562614;"{\"type\":\"LineString\",\"coordinates\":[[-73.5415329,45.3837697],[-73.5416934,45.3838125],[-73.5420598,45.3838933],[-73.5426232,45.3840031]]}";110;Route 132;3;70;false;true;true;false;false;false;90.0;0;1;0;0;0;false;76142;6133353982;-73.565987;45.498059;76080;6133354127;-73.5478906;45.3844531;0;0;1;9517680;Bus 100 : Direction Delson;"";EXO;100 S;Terminus Centre-Ville;Stationnement Incitatif Georges-Gagné
799183070;"{\"type\":\"LineString\",\"coordinates\":[[-73.5448668,45.3848215],[-73.5446858,45.3847766],[-73.5446419,45.3847657],[-73.544461,45.3847185],[-73.5443237,45.3846804],[-73.5441758,45.3846356],[-73.5440855,45.3846063],[-73.544031,45.3845887],[-73.5438778,45.3845336],[-73.5437256,45.3844733],[-73.5435888,45.3844146],[-73.543526,45.3843877],[-73.5434849,45.3843695],[-73.5433998,45.3843317],[-73.5431385,45.3842156],[-73.5429907,45.38415],[-73.5428768,45.384101],[-73.5428266,45.3840799],[-73.5427867,45.3840632],[-73.5427321,45.3840431],[-73.5426938,45.384029],[-73.5426232,45.3840031]]}";111;Route 132;5;70;false;false;true;false;false;false;199.0;0;0;0;0;0;false;76142;6133353982;-73.565987;45.498059;76080;6133354127;-73.5478906;45.3844531;0;0;1;9517680;Bus 100 : Direction Delson;"";EXO;100 S;Terminus Centre-Ville;Stationnement Incitatif Georges-Gagné
349640918;"{\"type\":\"LineString\",\"coordinates\":[[-73.5456486,45.3850133],[-73.5450047,45.3848553],[-73.5448668,45.3848215]]}";112;Route 132;4;70;false;false;true;false;false;false;65.0;0;0;0;0;0;false;76142;6133353982;-73.565987;45.498059;76080;6133354127;-73.5478906;45.3844531;0;0;1;9517680;Bus 100 : Direction Delson;"";EXO;100 S;Terminus Centre-Ville;Stationnement Incitatif Georges-Gagné
545444653;"{\"type\":\"LineString\",\"coordinates\":[[-73.5456486,45.3850133],[-73.5461889,45.3852276]]}";113;Route 132;3;70;false;true;true;false;false;false;49.0;0;0;0;0;0;false;76142;6133353982;-73.565987;45.498059;76080;6133354127;-73.5478906;45.3844531;0;0;1;9517680;Bus 100 : Direction Delson;"";EXO;100 S;Terminus Centre-Ville;Stationnement Incitatif Georges-Gagné
799183071;"{\"type\":\"LineString\",\"coordinates\":[[-73.5461889,45.3852276],[-73.5468044,45.3853852],[-73.546995,45.3854337]]}";114;Route 132;4;70;false;true;true;false;false;false;68.0;1;0;0;0;0;false;76142;6133353982;-73.565987;45.498059;76080;6133354127;-73.5478906;45.3844531;0;0;1;9517680;Bus 100 : Direction Delson;"";EXO;100 S;Terminus Centre-Ville;Stationnement Incitatif Georges-Gagné
462488433;"{\"type\":\"LineString\",\"coordinates\":[[-73.5470552,45.3853171],[-73.546995,45.3854337]]}";115;Boulevard Georges-Gagné Sud;4;50;false;false;true;false;false;false;14.0;0;0;0;0;0;false;76142;6133353982;-73.565987;45.498059;76080;6133354127;-73.5478906;45.3844531;0;0;1;9517680;Bus 100 : Direction Delson;"";EXO;100 S;Terminus Centre-Ville;Stationnement Incitatif Georges-Gagné
462488434;"{\"type\":\"LineString\",\"coordinates\":[[-73.5472818,45.3848615],[-73.5471268,45.3851711],[-73.5470552,45.3853171]]}";116;Boulevard Georges-Gagné Sud;3;50;false;false;true;false;false;false;54.0;1;0;0;0;0;false;76142;6133353982;-73.565987;45.498059;76080;6133354127;-73.5478906;45.3844531;0;0;1;9517680;Bus 100 : Direction Delson;"";EXO;100 S;Terminus Centre-Ville;Stationnement Incitatif Georges-Gagné
801354426;"{\"type\":\"LineString\",\"coordinates\":[[-73.5474046,45.3846145],[-73.5473662,45.3846918],[-73.5472818,45.3848615]]}";117;Boulevard Georges-Gagné Sud;4;50;false;false;true;false;false;false;30.0;0;0;0;0;0;false;76142;6133353982;-73.565987;45.498059;76080;6133354127;-73.5478906;45.3844531;0;0;1;9517680;Bus 100 : Direction Delson;"";EXO;100 S;Terminus Centre-Ville;Stationnement Incitatif Georges-Gagné
798994210;"{\"type\":\"LineString\",\"coordinates\":[[-73.5474325,45.3845584],[-73.5474046,45.3846145]]}";118;Boulevard Georges-Gagné Sud;4;50;false;false;true;false;false;false;7.0;0;0;0;0;0;false;76142;6133353982;-73.565987;45.498059;76080;6133354127;-73.5478906;45.3844531;0;0;1;9517680;Bus 100 : Direction Delson;"";EXO;100 S;Terminus Centre-Ville;Stationnement Incitatif Georges-Gagné
798994211;"{\"type\":\"LineString\",\"coordinates\":[[-73.5474325,45.3845584],[-73.5475239,45.3845788],[-73.5475804,45.3845909],[-73.5476084,45.3845958],[-73.5476404,45.3845958],[-73.5476745,45.3845888],[-73.5477025,45.3845733],[-73.5477205,45.3845536],[-73.5478647,45.3842618],[-73.5478777,45.3842309],[-73.5478807,45.384214],[-73.5478777,45.3841957],[-73.5478607,45.3841732],[-73.5478316,45.3841557],[-73.5477946,45.3841409],[-73.5477804,45.3841368],[-73.5477512,45.3841289],[-73.5477025,45.384117],[-73.5476571,45.3841066]]}";119;"";1;50;false;true;true;false;false;false;88.0;0;2;1;0;0;false;76142;6133353982;-73.565987;45.498059;76080;6133354127;-73.5478906;45.3844531;1;0;1;9517680;Bus 100 : Direction Delson;"";EXO;100 S;Terminus Centre-Ville;Stationnement Incitatif Georges-Gagné
