way_id;shape;index;name;nb_lanes;legal_speed;speed_zone_30;oneway;shares_bike;bike_box;bus_lane;dedicated_bus_lane;length;nb_traffic_signals;nb_crossings;nb_stops;nb_give_ways;nb_lvl_crossings;roundabout;stop_id_orig;node_id_orig;coord_x_orig;coord_y_orig;stop_id_dest;node_id_dest;coord_x_dest;coord_y_dest;nb_neighbouring_ways_bus_stop;ordre_orig;ordre_dest;id_line;line_name;colour;operator;ref;from;to
393883776;"{\"type\":\"LineString\",\"coordinates\":[[-73.5548439,45.5517494],[-73.5553524,45.5519064],[-73.5557227,45.552021],[-73.5564498,45.552247],[-73.5565183,45.5522689],[-73.5565663,45.5522842],[-73.5604226,45.5535139]]}";1;Avenue Bourbonnière;1;50;false;true;true;false;false;false;478.0;2;0;0;0;0;false;54009;6010980114;-73.556253;45.552251;52774;5062486321;-73.5605485;45.5534144;1;4;5;5909480;Bus 97 : Avenue-du-Mont-Royal Ouest;"";STM;97-O;Station Pie-IX (Pierre-de-Coubertin / Pie-IX);Parc du Mont-Royal
460509175;"{\"type\":\"LineString\",\"coordinates\":[[-73.5604226,45.5535139],[-73.5606227,45.5532214]]}";2;Avenue du Mont-Royal Est;1;40;false;false;true;false;false;false;18.5;0;0;0;0;0;false;54009;6010980114;-73.556253;45.552251;52774;5062486321;-73.5605485;45.5534144;1;4;5;5909480;Bus 97 : Avenue-du-Mont-Royal Ouest;"";STM;97-O;Station Pie-IX (Pierre-de-Coubertin / Pie-IX);Parc du Mont-Royal
393883776;"{\"type\":\"LineString\",\"coordinates\":[[-73.5548439,45.5517494],[-73.5553524,45.5519064],[-73.5557227,45.552021],[-73.5564498,45.552247],[-73.5565183,45.5522689],[-73.5565663,45.5522842],[-73.5604226,45.5535139]]}";1;Avenue Bourbonnière;1;50;false;true;true;false;false;false;478.0;2;0;0;0;0;false;52774;5062486321;-73.5605485;45.5534144;52734;5042093322;-73.5621704;45.5516742;2;5;6;5909480;Bus 97 : Avenue-du-Mont-Royal Ouest;"";STM;97-O;Station Pie-IX (Pierre-de-Coubertin / Pie-IX);Parc du Mont-Royal
460509175;"{\"type\":\"LineString\",\"coordinates\":[[-73.5604226,45.5535139],[-73.5606227,45.5532214]]}";2;Avenue du Mont-Royal Est;1;40;false;false;true;false;false;false;37.0;0;0;0;0;0;false;52774;5062486321;-73.5605485;45.5534144;52734;5042093322;-73.5621704;45.5516742;0;5;6;5909480;Bus 97 : Avenue-du-Mont-Royal Ouest;"";STM;97-O;Station Pie-IX (Pierre-de-Coubertin / Pie-IX);Parc du Mont-Royal
393883910;"{\"type\":\"LineString\",\"coordinates\":[[-73.5606227,45.5532214],[-73.5606475,45.5531852],[-73.5609157,45.5528572],[-73.5615199,45.5522221],[-73.5621592,45.5516108],[-73.5627859,45.5509914],[-73.5634113,45.5503871],[-73.5635241,45.5502716],[-73.5636263,45.5501682],[-73.5640369,45.5497649],[-73.5641619,45.5496562],[-73.5642634,45.5495311],[-73.564341,45.5494197],[-73.5644339,45.5492834],[-73.5648116,45.5486413]]}";3;Avenue du Mont-Royal Est;1;40;false;false;true;false;false;false;607.0;0;0;0;0;0;false;52774;5062486321;-73.5605485;45.5534144;52734;5042093322;-73.5621704;45.5516742;2;5;6;5909480;Bus 97 : Avenue-du-Mont-Royal Ouest;"";STM;97-O;Station Pie-IX (Pierre-de-Coubertin / Pie-IX);Parc du Mont-Royal
393883910;"{\"type\":\"LineString\",\"coordinates\":[[-73.5606227,45.5532214],[-73.5606475,45.5531852],[-73.5609157,45.5528572],[-73.5615199,45.5522221],[-73.5621592,45.5516108],[-73.5627859,45.5509914],[-73.5634113,45.5503871],[-73.5635241,45.5502716],[-73.5636263,45.5501682],[-73.5640369,45.5497649],[-73.5641619,45.5496562],[-73.5642634,45.5495311],[-73.564341,45.5494197],[-73.5644339,45.5492834],[-73.5648116,45.5486413]]}";1;Avenue du Mont-Royal Est;1;40;false;false;true;false;false;false;303.5;0;0;0;0;0;false;52638;6010971118;-73.564648;45.549045;53826;6010973963;-73.562118;45.54767;1;8;9;5909480;Bus 97 : Avenue-du-Mont-Royal Ouest;"";STM;97-O;Station Pie-IX (Pierre-de-Coubertin / Pie-IX);Parc du Mont-Royal
393887193;"{\"type\":\"LineString\",\"coordinates\":[[-73.5648116,45.5486413],[-73.5648734,45.5485409]]}";2;Avenue du Mont-Royal Est;1;40;false;false;true;false;false;false;13.0;0;0;0;0;0;false;52638;6010971118;-73.564648;45.549045;53826;6010973963;-73.562118;45.54767;0;8;9;5909480;Bus 97 : Avenue-du-Mont-Royal Ouest;"";STM;97-O;Station Pie-IX (Pierre-de-Coubertin / Pie-IX);Parc du Mont-Royal
393884071;"{\"type\":\"LineString\",\"coordinates\":[[-73.5648734,45.5485409],[-73.5640984,45.5483085],[-73.5634026,45.5480999],[-73.5627069,45.5478913],[-73.5619346,45.5476597],[-73.5597654,45.5469955],[-73.5596663,45.547007],[-73.5596065,45.5470139]]}";3;Boulevard Saint-Michel;1;50;false;true;true;false;false;false;223.5;0;0;0;0;0;false;52638;6010971118;-73.564648;45.549045;53826;6010973963;-73.562118;45.54767;1;8;9;5909480;Bus 97 : Avenue-du-Mont-Royal Ouest;"";STM;97-O;Station Pie-IX (Pierre-de-Coubertin / Pie-IX);Parc du Mont-Royal
393884071;"{\"type\":\"LineString\",\"coordinates\":[[-73.5648734,45.5485409],[-73.5640984,45.5483085],[-73.5634026,45.5480999],[-73.5627069,45.5478913],[-73.5619346,45.5476597],[-73.5597654,45.5469955],[-73.5596663,45.547007],[-73.5596065,45.5470139]]}";1;Boulevard Saint-Michel;1;50;false;true;true;false;false;false;223.5;0;0;0;0;0;false;53826;6010973963;-73.562118;45.54767;52810;6010974520;-73.559916;45.546658;1;9;10;5909480;Bus 97 : Avenue-du-Mont-Royal Ouest;"";STM;97-O;Station Pie-IX (Pierre-de-Coubertin / Pie-IX);Parc du Mont-Royal
392501333;"{\"type\":\"LineString\",\"coordinates\":[[-73.5596065,45.5470139],[-73.5601998,45.5460685],[-73.5603641,45.545808],[-73.5604284,45.5457061]]}";2;Rue Rachel Est;4;40;false;false;true;false;false;false;79.5;0;0;0;0;0;false;53826;6010973963;-73.562118;45.54767;52810;6010974520;-73.559916;45.546658;1;9;10;5909480;Bus 97 : Avenue-du-Mont-Royal Ouest;"";STM;97-O;Station Pie-IX (Pierre-de-Coubertin / Pie-IX);Parc du Mont-Royal
392501333;"{\"type\":\"LineString\",\"coordinates\":[[-73.5596065,45.5470139],[-73.5601998,45.5460685],[-73.5603641,45.545808],[-73.5604284,45.5457061]]}";1;Rue Rachel Est;4;40;false;false;true;false;false;false;79.5;0;0;0;0;0;false;52810;6010974520;-73.559916;45.546658;52768;5247955921;-73.5608214;45.5452419;1;10;11;5909480;Bus 97 : Avenue-du-Mont-Royal Ouest;"";STM;97-O;Station Pie-IX (Pierre-de-Coubertin / Pie-IX);Parc du Mont-Royal
535385911;"{\"type\":\"LineString\",\"coordinates\":[[-73.5604284,45.5457061],[-73.5608346,45.5450348]]}";2;Rue Rachel Est;4;40;false;false;true;false;false;false;41.0;1;0;0;0;0;false;52810;6010974520;-73.559916;45.546658;52768;5247955921;-73.5608214;45.5452419;1;10;11;5909480;Bus 97 : Avenue-du-Mont-Royal Ouest;"";STM;97-O;Station Pie-IX (Pierre-de-Coubertin / Pie-IX);Parc du Mont-Royal
535385911;"{\"type\":\"LineString\",\"coordinates\":[[-73.5604284,45.5457061],[-73.5608346,45.5450348]]}";1;Rue Rachel Est;4;40;false;false;true;false;false;false;41.0;1;0;0;0;0;false;52768;5247955921;-73.5608214;45.5452419;53791;1456307142;-73.5619362;45.5431174;1;11;12;5909480;Bus 97 : Avenue-du-Mont-Royal Ouest;"";STM;97-O;Station Pie-IX (Pierre-de-Coubertin / Pie-IX);Parc du Mont-Royal
535385907;"{\"type\":\"LineString\",\"coordinates\":[[-73.5608346,45.5450348],[-73.5612145,45.544374],[-73.5612758,45.5442674],[-73.5614988,45.543883],[-73.5616272,45.5436617],[-73.5617075,45.5433849],[-73.5617362,45.5431355],[-73.5617296,45.543044],[-73.5617272,45.5430106],[-73.5617198,45.5429079],[-73.5617162,45.5428584]]}";2;Rue Rachel Est;4;40;false;false;true;false;false;false;127.5;2;0;0;0;0;false;52768;5247955921;-73.5608214;45.5452419;53791;1456307142;-73.5619362;45.5431174;1;11;12;5909480;Bus 97 : Avenue-du-Mont-Royal Ouest;"";STM;97-O;Station Pie-IX (Pierre-de-Coubertin / Pie-IX);Parc du Mont-Royal
535385907;"{\"type\":\"LineString\",\"coordinates\":[[-73.5608346,45.5450348],[-73.5612145,45.544374],[-73.5612758,45.5442674],[-73.5614988,45.543883],[-73.5616272,45.5436617],[-73.5617075,45.5433849],[-73.5617362,45.5431355],[-73.5617296,45.543044],[-73.5617272,45.5430106],[-73.5617198,45.5429079],[-73.5617162,45.5428584]]}";1;Rue Rachel Est;4;40;false;false;true;false;false;false;127.5;2;0;0;0;0;false;53791;1456307142;-73.5619362;45.5431174;60658;1456307149;-73.5617704;45.5416014;1;12;13;5909480;Bus 97 : Avenue-du-Mont-Royal Ouest;"";STM;97-O;Station Pie-IX (Pierre-de-Coubertin / Pie-IX);Parc du Mont-Royal
535385902;"{\"type\":\"LineString\",\"coordinates\":[[-73.5617162,45.5428584],[-73.5616562,45.5421986],[-73.561588,45.5414484],[-73.561516,45.5408687],[-73.5614921,45.5406762],[-73.5614654,45.5403916]]}";2;Rue Rachel Est;4;40;false;false;true;false;false;false;137.5;2;0;0;0;0;false;53791;1456307142;-73.5619362;45.5431174;60658;1456307149;-73.5617704;45.5416014;1;12;13;5909480;Bus 97 : Avenue-du-Mont-Royal Ouest;"";STM;97-O;Station Pie-IX (Pierre-de-Coubertin / Pie-IX);Parc du Mont-Royal
535385902;"{\"type\":\"LineString\",\"coordinates\":[[-73.5617162,45.5428584],[-73.5616562,45.5421986],[-73.561588,45.5414484],[-73.561516,45.5408687],[-73.5614921,45.5406762],[-73.5614654,45.5403916]]}";1;Rue Rachel Est;4;40;false;false;true;false;false;false;137.5;2;0;0;0;0;false;60658;1456307149;-73.5617704;45.5416014;52755;6010975616;-73.561955;45.538697;1;13;14;5909480;Bus 97 : Avenue-du-Mont-Royal Ouest;"";STM;97-O;Station Pie-IX (Pierre-de-Coubertin / Pie-IX);Parc du Mont-Royal
83895964;"{\"type\":\"LineString\",\"coordinates\":[[-73.5614654,45.5403916],[-73.5614231,45.5399411]]}";2;Rue Rachel Est;4;50;false;false;true;false;false;false;51.0;0;0;0;0;0;false;60658;1456307149;-73.5617704;45.5416014;52755;6010975616;-73.561955;45.538697;0;13;14;5909480;Bus 97 : Avenue-du-Mont-Royal Ouest;"";STM;97-O;Station Pie-IX (Pierre-de-Coubertin / Pie-IX);Parc du Mont-Royal
83895961;"{\"type\":\"LineString\",\"coordinates\":[[-73.5614231,45.5399411],[-73.5614178,45.5398692],[-73.5614004,45.5395451]]}";3;Rue Rachel Est;1;50;false;false;true;false;false;false;45.0;0;0;0;0;0;false;60658;1456307149;-73.5617704;45.5416014;52755;6010975616;-73.561955;45.538697;0;13;14;5909480;Bus 97 : Avenue-du-Mont-Royal Ouest;"";STM;97-O;Station Pie-IX (Pierre-de-Coubertin / Pie-IX);Parc du Mont-Royal
329066842;"{\"type\":\"LineString\",\"coordinates\":[[-73.5614004,45.5395451],[-73.561412,45.5394204],[-73.5614555,45.5392929],[-73.5615155,45.539164],[-73.5616006,45.53904]]}";4;Rue Rachel Est;1;50;false;false;true;false;false;false;59.0;1;0;0;0;0;false;60658;1456307149;-73.5617704;45.5416014;52755;6010975616;-73.561955;45.538697;0;13;14;5909480;Bus 97 : Avenue-du-Mont-Royal Ouest;"";STM;97-O;Station Pie-IX (Pierre-de-Coubertin / Pie-IX);Parc du Mont-Royal
329066843;"{\"type\":\"LineString\",\"coordinates\":[[-73.5616006,45.53904],[-73.5620843,45.5384411],[-73.5625165,45.5379645],[-73.5630193,45.5373908]]}";5;Rue Rachel Est;1;50;false;false;true;false;false;false;107.5;2;0;0;0;0;false;60658;1456307149;-73.5617704;45.5416014;52755;6010975616;-73.561955;45.538697;1;13;14;5909480;Bus 97 : Avenue-du-Mont-Royal Ouest;"";STM;97-O;Station Pie-IX (Pierre-de-Coubertin / Pie-IX);Parc du Mont-Royal
393665231;"{\"type\":\"LineString\",\"coordinates\":[[-73.5630193,45.5373908],[-73.5630927,45.5374222],[-73.5634533,45.5375767],[-73.5658367,45.5385978],[-73.5664232,45.53882],[-73.5668598,45.5389221],[-73.5673331,45.5389971],[-73.5677251,45.5390996],[-73.5684807,45.5393863]]}";1;Rue Frontenac;2;50;false;true;true;false;false;false;241.5;2;0;0;0;0;false;52616;6010964557;-73.565504;45.538506;52504;291483456;-73.568745;45.539174;1;16;17;5909480;Bus 97 : Avenue-du-Mont-Royal Ouest;"";STM;97-O;Station Pie-IX (Pierre-de-Coubertin / Pie-IX);Parc du Mont-Royal
393886290;"{\"type\":\"LineString\",\"coordinates\":[[-73.5687516,45.5390403],[-73.5684807,45.5393863]]}";2;Avenue du Mont-Royal Est;2;50;false;false;true;false;false;false;22.0;2;0;0;0;0;false;52616;6010964557;-73.565504;45.538506;52504;291483456;-73.568745;45.539174;1;16;17;5909480;Bus 97 : Avenue-du-Mont-Royal Ouest;"";STM;97-O;Station Pie-IX (Pierre-de-Coubertin / Pie-IX);Parc du Mont-Royal
463631222;"{\"type\":\"LineString\",\"coordinates\":[[-73.5691961,45.5385559],[-73.5687516,45.5390403]]}";1;Avenue du Mont-Royal Est;2;50;false;false;true;false;false;false;65.0;1;0;0;0;0;false;52504;291483456;-73.568745;45.539174;52453;6010965532;-73.570187;45.53763;2;17;18;5909480;Bus 97 : Avenue-du-Mont-Royal Ouest;"";STM;97-O;Station Pie-IX (Pierre-de-Coubertin / Pie-IX);Parc du Mont-Royal
464080256;"{\"type\":\"LineString\",\"coordinates\":[[-73.5711808,45.5364941],[-73.570791,45.5369113],[-73.5707143,45.5369904],[-73.5702253,45.5374982],[-73.5696771,45.538064],[-73.5691961,45.5385559]]}";2;Avenue du Mont-Royal Est;2;50;false;false;true;false;false;false;277.0;0;0;0;0;0;false;52504;291483456;-73.568745;45.539174;52453;6010965532;-73.570187;45.53763;2;17;18;5909480;Bus 97 : Avenue-du-Mont-Royal Ouest;"";STM;97-O;Station Pie-IX (Pierre-de-Coubertin / Pie-IX);Parc du Mont-Royal
470242938;"{\"type\":\"LineString\",\"coordinates\":[[-73.5713371,45.5363334],[-73.5711808,45.5364941]]}";1;Avenue du Mont-Royal Est;2;50;false;false;true;false;false;false;22.0;0;0;0;0;0;false;52417;6010969357;-73.571168;45.536604;52381;6010964748;-73.572412;45.535296;2;19;20;5909480;Bus 97 : Avenue-du-Mont-Royal Ouest;"";STM;97-O;Station Pie-IX (Pierre-de-Coubertin / Pie-IX);Parc du Mont-Royal
229485293;"{\"type\":\"LineString\",\"coordinates\":[[-73.5718713,45.5357687],[-73.571625,45.5360339],[-73.5713371,45.5363334]]}";2;Avenue du Mont-Royal Est;2;50;false;false;true;false;false;false;76.0;0;0;0;0;0;false;52417;6010969357;-73.571168;45.536604;52381;6010964748;-73.572412;45.535296;0;19;20;5909480;Bus 97 : Avenue-du-Mont-Royal Ouest;"";STM;97-O;Station Pie-IX (Pierre-de-Coubertin / Pie-IX);Parc du Mont-Royal
471004956;"{\"type\":\"LineString\",\"coordinates\":[[-73.5724466,45.5351679],[-73.5718713,45.5357687]]}";3;Avenue du Mont-Royal Est;2;50;false;false;true;false;false;false;81.0;0;0;0;0;0;false;52417;6010969357;-73.571168;45.536604;52381;6010964748;-73.572412;45.535296;2;19;20;5909480;Bus 97 : Avenue-du-Mont-Royal Ouest;"";STM;97-O;Station Pie-IX (Pierre-de-Coubertin / Pie-IX);Parc du Mont-Royal
464106928;"{\"type\":\"LineString\",\"coordinates\":[[-73.5730187,45.5345535],[-73.5724466,45.5351679]]}";1;Avenue du Mont-Royal Est;2;50;false;false;true;false;false;false;82.0;0;0;0;0;0;false;52381;6010964748;-73.572412;45.535296;52351;6010971337;-73.573475;45.534177;2;20;21;5909480;Bus 97 : Avenue-du-Mont-Royal Ouest;"";STM;97-O;Station Pie-IX (Pierre-de-Coubertin / Pie-IX);Parc du Mont-Royal
464080257;"{\"type\":\"LineString\",\"coordinates\":[[-73.5739301,45.5335946],[-73.5734886,45.534073],[-73.5730187,45.5345535]]}";2;Avenue du Mont-Royal Est;2;30;false;false;true;false;false;false;129.0;0;0;0;0;0;false;52381;6010964748;-73.572412;45.535296;52351;6010971337;-73.573475;45.534177;2;20;21;5909480;Bus 97 : Avenue-du-Mont-Royal Ouest;"";STM;97-O;Station Pie-IX (Pierre-de-Coubertin / Pie-IX);Parc du Mont-Royal
464080257;"{\"type\":\"LineString\",\"coordinates\":[[-73.5739301,45.5335946],[-73.5734886,45.534073],[-73.5730187,45.5345535]]}";1;Avenue du Mont-Royal Est;2;30;false;false;true;false;false;false;64.5;0;0;0;0;0;false;52351;6010971337;-73.573475;45.534177;52306;6010981072;-73.574532;45.533055;1;21;22;5909480;Bus 97 : Avenue-du-Mont-Royal Ouest;"";STM;97-O;Station Pie-IX (Pierre-de-Coubertin / Pie-IX);Parc du Mont-Royal
452060453;"{\"type\":\"LineString\",\"coordinates\":[[-73.5745709,45.5329214],[-73.5739301,45.5335946]]}";2;Avenue du Mont-Royal Est;2;50;false;false;true;false;false;false;45.0;1;0;0;0;0;false;52351;6010971337;-73.573475;45.534177;52306;6010981072;-73.574532;45.533055;1;21;22;5909480;Bus 97 : Avenue-du-Mont-Royal Ouest;"";STM;97-O;Station Pie-IX (Pierre-de-Coubertin / Pie-IX);Parc du Mont-Royal
452060452;"{\"type\":\"LineString\",\"coordinates\":[[-73.5752746,45.532176],[-73.5745709,45.5329214]]}";1;Avenue du Mont-Royal Est;2;30;false;false;true;false;false;false;100.0;1;0;0;0;0;false;52306;6010981072;-73.574532;45.533055;52273;6010977560;-73.575889;45.531637;2;22;23;5909480;Bus 97 : Avenue-du-Mont-Royal Ouest;"";STM;97-O;Station Pie-IX (Pierre-de-Coubertin / Pie-IX);Parc du Mont-Royal
393787289;"{\"type\":\"LineString\",\"coordinates\":[[-73.5770767,45.5302695],[-73.5765209,45.5308572],[-73.5759008,45.5315161],[-73.5752746,45.532176]]}";2;Avenue du Mont-Royal Est;2;50;false;false;true;false;false;false;255.0;2;0;0;0;0;false;52306;6010981072;-73.574532;45.533055;52273;6010977560;-73.575889;45.531637;2;22;23;5909480;Bus 97 : Avenue-du-Mont-Royal Ouest;"";STM;97-O;Station Pie-IX (Pierre-de-Coubertin / Pie-IX);Parc du Mont-Royal
464057453;"{\"type\":\"LineString\",\"coordinates\":[[-73.5775268,45.5298069],[-73.5770767,45.5302695]]}";1;Avenue du Mont-Royal Est;2;50;false;false;true;false;false;false;63.0;1;0;0;0;0;false;52232;6010967517;-73.577057;45.530392;52184;6010972130;-73.578516;45.528844;2;24;25;5909480;Bus 97 : Avenue-du-Mont-Royal Ouest;"";STM;97-O;Station Pie-IX (Pierre-de-Coubertin / Pie-IX);Parc du Mont-Royal
463886932;"{\"type\":\"LineString\",\"coordinates\":[[-73.5780186,45.5292868],[-73.5775268,45.5298069]]}";2;Avenue du Mont-Royal Est;2;50;false;false;true;false;false;false;70.0;1;0;0;0;0;false;52232;6010967517;-73.577057;45.530392;52184;6010972130;-73.578516;45.528844;0;24;25;5909480;Bus 97 : Avenue-du-Mont-Royal Ouest;"";STM;97-O;Station Pie-IX (Pierre-de-Coubertin / Pie-IX);Parc du Mont-Royal
463886933;"{\"type\":\"LineString\",\"coordinates\":[[-73.5785265,45.5287402],[-73.5780936,45.5292085],[-73.5780482,45.5292558],[-73.5780186,45.5292868]]}";3;Avenue du Mont-Royal Est;2;50;false;false;true;false;false;false;73.0;2;1;0;0;0;false;52232;6010967517;-73.577057;45.530392;52184;6010972130;-73.578516;45.528844;2;24;25;5909480;Bus 97 : Avenue-du-Mont-Royal Ouest;"";STM;97-O;Station Pie-IX (Pierre-de-Coubertin / Pie-IX);Parc du Mont-Royal
452101823;"{\"type\":\"LineString\",\"coordinates\":[[-73.5798146,45.5273624],[-73.579303,45.5279018],[-73.5792084,45.5280067]]}";1;Avenue du Mont-Royal Est;2;50;false;false;true;false;false;false;86.0;1;0;0;0;0;false;52160;6010977641;-73.579175;45.528139;52137;1467420786;-73.5801255;45.5271544;2;26;27;5909480;Bus 97 : Avenue-du-Mont-Royal Ouest;"";STM;97-O;Station Pie-IX (Pierre-de-Coubertin / Pie-IX);Parc du Mont-Royal
463886941;"{\"type\":\"LineString\",\"coordinates\":[[-73.5801263,45.5270326],[-73.5798146,45.5273624]]}";2;Avenue du Mont-Royal Est;2;50;false;false;true;false;false;false;44.0;1;0;0;0;0;false;52160;6010977641;-73.579175;45.528139;52137;1467420786;-73.5801255;45.5271544;2;26;27;5909480;Bus 97 : Avenue-du-Mont-Royal Ouest;"";STM;97-O;Station Pie-IX (Pierre-de-Coubertin / Pie-IX);Parc du Mont-Royal
463886942;"{\"type\":\"LineString\",\"coordinates\":[[-73.5806744,45.5264537],[-73.5801263,45.5270326]]}";1;Avenue du Mont-Royal Est;2;50;false;false;true;false;false;false;78.0;1;0;0;0;0;false;52137;1467420786;-73.5801255;45.5271544;52100;1467420796;-73.5811439;45.5260711;2;27;28;5909480;Bus 97 : Avenue-du-Mont-Royal Ouest;"";STM;97-O;Station Pie-IX (Pierre-de-Coubertin / Pie-IX);Parc du Mont-Royal
452101821;"{\"type\":\"LineString\",\"coordinates\":[[-73.5811223,45.5259777],[-73.5806744,45.5264537]]}";2;Avenue du Mont-Royal Est;2;50;false;false;true;false;false;false;64.0;0;0;0;0;0;false;52137;1467420786;-73.5801255;45.5271544;52100;1467420796;-73.5811439;45.5260711;2;27;28;5909480;Bus 97 : Avenue-du-Mont-Royal Ouest;"";STM;97-O;Station Pie-IX (Pierre-de-Coubertin / Pie-IX);Parc du Mont-Royal
8140255;"{\"type\":\"LineString\",\"coordinates\":[[-73.581502,45.5255624],[-73.581346,45.5257358],[-73.5813245,45.5257591],[-73.5811223,45.5259777]]}";1;Avenue du Mont-Royal Est;2;50;false;false;true;false;false;false;55.0;1;0;0;0;0;false;52100;1467420796;-73.5811439;45.5260711;58725;7431384642;-73.582026;45.525072;2;28;29;5909480;Bus 97 : Avenue-du-Mont-Royal Ouest;"";STM;97-O;Station Pie-IX (Pierre-de-Coubertin / Pie-IX);Parc du Mont-Royal
452098813;"{\"type\":\"LineString\",\"coordinates\":[[-73.5817733,45.5252518],[-73.5815207,45.525541],[-73.581502,45.5255624]]}";2;Avenue du Mont-Royal Est;2;50;false;false;true;false;false;false;41.0;1;0;0;0;0;false;52100;1467420796;-73.5811439;45.5260711;58725;7431384642;-73.582026;45.525072;0;28;29;5909480;Bus 97 : Avenue-du-Mont-Royal Ouest;"";STM;97-O;Station Pie-IX (Pierre-de-Coubertin / Pie-IX);Parc du Mont-Royal
452098812;"{\"type\":\"LineString\",\"coordinates\":[[-73.5820089,45.5249843],[-73.5817733,45.5252518]]}";3;Avenue du Mont-Royal Est;2;50;false;false;true;false;false;false;35.0;1;0;0;0;0;false;52100;1467420796;-73.5811439;45.5260711;58725;7431384642;-73.582026;45.525072;2;28;29;5909480;Bus 97 : Avenue-du-Mont-Royal Ouest;"";STM;97-O;Station Pie-IX (Pierre-de-Coubertin / Pie-IX);Parc du Mont-Royal
393788406;"{\"type\":\"LineString\",\"coordinates\":[[-73.5820089,45.5249843],[-73.5819084,45.5249253],[-73.5813401,45.5246689],[-73.5812274,45.5246181]]}";1;Rue Berri;1;50;false;true;true;false;false;false;74.0;1;0;0;0;0;false;58725;7431384642;-73.582026;45.525072;52055;1456307332;-73.5828449;45.5241267;2;29;30;5909480;Bus 97 : Avenue-du-Mont-Royal Ouest;"";STM;97-O;Station Pie-IX (Pierre-de-Coubertin / Pie-IX);Parc du Mont-Royal
112599443;"{\"type\":\"LineString\",\"coordinates\":[[-73.5812274,45.5246181],[-73.5812724,45.524567],[-73.581586,45.5242111],[-73.5816334,45.5241566]]}";2;"";1;50;false;false;true;false;false;false;61.0;0;0;0;0;0;false;58725;7431384642;-73.582026;45.525072;52055;1456307332;-73.5828449;45.5241267;0;29;30;5909480;Bus 97 : Avenue-du-Mont-Royal Ouest;"";STM;97-O;Station Pie-IX (Pierre-de-Coubertin / Pie-IX);Parc du Mont-Royal
393789815;"{\"type\":\"LineString\",\"coordinates\":[[-73.5816334,45.5241566],[-73.5817292,45.5242031],[-73.5823148,45.5244875],[-73.5824039,45.5245308]]}";3;Rue Rivard;1;50;false;false;true;false;false;false;74.0;1;0;0;0;0;false;58725;7431384642;-73.582026;45.525072;52055;1456307332;-73.5828449;45.5241267;0;29;30;5909480;Bus 97 : Avenue-du-Mont-Royal Ouest;"";STM;97-O;Station Pie-IX (Pierre-de-Coubertin / Pie-IX);Parc du Mont-Royal
393792173;"{\"type\":\"LineString\",\"coordinates\":[[-73.5824039,45.5245308],[-73.5824473,45.5244824],[-73.5825993,45.5243126]]}";4;Avenue du Mont-Royal Est;2;50;false;false;true;false;false;false;29.0;1;0;0;0;0;false;58725;7431384642;-73.582026;45.525072;52055;1456307332;-73.5828449;45.5241267;0;29;30;5909480;Bus 97 : Avenue-du-Mont-Royal Ouest;"";STM;97-O;Station Pie-IX (Pierre-de-Coubertin / Pie-IX);Parc du Mont-Royal
452049816;"{\"type\":\"LineString\",\"coordinates\":[[-73.5825993,45.5243126],[-73.5828396,45.5240442],[-73.5829023,45.5239741]]}";5;Avenue du Mont-Royal Est;2;50;false;false;true;false;false;false;45.0;1;0;0;0;0;false;58725;7431384642;-73.582026;45.525072;52055;1456307332;-73.5828449;45.5241267;2;29;30;5909480;Bus 97 : Avenue-du-Mont-Royal Ouest;"";STM;97-O;Station Pie-IX (Pierre-de-Coubertin / Pie-IX);Parc du Mont-Royal
452049817;"{\"type\":\"LineString\",\"coordinates\":[[-73.5829023,45.5239741],[-73.5829846,45.5238807],[-73.5832173,45.5236168]]}";1;Avenue du Mont-Royal Est;2;50;false;false;true;false;false;false;47.0;1;0;0;0;0;false;52055;1456307332;-73.5828449;45.5241267;52035;6010968792;-73.583829;45.522999;2;30;31;5909480;Bus 97 : Avenue-du-Mont-Royal Ouest;"";STM;97-O;Station Pie-IX (Pierre-de-Coubertin / Pie-IX);Parc du Mont-Royal
452096884;"{\"type\":\"LineString\",\"coordinates\":[[-73.5832173,45.5236168],[-73.5833858,45.5234138],[-73.5834206,45.5233719],[-73.5838297,45.5229174],[-73.584267,45.5224436]]}";2;Avenue du Mont-Royal Est;2;50;false;false;true;false;false;false;154.0;0;0;0;0;0;false;52055;1456307332;-73.5828449;45.5241267;52035;6010968792;-73.583829;45.522999;2;30;31;5909480;Bus 97 : Avenue-du-Mont-Royal Ouest;"";STM;97-O;Station Pie-IX (Pierre-de-Coubertin / Pie-IX);Parc du Mont-Royal
452096884;"{\"type\":\"LineString\",\"coordinates\":[[-73.5832173,45.5236168],[-73.5833858,45.5234138],[-73.5834206,45.5233719],[-73.5838297,45.5229174],[-73.584267,45.5224436]]}";1;Avenue du Mont-Royal Est;2;50;false;false;true;false;false;false;77.0;0;0;0;0;0;false;52035;6010968792;-73.583829;45.522999;52005;1574991729;-73.5849707;45.5217826;1;31;32;5909480;Bus 97 : Avenue-du-Mont-Royal Ouest;"";STM;97-O;Station Pie-IX (Pierre-de-Coubertin / Pie-IX);Parc du Mont-Royal
725190286;"{\"type\":\"LineString\",\"coordinates\":[[-73.584267,45.5224436],[-73.5844829,45.522207],[-73.5845024,45.5221856]]}";2;Avenue du Mont-Royal Est;2;50;false;false;true;false;false;false;35.0;1;0;0;0;0;false;52035;6010968792;-73.583829;45.522999;52005;1574991729;-73.5849707;45.5217826;0;31;32;5909480;Bus 97 : Avenue-du-Mont-Royal Ouest;"";STM;97-O;Station Pie-IX (Pierre-de-Coubertin / Pie-IX);Parc du Mont-Royal
452096883;"{\"type\":\"LineString\",\"coordinates\":[[-73.5845024,45.5221856],[-73.5846879,45.5219751]]}";3;Avenue du Mont-Royal Est;2;50;false;false;true;false;false;false;28.0;0;0;0;0;0;false;52035;6010968792;-73.583829;45.522999;52005;1574991729;-73.5849707;45.5217826;0;31;32;5909480;Bus 97 : Avenue-du-Mont-Royal Ouest;"";STM;97-O;Station Pie-IX (Pierre-de-Coubertin / Pie-IX);Parc du Mont-Royal
463886948;"{\"type\":\"LineString\",\"coordinates\":[[-73.5846879,45.5219751],[-73.5847074,45.521954],[-73.5849775,45.5216621]]}";4;Avenue du Mont-Royal Est;2;50;false;false;true;false;false;false;21.0;1;0;0;0;0;false;52035;6010968792;-73.583829;45.522999;52005;1574991729;-73.5849707;45.5217826;1;31;32;5909480;Bus 97 : Avenue-du-Mont-Royal Ouest;"";STM;97-O;Station Pie-IX (Pierre-de-Coubertin / Pie-IX);Parc du Mont-Royal
337509255;"{\"type\":\"LineString\",\"coordinates\":[[-73.5849775,45.5216621],[-73.5851083,45.5215218],[-73.5854621,45.5211408],[-73.5855319,45.5210597],[-73.5857255,45.5208475],[-73.5859249,45.5206289]]}";1;Avenue du Mont-Royal Est;2;50;false;false;true;false;false;false;137.0;0;0;0;0;0;false;52005;1574991729;-73.5849707;45.5217826;51972;1574991715;-73.5863628;45.5202491;2;32;33;5909480;Bus 97 : Avenue-du-Mont-Royal Ouest;"";STM;97-O;Station Pie-IX (Pierre-de-Coubertin / Pie-IX);Parc du Mont-Royal
465183712;"{\"type\":\"LineString\",\"coordinates\":[[-73.5859249,45.5206289],[-73.5863671,45.5201178]]}";2;Avenue du Mont-Royal Est;2;50;false;false;true;false;false;false;67.0;1;0;0;0;0;false;52005;1574991729;-73.5849707;45.5217826;51972;1574991715;-73.5863628;45.5202491;2;32;33;5909480;Bus 97 : Avenue-du-Mont-Royal Ouest;"";STM;97-O;Station Pie-IX (Pierre-de-Coubertin / Pie-IX);Parc du Mont-Royal
4687363;"{\"type\":\"LineString\",\"coordinates\":[[-73.5863671,45.5201178],[-73.5866119,45.5198435],[-73.586834,45.5195946]]}";1;Avenue du Mont-Royal Ouest;2;50;false;false;true;false;false;false;69.0;1;0;0;0;0;false;51972;1574991715;-73.5863628;45.5202491;51937;1330275915;-73.587424;45.519044;2;33;34;5909480;Bus 97 : Avenue-du-Mont-Royal Ouest;"";STM;97-O;Station Pie-IX (Pierre-de-Coubertin / Pie-IX);Parc du Mont-Royal
465195709;"{\"type\":\"LineString\",\"coordinates\":[[-73.586834,45.5195946],[-73.5873909,45.5189858],[-73.5874398,45.5189324]]}";2;Avenue du Mont-Royal Ouest;2;50;false;false;true;false;false;false;88.0;1;1;0;0;0;false;51972;1574991715;-73.5863628;45.5202491;51937;1330275915;-73.587424;45.519044;2;33;34;5909480;Bus 97 : Avenue-du-Mont-Royal Ouest;"";STM;97-O;Station Pie-IX (Pierre-de-Coubertin / Pie-IX);Parc du Mont-Royal
465195711;"{\"type\":\"LineString\",\"coordinates\":[[-73.5874398,45.5189324],[-73.5875119,45.5188512],[-73.5879419,45.5183671]]}";1;Avenue du Mont-Royal Ouest;2;50;false;false;true;false;false;false;75.0;1;1;0;0;0;false;51937;1330275915;-73.587424;45.519044;54079;1457939536;-73.5891296;45.5172263;2;34;35;5909480;Bus 97 : Avenue-du-Mont-Royal Ouest;"";STM;97-O;Station Pie-IX (Pierre-de-Coubertin / Pie-IX);Parc du Mont-Royal
465195710;"{\"type\":\"LineString\",\"coordinates\":[[-73.5879419,45.5183671],[-73.5879929,45.5183074],[-73.5881032,45.5181782]]}";2;Avenue du Mont-Royal Ouest;2;50;false;false;true;false;false;false;25.0;0;0;0;0;0;false;51937;1330275915;-73.587424;45.519044;54079;1457939536;-73.5891296;45.5172263;0;34;35;5909480;Bus 97 : Avenue-du-Mont-Royal Ouest;"";STM;97-O;Station Pie-IX (Pierre-de-Coubertin / Pie-IX);Parc du Mont-Royal
480212640;"{\"type\":\"LineString\",\"coordinates\":[[-73.5881032,45.5181782],[-73.5883525,45.5178862]]}";3;Avenue du Mont-Royal Ouest;2;50;false;false;true;false;false;false;38.0;0;0;0;0;0;false;51937;1330275915;-73.587424;45.519044;54079;1457939536;-73.5891296;45.5172263;0;34;35;5909480;Bus 97 : Avenue-du-Mont-Royal Ouest;"";STM;97-O;Station Pie-IX (Pierre-de-Coubertin / Pie-IX);Parc du Mont-Royal
465195712;"{\"type\":\"LineString\",\"coordinates\":[[-73.5883525,45.5178862],[-73.5886464,45.517542]]}";4;Avenue du Mont-Royal Ouest;2;50;false;false;true;false;false;false;45.0;1;0;0;0;0;false;51937;1330275915;-73.587424;45.519044;54079;1457939536;-73.5891296;45.5172263;0;34;35;5909480;Bus 97 : Avenue-du-Mont-Royal Ouest;"";STM;97-O;Station Pie-IX (Pierre-de-Coubertin / Pie-IX);Parc du Mont-Royal
453713155;"{\"type\":\"LineString\",\"coordinates\":[[-73.5886464,45.517542],[-73.5893161,45.5167861]]}";5;Avenue du Mont-Royal Ouest;2;50;false;false;true;false;false;false;99.0;2;0;0;0;0;false;51937;1330275915;-73.587424;45.519044;54079;1457939536;-73.5891296;45.5172263;2;34;35;5909480;Bus 97 : Avenue-du-Mont-Royal Ouest;"";STM;97-O;Station Pie-IX (Pierre-de-Coubertin / Pie-IX);Parc du Mont-Royal
453713155;"{\"type\":\"LineString\",\"coordinates\":[[-73.5886464,45.517542],[-73.5893161,45.5167861]]}";1;Avenue du Mont-Royal Ouest;2;50;false;false;true;false;false;false;49.5;2;0;0;0;0;false;54079;1457939536;-73.5891296;45.5172263;54010;6010973672;-73.589599;45.515987;1;35;36;5909480;Bus 97 : Avenue-du-Mont-Royal Ouest;"";STM;97-O;Station Pie-IX (Pierre-de-Coubertin / Pie-IX);Parc du Mont-Royal
165321642;"{\"type\":\"LineString\",\"coordinates\":[[-73.5893161,45.5167861],[-73.5892229,45.5166613],[-73.5887759,45.5164565]]}";2;Avenue du Parc;1;50;false;true;true;false;false;false;58.0;1;0;0;0;0;false;54079;1457939536;-73.5891296;45.5172263;54010;6010973672;-73.589599;45.515987;0;35;36;5909480;Bus 97 : Avenue-du-Mont-Royal Ouest;"";STM;97-O;Station Pie-IX (Pierre-de-Coubertin / Pie-IX);Parc du Mont-Royal
46699966;"{\"type\":\"LineString\",\"coordinates\":[[-73.5887759,45.5164565],[-73.5887206,45.5163718],[-73.5887303,45.516291],[-73.5887838,45.5162016],[-73.5895886,45.5159531],[-73.5897249,45.5159432],[-73.5898543,45.5159999],[-73.5899294,45.5160873],[-73.5899108,45.5161609]]}";3;Bus;1;50;false;true;true;false;false;false;141.0;0;0;0;0;0;false;54079;1457939536;-73.5891296;45.5172263;54010;6010973672;-73.589599;45.515987;1;35;36;5909480;Bus 97 : Avenue-du-Mont-Royal Ouest;"";STM;97-O;Station Pie-IX (Pierre-de-Coubertin / Pie-IX);Parc du Mont-Royal
