way_id;shape;index;name;nb_lanes;legal_speed;speed_zone_30;oneway;shares_bike;bike_box;bus_lane;dedicated_bus_lane;length;nb_traffic_signals;nb_crossings;nb_stops;nb_give_ways;nb_lvl_crossings;roundabout;stop_id_orig;node_id_orig;coord_x_orig;coord_y_orig;stop_id_dest;node_id_dest;coord_x_dest;coord_y_dest;nb_neighbouring_ways_bus_stop;ordre_orig;ordre_dest;id_line;line_name;colour;operator;ref;from;to
45796765;"{\"type\":\"LineString\",\"coordinates\":[[-73.8044425,45.5247232],[-73.8036764,45.5253328],[-73.802707,45.5261041]]}";1;Rue Sylvie;2;50;false;false;true;false;false;false;205.0;0;0;0;0;0;false;43429;6269511918;-73.80417;45.524991;43021;6269511950;-73.80315;45.523662;1;1;2;9312798;Bus : 24 E - Direction Métro Cartier;"";STL;24E;Sylvie / Dandurant;Métro Cartier Quai:2
292627985;"{\"type\":\"LineString\",\"coordinates\":[[-73.8045709,45.5246198],[-73.8044425,45.5247232]]}";2;"";2;50;false;false;true;false;false;false;16.0;0;0;0;0;0;false;43429;6269511918;-73.80417;45.524991;43021;6269511950;-73.80315;45.523662;0;1;2;9312798;Bus : 24 E - Direction Métro Cartier;"";STL;24E;Sylvie / Dandurant;Métro Cartier Quai:2
694159717;"{\"type\":\"LineString\",\"coordinates\":[[-73.8045709,45.5246198],[-73.8038178,45.5241562],[-73.8031188,45.5237259],[-73.8029682,45.5236332],[-73.8010455,45.522491],[-73.800905,45.5224168]]}";3;Boulevard Samson;3;50;false;true;true;false;false;false;188.5;2;0;0;0;0;false;43429;6269511918;-73.80417;45.524991;43021;6269511950;-73.80315;45.523662;1;1;2;9312798;Bus : 24 E - Direction Métro Cartier;"";STL;24E;Sylvie / Dandurant;Métro Cartier Quai:2
694159717;"{\"type\":\"LineString\",\"coordinates\":[[-73.8045709,45.5246198],[-73.8038178,45.5241562],[-73.8031188,45.5237259],[-73.8029682,45.5236332],[-73.8010455,45.522491],[-73.800905,45.5224168]]}";1;Boulevard Samson;3;50;false;true;true;false;false;false;188.5;2;0;0;0;0;false;43024;6269511977;-73.80128;45.522533;43026;6269512694;-73.79916;45.521468;1;3;4;9312798;Bus : 24 E - Direction Métro Cartier;"";STL;24E;Sylvie / Dandurant;Métro Cartier Quai:2
292627984;"{\"type\":\"LineString\",\"coordinates\":[[-73.800905,45.5224168],[-73.8000603,45.521947],[-73.7998,45.52182],[-73.7993473,45.5216643],[-73.7992055,45.5216155],[-73.7990527,45.521563],[-73.7990114,45.5215488],[-73.7983228,45.5213989],[-73.79779,45.52134],[-73.79744,45.52132],[-73.7969,45.52133],[-73.7955755,45.5214381]]}";2;Boulevard Samson;3;50;false;true;true;false;false;false;225.0;1;0;0;0;0;false;43024;6269511977;-73.80128;45.522533;43026;6269512694;-73.79916;45.521468;1;3;4;9312798;Bus : 24 E - Direction Métro Cartier;"";STL;24E;Sylvie / Dandurant;Métro Cartier Quai:2
292627984;"{\"type\":\"LineString\",\"coordinates\":[[-73.800905,45.5224168],[-73.8000603,45.521947],[-73.7998,45.52182],[-73.7993473,45.5216643],[-73.7992055,45.5216155],[-73.7990527,45.521563],[-73.7990114,45.5215488],[-73.7983228,45.5213989],[-73.79779,45.52134],[-73.79744,45.52132],[-73.7969,45.52133],[-73.7955755,45.5214381]]}";1;Boulevard Samson;3;50;false;true;true;false;false;false;225.0;1;0;0;0;0;false;43026;6269512694;-73.79916;45.521468;43029;6269512695;-73.79455;45.521399;1;4;5;9312798;Bus : 24 E - Direction Métro Cartier;"";STL;24E;Sylvie / Dandurant;Métro Cartier Quai:2
161773382;"{\"type\":\"LineString\",\"coordinates\":[[-73.7955755,45.5214381],[-73.794436,45.5215081],[-73.7933682,45.5215738],[-73.7932129,45.5215833]]}";2;Boulevard Samson;3;50;false;true;false;false;false;false;93.0;0;0;0;0;0;false;43026;6269512694;-73.79916;45.521468;43029;6269512695;-73.79455;45.521399;1;4;5;9312798;Bus : 24 E - Direction Métro Cartier;"";STL;24E;Sylvie / Dandurant;Métro Cartier Quai:2
161773382;"{\"type\":\"LineString\",\"coordinates\":[[-73.7955755,45.5214381],[-73.794436,45.5215081],[-73.7933682,45.5215738],[-73.7932129,45.5215833]]}";1;Boulevard Samson;3;50;false;true;false;false;false;false;93.0;0;0;0;0;0;false;43029;6269512695;-73.79455;45.521399;43031;6269512700;-73.79123;45.521642;1;5;6;9312798;Bus : 24 E - Direction Métro Cartier;"";STL;24E;Sylvie / Dandurant;Métro Cartier Quai:2
539101530;"{\"type\":\"LineString\",\"coordinates\":[[-73.7932129,45.5215833],[-73.791104,45.5217106],[-73.7903951,45.5217534],[-73.7895839,45.5218024],[-73.7875489,45.5219252],[-73.7844975,45.5221094]]}";2;Boulevard Samson;3;50;false;true;true;false;false;false;341.5;1;0;0;0;0;false;43029;6269512695;-73.79455;45.521399;43031;6269512700;-73.79123;45.521642;1;5;6;9312798;Bus : 24 E - Direction Métro Cartier;"";STL;24E;Sylvie / Dandurant;Métro Cartier Quai:2
539101530;"{\"type\":\"LineString\",\"coordinates\":[[-73.7932129,45.5215833],[-73.791104,45.5217106],[-73.7903951,45.5217534],[-73.7895839,45.5218024],[-73.7875489,45.5219252],[-73.7844975,45.5221094]]}";1;Boulevard Samson;3;50;false;true;true;false;false;false;341.5;1;0;0;0;0;false;43032;6269511929;-73.78772;45.521839;45045;6269512685;-73.78449;45.522054;1;7;8;9312798;Bus : 24 E - Direction Métro Cartier;"";STL;24E;Sylvie / Dandurant;Métro Cartier Quai:2
695751281;"{\"type\":\"LineString\",\"coordinates\":[[-73.7844975,45.5221094],[-73.7835027,45.5221684],[-73.7828342,45.5222437],[-73.7821232,45.5224024],[-73.7818217,45.5224757]]}";2;Boulevard Samson;3;50;false;true;true;false;false;false;107.0;1;0;0;0;0;false;43032;6269511929;-73.78772;45.521839;45045;6269512685;-73.78449;45.522054;1;7;8;9312798;Bus : 24 E - Direction Métro Cartier;"";STL;24E;Sylvie / Dandurant;Métro Cartier Quai:2
539101530;"{\"type\":\"LineString\",\"coordinates\":[[-73.7932129,45.5215833],[-73.791104,45.5217106],[-73.7903951,45.5217534],[-73.7895839,45.5218024],[-73.7875489,45.5219252],[-73.7844975,45.5221094]]}";1;Boulevard Samson;3;50;false;true;true;false;false;false;683.0;1;0;0;0;0;false;45045;6269512685;-73.78449;45.522054;43036;6269511979;-73.78196;45.522358;2;8;9;9312798;Bus : 24 E - Direction Métro Cartier;"";STL;24E;Sylvie / Dandurant;Métro Cartier Quai:2
695751281;"{\"type\":\"LineString\",\"coordinates\":[[-73.7844975,45.5221094],[-73.7835027,45.5221684],[-73.7828342,45.5222437],[-73.7821232,45.5224024],[-73.7818217,45.5224757]]}";2;Boulevard Samson;3;50;false;true;true;false;false;false;214.0;1;0;0;0;0;false;45045;6269512685;-73.78449;45.522054;43036;6269511979;-73.78196;45.522358;2;8;9;9312798;Bus : 24 E - Direction Métro Cartier;"";STL;24E;Sylvie / Dandurant;Métro Cartier Quai:2
94780916;"{\"type\":\"LineString\",\"coordinates\":[[-73.7818217,45.5224757],[-73.7814179,45.5226207],[-73.7792421,45.5234081],[-73.7780329,45.5238521]]}";1;Boulevard Samson;3;50;false;true;false;false;false;false;333.0;1;0;0;0;0;false;43036;6269511979;-73.78196;45.522358;43039;6269511903;-73.77341;45.525411;2;9;10;9312798;Bus : 24 E - Direction Métro Cartier;"";STL;24E;Sylvie / Dandurant;Métro Cartier Quai:2
39198900;"{\"type\":\"LineString\",\"coordinates\":[[-73.7780329,45.5238521],[-73.776548,45.5243692]]}";2;Boulevard Samson;3;50;false;true;false;false;false;false;130.0;0;0;0;0;0;false;43036;6269511979;-73.78196;45.522358;43039;6269511903;-73.77341;45.525411;0;9;10;9312798;Bus : 24 E - Direction Métro Cartier;"";STL;24E;Sylvie / Dandurant;Métro Cartier Quai:2
455241084;"{\"type\":\"LineString\",\"coordinates\":[[-73.776548,45.5243692],[-73.7751751,45.5248873]]}";3;Boulevard Samson;3;50;false;true;false;false;false;false;122.0;1;0;0;0;0;false;43036;6269511979;-73.78196;45.522358;43039;6269511903;-73.77341;45.525411;0;9;10;9312798;Bus : 24 E - Direction Métro Cartier;"";STL;24E;Sylvie / Dandurant;Métro Cartier Quai:2
455241083;"{\"type\":\"LineString\",\"coordinates\":[[-73.7751751,45.5248873],[-73.7736259,45.5254479],[-73.7734392,45.5255155],[-73.7732395,45.5255877]]}";4;Boulevard Samson;3;50;false;true;false;false;false;false;170.0;1;0;0;0;0;false;43036;6269511979;-73.78196;45.522358;43039;6269511903;-73.77341;45.525411;2;9;10;9312798;Bus : 24 E - Direction Métro Cartier;"";STL;24E;Sylvie / Dandurant;Métro Cartier Quai:2
455241083;"{\"type\":\"LineString\",\"coordinates\":[[-73.7751751,45.5248873],[-73.7736259,45.5254479],[-73.7734392,45.5255155],[-73.7732395,45.5255877]]}";1;Boulevard Samson;3;50;false;true;false;false;false;false;85.0;1;0;0;0;0;false;43039;6269511903;-73.77341;45.525411;43041;6269511902;-73.76973;45.526158;1;10;11;9312798;Bus : 24 E - Direction Métro Cartier;"";STL;24E;Sylvie / Dandurant;Métro Cartier Quai:2
94780834;"{\"type\":\"LineString\",\"coordinates\":[[-73.7732395,45.5255877],[-73.7731624,45.5256154],[-73.7727517,45.5257649],[-73.7726034,45.5258189],[-73.7723284,45.5258958],[-73.7719932,45.5259729],[-73.7717191,45.526012],[-73.7695675,45.5262223],[-73.7673636,45.5264162],[-73.7657862,45.5265544],[-73.7653373,45.5266188],[-73.76462,45.5267617],[-73.7644919,45.5267985],[-73.764228,45.5268805],[-73.763305,45.5272743]]}";2;Boulevard Samson;3;50;false;true;true;false;false;false;403.5;2;0;0;0;0;false;43039;6269511903;-73.77341;45.525411;43041;6269511902;-73.76973;45.526158;1;10;11;9312798;Bus : 24 E - Direction Métro Cartier;"";STL;24E;Sylvie / Dandurant;Métro Cartier Quai:2
94780834;"{\"type\":\"LineString\",\"coordinates\":[[-73.7732395,45.5255877],[-73.7731624,45.5256154],[-73.7727517,45.5257649],[-73.7726034,45.5258189],[-73.7723284,45.5258958],[-73.7719932,45.5259729],[-73.7717191,45.526012],[-73.7695675,45.5262223],[-73.7673636,45.5264162],[-73.7657862,45.5265544],[-73.7653373,45.5266188],[-73.76462,45.5267617],[-73.7644919,45.5267985],[-73.764228,45.5268805],[-73.763305,45.5272743]]}";1;Boulevard Samson;3;50;false;true;true;false;false;false;403.5;2;0;0;0;0;false;43046;6269511890;-73.76465;45.526718;43049;6269511886;-73.76277;45.527371;1;13;14;9312798;Bus : 24 E - Direction Métro Cartier;"";STL;24E;Sylvie / Dandurant;Métro Cartier Quai:2
455250073;"{\"type\":\"LineString\",\"coordinates\":[[-73.763305,45.5272743],[-73.7625699,45.5274848],[-73.761796,45.5276695],[-73.7617027,45.5276917],[-73.7611135,45.5278323],[-73.7605009,45.5279785],[-73.7599344,45.5281164]]}";2;Boulevard Samson;3;50;false;true;true;false;false;false;140.0;0;0;0;0;0;false;43046;6269511890;-73.76465;45.526718;43049;6269511886;-73.76277;45.527371;1;13;14;9312798;Bus : 24 E - Direction Métro Cartier;"";STL;24E;Sylvie / Dandurant;Métro Cartier Quai:2
455250072;"{\"type\":\"LineString\",\"coordinates\":[[-73.7599344,45.5281164],[-73.7594757,45.5282394]]}";1;Boulevard Samson;3;50;false;true;true;false;false;false;39.0;0;0;0;0;0;false;43052;6269511065;-73.75998;45.528052;43054;6269511058;-73.75671;45.529067;2;15;16;9312798;Bus : 24 E - Direction Métro Cartier;"";STL;24E;Sylvie / Dandurant;Métro Cartier Quai:2
475076398;"{\"type\":\"LineString\",\"coordinates\":[[-73.7594757,45.5282394],[-73.7590603,45.5283424],[-73.7583746,45.5285327],[-73.7575091,45.5288161],[-73.7574469,45.5288365],[-73.7564991,45.5292206],[-73.756371,45.5292725],[-73.7560092,45.529427]]}";2;Boulevard Samson;3;50;false;true;true;false;false;false;302.0;0;0;0;0;0;false;43052;6269511065;-73.75998;45.528052;43054;6269511058;-73.75671;45.529067;2;15;16;9312798;Bus : 24 E - Direction Métro Cartier;"";STL;24E;Sylvie / Dandurant;Métro Cartier Quai:2
475076398;"{\"type\":\"LineString\",\"coordinates\":[[-73.7594757,45.5282394],[-73.7590603,45.5283424],[-73.7583746,45.5285327],[-73.7575091,45.5288161],[-73.7574469,45.5288365],[-73.7564991,45.5292206],[-73.756371,45.5292725],[-73.7560092,45.529427]]}";1;Boulevard Samson;3;50;false;true;true;false;false;false;151.0;0;0;0;0;0;false;43054;6269511058;-73.75671;45.529067;46007;6269511042;-73.75555;45.52952;1;16;17;9312798;Bus : 24 E - Direction Métro Cartier;"";STL;24E;Sylvie / Dandurant;Métro Cartier Quai:2
475076395;"{\"type\":\"LineString\",\"coordinates\":[[-73.7560092,45.529427],[-73.7554352,45.5296699]]}";2;Boulevard Samson;3;50;false;true;true;false;false;false;26.5;1;0;0;0;0;false;43054;6269511058;-73.75671;45.529067;46007;6269511042;-73.75555;45.52952;1;16;17;9312798;Bus : 24 E - Direction Métro Cartier;"";STL;24E;Sylvie / Dandurant;Métro Cartier Quai:2
542857443;"{\"type\":\"LineString\",\"coordinates\":[[-73.7464525,45.5357139],[-73.7463666,45.5358085],[-73.7440914,45.5370249]]}";1;Boulevard Samson;3;50;false;true;true;false;false;false;118.0;0;0;0;0;0;false;43063;6269510822;-73.74429;45.536851;41409;6269510820;-73.74033;45.537308;1;22;23;9312798;Bus : 24 E - Direction Métro Cartier;"";STL;24E;Sylvie / Dandurant;Métro Cartier Quai:2
45600865;"{\"type\":\"LineString\",\"coordinates\":[[-73.7440914,45.5370249],[-73.7438378,45.537147],[-73.7436953,45.537183],[-73.7433565,45.5371689]]}";2;"";1;50;false;true;true;false;false;false;63.0;0;0;0;0;0;false;43063;6269510822;-73.74429;45.536851;41409;6269510820;-73.74033;45.537308;0;22;23;9312798;Bus : 24 E - Direction Métro Cartier;"";STL;24E;Sylvie / Dandurant;Métro Cartier Quai:2
45601177;"{\"type\":\"LineString\",\"coordinates\":[[-73.7366707,45.538404],[-73.7373754,45.5382193],[-73.7379859,45.5380497],[-73.7380784,45.5380258],[-73.7388255,45.5378238],[-73.7398394,45.5375451],[-73.7408658,45.5372535],[-73.7414614,45.5371257],[-73.7420559,45.5370737],[-73.7424942,45.5370756],[-73.7429395,45.5371037],[-73.7433565,45.5371689]]}";3;Boulevard Curé-Labelle;4;50;false;false;true;false;false;false;275.0;0;0;0;0;0;false;43063;6269510822;-73.74429;45.536851;41409;6269510820;-73.74033;45.537308;1;22;23;9312798;Bus : 24 E - Direction Métro Cartier;"";STL;24E;Sylvie / Dandurant;Métro Cartier Quai:2
45601177;"{\"type\":\"LineString\",\"coordinates\":[[-73.7366707,45.538404],[-73.7373754,45.5382193],[-73.7379859,45.5380497],[-73.7380784,45.5380258],[-73.7388255,45.5378238],[-73.7398394,45.5375451],[-73.7408658,45.5372535],[-73.7414614,45.5371257],[-73.7420559,45.5370737],[-73.7424942,45.5370756],[-73.7429395,45.5371037],[-73.7433565,45.5371689]]}";1;Boulevard Curé-Labelle;4;50;false;false;true;false;false;false;275.0;0;0;0;0;0;false;41462;6269510792;-73.73696;45.538216;41262;6269510782;-73.73442;45.538806;1;24;25;9312798;Bus : 24 E - Direction Métro Cartier;"";STL;24E;Sylvie / Dandurant;Métro Cartier Quai:2
45601106;"{\"type\":\"LineString\",\"coordinates\":[[-73.7366707,45.538404],[-73.7358247,45.5385106]]}";2;Boulevard Cartier Ouest;2;50;false;true;true;false;false;false;68.0;0;0;0;0;0;false;41462;6269510792;-73.73696;45.538216;41262;6269510782;-73.73442;45.538806;0;24;25;9312798;Bus : 24 E - Direction Métro Cartier;"";STL;24E;Sylvie / Dandurant;Métro Cartier Quai:2
45600974;"{\"type\":\"LineString\",\"coordinates\":[[-73.7358247,45.5385106],[-73.7355546,45.5385597],[-73.7349425,45.5387157]]}";3;Boulevard Curé-Labelle;2;50;false;true;true;false;false;false;73.0;0;0;0;0;0;false;41462;6269510792;-73.73696;45.538216;41262;6269510782;-73.73442;45.538806;0;24;25;9312798;Bus : 24 E - Direction Métro Cartier;"";STL;24E;Sylvie / Dandurant;Métro Cartier Quai:2
45600953;"{\"type\":\"LineString\",\"coordinates\":[[-73.7349425,45.5387157],[-73.7340547,45.5389667]]}";4;Boulevard Cartier Ouest;2;50;false;true;true;false;false;false;37.5;1;0;0;0;0;false;41462;6269510792;-73.73696;45.538216;41262;6269510782;-73.73442;45.538806;1;24;25;9312798;Bus : 24 E - Direction Métro Cartier;"";STL;24E;Sylvie / Dandurant;Métro Cartier Quai:2
45600953;"{\"type\":\"LineString\",\"coordinates\":[[-73.7349425,45.5387157],[-73.7340547,45.5389667]]}";1;Boulevard Cartier Ouest;2;50;false;true;true;false;false;false;37.5;1;0;0;0;0;false;41262;6269510782;-73.73442;45.538806;41259;6269510776;-73.73303;45.539277;1;25;26;9312798;Bus : 24 E - Direction Métro Cartier;"";STL;24E;Sylvie / Dandurant;Métro Cartier Quai:2
46094579;"{\"type\":\"LineString\",\"coordinates\":[[-73.7340547,45.5389667],[-73.7338382,45.5390395]]}";2;Boulevard Cartier Ouest;2;50;false;true;true;false;false;false;19.0;2;0;0;0;0;false;41262;6269510782;-73.73442;45.538806;41259;6269510776;-73.73303;45.539277;0;25;26;9312798;Bus : 24 E - Direction Métro Cartier;"";STL;24E;Sylvie / Dandurant;Métro Cartier Quai:2
45601013;"{\"type\":\"LineString\",\"coordinates\":[[-73.7338382,45.5390395],[-73.7329726,45.5393777]]}";3;Boulevard Cartier Ouest;2;50;false;true;true;false;false;false;39.0;1;0;0;0;0;false;41262;6269510782;-73.73442;45.538806;41259;6269510776;-73.73303;45.539277;1;25;26;9312798;Bus : 24 E - Direction Métro Cartier;"";STL;24E;Sylvie / Dandurant;Métro Cartier Quai:2
45602586;"{\"type\":\"LineString\",\"coordinates\":[[-73.7329726,45.5393777],[-73.73215,45.5397771]]}";1;Boulevard Cartier Ouest;2;50;false;true;true;false;false;false;79.0;0;0;0;0;0;false;41259;6269510776;-73.73303;45.539277;41258;6269510734;-73.73102;45.540262;2;26;27;9312798;Bus : 24 E - Direction Métro Cartier;"";STL;24E;Sylvie / Dandurant;Métro Cartier Quai:2
553760770;"{\"type\":\"LineString\",\"coordinates\":[[-73.73215,45.5397771],[-73.7313686,45.5401573],[-73.7309506,45.5403607]]}";2;Boulevard Cartier Ouest;2;50;false;true;true;false;false;false;114.0;0;0;0;0;0;false;41259;6269510776;-73.73303;45.539277;41258;6269510734;-73.73102;45.540262;2;26;27;9312798;Bus : 24 E - Direction Métro Cartier;"";STL;24E;Sylvie / Dandurant;Métro Cartier Quai:2
475065673;"{\"type\":\"LineString\",\"coordinates\":[[-73.7299233,45.5408605],[-73.7288968,45.5413599],[-73.7281402,45.541728]]}";1;Boulevard Cartier Ouest;2;50;false;true;true;false;false;false;170.0;0;0;0;0;0;false;41256;6269510751;-73.73001;45.54075;41254;6269510723;-73.72706;45.542168;2;28;29;9312798;Bus : 24 E - Direction Métro Cartier;"";STL;24E;Sylvie / Dandurant;Métro Cartier Quai:2
553760759;"{\"type\":\"LineString\",\"coordinates\":[[-73.7281402,45.541728],[-73.7274514,45.5420632]]}";2;Boulevard Cartier Ouest;2;50;false;true;true;false;false;false;66.0;0;0;0;0;0;false;41256;6269510751;-73.73001;45.54075;41254;6269510723;-73.72706;45.542168;0;28;29;9312798;Bus : 24 E - Direction Métro Cartier;"";STL;24E;Sylvie / Dandurant;Métro Cartier Quai:2
553760753;"{\"type\":\"LineString\",\"coordinates\":[[-73.7274514,45.5420632],[-73.726682,45.5424375]]}";3;Boulevard Cartier Ouest;2;50;false;true;true;false;false;false;74.0;0;0;0;0;0;false;41256;6269510751;-73.73001;45.54075;41254;6269510723;-73.72706;45.542168;2;28;29;9312798;Bus : 24 E - Direction Métro Cartier;"";STL;24E;Sylvie / Dandurant;Métro Cartier Quai:2
553760753;"{\"type\":\"LineString\",\"coordinates\":[[-73.7274514,45.5420632],[-73.726682,45.5424375]]}";1;Boulevard Cartier Ouest;2;50;false;true;true;false;false;false;37.0;0;0;0;0;0;false;41254;6269510723;-73.72706;45.542168;41252;6269510715;-73.72517;45.543144;1;29;30;9312798;Bus : 24 E - Direction Métro Cartier;"";STL;24E;Sylvie / Dandurant;Métro Cartier Quai:2
45602644;"{\"type\":\"LineString\",\"coordinates\":[[-73.726682,45.5424375],[-73.7260384,45.5427228],[-73.7255531,45.5429577],[-73.7255324,45.5429677],[-73.7251227,45.5432372]]}";2;Boulevard Cartier Ouest;2;50;false;true;true;false;false;false;76.0;0;0;1;0;0;false;41254;6269510723;-73.72706;45.542168;41252;6269510715;-73.72517;45.543144;1;29;30;9312798;Bus : 24 E - Direction Métro Cartier;"";STL;24E;Sylvie / Dandurant;Métro Cartier Quai:2
542763153;"{\"type\":\"LineString\",\"coordinates\":[[-73.7233643,45.5441204],[-73.7230886,45.5442575],[-73.7215591,45.5450177],[-73.7213401,45.5451266],[-73.7208378,45.5453763],[-73.720047,45.5457694]]}";1;Boulevard Cartier Ouest;2;50;false;false;false;false;false;false;159.0;0;0;0;0;0;false;41248;6269510685;-73.7202;45.545565;41246;6269510671;-73.71739;45.546929;1;33;34;9312798;Bus : 24 E - Direction Métro Cartier;"";STL;24E;Sylvie / Dandurant;Métro Cartier Quai:2
137022276;"{\"type\":\"LineString\",\"coordinates\":[[-73.720047,45.5457694],[-73.7196791,45.5459743],[-73.7192362,45.5462001]]}";2;Boulevard Cartier Ouest;2;50;false;false;false;false;false;false;80.0;0;0;0;0;0;false;41248;6269510685;-73.7202;45.545565;41246;6269510671;-73.71739;45.546929;0;33;34;9312798;Bus : 24 E - Direction Métro Cartier;"";STL;24E;Sylvie / Dandurant;Métro Cartier Quai:2
37722242;"{\"type\":\"LineString\",\"coordinates\":[[-73.7192362,45.5462001],[-73.7190998,45.5462682],[-73.7183455,45.5466229]]}";3;Boulevard Cartier Ouest;2;50;false;false;false;false;false;false;84.0;0;0;0;0;0;false;41248;6269510685;-73.7202;45.545565;41246;6269510671;-73.71739;45.546929;0;33;34;9312798;Bus : 24 E - Direction Métro Cartier;"";STL;24E;Sylvie / Dandurant;Métro Cartier Quai:2
46078335;"{\"type\":\"LineString\",\"coordinates\":[[-73.7183455,45.5466229],[-73.7178534,45.5468351]]}";4;Boulevard Cartier Ouest;2;50;false;false;false;false;false;false;46.0;0;0;0;0;0;false;41248;6269510685;-73.7202;45.545565;41246;6269510671;-73.71739;45.546929;0;33;34;9312798;Bus : 24 E - Direction Métro Cartier;"";STL;24E;Sylvie / Dandurant;Métro Cartier Quai:2
452691347;"{\"type\":\"LineString\",\"coordinates\":[[-73.7178534,45.5468351],[-73.717347,45.547067]]}";5;Boulevard Cartier Ouest;3;50;false;false;false;false;false;false;24.0;0;0;0;0;0;false;41248;6269510685;-73.7202;45.545565;41246;6269510671;-73.71739;45.546929;1;33;34;9312798;Bus : 24 E - Direction Métro Cartier;"";STL;24E;Sylvie / Dandurant;Métro Cartier Quai:2
302600742;"{\"type\":\"LineString\",\"coordinates\":[[-73.717347,45.547067],[-73.7168747,45.5473156],[-73.7163692,45.547563],[-73.7159979,45.5477506],[-73.7156422,45.5479298],[-73.7150004,45.5482316],[-73.7147171,45.5484239],[-73.7145324,45.5486152],[-73.7144278,45.548748]]}";1;Boulevard Cartier Ouest;2;50;false;false;true;false;false;false;149.0;0;0;0;0;0;false;41242;6269510644;-73.71443;45.548528;41239;6269510631;-73.71281;45.549413;1;36;37;9312798;Bus : 24 E - Direction Métro Cartier;"";STL;24E;Sylvie / Dandurant;Métro Cartier Quai:2
464970740;"{\"type\":\"LineString\",\"coordinates\":[[-73.7144278,45.548748],[-73.7143982,45.5487622],[-73.7141504,45.5488814],[-73.7136385,45.5491275],[-73.7127511,45.5495542],[-73.7120532,45.5498898],[-73.7114251,45.5501918],[-73.7107932,45.5504957],[-73.710165,45.5507977],[-73.709916,45.5509175],[-73.7095469,45.5510949],[-73.7089394,45.551387],[-73.7086494,45.5515265],[-73.7081364,45.5517731],[-73.707264,45.5521926],[-73.7064495,45.5525842],[-73.7056663,45.5529608]]}";2;Boulevard Cartier Ouest;2;50;false;false;true;false;false;false;414.5;0;0;0;0;0;false;41242;6269510644;-73.71443;45.548528;41239;6269510631;-73.71281;45.549413;1;36;37;9312798;Bus : 24 E - Direction Métro Cartier;"";STL;24E;Sylvie / Dandurant;Métro Cartier Quai:2
464970740;"{\"type\":\"LineString\",\"coordinates\":[[-73.7144278,45.548748],[-73.7143982,45.5487622],[-73.7141504,45.5488814],[-73.7136385,45.5491275],[-73.7127511,45.5495542],[-73.7120532,45.5498898],[-73.7114251,45.5501918],[-73.7107932,45.5504957],[-73.710165,45.5507977],[-73.709916,45.5509175],[-73.7095469,45.5510949],[-73.7089394,45.551387],[-73.7086494,45.5515265],[-73.7081364,45.5517731],[-73.707264,45.5521926],[-73.7064495,45.5525842],[-73.7056663,45.5529608]]}";1;Boulevard Cartier Ouest;2;50;false;false;true;false;false;false;414.5;0;0;0;0;0;false;41233;6269510571;-73.70646;45.552466;41231;6269510512;-73.70205;45.55466;1;40;41;9312798;Bus : 24 E - Direction Métro Cartier;"";STL;24E;Sylvie / Dandurant;Métro Cartier Quai:2
37764769;"{\"type\":\"LineString\",\"coordinates\":[[-73.7056663,45.5529608],[-73.7044051,45.5535708],[-73.7030177,45.5542438]]}";2;Boulevard Cartier Ouest;2;50;false;false;false;false;false;false;252.0;0;0;0;0;0;false;41233;6269510571;-73.70646;45.552466;41231;6269510512;-73.70205;45.55466;0;40;41;9312798;Bus : 24 E - Direction Métro Cartier;"";STL;24E;Sylvie / Dandurant;Métro Cartier Quai:2
29016286;"{\"type\":\"LineString\",\"coordinates\":[[-73.7030177,45.5542438],[-73.7028555,45.5543359],[-73.7026515,45.5544517],[-73.7024824,45.5545477]]}";3;Boulevard Cartier Ouest;2;50;false;true;false;false;false;false;54.0;0;0;0;0;0;false;41233;6269510571;-73.70646;45.552466;41231;6269510512;-73.70205;45.55466;0;40;41;9312798;Bus : 24 E - Direction Métro Cartier;"";STL;24E;Sylvie / Dandurant;Métro Cartier Quai:2
53292666;"{\"type\":\"LineString\",\"coordinates\":[[-73.7024824,45.5545477],[-73.7023268,45.554636],[-73.7019419,45.5548545]]}";4;Boulevard Cartier Ouest;2;50;false;true;false;false;false;false;27.5;1;0;0;0;0;false;41233;6269510571;-73.70646;45.552466;41231;6269510512;-73.70205;45.55466;1;40;41;9312798;Bus : 24 E - Direction Métro Cartier;"";STL;24E;Sylvie / Dandurant;Métro Cartier Quai:2
53292666;"{\"type\":\"LineString\",\"coordinates\":[[-73.7024824,45.5545477],[-73.7023268,45.554636],[-73.7019419,45.5548545]]}";1;Boulevard Cartier Ouest;2;50;false;true;false;false;false;false;27.5;1;0;0;0;0;false;41231;6269510512;-73.70205;45.55466;41228;6269510363;-73.69932;45.556402;1;41;42;9312798;Bus : 24 E - Direction Métro Cartier;"";STL;24E;Sylvie / Dandurant;Métro Cartier Quai:2
679942255;"{\"type\":\"LineString\",\"coordinates\":[[-73.7019419,45.5548545],[-73.7007139,45.5557224],[-73.7004203,45.5559143],[-73.6998839,45.5562417],[-73.6998577,45.5562601],[-73.6995166,45.5564144],[-73.6992425,45.5565321],[-73.6988815,45.5566668],[-73.6966263,45.5575155]]}";2;Boulevard Cartier Ouest;2;50;false;true;true;false;false;false;257.0;2;0;0;0;0;false;41231;6269510512;-73.70205;45.55466;41228;6269510363;-73.69932;45.556402;1;41;42;9312798;Bus : 24 E - Direction Métro Cartier;"";STL;24E;Sylvie / Dandurant;Métro Cartier Quai:2
679942255;"{\"type\":\"LineString\",\"coordinates\":[[-73.7019419,45.5548545],[-73.7007139,45.5557224],[-73.7004203,45.5559143],[-73.6998839,45.5562417],[-73.6998577,45.5562601],[-73.6995166,45.5564144],[-73.6992425,45.5565321],[-73.6988815,45.5566668],[-73.6966263,45.5575155]]}";1;Boulevard Cartier Ouest;2;50;false;true;true;false;false;false;257.0;2;0;0;0;0;false;41228;6269510363;-73.69932;45.556402;41226;6269510350;-73.69597;45.557694;1;42;43;9312798;Bus : 24 E - Direction Métro Cartier;"";STL;24E;Sylvie / Dandurant;Métro Cartier Quai:2
679942213;"{\"type\":\"LineString\",\"coordinates\":[[-73.6966263,45.5575155],[-73.6964443,45.557584],[-73.6954926,45.5579407],[-73.6953802,45.5579828],[-73.695225,45.558041],[-73.6950377,45.5581112],[-73.69428,45.5583952],[-73.693884,45.5585179],[-73.6935513,45.5585982],[-73.6934266,45.5586282],[-73.6930629,45.5586904],[-73.6927468,45.5587266]]}";2;Boulevard Cartier Ouest;2;50;false;true;true;false;false;false;167.0;2;0;0;0;0;false;41228;6269510363;-73.69932;45.556402;41226;6269510350;-73.69597;45.557694;1;42;43;9312798;Bus : 24 E - Direction Métro Cartier;"";STL;24E;Sylvie / Dandurant;Métro Cartier Quai:2
679942213;"{\"type\":\"LineString\",\"coordinates\":[[-73.6966263,45.5575155],[-73.6964443,45.557584],[-73.6954926,45.5579407],[-73.6953802,45.5579828],[-73.695225,45.558041],[-73.6950377,45.5581112],[-73.69428,45.5583952],[-73.693884,45.5585179],[-73.6935513,45.5585982],[-73.6934266,45.5586282],[-73.6930629,45.5586904],[-73.6927468,45.5587266]]}";1;Boulevard Cartier Ouest;2;50;false;true;true;false;false;false;167.0;2;0;0;0;0;false;41224;6269510315;-73.693;45.558617;41222;6269510321;-73.68973;45.558728;1;44;45;9312798;Bus : 24 E - Direction Métro Cartier;"";STL;24E;Sylvie / Dandurant;Métro Cartier Quai:2
53292665;"{\"type\":\"LineString\",\"coordinates\":[[-73.6927468,45.5587266],[-73.6917629,45.5587665],[-73.6912476,45.558765],[-73.6903089,45.5587485],[-73.6899359,45.5587759],[-73.6891191,45.5588359],[-73.688969,45.5588469],[-73.688346,45.5589842],[-73.6879843,45.5590947],[-73.6873379,45.5592854],[-73.6868265,45.5593539],[-73.6866391,45.5593608],[-73.686426,45.5593528],[-73.6858182,45.5592844],[-73.6856388,45.5592749],[-73.6854345,45.5592651],[-73.6853204,45.5592709],[-73.6852418,45.5592749],[-73.6850436,45.5593068],[-73.6847541,45.5594139],[-73.6840984,45.5597503]]}";2;Boulevard Cartier Ouest;2;50;false;true;true;false;false;false;351.0;1;0;0;0;0;false;41224;6269510315;-73.693;45.558617;41222;6269510321;-73.68973;45.558728;1;44;45;9312798;Bus : 24 E - Direction Métro Cartier;"";STL;24E;Sylvie / Dandurant;Métro Cartier Quai:2
53292665;"{\"type\":\"LineString\",\"coordinates\":[[-73.6927468,45.5587266],[-73.6917629,45.5587665],[-73.6912476,45.558765],[-73.6903089,45.5587485],[-73.6899359,45.5587759],[-73.6891191,45.5588359],[-73.688969,45.5588469],[-73.688346,45.5589842],[-73.6879843,45.5590947],[-73.6873379,45.5592854],[-73.6868265,45.5593539],[-73.6866391,45.5593608],[-73.686426,45.5593528],[-73.6858182,45.5592844],[-73.6856388,45.5592749],[-73.6854345,45.5592651],[-73.6853204,45.5592709],[-73.6852418,45.5592749],[-73.6850436,45.5593068],[-73.6847541,45.5594139],[-73.6840984,45.5597503]]}";1;Boulevard Cartier Ouest;2;50;false;true;true;false;false;false;351.0;1;0;0;0;0;false;41220;6269510312;-73.68751;45.559164;"47128;47170;47120;47012;47002;47173;47058;47158;47141;47102;47122;47911;47133;47160;47163;47127;47137;47117;47031;47143;47174;47124;47112;47070;47148;47017";6269510222;-73.6825;45.559923;1;46;47;9312798;Bus : 24 E - Direction Métro Cartier;"";STL;24E;Sylvie / Dandurant;Métro Cartier Quai:2
669902218;"{\"type\":\"LineString\",\"coordinates\":[[-73.6840984,45.5597503],[-73.6835265,45.5600532],[-73.6830194,45.5603075]]}";2;Boulevard Cartier Ouest;2;50;false;true;true;false;false;false;105.0;2;0;0;0;0;false;41220;6269510312;-73.68751;45.559164;"47128;47170;47120;47012;47002;47173;47058;47158;47141;47102;47122;47911;47133;47160;47163;47127;47137;47117;47031;47143;47174;47124;47112;47070;47148;47017";6269510222;-73.6825;45.559923;0;46;47;9312798;Bus : 24 E - Direction Métro Cartier;"";STL;24E;Sylvie / Dandurant;Métro Cartier Quai:2
242652088;"{\"type\":\"LineString\",\"coordinates\":[[-73.6830194,45.5603075],[-73.6828755,45.560162]]}";3;"";1;50;false;false;true;false;false;false;20.0;1;0;0;0;0;false;41220;6269510312;-73.68751;45.559164;"47128;47170;47120;47012;47002;47173;47058;47158;47141;47102;47122;47911;47133;47160;47163;47127;47137;47117;47031;47143;47174;47124;47112;47070;47148;47017";6269510222;-73.6825;45.559923;0;46;47;9312798;Bus : 24 E - Direction Métro Cartier;"";STL;24E;Sylvie / Dandurant;Métro Cartier Quai:2
259643630;"{\"type\":\"LineString\",\"coordinates\":[[-73.683108,45.5597546],[-73.6832991,45.5596564],[-73.6834151,45.5595825],[-73.6834772,45.5596133],[-73.6835498,45.5596565],[-73.6835923,45.5597297],[-73.6835737,45.5597964],[-73.6834678,45.5598527],[-73.6828755,45.560162]]}";4;"";1;50;false;false;true;false;false;false;129.0;0;0;0;0;0;false;41220;6269510312;-73.68751;45.559164;"47128;47170;47120;47012;47002;47173;47058;47158;47141;47102;47122;47911;47133;47160;47163;47127;47137;47117;47031;47143;47174;47124;47112;47070;47148;47017";6269510222;-73.6825;45.559923;0;46;47;9312798;Bus : 24 E - Direction Métro Cartier;"";STL;24E;Sylvie / Dandurant;Métro Cartier Quai:2
694196043;"{\"type\":\"LineString\",\"coordinates\":[[-73.6829383,45.5598439],[-73.683108,45.5597546]]}";5;"";1;50;false;false;true;false;false;false;17.0;0;0;0;0;0;false;41220;6269510312;-73.68751;45.559164;"47128;47170;47120;47012;47002;47173;47058;47158;47141;47102;47122;47911;47133;47160;47163;47127;47137;47117;47031;47143;47174;47124;47112;47070;47148;47017";6269510222;-73.6825;45.559923;0;46;47;9312798;Bus : 24 E - Direction Métro Cartier;"";STL;24E;Sylvie / Dandurant;Métro Cartier Quai:2
694409795;"{\"type\":\"LineString\",\"coordinates\":[[-73.6827819,45.5599253],[-73.6829383,45.5598439]]}";6;"";1;50;false;false;true;false;false;false;16.0;0;0;0;0;0;false;41220;6269510312;-73.68751;45.559164;"47128;47170;47120;47012;47002;47173;47058;47158;47141;47102;47122;47911;47133;47160;47163;47127;47137;47117;47031;47143;47174;47124;47112;47070;47148;47017";6269510222;-73.6825;45.559923;0;46;47;9312798;Bus : 24 E - Direction Métro Cartier;"";STL;24E;Sylvie / Dandurant;Métro Cartier Quai:2
669902223;"{\"type\":\"LineString\",\"coordinates\":[[-73.6826117,45.5600129],[-73.6827819,45.5599253]]}";7;"";1;50;false;false;true;false;false;false;17.0;0;0;0;0;0;false;41220;6269510312;-73.68751;45.559164;"47128;47170;47120;47012;47002;47173;47058;47158;47141;47102;47122;47911;47133;47160;47163;47127;47137;47117;47031;47143;47174;47124;47112;47070;47148;47017";6269510222;-73.6825;45.559923;1;46;47;9312798;Bus : 24 E - Direction Métro Cartier;"";STL;24E;Sylvie / Dandurant;Métro Cartier Quai:2
