way_id;shape;index;name;nb_lanes;legal_speed;speed_zone_30;oneway;shares_bike;bike_box;bus_lane;dedicated_bus_lane;length;nb_traffic_signals;nb_crossings;nb_stops;nb_give_ways;nb_lvl_crossings;roundabout;stop_id_orig;node_id_orig;coord_x_orig;coord_y_orig;stop_id_dest;node_id_dest;coord_x_dest;coord_y_dest;nb_neighbouring_ways_bus_stop;ordre_orig;ordre_dest;id_line;line_name;colour;operator;ref;from;to
107102095;"{\"type\":\"LineString\",\"coordinates\":[[-73.4702572,45.726235],[-73.4707345,45.7257024],[-73.470768,45.725459],[-73.4709067,45.7246984]]}";1;Rue Martigny;1;50;false;false;true;false;false;false;183.0;0;0;0;0;0;false;87611;6127178108;-73.470947;45.724714;87663;6127178075;-73.467509;45.723447;1;52;53;9459181;Bus 8 : Direction Repentigny;"";EXO;8 O;rue Dorval / boul. l'Ange-Gardien;rue Notre-Dame / boul. Claude-David
681655364;"{\"type\":\"LineString\",\"coordinates\":[[-73.4709067,45.7246984],[-73.4706381,45.7246866],[-73.4703523,45.7246464],[-73.4700922,45.7245911],[-73.4699045,45.7245321],[-73.469588,45.7244091],[-73.4682386,45.7238243],[-73.4674125,45.723466]]}";2;Rue Lemoyne;1;50;false;false;true;false;false;false;308.0;0;0;0;0;0;false;87611;6127178108;-73.470947;45.724714;87663;6127178075;-73.467509;45.723447;0;52;53;9459181;Bus 8 : Direction Repentigny;"";EXO;8 O;rue Dorval / boul. l'Ange-Gardien;rue Notre-Dame / boul. Claude-David
81605348;"{\"type\":\"LineString\",\"coordinates\":[[-73.4674125,45.723466],[-73.4682226,45.7225556],[-73.4684048,45.7223663],[-73.4685896,45.7221861],[-73.4690556,45.7217928]]}";3;Boulevard Iberville;2;50;false;true;true;false;false;false;226.0;0;0;0;0;0;false;87611;6127178108;-73.470947;45.724714;87663;6127178075;-73.467509;45.723447;2;52;53;9459181;Bus 8 : Direction Repentigny;"";EXO;8 O;rue Dorval / boul. l'Ange-Gardien;rue Notre-Dame / boul. Claude-David
681655364;"{\"type\":\"LineString\",\"coordinates\":[[-73.4709067,45.7246984],[-73.4706381,45.7246866],[-73.4703523,45.7246464],[-73.4700922,45.7245911],[-73.4699045,45.7245321],[-73.469588,45.7244091],[-73.4682386,45.7238243],[-73.4674125,45.723466]]}";1;Rue Lemoyne;1;50;false;false;true;false;false;false;308.0;0;0;0;0;0;false;87663;6127178075;-73.467509;45.723447;88334;6127177397;-73.469061;45.72183;2;53;54;9459181;Bus 8 : Direction Repentigny;"";EXO;8 O;rue Dorval / boul. l'Ange-Gardien;rue Notre-Dame / boul. Claude-David
81605348;"{\"type\":\"LineString\",\"coordinates\":[[-73.4674125,45.723466],[-73.4682226,45.7225556],[-73.4684048,45.7223663],[-73.4685896,45.7221861],[-73.4690556,45.7217928]]}";2;Boulevard Iberville;2;50;false;true;true;false;false;false;226.0;0;0;0;0;0;false;87663;6127178075;-73.467509;45.723447;88334;6127177397;-73.469061;45.72183;2;53;54;9459181;Bus 8 : Direction Repentigny;"";EXO;8 O;rue Dorval / boul. l'Ange-Gardien;rue Notre-Dame / boul. Claude-David
81605402;"{\"type\":\"LineString\",\"coordinates\":[[-73.4705989,45.7204164],[-73.4707072,45.7202914],[-73.4707519,45.7201704],[-73.4707568,45.7200596],[-73.470727,45.7199998],[-73.470711,45.7199678],[-73.4707038,45.7199567],[-73.4706679,45.7199018],[-73.4705989,45.7198402],[-73.4704228,45.719744],[-73.4698551,45.7195045],[-73.4696548,45.7194043],[-73.4695433,45.7193291],[-73.4691949,45.7190857],[-73.4684655,45.7185342],[-73.4684492,45.7185211],[-73.4684067,45.718495]]}";1;Boulevard Iberville;2;50;false;true;true;false;false;false;299.0;1;2;0;0;0;false;88335;1324507705;-73.470606;45.720461;88336;1324507728;-73.4685861;45.7184358;2;55;56;9459181;Bus 8 : Direction Repentigny;"";EXO;8 O;rue Dorval / boul. l'Ange-Gardien;rue Notre-Dame / boul. Claude-David
759217340;"{\"type\":\"LineString\",\"coordinates\":[[-73.4684067,45.718495],[-73.4683591,45.7184608]]}";2;Boulevard Iberville;2;50;false;true;true;false;false;false;6.0;0;0;0;0;0;false;88335;1324507705;-73.470606;45.720461;88336;1324507728;-73.4685861;45.7184358;0;55;56;9459181;Bus 8 : Direction Repentigny;"";EXO;8 O;rue Dorval / boul. l'Ange-Gardien;rue Notre-Dame / boul. Claude-David
681655319;"{\"type\":\"LineString\",\"coordinates\":[[-73.4683591,45.7184608],[-73.4684211,45.71842],[-73.4684406,45.7184072],[-73.4688031,45.7181689],[-73.4688891,45.7181124],[-73.4690779,45.7179883],[-73.4693146,45.7178326],[-73.4696071,45.7176403],[-73.469704,45.7175766],[-73.4698299,45.7174938],[-73.4699607,45.7174078],[-73.4701563,45.7172792],[-73.470495,45.7170565],[-73.4710652,45.7166816],[-73.4711628,45.7166175]]}";3;Rue Notre-Dame;4;50;false;false;true;false;false;false;300.0;2;1;0;0;0;false;88335;1324507705;-73.470606;45.720461;88336;1324507728;-73.4685861;45.7184358;2;55;56;9459181;Bus 8 : Direction Repentigny;"";EXO;8 O;rue Dorval / boul. l'Ange-Gardien;rue Notre-Dame / boul. Claude-David
81605402;"{\"type\":\"LineString\",\"coordinates\":[[-73.4705989,45.7204164],[-73.4707072,45.7202914],[-73.4707519,45.7201704],[-73.4707568,45.7200596],[-73.470727,45.7199998],[-73.470711,45.7199678],[-73.4707038,45.7199567],[-73.4706679,45.7199018],[-73.4705989,45.7198402],[-73.4704228,45.719744],[-73.4698551,45.7195045],[-73.4696548,45.7194043],[-73.4695433,45.7193291],[-73.4691949,45.7190857],[-73.4684655,45.7185342],[-73.4684492,45.7185211],[-73.4684067,45.718495]]}";1;Boulevard Iberville;2;50;false;true;true;false;false;false;299.0;1;2;0;0;0;false;88336;1324507728;-73.4685861;45.7184358;87235;692299395;-73.471125;45.716731;2;56;57;9459181;Bus 8 : Direction Repentigny;"";EXO;8 O;rue Dorval / boul. l'Ange-Gardien;rue Notre-Dame / boul. Claude-David
759217340;"{\"type\":\"LineString\",\"coordinates\":[[-73.4684067,45.718495],[-73.4683591,45.7184608]]}";2;Boulevard Iberville;2;50;false;true;true;false;false;false;6.0;0;0;0;0;0;false;88336;1324507728;-73.4685861;45.7184358;87235;692299395;-73.471125;45.716731;0;56;57;9459181;Bus 8 : Direction Repentigny;"";EXO;8 O;rue Dorval / boul. l'Ange-Gardien;rue Notre-Dame / boul. Claude-David
681655319;"{\"type\":\"LineString\",\"coordinates\":[[-73.4683591,45.7184608],[-73.4684211,45.71842],[-73.4684406,45.7184072],[-73.4688031,45.7181689],[-73.4688891,45.7181124],[-73.4690779,45.7179883],[-73.4693146,45.7178326],[-73.4696071,45.7176403],[-73.469704,45.7175766],[-73.4698299,45.7174938],[-73.4699607,45.7174078],[-73.4701563,45.7172792],[-73.470495,45.7170565],[-73.4710652,45.7166816],[-73.4711628,45.7166175]]}";3;Rue Notre-Dame;4;50;false;false;true;false;false;false;300.0;2;1;0;0;0;false;88336;1324507728;-73.4685861;45.7184358;87235;692299395;-73.471125;45.716731;1;56;57;9459181;Bus 8 : Direction Repentigny;"";EXO;8 O;rue Dorval / boul. l'Ange-Gardien;rue Notre-Dame / boul. Claude-David
