way_id;shape;index;name;nb_lanes;legal_speed;speed_zone_30;oneway;shares_bike;bike_box;bus_lane;dedicated_bus_lane;length;nb_traffic_signals;nb_crossings;nb_stops;nb_give_ways;nb_lvl_crossings;roundabout;stop_id_orig;node_id_orig;coord_x_orig;coord_y_orig;stop_id_dest;node_id_dest;coord_x_dest;coord_y_dest;nb_neighbouring_ways_bus_stop;ordre_orig;ordre_dest;id_line;line_name;colour;operator;ref;from;to
798994211;"{\"type\":\"LineString\",\"coordinates\":[[-73.5474325,45.3845584],[-73.5475239,45.3845788],[-73.5475804,45.3845909],[-73.5476084,45.3845958],[-73.5476404,45.3845958],[-73.5476745,45.3845888],[-73.5477025,45.3845733],[-73.5477205,45.3845536],[-73.5478647,45.3842618],[-73.5478777,45.3842309],[-73.5478807,45.384214],[-73.5478777,45.3841957],[-73.5478607,45.3841732],[-73.5478316,45.3841557],[-73.5477946,45.3841409],[-73.5477804,45.3841368],[-73.5477512,45.3841289],[-73.5477025,45.384117],[-73.5476571,45.3841066]]}";1;"";1;50;false;true;true;false;false;false;88.0;0;2;1;0;0;false;76080;6133354127;-73.5478906;45.3844531;76194;6133353941;-73.549131;45.381329;1;0;1;9498779;Bus 40 : Service AM;"";EXO;40 AM;Stationnement Incitatif Georges-Gagné;Stationnement Incitatif Georges-Gagné
798994214;"{\"type\":\"LineString\",\"coordinates\":[[-73.5480837,45.3832487],[-73.5480114,45.3833941],[-73.5479404,45.3835369],[-73.5478469,45.3837249],[-73.5478406,45.3837376],[-73.5477785,45.3838616],[-73.5477706,45.3838773],[-73.5476571,45.3841066]]}";2;Boulevard Georges-Gagné Sud;4;50;false;false;true;false;false;false;101.0;0;0;0;0;0;false;76080;6133354127;-73.5478906;45.3844531;76194;6133353941;-73.549131;45.381329;0;0;1;9498779;Bus 40 : Service AM;"";EXO;40 AM;Stationnement Incitatif Georges-Gagné;Stationnement Incitatif Georges-Gagné
799183409;"{\"type\":\"LineString\",\"coordinates\":[[-73.5490914,45.3812032],[-73.5490631,45.3812614],[-73.5490207,45.3813472],[-73.5485296,45.3823422],[-73.5484913,45.3824173],[-73.5483148,45.3827788],[-73.5483089,45.3827908],[-73.5482232,45.3829651],[-73.5481295,45.3831556],[-73.5480837,45.3832487]]}";3;Boulevard Georges-Gagné Sud;3;50;false;false;false;false;false;false;120.5;0;3;0;0;0;false;76080;6133354127;-73.5478906;45.3844531;76194;6133353941;-73.549131;45.381329;1;0;1;9498779;Bus 40 : Service AM;"";EXO;40 AM;Stationnement Incitatif Georges-Gagné;Stationnement Incitatif Georges-Gagné
799186775;"{\"type\":\"LineString\",\"coordinates\":[[-73.5500939,45.3791684],[-73.5499748,45.3794227],[-73.5499555,45.3794613],[-73.5498533,45.3796653],[-73.5497497,45.379872],[-73.5496768,45.3800175],[-73.5496651,45.3800408],[-73.5496096,45.3801515],[-73.5493642,45.3806412],[-73.5490914,45.3812032]]}";1;Boulevard Georges-Gagné Sud;3;50;false;false;false;false;false;false;240.0;0;1;0;0;0;false;76194;6133353941;-73.549131;45.381329;76195;6133353940;-73.550407;45.378794;2;1;2;9498779;Bus 40 : Service AM;"";EXO;40 AM;Stationnement Incitatif Georges-Gagné;Stationnement Incitatif Georges-Gagné
23845510;"{\"type\":\"LineString\",\"coordinates\":[[-73.5500939,45.3791684],[-73.5501623,45.3790716],[-73.5501812,45.3790448],[-73.5502389,45.3789589],[-73.5502801,45.3788755],[-73.5503121,45.3788107],[-73.5503406,45.3787529],[-73.5503346,45.3786737]]}";2;Boulevard Georges-Gagné Sud;2;50;false;true;true;false;false;false;59.0;1;1;0;0;0;false;76194;6133353941;-73.549131;45.381329;76195;6133353940;-73.550407;45.378794;2;1;2;9498779;Bus 40 : Service AM;"";EXO;40 AM;Stationnement Incitatif Georges-Gagné;Stationnement Incitatif Georges-Gagné
172293015;"{\"type\":\"LineString\",\"coordinates\":[[-73.5503346,45.3786737],[-73.5504845,45.3786997],[-73.5505332,45.3787067],[-73.5509811,45.3786978],[-73.5510796,45.3786959],[-73.551256,45.3786606]]}";1;Montée des Bouleaux;2;50;false;true;true;false;false;false;74.0;0;1;0;0;0;false;76195;6133353940;-73.550407;45.378794;76006;6133354180;-73.554832;45.378662;2;2;3;9498779;Bus 40 : Service AM;"";EXO;40 AM;Stationnement Incitatif Georges-Gagné;Stationnement Incitatif Georges-Gagné
23845510;"{\"type\":\"LineString\",\"coordinates\":[[-73.5500939,45.3791684],[-73.5501623,45.3790716],[-73.5501812,45.3790448],[-73.5502389,45.3789589],[-73.5502801,45.3788755],[-73.5503121,45.3788107],[-73.5503406,45.3787529],[-73.5503346,45.3786737]]}";2;Boulevard Georges-Gagné Sud;2;50;false;true;true;false;false;false;59.0;1;1;0;0;0;false;76195;6133353940;-73.550407;45.378794;76006;6133354180;-73.554832;45.378662;0;2;3;9498779;Bus 40 : Service AM;"";EXO;40 AM;Stationnement Incitatif Georges-Gagné;Stationnement Incitatif Georges-Gagné
802502210;"{\"type\":\"LineString\",\"coordinates\":[[-73.551256,45.3786606],[-73.5510941,45.378638],[-73.5505398,45.3786467],[-73.5504846,45.3786537],[-73.5503346,45.3786737]]}";3;"";2;50;false;true;true;false;false;false;73.0;1;1;0;0;0;false;76195;6133353940;-73.550407;45.378794;76006;6133354180;-73.554832;45.378662;0;2;3;9498779;Bus 40 : Service AM;"";EXO;40 AM;Stationnement Incitatif Georges-Gagné;Stationnement Incitatif Georges-Gagné
802502209;"{\"type\":\"LineString\",\"coordinates\":[[-73.551256,45.3786606],[-73.5512882,45.3786595],[-73.5513938,45.3786559]]}";4;Montée des Bouleaux;2;50;false;false;true;false;false;false;11.0;0;0;0;0;0;false;76195;6133353940;-73.550407;45.378794;76006;6133354180;-73.554832;45.378662;0;2;3;9498779;Bus 40 : Service AM;"";EXO;40 AM;Stationnement Incitatif Georges-Gagné;Stationnement Incitatif Georges-Gagné
802502213;"{\"type\":\"LineString\",\"coordinates\":[[-73.5513938,45.3786559],[-73.5519809,45.3786422],[-73.5523473,45.3786337],[-73.5524412,45.3786315],[-73.5526679,45.3786276],[-73.5529452,45.3786229],[-73.5531449,45.3786195],[-73.5534617,45.378614],[-73.5538292,45.3786077],[-73.5542159,45.3785997],[-73.5544618,45.3785967],[-73.5545143,45.3785967],[-73.5547372,45.3785968],[-73.5548781,45.3786],[-73.5549717,45.3786027],[-73.5550321,45.3786061],[-73.5551148,45.3786111],[-73.5552941,45.3786232],[-73.5553865,45.3786311],[-73.5554313,45.3786349],[-73.5555801,45.3786494],[-73.5556393,45.3786556],[-73.5557013,45.3786621],[-73.5557471,45.3786677],[-73.5560947,45.3787105],[-73.5561861,45.3787218],[-73.5563645,45.378743],[-73.5564756,45.378754],[-73.5565583,45.3787606],[-73.5566137,45.3787651],[-73.5567891,45.3787776],[-73.5568931,45.3787833],[-73.5569771,45.3787879],[-73.5571383,45.3787943],[-73.5571848,45.378795],[-73.5572803,45.3787963],[-73.5574041,45.3787978],[-73.5574853,45.3787983],[-73.5575636,45.3787974],[-73.5578223,45.3787948],[-73.5579927,45.3787915],[-73.5582313,45.3787869],[-73.55841,45.3787835],[-73.5584788,45.3787822],[-73.5590093,45.3787683],[-73.5593703,45.3787588],[-73.5594269,45.3787573]]}";5;Montée des Bouleaux;2;50;false;false;true;false;false;false;631.0;0;2;3;0;0;false;76195;6133353940;-73.550407;45.378794;76006;6133354180;-73.554832;45.378662;2;2;3;9498779;Bus 40 : Service AM;"";EXO;40 AM;Stationnement Incitatif Georges-Gagné;Stationnement Incitatif Georges-Gagné
799186791;"{\"type\":\"LineString\",\"coordinates\":[[-73.5594269,45.3787573],[-73.5594725,45.3787564],[-73.5596604,45.3787513],[-73.5601619,45.3787378],[-73.5602808,45.3787346],[-73.5603552,45.3787326],[-73.5604692,45.3787309],[-73.5607295,45.3787292],[-73.5608285,45.3787286],[-73.5610317,45.3787299],[-73.5612075,45.3787331],[-73.5613447,45.3787377],[-73.5614994,45.3787459],[-73.5616753,45.378757],[-73.5617521,45.3787637],[-73.5618175,45.3787694],[-73.5619604,45.3787835],[-73.5620999,45.3787996],[-73.5622237,45.378816],[-73.562268,45.3788224],[-73.5623436,45.3788332],[-73.56239,45.3788411]]}";1;Montée des Bouleaux;2;50;false;false;false;false;false;false;233.0;0;1;1;0;0;false;76008;6133354178;-73.559368;45.378809;76292;6133353668;-73.564948;45.379604;2;4;5;9498779;Bus 40 : Service AM;"";EXO;40 AM;Stationnement Incitatif Georges-Gagné;Stationnement Incitatif Georges-Gagné
802582905;"{\"type\":\"LineString\",\"coordinates\":[[-73.56239,45.3788411],[-73.5624535,45.3788519],[-73.5625051,45.3788626],[-73.5625679,45.3788757],[-73.5626734,45.3788999],[-73.5627354,45.3789159],[-73.5627697,45.3789247],[-73.5628261,45.3789399]]}";2;Montée des Bouleaux;2;50;false;false;true;false;false;false;36.0;0;1;0;0;0;false;76008;6133354178;-73.559368;45.378809;76292;6133353668;-73.564948;45.379604;0;4;5;9498779;Bus 40 : Service AM;"";EXO;40 AM;Stationnement Incitatif Georges-Gagné;Stationnement Incitatif Georges-Gagné
802059404;"{\"type\":\"LineString\",\"coordinates\":[[-73.5628261,45.3789399],[-73.5629154,45.3789657],[-73.5629921,45.37899],[-73.5630159,45.3789975],[-73.5631047,45.3790266],[-73.5631951,45.3790598],[-73.56322,45.3790689],[-73.5632985,45.3790976],[-73.5633896,45.3791287],[-73.5634916,45.3791589],[-73.563533,45.3791711]]}";3;Montée des Bouleaux;2;50;false;false;false;false;false;false;62.0;0;0;0;0;0;false;76008;6133354178;-73.559368;45.378809;76292;6133353668;-73.564948;45.379604;0;4;5;9498779;Bus 40 : Service AM;"";EXO;40 AM;Stationnement Incitatif Georges-Gagné;Stationnement Incitatif Georges-Gagné
802059403;"{\"type\":\"LineString\",\"coordinates\":[[-73.563533,45.3791711],[-73.5637202,45.3792222]]}";4;Montée des Bouleaux;2;50;false;false;true;false;false;false;16.0;0;0;0;0;0;false;76008;6133354178;-73.559368;45.378809;76292;6133353668;-73.564948;45.379604;0;4;5;9498779;Bus 40 : Service AM;"";EXO;40 AM;Stationnement Incitatif Georges-Gagné;Stationnement Incitatif Georges-Gagné
779926961;"{\"type\":\"LineString\",\"coordinates\":[[-73.5637202,45.3792222],[-73.5639667,45.3792835]]}";5;Montée des Bouleaux;2;50;false;false;true;false;false;false;21.0;0;0;0;0;0;false;76008;6133354178;-73.559368;45.378809;76292;6133353668;-73.564948;45.379604;0;4;5;9498779;Bus 40 : Service AM;"";EXO;40 AM;Stationnement Incitatif Georges-Gagné;Stationnement Incitatif Georges-Gagné
779926962;"{\"type\":\"LineString\",\"coordinates\":[[-73.5639667,45.3792835],[-73.5639862,45.3792882],[-73.5640721,45.379308],[-73.5641821,45.3793399]]}";6;Montée des Bouleaux;2;50;false;false;true;false;false;false;18.0;1;1;0;0;0;false;76008;6133354178;-73.559368;45.378809;76292;6133353668;-73.564948;45.379604;0;4;5;9498779;Bus 40 : Service AM;"";EXO;40 AM;Stationnement Incitatif Georges-Gagné;Stationnement Incitatif Georges-Gagné
684466617;"{\"type\":\"LineString\",\"coordinates\":[[-73.5641821,45.3793399],[-73.5642965,45.3793707],[-73.5643728,45.3793898],[-73.5647627,45.3794804]]}";7;Rue Sainte-Catherine;3;50;false;false;true;false;false;false;49.0;1;1;0;0;0;false;76008;6133354178;-73.559368;45.378809;76292;6133353668;-73.564948;45.379604;0;4;5;9498779;Bus 40 : Service AM;"";EXO;40 AM;Stationnement Incitatif Georges-Gagné;Stationnement Incitatif Georges-Gagné
779926929;"{\"type\":\"LineString\",\"coordinates\":[[-73.5647627,45.3794804],[-73.5649377,45.3795175],[-73.565031,45.3795373]]}";8;Rue Sainte-Catherine;2;50;false;false;true;false;false;false;22.0;0;1;0;0;0;false;76008;6133354178;-73.559368;45.378809;76292;6133353668;-73.564948;45.379604;2;4;5;9498779;Bus 40 : Service AM;"";EXO;40 AM;Stationnement Incitatif Georges-Gagné;Stationnement Incitatif Georges-Gagné
779926956;"{\"type\":\"LineString\",\"coordinates\":[[-73.565031,45.3795373],[-73.5651329,45.3795596],[-73.5652301,45.3795813],[-73.5652648,45.3795894],[-73.5655286,45.3796508],[-73.565993,45.3797589],[-73.5661436,45.3797939],[-73.5662428,45.379817],[-73.5662933,45.3798288],[-73.5663498,45.3798419],[-73.5673099,45.3800655],[-73.567668,45.3801499],[-73.5677412,45.3801678],[-73.5678348,45.3801898],[-73.5695448,45.3805948],[-73.569644,45.3806173],[-73.5697285,45.3806374],[-73.5705158,45.3808243],[-73.5705954,45.380843],[-73.5706765,45.3808611],[-73.5719107,45.381144],[-73.5723633,45.3812477],[-73.5727074,45.3813266],[-73.5728394,45.3813569],[-73.5729492,45.3813824],[-73.5733663,45.3814792],[-73.5734595,45.381499],[-73.5735483,45.3815181],[-73.5751699,45.3818836]]}";1;Rue Sainte-Catherine;2;50;false;false;false;false;false;false;418.0;0;13;0;0;0;false;76296;6133353664;-73.573291;45.381519;76297;6133353663;-73.576649;45.382302;1;9;10;9498779;Bus 40 : Service AM;"";EXO;40 AM;Stationnement Incitatif Georges-Gagné;Stationnement Incitatif Georges-Gagné
779926954;"{\"type\":\"LineString\",\"coordinates\":[[-73.5751699,45.3818836],[-73.5755515,45.3819662]]}";2;Rue Sainte-Catherine;2;50;false;false;false;false;false;false;32.0;0;0;0;0;0;false;76296;6133353664;-73.573291;45.381519;76297;6133353663;-73.576649;45.382302;0;9;10;9498779;Bus 40 : Service AM;"";EXO;40 AM;Stationnement Incitatif Georges-Gagné;Stationnement Incitatif Georges-Gagné
779926953;"{\"type\":\"LineString\",\"coordinates\":[[-73.5755515,45.3819662],[-73.5767557,45.3822313],[-73.5768354,45.3822489]]}";3;Rue Sainte-Catherine;2;50;false;false;false;false;false;false;53.0;0;0;0;0;0;false;76296;6133353664;-73.573291;45.381519;76297;6133353663;-73.576649;45.382302;1;9;10;9498779;Bus 40 : Service AM;"";EXO;40 AM;Stationnement Incitatif Georges-Gagné;Stationnement Incitatif Georges-Gagné
17061567;"{\"type\":\"LineString\",\"coordinates\":[[-73.5768354,45.3822489],[-73.5776759,45.3824319],[-73.5778252,45.3824649],[-73.5780509,45.3825161],[-73.5786852,45.3826652],[-73.5788618,45.3827067],[-73.579153,45.3827751],[-73.5791822,45.382782],[-73.579367,45.3828237],[-73.579496,45.382852],[-73.5804677,45.383071],[-73.5808437,45.3831557],[-73.5813523,45.3832705],[-73.5824874,45.3835283],[-73.5834593,45.3837544]]}";1;Rue Sainte-Catherine;2;50;false;false;false;false;false;false;272.5;0;1;2;0;0;false;76299;6133353661;-73.582401;45.383573;76098;6133354114;-73.5844691;45.3840633;1;12;13;9498779;Bus 40 : Service AM;"";EXO;40 AM;Stationnement Incitatif Georges-Gagné;Stationnement Incitatif Georges-Gagné
778045380;"{\"type\":\"LineString\",\"coordinates\":[[-73.5834593,45.3837544],[-73.5835055,45.3837617],[-73.5836014,45.3837768]]}";2;Rue Sainte-Catherine;2;50;false;false;true;false;false;false;12.0;0;0;0;0;0;false;76299;6133353661;-73.582401;45.383573;76098;6133354114;-73.5844691;45.3840633;0;12;13;9498779;Bus 40 : Service AM;"";EXO;40 AM;Stationnement Incitatif Georges-Gagné;Stationnement Incitatif Georges-Gagné
779915284;"{\"type\":\"LineString\",\"coordinates\":[[-73.5836014,45.3837768],[-73.5844983,45.3839793],[-73.5845867,45.3839996],[-73.5847105,45.3840404]]}";3;Rue Sainte-Catherine;3;50;false;false;true;false;false;false;46.0;1;1;0;0;0;false;76299;6133353661;-73.582401;45.383573;76098;6133354114;-73.5844691;45.3840633;1;12;13;9498779;Bus 40 : Service AM;"";EXO;40 AM;Stationnement Incitatif Georges-Gagné;Stationnement Incitatif Georges-Gagné
684614715;"{\"type\":\"LineString\",\"coordinates\":[[-73.5847105,45.3840404],[-73.5848571,45.3840916],[-73.5848798,45.3840965],[-73.5850142,45.384126],[-73.5852583,45.3841817],[-73.5854046,45.3842146],[-73.5855398,45.384245]]}";1;Rue Sainte-Catherine;3;50;false;false;true;false;false;false;69.0;1;1;0;0;0;false;76098;6133354114;-73.5844691;45.3840633;76027;6133354161;-73.588966;45.385113;2;13;14;9498779;Bus 40 : Service AM;"";EXO;40 AM;Stationnement Incitatif Georges-Gagné;Stationnement Incitatif Georges-Gagné
779915294;"{\"type\":\"LineString\",\"coordinates\":[[-73.5855398,45.384245],[-73.585674,45.3842727],[-73.5858884,45.384317],[-73.5861234,45.3843697],[-73.5863887,45.3844293],[-73.5867553,45.3845116],[-73.5871773,45.3846072],[-73.5873802,45.3846537],[-73.587803,45.3847495],[-73.5879789,45.3847894],[-73.5884425,45.384895],[-73.5888956,45.3849986],[-73.5890406,45.385032],[-73.5890714,45.3850388],[-73.5891788,45.3850624]]}";2;Rue Sainte-Catherine;2;50;false;false;true;false;false;false;299.0;0;1;1;0;0;false;76098;6133354114;-73.5844691;45.3840633;76027;6133354161;-73.588966;45.385113;2;13;14;9498779;Bus 40 : Service AM;"";EXO;40 AM;Stationnement Incitatif Georges-Gagné;Stationnement Incitatif Georges-Gagné
779904408;"{\"type\":\"LineString\",\"coordinates\":[[-73.5849525,45.3810442],[-73.5851313,45.381428],[-73.5851615,45.3814969],[-73.5851873,45.3815528]]}";1;Boulevard Monchamp;2;50;false;false;false;false;false;false;60.0;0;1;1;0;0;false;76099;6133354113;-73.585322;45.381447;76124;6133354095;-73.584585;45.379903;2;16;17;9498779;Bus 40 : Service AM;"";EXO;40 AM;Stationnement Incitatif Georges-Gagné;Stationnement Incitatif Georges-Gagné
684614712;"{\"type\":\"LineString\",\"coordinates\":[[-73.5847863,45.3806729],[-73.5849525,45.3810442]]}";2;Boulevard Monchamp;2;30;false;false;false;false;false;false;44.0;0;0;0;0;0;false;76099;6133354113;-73.585322;45.381447;76124;6133354095;-73.584585;45.379903;0;16;17;9498779;Bus 40 : Service AM;"";EXO;40 AM;Stationnement Incitatif Georges-Gagné;Stationnement Incitatif Georges-Gagné
17063107;"{\"type\":\"LineString\",\"coordinates\":[[-73.5847863,45.3806729],[-73.5847849,45.3805715],[-73.5847323,45.3804476],[-73.5846822,45.3803414],[-73.5846298,45.3802283],[-73.5844852,45.3799053],[-73.5844741,45.3798806],[-73.5844633,45.3798565],[-73.5844446,45.3798147],[-73.584414,45.3797465],[-73.5843349,45.3795696],[-73.5842072,45.3792874],[-73.5841501,45.3791611],[-73.5841185,45.3790913],[-73.584054,45.3789488],[-73.5840341,45.3789063],[-73.584005,45.3788418],[-73.5837509,45.378279],[-73.5837017,45.3781729],[-73.5836873,45.3781253],[-73.5836806,45.3780791],[-73.5836799,45.3780261],[-73.5836836,45.377999],[-73.5836843,45.3779846],[-73.5836971,45.3779432],[-73.5837272,45.3778796],[-73.5839586,45.3773916]]}";3;Boulevard Monchamp;1;30;false;true;true;false;false;false;382.0;0;6;3;0;0;false;76099;6133354113;-73.585322;45.381447;76124;6133354095;-73.584585;45.379903;2;16;17;9498779;Bus 40 : Service AM;"";EXO;40 AM;Stationnement Incitatif Georges-Gagné;Stationnement Incitatif Georges-Gagné
17063107;"{\"type\":\"LineString\",\"coordinates\":[[-73.5847863,45.3806729],[-73.5847849,45.3805715],[-73.5847323,45.3804476],[-73.5846822,45.3803414],[-73.5846298,45.3802283],[-73.5844852,45.3799053],[-73.5844741,45.3798806],[-73.5844633,45.3798565],[-73.5844446,45.3798147],[-73.584414,45.3797465],[-73.5843349,45.3795696],[-73.5842072,45.3792874],[-73.5841501,45.3791611],[-73.5841185,45.3790913],[-73.584054,45.3789488],[-73.5840341,45.3789063],[-73.584005,45.3788418],[-73.5837509,45.378279],[-73.5837017,45.3781729],[-73.5836873,45.3781253],[-73.5836806,45.3780791],[-73.5836799,45.3780261],[-73.5836836,45.377999],[-73.5836843,45.3779846],[-73.5836971,45.3779432],[-73.5837272,45.3778796],[-73.5839586,45.3773916]]}";1;Boulevard Monchamp;1;30;false;true;true;false;false;false;191.0;0;6;3;0;0;false;76125;6133354094;-73.583844;45.378066;76131;6133354090;-73.584546;45.375725;1;18;19;9498779;Bus 40 : Service AM;"";EXO;40 AM;Stationnement Incitatif Georges-Gagné;Stationnement Incitatif Georges-Gagné
779875700;"{\"type\":\"LineString\",\"coordinates\":[[-73.5839586,45.3773916],[-73.5840511,45.3772297],[-73.5840677,45.3771956],[-73.5842942,45.3767138],[-73.58433,45.3766435]]}";2;Boulevard Monchamp;2;30;false;true;true;false;false;false;89.0;0;1;0;0;0;false;76125;6133354094;-73.583844;45.378066;76131;6133354090;-73.584546;45.375725;0;18;19;9498779;Bus 40 : Service AM;"";EXO;40 AM;Stationnement Incitatif Georges-Gagné;Stationnement Incitatif Georges-Gagné
779875697;"{\"type\":\"LineString\",\"coordinates\":[[-73.58433,45.3766435],[-73.5843564,45.3765926],[-73.5843695,45.37656],[-73.5843891,45.3765112],[-73.5844272,45.3763965],[-73.5844501,45.376322],[-73.5844651,45.3762406],[-73.5844767,45.3761476],[-73.5844761,45.3760626],[-73.5844698,45.3759849],[-73.5844315,45.3757579],[-73.5844214,45.3756984],[-73.5844098,45.3756347],[-73.5843999,45.3755804],[-73.5842736,45.3748973]]}";3;Boulevard Monchamp;1;50;false;true;true;false;false;false;98.5;0;3;1;0;0;false;76125;6133354094;-73.583844;45.378066;76131;6133354090;-73.584546;45.375725;1;18;19;9498779;Bus 40 : Service AM;"";EXO;40 AM;Stationnement Incitatif Georges-Gagné;Stationnement Incitatif Georges-Gagné
779875697;"{\"type\":\"LineString\",\"coordinates\":[[-73.58433,45.3766435],[-73.5843564,45.3765926],[-73.5843695,45.37656],[-73.5843891,45.3765112],[-73.5844272,45.3763965],[-73.5844501,45.376322],[-73.5844651,45.3762406],[-73.5844767,45.3761476],[-73.5844761,45.3760626],[-73.5844698,45.3759849],[-73.5844315,45.3757579],[-73.5844214,45.3756984],[-73.5844098,45.3756347],[-73.5843999,45.3755804],[-73.5842736,45.3748973]]}";1;Boulevard Monchamp;1;50;false;true;true;false;false;false;98.5;0;3;1;0;0;false;76131;6133354090;-73.584546;45.375725;76126;6133354093;-73.583524;45.374117;1;19;20;9498779;Bus 40 : Service AM;"";EXO;40 AM;Stationnement Incitatif Georges-Gagné;Stationnement Incitatif Georges-Gagné
782428515;"{\"type\":\"LineString\",\"coordinates\":[[-73.5842736,45.3748973],[-73.5842456,45.3747372]]}";2;Boulevard Monchamp;1;50;false;true;true;false;false;false;18.0;0;0;0;0;0;false;76131;6133354090;-73.584546;45.375725;76126;6133354093;-73.583524;45.374117;0;19;20;9498779;Bus 40 : Service AM;"";EXO;40 AM;Stationnement Incitatif Georges-Gagné;Stationnement Incitatif Georges-Gagné
782428512;"{\"type\":\"LineString\",\"coordinates\":[[-73.5842456,45.3747372],[-73.5842007,45.3744771]]}";3;Boulevard Monchamp;1;50;false;true;true;false;false;false;30.0;0;0;0;0;0;false;76131;6133354090;-73.584546;45.375725;76126;6133354093;-73.583524;45.374117;0;19;20;9498779;Bus 40 : Service AM;"";EXO;40 AM;Stationnement Incitatif Georges-Gagné;Stationnement Incitatif Georges-Gagné
782462790;"{\"type\":\"LineString\",\"coordinates\":[[-73.5842007,45.3744771],[-73.5841552,45.374245],[-73.5841497,45.374217],[-73.5841393,45.3741705]]}";4;Boulevard Monchamp;2;50;false;true;true;false;false;false;35.0;0;1;1;0;0;false;76131;6133354090;-73.584546;45.375725;76126;6133354093;-73.583524;45.374117;0;19;20;9498779;Bus 40 : Service AM;"";EXO;40 AM;Stationnement Incitatif Georges-Gagné;Stationnement Incitatif Georges-Gagné
684451724;"{\"type\":\"LineString\",\"coordinates\":[[-73.5841393,45.3741705],[-73.5841204,45.3740724]]}";5;Boulevard Monchamp;1;50;false;true;true;false;false;false;11.0;0;0;0;0;0;false;76131;6133354090;-73.584546;45.375725;76126;6133354093;-73.583524;45.374117;0;19;20;9498779;Bus 40 : Service AM;"";EXO;40 AM;Stationnement Incitatif Georges-Gagné;Stationnement Incitatif Georges-Gagné
782465591;"{\"type\":\"LineString\",\"coordinates\":[[-73.5841204,45.3740724],[-73.5839904,45.3740834],[-73.5839018,45.374091],[-73.5837579,45.3741086],[-73.5836932,45.3741186],[-73.5836164,45.3741406],[-73.5834905,45.37418]]}";6;Rue de la Mairie;1;30;false;true;true;false;false;false;26.0;0;1;0;0;0;false;76131;6133354090;-73.584546;45.375725;76126;6133354093;-73.583524;45.374117;1;19;20;9498779;Bus 40 : Service AM;"";EXO;40 AM;Stationnement Incitatif Georges-Gagné;Stationnement Incitatif Georges-Gagné
788146296;"{\"type\":\"LineString\",\"coordinates\":[[-73.5809737,45.3742962],[-73.5810708,45.3743166],[-73.5811668,45.3743329],[-73.5812629,45.3743462],[-73.5813517,45.3743532],[-73.5814291,45.3743568],[-73.5815074,45.3743576],[-73.5815929,45.374355],[-73.5816714,45.3743503],[-73.5817572,45.3743432],[-73.5818608,45.3743341],[-73.5828252,45.3742444],[-73.5829788,45.374228],[-73.5830981,45.3742167],[-73.5834905,45.37418]]}";1;Rue de la Mairie;2;30;false;false;true;false;false;false;200.0;0;0;0;0;0;false;76126;6133354093;-73.583524;45.374117;76127;6133354092;-73.580687;45.37418;2;20;21;9498779;Bus 40 : Service AM;"";EXO;40 AM;Stationnement Incitatif Georges-Gagné;Stationnement Incitatif Georges-Gagné
788146295;"{\"type\":\"LineString\",\"coordinates\":[[-73.5804897,45.3741842],[-73.5805922,45.3742089],[-73.5809737,45.3742962]]}";2;Rue de la Mairie;2;30;false;false;true;false;false;false;40.0;0;0;1;0;0;false;76126;6133354093;-73.583524;45.374117;76127;6133354092;-73.580687;45.37418;2;20;21;9498779;Bus 40 : Service AM;"";EXO;40 AM;Stationnement Incitatif Georges-Gagné;Stationnement Incitatif Georges-Gagné
788152037;"{\"type\":\"LineString\",\"coordinates\":[[-73.575647,45.3730593],[-73.5758303,45.3731019],[-73.578126,45.3736353],[-73.5781409,45.3736389],[-73.5795296,45.3739617],[-73.5803524,45.3741515],[-73.5804897,45.3741842]]}";1;Rue de la Mairie;2;40;false;false;true;false;false;false;200.0;0;1;2;0;0;false;76128;6133354091;-73.57827;45.373624;76200;6133353935;-73.573719;45.372547;1;22;23;9498779;Bus 40 : Service AM;"";EXO;40 AM;Stationnement Incitatif Georges-Gagné;Stationnement Incitatif Georges-Gagné
788152036;"{\"type\":\"LineString\",\"coordinates\":[[-73.5725494,45.3723326],[-73.572693,45.3723651],[-73.5736255,45.3725826],[-73.5745784,45.3728075],[-73.5747297,45.3728429],[-73.5749548,45.3728961],[-73.5755362,45.3730337],[-73.575647,45.3730593]]}";2;Rue de la Mairie;2;30;false;false;true;false;false;false;128.0;0;0;4;0;0;false;76128;6133354091;-73.57827;45.373624;76200;6133353935;-73.573719;45.372547;1;22;23;9498779;Bus 40 : Service AM;"";EXO;40 AM;Stationnement Incitatif Georges-Gagné;Stationnement Incitatif Georges-Gagné
788152036;"{\"type\":\"LineString\",\"coordinates\":[[-73.5725494,45.3723326],[-73.572693,45.3723651],[-73.5736255,45.3725826],[-73.5745784,45.3728075],[-73.5747297,45.3728429],[-73.5749548,45.3728961],[-73.5755362,45.3730337],[-73.575647,45.3730593]]}";1;Rue de la Mairie;2;30;false;false;true;false;false;false;128.0;0;0;4;0;0;false;76200;6133353935;-73.573719;45.372547;76204;6133353933;-73.571597;45.372199;1;23;24;9498779;Bus 40 : Service AM;"";EXO;40 AM;Stationnement Incitatif Georges-Gagné;Stationnement Incitatif Georges-Gagné
788152038;"{\"type\":\"LineString\",\"coordinates\":[[-73.5714718,45.3722013],[-73.5715251,45.3722193],[-73.5715789,45.3722338],[-73.5716443,45.3722491],[-73.5717152,45.3722627],[-73.5717704,45.3722719],[-73.5718418,45.3722809],[-73.5718925,45.3722854],[-73.5719589,45.3722899],[-73.5722015,45.3722967],[-73.5723622,45.3723011],[-73.5724183,45.3723049],[-73.5724744,45.3723156],[-73.5725494,45.3723326]]}";2;Rue de la Mairie;2;40;false;false;true;false;false;false;43.5;0;0;1;0;0;false;76200;6133353935;-73.573719;45.372547;76204;6133353933;-73.571597;45.372199;1;23;24;9498779;Bus 40 : Service AM;"";EXO;40 AM;Stationnement Incitatif Georges-Gagné;Stationnement Incitatif Georges-Gagné
788159767;"{\"type\":\"LineString\",\"coordinates\":[[-73.570934,45.3719539],[-73.5711233,45.3720411],[-73.5714718,45.3722013]]}";1;Rue de la Mairie;3;40;false;false;true;false;false;false;51.0;0;0;0;0;0;false;76204;6133353933;-73.571597;45.372199;76136;6133354088;-73.5671268;45.3752319;2;24;25;9498779;Bus 40 : Service AM;"";EXO;40 AM;Stationnement Incitatif Georges-Gagné;Stationnement Incitatif Georges-Gagné
43518214;"{\"type\":\"LineString\",\"coordinates\":[[-73.5704773,45.3717411],[-73.5705579,45.3717819],[-73.570934,45.3719539]]}";2;Rue de la Mairie;3;40;false;false;true;false;false;false;43.0;0;1;0;0;0;false;76204;6133353933;-73.571597;45.372199;76136;6133354088;-73.5671268;45.3752319;0;24;25;9498779;Bus 40 : Service AM;"";EXO;40 AM;Stationnement Incitatif Georges-Gagné;Stationnement Incitatif Georges-Gagné
788158837;"{\"type\":\"LineString\",\"coordinates\":[[-73.5688397,45.3735212],[-73.5689233,45.373429],[-73.5689985,45.3733448],[-73.5690144,45.3733271],[-73.5690756,45.3732586],[-73.5691134,45.3732163],[-73.5692626,45.3730493],[-73.569331,45.3729761],[-73.5694139,45.3728874],[-73.5694769,45.3728189],[-73.5695651,45.372723],[-73.5697092,45.3725663],[-73.5698028,45.3724647],[-73.5698999,45.372361],[-73.5699517,45.3723059],[-73.5701996,45.3720429],[-73.5704217,45.3718023],[-73.5704773,45.3717411]]}";3;Rue Saint-Pierre;4;50;false;false;true;false;false;false;236.0;0;2;0;0;0;false;76204;6133353933;-73.571597;45.372199;76136;6133354088;-73.5671268;45.3752319;0;24;25;9498779;Bus 40 : Service AM;"";EXO;40 AM;Stationnement Incitatif Georges-Gagné;Stationnement Incitatif Georges-Gagné
684451737;"{\"type\":\"LineString\",\"coordinates\":[[-73.5670731,45.3754775],[-73.567122,45.3754247],[-73.5671617,45.3753809],[-73.567664,45.37484],[-73.5677507,45.3747467],[-73.5678488,45.374639],[-73.5681623,45.3742947],[-73.5683992,45.3740233],[-73.5687897,45.3735774],[-73.5688179,45.373546],[-73.5688397,45.3735212]]}";4;Rue Saint-Pierre;4;50;false;false;true;false;false;false;258.0;1;2;0;0;0;false;76204;6133353933;-73.571597;45.372199;76136;6133354088;-73.5671268;45.3752319;2;24;25;9498779;Bus 40 : Service AM;"";EXO;40 AM;Stationnement Incitatif Georges-Gagné;Stationnement Incitatif Georges-Gagné
684451737;"{\"type\":\"LineString\",\"coordinates\":[[-73.5670731,45.3754775],[-73.567122,45.3754247],[-73.5671617,45.3753809],[-73.567664,45.37484],[-73.5677507,45.3747467],[-73.5678488,45.374639],[-73.5681623,45.3742947],[-73.5683992,45.3740233],[-73.5687897,45.3735774],[-73.5688179,45.373546],[-73.5688397,45.3735212]]}";1;Rue Saint-Pierre;4;50;false;false;true;false;false;false;129.0;1;2;0;0;0;false;76136;6133354088;-73.5671268;45.3752319;76145;6133353980;-73.564606;45.378145;1;25;26;9498779;Bus 40 : Service AM;"";EXO;40 AM;Stationnement Incitatif Georges-Gagné;Stationnement Incitatif Georges-Gagné
684606318;"{\"type\":\"LineString\",\"coordinates\":[[-73.5641821,45.3793399],[-73.5642352,45.3792625],[-73.5642461,45.379246],[-73.5642563,45.3792305],[-73.5642811,45.3791881],[-73.5643047,45.3791454],[-73.5643314,45.3790906],[-73.5643539,45.3790389],[-73.5643666,45.3790099],[-73.5644095,45.3789061],[-73.5644171,45.3788865],[-73.5644566,45.3787856],[-73.5644641,45.3787663],[-73.5644774,45.3787324],[-73.5644859,45.3787107],[-73.5645381,45.3785705],[-73.5645661,45.3784955],[-73.5645748,45.3784722],[-73.5646483,45.3782698],[-73.5646648,45.3782221],[-73.5646962,45.3781314],[-73.5647224,45.3780609],[-73.5647287,45.3780445],[-73.5647454,45.3780009],[-73.5647833,45.3779103],[-73.5647976,45.3778766],[-73.564816,45.3778329],[-73.5648385,45.3777842],[-73.564853,45.377753],[-73.56489,45.3776812],[-73.5649316,45.3776094],[-73.5649404,45.3775953],[-73.5649795,45.3775329],[-73.5650345,45.3774502],[-73.5650979,45.3773642],[-73.5651463,45.3773031],[-73.5652191,45.3772156],[-73.5652578,45.3771708],[-73.565314,45.3771058],[-73.5653853,45.3770328],[-73.5654141,45.3770032],[-73.5655156,45.3769099],[-73.5655302,45.376897],[-73.5656667,45.3767768],[-73.56581,45.3766506],[-73.5659488,45.3765285],[-73.5660947,45.3764],[-73.5662155,45.3762955],[-73.5662542,45.376262],[-73.5663505,45.3761754],[-73.5664571,45.3760787],[-73.5666102,45.3759407],[-73.5666901,45.3758642],[-73.5667183,45.3758372],[-73.5668271,45.3757283],[-73.5668901,45.3756664],[-73.5669096,45.3756473],[-73.5669885,45.3755673],[-73.5670306,45.3755227],[-73.5670731,45.3754775]]}";2;Rue Saint-Pierre;4;50;false;false;true;false;false;false;246.5;2;2;0;0;0;false;76136;6133354088;-73.5671268;45.3752319;76145;6133353980;-73.564606;45.378145;1;25;26;9498779;Bus 40 : Service AM;"";EXO;40 AM;Stationnement Incitatif Georges-Gagné;Stationnement Incitatif Georges-Gagné
684606318;"{\"type\":\"LineString\",\"coordinates\":[[-73.5641821,45.3793399],[-73.5642352,45.3792625],[-73.5642461,45.379246],[-73.5642563,45.3792305],[-73.5642811,45.3791881],[-73.5643047,45.3791454],[-73.5643314,45.3790906],[-73.5643539,45.3790389],[-73.5643666,45.3790099],[-73.5644095,45.3789061],[-73.5644171,45.3788865],[-73.5644566,45.3787856],[-73.5644641,45.3787663],[-73.5644774,45.3787324],[-73.5644859,45.3787107],[-73.5645381,45.3785705],[-73.5645661,45.3784955],[-73.5645748,45.3784722],[-73.5646483,45.3782698],[-73.5646648,45.3782221],[-73.5646962,45.3781314],[-73.5647224,45.3780609],[-73.5647287,45.3780445],[-73.5647454,45.3780009],[-73.5647833,45.3779103],[-73.5647976,45.3778766],[-73.564816,45.3778329],[-73.5648385,45.3777842],[-73.564853,45.377753],[-73.56489,45.3776812],[-73.5649316,45.3776094],[-73.5649404,45.3775953],[-73.5649795,45.3775329],[-73.5650345,45.3774502],[-73.5650979,45.3773642],[-73.5651463,45.3773031],[-73.5652191,45.3772156],[-73.5652578,45.3771708],[-73.565314,45.3771058],[-73.5653853,45.3770328],[-73.5654141,45.3770032],[-73.5655156,45.3769099],[-73.5655302,45.376897],[-73.5656667,45.3767768],[-73.56581,45.3766506],[-73.5659488,45.3765285],[-73.5660947,45.3764],[-73.5662155,45.3762955],[-73.5662542,45.376262],[-73.5663505,45.3761754],[-73.5664571,45.3760787],[-73.5666102,45.3759407],[-73.5666901,45.3758642],[-73.5667183,45.3758372],[-73.5668271,45.3757283],[-73.5668901,45.3756664],[-73.5669096,45.3756473],[-73.5669885,45.3755673],[-73.5670306,45.3755227],[-73.5670731,45.3754775]]}";1;Rue Saint-Pierre;4;50;false;false;true;false;false;false;246.5;2;2;0;0;0;false;76145;6133353980;-73.564606;45.378145;76146;6133353979;-73.559713;45.378709;1;26;27;9498779;Bus 40 : Service AM;"";EXO;40 AM;Stationnement Incitatif Georges-Gagné;Stationnement Incitatif Georges-Gagné
779926962;"{\"type\":\"LineString\",\"coordinates\":[[-73.5639667,45.3792835],[-73.5639862,45.3792882],[-73.5640721,45.379308],[-73.5641821,45.3793399]]}";2;Montée des Bouleaux;2;50;false;false;true;false;false;false;18.0;1;1;0;0;0;false;76145;6133353980;-73.564606;45.378145;76146;6133353979;-73.559713;45.378709;0;26;27;9498779;Bus 40 : Service AM;"";EXO;40 AM;Stationnement Incitatif Georges-Gagné;Stationnement Incitatif Georges-Gagné
779926961;"{\"type\":\"LineString\",\"coordinates\":[[-73.5637202,45.3792222],[-73.5639667,45.3792835]]}";3;Montée des Bouleaux;2;50;false;false;true;false;false;false;21.0;0;0;0;0;0;false;76145;6133353980;-73.564606;45.378145;76146;6133353979;-73.559713;45.378709;0;26;27;9498779;Bus 40 : Service AM;"";EXO;40 AM;Stationnement Incitatif Georges-Gagné;Stationnement Incitatif Georges-Gagné
802059403;"{\"type\":\"LineString\",\"coordinates\":[[-73.563533,45.3791711],[-73.5637202,45.3792222]]}";4;Montée des Bouleaux;2;50;false;false;true;false;false;false;16.0;0;0;0;0;0;false;76145;6133353980;-73.564606;45.378145;76146;6133353979;-73.559713;45.378709;0;26;27;9498779;Bus 40 : Service AM;"";EXO;40 AM;Stationnement Incitatif Georges-Gagné;Stationnement Incitatif Georges-Gagné
802059404;"{\"type\":\"LineString\",\"coordinates\":[[-73.5628261,45.3789399],[-73.5629154,45.3789657],[-73.5629921,45.37899],[-73.5630159,45.3789975],[-73.5631047,45.3790266],[-73.5631951,45.3790598],[-73.56322,45.3790689],[-73.5632985,45.3790976],[-73.5633896,45.3791287],[-73.5634916,45.3791589],[-73.563533,45.3791711]]}";5;Montée des Bouleaux;2;50;false;false;false;false;false;false;62.0;0;0;0;0;0;false;76145;6133353980;-73.564606;45.378145;76146;6133353979;-73.559713;45.378709;0;26;27;9498779;Bus 40 : Service AM;"";EXO;40 AM;Stationnement Incitatif Georges-Gagné;Stationnement Incitatif Georges-Gagné
802582905;"{\"type\":\"LineString\",\"coordinates\":[[-73.56239,45.3788411],[-73.5624535,45.3788519],[-73.5625051,45.3788626],[-73.5625679,45.3788757],[-73.5626734,45.3788999],[-73.5627354,45.3789159],[-73.5627697,45.3789247],[-73.5628261,45.3789399]]}";6;Montée des Bouleaux;2;50;false;false;true;false;false;false;36.0;0;1;0;0;0;false;76145;6133353980;-73.564606;45.378145;76146;6133353979;-73.559713;45.378709;0;26;27;9498779;Bus 40 : Service AM;"";EXO;40 AM;Stationnement Incitatif Georges-Gagné;Stationnement Incitatif Georges-Gagné
799186791;"{\"type\":\"LineString\",\"coordinates\":[[-73.5594269,45.3787573],[-73.5594725,45.3787564],[-73.5596604,45.3787513],[-73.5601619,45.3787378],[-73.5602808,45.3787346],[-73.5603552,45.3787326],[-73.5604692,45.3787309],[-73.5607295,45.3787292],[-73.5608285,45.3787286],[-73.5610317,45.3787299],[-73.5612075,45.3787331],[-73.5613447,45.3787377],[-73.5614994,45.3787459],[-73.5616753,45.378757],[-73.5617521,45.3787637],[-73.5618175,45.3787694],[-73.5619604,45.3787835],[-73.5620999,45.3787996],[-73.5622237,45.378816],[-73.562268,45.3788224],[-73.5623436,45.3788332],[-73.56239,45.3788411]]}";7;Montée des Bouleaux;2;50;false;false;false;false;false;false;116.5;0;1;1;0;0;false;76145;6133353980;-73.564606;45.378145;76146;6133353979;-73.559713;45.378709;1;26;27;9498779;Bus 40 : Service AM;"";EXO;40 AM;Stationnement Incitatif Georges-Gagné;Stationnement Incitatif Georges-Gagné
799186791;"{\"type\":\"LineString\",\"coordinates\":[[-73.5594269,45.3787573],[-73.5594725,45.3787564],[-73.5596604,45.3787513],[-73.5601619,45.3787378],[-73.5602808,45.3787346],[-73.5603552,45.3787326],[-73.5604692,45.3787309],[-73.5607295,45.3787292],[-73.5608285,45.3787286],[-73.5610317,45.3787299],[-73.5612075,45.3787331],[-73.5613447,45.3787377],[-73.5614994,45.3787459],[-73.5616753,45.378757],[-73.5617521,45.3787637],[-73.5618175,45.3787694],[-73.5619604,45.3787835],[-73.5620999,45.3787996],[-73.5622237,45.378816],[-73.562268,45.3788224],[-73.5623436,45.3788332],[-73.56239,45.3788411]]}";1;Montée des Bouleaux;2;50;false;false;false;false;false;false;116.5;0;1;1;0;0;false;76146;6133353979;-73.559713;45.378709;76147;6133353978;-73.556459;45.378678;1;27;28;9498779;Bus 40 : Service AM;"";EXO;40 AM;Stationnement Incitatif Georges-Gagné;Stationnement Incitatif Georges-Gagné
802502213;"{\"type\":\"LineString\",\"coordinates\":[[-73.5513938,45.3786559],[-73.5519809,45.3786422],[-73.5523473,45.3786337],[-73.5524412,45.3786315],[-73.5526679,45.3786276],[-73.5529452,45.3786229],[-73.5531449,45.3786195],[-73.5534617,45.378614],[-73.5538292,45.3786077],[-73.5542159,45.3785997],[-73.5544618,45.3785967],[-73.5545143,45.3785967],[-73.5547372,45.3785968],[-73.5548781,45.3786],[-73.5549717,45.3786027],[-73.5550321,45.3786061],[-73.5551148,45.3786111],[-73.5552941,45.3786232],[-73.5553865,45.3786311],[-73.5554313,45.3786349],[-73.5555801,45.3786494],[-73.5556393,45.3786556],[-73.5557013,45.3786621],[-73.5557471,45.3786677],[-73.5560947,45.3787105],[-73.5561861,45.3787218],[-73.5563645,45.378743],[-73.5564756,45.378754],[-73.5565583,45.3787606],[-73.5566137,45.3787651],[-73.5567891,45.3787776],[-73.5568931,45.3787833],[-73.5569771,45.3787879],[-73.5571383,45.3787943],[-73.5571848,45.378795],[-73.5572803,45.3787963],[-73.5574041,45.3787978],[-73.5574853,45.3787983],[-73.5575636,45.3787974],[-73.5578223,45.3787948],[-73.5579927,45.3787915],[-73.5582313,45.3787869],[-73.55841,45.3787835],[-73.5584788,45.3787822],[-73.5590093,45.3787683],[-73.5593703,45.3787588],[-73.5594269,45.3787573]]}";2;Montée des Bouleaux;2;50;false;false;true;false;false;false;315.5;0;2;3;0;0;false;76146;6133353979;-73.559713;45.378709;76147;6133353978;-73.556459;45.378678;1;27;28;9498779;Bus 40 : Service AM;"";EXO;40 AM;Stationnement Incitatif Georges-Gagné;Stationnement Incitatif Georges-Gagné
802502213;"{\"type\":\"LineString\",\"coordinates\":[[-73.5513938,45.3786559],[-73.5519809,45.3786422],[-73.5523473,45.3786337],[-73.5524412,45.3786315],[-73.5526679,45.3786276],[-73.5529452,45.3786229],[-73.5531449,45.3786195],[-73.5534617,45.378614],[-73.5538292,45.3786077],[-73.5542159,45.3785997],[-73.5544618,45.3785967],[-73.5545143,45.3785967],[-73.5547372,45.3785968],[-73.5548781,45.3786],[-73.5549717,45.3786027],[-73.5550321,45.3786061],[-73.5551148,45.3786111],[-73.5552941,45.3786232],[-73.5553865,45.3786311],[-73.5554313,45.3786349],[-73.5555801,45.3786494],[-73.5556393,45.3786556],[-73.5557013,45.3786621],[-73.5557471,45.3786677],[-73.5560947,45.3787105],[-73.5561861,45.3787218],[-73.5563645,45.378743],[-73.5564756,45.378754],[-73.5565583,45.3787606],[-73.5566137,45.3787651],[-73.5567891,45.3787776],[-73.5568931,45.3787833],[-73.5569771,45.3787879],[-73.5571383,45.3787943],[-73.5571848,45.378795],[-73.5572803,45.3787963],[-73.5574041,45.3787978],[-73.5574853,45.3787983],[-73.5575636,45.3787974],[-73.5578223,45.3787948],[-73.5579927,45.3787915],[-73.5582313,45.3787869],[-73.55841,45.3787835],[-73.5584788,45.3787822],[-73.5590093,45.3787683],[-73.5593703,45.3787588],[-73.5594269,45.3787573]]}";1;Montée des Bouleaux;2;50;false;false;true;false;false;false;315.5;0;2;3;0;0;false;76147;6133353978;-73.556459;45.378678;76423;6133353603;-73.550529;45.378605;1;28;29;9498779;Bus 40 : Service AM;"";EXO;40 AM;Stationnement Incitatif Georges-Gagné;Stationnement Incitatif Georges-Gagné
802502209;"{\"type\":\"LineString\",\"coordinates\":[[-73.551256,45.3786606],[-73.5512882,45.3786595],[-73.5513938,45.3786559]]}";2;Montée des Bouleaux;2;50;false;false;true;false;false;false;11.0;0;0;0;0;0;false;76147;6133353978;-73.556459;45.378678;76423;6133353603;-73.550529;45.378605;0;28;29;9498779;Bus 40 : Service AM;"";EXO;40 AM;Stationnement Incitatif Georges-Gagné;Stationnement Incitatif Georges-Gagné
172293015;"{\"type\":\"LineString\",\"coordinates\":[[-73.5503346,45.3786737],[-73.5504845,45.3786997],[-73.5505332,45.3787067],[-73.5509811,45.3786978],[-73.5510796,45.3786959],[-73.551256,45.3786606]]}";3;Montée des Bouleaux;2;50;false;true;true;false;false;false;74.0;0;1;0;0;0;false;76147;6133353978;-73.556459;45.378678;76423;6133353603;-73.550529;45.378605;0;28;29;9498779;Bus 40 : Service AM;"";EXO;40 AM;Stationnement Incitatif Georges-Gagné;Stationnement Incitatif Georges-Gagné
23845510;"{\"type\":\"LineString\",\"coordinates\":[[-73.5500939,45.3791684],[-73.5501623,45.3790716],[-73.5501812,45.3790448],[-73.5502389,45.3789589],[-73.5502801,45.3788755],[-73.5503121,45.3788107],[-73.5503406,45.3787529],[-73.5503346,45.3786737]]}";4;Boulevard Georges-Gagné Sud;2;50;false;true;true;false;false;false;59.0;1;1;0;0;0;false;76147;6133353978;-73.556459;45.378678;76423;6133353603;-73.550529;45.378605;0;28;29;9498779;Bus 40 : Service AM;"";EXO;40 AM;Stationnement Incitatif Georges-Gagné;Stationnement Incitatif Georges-Gagné
802502210;"{\"type\":\"LineString\",\"coordinates\":[[-73.551256,45.3786606],[-73.5510941,45.378638],[-73.5505398,45.3786467],[-73.5504846,45.3786537],[-73.5503346,45.3786737]]}";5;"";2;50;false;true;true;false;false;false;36.5;1;1;0;0;0;false;76147;6133353978;-73.556459;45.378678;76423;6133353603;-73.550529;45.378605;1;28;29;9498779;Bus 40 : Service AM;"";EXO;40 AM;Stationnement Incitatif Georges-Gagné;Stationnement Incitatif Georges-Gagné
172293015;"{\"type\":\"LineString\",\"coordinates\":[[-73.5503346,45.3786737],[-73.5504845,45.3786997],[-73.5505332,45.3787067],[-73.5509811,45.3786978],[-73.5510796,45.3786959],[-73.551256,45.3786606]]}";1;Montée des Bouleaux;2;50;false;true;true;false;false;false;74.0;0;1;0;0;0;false;76423;6133353603;-73.550529;45.378605;76150;6133353976;-73.54906;45.381122;2;29;30;9498779;Bus 40 : Service AM;"";EXO;40 AM;Stationnement Incitatif Georges-Gagné;Stationnement Incitatif Georges-Gagné
23845510;"{\"type\":\"LineString\",\"coordinates\":[[-73.5500939,45.3791684],[-73.5501623,45.3790716],[-73.5501812,45.3790448],[-73.5502389,45.3789589],[-73.5502801,45.3788755],[-73.5503121,45.3788107],[-73.5503406,45.3787529],[-73.5503346,45.3786737]]}";2;Boulevard Georges-Gagné Sud;2;50;false;true;true;false;false;false;59.0;1;1;0;0;0;false;76423;6133353603;-73.550529;45.378605;76150;6133353976;-73.54906;45.381122;0;29;30;9498779;Bus 40 : Service AM;"";EXO;40 AM;Stationnement Incitatif Georges-Gagné;Stationnement Incitatif Georges-Gagné
799186775;"{\"type\":\"LineString\",\"coordinates\":[[-73.5500939,45.3791684],[-73.5499748,45.3794227],[-73.5499555,45.3794613],[-73.5498533,45.3796653],[-73.5497497,45.379872],[-73.5496768,45.3800175],[-73.5496651,45.3800408],[-73.5496096,45.3801515],[-73.5493642,45.3806412],[-73.5490914,45.3812032]]}";3;Boulevard Georges-Gagné Sud;3;50;false;false;false;false;false;false;240.0;0;1;0;0;0;false;76423;6133353603;-73.550529;45.378605;76150;6133353976;-73.54906;45.381122;2;29;30;9498779;Bus 40 : Service AM;"";EXO;40 AM;Stationnement Incitatif Georges-Gagné;Stationnement Incitatif Georges-Gagné
799183409;"{\"type\":\"LineString\",\"coordinates\":[[-73.5490914,45.3812032],[-73.5490631,45.3812614],[-73.5490207,45.3813472],[-73.5485296,45.3823422],[-73.5484913,45.3824173],[-73.5483148,45.3827788],[-73.5483089,45.3827908],[-73.5482232,45.3829651],[-73.5481295,45.3831556],[-73.5480837,45.3832487]]}";1;Boulevard Georges-Gagné Sud;3;50;false;false;false;false;false;false;241.0;0;3;0;0;0;false;76150;6133353976;-73.54906;45.381122;76080;6133354127;-73.5478906;45.3844531;2;30;31;9498779;Bus 40 : Service AM;"";EXO;40 AM;Stationnement Incitatif Georges-Gagné;Stationnement Incitatif Georges-Gagné
798994214;"{\"type\":\"LineString\",\"coordinates\":[[-73.5480837,45.3832487],[-73.5480114,45.3833941],[-73.5479404,45.3835369],[-73.5478469,45.3837249],[-73.5478406,45.3837376],[-73.5477785,45.3838616],[-73.5477706,45.3838773],[-73.5476571,45.3841066]]}";2;Boulevard Georges-Gagné Sud;4;50;false;false;true;false;false;false;101.0;0;0;0;0;0;false;76150;6133353976;-73.54906;45.381122;76080;6133354127;-73.5478906;45.3844531;0;30;31;9498779;Bus 40 : Service AM;"";EXO;40 AM;Stationnement Incitatif Georges-Gagné;Stationnement Incitatif Georges-Gagné
798994211;"{\"type\":\"LineString\",\"coordinates\":[[-73.5474325,45.3845584],[-73.5475239,45.3845788],[-73.5475804,45.3845909],[-73.5476084,45.3845958],[-73.5476404,45.3845958],[-73.5476745,45.3845888],[-73.5477025,45.3845733],[-73.5477205,45.3845536],[-73.5478647,45.3842618],[-73.5478777,45.3842309],[-73.5478807,45.384214],[-73.5478777,45.3841957],[-73.5478607,45.3841732],[-73.5478316,45.3841557],[-73.5477946,45.3841409],[-73.5477804,45.3841368],[-73.5477512,45.3841289],[-73.5477025,45.384117],[-73.5476571,45.3841066]]}";3;"";1;50;false;true;true;false;false;false;88.0;0;2;1;0;0;false;76150;6133353976;-73.54906;45.381122;76080;6133354127;-73.5478906;45.3844531;1;30;31;9498779;Bus 40 : Service AM;"";EXO;40 AM;Stationnement Incitatif Georges-Gagné;Stationnement Incitatif Georges-Gagné
