way_id;shape;index;name;nb_lanes;legal_speed;speed_zone_30;oneway;shares_bike;bike_box;bus_lane;dedicated_bus_lane;length;nb_traffic_signals;nb_crossings;nb_stops;nb_give_ways;nb_lvl_crossings;roundabout;stop_id_orig;node_id_orig;coord_x_orig;coord_y_orig;stop_id_dest;node_id_dest;coord_x_dest;coord_y_dest;nb_neighbouring_ways_bus_stop;order_orig;order_dest;id_line;line_name;colour;operator;ref;from;to
667352371;"{\"type\":\"LineString\",\"coordinates\":[[-6.2647755,53.3889369],[-6.2649912,53.3885819],[-6.2651108,53.3882938],[-6.265158,53.3881603],[-6.2651867,53.3879639],[-6.2651921,53.3879268],[-6.265181,53.3877957],[-6.2650687,53.3872529],[-6.264984,53.3868192],[-6.2649746,53.3867491],[-6.2649426,53.3862361],[-6.2649445,53.3860329],[-6.2649453,53.3859189]]}";1;Ballymun Road;3;50;false;true;false;false;false;false;343.0;1;1;0;0;0;false;115;1427536834;-6.2650919;53.3879386;37;1496722661;-6.2648369;53.3854109;1;0;1;2709366;9 - Charlestown - Limekiln Avenue;"";Dublin Bus;9;Charlestown;Limekiln Avenue
70726491;"{\"type\":\"LineString\",\"coordinates\":[[-6.2649453,53.3859189],[-6.2649567,53.3856277],[-6.2649792,53.3854044],[-6.2650391,53.3848732],[-6.265054,53.384784],[-6.2650875,53.3846418],[-6.265091,53.3846269],[-6.2652494,53.3839469],[-6.2654151,53.3832398],[-6.2655062,53.3828699],[-6.2655949,53.3823093],[-6.265603,53.3822453],[-6.2656574,53.3818147],[-6.2656684,53.3817268]]}";2;Ballymun Road;3;50;false;true;false;false;false;false;236.5;1;1;0;0;0;false;115;1427536834;-6.2650919;53.3879386;37;1496722661;-6.2648369;53.3854109;1;0;1;2709366;9 - Charlestown - Limekiln Avenue;"";Dublin Bus;9;Charlestown;Limekiln Avenue
70726491;"{\"type\":\"LineString\",\"coordinates\":[[-6.2649453,53.3859189],[-6.2649567,53.3856277],[-6.2649792,53.3854044],[-6.2650391,53.3848732],[-6.265054,53.384784],[-6.2650875,53.3846418],[-6.265091,53.3846269],[-6.2652494,53.3839469],[-6.2654151,53.3832398],[-6.2655062,53.3828699],[-6.2655949,53.3823093],[-6.265603,53.3822453],[-6.2656574,53.3818147],[-6.2656684,53.3817268]]}";1;Ballymun Road;3;50;false;true;false;false;false;false;236.5;1;1;0;0;0;false;37;1496722661;-6.2648369;53.3854109;39;1496722633;-6.2656675;53.3804288;1;1;2;2709366;9 - Charlestown - Limekiln Avenue;"";Dublin Bus;9;Charlestown;Limekiln Avenue
378875549;"{\"type\":\"LineString\",\"coordinates\":[[-6.2656684,53.3817268],[-6.2656889,53.381341],[-6.2657407,53.380664]]}";2;Ballymun Road;3;50;false;true;false;false;false;false;120.0;1;0;0;0;0;false;37;1496722661;-6.2648369;53.3854109;39;1496722633;-6.2656675;53.3804288;0;1;2;2709366;9 - Charlestown - Limekiln Avenue;"";Dublin Bus;9;Charlestown;Limekiln Avenue
136455459;"{\"type\":\"LineString\",\"coordinates\":[[-6.2657407,53.380664],[-6.265746,53.3804298],[-6.2657536,53.3800967]]}";3;Ballymun Road;3;50;false;true;false;false;false;false;32.0;0;0;0;0;0;false;37;1496722661;-6.2648369;53.3854109;39;1496722633;-6.2656675;53.3804288;1;1;2;2709366;9 - Charlestown - Limekiln Avenue;"";Dublin Bus;9;Charlestown;Limekiln Avenue
136455459;"{\"type\":\"LineString\",\"coordinates\":[[-6.2657407,53.380664],[-6.265746,53.3804298],[-6.2657536,53.3800967]]}";1;Ballymun Road;3;50;false;true;false;false;false;false;32.0;0;0;0;0;0;false;39;1496722633;-6.2656675;53.3804288;38;687784891;-6.2655118;53.382236;1;2;3;2709366;9 - Charlestown - Limekiln Avenue;"";Dublin Bus;9;Charlestown;Limekiln Avenue
378875549;"{\"type\":\"LineString\",\"coordinates\":[[-6.2656684,53.3817268],[-6.2656889,53.381341],[-6.2657407,53.380664]]}";2;Ballymun Road;3;50;false;true;false;false;false;false;120.0;1;0;0;0;0;false;39;1496722633;-6.2656675;53.3804288;38;687784891;-6.2655118;53.382236;0;2;3;2709366;9 - Charlestown - Limekiln Avenue;"";Dublin Bus;9;Charlestown;Limekiln Avenue
70726491;"{\"type\":\"LineString\",\"coordinates\":[[-6.2649453,53.3859189],[-6.2649567,53.3856277],[-6.2649792,53.3854044],[-6.2650391,53.3848732],[-6.265054,53.384784],[-6.2650875,53.3846418],[-6.265091,53.3846269],[-6.2652494,53.3839469],[-6.2654151,53.3832398],[-6.2655062,53.3828699],[-6.2655949,53.3823093],[-6.265603,53.3822453],[-6.2656574,53.3818147],[-6.2656684,53.3817268]]}";3;Ballymun Road;3;50;false;true;false;false;false;false;236.5;1;1;0;0;0;false;39;1496722633;-6.2656675;53.3804288;38;687784891;-6.2655118;53.382236;1;2;3;2709366;9 - Charlestown - Limekiln Avenue;"";Dublin Bus;9;Charlestown;Limekiln Avenue
70726491;"{\"type\":\"LineString\",\"coordinates\":[[-6.2649453,53.3859189],[-6.2649567,53.3856277],[-6.2649792,53.3854044],[-6.2650391,53.3848732],[-6.265054,53.384784],[-6.2650875,53.3846418],[-6.265091,53.3846269],[-6.2652494,53.3839469],[-6.2654151,53.3832398],[-6.2655062,53.3828699],[-6.2655949,53.3823093],[-6.265603,53.3822453],[-6.2656574,53.3818147],[-6.2656684,53.3817268]]}";1;Ballymun Road;3;50;false;true;false;false;false;false;236.5;1;1;0;0;0;false;38;687784891;-6.2655118;53.382236;40;1705782205;-6.2646742;53.37662;1;3;4;2709366;9 - Charlestown - Limekiln Avenue;"";Dublin Bus;9;Charlestown;Limekiln Avenue
378875549;"{\"type\":\"LineString\",\"coordinates\":[[-6.2656684,53.3817268],[-6.2656889,53.381341],[-6.2657407,53.380664]]}";2;Ballymun Road;3;50;false;true;false;false;false;false;120.0;1;0;0;0;0;false;38;687784891;-6.2655118;53.382236;40;1705782205;-6.2646742;53.37662;0;3;4;2709366;9 - Charlestown - Limekiln Avenue;"";Dublin Bus;9;Charlestown;Limekiln Avenue
136455459;"{\"type\":\"LineString\",\"coordinates\":[[-6.2657407,53.380664],[-6.265746,53.3804298],[-6.2657536,53.3800967]]}";3;Ballymun Road;3;50;false;true;false;false;false;false;64.0;0;0;0;0;0;false;38;687784891;-6.2655118;53.382236;40;1705782205;-6.2646742;53.37662;0;3;4;2709366;9 - Charlestown - Limekiln Avenue;"";Dublin Bus;9;Charlestown;Limekiln Avenue
335070915;"{\"type\":\"LineString\",\"coordinates\":[[-6.2657536,53.3800967],[-6.2657346,53.3799867]]}";4;Ballymun Road;3;50;false;true;false;false;false;false;13.0;0;0;0;0;0;false;38;687784891;-6.2655118;53.382236;40;1705782205;-6.2646742;53.37662;0;3;4;2709366;9 - Charlestown - Limekiln Avenue;"";Dublin Bus;9;Charlestown;Limekiln Avenue
335071101;"{\"type\":\"LineString\",\"coordinates\":[[-6.2657346,53.3799867],[-6.2657036,53.3798918],[-6.265652,53.3797401]]}";5;Saint Mobhi Road;3;50;false;true;false;false;false;false;29.0;1;0;0;0;0;false;38;687784891;-6.2655118;53.382236;40;1705782205;-6.2646742;53.37662;0;3;4;2709366;9 - Charlestown - Limekiln Avenue;"";Dublin Bus;9;Charlestown;Limekiln Avenue
4626983;"{\"type\":\"LineString\",\"coordinates\":[[-6.265652,53.3797401],[-6.2653472,53.3789376]]}";6;Saint Mobhi Road;2;50;false;true;true;false;false;false;93.0;0;0;0;0;0;false;38;687784891;-6.2655118;53.382236;40;1705782205;-6.2646742;53.37662;0;3;4;2709366;9 - Charlestown - Limekiln Avenue;"";Dublin Bus;9;Charlestown;Limekiln Avenue
366647893;"{\"type\":\"LineString\",\"coordinates\":[[-6.2653472,53.3789376],[-6.2652684,53.3787255],[-6.2652269,53.378614]]}";7;Saint Mobhi Road;2;50;false;true;true;false;false;false;38.0;1;0;0;0;0;false;38;687784891;-6.2655118;53.382236;40;1705782205;-6.2646742;53.37662;0;3;4;2709366;9 - Charlestown - Limekiln Avenue;"";Dublin Bus;9;Charlestown;Limekiln Avenue
3809961;"{\"type\":\"LineString\",\"coordinates\":[[-6.2652269,53.378614],[-6.2652288,53.378511],[-6.2648753,53.3771233]]}";8;Saint Mobhi Road;2;50;false;false;false;false;false;false;169.0;1;0;0;0;0;false;38;687784891;-6.2655118;53.382236;40;1705782205;-6.2646742;53.37662;0;3;4;2709366;9 - Charlestown - Limekiln Avenue;"";Dublin Bus;9;Charlestown;Limekiln Avenue
672308963;"{\"type\":\"LineString\",\"coordinates\":[[-6.2648753,53.3771233],[-6.2648558,53.3770293],[-6.2647653,53.3766146],[-6.2646874,53.3761563]]}";9;Saint Mobhi Road;3;50;false;false;false;false;false;false;55.0;0;1;0;0;0;false;38;687784891;-6.2655118;53.382236;40;1705782205;-6.2646742;53.37662;1;3;4;2709366;9 - Charlestown - Limekiln Avenue;"";Dublin Bus;9;Charlestown;Limekiln Avenue
672308963;"{\"type\":\"LineString\",\"coordinates\":[[-6.2648753,53.3771233],[-6.2648558,53.3770293],[-6.2647653,53.3766146],[-6.2646874,53.3761563]]}";1;Saint Mobhi Road;3;50;false;false;false;false;false;false;55.0;0;1;0;0;0;false;40;1705782205;-6.2646742;53.37662;146;1427533508;-6.2650138;53.3752347;1;4;5;2709366;9 - Charlestown - Limekiln Avenue;"";Dublin Bus;9;Charlestown;Limekiln Avenue
3810271;"{\"type\":\"LineString\",\"coordinates\":[[-6.2646874,53.3761563],[-6.2648828,53.3756898],[-6.2648946,53.3756603],[-6.2649313,53.3755687],[-6.26508,53.3752504],[-6.2655834,53.3741668],[-6.2656148,53.3740636],[-6.2656282,53.374019],[-6.2658071,53.3733567],[-6.2658232,53.373203],[-6.2658419,53.3730245],[-6.2658429,53.3730175],[-6.2658779,53.3727646],[-6.2658975,53.3726575],[-6.2659024,53.3726221]]}";2;Saint Mobhi Road;3;50;false;false;true;false;false;false;203.0;2;0;0;0;0;false;40;1705782205;-6.2646742;53.37662;146;1427533508;-6.2650138;53.3752347;1;4;5;2709366;9 - Charlestown - Limekiln Avenue;"";Dublin Bus;9;Charlestown;Limekiln Avenue
3810271;"{\"type\":\"LineString\",\"coordinates\":[[-6.2646874,53.3761563],[-6.2648828,53.3756898],[-6.2648946,53.3756603],[-6.2649313,53.3755687],[-6.26508,53.3752504],[-6.2655834,53.3741668],[-6.2656148,53.3740636],[-6.2656282,53.374019],[-6.2658071,53.3733567],[-6.2658232,53.373203],[-6.2658419,53.3730245],[-6.2658429,53.3730175],[-6.2658779,53.3727646],[-6.2658975,53.3726575],[-6.2659024,53.3726221]]}";1;Saint Mobhi Road;3;50;false;false;true;false;false;false;203.0;2;0;0;0;0;false;146;1427533508;-6.2650138;53.3752347;147;1423546544;-6.2658353;53.3724923;1;5;6;2709366;9 - Charlestown - Limekiln Avenue;"";Dublin Bus;9;Charlestown;Limekiln Avenue
673195938;"{\"type\":\"LineString\",\"coordinates\":[[-6.2659024,53.3726221],[-6.2659192,53.3725199]]}";2;Dean Swift Bridge;3;50;false;false;true;false;false;false;12.0;0;0;0;0;0;false;146;1427533508;-6.2650138;53.3752347;147;1423546544;-6.2658353;53.3724923;0;5;6;2709366;9 - Charlestown - Limekiln Avenue;"";Dublin Bus;9;Charlestown;Limekiln Avenue
43188147;"{\"type\":\"LineString\",\"coordinates\":[[-6.2659192,53.3725199],[-6.2659354,53.3724668],[-6.2659499,53.3724358],[-6.2659667,53.3723999],[-6.2659849,53.3723762],[-6.2660367,53.3723086],[-6.2661328,53.37221],[-6.2662313,53.3721259],[-6.2664651,53.371909],[-6.2664872,53.3718908],[-6.2665438,53.3718443]]}";3;Saint Mobhi Road;3;50;false;false;false;false;false;false;44.0;1;1;0;0;0;false;146;1427533508;-6.2650138;53.3752347;147;1423546544;-6.2658353;53.3724923;1;5;6;2709366;9 - Charlestown - Limekiln Avenue;"";Dublin Bus;9;Charlestown;Limekiln Avenue
673195938;"{\"type\":\"LineString\",\"coordinates\":[[-6.2659024,53.3726221],[-6.2659192,53.3725199]]}";1;Dean Swift Bridge;3;50;false;false;true;false;false;false;12.0;0;0;0;0;0;false;147;1423546544;-6.2658353;53.3724923;184;644695426;-6.2689914;53.3696697;2;6;7;2709366;9 - Charlestown - Limekiln Avenue;"";Dublin Bus;9;Charlestown;Limekiln Avenue
43188147;"{\"type\":\"LineString\",\"coordinates\":[[-6.2659192,53.3725199],[-6.2659354,53.3724668],[-6.2659499,53.3724358],[-6.2659667,53.3723999],[-6.2659849,53.3723762],[-6.2660367,53.3723086],[-6.2661328,53.37221],[-6.2662313,53.3721259],[-6.2664651,53.371909],[-6.2664872,53.3718908],[-6.2665438,53.3718443]]}";2;Saint Mobhi Road;3;50;false;false;false;false;false;false;88.0;1;1;0;0;0;false;147;1423546544;-6.2658353;53.3724923;184;644695426;-6.2689914;53.3696697;0;6;7;2709366;9 - Charlestown - Limekiln Avenue;"";Dublin Bus;9;Charlestown;Limekiln Avenue
378882696;"{\"type\":\"LineString\",\"coordinates\":[[-6.2665438,53.3718443],[-6.2666286,53.371769],[-6.2666519,53.3717483],[-6.267126,53.3713512],[-6.2678993,53.3707122],[-6.2680415,53.3706028],[-6.2682726,53.3704248],[-6.2682857,53.3704177],[-6.2684868,53.3703094]]}";3;Saint Mobhi Road;2;50;false;false;false;false;false;false;217.0;2;2;0;0;0;false;147;1423546544;-6.2658353;53.3724923;184;644695426;-6.2689914;53.3696697;0;6;7;2709366;9 - Charlestown - Limekiln Avenue;"";Dublin Bus;9;Charlestown;Limekiln Avenue
3787625;"{\"type\":\"LineString\",\"coordinates\":[[-6.2684868,53.3703094],[-6.2685512,53.3702533],[-6.2688273,53.3699755],[-6.2689481,53.369859]]}";4;Botanic Road;2;50;false;false;true;false;false;false;60.0;1;0;0;0;0;false;147;1423546544;-6.2658353;53.3724923;184;644695426;-6.2689914;53.3696697;0;6;7;2709366;9 - Charlestown - Limekiln Avenue;"";Dublin Bus;9;Charlestown;Limekiln Avenue
368877930;"{\"type\":\"LineString\",\"coordinates\":[[-6.2689481,53.369859],[-6.2690404,53.3697323],[-6.2691327,53.3696055],[-6.2691924,53.3694969],[-6.2696137,53.368861],[-6.2696575,53.3687976],[-6.2698883,53.3684863]]}";5;Botanic Road;2;50;false;false;true;false;false;false;167.0;0;1;0;0;0;false;147;1423546544;-6.2658353;53.3724923;184;644695426;-6.2689914;53.3696697;2;6;7;2709366;9 - Charlestown - Limekiln Avenue;"";Dublin Bus;9;Charlestown;Limekiln Avenue
368877930;"{\"type\":\"LineString\",\"coordinates\":[[-6.2689481,53.369859],[-6.2690404,53.3697323],[-6.2691327,53.3696055],[-6.2691924,53.3694969],[-6.2696137,53.368861],[-6.2696575,53.3687976],[-6.2698883,53.3684863]]}";1;Botanic Road;2;50;false;false;true;false;false;false;83.5;0;1;0;0;0;false;184;644695426;-6.2689914;53.3696697;185;639837804;-6.2700271;53.3680755;1;7;8;2709366;9 - Charlestown - Limekiln Avenue;"";Dublin Bus;9;Charlestown;Limekiln Avenue
14507246;"{\"type\":\"LineString\",\"coordinates\":[[-6.2698883,53.3684863],[-6.269951,53.3684018],[-6.2699896,53.3683497],[-6.2700383,53.3682731],[-6.2701223,53.3681408],[-6.2701379,53.3681165],[-6.2702229,53.3679836],[-6.2703416,53.367783],[-6.2705454,53.3674387],[-6.2706031,53.3673212]]}";2;Botanic Road;3;50;false;false;true;false;false;false;70.0;0;0;0;0;0;false;184;644695426;-6.2689914;53.3696697;185;639837804;-6.2700271;53.3680755;1;7;8;2709366;9 - Charlestown - Limekiln Avenue;"";Dublin Bus;9;Charlestown;Limekiln Avenue
14507246;"{\"type\":\"LineString\",\"coordinates\":[[-6.2698883,53.3684863],[-6.269951,53.3684018],[-6.2699896,53.3683497],[-6.2700383,53.3682731],[-6.2701223,53.3681408],[-6.2701379,53.3681165],[-6.2702229,53.3679836],[-6.2703416,53.367783],[-6.2705454,53.3674387],[-6.2706031,53.3673212]]}";1;Botanic Road;3;50;false;false;true;false;false;false;70.0;0;0;0;0;0;false;185;639837804;-6.2700271;53.3680755;187;1427180531;-6.272452;53.3627205;1;8;9;2709366;9 - Charlestown - Limekiln Avenue;"";Dublin Bus;9;Charlestown;Limekiln Avenue
512903038;"{\"type\":\"LineString\",\"coordinates\":[[-6.2706031,53.3673212],[-6.2706305,53.3672326]]}";2;Botanic Road;2;50;false;true;true;false;false;false;11.0;1;0;0;0;0;false;185;639837804;-6.2700271;53.3680755;187;1427180531;-6.272452;53.3627205;0;8;9;2709366;9 - Charlestown - Limekiln Avenue;"";Dublin Bus;9;Charlestown;Limekiln Avenue
3663494;"{\"type\":\"LineString\",\"coordinates\":[[-6.2706305,53.3672326],[-6.2706569,53.3671697],[-6.2707764,53.3669837]]}";3;Botanic Road;2;50;false;true;true;false;false;false;30.0;1;1;0;0;0;false;185;639837804;-6.2700271;53.3680755;187;1427180531;-6.272452;53.3627205;0;8;9;2709366;9 - Charlestown - Limekiln Avenue;"";Dublin Bus;9;Charlestown;Limekiln Avenue
539871130;"{\"type\":\"LineString\",\"coordinates\":[[-6.2707764,53.3669837],[-6.2709154,53.366775]]}";4;Botanic Road;3;50;false;true;true;false;false;false;26.0;0;0;0;0;0;false;185;639837804;-6.2700271;53.3680755;187;1427180531;-6.272452;53.3627205;0;8;9;2709366;9 - Charlestown - Limekiln Avenue;"";Dublin Bus;9;Charlestown;Limekiln Avenue
317127398;"{\"type\":\"LineString\",\"coordinates\":[[-6.2709154,53.366775],[-6.2713974,53.3659362]]}";5;Botanic Road;3;50;false;true;true;false;false;false;100.0;0;0;0;0;0;false;185;639837804;-6.2700271;53.3680755;187;1427180531;-6.272452;53.3627205;0;8;9;2709366;9 - Charlestown - Limekiln Avenue;"";Dublin Bus;9;Charlestown;Limekiln Avenue
282606013;"{\"type\":\"LineString\",\"coordinates\":[[-6.2713974,53.3659362],[-6.271485,53.3657961],[-6.2716513,53.3656405]]}";6;Prospect Road;2;50;false;true;true;false;false;false;38.0;1;0;0;0;0;false;185;639837804;-6.2700271;53.3680755;187;1427180531;-6.272452;53.3627205;0;8;9;2709366;9 - Charlestown - Limekiln Avenue;"";Dublin Bus;9;Charlestown;Limekiln Avenue
372690317;"{\"type\":\"LineString\",\"coordinates\":[[-6.2717097,53.3652937],[-6.2716921,53.3653834],[-6.2716757,53.3654679],[-6.2716513,53.3656405]]}";7;Prospect Road;4;50;false;false;true;false;false;false;40.0;0;0;0;0;0;false;185;639837804;-6.2700271;53.3680755;187;1427180531;-6.272452;53.3627205;0;8;9;2709366;9 - Charlestown - Limekiln Avenue;"";Dublin Bus;9;Charlestown;Limekiln Avenue
32024889;"{\"type\":\"LineString\",\"coordinates\":[[-6.271745,53.365113],[-6.2717097,53.3652937]]}";8;Prospect Road;4;50;false;false;true;false;false;false;21.0;0;0;0;0;0;false;185;639837804;-6.2700271;53.3680755;187;1427180531;-6.272452;53.3627205;0;8;9;2709366;9 - Charlestown - Limekiln Avenue;"";Dublin Bus;9;Charlestown;Limekiln Avenue
4937072;"{\"type\":\"LineString\",\"coordinates\":[[-6.2717563,53.3650001],[-6.271745,53.365113]]}";9;Prospect Road;3;50;false;false;true;false;false;false;13.0;0;0;0;0;0;false;185;639837804;-6.2700271;53.3680755;187;1427180531;-6.272452;53.3627205;0;8;9;2709366;9 - Charlestown - Limekiln Avenue;"";Dublin Bus;9;Charlestown;Limekiln Avenue
4937071;"{\"type\":\"LineString\",\"coordinates\":[[-6.2717652,53.3648962],[-6.2717563,53.3650001]]}";10;Prospect Road;4;50;false;false;true;false;false;false;12.0;0;0;0;0;0;false;185;639837804;-6.2700271;53.3680755;187;1427180531;-6.272452;53.3627205;0;8;9;2709366;9 - Charlestown - Limekiln Avenue;"";Dublin Bus;9;Charlestown;Limekiln Avenue
3785459;"{\"type\":\"LineString\",\"coordinates\":[[-6.2717705,53.3646389],[-6.2717652,53.3648962]]}";11;Prospect Road;4;50;false;false;true;false;false;false;29.0;1;0;0;0;0;false;185;639837804;-6.2700271;53.3680755;187;1427180531;-6.272452;53.3627205;0;8;9;2709366;9 - Charlestown - Limekiln Avenue;"";Dublin Bus;9;Charlestown;Limekiln Avenue
302340423;"{\"type\":\"LineString\",\"coordinates\":[[-6.2717728,53.3645742],[-6.2717705,53.3646389]]}";12;Prospect Road;4;50;false;false;true;false;false;false;8.0;1;0;0;0;0;false;185;639837804;-6.2700271;53.3680755;187;1427180531;-6.272452;53.3627205;0;8;9;2709366;9 - Charlestown - Limekiln Avenue;"";Dublin Bus;9;Charlestown;Limekiln Avenue
55814728;"{\"type\":\"LineString\",\"coordinates\":[[-6.2717778,53.3644786],[-6.2717746,53.3645405],[-6.2717728,53.3645742]]}";13;Prospect Road;3;50;false;false;true;false;false;false;11.0;0;1;0;0;0;false;185;639837804;-6.2700271;53.3680755;187;1427180531;-6.272452;53.3627205;0;8;9;2709366;9 - Charlestown - Limekiln Avenue;"";Dublin Bus;9;Charlestown;Limekiln Avenue
4937070;"{\"type\":\"LineString\",\"coordinates\":[[-6.2717932,53.3644128],[-6.2717793,53.3644563],[-6.2717778,53.3644786]]}";14;Prospect Road;3;50;false;false;true;false;false;false;8.0;0;0;0;0;0;false;185;639837804;-6.2700271;53.3680755;187;1427180531;-6.272452;53.3627205;0;8;9;2709366;9 - Charlestown - Limekiln Avenue;"";Dublin Bus;9;Charlestown;Limekiln Avenue
683409080;"{\"type\":\"LineString\",\"coordinates\":[[-6.2718216,53.3643486],[-6.2717932,53.3644128]]}";15;Cross Guns Bridge;3;50;false;false;false;false;false;false;8.0;0;0;0;0;0;false;185;639837804;-6.2700271;53.3680755;187;1427180531;-6.272452;53.3627205;0;8;9;2709366;9 - Charlestown - Limekiln Avenue;"";Dublin Bus;9;Charlestown;Limekiln Avenue
227712172;"{\"type\":\"LineString\",\"coordinates\":[[-6.2718526,53.3642819],[-6.2718216,53.3643486]]}";16;Cross Guns Bridge;3;50;false;false;false;false;false;false;8.0;0;0;0;0;0;false;185;639837804;-6.2700271;53.3680755;187;1427180531;-6.272452;53.3627205;0;8;9;2709366;9 - Charlestown - Limekiln Avenue;"";Dublin Bus;9;Charlestown;Limekiln Avenue
4937069;"{\"type\":\"LineString\",\"coordinates\":[[-6.271861,53.3642637],[-6.2718526,53.3642819]]}";17;Cross Guns Bridge;3;50;false;false;true;false;false;false;3.0;0;0;0;0;0;false;185;639837804;-6.2700271;53.3680755;187;1427180531;-6.272452;53.3627205;0;8;9;2709366;9 - Charlestown - Limekiln Avenue;"";Dublin Bus;9;Charlestown;Limekiln Avenue
367873918;"{\"type\":\"LineString\",\"coordinates\":[[-6.2718858,53.3642196],[-6.271861,53.3642637]]}";18;Phibsborough Road;3;50;false;false;true;false;false;false;6.0;0;0;0;0;0;false;185;639837804;-6.2700271;53.3680755;187;1427180531;-6.272452;53.3627205;0;8;9;2709366;9 - Charlestown - Limekiln Avenue;"";Dublin Bus;9;Charlestown;Limekiln Avenue
32117788;"{\"type\":\"LineString\",\"coordinates\":[[-6.2727129,53.3613956],[-6.2727184,53.3615687],[-6.2727417,53.3621534],[-6.2727459,53.3622355],[-6.2727363,53.362334],[-6.2727309,53.3623898],[-6.2727299,53.3624004],[-6.2726884,53.3625327],[-6.2726515,53.3626091],[-6.2725809,53.3627553],[-6.2724166,53.3630954],[-6.2723829,53.3631642],[-6.2721935,53.3635494],[-6.2721563,53.3636251],[-6.2720859,53.3637834],[-6.2719642,53.3640427],[-6.2718858,53.3642196]]}";19;Phibsborough Road;4;50;false;false;true;false;false;false;162.5;1;1;0;0;0;false;185;639837804;-6.2700271;53.3680755;187;1427180531;-6.272452;53.3627205;1;8;9;2709366;9 - Charlestown - Limekiln Avenue;"";Dublin Bus;9;Charlestown;Limekiln Avenue
32117788;"{\"type\":\"LineString\",\"coordinates\":[[-6.2727129,53.3613956],[-6.2727184,53.3615687],[-6.2727417,53.3621534],[-6.2727459,53.3622355],[-6.2727363,53.362334],[-6.2727309,53.3623898],[-6.2727299,53.3624004],[-6.2726884,53.3625327],[-6.2726515,53.3626091],[-6.2725809,53.3627553],[-6.2724166,53.3630954],[-6.2723829,53.3631642],[-6.2721935,53.3635494],[-6.2721563,53.3636251],[-6.2720859,53.3637834],[-6.2719642,53.3640427],[-6.2718858,53.3642196]]}";1;Phibsborough Road;4;50;false;false;true;false;false;false;162.5;1;1;0;0;0;false;187;1427180531;-6.272452;53.3627205;186;650182517;-6.27159;53.3653373;1;9;10;2709366;9 - Charlestown - Limekiln Avenue;"";Dublin Bus;9;Charlestown;Limekiln Avenue
367873918;"{\"type\":\"LineString\",\"coordinates\":[[-6.2718858,53.3642196],[-6.271861,53.3642637]]}";2;Phibsborough Road;3;50;false;false;true;false;false;false;6.0;0;0;0;0;0;false;187;1427180531;-6.272452;53.3627205;186;650182517;-6.27159;53.3653373;0;9;10;2709366;9 - Charlestown - Limekiln Avenue;"";Dublin Bus;9;Charlestown;Limekiln Avenue
4937069;"{\"type\":\"LineString\",\"coordinates\":[[-6.271861,53.3642637],[-6.2718526,53.3642819]]}";3;Cross Guns Bridge;3;50;false;false;true;false;false;false;3.0;0;0;0;0;0;false;187;1427180531;-6.272452;53.3627205;186;650182517;-6.27159;53.3653373;0;9;10;2709366;9 - Charlestown - Limekiln Avenue;"";Dublin Bus;9;Charlestown;Limekiln Avenue
227712172;"{\"type\":\"LineString\",\"coordinates\":[[-6.2718526,53.3642819],[-6.2718216,53.3643486]]}";4;Cross Guns Bridge;3;50;false;false;false;false;false;false;8.0;0;0;0;0;0;false;187;1427180531;-6.272452;53.3627205;186;650182517;-6.27159;53.3653373;0;9;10;2709366;9 - Charlestown - Limekiln Avenue;"";Dublin Bus;9;Charlestown;Limekiln Avenue
683409080;"{\"type\":\"LineString\",\"coordinates\":[[-6.2718216,53.3643486],[-6.2717932,53.3644128]]}";5;Cross Guns Bridge;3;50;false;false;false;false;false;false;8.0;0;0;0;0;0;false;187;1427180531;-6.272452;53.3627205;186;650182517;-6.27159;53.3653373;0;9;10;2709366;9 - Charlestown - Limekiln Avenue;"";Dublin Bus;9;Charlestown;Limekiln Avenue
4937070;"{\"type\":\"LineString\",\"coordinates\":[[-6.2717932,53.3644128],[-6.2717793,53.3644563],[-6.2717778,53.3644786]]}";6;Prospect Road;3;50;false;false;true;false;false;false;8.0;0;0;0;0;0;false;187;1427180531;-6.272452;53.3627205;186;650182517;-6.27159;53.3653373;0;9;10;2709366;9 - Charlestown - Limekiln Avenue;"";Dublin Bus;9;Charlestown;Limekiln Avenue
55814728;"{\"type\":\"LineString\",\"coordinates\":[[-6.2717778,53.3644786],[-6.2717746,53.3645405],[-6.2717728,53.3645742]]}";7;Prospect Road;3;50;false;false;true;false;false;false;11.0;0;1;0;0;0;false;187;1427180531;-6.272452;53.3627205;186;650182517;-6.27159;53.3653373;0;9;10;2709366;9 - Charlestown - Limekiln Avenue;"";Dublin Bus;9;Charlestown;Limekiln Avenue
302340423;"{\"type\":\"LineString\",\"coordinates\":[[-6.2717728,53.3645742],[-6.2717705,53.3646389]]}";8;Prospect Road;4;50;false;false;true;false;false;false;8.0;1;0;0;0;0;false;187;1427180531;-6.272452;53.3627205;186;650182517;-6.27159;53.3653373;0;9;10;2709366;9 - Charlestown - Limekiln Avenue;"";Dublin Bus;9;Charlestown;Limekiln Avenue
3785459;"{\"type\":\"LineString\",\"coordinates\":[[-6.2717705,53.3646389],[-6.2717652,53.3648962]]}";9;Prospect Road;4;50;false;false;true;false;false;false;29.0;1;0;0;0;0;false;187;1427180531;-6.272452;53.3627205;186;650182517;-6.27159;53.3653373;0;9;10;2709366;9 - Charlestown - Limekiln Avenue;"";Dublin Bus;9;Charlestown;Limekiln Avenue
4937071;"{\"type\":\"LineString\",\"coordinates\":[[-6.2717652,53.3648962],[-6.2717563,53.3650001]]}";10;Prospect Road;4;50;false;false;true;false;false;false;12.0;0;0;0;0;0;false;187;1427180531;-6.272452;53.3627205;186;650182517;-6.27159;53.3653373;0;9;10;2709366;9 - Charlestown - Limekiln Avenue;"";Dublin Bus;9;Charlestown;Limekiln Avenue
4937072;"{\"type\":\"LineString\",\"coordinates\":[[-6.2717563,53.3650001],[-6.271745,53.365113]]}";11;Prospect Road;3;50;false;false;true;false;false;false;13.0;0;0;0;0;0;false;187;1427180531;-6.272452;53.3627205;186;650182517;-6.27159;53.3653373;0;9;10;2709366;9 - Charlestown - Limekiln Avenue;"";Dublin Bus;9;Charlestown;Limekiln Avenue
32024889;"{\"type\":\"LineString\",\"coordinates\":[[-6.271745,53.365113],[-6.2717097,53.3652937]]}";12;Prospect Road;4;50;false;false;true;false;false;false;21.0;0;0;0;0;0;false;187;1427180531;-6.272452;53.3627205;186;650182517;-6.27159;53.3653373;0;9;10;2709366;9 - Charlestown - Limekiln Avenue;"";Dublin Bus;9;Charlestown;Limekiln Avenue
372690317;"{\"type\":\"LineString\",\"coordinates\":[[-6.2717097,53.3652937],[-6.2716921,53.3653834],[-6.2716757,53.3654679],[-6.2716513,53.3656405]]}";13;Prospect Road;4;50;false;false;true;false;false;false;20.0;0;0;0;0;0;false;187;1427180531;-6.272452;53.3627205;186;650182517;-6.27159;53.3653373;1;9;10;2709366;9 - Charlestown - Limekiln Avenue;"";Dublin Bus;9;Charlestown;Limekiln Avenue
32024889;"{\"type\":\"LineString\",\"coordinates\":[[-6.271745,53.365113],[-6.2717097,53.3652937]]}";1;Prospect Road;4;50;false;false;true;false;false;false;21.0;0;0;0;0;0;false;186;650182517;-6.27159;53.3653373;188;2952547553;-6.2726097;53.3601278;2;10;11;2709366;9 - Charlestown - Limekiln Avenue;"";Dublin Bus;9;Charlestown;Limekiln Avenue
4937072;"{\"type\":\"LineString\",\"coordinates\":[[-6.2717563,53.3650001],[-6.271745,53.365113]]}";2;Prospect Road;3;50;false;false;true;false;false;false;13.0;0;0;0;0;0;false;186;650182517;-6.27159;53.3653373;188;2952547553;-6.2726097;53.3601278;0;10;11;2709366;9 - Charlestown - Limekiln Avenue;"";Dublin Bus;9;Charlestown;Limekiln Avenue
4937071;"{\"type\":\"LineString\",\"coordinates\":[[-6.2717652,53.3648962],[-6.2717563,53.3650001]]}";3;Prospect Road;4;50;false;false;true;false;false;false;12.0;0;0;0;0;0;false;186;650182517;-6.27159;53.3653373;188;2952547553;-6.2726097;53.3601278;0;10;11;2709366;9 - Charlestown - Limekiln Avenue;"";Dublin Bus;9;Charlestown;Limekiln Avenue
3785459;"{\"type\":\"LineString\",\"coordinates\":[[-6.2717705,53.3646389],[-6.2717652,53.3648962]]}";4;Prospect Road;4;50;false;false;true;false;false;false;29.0;1;0;0;0;0;false;186;650182517;-6.27159;53.3653373;188;2952547553;-6.2726097;53.3601278;0;10;11;2709366;9 - Charlestown - Limekiln Avenue;"";Dublin Bus;9;Charlestown;Limekiln Avenue
302340423;"{\"type\":\"LineString\",\"coordinates\":[[-6.2717728,53.3645742],[-6.2717705,53.3646389]]}";5;Prospect Road;4;50;false;false;true;false;false;false;8.0;1;0;0;0;0;false;186;650182517;-6.27159;53.3653373;188;2952547553;-6.2726097;53.3601278;0;10;11;2709366;9 - Charlestown - Limekiln Avenue;"";Dublin Bus;9;Charlestown;Limekiln Avenue
55814728;"{\"type\":\"LineString\",\"coordinates\":[[-6.2717778,53.3644786],[-6.2717746,53.3645405],[-6.2717728,53.3645742]]}";6;Prospect Road;3;50;false;false;true;false;false;false;11.0;0;1;0;0;0;false;186;650182517;-6.27159;53.3653373;188;2952547553;-6.2726097;53.3601278;0;10;11;2709366;9 - Charlestown - Limekiln Avenue;"";Dublin Bus;9;Charlestown;Limekiln Avenue
4937070;"{\"type\":\"LineString\",\"coordinates\":[[-6.2717932,53.3644128],[-6.2717793,53.3644563],[-6.2717778,53.3644786]]}";7;Prospect Road;3;50;false;false;true;false;false;false;8.0;0;0;0;0;0;false;186;650182517;-6.27159;53.3653373;188;2952547553;-6.2726097;53.3601278;0;10;11;2709366;9 - Charlestown - Limekiln Avenue;"";Dublin Bus;9;Charlestown;Limekiln Avenue
683409080;"{\"type\":\"LineString\",\"coordinates\":[[-6.2718216,53.3643486],[-6.2717932,53.3644128]]}";8;Cross Guns Bridge;3;50;false;false;false;false;false;false;8.0;0;0;0;0;0;false;186;650182517;-6.27159;53.3653373;188;2952547553;-6.2726097;53.3601278;0;10;11;2709366;9 - Charlestown - Limekiln Avenue;"";Dublin Bus;9;Charlestown;Limekiln Avenue
227712172;"{\"type\":\"LineString\",\"coordinates\":[[-6.2718526,53.3642819],[-6.2718216,53.3643486]]}";9;Cross Guns Bridge;3;50;false;false;false;false;false;false;8.0;0;0;0;0;0;false;186;650182517;-6.27159;53.3653373;188;2952547553;-6.2726097;53.3601278;0;10;11;2709366;9 - Charlestown - Limekiln Avenue;"";Dublin Bus;9;Charlestown;Limekiln Avenue
4937069;"{\"type\":\"LineString\",\"coordinates\":[[-6.271861,53.3642637],[-6.2718526,53.3642819]]}";10;Cross Guns Bridge;3;50;false;false;true;false;false;false;3.0;0;0;0;0;0;false;186;650182517;-6.27159;53.3653373;188;2952547553;-6.2726097;53.3601278;0;10;11;2709366;9 - Charlestown - Limekiln Avenue;"";Dublin Bus;9;Charlestown;Limekiln Avenue
367873918;"{\"type\":\"LineString\",\"coordinates\":[[-6.2718858,53.3642196],[-6.271861,53.3642637]]}";11;Phibsborough Road;3;50;false;false;true;false;false;false;6.0;0;0;0;0;0;false;186;650182517;-6.27159;53.3653373;188;2952547553;-6.2726097;53.3601278;0;10;11;2709366;9 - Charlestown - Limekiln Avenue;"";Dublin Bus;9;Charlestown;Limekiln Avenue
32117788;"{\"type\":\"LineString\",\"coordinates\":[[-6.2727129,53.3613956],[-6.2727184,53.3615687],[-6.2727417,53.3621534],[-6.2727459,53.3622355],[-6.2727363,53.362334],[-6.2727309,53.3623898],[-6.2727299,53.3624004],[-6.2726884,53.3625327],[-6.2726515,53.3626091],[-6.2725809,53.3627553],[-6.2724166,53.3630954],[-6.2723829,53.3631642],[-6.2721935,53.3635494],[-6.2721563,53.3636251],[-6.2720859,53.3637834],[-6.2719642,53.3640427],[-6.2718858,53.3642196]]}";12;Phibsborough Road;4;50;false;false;true;false;false;false;325.0;1;1;0;0;0;false;186;650182517;-6.27159;53.3653373;188;2952547553;-6.2726097;53.3601278;0;10;11;2709366;9 - Charlestown - Limekiln Avenue;"";Dublin Bus;9;Charlestown;Limekiln Avenue
3787117;"{\"type\":\"LineString\",\"coordinates\":[[-6.2726879,53.3607926],[-6.2726956,53.3608849],[-6.2726975,53.3609075],[-6.2727111,53.3612774],[-6.2727112,53.3613492],[-6.2727129,53.3613956]]}";13;Phibsborough Road;1;50;false;false;true;false;false;false;68.0;1;1;0;0;0;false;186;650182517;-6.27159;53.3653373;188;2952547553;-6.2726097;53.3601278;0;10;11;2709366;9 - Charlestown - Limekiln Avenue;"";Dublin Bus;9;Charlestown;Limekiln Avenue
4395775;"{\"type\":\"LineString\",\"coordinates\":[[-6.2726879,53.3607926],[-6.2726757,53.3606612],[-6.2726755,53.3603732],[-6.2726754,53.3601939],[-6.2726762,53.3601666],[-6.2726783,53.3600947],[-6.2726857,53.3598417],[-6.2727004,53.359752],[-6.272717,53.3596513],[-6.2727205,53.3596298],[-6.2728661,53.3593645]]}";14;Phibsborough Road;3;50;false;false;true;false;false;false;162.0;1;0;0;0;0;false;186;650182517;-6.27159;53.3653373;188;2952547553;-6.2726097;53.3601278;2;10;11;2709366;9 - Charlestown - Limekiln Avenue;"";Dublin Bus;9;Charlestown;Limekiln Avenue
4395775;"{\"type\":\"LineString\",\"coordinates\":[[-6.2726879,53.3607926],[-6.2726757,53.3606612],[-6.2726755,53.3603732],[-6.2726754,53.3601939],[-6.2726762,53.3601666],[-6.2726783,53.3600947],[-6.2726857,53.3598417],[-6.2727004,53.359752],[-6.272717,53.3596513],[-6.2727205,53.3596298],[-6.2728661,53.3593645]]}";1;Phibsborough Road;3;50;false;false;true;false;false;false;81.0;1;0;0;0;0;false;188;2952547553;-6.2726097;53.3601278;189;991616846;-6.2734889;53.3571698;1;11;12;2709366;9 - Charlestown - Limekiln Avenue;"";Dublin Bus;9;Charlestown;Limekiln Avenue
632121623;"{\"type\":\"LineString\",\"coordinates\":[[-6.2728661,53.3593645],[-6.2730425,53.359079],[-6.27308,53.3590047],[-6.2731182,53.3589291],[-6.273203,53.3587613],[-6.2732357,53.3586828],[-6.2733554,53.3583666],[-6.2733824,53.358268],[-6.2734519,53.3578663],[-6.2734694,53.3577771]]}";2;Phibsborough Road;3;50;false;false;true;false;false;false;184.0;0;1;0;0;0;false;188;2952547553;-6.2726097;53.3601278;189;991616846;-6.2734889;53.3571698;0;11;12;2709366;9 - Charlestown - Limekiln Avenue;"";Dublin Bus;9;Charlestown;Limekiln Avenue
32117786;"{\"type\":\"LineString\",\"coordinates\":[[-6.2734694,53.3577771],[-6.2734881,53.3576837],[-6.2735423,53.3574365],[-6.2735673,53.3572301],[-6.2735961,53.3569924],[-6.2736047,53.356889],[-6.2736133,53.3567855],[-6.2736065,53.3565269],[-6.273594,53.3562856],[-6.2735517,53.3558743],[-6.2734856,53.3551394],[-6.2734795,53.3550716],[-6.2734598,53.3549486],[-6.2734267,53.3547427],[-6.273405,53.3546516],[-6.2733693,53.3545735],[-6.2732947,53.3544436]]}";3;Phibsborough Road;3;50;false;false;true;false;false;false;188.0;1;0;0;0;0;false;188;2952547553;-6.2726097;53.3601278;189;991616846;-6.2734889;53.3571698;1;11;12;2709366;9 - Charlestown - Limekiln Avenue;"";Dublin Bus;9;Charlestown;Limekiln Avenue
32117786;"{\"type\":\"LineString\",\"coordinates\":[[-6.2734694,53.3577771],[-6.2734881,53.3576837],[-6.2735423,53.3574365],[-6.2735673,53.3572301],[-6.2735961,53.3569924],[-6.2736047,53.356889],[-6.2736133,53.3567855],[-6.2736065,53.3565269],[-6.273594,53.3562856],[-6.2735517,53.3558743],[-6.2734856,53.3551394],[-6.2734795,53.3550716],[-6.2734598,53.3549486],[-6.2734267,53.3547427],[-6.273405,53.3546516],[-6.2733693,53.3545735],[-6.2732947,53.3544436]]}";1;Phibsborough Road;3;50;false;false;true;false;false;false;188.0;1;0;0;0;0;false;190;650343953;-6.2733996;53.3551252;191;650345840;-6.2696119;53.3550656;1;13;14;2709366;9 - Charlestown - Limekiln Avenue;"";Dublin Bus;9;Charlestown;Limekiln Avenue
317183903;"{\"type\":\"LineString\",\"coordinates\":[[-6.2732947,53.3544436],[-6.2730461,53.3544903],[-6.2725173,53.3546101]]}";2;Western Way;1;30;false;true;true;false;false;false;56.0;1;1;0;0;0;false;190;650343953;-6.2733996;53.3551252;191;650345840;-6.2696119;53.3550656;0;13;14;2709366;9 - Charlestown - Limekiln Avenue;"";Dublin Bus;9;Charlestown;Limekiln Avenue
4395692;"{\"type\":\"LineString\",\"coordinates\":[[-6.2725173,53.3546101],[-6.2724869,53.354682]]}";3;Western Way;2;30;false;false;true;false;false;false;9.0;0;0;0;0;0;false;190;650343953;-6.2733996;53.3551252;191;650345840;-6.2696119;53.3550656;0;13;14;2709366;9 - Charlestown - Limekiln Avenue;"";Dublin Bus;9;Charlestown;Limekiln Avenue
338040884;"{\"type\":\"LineString\",\"coordinates\":[[-6.2724869,53.354682],[-6.2724369,53.3548255],[-6.272366,53.354951],[-6.2723368,53.3549737],[-6.2722362,53.3550519],[-6.2720984,53.3551339],[-6.2719755,53.3551871],[-6.2719142,53.3552136],[-6.2717071,53.3552676],[-6.2714885,53.3552967],[-6.2712538,53.3552991],[-6.271006,53.35528],[-6.2707059,53.3552321],[-6.2706685,53.3552261],[-6.2698362,53.3550718],[-6.2696297,53.3550335],[-6.2694351,53.3549987],[-6.2692743,53.3549572]]}";4;Western Way;2;30;false;false;true;false;false;false;129.5;0;0;0;0;0;false;190;650343953;-6.2733996;53.3551252;191;650345840;-6.2696119;53.3550656;1;13;14;2709366;9 - Charlestown - Limekiln Avenue;"";Dublin Bus;9;Charlestown;Limekiln Avenue
338040884;"{\"type\":\"LineString\",\"coordinates\":[[-6.2724869,53.354682],[-6.2724369,53.3548255],[-6.272366,53.354951],[-6.2723368,53.3549737],[-6.2722362,53.3550519],[-6.2720984,53.3551339],[-6.2719755,53.3551871],[-6.2719142,53.3552136],[-6.2717071,53.3552676],[-6.2714885,53.3552967],[-6.2712538,53.3552991],[-6.271006,53.35528],[-6.2707059,53.3552321],[-6.2706685,53.3552261],[-6.2698362,53.3550718],[-6.2696297,53.3550335],[-6.2694351,53.3549987],[-6.2692743,53.3549572]]}";1;Western Way;2;30;false;false;true;false;false;false;129.5;0;0;0;0;0;false;191;650345840;-6.2696119;53.3550656;819;1589739800;-6.2659795;53.3562987;1;14;15;2709366;9 - Charlestown - Limekiln Avenue;"";Dublin Bus;9;Charlestown;Limekiln Avenue
4395694;"{\"type\":\"LineString\",\"coordinates\":[[-6.2692743,53.3549572],[-6.2686462,53.3549074]]}";2;Western Way;1;30;false;true;true;false;false;false;43.0;1;0;0;0;0;false;191;650345840;-6.2696119;53.3550656;819;1589739800;-6.2659795;53.3562987;0;14;15;2709366;9 - Charlestown - Limekiln Avenue;"";Dublin Bus;9;Charlestown;Limekiln Avenue
49734440;"{\"type\":\"LineString\",\"coordinates\":[[-6.2686462,53.3549074],[-6.2685949,53.3549699]]}";3;Mountjoy Street;1;30;false;false;true;false;false;false;8.0;2;0;0;0;0;false;191;650345840;-6.2696119;53.3550656;819;1589739800;-6.2659795;53.3562987;0;14;15;2709366;9 - Charlestown - Limekiln Avenue;"";Dublin Bus;9;Charlestown;Limekiln Avenue
37692282;"{\"type\":\"LineString\",\"coordinates\":[[-6.2685949,53.3549699],[-6.2684651,53.3552123],[-6.2684001,53.3553441],[-6.268307,53.355511],[-6.2682603,53.3556041],[-6.2680928,53.3559381],[-6.2680502,53.3560592],[-6.2680066,53.3562131],[-6.2679978,53.3562736],[-6.2679827,53.356378],[-6.2679731,53.3564774],[-6.2679372,53.3567507]]}";4;Mountjoy Street;1;30;false;false;true;false;false;false;206.0;1;0;0;0;0;false;191;650345840;-6.2696119;53.3550656;819;1589739800;-6.2659795;53.3562987;0;14;15;2709366;9 - Charlestown - Limekiln Avenue;"";Dublin Bus;9;Charlestown;Limekiln Avenue
4395891;"{\"type\":\"LineString\",\"coordinates\":[[-6.2679372,53.3567507],[-6.2672672,53.3565719],[-6.2660221,53.3562456],[-6.2658466,53.3562003]]}";5;Blessington Street;2;30;false;true;true;false;false;false;77.0;0;0;0;0;0;false;191;650345840;-6.2696119;53.3550656;819;1589739800;-6.2659795;53.3562987;1;14;15;2709366;9 - Charlestown - Limekiln Avenue;"";Dublin Bus;9;Charlestown;Limekiln Avenue
150800556;"{\"type\":\"LineString\",\"coordinates\":[[-6.2658466,53.3562003],[-6.2654079,53.3560914],[-6.2653272,53.3560593],[-6.26526,53.3560174]]}";1;Blessington Street;1;30;false;true;true;false;false;false;45.0;1;1;0;0;0;false;819;1589739800;-6.2659795;53.3562987;2414;5605907511;-6.3108561;53.3140633;2;15;16;2709366;9 - Charlestown - Limekiln Avenue;"";Dublin Bus;9;Charlestown;Limekiln Avenue
3789941;"{\"type\":\"LineString\",\"coordinates\":[[-6.26526,53.3560174],[-6.2651653,53.3559503],[-6.2651565,53.3559441],[-6.2648955,53.3557336],[-6.264483,53.3553754]]}";2;North Frederick Street;2;30;false;false;true;false;true;false;89.0;1;1;0;0;0;false;819;1589739800;-6.2659795;53.3562987;2414;5605907511;-6.3108561;53.3140633;0;15;16;2709366;9 - Charlestown - Limekiln Avenue;"";Dublin Bus;9;Charlestown;Limekiln Avenue
37692391;"{\"type\":\"LineString\",\"coordinates\":[[-6.264483,53.3553754],[-6.2640683,53.3550078],[-6.2636602,53.3546521],[-6.2635999,53.3545965],[-6.2635331,53.354535]]}";3;North Frederick Street;2;30;false;false;true;false;false;false;114.0;1;1;0;0;0;false;819;1589739800;-6.2659795;53.3562987;2414;5605907511;-6.3108561;53.3140633;0;15;16;2709366;9 - Charlestown - Limekiln Avenue;"";Dublin Bus;9;Charlestown;Limekiln Avenue
151368;"{\"type\":\"LineString\",\"coordinates\":[[-6.2635331,53.354535],[-6.2634588,53.3544568]]}";4;Parnell Square East;2;30;false;false;true;false;false;false;11.0;2;0;0;0;0;false;819;1589739800;-6.2659795;53.3562987;2414;5605907511;-6.3108561;53.3140633;0;15;16;2709366;9 - Charlestown - Limekiln Avenue;"";Dublin Bus;9;Charlestown;Limekiln Avenue
319624628;"{\"type\":\"LineString\",\"coordinates\":[[-6.2634588,53.3544568],[-6.2634187,53.3544235],[-6.2631289,53.3541832]]}";5;Parnell Square East;2;30;false;true;true;false;false;false;38.0;1;1;0;0;0;false;819;1589739800;-6.2659795;53.3562987;2414;5605907511;-6.3108561;53.3140633;0;15;16;2709366;9 - Charlestown - Limekiln Avenue;"";Dublin Bus;9;Charlestown;Limekiln Avenue
49961187;"{\"type\":\"LineString\",\"coordinates\":[[-6.2631289,53.3541832],[-6.262998,53.3540721],[-6.2622261,53.3534172],[-6.2621675,53.3533675],[-6.2619459,53.3531795]]}";6;Parnell Square East;2;30;false;true;true;false;false;false;138.0;0;0;0;0;0;false;819;1589739800;-6.2659795;53.3562987;2414;5605907511;-6.3108561;53.3140633;0;15;16;2709366;9 - Charlestown - Limekiln Avenue;"";Dublin Bus;9;Charlestown;Limekiln Avenue
14047793;"{\"type\":\"LineString\",\"coordinates\":[[-6.2619459,53.3531795],[-6.2617474,53.352997]]}";7;Cavendish Row;2;30;false;true;true;false;false;false;25.0;0;0;0;0;0;false;819;1589739800;-6.2659795;53.3562987;2414;5605907511;-6.3108561;53.3140633;0;15;16;2709366;9 - Charlestown - Limekiln Avenue;"";Dublin Bus;9;Charlestown;Limekiln Avenue
37692415;"{\"type\":\"LineString\",\"coordinates\":[[-6.2617474,53.352997],[-6.2614498,53.3527615],[-6.261428,53.3527492]]}";8;Cavendish Row;2;30;false;true;true;false;false;false;36.0;1;0;0;0;0;false;819;1589739800;-6.2659795;53.3562987;2414;5605907511;-6.3108561;53.3140633;0;15;16;2709366;9 - Charlestown - Limekiln Avenue;"";Dublin Bus;9;Charlestown;Limekiln Avenue
578973715;"{\"type\":\"LineString\",\"coordinates\":[[-6.261428,53.3527492],[-6.2613994,53.3526827],[-6.2613621,53.3525959],[-6.2613445,53.352555]]}";9;Cavendish Row;2;30;false;true;true;false;false;false;23.0;2;0;0;0;0;false;819;1589739800;-6.2659795;53.3562987;2414;5605907511;-6.3108561;53.3140633;0;15;16;2709366;9 - Charlestown - Limekiln Avenue;"";Dublin Bus;9;Charlestown;Limekiln Avenue
3788405;"{\"type\":\"LineString\",\"coordinates\":[[-6.2613445,53.352555],[-6.2612725,53.3523923],[-6.2612001,53.3522278],[-6.2611234,53.3520535],[-6.2610744,53.3519419]]}";10;O'Connell Street Upper;2;30;false;true;true;false;false;false;72.0;2;2;0;0;0;false;819;1589739800;-6.2659795;53.3562987;2414;5605907511;-6.3108561;53.3140633;0;15;16;2709366;9 - Charlestown - Limekiln Avenue;"";Dublin Bus;9;Charlestown;Limekiln Avenue
49961189;"{\"type\":\"LineString\",\"coordinates\":[[-6.2610744,53.3519419],[-6.2608416,53.351421],[-6.2607686,53.3512564],[-6.2603792,53.3503787],[-6.2603097,53.3502191],[-6.260128,53.349819]]}";11;O'Connell Street Upper;2;30;false;true;true;false;false;false;247.0;2;0;0;0;0;false;819;1589739800;-6.2659795;53.3562987;2414;5605907511;-6.3108561;53.3140633;0;15;16;2709366;9 - Charlestown - Limekiln Avenue;"";Dublin Bus;9;Charlestown;Limekiln Avenue
49961184;"{\"type\":\"LineString\",\"coordinates\":[[-6.260128,53.349819],[-6.2597827,53.3490115],[-6.2597226,53.3488709],[-6.259606,53.3486178],[-6.2595533,53.3485006],[-6.2595282,53.3484455]]}";12;O'Connell Street Lower;2;30;false;true;true;false;false;false;160.0;2;0;0;0;0;false;819;1589739800;-6.2659795;53.3562987;2414;5605907511;-6.3108561;53.3140633;0;15;16;2709366;9 - Charlestown - Limekiln Avenue;"";Dublin Bus;9;Charlestown;Limekiln Avenue
717822540;"{\"type\":\"LineString\",\"coordinates\":[[-6.2595282,53.3484455],[-6.2595121,53.348415],[-6.2595044,53.3483991]]}";13;O'Connell Street Lower;2;30;false;true;true;false;false;false;6.0;1;0;0;0;0;false;819;1589739800;-6.2659795;53.3562987;2414;5605907511;-6.3108561;53.3140633;0;15;16;2709366;9 - Charlestown - Limekiln Avenue;"";Dublin Bus;9;Charlestown;Limekiln Avenue
677070804;"{\"type\":\"LineString\",\"coordinates\":[[-6.2595044,53.3483991],[-6.2594958,53.3483813],[-6.2594756,53.3483466],[-6.2593649,53.348122]]}";14;O'Connell Street Lower;2;30;false;true;false;false;false;false;33.0;0;0;0;0;0;false;819;1589739800;-6.2659795;53.3562987;2414;5605907511;-6.3108561;53.3140633;0;15;16;2709366;9 - Charlestown - Limekiln Avenue;"";Dublin Bus;9;Charlestown;Limekiln Avenue
369897004;"{\"type\":\"LineString\",\"coordinates\":[[-6.2593649,53.348122],[-6.2591517,53.3476853],[-6.2591013,53.3475905]]}";15;O'Connell Street Lower;2;30;false;true;false;false;false;false;63.0;1;0;0;0;0;false;819;1589739800;-6.2659795;53.3562987;2414;5605907511;-6.3108561;53.3140633;0;15;16;2709366;9 - Charlestown - Limekiln Avenue;"";Dublin Bus;9;Charlestown;Limekiln Avenue
3787954;"{\"type\":\"LineString\",\"coordinates\":[[-6.2591013,53.3475905],[-6.2590532,53.3475]]}";16;O'Connell Bridge;1;30;false;true;true;false;false;false;11.0;1;0;0;0;0;false;819;1589739800;-6.2659795;53.3562987;2414;5605907511;-6.3108561;53.3140633;0;15;16;2709366;9 - Charlestown - Limekiln Avenue;"";Dublin Bus;9;Charlestown;Limekiln Avenue
4414300;"{\"type\":\"LineString\",\"coordinates\":[[-6.2590532,53.3475],[-6.2590471,53.3474886],[-6.2589617,53.3473272]]}";17;O'Connell Bridge;4;30;false;true;true;false;false;false;21.0;0;0;0;0;0;false;819;1589739800;-6.2659795;53.3562987;2414;5605907511;-6.3108561;53.3140633;0;15;16;2709366;9 - Charlestown - Limekiln Avenue;"";Dublin Bus;9;Charlestown;Limekiln Avenue
632640318;"{\"type\":\"LineString\",\"coordinates\":[[-6.2589617,53.3473272],[-6.2589448,53.3472978]]}";18;O'Connell Bridge;4;30;false;true;true;false;false;false;4.0;0;0;0;0;0;false;819;1589739800;-6.2659795;53.3562987;2414;5605907511;-6.3108561;53.3140633;0;15;16;2709366;9 - Charlestown - Limekiln Avenue;"";Dublin Bus;9;Charlestown;Limekiln Avenue
369897003;"{\"type\":\"LineString\",\"coordinates\":[[-6.2589448,53.3472978],[-6.2589186,53.347248],[-6.2588438,53.3471061],[-6.2588369,53.3470931]]}";19;O'Connell Bridge;4;30;false;true;true;false;false;false;25.0;0;1;0;0;0;false;819;1589739800;-6.2659795;53.3562987;2414;5605907511;-6.3108561;53.3140633;0;15;16;2709366;9 - Charlestown - Limekiln Avenue;"";Dublin Bus;9;Charlestown;Limekiln Avenue
23920383;"{\"type\":\"LineString\",\"coordinates\":[[-6.2588369,53.3470931],[-6.258792,53.3470086]]}";20;O'Connell Bridge;1;30;false;true;true;false;false;false;10.0;1;1;0;0;0;false;819;1589739800;-6.2659795;53.3562987;2414;5605907511;-6.3108561;53.3140633;0;15;16;2709366;9 - Charlestown - Limekiln Avenue;"";Dublin Bus;9;Charlestown;Limekiln Avenue
4074523;"{\"type\":\"LineString\",\"coordinates\":[[-6.258792,53.3470086],[-6.2587358,53.3469124],[-6.2586477,53.3467807]]}";21;D'Olier Street;4;30;false;true;true;false;false;false;28.0;1;1;0;0;0;false;819;1589739800;-6.2659795;53.3562987;2414;5605907511;-6.3108561;53.3140633;0;15;16;2709366;9 - Charlestown - Limekiln Avenue;"";Dublin Bus;9;Charlestown;Limekiln Avenue
514848250;"{\"type\":\"LineString\",\"coordinates\":[[-6.2586477,53.3467807],[-6.2585335,53.3467035]]}";22;D'Olier Street;3;30;false;true;true;false;false;false;12.0;0;0;0;0;0;false;819;1589739800;-6.2659795;53.3562987;2414;5605907511;-6.3108561;53.3140633;0;15;16;2709366;9 - Charlestown - Limekiln Avenue;"";Dublin Bus;9;Charlestown;Limekiln Avenue
375737373;"{\"type\":\"LineString\",\"coordinates\":[[-6.2585335,53.3467035],[-6.2584476,53.3466455],[-6.2583354,53.3465697],[-6.2582454,53.3465089],[-6.258029,53.3463627],[-6.2579451,53.346306]]}";23;D'Olier Street;3;30;false;true;true;false;false;false;60.0;0;0;0;0;0;false;819;1589739800;-6.2659795;53.3562987;2414;5605907511;-6.3108561;53.3140633;0;15;16;2709366;9 - Charlestown - Limekiln Avenue;"";Dublin Bus;9;Charlestown;Limekiln Avenue
24960743;"{\"type\":\"LineString\",\"coordinates\":[[-6.2579451,53.346306],[-6.2578166,53.3462191],[-6.2575509,53.3460397],[-6.2573464,53.3459015]]}";24;D'Olier Street;3;30;false;true;true;false;false;false;61.0;1;0;0;0;0;false;819;1589739800;-6.2659795;53.3562987;2414;5605907511;-6.3108561;53.3140633;0;15;16;2709366;9 - Charlestown - Limekiln Avenue;"";Dublin Bus;9;Charlestown;Limekiln Avenue
24953717;"{\"type\":\"LineString\",\"coordinates\":[[-6.2573464,53.3459015],[-6.2572963,53.3458532],[-6.2572785,53.3458214],[-6.2572721,53.3457912],[-6.257284,53.3457487],[-6.2573108,53.3457101],[-6.2573757,53.3456588],[-6.257516,53.3456107]]}";25;College Street;3;30;false;true;true;false;false;false;42.0;1;0;0;0;0;false;819;1589739800;-6.2659795;53.3562987;2414;5605907511;-6.3108561;53.3140633;0;15;16;2709366;9 - Charlestown - Limekiln Avenue;"";Dublin Bus;9;Charlestown;Limekiln Avenue
4472591;"{\"type\":\"LineString\",\"coordinates\":[[-6.257516,53.3456107],[-6.25775,53.3455594],[-6.2579,53.3455086],[-6.2584602,53.3453218]]}";26;College Street;3;30;false;true;true;false;false;false;72.0;0;0;0;0;0;false;819;1589739800;-6.2659795;53.3562987;2414;5605907511;-6.3108561;53.3140633;0;15;16;2709366;9 - Charlestown - Limekiln Avenue;"";Dublin Bus;9;Charlestown;Limekiln Avenue
24973956;"{\"type\":\"LineString\",\"coordinates\":[[-6.2584602,53.3453218],[-6.2586704,53.3452032],[-6.2589964,53.3450327],[-6.2590981,53.3449653],[-6.259227,53.3448434]]}";27;College Street;1;30;false;true;true;false;false;false;75.0;1;0;0;0;0;false;819;1589739800;-6.2659795;53.3562987;2414;5605907511;-6.3108561;53.3140633;0;15;16;2709366;9 - Charlestown - Limekiln Avenue;"";Dublin Bus;9;Charlestown;Limekiln Avenue
4475677;"{\"type\":\"LineString\",\"coordinates\":[[-6.2593771,53.344684],[-6.2592915,53.3447707],[-6.259227,53.3448434]]}";28;College Green;3;30;false;false;true;false;false;false;21.0;0;0;0;0;0;false;819;1589739800;-6.2659795;53.3562987;2414;5605907511;-6.3108561;53.3140633;0;15;16;2709366;9 - Charlestown - Limekiln Avenue;"";Dublin Bus;9;Charlestown;Limekiln Avenue
68748138;"{\"type\":\"LineString\",\"coordinates\":[[-6.2593771,53.344684],[-6.2594288,53.3446069],[-6.2594528,53.3445365],[-6.2594674,53.3444768]]}";29;College Green;2;30;false;false;true;false;false;false;25.0;0;0;0;0;0;false;819;1589739800;-6.2659795;53.3562987;2414;5605907511;-6.3108561;53.3140633;0;15;16;2709366;9 - Charlestown - Limekiln Avenue;"";Dublin Bus;9;Charlestown;Limekiln Avenue
769021487;"{\"type\":\"LineString\",\"coordinates\":[[-6.2594674,53.3444768],[-6.2594708,53.3444255]]}";30;College Green;2;30;false;false;true;false;false;false;6.0;0;0;0;0;0;false;819;1589739800;-6.2659795;53.3562987;2414;5605907511;-6.3108561;53.3140633;0;15;16;2709366;9 - Charlestown - Limekiln Avenue;"";Dublin Bus;9;Charlestown;Limekiln Avenue
4375651;"{\"type\":\"LineString\",\"coordinates\":[[-6.2594708,53.3444255],[-6.2595391,53.3443896],[-6.2596047,53.3443699],[-6.2596322,53.3443642]]}";31;College Green;1;30;false;true;true;false;false;false;13.0;1;0;0;0;0;false;819;1589739800;-6.2659795;53.3562987;2414;5605907511;-6.3108561;53.3140633;0;15;16;2709366;9 - Charlestown - Limekiln Avenue;"";Dublin Bus;9;Charlestown;Limekiln Avenue
532097269;"{\"type\":\"LineString\",\"coordinates\":[[-6.2596322,53.3443642],[-6.2598945,53.3443286],[-6.2599525,53.3443233],[-6.2609009,53.3442593]]}";32;College Green;2;30;false;true;true;false;false;false;86.0;2;0;0;0;0;false;819;1589739800;-6.2659795;53.3562987;2414;5605907511;-6.3108561;53.3140633;0;15;16;2709366;9 - Charlestown - Limekiln Avenue;"";Dublin Bus;9;Charlestown;Limekiln Avenue
52879957;"{\"type\":\"LineString\",\"coordinates\":[[-6.2609009,53.3442593],[-6.2611048,53.3442643],[-6.2618465,53.3442846]]}";33;College Green;2;30;false;true;true;false;false;false;64.0;1;1;0;0;0;false;819;1589739800;-6.2659795;53.3562987;2414;5605907511;-6.3108561;53.3140633;0;15;16;2709366;9 - Charlestown - Limekiln Avenue;"";Dublin Bus;9;Charlestown;Limekiln Avenue
304634278;"{\"type\":\"LineString\",\"coordinates\":[[-6.2624409,53.344246],[-6.2621664,53.3442638],[-6.2618465,53.3442846]]}";34;College Green;4;30;false;false;true;false;false;false;41.0;0;1;0;0;0;false;819;1589739800;-6.2659795;53.3562987;2414;5605907511;-6.3108561;53.3140633;0;15;16;2709366;9 - Charlestown - Limekiln Avenue;"";Dublin Bus;9;Charlestown;Limekiln Avenue
3791745;"{\"type\":\"LineString\",\"coordinates\":[[-6.2644509,53.3441775],[-6.2642788,53.3441799],[-6.26387,53.3441912],[-6.263792,53.3441935],[-6.2633394,53.3442105],[-6.2626055,53.34424],[-6.2624409,53.344246]]}";35;Dame Street;4;30;false;false;true;false;false;false;135.0;1;0;0;0;0;false;819;1589739800;-6.2659795;53.3562987;2414;5605907511;-6.3108561;53.3140633;0;15;16;2709366;9 - Charlestown - Limekiln Avenue;"";Dublin Bus;9;Charlestown;Limekiln Avenue
317003249;"{\"type\":\"LineString\",\"coordinates\":[[-6.2644216,53.3429968],[-6.264419,53.3430446],[-6.2644192,53.3430603],[-6.2644271,53.3435595],[-6.26444,53.3438399],[-6.2644509,53.3441775]]}";36;South Great George's Street;3;30;false;false;true;false;false;false;133.0;1;1;0;0;0;false;819;1589739800;-6.2659795;53.3562987;2414;5605907511;-6.3108561;53.3140633;0;15;16;2709366;9 - Charlestown - Limekiln Avenue;"";Dublin Bus;9;Charlestown;Limekiln Avenue
369564011;"{\"type\":\"LineString\",\"coordinates\":[[-6.2645185,53.3424536],[-6.26447,53.3425848],[-6.2644369,53.3427788],[-6.2644216,53.3429968]]}";37;South Great George's Street;3;30;false;false;true;false;false;false;62.0;0;0;0;0;0;false;819;1589739800;-6.2659795;53.3562987;2414;5605907511;-6.3108561;53.3140633;0;15;16;2709366;9 - Charlestown - Limekiln Avenue;"";Dublin Bus;9;Charlestown;Limekiln Avenue
5826896;"{\"type\":\"LineString\",\"coordinates\":[[-6.265404,53.3414662],[-6.2653785,53.3415003],[-6.2651756,53.3416728],[-6.2647743,53.3420481],[-6.2646944,53.3421317],[-6.2646287,53.3422258],[-6.2645738,53.342338],[-6.2645185,53.3424536]]}";38;South Great George's Street;3;30;false;false;true;false;false;false;127.0;1;0;0;0;0;false;819;1589739800;-6.2659795;53.3562987;2414;5605907511;-6.3108561;53.3140633;0;15;16;2709366;9 - Charlestown - Limekiln Avenue;"";Dublin Bus;9;Charlestown;Limekiln Avenue
554991019;"{\"type\":\"LineString\",\"coordinates\":[[-6.2656141,53.3406712],[-6.265404,53.3414662]]}";39;Aungier Street;2;30;false;false;false;false;false;false;91.0;2;0;0;0;0;false;819;1589739800;-6.2659795;53.3562987;2414;5605907511;-6.3108561;53.3140633;0;15;16;2709366;9 - Charlestown - Limekiln Avenue;"";Dublin Bus;9;Charlestown;Limekiln Avenue
532427444;"{\"type\":\"LineString\",\"coordinates\":[[-6.2661022,53.338532],[-6.2659588,53.3391577],[-6.2659077,53.3393903],[-6.2658639,53.3395894],[-6.2658319,53.3397359],[-6.2657997,53.3398737],[-6.2657421,53.3401448],[-6.2656749,53.3404613],[-6.2656141,53.3406712]]}";40;Aungier Street;3;30;false;false;false;false;false;false;242.0;3;0;0;0;0;false;819;1589739800;-6.2659795;53.3562987;2414;5605907511;-6.3108561;53.3140633;0;15;16;2709366;9 - Charlestown - Limekiln Avenue;"";Dublin Bus;9;Charlestown;Limekiln Avenue
3791744;"{\"type\":\"LineString\",\"coordinates\":[[-6.2660752,53.3383892],[-6.2660989,53.3384454],[-6.2661022,53.338532]]}";41;Aungier Street;3;30;false;false;true;false;false;false;17.0;0;0;0;0;0;false;819;1589739800;-6.2659795;53.3562987;2414;5605907511;-6.3108561;53.3140633;0;15;16;2709366;9 - Charlestown - Limekiln Avenue;"";Dublin Bus;9;Charlestown;Limekiln Avenue
341583777;"{\"type\":\"LineString\",\"coordinates\":[[-6.2658551,53.3377832],[-6.265943,53.3380251],[-6.2660752,53.3383892]]}";42;Redmonds Hill;3;30;false;false;true;false;false;false;70.0;0;0;0;0;0;false;819;1589739800;-6.2659795;53.3562987;2414;5605907511;-6.3108561;53.3140633;0;15;16;2709366;9 - Charlestown - Limekiln Avenue;"";Dublin Bus;9;Charlestown;Limekiln Avenue
5976022;"{\"type\":\"LineString\",\"coordinates\":[[-6.2657971,53.3376138],[-6.2658551,53.3377832]]}";43;Redmonds Hill;3;30;false;false;true;false;false;false;20.0;1;0;0;0;0;false;819;1589739800;-6.2659795;53.3562987;2414;5605907511;-6.3108561;53.3140633;0;15;16;2709366;9 - Charlestown - Limekiln Avenue;"";Dublin Bus;9;Charlestown;Limekiln Avenue
5826349;"{\"type\":\"LineString\",\"coordinates\":[[-6.2657971,53.3376138],[-6.2657367,53.3374278]]}";44;Wexford Street;2;30;false;false;true;false;false;false;22.0;1;0;0;0;0;false;819;1589739800;-6.2659795;53.3562987;2414;5605907511;-6.3108561;53.3140633;0;15;16;2709366;9 - Charlestown - Limekiln Avenue;"";Dublin Bus;9;Charlestown;Limekiln Avenue
532427445;"{\"type\":\"LineString\",\"coordinates\":[[-6.2657367,53.3374278],[-6.2656096,53.3369777],[-6.2655083,53.3366034],[-6.2654495,53.3364281]]}";45;Wexford Street;2;30;false;false;true;false;false;false;114.0;0;0;0;0;0;false;819;1589739800;-6.2659795;53.3562987;2414;5605907511;-6.3108561;53.3140633;0;15;16;2709366;9 - Charlestown - Limekiln Avenue;"";Dublin Bus;9;Charlestown;Limekiln Avenue
77616869;"{\"type\":\"LineString\",\"coordinates\":[[-6.2654495,53.3364281],[-6.2653561,53.336168],[-6.265339,53.3361203],[-6.265207,53.3356182],[-6.2652064,53.3355641],[-6.2652062,53.3355438],[-6.2652056,53.3354833]]}";46;Camden Street Lower;3;30;false;false;true;false;false;false;108.0;0;1;0;0;0;false;819;1589739800;-6.2659795;53.3562987;2414;5605907511;-6.3108561;53.3140633;0;15;16;2709366;9 - Charlestown - Limekiln Avenue;"";Dublin Bus;9;Charlestown;Limekiln Avenue
4628792;"{\"type\":\"LineString\",\"coordinates\":[[-6.2652056,53.3354833],[-6.2652279,53.3352373],[-6.2652338,53.3351251],[-6.2652546,53.3347258],[-6.26526,53.3346632],[-6.2652617,53.3346431],[-6.2652787,53.3342509],[-6.2652778,53.3341951],[-6.2652779,53.3341412]]}";47;Camden Street Lower;4;30;false;false;true;false;false;false;151.0;0;1;0;0;0;false;819;1589739800;-6.2659795;53.3562987;2414;5605907511;-6.3108561;53.3140633;0;15;16;2709366;9 - Charlestown - Limekiln Avenue;"";Dublin Bus;9;Charlestown;Limekiln Avenue
75741007;"{\"type\":\"LineString\",\"coordinates\":[[-6.2652779,53.3341412],[-6.2652722,53.3340684],[-6.2652571,53.3340264],[-6.2651742,53.333871]]}";48;Camden Street Lower;3;30;false;false;true;false;false;false;32.0;0;0;0;0;0;false;819;1589739800;-6.2659795;53.3562987;2414;5605907511;-6.3108561;53.3140633;0;15;16;2709366;9 - Charlestown - Limekiln Avenue;"";Dublin Bus;9;Charlestown;Limekiln Avenue
4628790;"{\"type\":\"LineString\",\"coordinates\":[[-6.2651742,53.333871],[-6.2650757,53.3338207],[-6.265012,53.3337555]]}";49;Charlotte Way;2;30;false;true;true;false;false;false;18.0;1;0;0;0;0;false;819;1589739800;-6.2659795;53.3562987;2414;5605907511;-6.3108561;53.3140633;0;15;16;2709366;9 - Charlestown - Limekiln Avenue;"";Dublin Bus;9;Charlestown;Limekiln Avenue
683385960;"{\"type\":\"LineString\",\"coordinates\":[[-6.265012,53.3337555],[-6.2648492,53.3336624]]}";50;Charlotte Way;2;30;false;true;true;false;false;false;16.0;2;0;0;0;0;false;819;1589739800;-6.2659795;53.3562987;2414;5605907511;-6.3108561;53.3140633;0;15;16;2709366;9 - Charlestown - Limekiln Avenue;"";Dublin Bus;9;Charlestown;Limekiln Avenue
59416359;"{\"type\":\"LineString\",\"coordinates\":[[-6.2648492,53.3336624],[-6.2645161,53.3336671],[-6.2642214,53.3336742],[-6.2640965,53.3336902],[-6.26332,53.3337895],[-6.2631819,53.3338127]]}";51;Charlotte Way;4;30;false;true;true;false;false;false;114.0;2;0;0;0;0;false;819;1589739800;-6.2659795;53.3562987;2414;5605907511;-6.3108561;53.3140633;0;15;16;2709366;9 - Charlestown - Limekiln Avenue;"";Dublin Bus;9;Charlestown;Limekiln Avenue
4628791;"{\"type\":\"LineString\",\"coordinates\":[[-6.2631819,53.3338127],[-6.2630658,53.3338089],[-6.2629817,53.3337902],[-6.2629554,53.3337844],[-6.2629066,53.3337491],[-6.2627606,53.3333727],[-6.2627211,53.3332709],[-6.2626268,53.3330289],[-6.2626224,53.3329911],[-6.262624,53.3329572],[-6.2626415,53.3329088],[-6.2626751,53.3328528],[-6.262817,53.3327299]]}";52;Harcourt Street;2;30;false;true;true;false;false;false;141.0;2;1;0;0;0;false;819;1589739800;-6.2659795;53.3562987;2414;5605907511;-6.3108561;53.3140633;0;15;16;2709366;9 - Charlestown - Limekiln Avenue;"";Dublin Bus;9;Charlestown;Limekiln Avenue
4628797;"{\"type\":\"LineString\",\"coordinates\":[[-6.262817,53.3327299],[-6.2629097,53.3327276],[-6.263246,53.3327221],[-6.2634933,53.3327098]]}";53;Harcourt Road;3;50;false;true;true;false;false;false;46.0;2;1;0;0;0;false;819;1589739800;-6.2659795;53.3562987;2414;5605907511;-6.3108561;53.3140633;0;15;16;2709366;9 - Charlestown - Limekiln Avenue;"";Dublin Bus;9;Charlestown;Limekiln Avenue
49974590;"{\"type\":\"LineString\",\"coordinates\":[[-6.2634933,53.3327098],[-6.2637991,53.332683],[-6.2640929,53.3326487],[-6.2644261,53.3326219]]}";54;Harcourt Road;3;50;false;true;true;false;false;false;64.0;1;0;0;0;0;false;819;1589739800;-6.2659795;53.3562987;2414;5605907511;-6.3108561;53.3140633;0;15;16;2709366;9 - Charlestown - Limekiln Avenue;"";Dublin Bus;9;Charlestown;Limekiln Avenue
59416357;"{\"type\":\"LineString\",\"coordinates\":[[-6.2644261,53.3326219],[-6.2647314,53.3326011],[-6.2647978,53.332599],[-6.2648597,53.3325969]]}";55;Harcourt Road;4;50;false;true;true;false;false;false;30.0;2;0;0;0;0;false;819;1589739800;-6.2659795;53.3562987;2414;5605907511;-6.3108561;53.3140633;0;15;16;2709366;9 - Charlestown - Limekiln Avenue;"";Dublin Bus;9;Charlestown;Limekiln Avenue
13894939;"{\"type\":\"LineString\",\"coordinates\":[[-6.2683155,53.332465],[-6.2682239,53.3324692],[-6.2669018,53.3325296],[-6.2658402,53.332568],[-6.265612,53.3325764],[-6.265012,53.3325927],[-6.2648597,53.3325969]]}";56;Harrington Street;4;50;false;false;true;false;false;false;233.0;2;0;0;0;0;false;819;1589739800;-6.2659795;53.3562987;2414;5605907511;-6.3108561;53.3140633;0;15;16;2709366;9 - Charlestown - Limekiln Avenue;"";Dublin Bus;9;Charlestown;Limekiln Avenue
125880830;"{\"type\":\"LineString\",\"coordinates\":[[-6.2752072,53.3322379],[-6.27495,53.3322249],[-6.2744433,53.3322168],[-6.2740977,53.3322063],[-6.2735176,53.3321888],[-6.2731122,53.3321774],[-6.2727381,53.3321693],[-6.2725171,53.3321769],[-6.2723687,53.332189],[-6.2718749,53.3322706],[-6.2715556,53.3323125],[-6.2714873,53.3323153],[-6.2713642,53.3323192],[-6.2707838,53.3323485],[-6.2701656,53.3323797],[-6.2693166,53.3324192],[-6.2691412,53.3324302],[-6.2684089,53.3324609],[-6.2683155,53.332465]]}";57;South Circular Road;3;50;false;false;true;false;false;false;465.0;2;1;0;0;0;false;819;1589739800;-6.2659795;53.3562987;2414;5605907511;-6.3108561;53.3140633;0;15;16;2709366;9 - Charlestown - Limekiln Avenue;"";Dublin Bus;9;Charlestown;Limekiln Avenue
4287294;"{\"type\":\"LineString\",\"coordinates\":[[-6.2752072,53.3322379],[-6.2751951,53.3320892],[-6.275172,53.3318042],[-6.2751901,53.3315173],[-6.2752129,53.3312582],[-6.2752549,53.3309194],[-6.2752719,53.3308017],[-6.2753064,53.3305634],[-6.275323,53.3304488],[-6.2753286,53.3304098],[-6.2753357,53.3303611],[-6.2753482,53.3302746],[-6.2753538,53.3302377],[-6.2753652,53.3301907],[-6.2754505,53.3298388],[-6.2754631,53.3297892],[-6.2754685,53.3297684]]}";58;Clanbrassil Street Upper;3;50;false;false;true;false;false;false;278.0;1;0;0;0;0;false;819;1589739800;-6.2659795;53.3562987;2414;5605907511;-6.3108561;53.3140633;0;15;16;2709366;9 - Charlestown - Limekiln Avenue;"";Dublin Bus;9;Charlestown;Limekiln Avenue
4934503;"{\"type\":\"LineString\",\"coordinates\":[[-6.2754685,53.3297684],[-6.2754795,53.3297322]]}";59;Robert Emmet Bridge;3;50;false;false;false;false;false;false;5.0;0;0;0;0;0;false;819;1589739800;-6.2659795;53.3562987;2414;5605907511;-6.3108561;53.3140633;0;15;16;2709366;9 - Charlestown - Limekiln Avenue;"";Dublin Bus;9;Charlestown;Limekiln Avenue
376282512;"{\"type\":\"LineString\",\"coordinates\":[[-6.2754795,53.3297322],[-6.2754885,53.3297025]]}";60;Robert Emmet Bridge;3;50;false;false;false;false;false;false;4.0;0;0;0;0;0;false;819;1589739800;-6.2659795;53.3562987;2414;5605907511;-6.3108561;53.3140633;0;15;16;2709366;9 - Charlestown - Limekiln Avenue;"";Dublin Bus;9;Charlestown;Limekiln Avenue
563920579;"{\"type\":\"LineString\",\"coordinates\":[[-6.2754885,53.3297025],[-6.2755042,53.3296533]]}";61;Robert Emmet Bridge;3;50;false;false;false;false;false;false;6.0;0;0;0;0;0;false;819;1589739800;-6.2659795;53.3562987;2414;5605907511;-6.3108561;53.3140633;0;15;16;2709366;9 - Charlestown - Limekiln Avenue;"";Dublin Bus;9;Charlestown;Limekiln Avenue
4934502;"{\"type\":\"LineString\",\"coordinates\":[[-6.2755042,53.3296533],[-6.2755061,53.329648],[-6.2755266,53.3295928],[-6.2755716,53.3295075]]}";62;Robert Emmet Bridge;3;50;false;false;false;false;false;false;17.0;1;0;0;0;0;false;819;1589739800;-6.2659795;53.3562987;2414;5605907511;-6.3108561;53.3140633;0;15;16;2709366;9 - Charlestown - Limekiln Avenue;"";Dublin Bus;9;Charlestown;Limekiln Avenue
38375201;"{\"type\":\"LineString\",\"coordinates\":[[-6.2755716,53.3295075],[-6.2756799,53.3293361],[-6.2757745,53.3292193],[-6.2758063,53.3291788],[-6.2758918,53.3290703],[-6.2759971,53.3289365],[-6.2762167,53.3286735],[-6.2763396,53.3285335],[-6.2763643,53.3285055],[-6.2766387,53.3281894],[-6.2767429,53.3280709],[-6.2767638,53.3280471]]}";63;Harold's Cross Road;4;50;false;false;true;false;false;false;183.0;1;1;0;0;0;false;819;1589739800;-6.2659795;53.3562987;2414;5605907511;-6.3108561;53.3140633;0;15;16;2709366;9 - Charlestown - Limekiln Avenue;"";Dublin Bus;9;Charlestown;Limekiln Avenue
368665221;"{\"type\":\"LineString\",\"coordinates\":[[-6.2767638,53.3280471],[-6.2767869,53.3280208],[-6.2770852,53.3276648]]}";64;Harold's Cross Road;4;50;false;false;true;false;false;false;48.0;0;0;0;0;0;false;819;1589739800;-6.2659795;53.3562987;2414;5605907511;-6.3108561;53.3140633;0;15;16;2709366;9 - Charlestown - Limekiln Avenue;"";Dublin Bus;9;Charlestown;Limekiln Avenue
368752315;"{\"type\":\"LineString\",\"coordinates\":[[-6.2770852,53.3276648],[-6.2771101,53.3276347],[-6.2775446,53.3271137],[-6.2776829,53.3269358],[-6.2779459,53.3265499]]}";65;Harold's Cross Road;4;50;false;false;true;false;false;false;138.0;0;0;0;0;0;false;819;1589739800;-6.2659795;53.3562987;2414;5605907511;-6.3108561;53.3140633;0;15;16;2709366;9 - Charlestown - Limekiln Avenue;"";Dublin Bus;9;Charlestown;Limekiln Avenue
509109352;"{\"type\":\"LineString\",\"coordinates\":[[-6.2779459,53.3265499],[-6.2780284,53.3264796],[-6.2780964,53.3264039],[-6.2781632,53.326326]]}";66;Harold's Cross Road;3;50;false;false;false;false;false;false;30.0;1;0;0;0;0;false;819;1589739800;-6.2659795;53.3562987;2414;5605907511;-6.3108561;53.3140633;0;15;16;2709366;9 - Charlestown - Limekiln Avenue;"";Dublin Bus;9;Charlestown;Limekiln Avenue
750277284;"{\"type\":\"LineString\",\"coordinates\":[[-6.2783164,53.3261741],[-6.2781632,53.326326]]}";67;Harold's Cross Road;2;50;false;false;true;false;false;false;20.0;1;1;0;0;0;false;819;1589739800;-6.2659795;53.3562987;2414;5605907511;-6.3108561;53.3140633;0;15;16;2709366;9 - Charlestown - Limekiln Avenue;"";Dublin Bus;9;Charlestown;Limekiln Avenue
368755023;"{\"type\":\"LineString\",\"coordinates\":[[-6.2792476,53.3248197],[-6.2791526,53.3249756],[-6.2789357,53.3253316],[-6.2785186,53.325899],[-6.2784775,53.3259562],[-6.2783164,53.3261741]]}";68;Harold's Cross Road;2;50;false;false;false;false;false;false;165.0;0;1;0;0;0;false;819;1589739800;-6.2659795;53.3562987;2414;5605907511;-6.3108561;53.3140633;0;15;16;2709366;9 - Charlestown - Limekiln Avenue;"";Dublin Bus;9;Charlestown;Limekiln Avenue
4287276;"{\"type\":\"LineString\",\"coordinates\":[[-6.2801051,53.3235171],[-6.27999,53.3236332],[-6.2798968,53.3237774],[-6.2797512,53.3240006],[-6.2797181,53.3240444],[-6.279674,53.3241197],[-6.2793148,53.3247094],[-6.2792476,53.3248197]]}";69;Harold's Cross Road;2;50;false;false;false;false;false;false;158.0;1;1;0;0;0;false;819;1589739800;-6.2659795;53.3562987;2414;5605907511;-6.3108561;53.3140633;0;15;16;2709366;9 - Charlestown - Limekiln Avenue;"";Dublin Bus;9;Charlestown;Limekiln Avenue
45834789;"{\"type\":\"LineString\",\"coordinates\":[[-6.2801051,53.3235171],[-6.2801487,53.3234876],[-6.2810401,53.3228854],[-6.2812366,53.3227558],[-6.2815974,53.3225861],[-6.2831326,53.3221125],[-6.2833807,53.3220121],[-6.2836777,53.3218426],[-6.2838714,53.3216933],[-6.2841086,53.3214602],[-6.284513,53.3210968],[-6.2846333,53.3209832],[-6.2848135,53.3208795],[-6.2854488,53.3206295],[-6.2860829,53.320371],[-6.2862845,53.320285],[-6.2867839,53.3200684],[-6.2870201,53.3199711],[-6.2871811,53.3199251],[-6.2874648,53.3198728]]}";70;Kimmage Road Lower;2;50;false;false;false;false;false;false;653.0;0;1;0;0;0;false;819;1589739800;-6.2659795;53.3562987;2414;5605907511;-6.3108561;53.3140633;0;15;16;2709366;9 - Charlestown - Limekiln Avenue;"";Dublin Bus;9;Charlestown;Limekiln Avenue
420122742;"{\"type\":\"LineString\",\"coordinates\":[[-6.2874648,53.3198728],[-6.287705,53.3198635]]}";71;Kimmage Road Lower;2;50;false;false;false;false;false;false;17.0;1;0;0;0;0;false;819;1589739800;-6.2659795;53.3562987;2414;5605907511;-6.3108561;53.3140633;0;15;16;2709366;9 - Charlestown - Limekiln Avenue;"";Dublin Bus;9;Charlestown;Limekiln Avenue
420122744;"{\"type\":\"LineString\",\"coordinates\":[[-6.287705,53.3198635],[-6.2880693,53.3198394]]}";72;Kimmage Road Lower;2;50;false;false;false;false;false;false;25.0;1;0;0;0;0;false;819;1589739800;-6.2659795;53.3562987;2414;5605907511;-6.3108561;53.3140633;0;15;16;2709366;9 - Charlestown - Limekiln Avenue;"";Dublin Bus;9;Charlestown;Limekiln Avenue
420122739;"{\"type\":\"LineString\",\"coordinates\":[[-6.2880693,53.3198394],[-6.2885272,53.3197949],[-6.2892891,53.3197031],[-6.2898279,53.3196134],[-6.2903079,53.3195253],[-6.2905503,53.3194598]]}";73;Kimmage Road Lower;2;50;false;false;false;false;false;false;173.0;1;0;0;0;0;false;819;1589739800;-6.2659795;53.3562987;2414;5605907511;-6.3108561;53.3140633;0;15;16;2709366;9 - Charlestown - Limekiln Avenue;"";Dublin Bus;9;Charlestown;Limekiln Avenue
316970036;"{\"type\":\"LineString\",\"coordinates\":[[-6.2905503,53.3194598],[-6.290672,53.3194122],[-6.2907752,53.3193354],[-6.2908681,53.3192513],[-6.2909359,53.3191899],[-6.2909519,53.3191754],[-6.2911276,53.3190154],[-6.291427,53.3187402],[-6.2920338,53.3182383],[-6.2920981,53.3181852],[-6.2921142,53.3181719],[-6.2921531,53.3181318],[-6.292163,53.3181215],[-6.2923976,53.3178788],[-6.2925923,53.3176786],[-6.2928184,53.3174863],[-6.2929352,53.3174075],[-6.2929859,53.3173694],[-6.2931713,53.31723],[-6.2934396,53.3170284],[-6.2936491,53.3168536],[-6.2937964,53.3167306],[-6.2938904,53.3166521],[-6.2939463,53.3166054],[-6.2940269,53.316535],[-6.2941192,53.3164522],[-6.2943644,53.3162401],[-6.2943785,53.3162276],[-6.2945789,53.3160507]]}";74;Kimmage Road Lower;2;50;false;false;false;false;false;false;469.0;1;0;0;0;0;false;819;1589739800;-6.2659795;53.3562987;2414;5605907511;-6.3108561;53.3140633;0;15;16;2709366;9 - Charlestown - Limekiln Avenue;"";Dublin Bus;9;Charlestown;Limekiln Avenue
317003255;"{\"type\":\"LineString\",\"coordinates\":[[-6.2945789,53.3160507],[-6.2951636,53.3155302],[-6.2952992,53.3154162],[-6.2954022,53.3153158],[-6.295788,53.314974],[-6.2958535,53.3149159],[-6.2959886,53.3147953],[-6.2961367,53.3146709],[-6.2961737,53.3146405],[-6.2967126,53.3142208],[-6.2971123,53.3139095],[-6.2971409,53.3138872],[-6.297168,53.3138689]]}";75;Kimmage Road Lower;1;50;false;false;false;false;false;false;300.0;1;1;0;0;0;false;819;1589739800;-6.2659795;53.3562987;2414;5605907511;-6.3108561;53.3140633;0;15;16;2709366;9 - Charlestown - Limekiln Avenue;"";Dublin Bus;9;Charlestown;Limekiln Avenue
316970037;"{\"type\":\"LineString\",\"coordinates\":[[-6.297168,53.3138689],[-6.2973973,53.3136799],[-6.2983993,53.3128573]]}";76;Kimmage Road Lower;3;50;false;false;false;false;false;false;141.0;1;0;0;0;0;false;819;1589739800;-6.2659795;53.3562987;2414;5605907511;-6.3108561;53.3140633;0;15;16;2709366;9 - Charlestown - Limekiln Avenue;"";Dublin Bus;9;Charlestown;Limekiln Avenue
483155334;"{\"type\":\"LineString\",\"coordinates\":[[-6.2983993,53.3128573],[-6.2989682,53.3124885],[-6.2992993,53.312287]]}";77;Kimmage Road Lower;4;50;false;false;false;false;false;false;88.0;0;0;0;0;0;false;819;1589739800;-6.2659795;53.3562987;2414;5605907511;-6.3108561;53.3140633;0;15;16;2709366;9 - Charlestown - Limekiln Avenue;"";Dublin Bus;9;Charlestown;Limekiln Avenue
483115749;"{\"type\":\"LineString\",\"coordinates\":[[-6.2992993,53.312287],[-6.2993059,53.312283]]}";78;Kimmage Road Lower;1;50;false;false;false;false;false;false;1.0;0;0;0;0;0;false;819;1589739800;-6.2659795;53.3562987;2414;5605907511;-6.3108561;53.3140633;0;15;16;2709366;9 - Charlestown - Limekiln Avenue;"";Dublin Bus;9;Charlestown;Limekiln Avenue
483115747;"{\"type\":\"LineString\",\"coordinates\":[[-6.2993059,53.312283],[-6.2995289,53.3121472],[-6.2996488,53.3120679]]}";79;Kimmage Road Lower;4;50;false;false;false;false;false;false;34.0;1;1;0;0;0;false;819;1589739800;-6.2659795;53.3562987;2414;5605907511;-6.3108561;53.3140633;0;15;16;2709366;9 - Charlestown - Limekiln Avenue;"";Dublin Bus;9;Charlestown;Limekiln Avenue
4287289;"{\"type\":\"LineString\",\"coordinates\":[[-6.2996488,53.3120679],[-6.2998255,53.3121048],[-6.3000345,53.3121519]]}";80;Kimmage Road West;3;50;false;false;true;false;false;false;28.0;1;1;0;0;0;false;819;1589739800;-6.2659795;53.3562987;2414;5605907511;-6.3108561;53.3140633;0;15;16;2709366;9 - Charlestown - Limekiln Avenue;"";Dublin Bus;9;Charlestown;Limekiln Avenue
483115756;"{\"type\":\"LineString\",\"coordinates\":[[-6.3000345,53.3121519],[-6.3000715,53.3121599]]}";81;Kimmage Road West;1;50;false;false;true;false;false;false;3.0;0;0;0;0;0;false;819;1589739800;-6.2659795;53.3562987;2414;5605907511;-6.3108561;53.3140633;0;15;16;2709366;9 - Charlestown - Limekiln Avenue;"";Dublin Bus;9;Charlestown;Limekiln Avenue
56052075;"{\"type\":\"LineString\",\"coordinates\":[[-6.3000715,53.3121599],[-6.3002213,53.3121905]]}";82;Kimmage Road West;3;50;false;false;true;false;false;false;11.0;0;0;0;0;0;false;819;1589739800;-6.2659795;53.3562987;2414;5605907511;-6.3108561;53.3140633;0;15;16;2709366;9 - Charlestown - Limekiln Avenue;"";Dublin Bus;9;Charlestown;Limekiln Avenue
56052078;"{\"type\":\"LineString\",\"coordinates\":[[-6.3002213,53.3121905],[-6.3002706,53.312201],[-6.3003483,53.3122176],[-6.3008274,53.31232],[-6.301365,53.3124349]]}";83;Kimmage Road West;3;50;false;false;true;false;false;false;82.0;0;0;0;0;0;false;819;1589739800;-6.2659795;53.3562987;2414;5605907511;-6.3108561;53.3140633;0;15;16;2709366;9 - Charlestown - Limekiln Avenue;"";Dublin Bus;9;Charlestown;Limekiln Avenue
252475435;"{\"type\":\"LineString\",\"coordinates\":[[-6.301365,53.3124349],[-6.3014373,53.3124531],[-6.3016926,53.3125034],[-6.3017922,53.31252],[-6.3018128,53.3125247],[-6.301867,53.3125351],[-6.3027391,53.3126283]]}";84;Kimmage Road West;2;50;false;false;true;false;false;false;95.0;0;0;0;0;0;false;819;1589739800;-6.2659795;53.3562987;2414;5605907511;-6.3108561;53.3140633;0;15;16;2709366;9 - Charlestown - Limekiln Avenue;"";Dublin Bus;9;Charlestown;Limekiln Avenue
576772689;"{\"type\":\"LineString\",\"coordinates\":[[-6.3027391,53.3126283],[-6.302993,53.3126444]]}";85;Kimmage Road West;2;50;false;false;true;false;false;false;18.0;0;0;0;0;0;false;819;1589739800;-6.2659795;53.3562987;2414;5605907511;-6.3108561;53.3140633;0;15;16;2709366;9 - Charlestown - Limekiln Avenue;"";Dublin Bus;9;Charlestown;Limekiln Avenue
576772690;"{\"type\":\"LineString\",\"coordinates\":[[-6.302993,53.3126444],[-6.303553,53.3127145],[-6.3040344,53.3127748],[-6.3046166,53.3128557]]}";86;Kimmage Road West;2;50;false;false;true;false;false;false;112.0;1;0;0;0;0;false;819;1589739800;-6.2659795;53.3562987;2414;5605907511;-6.3108561;53.3140633;0;15;16;2709366;9 - Charlestown - Limekiln Avenue;"";Dublin Bus;9;Charlestown;Limekiln Avenue
319018506;"{\"type\":\"LineString\",\"coordinates\":[[-6.3046166,53.3128557],[-6.3054592,53.3129603],[-6.3060358,53.3130478]]}";87;Kimmage Road West;2;50;false;false;true;false;false;false;98.0;1;0;0;0;0;false;819;1589739800;-6.2659795;53.3562987;2414;5605907511;-6.3108561;53.3140633;0;15;16;2709366;9 - Charlestown - Limekiln Avenue;"";Dublin Bus;9;Charlestown;Limekiln Avenue
169376045;"{\"type\":\"LineString\",\"coordinates\":[[-6.3060358,53.3130478],[-6.3069012,53.3131997],[-6.3091208,53.3136609]]}";88;Kimmage Road West;2;50;false;false;true;false;false;false;219.0;0;0;0;0;0;false;819;1589739800;-6.2659795;53.3562987;2414;5605907511;-6.3108561;53.3140633;0;15;16;2709366;9 - Charlestown - Limekiln Avenue;"";Dublin Bus;9;Charlestown;Limekiln Avenue
169376044;"{\"type\":\"LineString\",\"coordinates\":[[-6.3091208,53.3136609],[-6.309687,53.3137871]]}";89;Kimmage Road West;1;50;false;false;true;false;false;false;41.0;1;0;0;0;0;false;819;1589739800;-6.2659795;53.3562987;2414;5605907511;-6.3108561;53.3140633;0;15;16;2709366;9 - Charlestown - Limekiln Avenue;"";Dublin Bus;9;Charlestown;Limekiln Avenue
71455532;"{\"type\":\"LineString\",\"coordinates\":[[-6.309687,53.3137871],[-6.3098893,53.31383],[-6.3104443,53.3139681],[-6.3109405,53.3141397],[-6.3110096,53.3141636],[-6.3119111,53.3144814],[-6.315675,53.3158521],[-6.3157939,53.3158952],[-6.3166318,53.3161998],[-6.3169354,53.3162889]]}";90;Kimmage Road West;2;50;false;false;true;false;false;false;562.0;2;1;0;0;0;false;819;1589739800;-6.2659795;53.3562987;2414;5605907511;-6.3108561;53.3140633;1;15;16;2709366;9 - Charlestown - Limekiln Avenue;"";Dublin Bus;9;Charlestown;Limekiln Avenue
