way_id;shape;index;name;nb_lanes;legal_speed;speed_zone_30;oneway;shares_bike;bike_box;bus_lane;dedicated_bus_lane;length;nb_traffic_signals;nb_crossings;nb_stops;nb_give_ways;nb_lvl_crossings;roundabout;stop_id_orig;node_id_orig;coord_x_orig;coord_y_orig;stop_id_dest;node_id_dest;coord_x_dest;coord_y_dest;nb_neighbouring_ways_bus_stop;ordre_orig;ordre_dest;id_line;line_name;colour;operator;ref;from;to
785656673;"{\"type\":\"LineString\",\"coordinates\":[[-73.4697805,45.4126284],[-73.4696964,45.412683]]}";1;Boulevard des Champs-Fleuris;1;50;false;true;true;false;false;false;9.0;0;0;0;0;0;false;75211;6133323297;-73.469809;45.412533;75116;6133323368;-73.467787;45.413461;1;1;2;9512399;Bus 122 : La Prairie - Montréal;"";EXO;122;boul. des Champs-Fleuris / ch. St-Jean;Terminus Centre-Ville - Métro Bonaventure
785656671;"{\"type\":\"LineString\",\"coordinates\":[[-73.4696964,45.412683],[-73.4696291,45.4127228],[-73.4695439,45.41277],[-73.4694711,45.4128072],[-73.4693787,45.4128487],[-73.4692857,45.4128859],[-73.4691886,45.4129207],[-73.4687763,45.4130555],[-73.4686456,45.4130984]]}";2;Boulevard des Champs-Fleuris;1;50;false;true;true;false;false;false;95.0;0;1;0;0;0;false;75211;6133323297;-73.469809;45.412533;75116;6133323368;-73.467787;45.413461;0;1;2;9512399;Bus 122 : La Prairie - Montréal;"";EXO;122;boul. des Champs-Fleuris / ch. St-Jean;Terminus Centre-Ville - Métro Bonaventure
792738658;"{\"type\":\"LineString\",\"coordinates\":[[-73.4686456,45.4130984],[-73.4685326,45.4131378],[-73.4684949,45.4131627],[-73.4683916,45.4132504]]}";3;Boulevard des Champs-Fleuris;1;50;false;true;true;false;false;false;27.0;0;1;0;0;0;false;75211;6133323297;-73.469809;45.412533;75116;6133323368;-73.467787;45.413461;0;1;2;9512399;Bus 122 : La Prairie - Montréal;"";EXO;122;boul. des Champs-Fleuris / ch. St-Jean;Terminus Centre-Ville - Métro Bonaventure
11648791;"{\"type\":\"LineString\",\"coordinates\":[[-73.4683916,45.4132504],[-73.4682759,45.4133001],[-73.467851,45.4134826],[-73.4678309,45.4134915],[-73.467733,45.4135348],[-73.4676677,45.4135627],[-73.4676535,45.4135688],[-73.4675154,45.4136288],[-73.4673964,45.4136766],[-73.4673192,45.4137046],[-73.4669987,45.4138093],[-73.4661959,45.4140774],[-73.465918,45.4141702],[-73.4658036,45.414206],[-73.4657166,45.4142331],[-73.4650443,45.4144604],[-73.464921,45.4145024],[-73.4648185,45.4145369],[-73.4641729,45.4147546],[-73.4641508,45.4147622],[-73.4640514,45.4147963]]}";4;Boulevard des Champs-Fleuris;2;50;false;false;true;false;false;false;381.0;0;9;3;0;0;false;75211;6133323297;-73.469809;45.412533;75116;6133323368;-73.467787;45.413461;2;1;2;9512399;Bus 122 : La Prairie - Montréal;"";EXO;122;boul. des Champs-Fleuris / ch. St-Jean;Terminus Centre-Ville - Métro Bonaventure
685298032;"{\"type\":\"LineString\",\"coordinates\":[[-73.4640514,45.4147963],[-73.4639494,45.4148302]]}";1;Boulevard des Champs-Fleuris;2;50;false;false;true;false;false;false;9.0;0;0;0;0;0;false;75120;6133323364;-73.464174;45.414676;75121;6133323363;-73.466339;45.417026;2;4;5;9512399;Bus 122 : La Prairie - Montréal;"";EXO;122;boul. des Champs-Fleuris / ch. St-Jean;Terminus Centre-Ville - Métro Bonaventure
459379688;"{\"type\":\"LineString\",\"coordinates\":[[-73.4639494,45.4148302],[-73.4639839,45.4148835],[-73.4640066,45.414918],[-73.4643157,45.4153728],[-73.4643628,45.4154421],[-73.4644109,45.4155137],[-73.4647947,45.4160851],[-73.4648326,45.4161384],[-73.4648882,45.4162163],[-73.4649319,45.4162758],[-73.4649638,45.4163177],[-73.4649784,45.4163344],[-73.4650002,45.4163592],[-73.4650469,45.4164044],[-73.4650837,45.4164374],[-73.465121,45.416469],[-73.4651997,45.4165282],[-73.4652673,45.416578],[-73.465327,45.4166194],[-73.465386,45.4166554],[-73.4654551,45.4166946],[-73.4655259,45.4167308],[-73.465602,45.4167657],[-73.4656774,45.4167976],[-73.4657629,45.4168292],[-73.4658373,45.4168529],[-73.4658981,45.4168707],[-73.4659659,45.4168899],[-73.4660467,45.4169092],[-73.4661318,45.4169259],[-73.4662147,45.4169394],[-73.4662902,45.4169493],[-73.4663467,45.4169549],[-73.4664025,45.4169596],[-73.4664915,45.4169644],[-73.4665274,45.4169658],[-73.466554,45.4169668],[-73.4666075,45.4169678],[-73.4666912,45.416968],[-73.4667712,45.4169654],[-73.4668396,45.4169602],[-73.4669272,45.4169521],[-73.4670122,45.4169409],[-73.4671046,45.4169261],[-73.4672013,45.4169067],[-73.4672896,45.4168848],[-73.4673838,45.416858],[-73.4674634,45.4168334],[-73.4677753,45.4167296],[-73.4678912,45.416691],[-73.4680051,45.4166527],[-73.4688451,45.41637],[-73.4688646,45.4163635],[-73.4689725,45.4163282],[-73.4690954,45.4162887],[-73.4700727,45.415962],[-73.4701977,45.4159202],[-73.4703083,45.4158828],[-73.4711853,45.4155861],[-73.4719105,45.415348],[-73.4719596,45.4153319],[-73.4720303,45.4153087]]}";2;Boulevard de La Magdeleine;1;50;false;true;false;false;false;false;802.0;0;14;3;0;0;false;75120;6133323364;-73.464174;45.414676;75121;6133323363;-73.466339;45.417026;2;4;5;9512399;Bus 122 : La Prairie - Montréal;"";EXO;122;boul. des Champs-Fleuris / ch. St-Jean;Terminus Centre-Ville - Métro Bonaventure
785657441;"{\"type\":\"LineString\",\"coordinates\":[[-73.4720303,45.4153087],[-73.4721315,45.4152756]]}";1;Boulevard de La Magdeleine;1;50;false;true;true;false;false;false;9.0;0;0;0;0;0;false;75125;6133323359;-73.471982;45.415409;75129;6133323357;-73.474882;45.414429;2;7;8;9512399;Bus 122 : La Prairie - Montréal;"";EXO;122;boul. des Champs-Fleuris / ch. St-Jean;Terminus Centre-Ville - Métro Bonaventure
459379690;"{\"type\":\"LineString\",\"coordinates\":[[-73.4721315,45.4152756],[-73.4721951,45.4152541],[-73.4729684,45.4149976],[-73.4730771,45.4149616],[-73.4731956,45.4149217],[-73.4741858,45.4145904]]}";2;Boulevard de La Magdeleine;1;50;false;true;true;false;false;false;178.0;0;3;0;0;0;false;75125;6133323359;-73.471982;45.415409;75129;6133323357;-73.474882;45.414429;0;7;8;9512399;Bus 122 : La Prairie - Montréal;"";EXO;122;boul. des Champs-Fleuris / ch. St-Jean;Terminus Centre-Ville - Métro Bonaventure
795841638;"{\"type\":\"LineString\",\"coordinates\":[[-73.4741858,45.4145904],[-73.4748139,45.4143811],[-73.4749219,45.4143452],[-73.4750051,45.4143172],[-73.4753958,45.4141861]]}";3;Boulevard de La Magdeleine;1;30;false;true;true;false;false;false;105.0;0;2;1;0;0;false;75125;6133323359;-73.471982;45.415409;75129;6133323357;-73.474882;45.414429;2;7;8;9512399;Bus 122 : La Prairie - Montréal;"";EXO;122;boul. des Champs-Fleuris / ch. St-Jean;Terminus Centre-Ville - Métro Bonaventure
795841638;"{\"type\":\"LineString\",\"coordinates\":[[-73.4741858,45.4145904],[-73.4748139,45.4143811],[-73.4749219,45.4143452],[-73.4750051,45.4143172],[-73.4753958,45.4141861]]}";1;Boulevard de La Magdeleine;1;30;false;true;true;false;false;false;52.5;0;2;1;0;0;false;75129;6133323357;-73.474882;45.414429;75206;6133323300;-73.479178;45.412264;1;8;9;9512399;Bus 122 : La Prairie - Montréal;"";EXO;122;boul. des Champs-Fleuris / ch. St-Jean;Terminus Centre-Ville - Métro Bonaventure
795841639;"{\"type\":\"LineString\",\"coordinates\":[[-73.4753958,45.4141861],[-73.4756767,45.414091],[-73.4757792,45.4140593],[-73.4758557,45.4140365],[-73.4759333,45.4140174],[-73.4760378,45.4139932],[-73.4761456,45.413972],[-73.4762498,45.4139549],[-73.4763576,45.4139399],[-73.4764436,45.4139286],[-73.4765319,45.4139193],[-73.4765933,45.4139141],[-73.4767061,45.4139077],[-73.476782,45.413907],[-73.4768216,45.4139064],[-73.4768554,45.413906],[-73.4769314,45.4139039],[-73.4770242,45.4138982],[-73.4771187,45.4138885],[-73.4772185,45.4138741],[-73.477314,45.4138557],[-73.4774084,45.4138337],[-73.4774958,45.4138094],[-73.4775637,45.4137872],[-73.4776469,45.4137582],[-73.4777172,45.4137297],[-73.4777937,45.4136942],[-73.4778657,45.4136594],[-73.4779312,45.4136237],[-73.4780057,45.4135773],[-73.4780735,45.413531],[-73.4781458,45.4134737],[-73.4782121,45.4134185],[-73.478265,45.413367],[-73.4783157,45.4133099],[-73.4783676,45.4132486],[-73.4784228,45.4131724],[-73.4784589,45.4131185],[-73.4787218,45.4127308],[-73.4787606,45.4126736],[-73.4788107,45.4126028],[-73.4788674,45.4125226]]}";2;Boulevard de La Magdeleine;1;50;false;true;true;false;false;false;355.0;0;2;0;0;0;false;75129;6133323357;-73.474882;45.414429;75206;6133323300;-73.479178;45.412264;0;8;9;9512399;Bus 122 : La Prairie - Montréal;"";EXO;122;boul. des Champs-Fleuris / ch. St-Jean;Terminus Centre-Ville - Métro Bonaventure
795837692;"{\"type\":\"LineString\",\"coordinates\":[[-73.4788674,45.4125226],[-73.4790184,45.4123048],[-73.4791429,45.4121166],[-73.4791572,45.4120964],[-73.4791729,45.4120767],[-73.4792456,45.4119988]]}";3;Boulevard de La Magdeleine;2;50;false;true;true;false;false;false;33.0;1;1;0;0;0;false;75129;6133323357;-73.474882;45.414429;75206;6133323300;-73.479178;45.412264;1;8;9;9512399;Bus 122 : La Prairie - Montréal;"";EXO;122;boul. des Champs-Fleuris / ch. St-Jean;Terminus Centre-Ville - Métro Bonaventure
795837692;"{\"type\":\"LineString\",\"coordinates\":[[-73.4788674,45.4125226],[-73.4790184,45.4123048],[-73.4791429,45.4121166],[-73.4791572,45.4120964],[-73.4791729,45.4120767],[-73.4792456,45.4119988]]}";1;Boulevard de La Magdeleine;2;50;false;true;true;false;false;false;33.0;1;1;0;0;0;false;75206;6133323300;-73.479178;45.412264;75131;6133323355;-73.482865;45.413765;1;9;10;9512399;Bus 122 : La Prairie - Montréal;"";EXO;122;boul. des Champs-Fleuris / ch. St-Jean;Terminus Centre-Ville - Métro Bonaventure
795838957;"{\"type\":\"LineString\",\"coordinates\":[[-73.4819048,45.4132315],[-73.4814503,45.4130213],[-73.4812455,45.4129265],[-73.4811564,45.4128852],[-73.4810241,45.4128238],[-73.4808283,45.412733],[-73.4805547,45.4126062],[-73.480413,45.4125405],[-73.4803269,45.4125006],[-73.4801912,45.4124377],[-73.4799797,45.4123396],[-73.4797846,45.4122492],[-73.4795913,45.4121596],[-73.4793463,45.412046],[-73.4793112,45.4120297],[-73.4792456,45.4119988]]}";2;Chemin de Saint-Jean;4;50;false;false;true;false;false;false;250.0;1;1;0;0;0;false;75206;6133323300;-73.479178;45.412264;75131;6133323355;-73.482865;45.413765;0;9;10;9512399;Bus 122 : La Prairie - Montréal;"";EXO;122;boul. des Champs-Fleuris / ch. St-Jean;Terminus Centre-Ville - Métro Bonaventure
795838955;"{\"type\":\"LineString\",\"coordinates\":[[-73.482826,45.4136594],[-73.4827491,45.4136239],[-73.4827311,45.4136156],[-73.4826768,45.4135903],[-73.4826232,45.4135654],[-73.4824777,45.4134978],[-73.4819048,45.4132315]]}";3;Chemin de Saint-Jean;4;50;false;false;true;false;false;false;87.0;1;2;0;0;0;false;75206;6133323300;-73.479178;45.412264;75131;6133323355;-73.482865;45.413765;0;9;10;9512399;Bus 122 : La Prairie - Montréal;"";EXO;122;boul. des Champs-Fleuris / ch. St-Jean;Terminus Centre-Ville - Métro Bonaventure
795838956;"{\"type\":\"LineString\",\"coordinates\":[[-73.4837909,45.4141242],[-73.483033,45.4137558],[-73.482826,45.4136594]]}";4;Chemin de Saint-Jean;4;50;false;false;true;false;false;false;46.0;1;0;0;0;0;false;75206;6133323300;-73.479178;45.412264;75131;6133323355;-73.482865;45.413765;1;9;10;9512399;Bus 122 : La Prairie - Montréal;"";EXO;122;boul. des Champs-Fleuris / ch. St-Jean;Terminus Centre-Ville - Métro Bonaventure
795838955;"{\"type\":\"LineString\",\"coordinates\":[[-73.482826,45.4136594],[-73.4827491,45.4136239],[-73.4827311,45.4136156],[-73.4826768,45.4135903],[-73.4826232,45.4135654],[-73.4824777,45.4134978],[-73.4819048,45.4132315]]}";1;Chemin de Saint-Jean;4;50;false;false;true;false;false;false;87.0;1;2;0;0;0;false;75131;6133323355;-73.482865;45.413765;75133;6133323353;-73.484935;45.414783;2;10;11;9512399;Bus 122 : La Prairie - Montréal;"";EXO;122;boul. des Champs-Fleuris / ch. St-Jean;Terminus Centre-Ville - Métro Bonaventure
795838956;"{\"type\":\"LineString\",\"coordinates\":[[-73.4837909,45.4141242],[-73.483033,45.4137558],[-73.482826,45.4136594]]}";2;Chemin de Saint-Jean;4;50;false;false;true;false;false;false;92.0;1;0;0;0;0;false;75131;6133323355;-73.482865;45.413765;75133;6133323353;-73.484935;45.414783;0;10;11;9512399;Bus 122 : La Prairie - Montréal;"";EXO;122;boul. des Champs-Fleuris / ch. St-Jean;Terminus Centre-Ville - Métro Bonaventure
685129133;"{\"type\":\"LineString\",\"coordinates\":[[-73.4852915,45.4148507],[-73.4851866,45.4148001],[-73.4850603,45.4147385],[-73.4850398,45.4147283],[-73.4847828,45.414604],[-73.4845173,45.4144756],[-73.4844168,45.414427],[-73.484265,45.4143548],[-73.4840787,45.4142661],[-73.4840392,45.4142466],[-73.4837909,45.4141242]]}";3;Chemin de Saint-Jean;4;50;false;false;true;false;false;false;143.0;1;1;0;0;0;false;75131;6133323355;-73.482865;45.413765;75133;6133323353;-73.484935;45.414783;2;10;11;9512399;Bus 122 : La Prairie - Montréal;"";EXO;122;boul. des Champs-Fleuris / ch. St-Jean;Terminus Centre-Ville - Métro Bonaventure
685129133;"{\"type\":\"LineString\",\"coordinates\":[[-73.4852915,45.4148507],[-73.4851866,45.4148001],[-73.4850603,45.4147385],[-73.4850398,45.4147283],[-73.4847828,45.414604],[-73.4845173,45.4144756],[-73.4844168,45.414427],[-73.484265,45.4143548],[-73.4840787,45.4142661],[-73.4840392,45.4142466],[-73.4837909,45.4141242]]}";1;Chemin de Saint-Jean;4;50;false;false;true;false;false;false;71.5;1;1;0;0;0;false;75133;6133323353;-73.484935;45.414783;75171;6133323325;-73.487765;45.416198;1;11;12;9512399;Bus 122 : La Prairie - Montréal;"";EXO;122;boul. des Champs-Fleuris / ch. St-Jean;Terminus Centre-Ville - Métro Bonaventure
795838958;"{\"type\":\"LineString\",\"coordinates\":[[-73.4861077,45.4152423],[-73.4857499,45.4150738],[-73.4855201,45.414964],[-73.4853987,45.4149038],[-73.4852915,45.4148507]]}";2;Chemin de Saint-Jean;4;50;false;false;true;false;false;false;78.0;1;1;0;0;0;false;75133;6133323353;-73.484935;45.414783;75171;6133323325;-73.487765;45.416198;0;11;12;9512399;Bus 122 : La Prairie - Montréal;"";EXO;122;boul. des Champs-Fleuris / ch. St-Jean;Terminus Centre-Ville - Métro Bonaventure
19883983;"{\"type\":\"LineString\",\"coordinates\":[[-73.4878538,45.4160644],[-73.4875266,45.4159093],[-73.4874684,45.4158823],[-73.4871968,45.4157562],[-73.4869262,45.4156273],[-73.4868684,45.4156006],[-73.4867836,45.4155607],[-73.4861077,45.4152423]]}";3;Chemin de Saint-Jean;4;50;false;false;true;false;false;false;165.0;0;2;0;0;0;false;75133;6133323353;-73.484935;45.414783;75171;6133323325;-73.487765;45.416198;0;11;12;9512399;Bus 122 : La Prairie - Montréal;"";EXO;122;boul. des Champs-Fleuris / ch. St-Jean;Terminus Centre-Ville - Métro Bonaventure
28238980;"{\"type\":\"LineString\",\"coordinates\":[[-73.4878538,45.4160644],[-73.4880439,45.41621],[-73.4881146,45.4162554],[-73.4882007,45.4163128],[-73.4882711,45.4163551],[-73.4883121,45.4163847],[-73.4883417,45.4164191],[-73.4883727,45.4164645],[-73.4883907,45.416514],[-73.4884001,45.4165655],[-73.4884011,45.4166158],[-73.4883954,45.416662],[-73.4883788,45.4167045],[-73.488342,45.4167681],[-73.4879985,45.4172603]]}";4;"";1;50;false;true;true;false;false;false;78.5;0;1;0;0;0;false;75133;6133323353;-73.484935;45.414783;75171;6133323325;-73.487765;45.416198;1;11;12;9512399;Bus 122 : La Prairie - Montréal;"";EXO;122;boul. des Champs-Fleuris / ch. St-Jean;Terminus Centre-Ville - Métro Bonaventure
19883983;"{\"type\":\"LineString\",\"coordinates\":[[-73.4878538,45.4160644],[-73.4875266,45.4159093],[-73.4874684,45.4158823],[-73.4871968,45.4157562],[-73.4869262,45.4156273],[-73.4868684,45.4156006],[-73.4867836,45.4155607],[-73.4861077,45.4152423]]}";1;Chemin de Saint-Jean;4;50;false;false;true;false;false;false;165.0;0;2;0;0;0;false;75171;6133323325;-73.487765;45.416198;75181;6133323319;-73.485604;45.420532;2;12;13;9512399;Bus 122 : La Prairie - Montréal;"";EXO;122;boul. des Champs-Fleuris / ch. St-Jean;Terminus Centre-Ville - Métro Bonaventure
28238980;"{\"type\":\"LineString\",\"coordinates\":[[-73.4878538,45.4160644],[-73.4880439,45.41621],[-73.4881146,45.4162554],[-73.4882007,45.4163128],[-73.4882711,45.4163551],[-73.4883121,45.4163847],[-73.4883417,45.4164191],[-73.4883727,45.4164645],[-73.4883907,45.416514],[-73.4884001,45.4165655],[-73.4884011,45.4166158],[-73.4883954,45.416662],[-73.4883788,45.4167045],[-73.488342,45.4167681],[-73.4879985,45.4172603]]}";2;"";1;50;false;true;true;false;false;false;157.0;0;1;0;0;0;false;75171;6133323325;-73.487765;45.416198;75181;6133323319;-73.485604;45.420532;0;12;13;9512399;Bus 122 : La Prairie - Montréal;"";EXO;122;boul. des Champs-Fleuris / ch. St-Jean;Terminus Centre-Ville - Métro Bonaventure
350371829;"{\"type\":\"LineString\",\"coordinates\":[[-73.4879985,45.4172603],[-73.4877318,45.4176118],[-73.4875597,45.4178507],[-73.4873863,45.4180915],[-73.4868078,45.4189549]]}";3;Boulevard Taschereau;3;50;false;true;true;false;false;false;211.0;0;0;0;0;0;false;75171;6133323325;-73.487765;45.416198;75181;6133323319;-73.485604;45.420532;0;12;13;9512399;Bus 122 : La Prairie - Montréal;"";EXO;122;boul. des Champs-Fleuris / ch. St-Jean;Terminus Centre-Ville - Métro Bonaventure
478233565;"{\"type\":\"LineString\",\"coordinates\":[[-73.4868078,45.4189549],[-73.4863444,45.4196545]]}";4;Boulevard Taschereau;3;50;false;true;true;false;false;false;86.0;0;0;0;0;0;false;75171;6133323325;-73.487765;45.416198;75181;6133323319;-73.485604;45.420532;0;12;13;9512399;Bus 122 : La Prairie - Montréal;"";EXO;122;boul. des Champs-Fleuris / ch. St-Jean;Terminus Centre-Ville - Métro Bonaventure
795243473;"{\"type\":\"LineString\",\"coordinates\":[[-73.4863444,45.4196545],[-73.4857294,45.4206014],[-73.4857169,45.42062],[-73.4856865,45.4206645]]}";5;Boulevard Taschereau;4;50;false;true;true;false;false;false;124.0;1;1;0;0;0;false;75171;6133323325;-73.487765;45.416198;75181;6133323319;-73.485604;45.420532;2;12;13;9512399;Bus 122 : La Prairie - Montréal;"";EXO;122;boul. des Champs-Fleuris / ch. St-Jean;Terminus Centre-Ville - Métro Bonaventure
681104231;"{\"type\":\"LineString\",\"coordinates\":[[-73.4856865,45.4206645],[-73.4856375,45.4207375]]}";1;Boulevard Taschereau;3;70;false;true;true;false;false;false;9.0;0;0;0;0;0;false;75181;6133323319;-73.485604;45.420532;75140;6133323347;-73.481053;45.426171;2;13;14;9512399;Bus 122 : La Prairie - Montréal;"";EXO;122;boul. des Champs-Fleuris / ch. St-Jean;Terminus Centre-Ville - Métro Bonaventure
793957977;"{\"type\":\"LineString\",\"coordinates\":[[-73.4856375,45.4207375],[-73.4825524,45.4254526]]}";2;Boulevard Taschereau;3;70;false;true;true;false;false;false;577.0;0;0;0;0;0;false;75181;6133323319;-73.485604;45.420532;75140;6133323347;-73.481053;45.426171;0;13;14;9512399;Bus 122 : La Prairie - Montréal;"";EXO;122;boul. des Champs-Fleuris / ch. St-Jean;Terminus Centre-Ville - Métro Bonaventure
795788183;"{\"type\":\"LineString\",\"coordinates\":[[-73.4825524,45.4254526],[-73.4824289,45.4255537],[-73.4822637,45.4257559],[-73.4822179,45.425806],[-73.4821886,45.4258345],[-73.4821072,45.4258769],[-73.4820478,45.4258994],[-73.4820047,45.4259103]]}";3;"";1;50;false;true;true;false;false;false;69.0;0;1;0;0;0;false;75181;6133323319;-73.485604;45.420532;75140;6133323347;-73.481053;45.426171;0;13;14;9512399;Bus 122 : La Prairie - Montréal;"";EXO;122;boul. des Champs-Fleuris / ch. St-Jean;Terminus Centre-Ville - Métro Bonaventure
784914821;"{\"type\":\"LineString\",\"coordinates\":[[-73.4820047,45.4259103],[-73.4819523,45.4259197],[-73.4818936,45.4259203],[-73.4818202,45.4259115],[-73.4817042,45.4258857]]}";4;"";1;50;false;true;true;false;false;false;25.0;0;1;0;0;0;false;75181;6133323319;-73.485604;45.420532;75140;6133323347;-73.481053;45.426171;0;13;14;9512399;Bus 122 : La Prairie - Montréal;"";EXO;122;boul. des Champs-Fleuris / ch. St-Jean;Terminus Centre-Ville - Métro Bonaventure
784908371;"{\"type\":\"LineString\",\"coordinates\":[[-73.4817042,45.4258857],[-73.4811571,45.4257067],[-73.4810372,45.4256675]]}";5;Avenue du Golf;2;50;false;true;true;false;false;false;58.0;0;0;1;0;0;false;75181;6133323319;-73.485604;45.420532;75140;6133323347;-73.481053;45.426171;0;13;14;9512399;Bus 122 : La Prairie - Montréal;"";EXO;122;boul. des Champs-Fleuris / ch. St-Jean;Terminus Centre-Ville - Métro Bonaventure
24262980;"{\"type\":\"LineString\",\"coordinates\":[[-73.4810372,45.4256675],[-73.480997,45.4257361]]}";6;"";2;50;false;false;true;false;true;false;9.0;0;0;0;0;0;false;75181;6133323319;-73.485604;45.420532;75140;6133323347;-73.481053;45.426171;0;13;14;9512399;Bus 122 : La Prairie - Montréal;"";EXO;122;boul. des Champs-Fleuris / ch. St-Jean;Terminus Centre-Ville - Métro Bonaventure
784908367;"{\"type\":\"LineString\",\"coordinates\":[[-73.480997,45.4257361],[-73.4809463,45.4258147],[-73.4808705,45.4259261],[-73.4808586,45.4259515],[-73.4808595,45.4259725],[-73.4808768,45.426001],[-73.4809072,45.4260255],[-73.4809417,45.4260433],[-73.4812639,45.4261534],[-73.4813112,45.4261641],[-73.4813493,45.4261674],[-73.4813912,45.4261595],[-73.4814235,45.4261424],[-73.4814474,45.4261216],[-73.4814672,45.4260993],[-73.4815293,45.4260122],[-73.481586,45.4259272]]}";7;"";1;50;false;true;true;false;true;false;108.0;0;0;1;0;0;false;75181;6133323319;-73.485604;45.420532;75140;6133323347;-73.481053;45.426171;2;13;14;9512399;Bus 122 : La Prairie - Montréal;"";EXO;122;boul. des Champs-Fleuris / ch. St-Jean;Terminus Centre-Ville - Métro Bonaventure
784908367;"{\"type\":\"LineString\",\"coordinates\":[[-73.480997,45.4257361],[-73.4809463,45.4258147],[-73.4808705,45.4259261],[-73.4808586,45.4259515],[-73.4808595,45.4259725],[-73.4808768,45.426001],[-73.4809072,45.4260255],[-73.4809417,45.4260433],[-73.4812639,45.4261534],[-73.4813112,45.4261641],[-73.4813493,45.4261674],[-73.4813912,45.4261595],[-73.4814235,45.4261424],[-73.4814474,45.4261216],[-73.4814672,45.4260993],[-73.4815293,45.4260122],[-73.481586,45.4259272]]}";1;"";1;50;false;true;true;false;true;false;54.0;0;0;1;0;0;false;75140;6133323347;-73.481053;45.426171;75018;6133324640;-73.465159;45.454858;1;14;15;9512399;Bus 122 : La Prairie - Montréal;"";EXO;122;boul. des Champs-Fleuris / ch. St-Jean;Terminus Centre-Ville - Métro Bonaventure
487216955;"{\"type\":\"LineString\",\"coordinates\":[[-73.481586,45.4259272],[-73.4817445,45.4259779]]}";2;"";2;50;false;true;true;false;false;false;14.0;0;0;0;0;0;false;75140;6133323347;-73.481053;45.426171;75018;6133324640;-73.465159;45.454858;0;14;15;9512399;Bus 122 : La Prairie - Montréal;"";EXO;122;boul. des Champs-Fleuris / ch. St-Jean;Terminus Centre-Ville - Métro Bonaventure
784908373;"{\"type\":\"LineString\",\"coordinates\":[[-73.4817445,45.4259779],[-73.4818222,45.4260578],[-73.4818254,45.4260621],[-73.4818438,45.4260869],[-73.4818617,45.4261199],[-73.4818801,45.4261587],[-73.4818869,45.4261928],[-73.4818889,45.4262287],[-73.4818893,45.4262737],[-73.4818847,45.4263007],[-73.4818718,45.4263346],[-73.4817263,45.4265628]]}";3;"";1;50;false;true;true;false;false;false;71.0;0;0;0;0;0;false;75140;6133323347;-73.481053;45.426171;75018;6133324640;-73.465159;45.454858;0;14;15;9512399;Bus 122 : La Prairie - Montréal;"";EXO;122;boul. des Champs-Fleuris / ch. St-Jean;Terminus Centre-Ville - Métro Bonaventure
794431104;"{\"type\":\"LineString\",\"coordinates\":[[-73.4817263,45.4265628],[-73.4816875,45.4266339],[-73.4810454,45.4276768],[-73.4806075,45.4284189]]}";4;"";1;70;false;true;true;false;false;false;224.0;0;0;0;0;0;false;75140;6133323347;-73.481053;45.426171;75018;6133324640;-73.465159;45.454858;0;14;15;9512399;Bus 122 : La Prairie - Montréal;"";EXO;122;boul. des Champs-Fleuris / ch. St-Jean;Terminus Centre-Ville - Métro Bonaventure
784916207;"{\"type\":\"LineString\",\"coordinates\":[[-73.4806075,45.4284189],[-73.4803398,45.4288233],[-73.4797507,45.42973],[-73.47932,45.4303922]]}";5;Boulevard Taschereau;3;70;false;true;true;false;false;false;242.0;0;0;0;0;0;false;75140;6133323347;-73.481053;45.426171;75018;6133324640;-73.465159;45.454858;0;14;15;9512399;Bus 122 : La Prairie - Montréal;"";EXO;122;boul. des Champs-Fleuris / ch. St-Jean;Terminus Centre-Ville - Métro Bonaventure
14335245;"{\"type\":\"LineString\",\"coordinates\":[[-73.47932,45.4303922],[-73.4791572,45.4306461]]}";6;Boulevard Taschereau;3;70;false;true;true;false;false;false;31.0;0;0;0;0;0;false;75140;6133323347;-73.481053;45.426171;75018;6133324640;-73.465159;45.454858;0;14;15;9512399;Bus 122 : La Prairie - Montréal;"";EXO;122;boul. des Champs-Fleuris / ch. St-Jean;Terminus Centre-Ville - Métro Bonaventure
501589435;"{\"type\":\"LineString\",\"coordinates\":[[-73.4791572,45.4306461],[-73.4789053,45.4310654]]}";7;Boulevard Taschereau;3;70;false;true;true;false;false;false;51.0;0;0;0;0;0;false;75140;6133323347;-73.481053;45.426171;75018;6133324640;-73.465159;45.454858;0;14;15;9512399;Bus 122 : La Prairie - Montréal;"";EXO;122;boul. des Champs-Fleuris / ch. St-Jean;Terminus Centre-Ville - Métro Bonaventure
784919819;"{\"type\":\"LineString\",\"coordinates\":[[-73.4789053,45.4310654],[-73.4786667,45.4314215],[-73.4786351,45.4314613],[-73.4785956,45.4315098]]}";8;Boulevard Taschereau;4;70;false;true;true;false;false;false;55.0;1;1;0;0;0;false;75140;6133323347;-73.481053;45.426171;75018;6133324640;-73.465159;45.454858;0;14;15;9512399;Bus 122 : La Prairie - Montréal;"";EXO;122;boul. des Champs-Fleuris / ch. St-Jean;Terminus Centre-Ville - Métro Bonaventure
501589433;"{\"type\":\"LineString\",\"coordinates\":[[-73.4785956,45.4315098],[-73.4785051,45.4316306]]}";9;Boulevard Taschereau;3;50;false;true;false;false;false;false;16.0;0;0;0;0;0;false;75140;6133323347;-73.481053;45.426171;75018;6133324640;-73.465159;45.454858;0;14;15;9512399;Bus 122 : La Prairie - Montréal;"";EXO;122;boul. des Champs-Fleuris / ch. St-Jean;Terminus Centre-Ville - Métro Bonaventure
4842153;"{\"type\":\"LineString\",\"coordinates\":[[-73.4785051,45.4316306],[-73.4784618,45.4316847],[-73.4777746,45.4326268],[-73.4771778,45.4335458]]}";10;Boulevard Taschereau;3;50;false;true;false;false;false;false;237.0;0;0;0;0;0;false;75140;6133323347;-73.481053;45.426171;75018;6133324640;-73.465159;45.454858;0;14;15;9512399;Bus 122 : La Prairie - Montréal;"";EXO;122;boul. des Champs-Fleuris / ch. St-Jean;Terminus Centre-Ville - Métro Bonaventure
749304850;"{\"type\":\"LineString\",\"coordinates\":[[-73.4771778,45.4335458],[-73.4767643,45.4342297]]}";11;Boulevard Taschereau;4;50;false;true;false;false;false;false;83.0;0;0;0;0;0;false;75140;6133323347;-73.481053;45.426171;75018;6133324640;-73.465159;45.454858;0;14;15;9512399;Bus 122 : La Prairie - Montréal;"";EXO;122;boul. des Champs-Fleuris / ch. St-Jean;Terminus Centre-Ville - Métro Bonaventure
34686325;"{\"type\":\"LineString\",\"coordinates\":[[-73.4767643,45.4342297],[-73.4765392,45.4345852],[-73.476519,45.4346169],[-73.4764768,45.4346688]]}";12;Boulevard Taschereau;4;50;false;true;false;false;false;false;54.0;1;0;0;0;0;false;75140;6133323347;-73.481053;45.426171;75018;6133324640;-73.465159;45.454858;0;14;15;9512399;Bus 122 : La Prairie - Montréal;"";EXO;122;boul. des Champs-Fleuris / ch. St-Jean;Terminus Centre-Ville - Métro Bonaventure
34686324;"{\"type\":\"LineString\",\"coordinates\":[[-73.4764768,45.4346688],[-73.4764069,45.4347588]]}";13;Boulevard Taschereau;4;50;false;true;false;false;false;false;12.0;0;0;0;0;0;false;75140;6133323347;-73.481053;45.426171;75018;6133324640;-73.465159;45.454858;0;14;15;9512399;Bus 122 : La Prairie - Montréal;"";EXO;122;boul. des Champs-Fleuris / ch. St-Jean;Terminus Centre-Ville - Métro Bonaventure
34686334;"{\"type\":\"LineString\",\"coordinates\":[[-73.4764069,45.4347588],[-73.4763693,45.4348084],[-73.4763469,45.434838],[-73.4761903,45.4350696]]}";14;Boulevard Taschereau;3;50;false;true;false;false;false;false;39.0;0;0;0;0;0;false;75140;6133323347;-73.481053;45.426171;75018;6133324640;-73.465159;45.454858;0;14;15;9512399;Bus 122 : La Prairie - Montréal;"";EXO;122;boul. des Champs-Fleuris / ch. St-Jean;Terminus Centre-Ville - Métro Bonaventure
34686335;"{\"type\":\"LineString\",\"coordinates\":[[-73.4761903,45.4350696],[-73.47598,45.4353934],[-73.4758265,45.4356297],[-73.4754073,45.4362953],[-73.4752532,45.4365404],[-73.4749906,45.4369541],[-73.4745683,45.4375988]]}";15;Boulevard Taschereau;3;70;false;true;false;false;false;false;309.0;0;0;0;0;0;false;75140;6133323347;-73.481053;45.426171;75018;6133324640;-73.465159;45.454858;0;14;15;9512399;Bus 122 : La Prairie - Montréal;"";EXO;122;boul. des Champs-Fleuris / ch. St-Jean;Terminus Centre-Ville - Métro Bonaventure
34686311;"{\"type\":\"LineString\",\"coordinates\":[[-73.4745683,45.4375988],[-73.4744588,45.4377765],[-73.4743486,45.4379511],[-73.4743119,45.4380089],[-73.4742159,45.4381261]]}";16;Boulevard Taschereau;1;70;false;true;false;false;false;false;65.0;1;0;0;0;0;false;75140;6133323347;-73.481053;45.426171;75018;6133324640;-73.465159;45.454858;0;14;15;9512399;Bus 122 : La Prairie - Montréal;"";EXO;122;boul. des Champs-Fleuris / ch. St-Jean;Terminus Centre-Ville - Métro Bonaventure
34686313;"{\"type\":\"LineString\",\"coordinates\":[[-73.4742159,45.4381261],[-73.4741701,45.4381846],[-73.4740064,45.4384431]]}";17;Boulevard Taschereau;1;70;false;true;false;false;false;false;39.0;0;0;0;0;0;false;75140;6133323347;-73.481053;45.426171;75018;6133324640;-73.465159;45.454858;0;14;15;9512399;Bus 122 : La Prairie - Montréal;"";EXO;122;boul. des Champs-Fleuris / ch. St-Jean;Terminus Centre-Ville - Métro Bonaventure
34686312;"{\"type\":\"LineString\",\"coordinates\":[[-73.4740064,45.4384431],[-73.4738263,45.4387226],[-73.4732746,45.4396403],[-73.473098,45.4400172],[-73.4729286,45.4404553],[-73.4728354,45.4407764],[-73.4727519,45.4411253],[-73.4726863,45.4415913],[-73.47264,45.4419699],[-73.4725329,45.4424989],[-73.4724892,45.4426492],[-73.4723648,45.4430121],[-73.4723311,45.443095],[-73.4721908,45.4434183],[-73.4720599,45.4436709],[-73.4715451,45.4444961],[-73.4711248,45.4451335],[-73.4709226,45.4454515],[-73.4707447,45.4457125],[-73.4706318,45.4459043],[-73.4703623,45.4463151],[-73.4702264,45.4465307]]}";18;Boulevard Taschereau;1;70;false;true;false;false;true;false;953.0;0;0;0;0;0;false;75140;6133323347;-73.481053;45.426171;75018;6133324640;-73.465159;45.454858;0;14;15;9512399;Bus 122 : La Prairie - Montréal;"";EXO;122;boul. des Champs-Fleuris / ch. St-Jean;Terminus Centre-Ville - Métro Bonaventure
34686269;"{\"type\":\"LineString\",\"coordinates\":[[-73.4702264,45.4465307],[-73.4700753,45.4467935]]}";19;Boulevard Taschereau;1;70;false;true;false;false;false;false;32.0;1;0;0;0;0;false;75140;6133323347;-73.481053;45.426171;75018;6133324640;-73.465159;45.454858;0;14;15;9512399;Bus 122 : La Prairie - Montréal;"";EXO;122;boul. des Champs-Fleuris / ch. St-Jean;Terminus Centre-Ville - Métro Bonaventure
782701629;"{\"type\":\"LineString\",\"coordinates\":[[-73.4700753,45.4467935],[-73.4700497,45.4468363],[-73.4700213,45.4468838]]}";20;Boulevard Taschereau;1;70;false;true;false;false;false;false;11.0;1;1;0;0;0;false;75140;6133323347;-73.481053;45.426171;75018;6133324640;-73.465159;45.454858;0;14;15;9512399;Bus 122 : La Prairie - Montréal;"";EXO;122;boul. des Champs-Fleuris / ch. St-Jean;Terminus Centre-Ville - Métro Bonaventure
34686268;"{\"type\":\"LineString\",\"coordinates\":[[-73.4700213,45.4468838],[-73.4699477,45.4469916]]}";21;Boulevard Taschereau;1;70;false;true;false;false;false;false;14.0;0;0;0;0;0;false;75140;6133323347;-73.481053;45.426171;75018;6133324640;-73.465159;45.454858;0;14;15;9512399;Bus 122 : La Prairie - Montréal;"";EXO;122;boul. des Champs-Fleuris / ch. St-Jean;Terminus Centre-Ville - Métro Bonaventure
34686267;"{\"type\":\"LineString\",\"coordinates\":[[-73.4699477,45.4469916],[-73.4699132,45.4470412],[-73.4697064,45.4473308]]}";22;Boulevard Taschereau;1;70;false;true;true;false;true;false;43.0;0;1;0;0;0;false;75140;6133323347;-73.481053;45.426171;75018;6133324640;-73.465159;45.454858;0;14;15;9512399;Bus 122 : La Prairie - Montréal;"";EXO;122;boul. des Champs-Fleuris / ch. St-Jean;Terminus Centre-Ville - Métro Bonaventure
34686272;"{\"type\":\"LineString\",\"coordinates\":[[-73.4697064,45.4473308],[-73.4696267,45.4474575],[-73.4695237,45.4476213],[-73.4688891,45.4486304],[-73.4686247,45.4490509],[-73.468515,45.4492254],[-73.4682497,45.4496473],[-73.4679724,45.4500884],[-73.467901,45.4502019],[-73.4677141,45.4504992],[-73.4668543,45.4518663],[-73.4666766,45.4521489],[-73.4664885,45.4524481],[-73.4664145,45.4525657],[-73.4662321,45.4528558],[-73.466213,45.4528877],[-73.4661482,45.4529959],[-73.4659617,45.4533071],[-73.4658805,45.4534754],[-73.4657654,45.4537141],[-73.4656901,45.4538737],[-73.4654735,45.4543325],[-73.4653603,45.4545721],[-73.4653394,45.4546164]]}";23;Boulevard Taschereau;1;50;false;true;true;false;true;false;879.0;0;0;0;0;0;false;75140;6133323347;-73.481053;45.426171;75018;6133324640;-73.465159;45.454858;0;14;15;9512399;Bus 122 : La Prairie - Montréal;"";EXO;122;boul. des Champs-Fleuris / ch. St-Jean;Terminus Centre-Ville - Métro Bonaventure
34686237;"{\"type\":\"LineString\",\"coordinates\":[[-73.4653394,45.4546164],[-73.4652435,45.4548959],[-73.4652292,45.4549375],[-73.4651831,45.4550214]]}";24;Boulevard Taschereau;1;50;false;true;true;false;false;false;23.5;1;0;0;0;0;false;75140;6133323347;-73.481053;45.426171;75018;6133324640;-73.465159;45.454858;1;14;15;9512399;Bus 122 : La Prairie - Montréal;"";EXO;122;boul. des Champs-Fleuris / ch. St-Jean;Terminus Centre-Ville - Métro Bonaventure
34686238;"{\"type\":\"LineString\",\"coordinates\":[[-73.4651831,45.4550214],[-73.4651291,45.455169]]}";1;Boulevard Taschereau;1;50;false;true;false;false;false;false;17.0;0;0;0;0;0;false;75018;6133324640;-73.465159;45.454858;75465;6133322817;-73.558503;45.49744;2;15;16;9512399;Bus 122 : La Prairie - Montréal;"";EXO;122;boul. des Champs-Fleuris / ch. St-Jean;Terminus Centre-Ville - Métro Bonaventure
34686232;"{\"type\":\"LineString\",\"coordinates\":[[-73.4651291,45.455169],[-73.465079,45.4553803],[-73.4650429,45.4555326]]}";2;Boulevard Taschereau;1;50;false;true;true;false;true;false;41.0;0;0;0;0;0;false;75018;6133324640;-73.465159;45.454858;75465;6133322817;-73.558503;45.49744;0;15;16;9512399;Bus 122 : La Prairie - Montréal;"";EXO;122;boul. des Champs-Fleuris / ch. St-Jean;Terminus Centre-Ville - Métro Bonaventure
34686233;"{\"type\":\"LineString\",\"coordinates\":[[-73.4650429,45.4555326],[-73.4650135,45.4558401],[-73.4649871,45.4561158],[-73.4649816,45.4561728],[-73.4649512,45.4564903],[-73.4649371,45.4566378],[-73.4648999,45.4570262],[-73.464903,45.4572789],[-73.4649097,45.4578168]]}";3;Boulevard Taschereau;1;70;false;true;true;false;true;false;255.0;0;0;0;0;0;false;75018;6133324640;-73.465159;45.454858;75465;6133322817;-73.558503;45.49744;0;15;16;9512399;Bus 122 : La Prairie - Montréal;"";EXO;122;boul. des Champs-Fleuris / ch. St-Jean;Terminus Centre-Ville - Métro Bonaventure
39505959;"{\"type\":\"LineString\",\"coordinates\":[[-73.4649097,45.4578168],[-73.4649158,45.4583036],[-73.4649254,45.4584231],[-73.4649669,45.4589404],[-73.464979,45.4591055],[-73.4649852,45.4591892]]}";4;Boulevard Taschereau;1;70;false;true;true;false;true;false;153.0;1;0;0;0;0;false;75018;6133324640;-73.465159;45.454858;75465;6133322817;-73.558503;45.49744;0;15;16;9512399;Bus 122 : La Prairie - Montréal;"";EXO;122;boul. des Champs-Fleuris / ch. St-Jean;Terminus Centre-Ville - Métro Bonaventure
39239298;"{\"type\":\"LineString\",\"coordinates\":[[-73.4649852,45.4591892],[-73.4649926,45.4592755]]}";5;Boulevard Taschereau;1;50;false;true;true;false;false;false;10.0;0;0;0;0;0;false;75018;6133324640;-73.465159;45.454858;75465;6133322817;-73.558503;45.49744;0;15;16;9512399;Bus 122 : La Prairie - Montréal;"";EXO;122;boul. des Champs-Fleuris / ch. St-Jean;Terminus Centre-Ville - Métro Bonaventure
34686190;"{\"type\":\"LineString\",\"coordinates\":[[-73.4649926,45.4592755],[-73.4650024,45.4593671],[-73.4650153,45.4595342],[-73.4650309,45.459736],[-73.4650562,45.4600631]]}";6;Boulevard Taschereau;1;50;false;true;true;false;false;false;88.0;0;0;0;0;0;false;75018;6133324640;-73.465159;45.454858;75465;6133322817;-73.558503;45.49744;0;15;16;9512399;Bus 122 : La Prairie - Montréal;"";EXO;122;boul. des Champs-Fleuris / ch. St-Jean;Terminus Centre-Ville - Métro Bonaventure
479473732;"{\"type\":\"LineString\",\"coordinates\":[[-73.4650562,45.4600631],[-73.4651333,45.4607822],[-73.4651549,45.4609837]]}";7;Boulevard Taschereau;1;50;false;true;true;false;false;false;103.0;0;0;0;0;0;false;75018;6133324640;-73.465159;45.454858;75465;6133322817;-73.558503;45.49744;0;15;16;9512399;Bus 122 : La Prairie - Montréal;"";EXO;122;boul. des Champs-Fleuris / ch. St-Jean;Terminus Centre-Ville - Métro Bonaventure
34686189;"{\"type\":\"LineString\",\"coordinates\":[[-73.4651549,45.4609837],[-73.4652166,45.4615798],[-73.4652432,45.4619075]]}";8;Boulevard Taschereau;1;50;false;true;false;false;false;false;103.0;0;0;0;0;0;false;75018;6133324640;-73.465159;45.454858;75465;6133322817;-73.558503;45.49744;0;15;16;9512399;Bus 122 : La Prairie - Montréal;"";EXO;122;boul. des Champs-Fleuris / ch. St-Jean;Terminus Centre-Ville - Métro Bonaventure
452415393;"{\"type\":\"LineString\",\"coordinates\":[[-73.4652432,45.4619075],[-73.4654805,45.4635341],[-73.465522,45.4637024],[-73.4655435,45.4637896]]}";9;Boulevard Taschereau;1;50;false;true;false;false;false;false;211.0;1;0;0;0;0;false;75018;6133324640;-73.465159;45.454858;75465;6133322817;-73.558503;45.49744;0;15;16;9512399;Bus 122 : La Prairie - Montréal;"";EXO;122;boul. des Champs-Fleuris / ch. St-Jean;Terminus Centre-Ville - Métro Bonaventure
39239394;"{\"type\":\"LineString\",\"coordinates\":[[-73.4655435,45.4637896],[-73.4655823,45.4639539],[-73.4656533,45.46418],[-73.4660166,45.4650769]]}";10;Boulevard Taschereau;1;50;false;true;false;false;true;false;148.0;0;0;0;0;0;false;75018;6133324640;-73.465159;45.454858;75465;6133322817;-73.558503;45.49744;0;15;16;9512399;Bus 122 : La Prairie - Montréal;"";EXO;122;boul. des Champs-Fleuris / ch. St-Jean;Terminus Centre-Ville - Métro Bonaventure
476012636;"{\"type\":\"LineString\",\"coordinates\":[[-73.4660166,45.4650769],[-73.4662107,45.4654681],[-73.4662619,45.4655763],[-73.4663131,45.4656845]]}";11;Boulevard Taschereau;1;50;false;true;false;false;true;false;72.0;1;0;0;0;0;false;75018;6133324640;-73.465159;45.454858;75465;6133322817;-73.558503;45.49744;0;15;16;9512399;Bus 122 : La Prairie - Montréal;"";EXO;122;boul. des Champs-Fleuris / ch. St-Jean;Terminus Centre-Ville - Métro Bonaventure
473778377;"{\"type\":\"LineString\",\"coordinates\":[[-73.4663131,45.4656845],[-73.4665181,45.4656358]]}";12;"";1;50;false;false;true;false;false;false;17.0;0;0;0;0;0;false;75018;6133324640;-73.465159;45.454858;75465;6133322817;-73.558503;45.49744;0;15;16;9512399;Bus 122 : La Prairie - Montréal;"";EXO;122;boul. des Champs-Fleuris / ch. St-Jean;Terminus Centre-Ville - Métro Bonaventure
476012634;"{\"type\":\"LineString\",\"coordinates\":[[-73.466996,45.4655796],[-73.4667315,45.4656026],[-73.4667003,45.4656075],[-73.4665181,45.4656358]]}";13;"";1;50;false;false;false;false;true;false;38.0;1;0;0;0;0;false;75018;6133324640;-73.465159;45.454858;75465;6133322817;-73.558503;45.49744;0;15;16;9512399;Bus 122 : La Prairie - Montréal;"";EXO;122;boul. des Champs-Fleuris / ch. St-Jean;Terminus Centre-Ville - Métro Bonaventure
37637927;"{\"type\":\"LineString\",\"coordinates\":[[-73.468025,45.4659377],[-73.4677887,45.4657888],[-73.4677335,45.4657546],[-73.4676442,45.4657151],[-73.4674983,45.4656589],[-73.4673546,45.4656184],[-73.4671835,45.4655895],[-73.466996,45.4655796]]}";14;"";1;50;false;false;false;false;true;false;93.0;0;0;0;0;0;false;75018;6133324640;-73.465159;45.454858;75465;6133322817;-73.558503;45.49744;0;15;16;9512399;Bus 122 : La Prairie - Montréal;"";EXO;122;boul. des Champs-Fleuris / ch. St-Jean;Terminus Centre-Ville - Métro Bonaventure
703233488;"{\"type\":\"LineString\",\"coordinates\":[[-73.4733357,45.4656186],[-73.4699508,45.4656907],[-73.4695234,45.4656998],[-73.4691508,45.4657186],[-73.4688021,45.4657429],[-73.4685139,45.465784],[-73.4682324,45.4658535],[-73.468025,45.4659377]]}";15;"";1;50;false;false;true;false;true;false;420.0;0;0;0;0;0;false;75018;6133324640;-73.465159;45.454858;75465;6133322817;-73.558503;45.49744;0;15;16;9512399;Bus 122 : La Prairie - Montréal;"";EXO;122;boul. des Champs-Fleuris / ch. St-Jean;Terminus Centre-Ville - Métro Bonaventure
684189916;"{\"type\":\"LineString\",\"coordinates\":[[-73.4733357,45.4656186],[-73.4735794,45.4655613],[-73.4739808,45.4655103],[-73.4741277,45.4654925],[-73.4747925,45.4654563],[-73.4752773,45.4654395],[-73.4757455,45.4654647],[-73.4762138,45.465479],[-73.4767771,45.4654808],[-73.4776483,45.4653783]]}";16;"";1;50;false;true;true;false;true;false;341.0;0;0;0;0;0;false;75018;6133324640;-73.465159;45.454858;75465;6133322817;-73.558503;45.49744;0;15;16;9512399;Bus 122 : La Prairie - Montréal;"";EXO;122;boul. des Champs-Fleuris / ch. St-Jean;Terminus Centre-Ville - Métro Bonaventure
596245859;"{\"type\":\"LineString\",\"coordinates\":[[-73.4776483,45.4653783],[-73.47817,45.4654129],[-73.4791657,45.4654646],[-73.480342,45.4655445],[-73.4815645,45.4656424],[-73.4827092,45.4657465],[-73.483758,45.4658456]]}";17;Autoroute des Cantons-de-l'Est;4;80;false;true;true;false;false;false;481.0;0;0;0;0;0;false;75018;6133324640;-73.465159;45.454858;75465;6133322817;-73.558503;45.49744;0;15;16;9512399;Bus 122 : La Prairie - Montréal;"";EXO;122;boul. des Champs-Fleuris / ch. St-Jean;Terminus Centre-Ville - Métro Bonaventure
646417290;"{\"type\":\"LineString\",\"coordinates\":[[-73.483758,45.4658456],[-73.4846623,45.465954],[-73.4856177,45.4660809],[-73.4868069,45.4662534],[-73.4886334,45.4665299]]}";18;Autoroute des Cantons-de-l'Est;4;80;false;true;true;false;false;false;389.0;0;0;0;0;0;false;75018;6133324640;-73.465159;45.454858;75465;6133322817;-73.558503;45.49744;0;15;16;9512399;Bus 122 : La Prairie - Montréal;"";EXO;122;boul. des Champs-Fleuris / ch. St-Jean;Terminus Centre-Ville - Métro Bonaventure
617688037;"{\"type\":\"LineString\",\"coordinates\":[[-73.4886334,45.4665299],[-73.491919,45.4669863]]}";19;Autoroute des Cantons-de-l'Est;6;80;false;true;true;false;false;false;262.0;0;0;0;0;0;false;75018;6133324640;-73.465159;45.454858;75465;6133322817;-73.558503;45.49744;0;15;16;9512399;Bus 122 : La Prairie - Montréal;"";EXO;122;boul. des Champs-Fleuris / ch. St-Jean;Terminus Centre-Ville - Métro Bonaventure
364775282;"{\"type\":\"LineString\",\"coordinates\":[[-73.491919,45.4669863],[-73.497579,45.4676639],[-73.4995142,45.4678849],[-73.5001974,45.4679687],[-73.5014831,45.4681109]]}";20;Pont Samuel-De Champlain;5;80;false;true;true;false;false;false;758.0;0;0;0;0;0;false;75018;6133324640;-73.465159;45.454858;75465;6133322817;-73.558503;45.49744;0;15;16;9512399;Bus 122 : La Prairie - Montréal;"";EXO;122;boul. des Champs-Fleuris / ch. St-Jean;Terminus Centre-Ville - Métro Bonaventure
646417311;"{\"type\":\"LineString\",\"coordinates\":[[-73.5014831,45.4681109],[-73.5036146,45.4683312],[-73.505462,45.4685268],[-73.5081765,45.4687976]]}";21;Pont Samuel-De Champlain;4;80;false;true;true;false;false;false;529.0;0;0;0;0;0;false;75018;6133324640;-73.465159;45.454858;75465;6133322817;-73.558503;45.49744;0;15;16;9512399;Bus 122 : La Prairie - Montréal;"";EXO;122;boul. des Champs-Fleuris / ch. St-Jean;Terminus Centre-Ville - Métro Bonaventure
646417301;"{\"type\":\"LineString\",\"coordinates\":[[-73.5081765,45.4687976],[-73.5111952,45.4690972],[-73.5143589,45.4694003],[-73.5158971,45.4695402],[-73.5174379,45.4696676],[-73.5194792,45.4698271],[-73.5215332,45.4699746],[-73.5230666,45.470065],[-73.5245937,45.4701407],[-73.5256081,45.4701821],[-73.5276458,45.4702711]]}";22;Pont Samuel-De Champlain;4;80;false;true;true;false;false;false;1531.0;0;0;0;0;0;false;75018;6133324640;-73.465159;45.454858;75465;6133322817;-73.558503;45.49744;0;15;16;9512399;Bus 122 : La Prairie - Montréal;"";EXO;122;boul. des Champs-Fleuris / ch. St-Jean;Terminus Centre-Ville - Métro Bonaventure
699232600;"{\"type\":\"LineString\",\"coordinates\":[[-73.5276458,45.4702711],[-73.5361031,45.4705109]]}";23;Pont Samuel-De Champlain;5;80;false;true;true;false;false;false;662.0;0;0;0;0;0;false;75018;6133324640;-73.465159;45.454858;75465;6133322817;-73.558503;45.49744;0;15;16;9512399;Bus 122 : La Prairie - Montréal;"";EXO;122;boul. des Champs-Fleuris / ch. St-Jean;Terminus Centre-Ville - Métro Bonaventure
618983689;"{\"type\":\"LineString\",\"coordinates\":[[-73.5361031,45.4705109],[-73.537834,45.4706479]]}";24;"";2;50;false;true;true;false;false;false;137.0;0;0;0;0;0;false;75018;6133324640;-73.465159;45.454858;75465;6133322817;-73.558503;45.49744;0;15;16;9512399;Bus 122 : La Prairie - Montréal;"";EXO;122;boul. des Champs-Fleuris / ch. St-Jean;Terminus Centre-Ville - Métro Bonaventure
708682533;"{\"type\":\"LineString\",\"coordinates\":[[-73.537834,45.4706479],[-73.5382399,45.4706632]]}";25;"";2;50;false;true;true;false;false;false;32.0;0;0;0;0;0;false;75018;6133324640;-73.465159;45.454858;75465;6133322817;-73.558503;45.49744;0;15;16;9512399;Bus 122 : La Prairie - Montréal;"";EXO;122;boul. des Champs-Fleuris / ch. St-Jean;Terminus Centre-Ville - Métro Bonaventure
708682534;"{\"type\":\"LineString\",\"coordinates\":[[-73.5382399,45.4706632],[-73.53861,45.4706745]]}";26;"";2;50;false;true;true;false;false;false;29.0;0;0;0;0;0;false;75018;6133324640;-73.465159;45.454858;75465;6133322817;-73.558503;45.49744;0;15;16;9512399;Bus 122 : La Prairie - Montréal;"";EXO;122;boul. des Champs-Fleuris / ch. St-Jean;Terminus Centre-Ville - Métro Bonaventure
699476192;"{\"type\":\"LineString\",\"coordinates\":[[-73.53861,45.4706745],[-73.540245,45.4707481]]}";27;"";3;50;false;true;true;false;false;false;129.0;0;0;0;0;0;false;75018;6133324640;-73.465159;45.454858;75465;6133322817;-73.558503;45.49744;0;15;16;9512399;Bus 122 : La Prairie - Montréal;"";EXO;122;boul. des Champs-Fleuris / ch. St-Jean;Terminus Centre-Ville - Métro Bonaventure
4911723;"{\"type\":\"LineString\",\"coordinates\":[[-73.540245,45.4707481],[-73.5413818,45.4707819],[-73.541687,45.4708086],[-73.5421974,45.4708972],[-73.5425927,45.4709912],[-73.5428191,45.4710549],[-73.5430474,45.4711662],[-73.5432392,45.4713045],[-73.5433403,45.4714236],[-73.5434425,45.4715858],[-73.5434739,45.4717038],[-73.5434936,45.4718177],[-73.5434907,45.4719627],[-73.5434133,45.4721827],[-73.5433131,45.4723575],[-73.5431627,45.4725929]]}";28;"";2;50;false;true;false;false;false;false;401.0;0;0;0;0;0;false;75018;6133324640;-73.465159;45.454858;75465;6133322817;-73.558503;45.49744;0;15;16;9512399;Bus 122 : La Prairie - Montréal;"";EXO;122;boul. des Champs-Fleuris / ch. St-Jean;Terminus Centre-Ville - Métro Bonaventure
43068384;"{\"type\":\"LineString\",\"coordinates\":[[-73.5431627,45.4725929],[-73.5429229,45.4729338]]}";29;Autoroute Bonaventure;1;70;false;true;true;false;false;false;43.0;0;0;0;0;0;false;75018;6133324640;-73.465159;45.454858;75465;6133322817;-73.558503;45.49744;0;15;16;9512399;Bus 122 : La Prairie - Montréal;"";EXO;122;boul. des Champs-Fleuris / ch. St-Jean;Terminus Centre-Ville - Métro Bonaventure
43068383;"{\"type\":\"LineString\",\"coordinates\":[[-73.5429229,45.4729338],[-73.5422527,45.4738691],[-73.5419446,45.4743215]]}";30;Autoroute Bonaventure;2;70;false;true;true;false;false;false;173.0;0;0;0;0;0;false;75018;6133324640;-73.465159;45.454858;75465;6133322817;-73.558503;45.49744;0;15;16;9512399;Bus 122 : La Prairie - Montréal;"";EXO;122;boul. des Champs-Fleuris / ch. St-Jean;Terminus Centre-Ville - Métro Bonaventure
39180620;"{\"type\":\"LineString\",\"coordinates\":[[-73.5419446,45.4743215],[-73.5412854,45.4754033],[-73.5406968,45.4764762],[-73.5402899,45.4772874]]}";31;Pont Clément Bridge;2;70;false;true;false;false;false;false;354.0;0;0;0;0;0;false;75018;6133324640;-73.465159;45.454858;75465;6133322817;-73.558503;45.49744;0;15;16;9512399;Bus 122 : La Prairie - Montréal;"";EXO;122;boul. des Champs-Fleuris / ch. St-Jean;Terminus Centre-Ville - Métro Bonaventure
39180619;"{\"type\":\"LineString\",\"coordinates\":[[-73.5402899,45.4772874],[-73.5401596,45.4775746],[-73.5398431,45.4782661],[-73.5396085,45.4788043],[-73.5391517,45.4800847],[-73.538966,45.4805967],[-73.5387176,45.4811907]]}";32;Autoroute Bonaventure Expressway;1;70;false;true;false;false;false;false;451.0;0;0;0;0;0;false;75018;6133324640;-73.465159;45.454858;75465;6133322817;-73.558503;45.49744;0;15;16;9512399;Bus 122 : La Prairie - Montréal;"";EXO;122;boul. des Champs-Fleuris / ch. St-Jean;Terminus Centre-Ville - Métro Bonaventure
714073116;"{\"type\":\"LineString\",\"coordinates\":[[-73.5387176,45.4811907],[-73.5385292,45.4817377],[-73.538315,45.4823852],[-73.5379744,45.483343],[-73.5376418,45.4842992],[-73.5375961,45.4844398],[-73.5375533,45.4845924],[-73.5375181,45.4847637],[-73.5374955,45.4849505],[-73.5374873,45.4851355],[-73.5374945,45.4853045],[-73.5375079,45.4854602],[-73.5375393,45.4856318],[-73.5375752,45.4857888],[-73.5376211,45.4859471],[-73.5376808,45.4861113],[-73.5377538,45.4862759],[-73.5378288,45.4864202],[-73.5379137,45.486573],[-73.5380355,45.4867414],[-73.538156,45.4869012],[-73.5382864,45.4870512],[-73.538423,45.4871906],[-73.5385739,45.487331],[-73.5387469,45.4874765],[-73.5389268,45.4876091]]}";33;Autoroute Bonaventure Expressway;1;70;false;true;false;false;false;false;754.0;0;0;0;0;0;false;75018;6133324640;-73.465159;45.454858;75465;6133322817;-73.558503;45.49744;0;15;16;9512399;Bus 122 : La Prairie - Montréal;"";EXO;122;boul. des Champs-Fleuris / ch. St-Jean;Terminus Centre-Ville - Métro Bonaventure
714073115;"{\"type\":\"LineString\",\"coordinates\":[[-73.5389268,45.4876091],[-73.5390986,45.4877303],[-73.5392782,45.4878453],[-73.5394616,45.4879535],[-73.5396667,45.4880603],[-73.5398542,45.4881491],[-73.5400801,45.4882391],[-73.5402768,45.4883083],[-73.5404739,45.4883721],[-73.540669,45.4884272],[-73.5408867,45.4884816],[-73.5411043,45.4885267],[-73.5417485,45.4886541]]}";34;Autoroute Bonaventure Expressway;3;70;false;true;false;false;false;false;254.0;0;0;0;0;0;false;75018;6133324640;-73.465159;45.454858;75465;6133322817;-73.558503;45.49744;0;15;16;9512399;Bus 122 : La Prairie - Montréal;"";EXO;122;boul. des Champs-Fleuris / ch. St-Jean;Terminus Centre-Ville - Métro Bonaventure
385754251;"{\"type\":\"LineString\",\"coordinates\":[[-73.5417485,45.4886541],[-73.5419436,45.4886927]]}";35;Autoroute Bonaventure Expressway;3;70;false;true;false;false;false;false;16.0;0;0;0;0;0;false;75018;6133324640;-73.465159;45.454858;75465;6133322817;-73.558503;45.49744;0;15;16;9512399;Bus 122 : La Prairie - Montréal;"";EXO;122;boul. des Champs-Fleuris / ch. St-Jean;Terminus Centre-Ville - Métro Bonaventure
385754248;"{\"type\":\"LineString\",\"coordinates\":[[-73.5419436,45.4886927],[-73.5426767,45.4888376]]}";36;Autoroute Bonaventure Expressway;3;70;false;true;false;false;false;false;60.0;0;0;0;0;0;false;75018;6133324640;-73.465159;45.454858;75465;6133322817;-73.558503;45.49744;0;15;16;9512399;Bus 122 : La Prairie - Montréal;"";EXO;122;boul. des Champs-Fleuris / ch. St-Jean;Terminus Centre-Ville - Métro Bonaventure
353126989;"{\"type\":\"LineString\",\"coordinates\":[[-73.5426767,45.4888376],[-73.5462164,45.4895105]]}";37;Autoroute Bonaventure Expressway;3;70;false;true;false;false;false;false;287.0;0;0;0;0;0;false;75018;6133324640;-73.465159;45.454858;75465;6133322817;-73.558503;45.49744;0;15;16;9512399;Bus 122 : La Prairie - Montréal;"";EXO;122;boul. des Champs-Fleuris / ch. St-Jean;Terminus Centre-Ville - Métro Bonaventure
707195316;"{\"type\":\"LineString\",\"coordinates\":[[-73.5462164,45.4895105],[-73.5489756,45.4900306],[-73.5492538,45.4900843],[-73.5495285,45.4901432],[-73.5497816,45.4902043],[-73.5500349,45.4902694],[-73.5502567,45.4903348],[-73.5504441,45.490394],[-73.5506449,45.4904701],[-73.5508953,45.4905713],[-73.5511366,45.4906783],[-73.5513586,45.490785],[-73.5515595,45.490892],[-73.5517478,45.4909978],[-73.5519127,45.4911001],[-73.5520672,45.4912015],[-73.5522091,45.4912998],[-73.5523539,45.4914092],[-73.5525276,45.4915518],[-73.5526944,45.4917018],[-73.552832,45.4918401],[-73.5529608,45.4919816],[-73.5530889,45.4921305],[-73.5532079,45.4922828],[-73.5533215,45.4924456],[-73.5534193,45.4925961],[-73.5535088,45.4927419],[-73.5535989,45.4929094],[-73.5536783,45.4930774],[-73.5537808,45.4933075]]}";38;Autoroute Bonaventure Expressway;3;70;false;true;false;false;false;false;774.0;0;0;0;0;0;false;75018;6133324640;-73.465159;45.454858;75465;6133322817;-73.558503;45.49744;0;15;16;9512399;Bus 122 : La Prairie - Montréal;"";EXO;122;boul. des Champs-Fleuris / ch. St-Jean;Terminus Centre-Ville - Métro Bonaventure
361495433;"{\"type\":\"LineString\",\"coordinates\":[[-73.5537808,45.4933075],[-73.5539118,45.4936659],[-73.5540357,45.4940085],[-73.5544098,45.4949608],[-73.554558,45.4953022],[-73.5546448,45.4954662],[-73.5547355,45.4956087],[-73.5549538,45.4958246],[-73.5552225,45.4960209]]}";39;Autoroute Bonaventure;3;70;false;true;false;false;false;false;327.0;0;0;0;0;0;false;75018;6133324640;-73.465159;45.454858;75465;6133322817;-73.558503;45.49744;0;15;16;9512399;Bus 122 : La Prairie - Montréal;"";EXO;122;boul. des Champs-Fleuris / ch. St-Jean;Terminus Centre-Ville - Métro Bonaventure
731030660;"{\"type\":\"LineString\",\"coordinates\":[[-73.5552225,45.4960209],[-73.5555054,45.4961565],[-73.5556671,45.4962174]]}";40;Autoroute Bonaventure;3;70;false;true;false;false;false;false;42.0;1;0;0;0;0;false;75018;6133324640;-73.465159;45.454858;75465;6133322817;-73.558503;45.49744;0;15;16;9512399;Bus 122 : La Prairie - Montréal;"";EXO;122;boul. des Champs-Fleuris / ch. St-Jean;Terminus Centre-Ville - Métro Bonaventure
354710813;"{\"type\":\"LineString\",\"coordinates\":[[-73.5556671,45.4962174],[-73.5572645,45.496815],[-73.5587554,45.4973796],[-73.5596678,45.4977972]]}";41;Boulevard Robert-Bourassa;4;50;false;true;true;false;false;false;359.0;4;0;0;0;0;false;75018;6133324640;-73.465159;45.454858;75465;6133322817;-73.558503;45.49744;2;15;16;9512399;Bus 122 : La Prairie - Montréal;"";EXO;122;boul. des Champs-Fleuris / ch. St-Jean;Terminus Centre-Ville - Métro Bonaventure
354710813;"{\"type\":\"LineString\",\"coordinates\":[[-73.5556671,45.4962174],[-73.5572645,45.496815],[-73.5587554,45.4973796],[-73.5596678,45.4977972]]}";1;Boulevard Robert-Bourassa;4;50;false;true;true;false;false;false;179.5;4;0;0;0;0;false;75465;6133322817;-73.558503;45.49744;75261;6133323061;-73.565898;45.498295;1;16;17;9512399;Bus 122 : La Prairie - Montréal;"";EXO;122;boul. des Champs-Fleuris / ch. St-Jean;Terminus Centre-Ville - Métro Bonaventure
428978766;"{\"type\":\"LineString\",\"coordinates\":[[-73.5596678,45.4977972],[-73.5605507,45.4982539],[-73.5609011,45.4984149],[-73.5611605,45.4985326],[-73.5612381,45.4985678]]}";2;Boulevard Robert-Bourassa;4;50;false;true;true;false;false;false;150.0;2;1;0;0;0;false;75465;6133322817;-73.558503;45.49744;75261;6133323061;-73.565898;45.498295;0;16;17;9512399;Bus 122 : La Prairie - Montréal;"";EXO;122;boul. des Champs-Fleuris / ch. St-Jean;Terminus Centre-Ville - Métro Bonaventure
385754231;"{\"type\":\"LineString\",\"coordinates\":[[-73.5612381,45.4985678],[-73.561372,45.4986173],[-73.5615648,45.4986882],[-73.562215,45.4989662],[-73.5625386,45.4991131]]}";3;Boulevard Robert-Bourassa;4;50;false;true;true;false;false;false;119.0;2;1;0;0;0;false;75465;6133322817;-73.558503;45.49744;75261;6133323061;-73.565898;45.498295;0;16;17;9512399;Bus 122 : La Prairie - Montréal;"";EXO;122;boul. des Champs-Fleuris / ch. St-Jean;Terminus Centre-Ville - Métro Bonaventure
456321033;"{\"type\":\"LineString\",\"coordinates\":[[-73.5626665,45.4990006],[-73.5625386,45.4991131]]}";4;Rue Saint-Jacques;1;50;false;false;true;false;false;false;16.0;2;0;0;0;0;false;75465;6133322817;-73.558503;45.49744;75261;6133323061;-73.565898;45.498295;0;16;17;9512399;Bus 122 : La Prairie - Montréal;"";EXO;122;boul. des Champs-Fleuris / ch. St-Jean;Terminus Centre-Ville - Métro Bonaventure
356391598;"{\"type\":\"LineString\",\"coordinates\":[[-73.5635809,45.49803],[-73.5633031,45.4983271],[-73.5630598,45.4985874],[-73.5626665,45.4990006]]}";5;Rue Saint-Jacques;1;50;false;false;true;false;false;false;130.0;1;0;0;0;0;false;75465;6133322817;-73.558503;45.49744;75261;6133323061;-73.565898;45.498295;0;16;17;9512399;Bus 122 : La Prairie - Montréal;"";EXO;122;boul. des Champs-Fleuris / ch. St-Jean;Terminus Centre-Ville - Métro Bonaventure
464718640;"{\"type\":\"LineString\",\"coordinates\":[[-73.5639561,45.4976287],[-73.5635809,45.49803]]}";6;Rue Saint-Jacques;1;50;false;false;true;false;false;false;54.0;1;0;0;0;0;false;75465;6133322817;-73.558503;45.49744;75261;6133323061;-73.565898;45.498295;0;16;17;9512399;Bus 122 : La Prairie - Montréal;"";EXO;122;boul. des Champs-Fleuris / ch. St-Jean;Terminus Centre-Ville - Métro Bonaventure
674290279;"{\"type\":\"LineString\",\"coordinates\":[[-73.5639561,45.4976287],[-73.5651977,45.4982305]]}";7;Rue Mansfield;1;50;false;true;true;false;false;false;118.0;2;0;0;0;0;false;75465;6133322817;-73.558503;45.49744;75261;6133323061;-73.565898;45.498295;0;16;17;9512399;Bus 122 : La Prairie - Montréal;"";EXO;122;boul. des Champs-Fleuris / ch. St-Jean;Terminus Centre-Ville - Métro Bonaventure
685460902;"{\"type\":\"LineString\",\"coordinates\":[[-73.5651977,45.4982305],[-73.565441,45.4983539]]}";8;Rue Mansfield;1;50;false;true;true;false;false;false;24.0;1;0;0;0;0;false;75465;6133322817;-73.558503;45.49744;75261;6133323061;-73.565898;45.498295;0;16;17;9512399;Bus 122 : La Prairie - Montréal;"";EXO;122;boul. des Champs-Fleuris / ch. St-Jean;Terminus Centre-Ville - Métro Bonaventure
114875718;"{\"type\":\"LineString\",\"coordinates\":[[-73.565441,45.4983539],[-73.5655343,45.4983086]]}";9;"";1;50;false;true;true;false;true;false;9.0;0;0;0;0;0;false;75465;6133322817;-73.558503;45.49744;75261;6133323061;-73.565898;45.498295;0;16;17;9512399;Bus 122 : La Prairie - Montréal;"";EXO;122;boul. des Champs-Fleuris / ch. St-Jean;Terminus Centre-Ville - Métro Bonaventure
685460901;"{\"type\":\"LineString\",\"coordinates\":[[-73.5655343,45.4983086],[-73.5656361,45.4982765],[-73.5657572,45.4981627]]}";10;"";1;50;false;true;true;false;true;false;25.0;0;0;0;0;0;false;75465;6133322817;-73.558503;45.49744;75261;6133323061;-73.565898;45.498295;1;16;17;9512399;Bus 122 : La Prairie - Montréal;"";EXO;122;boul. des Champs-Fleuris / ch. St-Jean;Terminus Centre-Ville - Métro Bonaventure
