way_id;shape;index;name;nb_lanes;legal_speed;speed_zone_30;oneway;shares_bike;bike_box;bus_lane;dedicated_bus_lane;length;nb_traffic_signals;nb_crossings;nb_stops;nb_give_ways;nb_lvl_crossings;roundabout;stop_id_orig;node_id_orig;coord_x_orig;coord_y_orig;stop_id_dest;node_id_dest;coord_x_dest;coord_y_dest;nb_neighbouring_ways_bus_stop;ordre_orig;ordre_dest;id_line;line_name;colour;operator;ref;from;to
686611408;"{\"type\":\"LineString\",\"coordinates\":[[-73.6360043,45.6875023],[-73.6360051,45.6874771],[-73.6360024,45.6873759],[-73.6360001,45.687283]]}";1;"";1;50;false;false;true;false;false;false;25.0;0;0;0;0;0;false;"49052;49022;42379;49074";6269506458;-73.63605;45.6875;42378;6269506887;-73.63275;45.687711;1;0;1;9312799;Bus : 22 O - Direction Métro Cartier;"";STL;22O;Terminus Contant;Métro Cartier Quai:2
686611409;"{\"type\":\"LineString\",\"coordinates\":[[-73.6349389,45.6873356],[-73.6352833,45.6873335],[-73.6356819,45.6873105],[-73.6358712,45.6872976],[-73.6360001,45.687283]]}";2;Boulevard des Mille-Îles;1;50;false;false;true;false;false;false;83.0;0;0;0;0;0;false;"49052;49022;42379;49074";6269506458;-73.63605;45.6875;42378;6269506887;-73.63275;45.687711;0;0;1;9312799;Bus : 22 O - Direction Métro Cartier;"";STL;22O;Terminus Contant;Métro Cartier Quai:2
678635366;"{\"type\":\"LineString\",\"coordinates\":[[-73.6287626,45.6882014],[-73.6297303,45.688241],[-73.6304644,45.6881948],[-73.6310643,45.6881313],[-73.6315143,45.6880679],[-73.6341706,45.6873624],[-73.634341,45.6873432],[-73.6347999,45.6873365],[-73.6349389,45.6873356]]}";3;Boulevard des Mille-Îles;1;50;false;false;true;false;false;false;248.5;0;0;1;0;0;false;"49052;49022;42379;49074";6269506458;-73.63605;45.6875;42378;6269506887;-73.63275;45.687711;1;0;1;9312799;Bus : 22 O - Direction Métro Cartier;"";STL;22O;Terminus Contant;Métro Cartier Quai:2
678635366;"{\"type\":\"LineString\",\"coordinates\":[[-73.6287626,45.6882014],[-73.6297303,45.688241],[-73.6304644,45.6881948],[-73.6310643,45.6881313],[-73.6315143,45.6880679],[-73.6341706,45.6873624],[-73.634341,45.6873432],[-73.6347999,45.6873365],[-73.6349389,45.6873356]]}";1;Boulevard des Mille-Îles;1;50;false;false;true;false;false;false;248.5;0;0;1;0;0;false;42378;6269506887;-73.63275;45.687711;42224;6269506889;-73.62841;45.687689;1;1;2;9312799;Bus : 22 O - Direction Métro Cartier;"";STL;22O;Terminus Contant;Métro Cartier Quai:2
32823318;"{\"type\":\"LineString\",\"coordinates\":[[-73.6287626,45.6882014],[-73.6285486,45.6879274],[-73.6274817,45.6870213],[-73.6271851,45.686716],[-73.6270126,45.6864758],[-73.6269246,45.6861869],[-73.6268895,45.6857727],[-73.6268939,45.6851474],[-73.6269191,45.6838214],[-73.62696,45.68297],[-73.6269741,45.68243],[-73.6270031,45.6813213],[-73.6270632,45.6798029],[-73.6271342,45.6784716],[-73.6271459,45.6782163]]}";2;Montée Masson;1;50;false;false;false;false;false;false;577.5;0;0;1;0;0;false;42378;6269506887;-73.63275;45.687711;42224;6269506889;-73.62841;45.687689;1;1;2;9312799;Bus : 22 O - Direction Métro Cartier;"";STL;22O;Terminus Contant;Métro Cartier Quai:2
32823318;"{\"type\":\"LineString\",\"coordinates\":[[-73.6287626,45.6882014],[-73.6285486,45.6879274],[-73.6274817,45.6870213],[-73.6271851,45.686716],[-73.6270126,45.6864758],[-73.6269246,45.6861869],[-73.6268895,45.6857727],[-73.6268939,45.6851474],[-73.6269191,45.6838214],[-73.62696,45.68297],[-73.6269741,45.68243],[-73.6270031,45.6813213],[-73.6270632,45.6798029],[-73.6271342,45.6784716],[-73.6271459,45.6782163]]}";1;Montée Masson;1;50;false;false;false;false;false;false;577.5;0;0;1;0;0;false;42216;6269506947;-73.62722;45.678575;42213;6269506969;-73.62737;45.675929;1;7;8;9312799;Bus : 22 O - Direction Métro Cartier;"";STL;22O;Terminus Contant;Métro Cartier Quai:2
415105727;"{\"type\":\"LineString\",\"coordinates\":[[-73.6271459,45.6782163],[-73.6272692,45.6755352],[-73.627331,45.6751526],[-73.6279496,45.6733979],[-73.6287144,45.6716049],[-73.6292944,45.6703839],[-73.6295576,45.6699506],[-73.6299347,45.6694293],[-73.6325947,45.6667588],[-73.6348087,45.6645791],[-73.6361821,45.663236],[-73.6368068,45.662625],[-73.6379156,45.6615769],[-73.6393637,45.6601645],[-73.64022,45.659339],[-73.6404773,45.659091],[-73.6405836,45.6589691]]}";2;Montée Masson;1;60;false;false;true;false;false;false;1218.5;0;0;0;0;0;false;42216;6269506947;-73.62722;45.678575;42213;6269506969;-73.62737;45.675929;1;7;8;9312799;Bus : 22 O - Direction Métro Cartier;"";STL;22O;Terminus Contant;Métro Cartier Quai:2
415105727;"{\"type\":\"LineString\",\"coordinates\":[[-73.6271459,45.6782163],[-73.6272692,45.6755352],[-73.627331,45.6751526],[-73.6279496,45.6733979],[-73.6287144,45.6716049],[-73.6292944,45.6703839],[-73.6295576,45.6699506],[-73.6299347,45.6694293],[-73.6325947,45.6667588],[-73.6348087,45.6645791],[-73.6361821,45.663236],[-73.6368068,45.662625],[-73.6379156,45.6615769],[-73.6393637,45.6601645],[-73.64022,45.659339],[-73.6404773,45.659091],[-73.6405836,45.6589691]]}";1;Montée Masson;1;60;false;false;true;false;false;false;1218.5;0;0;0;0;0;false;42202;6269507265;-73.64019;45.659492;46400;6269507281;-73.64386;45.652474;1;14;15;9312799;Bus : 22 O - Direction Métro Cartier;"";STL;22O;Terminus Contant;Métro Cartier Quai:2
729405274;"{\"type\":\"LineString\",\"coordinates\":[[-73.6405836,45.6589691],[-73.6407379,45.6588296],[-73.6407974,45.6587054],[-73.6408367,45.6585609],[-73.6408361,45.6584314],[-73.6408127,45.6583048],[-73.6407539,45.6581804],[-73.6406644,45.6580557],[-73.6404923,45.6579091],[-73.640221,45.6577103],[-73.6401015,45.657625]]}";2;Montée Masson;1;60;false;true;true;false;false;false;175.0;0;0;0;0;0;false;42202;6269507265;-73.64019;45.659492;46400;6269507281;-73.64386;45.652474;0;14;15;9312799;Bus : 22 O - Direction Métro Cartier;"";STL;22O;Terminus Contant;Métro Cartier Quai:2
771964817;"{\"type\":\"LineString\",\"coordinates\":[[-73.6401015,45.657625],[-73.6393778,45.6570772],[-73.6392585,45.6569869]]}";3;Montée Masson;2;60;false;true;true;false;false;false;97.0;1;0;0;0;0;false;42202;6269507265;-73.64019;45.659492;46400;6269507281;-73.64386;45.652474;0;14;15;9312799;Bus : 22 O - Direction Métro Cartier;"";STL;22O;Terminus Contant;Métro Cartier Quai:2
771964806;"{\"type\":\"LineString\",\"coordinates\":[[-73.6392585,45.6569869],[-73.6398246,45.6567831],[-73.6409865,45.6563297],[-73.6412792,45.6562042],[-73.6414183,45.6561363],[-73.6416913,45.6559901],[-73.6419585,45.6558279],[-73.6422126,45.655649],[-73.6423937,45.6555009],[-73.6424546,45.6554534],[-73.6426759,45.6552435],[-73.6428781,45.6550234],[-73.6429729,45.6549099],[-73.6431434,45.6546737],[-73.6432904,45.6544276],[-73.6434095,45.654175],[-73.6434904,45.6539246],[-73.6435777,45.6535637],[-73.6436748,45.6530603],[-73.6437048,45.6529081]]}";4;Montée Masson;2;50;false;true;true;false;false;false;608.0;2;0;0;0;0;false;42202;6269507265;-73.64019;45.659492;46400;6269507281;-73.64386;45.652474;0;14;15;9312799;Bus : 22 O - Direction Métro Cartier;"";STL;22O;Terminus Contant;Métro Cartier Quai:2
326316602;"{\"type\":\"LineString\",\"coordinates\":[[-73.6437048,45.6529081],[-73.6437171,45.6528327],[-73.6437544,45.652649]]}";5;Montée Masson;1;50;false;true;true;false;false;false;30.0;2;0;0;0;0;false;42202;6269507265;-73.64019;45.659492;46400;6269507281;-73.64386;45.652474;0;14;15;9312799;Bus : 22 O - Direction Métro Cartier;"";STL;22O;Terminus Contant;Métro Cartier Quai:2
125249336;"{\"type\":\"LineString\",\"coordinates\":[[-73.6437544,45.652649],[-73.6439686,45.6515406],[-73.6440289,45.6511441],[-73.6440712,45.6507504],[-73.6440886,45.6504871],[-73.6440912,45.6499606],[-73.6440288,45.649194],[-73.6439717,45.6488229],[-73.6438988,45.6484673],[-73.6438357,45.648211],[-73.6437535,45.6479671],[-73.6436709,45.6476437]]}";6;Montée Masson;1;50;false;true;true;false;false;false;280.0;0;0;0;0;0;false;42202;6269507265;-73.64019;45.659492;46400;6269507281;-73.64386;45.652474;1;14;15;9312799;Bus : 22 O - Direction Métro Cartier;"";STL;22O;Terminus Contant;Métro Cartier Quai:2
125249336;"{\"type\":\"LineString\",\"coordinates\":[[-73.6437544,45.652649],[-73.6439686,45.6515406],[-73.6440289,45.6511441],[-73.6440712,45.6507504],[-73.6440886,45.6504871],[-73.6440912,45.6499606],[-73.6440288,45.649194],[-73.6439717,45.6488229],[-73.6438988,45.6484673],[-73.6438357,45.648211],[-73.6437535,45.6479671],[-73.6436709,45.6476437]]}";1;Montée Masson;1;50;false;true;true;false;false;false;280.0;0;0;0;0;0;false;46400;6269507281;-73.64386;45.652474;42199;6269507404;-73.64364;45.647083;1;15;16;9312799;Bus : 22 O - Direction Métro Cartier;"";STL;22O;Terminus Contant;Métro Cartier Quai:2
473775308;"{\"type\":\"LineString\",\"coordinates\":[[-73.6436709,45.6476437],[-73.6435727,45.6472591],[-73.6435066,45.6470302]]}";2;Montée Masson;1;50;false;true;true;false;false;false;35.0;1;0;0;0;0;false;46400;6269507281;-73.64386;45.652474;42199;6269507404;-73.64364;45.647083;1;15;16;9312799;Bus : 22 O - Direction Métro Cartier;"";STL;22O;Terminus Contant;Métro Cartier Quai:2
473775309;"{\"type\":\"LineString\",\"coordinates\":[[-73.6435066,45.6470302],[-73.643482,45.6469403]]}";1;Montée Masson;1;50;false;true;true;false;false;false;11.0;2;0;0;0;0;false;42199;6269507404;-73.64364;45.647083;42196;6269507416;-73.64308;45.645299;2;16;17;9312799;Bus : 22 O - Direction Métro Cartier;"";STL;22O;Terminus Contant;Métro Cartier Quai:2
352335624;"{\"type\":\"LineString\",\"coordinates\":[[-73.643482,45.6469403],[-73.6432486,45.6462386],[-73.6431665,45.6461309]]}";2;Montée Masson;1;60;false;true;true;false;false;false;94.0;1;0;0;0;0;false;42199;6269507404;-73.64364;45.647083;42196;6269507416;-73.64308;45.645299;0;16;17;9312799;Bus : 22 O - Direction Métro Cartier;"";STL;22O;Terminus Contant;Métro Cartier Quai:2
687115796;"{\"type\":\"LineString\",\"coordinates\":[[-73.6431665,45.6461309],[-73.6431012,45.6458436],[-73.6429931,45.6453684],[-73.6423484,45.6422221],[-73.6420854,45.6402939],[-73.6419019,45.6385358],[-73.6417477,45.6369545]]}";3;Montée Masson;2;60;false;false;true;false;false;false;1026.0;0;0;2;0;0;false;42199;6269507404;-73.64364;45.647083;42196;6269507416;-73.64308;45.645299;2;16;17;9312799;Bus : 22 O - Direction Métro Cartier;"";STL;22O;Terminus Contant;Métro Cartier Quai:2
111222270;"{\"type\":\"LineString\",\"coordinates\":[[-73.6446118,45.6338051],[-73.6470802,45.635966],[-73.6471131,45.6360061],[-73.6471378,45.6360577],[-73.647146,45.6361151],[-73.6471381,45.6361725],[-73.6471055,45.6362185],[-73.6470319,45.6362759],[-73.6463459,45.6366555],[-73.6462315,45.636713],[-73.6461172,45.636759],[-73.6460191,45.6367936],[-73.6458966,45.6368282],[-73.6457576,45.6368628],[-73.6456105,45.6368974],[-73.6454387,45.6369206],[-73.6452262,45.6369208],[-73.644756,45.6369188],[-73.6431732,45.6368947],[-73.6427805,45.6369009],[-73.6423308,45.6369302],[-73.6420037,45.6369421],[-73.6417477,45.6369545]]}";1;Rue Bernard-Lefebvre;2;50;false;false;true;false;false;false;389.5;0;0;1;0;0;false;46560;6269507483;-73.6449;45.633914;"46497;46488";6269507512;-73.6461;45.633083;1;23;24;9312799;Bus : 22 O - Direction Métro Cartier;"";STL;22O;Terminus Contant;Métro Cartier Quai:2
687115800;"{\"type\":\"LineString\",\"coordinates\":[[-73.6446118,45.6338051],[-73.6448489,45.6336744],[-73.6487724,45.6315122]]}";2;Rue Ernest-Cormier;2;50;false;false;true;false;false;false;206.5;0;0;1;0;0;false;46560;6269507483;-73.6449;45.633914;"46497;46488";6269507512;-73.6461;45.633083;1;23;24;9312799;Bus : 22 O - Direction Métro Cartier;"";STL;22O;Terminus Contant;Métro Cartier Quai:2
687115800;"{\"type\":\"LineString\",\"coordinates\":[[-73.6446118,45.6338051],[-73.6448489,45.6336744],[-73.6487724,45.6315122]]}";1;Rue Ernest-Cormier;2;50;false;false;true;false;false;false;206.5;0;0;1;0;0;false;"46498;46489";6269507518;-73.6486;45.631711;46561;6269507533;-73.65185;45.629554;1;25;26;9312799;Bus : 22 O - Direction Métro Cartier;"";STL;22O;Terminus Contant;Métro Cartier Quai:2
46865974;"{\"type\":\"LineString\",\"coordinates\":[[-73.6487724,45.6315122],[-73.6498506,45.6309236],[-73.6505373,45.6305185],[-73.6511273,45.6300758],[-73.6515136,45.6297457],[-73.6519878,45.6293328],[-73.6520534,45.6292757],[-73.6526508,45.6287554],[-73.6531122,45.6283877],[-73.6532609,45.6282866],[-73.6538846,45.6278625],[-73.6540819,45.6277459],[-73.6552964,45.6270279],[-73.6557813,45.6267413]]}";2;Rue Ernest-Cormier;2;50;false;false;true;false;false;false;382.0;0;0;0;0;0;false;"46498;46489";6269507518;-73.6486;45.631711;46561;6269507533;-73.65185;45.629554;1;25;26;9312799;Bus : 22 O - Direction Métro Cartier;"";STL;22O;Terminus Contant;Métro Cartier Quai:2
46865974;"{\"type\":\"LineString\",\"coordinates\":[[-73.6487724,45.6315122],[-73.6498506,45.6309236],[-73.6505373,45.6305185],[-73.6511273,45.6300758],[-73.6515136,45.6297457],[-73.6519878,45.6293328],[-73.6520534,45.6292757],[-73.6526508,45.6287554],[-73.6531122,45.6283877],[-73.6532609,45.6282866],[-73.6538846,45.6278625],[-73.6540819,45.6277459],[-73.6552964,45.6270279],[-73.6557813,45.6267413]]}";1;Rue Ernest-Cormier;2;50;false;false;true;false;false;false;382.0;0;0;0;0;0;false;46028;6269507553;-73.65474;45.627445;46029;6269507602;-73.65283;45.623979;1;28;29;9312799;Bus : 22 O - Direction Métro Cartier;"";STL;22O;Terminus Contant;Métro Cartier Quai:2
745488944;"{\"type\":\"LineString\",\"coordinates\":[[-73.6507788,45.6222301],[-73.6509422,45.6223775],[-73.6509643,45.6223975],[-73.6509726,45.6224049],[-73.6509847,45.6224159],[-73.6512334,45.6226401],[-73.6512498,45.6226549],[-73.6512558,45.6226603],[-73.6513343,45.6227311],[-73.6513385,45.6227349],[-73.651351,45.6227461],[-73.6516336,45.623001],[-73.6525462,45.623824],[-73.653006,45.6242386],[-73.6546359,45.6257084],[-73.6548715,45.6259209],[-73.6557279,45.6266932],[-73.6557813,45.6267413]]}";2;Montée Saint-François;2;70;false;false;true;false;false;false;317.5;0;0;0;0;0;false;46028;6269507553;-73.65474;45.627445;46029;6269507602;-73.65283;45.623979;1;28;29;9312799;Bus : 22 O - Direction Métro Cartier;"";STL;22O;Terminus Contant;Métro Cartier Quai:2
745488944;"{\"type\":\"LineString\",\"coordinates\":[[-73.6507788,45.6222301],[-73.6509422,45.6223775],[-73.6509643,45.6223975],[-73.6509726,45.6224049],[-73.6509847,45.6224159],[-73.6512334,45.6226401],[-73.6512498,45.6226549],[-73.6512558,45.6226603],[-73.6513343,45.6227311],[-73.6513385,45.6227349],[-73.651351,45.6227461],[-73.6516336,45.623001],[-73.6525462,45.623824],[-73.653006,45.6242386],[-73.6546359,45.6257084],[-73.6548715,45.6259209],[-73.6557279,45.6266932],[-73.6557813,45.6267413]]}";1;Montée Saint-François;2;70;false;false;true;false;false;false;317.5;0;0;0;0;0;false;46029;6269507602;-73.65283;45.623979;46030;6269507634;-73.64919;45.620645;1;29;30;9312799;Bus : 22 O - Direction Métro Cartier;"";STL;22O;Terminus Contant;Métro Cartier Quai:2
745488945;"{\"type\":\"LineString\",\"coordinates\":[[-73.6505457,45.6220199],[-73.6507788,45.6222301]]}";2;Montée Saint-François;2;70;false;false;true;false;false;false;30.0;0;0;0;0;0;false;46029;6269507602;-73.65283;45.623979;46030;6269507634;-73.64919;45.620645;0;29;30;9312799;Bus : 22 O - Direction Métro Cartier;"";STL;22O;Terminus Contant;Métro Cartier Quai:2
32644971;"{\"type\":\"LineString\",\"coordinates\":[[-73.6441136,45.6162229],[-73.6442387,45.6163356],[-73.6458794,45.6178144],[-73.6463702,45.6182568],[-73.6469178,45.6187503],[-73.6478665,45.6196053],[-73.6485997,45.6202661],[-73.6489564,45.6205876],[-73.6505457,45.6220199]]}";3;Montée Saint-François;2;70;false;false;true;false;false;false;408.0;0;0;1;0;0;false;46029;6269507602;-73.65283;45.623979;46030;6269507634;-73.64919;45.620645;1;29;30;9312799;Bus : 22 O - Direction Métro Cartier;"";STL;22O;Terminus Contant;Métro Cartier Quai:2
365007194;"{\"type\":\"LineString\",\"coordinates\":[[-73.6441136,45.6162229],[-73.6441432,45.616182],[-73.6444507,45.6157568]]}";1;Boulevard Lévesque Est;2;50;false;false;false;false;false;false;59.0;0;0;0;0;0;false;42797;6269507677;-73.64432;45.616269;41616;6269507702;-73.64608;45.615196;2;32;33;9312799;Bus : 22 O - Direction Métro Cartier;"";STL;22O;Terminus Contant;Métro Cartier Quai:2
365007259;"{\"type\":\"LineString\",\"coordinates\":[[-73.6444507,45.6157568],[-73.64482,45.6152536],[-73.6448884,45.6151681]]}";2;Boulevard Lévesque Est;3;50;false;false;false;false;false;false;74.0;1;1;0;0;0;false;42797;6269507677;-73.64432;45.616269;41616;6269507702;-73.64608;45.615196;0;32;33;9312799;Bus : 22 O - Direction Métro Cartier;"";STL;22O;Terminus Contant;Métro Cartier Quai:2
365007260;"{\"type\":\"LineString\",\"coordinates\":[[-73.6459034,45.6152479],[-73.6457348,45.6152765],[-73.6455556,45.6153068],[-73.6453509,45.6152864],[-73.6450235,45.6152149],[-73.6448884,45.6151681]]}";3;Place J.-Eudes-Blanchard;2;50;false;false;true;false;false;false;83.0;1;1;0;0;0;false;42797;6269507677;-73.64432;45.616269;41616;6269507702;-73.64608;45.615196;0;32;33;9312799;Bus : 22 O - Direction Métro Cartier;"";STL;22O;Terminus Contant;Métro Cartier Quai:2
678347084;"{\"type\":\"LineString\",\"coordinates\":[[-73.6522117,45.6118148],[-73.6514889,45.6122081],[-73.6507193,45.612627],[-73.6500881,45.6129705],[-73.6491648,45.613473],[-73.6469951,45.6146538],[-73.6463894,45.6149834],[-73.6459034,45.6152479]]}";4;Rue de la Fabrique;2;50;false;false;true;false;false;false;623.0;0;0;0;0;0;false;42797;6269507677;-73.64432;45.616269;41616;6269507702;-73.64608;45.615196;2;32;33;9312799;Bus : 22 O - Direction Métro Cartier;"";STL;22O;Terminus Contant;Métro Cartier Quai:2
678347084;"{\"type\":\"LineString\",\"coordinates\":[[-73.6522117,45.6118148],[-73.6514889,45.6122081],[-73.6507193,45.612627],[-73.6500881,45.6129705],[-73.6491648,45.613473],[-73.6469951,45.6146538],[-73.6463894,45.6149834],[-73.6459034,45.6152479]]}";1;Rue de la Fabrique;2;50;false;false;true;false;false;false;623.0;0;0;0;0;0;false;41615;6269507739;-73.65217;45.611922;41101;6269507780;-73.6516;45.61114;2;36;37;9312799;Bus : 22 O - Direction Métro Cartier;"";STL;22O;Terminus Contant;Métro Cartier Quai:2
45798070;"{\"type\":\"LineString\",\"coordinates\":[[-73.6457918,45.6060296],[-73.6459347,45.6061565],[-73.6460882,45.6062928],[-73.6461308,45.6063306],[-73.646658,45.6068049],[-73.6471722,45.6072881],[-73.647712,45.6077715],[-73.6482518,45.6082549],[-73.648804,45.6087565],[-73.6493062,45.6092126],[-73.6498893,45.6097263],[-73.6504738,45.6102524],[-73.6511391,45.6108544],[-73.6516763,45.6113375],[-73.6522117,45.6118148]]}";2;Avenue Belleville;2;50;false;false;true;false;false;false;815.0;0;0;0;0;0;false;41615;6269507739;-73.65217;45.611922;41101;6269507780;-73.6516;45.61114;2;36;37;9312799;Bus : 22 O - Direction Métro Cartier;"";STL;22O;Terminus Contant;Métro Cartier Quai:2
45798070;"{\"type\":\"LineString\",\"coordinates\":[[-73.6457918,45.6060296],[-73.6459347,45.6061565],[-73.6460882,45.6062928],[-73.6461308,45.6063306],[-73.646658,45.6068049],[-73.6471722,45.6072881],[-73.647712,45.6077715],[-73.6482518,45.6082549],[-73.648804,45.6087565],[-73.6493062,45.6092126],[-73.6498893,45.6097263],[-73.6504738,45.6102524],[-73.6511391,45.6108544],[-73.6516763,45.6113375],[-73.6522117,45.6118148]]}";1;Avenue Belleville;2;50;false;false;true;false;false;false;407.5;0;0;0;0;0;false;41106;6269507852;-73.64734;45.607303;42104;6269507893;-73.64588;45.60528;1;40;41;9312799;Bus : 22 O - Direction Métro Cartier;"";STL;22O;Terminus Contant;Métro Cartier Quai:2
45798064;"{\"type\":\"LineString\",\"coordinates\":[[-73.6457918,45.6060296],[-73.6457309,45.6058938],[-73.6454955,45.6057126]]}";2;Avenue Belleville;1;50;false;true;true;false;false;false;44.0;0;0;0;0;0;false;41106;6269507852;-73.64734;45.607303;42104;6269507893;-73.64588;45.60528;0;40;41;9312799;Bus : 22 O - Direction Métro Cartier;"";STL;22O;Terminus Contant;Métro Cartier Quai:2
682428312;"{\"type\":\"LineString\",\"coordinates\":[[-73.6454955,45.6057126],[-73.6460182,45.6048502],[-73.6462814,45.6041409],[-73.6464674,45.603761],[-73.6467098,45.603295],[-73.6469599,45.6029297],[-73.6471267,45.602778]]}";3;Boulevard Lévesque Est;2;50;false;false;true;false;false;false;176.0;0;0;0;0;0;false;41106;6269507852;-73.64734;45.607303;42104;6269507893;-73.64588;45.60528;1;40;41;9312799;Bus : 22 O - Direction Métro Cartier;"";STL;22O;Terminus Contant;Métro Cartier Quai:2
682428312;"{\"type\":\"LineString\",\"coordinates\":[[-73.6454955,45.6057126],[-73.6460182,45.6048502],[-73.6462814,45.6041409],[-73.6464674,45.603761],[-73.6467098,45.603295],[-73.6469599,45.6029297],[-73.6471267,45.602778]]}";1;Boulevard Lévesque Est;2;50;false;false;true;false;false;false;176.0;0;0;0;0;0;false;42102;6269507902;-73.64647;45.603966;42100;6269507965;-73.64823;45.601741;1;42;43;9312799;Bus : 22 O - Direction Métro Cartier;"";STL;22O;Terminus Contant;Métro Cartier Quai:2
473001099;"{\"type\":\"LineString\",\"coordinates\":[[-73.6471267,45.602778],[-73.6473336,45.6025211]]}";2;Boulevard Lévesque Est;2;50;false;false;true;false;false;false;33.0;1;0;0;0;0;false;42102;6269507902;-73.64647;45.603966;42100;6269507965;-73.64823;45.601741;0;42;43;9312799;Bus : 22 O - Direction Métro Cartier;"";STL;22O;Terminus Contant;Métro Cartier Quai:2
473001098;"{\"type\":\"LineString\",\"coordinates\":[[-73.6473336,45.6025211],[-73.6473787,45.6024818],[-73.6474627,45.6024084]]}";3;Boulevard Lévesque Est;2;50;false;false;true;false;false;false;17.0;2;0;0;0;0;false;42102;6269507902;-73.64647;45.603966;42100;6269507965;-73.64823;45.601741;0;42;43;9312799;Bus : 22 O - Direction Métro Cartier;"";STL;22O;Terminus Contant;Métro Cartier Quai:2
473001100;"{\"type\":\"LineString\",\"coordinates\":[[-73.6474627,45.6024084],[-73.6477976,45.6020749]]}";4;Boulevard Lévesque Est;2;50;false;false;true;false;false;false;46.0;1;0;0;0;0;false;42102;6269507902;-73.64647;45.603966;42100;6269507965;-73.64823;45.601741;0;42;43;9312799;Bus : 22 O - Direction Métro Cartier;"";STL;22O;Terminus Contant;Métro Cartier Quai:2
38311584;"{\"type\":\"LineString\",\"coordinates\":[[-73.6477976,45.6020749],[-73.6482283,45.6016327],[-73.6485433,45.6013739],[-73.6488903,45.601107],[-73.6490651,45.6009994],[-73.6491233,45.6009663]]}";5;Boulevard Lévesque Est;2;50;false;false;true;false;false;false;81.0;0;0;0;0;0;false;42102;6269507902;-73.64647;45.603966;42100;6269507965;-73.64823;45.601741;1;42;43;9312799;Bus : 22 O - Direction Métro Cartier;"";STL;22O;Terminus Contant;Métro Cartier Quai:2
38311584;"{\"type\":\"LineString\",\"coordinates\":[[-73.6477976,45.6020749],[-73.6482283,45.6016327],[-73.6485433,45.6013739],[-73.6488903,45.601107],[-73.6490651,45.6009994],[-73.6491233,45.6009663]]}";1;Boulevard Lévesque Est;2;50;false;false;true;false;false;false;81.0;0;0;0;0;0;false;42100;6269507965;-73.64823;45.601741;42098;6269508287;-73.65075;45.600064;1;43;44;9312799;Bus : 22 O - Direction Métro Cartier;"";STL;22O;Terminus Contant;Métro Cartier Quai:2
37924633;"{\"type\":\"LineString\",\"coordinates\":[[-73.6491233,45.6009663],[-73.6491491,45.6009497],[-73.6494951,45.6007265],[-73.6496051,45.6006556],[-73.6496728,45.6006118]]}";2;Boulevard Lévesque Est;2;50;false;false;true;false;false;false;59.0;0;0;0;0;0;false;42100;6269507965;-73.64823;45.601741;42098;6269508287;-73.65075;45.600064;0;43;44;9312799;Bus : 22 O - Direction Métro Cartier;"";STL;22O;Terminus Contant;Métro Cartier Quai:2
37924634;"{\"type\":\"LineString\",\"coordinates\":[[-73.6686556,45.5796745],[-73.6684235,45.5799961],[-73.6676093,45.5811382],[-73.6668804,45.5820831],[-73.6662588,45.5828578],[-73.6649971,45.5841822],[-73.6638313,45.5854483],[-73.6632412,45.5860543],[-73.6622157,45.5871071],[-73.6617804,45.5876555],[-73.660987,45.5886575],[-73.6604778,45.5894499],[-73.6596666,45.5903192],[-73.6593004,45.5908548],[-73.6588732,45.5912809],[-73.658571,45.5915834],[-73.6585383,45.5916162],[-73.6581026,45.5920522],[-73.6580785,45.5920772],[-73.6576348,45.5925367],[-73.6576131,45.5925585],[-73.6571663,45.5930072],[-73.6569979,45.5931763],[-73.6568899,45.5932848],[-73.6566277,45.5936821],[-73.656232,45.5945203],[-73.6554871,45.5957184],[-73.6550808,45.5961618],[-73.6546261,45.5965612],[-73.6539344,45.5971332],[-73.6534098,45.5976687],[-73.65222,45.5988678],[-73.6519888,45.5991014],[-73.6517507,45.5993418],[-73.6513803,45.5996141],[-73.6512852,45.5996737],[-73.6511682,45.5997469],[-73.6507843,45.5999769],[-73.6502001,45.6003025],[-73.6499191,45.6004674],[-73.6496728,45.6006118]]}";3;Boulevard Lévesque Est;2;50;false;false;true;false;false;false;1388.0;0;0;0;0;0;false;42100;6269507965;-73.64823;45.601741;42098;6269508287;-73.65075;45.600064;1;43;44;9312799;Bus : 22 O - Direction Métro Cartier;"";STL;22O;Terminus Contant;Métro Cartier Quai:2
455479831;"{\"type\":\"LineString\",\"coordinates\":[[-73.6691333,45.5789415],[-73.6686556,45.5796745]]}";1;Boulevard Lévesque Est;2;50;false;false;true;false;false;false;90.0;0;0;0;0;0;false;42074;6269508885;-73.66874;45.579838;46621;6269508959;-73.67044;45.577073;2;56;57;9312799;Bus : 22 O - Direction Métro Cartier;"";STL;22O;Terminus Contant;Métro Cartier Quai:2
455479833;"{\"type\":\"LineString\",\"coordinates\":[[-73.6692034,45.5788339],[-73.6691333,45.5789415]]}";2;Boulevard Lévesque Est;2;50;false;false;true;false;false;false;14.0;0;0;0;0;0;false;42074;6269508885;-73.66874;45.579838;46621;6269508959;-73.67044;45.577073;0;56;57;9312799;Bus : 22 O - Direction Métro Cartier;"";STL;22O;Terminus Contant;Métro Cartier Quai:2
38311582;"{\"type\":\"LineString\",\"coordinates\":[[-73.6696137,45.5782043],[-73.6692034,45.5788339]]}";3;Boulevard Lévesque Est;2;50;false;false;true;false;false;false;77.0;0;0;0;0;0;false;42074;6269508885;-73.66874;45.579838;46621;6269508959;-73.67044;45.577073;0;56;57;9312799;Bus : 22 O - Direction Métro Cartier;"";STL;22O;Terminus Contant;Métro Cartier Quai:2
455479832;"{\"type\":\"LineString\",\"coordinates\":[[-73.6697576,45.5779835],[-73.6696137,45.5782043]]}";4;Boulevard Lévesque Est;2;50;false;false;true;false;false;false;27.0;0;0;0;0;0;false;42074;6269508885;-73.66874;45.579838;46621;6269508959;-73.67044;45.577073;0;56;57;9312799;Bus : 22 O - Direction Métro Cartier;"";STL;22O;Terminus Contant;Métro Cartier Quai:2
542751016;"{\"type\":\"LineString\",\"coordinates\":[[-73.6724109,45.5740113],[-73.6720997,45.5744905],[-73.6720162,45.5746052],[-73.6718159,45.5749162],[-73.6714925,45.5753947],[-73.6708671,45.576243],[-73.6704255,45.5769373],[-73.6697576,45.5779835]]}";5;Boulevard Lévesque Est;2;50;false;false;true;false;false;false;488.0;0;0;0;0;0;false;42074;6269508885;-73.66874;45.579838;46621;6269508959;-73.67044;45.577073;2;56;57;9312799;Bus : 22 O - Direction Métro Cartier;"";STL;22O;Terminus Contant;Métro Cartier Quai:2
542751016;"{\"type\":\"LineString\",\"coordinates\":[[-73.6724109,45.5740113],[-73.6720997,45.5744905],[-73.6720162,45.5746052],[-73.6718159,45.5749162],[-73.6714925,45.5753947],[-73.6708671,45.576243],[-73.6704255,45.5769373],[-73.6697576,45.5779835]]}";1;Boulevard Lévesque Est;2;50;false;false;true;false;false;false;244.0;0;0;0;0;0;false;42070;6269508879;-73.67199;45.574839;41219;6269509340;-73.6709;45.57294;1;59;60;9312799;Bus : 22 O - Direction Métro Cartier;"";STL;22O;Terminus Contant;Métro Cartier Quai:2
45609844;"{\"type\":\"LineString\",\"coordinates\":[[-73.6707407,45.5735082],[-73.6713447,45.5736469],[-73.671645,45.5737495],[-73.6718927,45.5738342],[-73.6724109,45.5740113]]}";2;Avenue J.-J.-Joubert;2;50;false;false;true;false;false;false;143.0;0;0;0;0;0;false;42070;6269508879;-73.67199;45.574839;41219;6269509340;-73.6709;45.57294;0;59;60;9312799;Bus : 22 O - Direction Métro Cartier;"";STL;22O;Terminus Contant;Métro Cartier Quai:2
58701597;"{\"type\":\"LineString\",\"coordinates\":[[-73.671664,45.5705704],[-73.6712341,45.571578],[-73.670944,45.5722861],[-73.6706528,45.5733614],[-73.6706656,45.5734443],[-73.6707407,45.5735082]]}";3;Boulevard Cartier Est;1;50;false;false;true;false;false;false;169.5;0;0;0;0;0;false;42070;6269508879;-73.67199;45.574839;41219;6269509340;-73.6709;45.57294;1;59;60;9312799;Bus : 22 O - Direction Métro Cartier;"";STL;22O;Terminus Contant;Métro Cartier Quai:2
58701597;"{\"type\":\"LineString\",\"coordinates\":[[-73.671664,45.5705704],[-73.6712341,45.571578],[-73.670944,45.5722861],[-73.6706528,45.5733614],[-73.6706656,45.5734443],[-73.6707407,45.5735082]]}";1;Boulevard Cartier Est;1;50;false;false;true;false;false;false;169.5;0;0;0;0;0;false;41219;6269509340;-73.6709;45.57294;42067;6269509499;-73.67201;45.570744;1;60;61;9312799;Bus : 22 O - Direction Métro Cartier;"";STL;22O;Terminus Contant;Métro Cartier Quai:2
462112325;"{\"type\":\"LineString\",\"coordinates\":[[-73.671664,45.5705704],[-73.671991,45.5706601],[-73.6721274,45.570721],[-73.6723433,45.5708604]]}";2;Boulevard Lévesque Est;2;50;false;false;true;false;false;false;31.5;0;0;0;0;0;false;41219;6269509340;-73.6709;45.57294;42067;6269509499;-73.67201;45.570744;1;60;61;9312799;Bus : 22 O - Direction Métro Cartier;"";STL;22O;Terminus Contant;Métro Cartier Quai:2
462112325;"{\"type\":\"LineString\",\"coordinates\":[[-73.671664,45.5705704],[-73.671991,45.5706601],[-73.6721274,45.570721],[-73.6723433,45.5708604]]}";1;Boulevard Lévesque Est;2;50;false;false;true;false;false;false;31.5;0;0;0;0;0;false;42067;6269509499;-73.67201;45.570744;41557;6269509354;-73.67409;45.571938;1;61;62;9312799;Bus : 22 O - Direction Métro Cartier;"";STL;22O;Terminus Contant;Métro Cartier Quai:2
462112324;"{\"type\":\"LineString\",\"coordinates\":[[-73.6723433,45.5708604],[-73.6725251,45.5710244],[-73.6728869,45.5713508],[-73.6730532,45.5715009],[-73.6737825,45.5721589]]}";2;Boulevard Lévesque Est;2;50;false;false;true;false;false;false;183.0;0;0;0;0;0;false;42067;6269509499;-73.67201;45.570744;41557;6269509354;-73.67409;45.571938;0;61;62;9312799;Bus : 22 O - Direction Métro Cartier;"";STL;22O;Terminus Contant;Métro Cartier Quai:2
45609837;"{\"type\":\"LineString\",\"coordinates\":[[-73.6752201,45.5708247],[-73.6750273,45.5709108],[-73.6748671,45.5710145],[-73.6745131,45.5713524],[-73.6737825,45.5721589]]}";3;Rue des Écores;2;50;false;false;true;false;false;false;94.0;0;0;0;0;0;false;42067;6269509499;-73.67201;45.570744;41557;6269509354;-73.67409;45.571938;1;61;62;9312799;Bus : 22 O - Direction Métro Cartier;"";STL;22O;Terminus Contant;Métro Cartier Quai:2
45609837;"{\"type\":\"LineString\",\"coordinates\":[[-73.6752201,45.5708247],[-73.6750273,45.5709108],[-73.6748671,45.5710145],[-73.6745131,45.5713524],[-73.6737825,45.5721589]]}";1;Rue des Écores;2;50;false;false;true;false;false;false;94.0;0;0;0;0;0;false;41557;6269509354;-73.67409;45.571938;43195;6269509496;-73.67608;45.571017;1;62;63;9312799;Bus : 22 O - Direction Métro Cartier;"";STL;22O;Terminus Contant;Métro Cartier Quai:2
687115782;"{\"type\":\"LineString\",\"coordinates\":[[-73.6752201,45.5708247],[-73.6756154,45.5711827]]}";2;Rue des Alpes;2;50;false;false;true;false;false;false;51.0;0;0;0;0;0;false;41557;6269509354;-73.67409;45.571938;43195;6269509496;-73.67608;45.571017;0;62;63;9312799;Bus : 22 O - Direction Métro Cartier;"";STL;22O;Terminus Contant;Métro Cartier Quai:2
29016758;"{\"type\":\"LineString\",\"coordinates\":[[-73.6864142,45.565271],[-73.6858438,45.5655833],[-73.6852913,45.5658857],[-73.6846442,45.56624],[-73.6841266,45.5665234],[-73.6832711,45.5669917],[-73.6823386,45.5675022],[-73.6818445,45.5677727],[-73.6814193,45.5680055],[-73.6804973,45.5685102],[-73.6773158,45.5702519],[-73.6757771,45.5710942],[-73.6756154,45.5711827]]}";3;Rue Tourangeau Est;2;50;false;false;true;false;false;false;534.0;0;0;1;0;0;false;41557;6269509354;-73.67409;45.571938;43195;6269509496;-73.67608;45.571017;1;62;63;9312799;Bus : 22 O - Direction Métro Cartier;"";STL;22O;Terminus Contant;Métro Cartier Quai:2
29016758;"{\"type\":\"LineString\",\"coordinates\":[[-73.6864142,45.565271],[-73.6858438,45.5655833],[-73.6852913,45.5658857],[-73.6846442,45.56624],[-73.6841266,45.5665234],[-73.6832711,45.5669917],[-73.6823386,45.5675022],[-73.6818445,45.5677727],[-73.6814193,45.5680055],[-73.6804973,45.5685102],[-73.6773158,45.5702519],[-73.6757771,45.5710942],[-73.6756154,45.5711827]]}";1;Rue Tourangeau Est;2;50;false;false;true;false;false;false;534.0;0;0;1;0;0;false;45011;6269509991;-73.68626;45.565422;41876;6269510187;-73.68437;45.563286;1;69;70;9312799;Bus : 22 O - Direction Métro Cartier;"";STL;22O;Terminus Contant;Métro Cartier Quai:2
452227544;"{\"type\":\"LineString\",\"coordinates\":[[-73.684522,45.5635813],[-73.6864142,45.565271]]}";2;Boulevard des Laurentides;4;50;false;false;true;false;false;false;239.0;0;0;0;0;0;false;45011;6269509991;-73.68626;45.565422;41876;6269510187;-73.68437;45.563286;0;69;70;9312799;Bus : 22 O - Direction Métro Cartier;"";STL;22O;Terminus Contant;Métro Cartier Quai:2
452227549;"{\"type\":\"LineString\",\"coordinates\":[[-73.6826844,45.5619598],[-73.684522,45.5635813]]}";3;Boulevard des Laurentides;4;50;false;false;true;false;false;false;115.5;0;0;0;0;0;false;45011;6269509991;-73.68626;45.565422;41876;6269510187;-73.68437;45.563286;1;69;70;9312799;Bus : 22 O - Direction Métro Cartier;"";STL;22O;Terminus Contant;Métro Cartier Quai:2
452227549;"{\"type\":\"LineString\",\"coordinates\":[[-73.6826844,45.5619598],[-73.684522,45.5635813]]}";1;Boulevard des Laurentides;4;50;false;false;true;false;false;false;115.5;0;0;0;0;0;false;41876;6269510187;-73.68437;45.563286;46423;6269510246;-73.68257;45.561685;1;70;71;9312799;Bus : 22 O - Direction Métro Cartier;"";STL;22O;Terminus Contant;Métro Cartier Quai:2
22894254;"{\"type\":\"LineString\",\"coordinates\":[[-73.6826844,45.5619598],[-73.6824704,45.5616761],[-73.6824561,45.5616678],[-73.6818442,45.561099]]}";2;Boulevard des Laurentides;2;50;false;true;true;false;false;false;58.5;1;0;0;0;0;false;41876;6269510187;-73.68437;45.563286;46423;6269510246;-73.68257;45.561685;1;70;71;9312799;Bus : 22 O - Direction Métro Cartier;"";STL;22O;Terminus Contant;Métro Cartier Quai:2
22894254;"{\"type\":\"LineString\",\"coordinates\":[[-73.6826844,45.5619598],[-73.6824704,45.5616761],[-73.6824561,45.5616678],[-73.6818442,45.561099]]}";1;Boulevard des Laurentides;2;50;false;true;true;false;false;false;58.5;1;0;0;0;0;false;46423;6269510246;-73.68257;45.561685;"47128;47170;47120;47012;47002;47173;47058;47158;47141;47102;47122;47911;47133;47160;47163;47127;47137;47117;47031;47143;47174;47124;47112;47070;47148;47017";6269510222;-73.6825;45.559923;1;71;72;9312799;Bus : 22 O - Direction Métro Cartier;"";STL;22O;Terminus Contant;Métro Cartier Quai:2
259643625;"{\"type\":\"LineString\",\"coordinates\":[[-73.6818442,45.561099],[-73.6826796,45.5606463],[-73.6831194,45.5604083]]}";2;Boulevard Cartier Ouest;2;50;false;true;true;false;false;false;126.0;2;0;0;0;0;false;46423;6269510246;-73.68257;45.561685;"47128;47170;47120;47012;47002;47173;47058;47158;47141;47102;47122;47911;47133;47160;47163;47127;47137;47117;47031;47143;47174;47124;47112;47070;47148;47017";6269510222;-73.6825;45.559923;0;71;72;9312799;Bus : 22 O - Direction Métro Cartier;"";STL;22O;Terminus Contant;Métro Cartier Quai:2
259643631;"{\"type\":\"LineString\",\"coordinates\":[[-73.6831194,45.5604083],[-73.6830194,45.5603075]]}";3;"";1;50;false;false;true;false;false;false;14.0;2;0;0;0;0;false;46423;6269510246;-73.68257;45.561685;"47128;47170;47120;47012;47002;47173;47058;47158;47141;47102;47122;47911;47133;47160;47163;47127;47137;47117;47031;47143;47174;47124;47112;47070;47148;47017";6269510222;-73.6825;45.559923;0;71;72;9312799;Bus : 22 O - Direction Métro Cartier;"";STL;22O;Terminus Contant;Métro Cartier Quai:2
242652088;"{\"type\":\"LineString\",\"coordinates\":[[-73.6830194,45.5603075],[-73.6828755,45.560162]]}";4;"";1;50;false;false;true;false;false;false;20.0;1;0;0;0;0;false;46423;6269510246;-73.68257;45.561685;"47128;47170;47120;47012;47002;47173;47058;47158;47141;47102;47122;47911;47133;47160;47163;47127;47137;47117;47031;47143;47174;47124;47112;47070;47148;47017";6269510222;-73.6825;45.559923;0;71;72;9312799;Bus : 22 O - Direction Métro Cartier;"";STL;22O;Terminus Contant;Métro Cartier Quai:2
259643630;"{\"type\":\"LineString\",\"coordinates\":[[-73.683108,45.5597546],[-73.6832991,45.5596564],[-73.6834151,45.5595825],[-73.6834772,45.5596133],[-73.6835498,45.5596565],[-73.6835923,45.5597297],[-73.6835737,45.5597964],[-73.6834678,45.5598527],[-73.6828755,45.560162]]}";5;"";1;50;false;false;true;false;false;false;129.0;0;0;0;0;0;false;46423;6269510246;-73.68257;45.561685;"47128;47170;47120;47012;47002;47173;47058;47158;47141;47102;47122;47911;47133;47160;47163;47127;47137;47117;47031;47143;47174;47124;47112;47070;47148;47017";6269510222;-73.6825;45.559923;0;71;72;9312799;Bus : 22 O - Direction Métro Cartier;"";STL;22O;Terminus Contant;Métro Cartier Quai:2
694196043;"{\"type\":\"LineString\",\"coordinates\":[[-73.6829383,45.5598439],[-73.683108,45.5597546]]}";6;"";1;50;false;false;true;false;false;false;17.0;0;0;0;0;0;false;46423;6269510246;-73.68257;45.561685;"47128;47170;47120;47012;47002;47173;47058;47158;47141;47102;47122;47911;47133;47160;47163;47127;47137;47117;47031;47143;47174;47124;47112;47070;47148;47017";6269510222;-73.6825;45.559923;0;71;72;9312799;Bus : 22 O - Direction Métro Cartier;"";STL;22O;Terminus Contant;Métro Cartier Quai:2
694409795;"{\"type\":\"LineString\",\"coordinates\":[[-73.6827819,45.5599253],[-73.6829383,45.5598439]]}";7;"";1;50;false;false;true;false;false;false;16.0;0;0;0;0;0;false;46423;6269510246;-73.68257;45.561685;"47128;47170;47120;47012;47002;47173;47058;47158;47141;47102;47122;47911;47133;47160;47163;47127;47137;47117;47031;47143;47174;47124;47112;47070;47148;47017";6269510222;-73.6825;45.559923;0;71;72;9312799;Bus : 22 O - Direction Métro Cartier;"";STL;22O;Terminus Contant;Métro Cartier Quai:2
669902223;"{\"type\":\"LineString\",\"coordinates\":[[-73.6826117,45.5600129],[-73.6827819,45.5599253]]}";8;"";1;50;false;false;true;false;false;false;17.0;0;0;0;0;0;false;46423;6269510246;-73.68257;45.561685;"47128;47170;47120;47012;47002;47173;47058;47158;47141;47102;47122;47911;47133;47160;47163;47127;47137;47117;47031;47143;47174;47124;47112;47070;47148;47017";6269510222;-73.6825;45.559923;1;71;72;9312799;Bus : 22 O - Direction Métro Cartier;"";STL;22O;Terminus Contant;Métro Cartier Quai:2
