way_id;shape;index;name;nb_lanes;legal_speed;speed_zone_30;oneway;shares_bike;bike_box;bus_lane;dedicated_bus_lane;length;nb_traffic_signals;nb_crossings;nb_stops;nb_give_ways;nb_lvl_crossings;roundabout;stop_id_orig;node_id_orig;coord_x_orig;coord_y_orig;stop_id_dest;node_id_dest;coord_x_dest;coord_y_dest;nb_neighbouring_ways_bus_stop;ordre_orig;ordre_dest;id_line;line_name;colour;operator;ref;from;to
684761987;"{\"type\":\"LineString\",\"coordinates\":[[-73.7483782,45.5682363],[-73.7485476,45.5683807]]}";1;"";1;50;false;true;true;false;false;false;21.0;0;0;0;0;0;false;"44902;44042";6269509366;-73.74827;45.568299;43295;6269510013;-73.75101;45.567611;1;0;1;9312730;Bus : 902 S - Direction Métro Côte-Vertu;"";STL;902S;Terminus Le Carrefour Quai:8;Métro Côte-Vertu
694203856;"{\"type\":\"LineString\",\"coordinates\":[[-73.7485476,45.5683807],[-73.748733,45.5685229]]}";2;"";1;50;false;true;true;false;false;false;22.0;0;0;0;0;0;false;"44902;44042";6269509366;-73.74827;45.568299;43295;6269510013;-73.75101;45.567611;0;0;1;9312730;Bus : 902 S - Direction Métro Côte-Vertu;"";STL;902S;Terminus Le Carrefour Quai:8;Métro Côte-Vertu
292376887;"{\"type\":\"LineString\",\"coordinates\":[[-73.748733,45.5685229],[-73.7487585,45.5685426],[-73.7488697,45.5685562],[-73.7489565,45.5685213],[-73.7489952,45.5684881],[-73.7490096,45.5684673]]}";3;"";1;50;false;true;true;false;false;false;27.0;0;0;0;0;0;false;"44902;44042";6269509366;-73.74827;45.568299;43295;6269510013;-73.75101;45.567611;0;0;1;9312730;Bus : 902 S - Direction Métro Côte-Vertu;"";STL;902S;Terminus Le Carrefour Quai:8;Métro Côte-Vertu
694409797;"{\"type\":\"LineString\",\"coordinates\":[[-73.7490096,45.5684673],[-73.7490126,45.5684462],[-73.7489983,45.5683885],[-73.7489373,45.5683504],[-73.7483699,45.5680109]]}";4;"";1;50;false;true;true;false;false;false;74.0;0;0;0;0;0;false;"44902;44042";6269509366;-73.74827;45.568299;43295;6269510013;-73.75101;45.567611;0;0;1;9312730;Bus : 902 S - Direction Métro Côte-Vertu;"";STL;902S;Terminus Le Carrefour Quai:8;Métro Côte-Vertu
292376885;"{\"type\":\"LineString\",\"coordinates\":[[-73.749603,45.5683977],[-73.7495387,45.5683559],[-73.7489277,45.5679595],[-73.7487689,45.5678968],[-73.7485697,45.5679009],[-73.7483699,45.5680109]]}";5;"";1;50;false;false;true;false;false;false;122.0;1;1;0;0;0;false;"44902;44042";6269509366;-73.74827;45.568299;43295;6269510013;-73.75101;45.567611;0;0;1;9312730;Bus : 902 S - Direction Métro Côte-Vertu;"";STL;902S;Terminus Le Carrefour Quai:8;Métro Côte-Vertu
684308380;"{\"type\":\"LineString\",\"coordinates\":[[-73.749708,45.568468],[-73.749603,45.5683977]]}";6;"";1;50;false;false;true;false;false;false;12.0;2;0;0;0;0;false;"44902;44042";6269509366;-73.74827;45.568299;43295;6269510013;-73.75101;45.567611;0;0;1;9312730;Bus : 902 S - Direction Métro Côte-Vertu;"";STL;902S;Terminus Le Carrefour Quai:8;Métro Côte-Vertu
653195069;"{\"type\":\"LineString\",\"coordinates\":[[-73.749708,45.568468],[-73.7498081,45.5684023],[-73.7513352,45.5673155],[-73.7520954,45.566766],[-73.7521982,45.5666917],[-73.7532667,45.565918]]}";7;Boulevard Le Carrefour;3;50;false;true;true;false;false;false;198.5;3;1;0;0;0;false;"44902;44042";6269509366;-73.74827;45.568299;43295;6269510013;-73.75101;45.567611;1;0;1;9312730;Bus : 902 S - Direction Métro Côte-Vertu;"";STL;902S;Terminus Le Carrefour Quai:8;Métro Côte-Vertu
653195069;"{\"type\":\"LineString\",\"coordinates\":[[-73.749708,45.568468],[-73.7498081,45.5684023],[-73.7513352,45.5673155],[-73.7520954,45.566766],[-73.7521982,45.5666917],[-73.7532667,45.565918]]}";1;Boulevard Le Carrefour;3;50;false;true;true;false;false;false;198.5;3;1;0;0;0;false;43295;6269510013;-73.75101;45.567611;43929;6269510059;-73.75421;45.565255;1;1;2;9312730;Bus : 902 S - Direction Métro Côte-Vertu;"";STL;902S;Terminus Le Carrefour Quai:8;Métro Côte-Vertu
455472713;"{\"type\":\"LineString\",\"coordinates\":[[-73.7532667,45.565918],[-73.7535397,45.5657204]]}";2;Boulevard Le Carrefour;3;50;false;true;true;false;false;false;31.0;1;0;0;0;0;false;43295;6269510013;-73.75101;45.567611;43929;6269510059;-73.75421;45.565255;0;1;2;9312730;Bus : 902 S - Direction Métro Côte-Vertu;"";STL;902S;Terminus Le Carrefour Quai:8;Métro Côte-Vertu
455472712;"{\"type\":\"LineString\",\"coordinates\":[[-73.7535397,45.5657204],[-73.7537138,45.5655915]]}";3;Boulevard Le Carrefour;3;50;false;true;true;false;false;false;20.0;2;0;0;0;0;false;43295;6269510013;-73.75101;45.567611;43929;6269510059;-73.75421;45.565255;0;1;2;9312730;Bus : 902 S - Direction Métro Côte-Vertu;"";STL;902S;Terminus Le Carrefour Quai:8;Métro Côte-Vertu
455472711;"{\"type\":\"LineString\",\"coordinates\":[[-73.7537138,45.5655915],[-73.7543821,45.5650965],[-73.7546638,45.5648879],[-73.7552218,45.5644747],[-73.7559457,45.5639386],[-73.756778,45.5633222],[-73.7570817,45.5630972],[-73.757577,45.5627304],[-73.7576795,45.5626545]]}";4;Boulevard Le Carrefour;3;50;false;true;true;false;false;false;225.0;1;0;0;0;0;false;43295;6269510013;-73.75101;45.567611;43929;6269510059;-73.75421;45.565255;1;1;2;9312730;Bus : 902 S - Direction Métro Côte-Vertu;"";STL;902S;Terminus Le Carrefour Quai:8;Métro Côte-Vertu
455472711;"{\"type\":\"LineString\",\"coordinates\":[[-73.7537138,45.5655915],[-73.7543821,45.5650965],[-73.7546638,45.5648879],[-73.7552218,45.5644747],[-73.7559457,45.5639386],[-73.756778,45.5633222],[-73.7570817,45.5630972],[-73.757577,45.5627304],[-73.7576795,45.5626545]]}";1;Boulevard Le Carrefour;3;50;false;true;true;false;false;false;225.0;1;0;0;0;0;false;43931;6269510236;-73.75702;45.563206;46428;6269510269;-73.75756;45.561468;1;4;5;9312730;Bus : 902 S - Direction Métro Côte-Vertu;"";STL;902S;Terminus Le Carrefour Quai:8;Métro Côte-Vertu
455472725;"{\"type\":\"LineString\",\"coordinates\":[[-73.7576795,45.5626545],[-73.7581106,45.5623377]]}";2;Boulevard Le Carrefour;3;50;false;true;true;false;false;false;49.0;1;0;0;0;0;false;43931;6269510236;-73.75702;45.563206;46428;6269510269;-73.75756;45.561468;0;4;5;9312730;Bus : 902 S - Direction Métro Côte-Vertu;"";STL;902S;Terminus Le Carrefour Quai:8;Métro Côte-Vertu
695754847;"{\"type\":\"LineString\",\"coordinates\":[[-73.7581106,45.5623377],[-73.7582376,45.5622444]]}";3;Boulevard Le Carrefour;3;50;false;true;false;false;false;false;15.0;2;0;0;0;0;false;43931;6269510236;-73.75702;45.563206;46428;6269510269;-73.75756;45.561468;0;4;5;9312730;Bus : 902 S - Direction Métro Côte-Vertu;"";STL;902S;Terminus Le Carrefour Quai:8;Métro Côte-Vertu
695754846;"{\"type\":\"LineString\",\"coordinates\":[[-73.7582376,45.5622444],[-73.7581485,45.562167]]}";4;Boulevard Chomedey;3;60;false;true;false;false;false;false;12.0;2;0;0;0;0;false;43931;6269510236;-73.75702;45.563206;46428;6269510269;-73.75756;45.561468;0;4;5;9312730;Bus : 902 S - Direction Métro Côte-Vertu;"";STL;902S;Terminus Le Carrefour Quai:8;Métro Côte-Vertu
45798667;"{\"type\":\"LineString\",\"coordinates\":[[-73.7581485,45.562167],[-73.7563396,45.5605354],[-73.7562193,45.5604269],[-73.7561364,45.5603521],[-73.7546652,45.559025],[-73.7535619,45.5580297],[-73.7529782,45.5574863],[-73.7518147,45.5564032],[-73.7514779,45.5560897]]}";5;Boulevard Chomedey;3;60;false;true;false;false;false;false;426.5;1;0;0;0;0;false;43931;6269510236;-73.75702;45.563206;46428;6269510269;-73.75756;45.561468;1;4;5;9312730;Bus : 902 S - Direction Métro Côte-Vertu;"";STL;902S;Terminus Le Carrefour Quai:8;Métro Côte-Vertu
45798667;"{\"type\":\"LineString\",\"coordinates\":[[-73.7581485,45.562167],[-73.7563396,45.5605354],[-73.7562193,45.5604269],[-73.7561364,45.5603521],[-73.7546652,45.559025],[-73.7535619,45.5580297],[-73.7529782,45.5574863],[-73.7518147,45.5564032],[-73.7514779,45.5560897]]}";1;Boulevard Chomedey;3;60;false;true;false;false;false;false;426.5;1;0;0;0;0;false;41294;6269510359;-73.7518;45.556235;46633;6269510535;-73.75027;45.554858;1;8;9;9312730;Bus : 902 S - Direction Métro Côte-Vertu;"";STL;902S;Terminus Le Carrefour Quai:8;Métro Côte-Vertu
45755777;"{\"type\":\"LineString\",\"coordinates\":[[-73.7514779,45.5560897],[-73.7510888,45.5557212]]}";2;Boulevard Chomedey;2;60;false;true;false;false;false;false;51.0;1;0;0;0;0;false;41294;6269510359;-73.7518;45.556235;46633;6269510535;-73.75027;45.554858;0;8;9;9312730;Bus : 902 S - Direction Métro Côte-Vertu;"";STL;902S;Terminus Le Carrefour Quai:8;Métro Côte-Vertu
45286132;"{\"type\":\"LineString\",\"coordinates\":[[-73.7510888,45.5557212],[-73.7509739,45.5556057]]}";3;Boulevard Chomedey;2;60;false;true;false;false;false;false;16.0;2;0;0;0;0;false;41294;6269510359;-73.7518;45.556235;46633;6269510535;-73.75027;45.554858;0;8;9;9312730;Bus : 902 S - Direction Métro Côte-Vertu;"";STL;902S;Terminus Le Carrefour Quai:8;Métro Côte-Vertu
45799067;"{\"type\":\"LineString\",\"coordinates\":[[-73.7509739,45.5556057],[-73.7505877,45.5552613]]}";4;Boulevard Chomedey;2;60;false;true;false;false;false;false;49.0;1;0;0;0;0;false;41294;6269510359;-73.7518;45.556235;46633;6269510535;-73.75027;45.554858;0;8;9;9312730;Bus : 902 S - Direction Métro Côte-Vertu;"";STL;902S;Terminus Le Carrefour Quai:8;Métro Côte-Vertu
680568194;"{\"type\":\"LineString\",\"coordinates\":[[-73.7505877,45.5552613],[-73.7505364,45.5552153]]}";5;Boulevard Chomedey;2;60;false;true;false;false;false;false;7.0;0;0;0;0;0;false;41294;6269510359;-73.7518;45.556235;46633;6269510535;-73.75027;45.554858;0;8;9;9312730;Bus : 902 S - Direction Métro Côte-Vertu;"";STL;902S;Terminus Le Carrefour Quai:8;Métro Côte-Vertu
45755786;"{\"type\":\"LineString\",\"coordinates\":[[-73.7505364,45.5552153],[-73.7504827,45.5551664],[-73.7498611,45.5546004],[-73.7490402,45.5538529],[-73.7487154,45.5535572]]}";6;Boulevard Chomedey;2;60;false;true;false;false;false;false;116.5;2;0;0;0;0;false;41294;6269510359;-73.7518;45.556235;46633;6269510535;-73.75027;45.554858;1;8;9;9312730;Bus : 902 S - Direction Métro Côte-Vertu;"";STL;902S;Terminus Le Carrefour Quai:8;Métro Côte-Vertu
45755786;"{\"type\":\"LineString\",\"coordinates\":[[-73.7505364,45.5552153],[-73.7504827,45.5551664],[-73.7498611,45.5546004],[-73.7490402,45.5538529],[-73.7487154,45.5535572]]}";1;Boulevard Chomedey;2;60;false;true;false;false;false;false;116.5;2;0;0;0;0;false;41290;6269510524;-73.74894;45.55365;41288;6269510611;-73.74556;45.550886;1;10;11;9312730;Bus : 902 S - Direction Métro Côte-Vertu;"";STL;902S;Terminus Le Carrefour Quai:8;Métro Côte-Vertu
45755794;"{\"type\":\"LineString\",\"coordinates\":[[-73.7487154,45.5535572],[-73.7479035,45.5528899],[-73.7467887,45.5520509]]}";2;Boulevard Chomedey;2;60;false;true;false;false;false;false;225.0;1;0;0;0;0;false;41290;6269510524;-73.74894;45.55365;41288;6269510611;-73.74556;45.550886;0;10;11;9312730;Bus : 902 S - Direction Métro Côte-Vertu;"";STL;902S;Terminus Le Carrefour Quai:8;Métro Côte-Vertu
45755818;"{\"type\":\"LineString\",\"coordinates\":[[-73.7467887,45.5520509],[-73.7461342,45.5515217]]}";3;Boulevard Chomedey;2;60;false;true;false;false;false;false;78.0;1;0;0;0;0;false;41290;6269510524;-73.74894;45.55365;41288;6269510611;-73.74556;45.550886;0;10;11;9312730;Bus : 902 S - Direction Métro Côte-Vertu;"";STL;902S;Terminus Le Carrefour Quai:8;Métro Côte-Vertu
45755817;"{\"type\":\"LineString\",\"coordinates\":[[-73.7461342,45.5515217],[-73.7460213,45.5514124]]}";4;Boulevard Chomedey;2;50;false;true;false;false;false;false;15.0;2;0;0;0;0;false;41290;6269510524;-73.74894;45.55365;41288;6269510611;-73.74556;45.550886;0;10;11;9312730;Bus : 902 S - Direction Métro Côte-Vertu;"";STL;902S;Terminus Le Carrefour Quai:8;Métro Côte-Vertu
45755813;"{\"type\":\"LineString\",\"coordinates\":[[-73.7460213,45.5514124],[-73.7457326,45.5511482]]}";5;Boulevard Chomedey;2;60;false;true;false;false;false;false;37.0;1;0;0;0;0;false;41290;6269510524;-73.74894;45.55365;41288;6269510611;-73.74556;45.550886;0;10;11;9312730;Bus : 902 S - Direction Métro Côte-Vertu;"";STL;902S;Terminus Le Carrefour Quai:8;Métro Côte-Vertu
45755743;"{\"type\":\"LineString\",\"coordinates\":[[-73.7457326,45.5511482],[-73.7453592,45.5508141],[-73.744915,45.5504166],[-73.7443885,45.5499453],[-73.7436401,45.5492307],[-73.7434978,45.5490984]]}";6;Boulevard Chomedey;2;60;false;true;false;false;false;false;143.5;0;0;0;0;0;false;41290;6269510524;-73.74894;45.55365;41288;6269510611;-73.74556;45.550886;1;10;11;9312730;Bus : 902 S - Direction Métro Côte-Vertu;"";STL;902S;Terminus Le Carrefour Quai:8;Métro Côte-Vertu
45755751;"{\"type\":\"LineString\",\"coordinates\":[[-73.7434978,45.5490984],[-73.7430962,45.5487249]]}";1;Boulevard Chomedey;2;60;false;true;false;false;false;false;52.0;0;0;0;0;0;false;41286;6269510637;-73.74365;45.549162;41284;6269510667;-73.74167;45.547169;2;12;13;9312730;Bus : 902 S - Direction Métro Côte-Vertu;"";STL;902S;Terminus Le Carrefour Quai:8;Métro Côte-Vertu
45601010;"{\"type\":\"LineString\",\"coordinates\":[[-73.7430962,45.5487249],[-73.7426062,45.5482317],[-73.7415176,45.5471324]]}";2;Boulevard Chomedey;2;60;false;true;false;false;false;false;216.0;1;0;0;0;0;false;41286;6269510637;-73.74365;45.549162;41284;6269510667;-73.74167;45.547169;2;12;13;9312730;Bus : 902 S - Direction Métro Côte-Vertu;"";STL;902S;Terminus Le Carrefour Quai:8;Métro Côte-Vertu
45600941;"{\"type\":\"LineString\",\"coordinates\":[[-73.7396894,45.5446729],[-73.7392136,45.5441816]]}";1;Boulevard Chomedey;2;60;false;true;false;false;false;false;66.0;1;0;0;0;0;false;41302;6269510696;-73.7398;45.544653;41300;6269510705;-73.73815;45.542976;2;14;15;9312730;Bus : 902 S - Direction Métro Côte-Vertu;"";STL;902S;Terminus Le Carrefour Quai:8;Métro Côte-Vertu
45600946;"{\"type\":\"LineString\",\"coordinates\":[[-73.7392136,45.5441816],[-73.7391262,45.5440816]]}";2;Boulevard Chomedey;2;60;false;true;true;false;false;false;14.0;2;0;0;0;0;false;41302;6269510696;-73.7398;45.544653;41300;6269510705;-73.73815;45.542976;0;14;15;9312730;Bus : 902 S - Direction Métro Côte-Vertu;"";STL;902S;Terminus Le Carrefour Quai:8;Métro Côte-Vertu
45600945;"{\"type\":\"LineString\",\"coordinates\":[[-73.7391262,45.5440816],[-73.7388381,45.5437904]]}";3;Boulevard Chomedey;2;60;false;true;false;false;false;false;40.0;1;0;0;0;0;false;41302;6269510696;-73.7398;45.544653;41300;6269510705;-73.73815;45.542976;0;14;15;9312730;Bus : 902 S - Direction Métro Côte-Vertu;"";STL;902S;Terminus Le Carrefour Quai:8;Métro Côte-Vertu
45600951;"{\"type\":\"LineString\",\"coordinates\":[[-73.7388381,45.5437904],[-73.7381164,45.5430748]]}";4;Boulevard Chomedey;2;60;false;true;false;false;false;false;98.0;0;0;0;0;0;false;41302;6269510696;-73.7398;45.544653;41300;6269510705;-73.73815;45.542976;0;14;15;9312730;Bus : 902 S - Direction Métro Côte-Vertu;"";STL;902S;Terminus Le Carrefour Quai:8;Métro Côte-Vertu
45601115;"{\"type\":\"LineString\",\"coordinates\":[[-73.7381164,45.5430748],[-73.7378014,45.5427526]]}";5;Boulevard Chomedey;2;60;false;true;false;false;false;false;44.0;1;0;0;0;0;false;41302;6269510696;-73.7398;45.544653;41300;6269510705;-73.73815;45.542976;2;14;15;9312730;Bus : 902 S - Direction Métro Côte-Vertu;"";STL;902S;Terminus Le Carrefour Quai:8;Métro Côte-Vertu
45600951;"{\"type\":\"LineString\",\"coordinates\":[[-73.7388381,45.5437904],[-73.7381164,45.5430748]]}";1;Boulevard Chomedey;2;60;false;true;false;false;false;false;98.0;0;0;0;0;0;false;41300;6269510705;-73.73815;45.542976;41298;6269510744;-73.73704;45.541884;2;15;16;9312730;Bus : 902 S - Direction Métro Côte-Vertu;"";STL;902S;Terminus Le Carrefour Quai:8;Métro Côte-Vertu
45601115;"{\"type\":\"LineString\",\"coordinates\":[[-73.7381164,45.5430748],[-73.7378014,45.5427526]]}";2;Boulevard Chomedey;2;60;false;true;false;false;false;false;44.0;1;0;0;0;0;false;41300;6269510705;-73.73815;45.542976;41298;6269510744;-73.73704;45.541884;0;15;16;9312730;Bus : 902 S - Direction Métro Côte-Vertu;"";STL;902S;Terminus Le Carrefour Quai:8;Métro Côte-Vertu
45600835;"{\"type\":\"LineString\",\"coordinates\":[[-73.7378014,45.5427526],[-73.7373223,45.5422615]]}";3;Boulevard Chomedey;2;60;false;true;false;false;false;false;67.0;1;0;0;0;0;false;41300;6269510705;-73.73815;45.542976;41298;6269510744;-73.73704;45.541884;0;15;16;9312730;Bus : 902 S - Direction Métro Côte-Vertu;"";STL;902S;Terminus Le Carrefour Quai:8;Métro Côte-Vertu
45601029;"{\"type\":\"LineString\",\"coordinates\":[[-73.7373223,45.5422615],[-73.7367907,45.5417267],[-73.7354611,45.5403891]]}";4;Boulevard Chomedey;2;60;false;true;false;false;false;false;254.0;0;0;0;0;0;false;41300;6269510705;-73.73815;45.542976;41298;6269510744;-73.73704;45.541884;2;15;16;9312730;Bus : 902 S - Direction Métro Côte-Vertu;"";STL;902S;Terminus Le Carrefour Quai:8;Métro Côte-Vertu
45601029;"{\"type\":\"LineString\",\"coordinates\":[[-73.7373223,45.5422615],[-73.7367907,45.5417267],[-73.7354611,45.5403891]]}";1;Boulevard Chomedey;2;60;false;true;false;false;false;false;127.0;0;0;0;0;0;false;41298;6269510744;-73.73704;45.541884;41293;6269510773;-73.73433;45.539139;1;16;17;9312730;Bus : 902 S - Direction Métro Côte-Vertu;"";STL;902S;Terminus Le Carrefour Quai:8;Métro Côte-Vertu
45600920;"{\"type\":\"LineString\",\"coordinates\":[[-73.7354611,45.5403891],[-73.7341411,45.5390611]]}";2;Boulevard Chomedey;2;60;false;true;false;false;false;false;90.0;1;0;0;0;0;false;41298;6269510744;-73.73704;45.541884;41293;6269510773;-73.73433;45.539139;1;16;17;9312730;Bus : 902 S - Direction Métro Côte-Vertu;"";STL;902S;Terminus Le Carrefour Quai:8;Métro Côte-Vertu
45762958;"{\"type\":\"LineString\",\"coordinates\":[[-73.7341411,45.5390611],[-73.7340547,45.5389667]]}";1;Boulevard Curé-Labelle;2;60;false;true;true;false;false;false;13.0;2;0;0;0;0;false;41293;6269510773;-73.73433;45.539139;41442;6269510803;-73.7325042;45.5371655;2;17;18;9312730;Bus : 902 S - Direction Métro Côte-Vertu;"";STL;902S;Terminus Le Carrefour Quai:8;Métro Côte-Vertu
462118188;"{\"type\":\"LineString\",\"coordinates\":[[-73.7340547,45.5389667],[-73.7328963,45.5376998]]}";2;Boulevard Curé-Labelle;2;60;false;true;false;false;false;false;168.0;1;0;0;0;0;false;41293;6269510773;-73.73433;45.539139;41442;6269510803;-73.7325042;45.5371655;0;17;18;9312730;Bus : 902 S - Direction Métro Côte-Vertu;"";STL;902S;Terminus Le Carrefour Quai:8;Métro Côte-Vertu
128245114;"{\"type\":\"LineString\",\"coordinates\":[[-73.7328963,45.5376998],[-73.7321013,45.536832],[-73.7319809,45.5367005]]}";3;Boulevard Curé-Labelle;2;60;false;true;false;false;false;false;132.0;2;0;0;0;0;false;41293;6269510773;-73.73433;45.539139;41442;6269510803;-73.7325042;45.5371655;2;17;18;9312730;Bus : 902 S - Direction Métro Côte-Vertu;"";STL;902S;Terminus Le Carrefour Quai:8;Métro Côte-Vertu
128245114;"{\"type\":\"LineString\",\"coordinates\":[[-73.7328963,45.5376998],[-73.7321013,45.536832],[-73.7319809,45.5367005]]}";1;Boulevard Curé-Labelle;2;60;false;true;false;false;false;false;66.0;2;0;0;0;0;false;41442;6269510803;-73.7325042;45.5371655;41419;6269510798;-73.73001;45.534334;1;18;19;9312730;Bus : 902 S - Direction Métro Côte-Vertu;"";STL;902S;Terminus Le Carrefour Quai:8;Métro Côte-Vertu
46257321;"{\"type\":\"LineString\",\"coordinates\":[[-73.7319809,45.5367005],[-73.7313096,45.535922]]}";2;Boulevard Curé-Labelle;3;60;false;true;false;false;false;false;102.0;1;0;0;0;0;false;41442;6269510803;-73.7325042;45.5371655;41419;6269510798;-73.73001;45.534334;0;18;19;9312730;Bus : 902 S - Direction Métro Côte-Vertu;"";STL;902S;Terminus Le Carrefour Quai:8;Métro Côte-Vertu
542855865;"{\"type\":\"LineString\",\"coordinates\":[[-73.7313096,45.535922],[-73.7298128,45.5343145],[-73.7293464,45.5338709]]}";3;Boulevard Curé-Labelle;3;60;false;true;true;false;false;false;137.5;0;0;0;0;0;false;41442;6269510803;-73.7325042;45.5371655;41419;6269510798;-73.73001;45.534334;1;18;19;9312730;Bus : 902 S - Direction Métro Côte-Vertu;"";STL;902S;Terminus Le Carrefour Quai:8;Métro Côte-Vertu
542855865;"{\"type\":\"LineString\",\"coordinates\":[[-73.7313096,45.535922],[-73.7298128,45.5343145],[-73.7293464,45.5338709]]}";1;Boulevard Curé-Labelle;3;60;false;true;true;false;false;false;137.5;0;0;0;0;0;false;41419;6269510798;-73.73001;45.534334;41894;6269511046;-73.72309;45.529446;1;19;20;9312730;Bus : 902 S - Direction Métro Côte-Vertu;"";STL;902S;Terminus Le Carrefour Quai:8;Métro Côte-Vertu
94780933;"{\"type\":\"LineString\",\"coordinates\":[[-73.7293464,45.5338709],[-73.7269468,45.531795]]}";2;Pont Lachapelle;3;50;false;true;false;false;false;false;298.0;0;0;0;0;0;false;41419;6269510798;-73.73001;45.534334;41894;6269511046;-73.72309;45.529446;0;19;20;9312730;Bus : 902 S - Direction Métro Côte-Vertu;"";STL;902S;Terminus Le Carrefour Quai:8;Métro Côte-Vertu
5028809;"{\"type\":\"LineString\",\"coordinates\":[[-73.7269468,45.531795],[-73.7268536,45.5317252],[-73.7267279,45.5316537],[-73.7265106,45.5315477],[-73.7259956,45.5313209]]}";3;Boulevard Laurentien;3;50;false;true;false;false;false;false;92.0;1;0;0;0;0;false;41419;6269510798;-73.73001;45.534334;41894;6269511046;-73.72309;45.529446;0;19;20;9312730;Bus : 902 S - Direction Métro Côte-Vertu;"";STL;902S;Terminus Le Carrefour Quai:8;Métro Côte-Vertu
462135853;"{\"type\":\"LineString\",\"coordinates\":[[-73.7259956,45.5313209],[-73.7257243,45.5312006],[-73.7255083,45.5310831],[-73.7249686,45.5307255],[-73.7236577,45.5298526],[-73.7232889,45.5296926]]}";4;Boulevard Laurentien;3;50;false;true;true;false;false;false;280.0;2;0;0;0;0;false;41419;6269510798;-73.73001;45.534334;41894;6269511046;-73.72309;45.529446;0;19;20;9312730;Bus : 902 S - Direction Métro Côte-Vertu;"";STL;902S;Terminus Le Carrefour Quai:8;Métro Côte-Vertu
455461136;"{\"type\":\"LineString\",\"coordinates\":[[-73.7232889,45.5296926],[-73.7230436,45.5295175]]}";5;Boulevard Laurentien;2;50;false;true;true;false;false;false;28.0;1;0;0;0;0;false;41419;6269510798;-73.73001;45.534334;41894;6269511046;-73.72309;45.529446;0;19;20;9312730;Bus : 902 S - Direction Métro Côte-Vertu;"";STL;902S;Terminus Le Carrefour Quai:8;Métro Côte-Vertu
113530731;"{\"type\":\"LineString\",\"coordinates\":[[-73.7230436,45.5295175],[-73.72272,45.5293116],[-73.7220588,45.5289137],[-73.7211095,45.5283793],[-73.7207342,45.5281696],[-73.7201435,45.5279313],[-73.7195792,45.5276916],[-73.7187936,45.5273851],[-73.7183638,45.527233],[-73.7179566,45.5270888],[-73.717534,45.52694],[-73.7168137,45.5266842],[-73.7153909,45.526135],[-73.7148603,45.5259303],[-73.7147599,45.5258915]]}";6;Boulevard Laurentien;2;50;false;true;true;false;false;false;383.0;1;0;0;0;0;false;41419;6269510798;-73.73001;45.534334;41894;6269511046;-73.72309;45.529446;1;19;20;9312730;Bus : 902 S - Direction Métro Côte-Vertu;"";STL;902S;Terminus Le Carrefour Quai:8;Métro Côte-Vertu
455461136;"{\"type\":\"LineString\",\"coordinates\":[[-73.7232889,45.5296926],[-73.7230436,45.5295175]]}";1;Boulevard Laurentien;2;50;false;true;true;false;false;false;28.0;1;0;0;0;0;false;41894;6269511046;-73.72309;45.529446;41896;6269511952;-73.70859;45.522659;2;20;21;9312730;Bus : 902 S - Direction Métro Côte-Vertu;"";STL;902S;Terminus Le Carrefour Quai:8;Métro Côte-Vertu
113530731;"{\"type\":\"LineString\",\"coordinates\":[[-73.7230436,45.5295175],[-73.72272,45.5293116],[-73.7220588,45.5289137],[-73.7211095,45.5283793],[-73.7207342,45.5281696],[-73.7201435,45.5279313],[-73.7195792,45.5276916],[-73.7187936,45.5273851],[-73.7183638,45.527233],[-73.7179566,45.5270888],[-73.717534,45.52694],[-73.7168137,45.5266842],[-73.7153909,45.526135],[-73.7148603,45.5259303],[-73.7147599,45.5258915]]}";2;Boulevard Laurentien;2;50;false;true;true;false;false;false;766.0;1;0;0;0;0;false;41894;6269511046;-73.72309;45.529446;41896;6269511952;-73.70859;45.522659;0;20;21;9312730;Bus : 902 S - Direction Métro Côte-Vertu;"";STL;902S;Terminus Le Carrefour Quai:8;Métro Côte-Vertu
680568193;"{\"type\":\"LineString\",\"coordinates\":[[-73.7147599,45.5258915],[-73.7143385,45.5257247],[-73.7136384,45.5254475]]}";3;Boulevard Laurentien;2;50;false;true;true;false;false;false;101.0;0;0;0;0;0;false;41894;6269511046;-73.72309;45.529446;41896;6269511952;-73.70859;45.522659;0;20;21;9312730;Bus : 902 S - Direction Métro Côte-Vertu;"";STL;902S;Terminus Le Carrefour Quai:8;Métro Côte-Vertu
113530732;"{\"type\":\"LineString\",\"coordinates\":[[-73.7136384,45.5254475],[-73.7131049,45.5252334],[-73.7121921,45.5248794]]}";4;Boulevard Laurentien;1;50;false;true;true;false;false;false;130.0;1;0;0;0;0;false;41894;6269511046;-73.72309;45.529446;41896;6269511952;-73.70859;45.522659;0;20;21;9312730;Bus : 902 S - Direction Métro Côte-Vertu;"";STL;902S;Terminus Le Carrefour Quai:8;Métro Côte-Vertu
436522807;"{\"type\":\"LineString\",\"coordinates\":[[-73.7121921,45.5248794],[-73.7120998,45.5248434],[-73.7117947,45.5246972],[-73.7113222,45.5244708]]}";5;Boulevard Laurentien;1;50;false;true;true;false;false;false;82.0;2;0;0;0;0;false;41894;6269511046;-73.72309;45.529446;41896;6269511952;-73.70859;45.522659;0;20;21;9312730;Bus : 902 S - Direction Métro Côte-Vertu;"";STL;902S;Terminus Le Carrefour Quai:8;Métro Côte-Vertu
436537339;"{\"type\":\"LineString\",\"coordinates\":[[-73.7113222,45.5244708],[-73.7095773,45.5233526],[-73.7094065,45.5232432]]}";6;Boulevard Laurentien;1;50;false;true;true;false;false;false;203.0;1;0;0;0;0;false;41894;6269511046;-73.72309;45.529446;41896;6269511952;-73.70859;45.522659;0;20;21;9312730;Bus : 902 S - Direction Métro Côte-Vertu;"";STL;902S;Terminus Le Carrefour Quai:8;Métro Côte-Vertu
766554177;"{\"type\":\"LineString\",\"coordinates\":[[-73.7094065,45.5232432],[-73.7092366,45.5231377]]}";7;Boulevard Laurentien;1;50;false;true;true;false;false;false;18.0;0;0;0;0;0;false;41894;6269511046;-73.72309;45.529446;41896;6269511952;-73.70859;45.522659;0;20;21;9312730;Bus : 902 S - Direction Métro Côte-Vertu;"";STL;902S;Terminus Le Carrefour Quai:8;Métro Côte-Vertu
436537342;"{\"type\":\"LineString\",\"coordinates\":[[-73.7092366,45.5231377],[-73.7091658,45.5230921],[-73.7089112,45.5229346],[-73.708669,45.5227808],[-73.7081256,45.5224358]]}";8;Boulevard Marcel-Laurin;1;50;false;true;true;false;false;false;117.0;0;0;0;0;0;false;41894;6269511046;-73.72309;45.529446;41896;6269511952;-73.70859;45.522659;2;20;21;9312730;Bus : 902 S - Direction Métro Côte-Vertu;"";STL;902S;Terminus Le Carrefour Quai:8;Métro Côte-Vertu
436537342;"{\"type\":\"LineString\",\"coordinates\":[[-73.7092366,45.5231377],[-73.7091658,45.5230921],[-73.7089112,45.5229346],[-73.708669,45.5227808],[-73.7081256,45.5224358]]}";1;Boulevard Marcel-Laurin;1;50;false;true;true;false;false;false;58.5;0;0;0;0;0;false;41896;6269511952;-73.70859;45.522659;41898;6269512736;-73.70081;45.517859;1;21;22;9312730;Bus : 902 S - Direction Métro Côte-Vertu;"";STL;902S;Terminus Le Carrefour Quai:8;Métro Côte-Vertu
554215458;"{\"type\":\"LineString\",\"coordinates\":[[-73.7081256,45.5224358],[-73.7078681,45.5222601],[-73.7077778,45.5221908]]}";2;Boulevard Marcel-Laurin;1;50;false;true;true;false;false;false;39.0;1;0;0;0;0;false;41896;6269511952;-73.70859;45.522659;41898;6269512736;-73.70081;45.517859;0;21;22;9312730;Bus : 902 S - Direction Métro Côte-Vertu;"";STL;902S;Terminus Le Carrefour Quai:8;Métro Côte-Vertu
453252588;"{\"type\":\"LineString\",\"coordinates\":[[-73.7077778,45.5221908],[-73.7076583,45.5221054]]}";3;Boulevard Marcel-Laurin;1;50;false;true;true;false;false;false;14.0;2;0;0;0;0;false;41896;6269511952;-73.70859;45.522659;41898;6269512736;-73.70081;45.517859;0;21;22;9312730;Bus : 902 S - Direction Métro Côte-Vertu;"";STL;902S;Terminus Le Carrefour Quai:8;Métro Côte-Vertu
453252583;"{\"type\":\"LineString\",\"coordinates\":[[-73.7076583,45.5221054],[-73.707228,45.5218078]]}";4;Boulevard Marcel-Laurin;1;50;false;true;true;false;false;false;48.0;1;0;0;0;0;false;41896;6269511952;-73.70859;45.522659;41898;6269512736;-73.70081;45.517859;0;21;22;9312730;Bus : 902 S - Direction Métro Côte-Vertu;"";STL;902S;Terminus Le Carrefour Quai:8;Métro Côte-Vertu
453252591;"{\"type\":\"LineString\",\"coordinates\":[[-73.707228,45.5218078],[-73.7067175,45.5214872],[-73.7061925,45.5211911],[-73.705654,45.5209202]]}";5;Boulevard Marcel-Laurin;1;50;false;true;true;false;false;false;158.0;0;0;0;0;0;false;41896;6269511952;-73.70859;45.522659;41898;6269512736;-73.70081;45.517859;0;21;22;9312730;Bus : 902 S - Direction Métro Côte-Vertu;"";STL;902S;Terminus Le Carrefour Quai:8;Métro Côte-Vertu
51541515;"{\"type\":\"LineString\",\"coordinates\":[[-73.705654,45.5209202],[-73.7051353,45.520627]]}";6;Boulevard Marcel-Laurin;1;50;false;true;true;false;false;false;52.0;0;0;0;0;0;false;41896;6269511952;-73.70859;45.522659;41898;6269512736;-73.70081;45.517859;0;21;22;9312730;Bus : 902 S - Direction Métro Côte-Vertu;"";STL;902S;Terminus Le Carrefour Quai:8;Métro Côte-Vertu
436520266;"{\"type\":\"LineString\",\"coordinates\":[[-73.7051353,45.520627],[-73.703603,45.5196816],[-73.7031255,45.519387],[-73.7017514,45.5185393]]}";7;Boulevard Marcel-Laurin;1;50;false;true;true;false;false;false;352.0;1;0;0;0;0;false;41896;6269511952;-73.70859;45.522659;41898;6269512736;-73.70081;45.517859;0;21;22;9312730;Bus : 902 S - Direction Métro Côte-Vertu;"";STL;902S;Terminus Le Carrefour Quai:8;Métro Côte-Vertu
436519244;"{\"type\":\"LineString\",\"coordinates\":[[-73.7017514,45.5185393],[-73.7008631,45.5179911],[-73.7008199,45.5179645],[-73.7001273,45.5175372],[-73.6999795,45.517446]]}";8;Boulevard Marcel-Laurin;1;50;false;true;true;false;false;false;92.5;2;0;0;0;0;false;41896;6269511952;-73.70859;45.522659;41898;6269512736;-73.70081;45.517859;1;21;22;9312730;Bus : 902 S - Direction Métro Côte-Vertu;"";STL;902S;Terminus Le Carrefour Quai:8;Métro Côte-Vertu
436519244;"{\"type\":\"LineString\",\"coordinates\":[[-73.7017514,45.5185393],[-73.7008631,45.5179911],[-73.7008199,45.5179645],[-73.7001273,45.5175372],[-73.6999795,45.517446]]}";1;Boulevard Marcel-Laurin;1;50;false;true;true;false;false;false;92.5;2;0;0;0;0;false;41898;6269512736;-73.70081;45.517859;"40902;40802";6272908096;-73.68225;45.513605;1;22;23;9312730;Bus : 902 S - Direction Métro Côte-Vertu;"";STL;902S;Terminus Le Carrefour Quai:8;Métro Côte-Vertu
436518946;"{\"type\":\"LineString\",\"coordinates\":[[-73.6999795,45.517446],[-73.6998974,45.5173953],[-73.6973664,45.5158336]]}";2;Boulevard Marcel-Laurin;1;50;false;true;true;false;false;false;272.0;0;0;0;0;0;false;41898;6269512736;-73.70081;45.517859;"40902;40802";6272908096;-73.68225;45.513605;0;22;23;9312730;Bus : 902 S - Direction Métro Côte-Vertu;"";STL;902S;Terminus Le Carrefour Quai:8;Métro Côte-Vertu
436517542;"{\"type\":\"LineString\",\"coordinates\":[[-73.6973664,45.5158336],[-73.6952174,45.5145077]]}";3;Boulevard Marcel-Laurin;1;50;false;true;true;false;false;false;224.0;0;0;0;0;0;false;41898;6269512736;-73.70081;45.517859;"40902;40802";6272908096;-73.68225;45.513605;0;22;23;9312730;Bus : 902 S - Direction Métro Côte-Vertu;"";STL;902S;Terminus Le Carrefour Quai:8;Métro Côte-Vertu
436517276;"{\"type\":\"LineString\",\"coordinates\":[[-73.6952174,45.5145077],[-73.6937938,45.5136293]]}";4;Boulevard Marcel-Laurin;1;50;false;true;true;false;false;false;148.0;0;0;0;0;0;false;41898;6269512736;-73.70081;45.517859;"40902;40802";6272908096;-73.68225;45.513605;0;22;23;9312730;Bus : 902 S - Direction Métro Côte-Vertu;"";STL;902S;Terminus Le Carrefour Quai:8;Métro Côte-Vertu
453733903;"{\"type\":\"LineString\",\"coordinates\":[[-73.6937938,45.5136293],[-73.6930725,45.5131842]]}";5;Boulevard Marcel-Laurin;1;50;false;true;true;false;false;false;75.0;0;0;0;0;0;false;41898;6269512736;-73.70081;45.517859;"40902;40802";6272908096;-73.68225;45.513605;0;22;23;9312730;Bus : 902 S - Direction Métro Côte-Vertu;"";STL;902S;Terminus Le Carrefour Quai:8;Métro Côte-Vertu
453733904;"{\"type\":\"LineString\",\"coordinates\":[[-73.6930725,45.5131842],[-73.6929199,45.5130837]]}";6;Boulevard Marcel-Laurin;1;50;false;true;true;false;false;false;17.0;1;0;0;0;0;false;41898;6269512736;-73.70081;45.517859;"40902;40802";6272908096;-73.68225;45.513605;0;22;23;9312730;Bus : 902 S - Direction Métro Côte-Vertu;"";STL;902S;Terminus Le Carrefour Quai:8;Métro Côte-Vertu
436516022;"{\"type\":\"LineString\",\"coordinates\":[[-73.6928161,45.5131664],[-73.6929199,45.5130837]]}";7;Boulevard Thimens;1;50;false;false;false;false;false;false;13.0;2;0;0;0;0;false;41898;6269512736;-73.70081;45.517859;"40902;40802";6272908096;-73.68225;45.513605;0;22;23;9312730;Bus : 902 S - Direction Métro Côte-Vertu;"";STL;902S;Terminus Le Carrefour Quai:8;Métro Côte-Vertu
436516023;"{\"type\":\"LineString\",\"coordinates\":[[-73.6928161,45.5131664],[-73.6914967,45.5141451]]}";8;Boulevard Thimens;1;50;false;true;false;false;false;false;150.0;1;0;0;0;0;false;41898;6269512736;-73.70081;45.517859;"40902;40802";6272908096;-73.68225;45.513605;0;22;23;9312730;Bus : 902 S - Direction Métro Côte-Vertu;"";STL;902S;Terminus Le Carrefour Quai:8;Métro Côte-Vertu
453963465;"{\"type\":\"LineString\",\"coordinates\":[[-73.6914967,45.5141451],[-73.69069,45.5136287],[-73.6902422,45.5133419],[-73.6891816,45.5126629]]}";9;Rue Grenet;2;50;false;false;true;false;false;false;245.0;0;0;0;0;0;false;41898;6269512736;-73.70081;45.517859;"40902;40802";6272908096;-73.68225;45.513605;0;22;23;9312730;Bus : 902 S - Direction Métro Côte-Vertu;"";STL;902S;Terminus Le Carrefour Quai:8;Métro Côte-Vertu
464904589;"{\"type\":\"LineString\",\"coordinates\":[[-73.6879643,45.5136274],[-73.6886125,45.5131138],[-73.6888103,45.5129571],[-73.6890952,45.5127313],[-73.6891816,45.5126629]]}";10;Rue Rochon;2;50;false;false;true;false;false;false;144.0;0;0;0;0;0;false;41898;6269512736;-73.70081;45.517859;"40902;40802";6272908096;-73.68225;45.513605;0;22;23;9312730;Bus : 902 S - Direction Métro Côte-Vertu;"";STL;902S;Terminus Le Carrefour Quai:8;Métro Côte-Vertu
464904591;"{\"type\":\"LineString\",\"coordinates\":[[-73.6872347,45.5142054],[-73.6879643,45.5136274]]}";11;Rue Rochon;2;50;false;false;true;false;false;false;86.0;0;0;0;0;0;false;41898;6269512736;-73.70081;45.517859;"40902;40802";6272908096;-73.68225;45.513605;0;22;23;9312730;Bus : 902 S - Direction Métro Côte-Vertu;"";STL;902S;Terminus Le Carrefour Quai:8;Métro Côte-Vertu
464904588;"{\"type\":\"LineString\",\"coordinates\":[[-73.68657,45.5147321],[-73.6872347,45.5142054]]}";12;Rue Rochon;2;50;false;false;true;false;false;false;79.0;0;0;0;0;0;false;41898;6269512736;-73.70081;45.517859;"40902;40802";6272908096;-73.68225;45.513605;0;22;23;9312730;Bus : 902 S - Direction Métro Côte-Vertu;"";STL;902S;Terminus Le Carrefour Quai:8;Métro Côte-Vertu
553530124;"{\"type\":\"LineString\",\"coordinates\":[[-73.6851646,45.5158284],[-73.6858709,45.5152774],[-73.68657,45.5147321]]}";13;Rue Rochon;2;50;false;false;true;false;false;false;164.0;0;0;0;0;0;false;41898;6269512736;-73.70081;45.517859;"40902;40802";6272908096;-73.68225;45.513605;0;22;23;9312730;Bus : 902 S - Direction Métro Côte-Vertu;"";STL;902S;Terminus Le Carrefour Quai:8;Métro Côte-Vertu
464904580;"{\"type\":\"LineString\",\"coordinates\":[[-73.6851646,45.5158284],[-73.6847817,45.5155869],[-73.6847051,45.5155385],[-73.6838173,45.5149771],[-73.6836777,45.5148882]]}";14;Rue Décarie;2;50;false;false;true;false;false;false;157.0;0;0;0;0;0;false;41898;6269512736;-73.70081;45.517859;"40902;40802";6272908096;-73.68225;45.513605;0;22;23;9312730;Bus : 902 S - Direction Métro Côte-Vertu;"";STL;902S;Terminus Le Carrefour Quai:8;Métro Côte-Vertu
464904579;"{\"type\":\"LineString\",\"coordinates\":[[-73.6836777,45.5148882],[-73.6835355,45.5147989],[-73.6834732,45.5147581]]}";15;Rue Décarie;2;50;false;false;true;false;false;false;22.0;0;0;0;0;0;false;41898;6269512736;-73.70081;45.517859;"40902;40802";6272908096;-73.68225;45.513605;0;22;23;9312730;Bus : 902 S - Direction Métro Côte-Vertu;"";STL;902S;Terminus Le Carrefour Quai:8;Métro Côte-Vertu
436393531;"{\"type\":\"LineString\",\"coordinates\":[[-73.6834732,45.5147581],[-73.6831228,45.514412],[-73.6829536,45.5143067],[-73.6828456,45.5142395]]}";16;Rue Décarie;2;50;false;true;true;false;false;false;77.0;0;1;0;0;0;false;41898;6269512736;-73.70081;45.517859;"40902;40802";6272908096;-73.68225;45.513605;0;22;23;9312730;Bus : 902 S - Direction Métro Côte-Vertu;"";STL;902S;Terminus Le Carrefour Quai:8;Métro Côte-Vertu
453512964;"{\"type\":\"LineString\",\"coordinates\":[[-73.6828456,45.5142395],[-73.6827068,45.5141446]]}";17;Boulevard Décarie;2;50;false;true;true;false;false;false;16.0;0;0;0;0;0;false;41898;6269512736;-73.70081;45.517859;"40902;40802";6272908096;-73.68225;45.513605;0;22;23;9312730;Bus : 902 S - Direction Métro Côte-Vertu;"";STL;902S;Terminus Le Carrefour Quai:8;Métro Côte-Vertu
453512963;"{\"type\":\"LineString\",\"coordinates\":[[-73.6827068,45.5141446],[-73.68267,45.5141206],[-73.6820079,45.513689]]}";18;Boulevard Décarie;2;50;false;true;true;false;false;false;75.0;1;1;0;0;0;false;41898;6269512736;-73.70081;45.517859;"40902;40802";6272908096;-73.68225;45.513605;0;22;23;9312730;Bus : 902 S - Direction Métro Côte-Vertu;"";STL;902S;Terminus Le Carrefour Quai:8;Métro Côte-Vertu
695754848;"{\"type\":\"LineString\",\"coordinates\":[[-73.6820079,45.513689],[-73.6821753,45.5135582]]}";19;Boulevard Édouard-Laurin;1;50;false;true;true;false;false;false;20.0;1;0;0;0;0;false;41898;6269512736;-73.70081;45.517859;"40902;40802";6272908096;-73.68225;45.513605;1;22;23;9312730;Bus : 902 S - Direction Métro Côte-Vertu;"";STL;902S;Terminus Le Carrefour Quai:8;Métro Côte-Vertu
