way_id;shape;index;name;nb_lanes;legal_speed;speed_zone_30;oneway;shares_bike;bike_box;bus_lane;dedicated_bus_lane;length;nb_traffic_signals;nb_crossings;nb_stops;nb_give_ways;nb_lvl_crossings;roundabout;stop_id_orig;node_id_orig;coord_x_orig;coord_y_orig;stop_id_dest;node_id_dest;coord_x_dest;coord_y_dest;nb_neighbouring_ways_bus_stop;ordre_orig;ordre_dest;id_line;line_name;colour;operator;ref;from;to
212737101;"{\"type\":\"LineString\",\"coordinates\":[[3.0569268,36.7599463],[3.0569166,36.7599102],[3.0569028,36.7599002],[3.0568685,36.7598626],[3.0567947,36.7598304],[3.0565319,36.7599077],[3.0564589,36.7599727],[3.0564353,36.7600162],[3.0563758,36.7601022],[3.0563166,36.7601554],[3.0561742,36.7601998],[3.0561076,36.7602201]]}";1;"";1;50;false;false;true;false;false;false;99.0;0;0;0;0;0;false;1er Mai;287469933;3.0567062;36.7600878;Musset;3784295295;3.0600243;36.754942;1;0;1;3101476;Bus: 1er Mai -> Bir Mourad Rais;green;ETUSA;14;1er Mai;Bir Mourad Rais
212777304;"{\"type\":\"LineString\",\"coordinates\":[[3.0561076,36.7602201],[3.0560516,36.7601116],[3.0558318,36.7595894],[3.0557896,36.7594457]]}";2;Rue Belouizdad Mohamed;3;50;false;true;true;false;false;false;92.0;0;0;0;0;0;false;1er Mai;287469933;3.0567062;36.7600878;Musset;3784295295;3.0600243;36.754942;0;0;1;3101476;Bus: 1er Mai -> Bir Mourad Rais;green;ETUSA;14;1er Mai;Bir Mourad Rais
231932480;"{\"type\":\"LineString\",\"coordinates\":[[3.0557896,36.7594457],[3.0557228,36.7592352],[3.0556772,36.7590547],[3.0556711,36.7589692],[3.0556792,36.7587967],[3.0557257,36.7586204]]}";3;Rue Belouizdad Mohamed;2;50;false;true;true;false;false;false;95.0;0;0;0;0;0;false;1er Mai;287469933;3.0567062;36.7600878;Musset;3784295295;3.0600243;36.754942;0;0;1;3101476;Bus: 1er Mai -> Bir Mourad Rais;green;ETUSA;14;1er Mai;Bir Mourad Rais
375804046;"{\"type\":\"LineString\",\"coordinates\":[[3.0557257,36.7586204],[3.0557668,36.7585733],[3.0560114,36.7583534],[3.0565013,36.757922]]}";4;Rue Belouizdad Mohamed;2;50;false;true;true;false;false;false;106.0;0;0;0;0;0;false;1er Mai;287469933;3.0567062;36.7600878;Musset;3784295295;3.0600243;36.754942;0;0;1;3101476;Bus: 1er Mai -> Bir Mourad Rais;green;ETUSA;14;1er Mai;Bir Mourad Rais
327382998;"{\"type\":\"LineString\",\"coordinates\":[[3.0565013,36.757922],[3.0569533,36.7575861],[3.0574301,36.7571885],[3.0582904,36.7564796],[3.0586246,36.7561965],[3.0590113,36.7558753],[3.0592048,36.7557169],[3.0593998,36.755556],[3.0601876,36.7549022],[3.0601896,36.7549011],[3.0605585,36.7546001],[3.0606847,36.7545063],[3.0609318,36.7543136],[3.0610349,36.7542127],[3.0611448,36.7541097],[3.0612687,36.7539742],[3.0615887,36.7535376],[3.0616568,36.753408],[3.0619348,36.7530184],[3.0619787,36.752944],[3.0621765,36.7526952],[3.0622862,36.7525317],[3.0623492,36.7524302],[3.0625237,36.7521704],[3.0626328,36.752008],[3.0628394,36.7517085],[3.0628906,36.7516435],[3.0629883,36.7515242],[3.0630565,36.7514843],[3.0632115,36.7514045],[3.0638348,36.7511494],[3.0640346,36.7510825],[3.064697,36.7507961],[3.0648194,36.7507288],[3.0649526,36.7506637],[3.0653019,36.7504746],[3.0653469,36.7504488],[3.0657919,36.7502083],[3.0660068,36.7500838],[3.0662831,36.7499312],[3.0666532,36.7497335],[3.0668071,36.7496597],[3.0671059,36.7495165],[3.0674667,36.7493609],[3.0686833,36.7488071],[3.0687697,36.7487665],[3.0689423,36.7486803],[3.0690517,36.7486257],[3.0690571,36.7486227],[3.0691545,36.7485693],[3.0694046,36.748432],[3.0694576,36.7484063],[3.06948,36.7483955],[3.0695309,36.7483708],[3.0705466,36.7478993],[3.0705861,36.7478814],[3.0707255,36.7478185],[3.0707844,36.7477869],[3.0709113,36.7477272],[3.0710235,36.7476744],[3.0711483,36.7476185],[3.0712818,36.747544],[3.0714108,36.7474725],[3.072213,36.7469452],[3.0725983,36.7466968],[3.0728254,36.7465567],[3.0730321,36.7464441],[3.0734023,36.7462515],[3.0735831,36.7461756],[3.0754254,36.7454018],[3.076293,36.7449692],[3.0770784,36.7447016],[3.0781838,36.7441921],[3.0787425,36.743948],[3.0790885,36.7437947],[3.0791822,36.7437532],[3.0797252,36.7435128],[3.0802991,36.7432749],[3.0803945,36.7432333],[3.0808048,36.7430477],[3.0812297,36.7428613],[3.0815868,36.7426936],[3.0820119,36.7424647],[3.0821784,36.7423561]]}";5;Rue Belouizdad Mohamed;2;40;false;true;true;false;false;false;1479.5;0;3;0;0;0;false;1er Mai;287469933;3.0567062;36.7600878;Musset;3784295295;3.0600243;36.754942;1;0;1;3101476;Bus: 1er Mai -> Bir Mourad Rais;green;ETUSA;14;1er Mai;Bir Mourad Rais
327382998;"{\"type\":\"LineString\",\"coordinates\":[[3.0565013,36.757922],[3.0569533,36.7575861],[3.0574301,36.7571885],[3.0582904,36.7564796],[3.0586246,36.7561965],[3.0590113,36.7558753],[3.0592048,36.7557169],[3.0593998,36.755556],[3.0601876,36.7549022],[3.0601896,36.7549011],[3.0605585,36.7546001],[3.0606847,36.7545063],[3.0609318,36.7543136],[3.0610349,36.7542127],[3.0611448,36.7541097],[3.0612687,36.7539742],[3.0615887,36.7535376],[3.0616568,36.753408],[3.0619348,36.7530184],[3.0619787,36.752944],[3.0621765,36.7526952],[3.0622862,36.7525317],[3.0623492,36.7524302],[3.0625237,36.7521704],[3.0626328,36.752008],[3.0628394,36.7517085],[3.0628906,36.7516435],[3.0629883,36.7515242],[3.0630565,36.7514843],[3.0632115,36.7514045],[3.0638348,36.7511494],[3.0640346,36.7510825],[3.064697,36.7507961],[3.0648194,36.7507288],[3.0649526,36.7506637],[3.0653019,36.7504746],[3.0653469,36.7504488],[3.0657919,36.7502083],[3.0660068,36.7500838],[3.0662831,36.7499312],[3.0666532,36.7497335],[3.0668071,36.7496597],[3.0671059,36.7495165],[3.0674667,36.7493609],[3.0686833,36.7488071],[3.0687697,36.7487665],[3.0689423,36.7486803],[3.0690517,36.7486257],[3.0690571,36.7486227],[3.0691545,36.7485693],[3.0694046,36.748432],[3.0694576,36.7484063],[3.06948,36.7483955],[3.0695309,36.7483708],[3.0705466,36.7478993],[3.0705861,36.7478814],[3.0707255,36.7478185],[3.0707844,36.7477869],[3.0709113,36.7477272],[3.0710235,36.7476744],[3.0711483,36.7476185],[3.0712818,36.747544],[3.0714108,36.7474725],[3.072213,36.7469452],[3.0725983,36.7466968],[3.0728254,36.7465567],[3.0730321,36.7464441],[3.0734023,36.7462515],[3.0735831,36.7461756],[3.0754254,36.7454018],[3.076293,36.7449692],[3.0770784,36.7447016],[3.0781838,36.7441921],[3.0787425,36.743948],[3.0790885,36.7437947],[3.0791822,36.7437532],[3.0797252,36.7435128],[3.0802991,36.7432749],[3.0803945,36.7432333],[3.0808048,36.7430477],[3.0812297,36.7428613],[3.0815868,36.7426936],[3.0820119,36.7424647],[3.0821784,36.7423561]]}";1;Rue Belouizdad Mohamed;2;40;false;true;true;false;false;false;1479.5;0;3;0;0;0;false;El Annasser 1;3784295291;3.0791646;36.7437277;Oued Kniss;2804815538;3.081048;36.7412743;1;6;7;3101476;Bus: 1er Mai -> Bir Mourad Rais;green;ETUSA;14;1er Mai;Bir Mourad Rais
213266724;"{\"type\":\"LineString\",\"coordinates\":[[3.0821784,36.7423561],[3.0822605,36.7422265],[3.0822953,36.7421448],[3.0823007,36.742091],[3.0822873,36.7420024]]}";2;"";1;50;false;true;true;false;false;false;43.0;0;0;0;0;0;false;El Annasser 1;3784295291;3.0791646;36.7437277;Oued Kniss;2804815538;3.081048;36.7412743;0;6;7;3101476;Bus: 1er Mai -> Bir Mourad Rais;green;ETUSA;14;1er Mai;Bir Mourad Rais
69682933;"{\"type\":\"LineString\",\"coordinates\":[[3.0753214,36.7396295],[3.0754333,36.7396673],[3.0758259,36.7397997],[3.0764191,36.7399866],[3.0776394,36.7403461],[3.0785257,36.7405943],[3.0795054,36.7408424],[3.080008,36.7409554],[3.0808967,36.741167],[3.0810508,36.7412034],[3.0810786,36.7412122],[3.0814705,36.7413364],[3.0816002,36.7413969],[3.081668,36.7414507],[3.0817729,36.7415325],[3.08208,36.7417973],[3.0822251,36.7419409],[3.0822873,36.7420024]]}";3;Avenue Belkacemi Mohamed;1;50;false;false;true;false;false;false;347.5;0;1;0;0;0;false;El Annasser 1;3784295291;3.0791646;36.7437277;Oued Kniss;2804815538;3.081048;36.7412743;1;6;7;3101476;Bus: 1er Mai -> Bir Mourad Rais;green;ETUSA;14;1er Mai;Bir Mourad Rais
69682933;"{\"type\":\"LineString\",\"coordinates\":[[3.0753214,36.7396295],[3.0754333,36.7396673],[3.0758259,36.7397997],[3.0764191,36.7399866],[3.0776394,36.7403461],[3.0785257,36.7405943],[3.0795054,36.7408424],[3.080008,36.7409554],[3.0808967,36.741167],[3.0810508,36.7412034],[3.0810786,36.7412122],[3.0814705,36.7413364],[3.0816002,36.7413969],[3.081668,36.7414507],[3.0817729,36.7415325],[3.08208,36.7417973],[3.0822251,36.7419409],[3.0822873,36.7420024]]}";1;Avenue Belkacemi Mohamed;1;50;false;false;true;false;false;false;347.5;0;1;0;0;0;false;Oued Kniss;2804815538;3.081048;36.7412743;FRERES MADANI;3636381580;3.0706392;36.7386054;1;7;8;3101476;Bus: 1er Mai -> Bir Mourad Rais;green;ETUSA;14;1er Mai;Bir Mourad Rais
555984189;"{\"type\":\"LineString\",\"coordinates\":[[3.0753214,36.7396295],[3.0749893,36.7395253],[3.074701,36.7394317]]}";2;"";1;50;false;true;true;false;false;false;61.0;0;0;0;0;0;false;Oued Kniss;2804815538;3.081048;36.7412743;FRERES MADANI;3636381580;3.0706392;36.7386054;0;7;8;3101476;Bus: 1er Mai -> Bir Mourad Rais;green;ETUSA;14;1er Mai;Bir Mourad Rais
26249787;"{\"type\":\"LineString\",\"coordinates\":[[3.0747139,36.7392435],[3.0747511,36.7392528],[3.0747826,36.7392714],[3.0748047,36.739297],[3.0748152,36.7393269],[3.074813,36.739358],[3.0747983,36.7393868],[3.0747728,36.7394102],[3.0747391,36.7394257],[3.074701,36.7394317],[3.074667,36.7394284],[3.0746356,36.7394174],[3.0746095,36.7393997],[3.0745926,36.7393797],[3.0745826,36.739357],[3.0745801,36.739333],[3.0745883,36.7393024],[3.0746084,36.7392756],[3.0746384,36.7392556],[3.0746749,36.7392445],[3.0747139,36.7392435]]}";3;"";1;50;false;true;true;false;false;false;67.0;0;0;0;0;0;true;Oued Kniss;2804815538;3.081048;36.7412743;FRERES MADANI;3636381580;3.0706392;36.7386054;0;7;8;3101476;Bus: 1er Mai -> Bir Mourad Rais;green;ETUSA;14;1er Mai;Bir Mourad Rais
69682929;"{\"type\":\"LineString\",\"coordinates\":[[3.0745801,36.739333],[3.0745294,36.7391603],[3.0744323,36.7388917]]}";4;"";1;50;false;true;true;false;false;false;52.0;0;0;0;0;0;false;Oued Kniss;2804815538;3.081048;36.7412743;FRERES MADANI;3636381580;3.0706392;36.7386054;0;7;8;3101476;Bus: 1er Mai -> Bir Mourad Rais;green;ETUSA;14;1er Mai;Bir Mourad Rais
69522726;"{\"type\":\"LineString\",\"coordinates\":[[3.0640198,36.738311],[3.0641841,36.7383661],[3.0646563,36.7385244],[3.0649645,36.7385976],[3.0651828,36.7386124],[3.0654376,36.7385897],[3.0662127,36.7383033],[3.066471,36.7382579],[3.0667011,36.7382522],[3.0668887,36.7382863],[3.0671591,36.7383857],[3.06743,36.7385247],[3.0676679,36.7386223],[3.0678972,36.738679],[3.0680784,36.7386972],[3.0682657,36.7386806],[3.0685167,36.7386351],[3.0689768,36.7385022],[3.068998,36.7384961],[3.0692706,36.7384479],[3.0694514,36.7384447],[3.0695891,36.7384422],[3.0701151,36.7384908],[3.0704491,36.7385217],[3.0706392,36.7385217],[3.0709092,36.7385217],[3.0713761,36.7384765],[3.0718506,36.7384536],[3.0725089,36.7384082],[3.0729902,36.7384082],[3.0733335,36.7384309],[3.0735919,36.7384763],[3.0738432,36.7385614],[3.0740706,36.7386717],[3.0742351,36.7387743],[3.0744323,36.7388917]]}";5;Avenue Belkacemi Mohamed;1;50;false;false;true;false;false;false;493.5;0;0;0;0;0;false;Oued Kniss;2804815538;3.081048;36.7412743;FRERES MADANI;3636381580;3.0706392;36.7386054;1;7;8;3101476;Bus: 1er Mai -> Bir Mourad Rais;green;ETUSA;14;1er Mai;Bir Mourad Rais
69522726;"{\"type\":\"LineString\",\"coordinates\":[[3.0640198,36.738311],[3.0641841,36.7383661],[3.0646563,36.7385244],[3.0649645,36.7385976],[3.0651828,36.7386124],[3.0654376,36.7385897],[3.0662127,36.7383033],[3.066471,36.7382579],[3.0667011,36.7382522],[3.0668887,36.7382863],[3.0671591,36.7383857],[3.06743,36.7385247],[3.0676679,36.7386223],[3.0678972,36.738679],[3.0680784,36.7386972],[3.0682657,36.7386806],[3.0685167,36.7386351],[3.0689768,36.7385022],[3.068998,36.7384961],[3.0692706,36.7384479],[3.0694514,36.7384447],[3.0695891,36.7384422],[3.0701151,36.7384908],[3.0704491,36.7385217],[3.0706392,36.7385217],[3.0709092,36.7385217],[3.0713761,36.7384765],[3.0718506,36.7384536],[3.0725089,36.7384082],[3.0729902,36.7384082],[3.0733335,36.7384309],[3.0735919,36.7384763],[3.0738432,36.7385614],[3.0740706,36.7386717],[3.0742351,36.7387743],[3.0744323,36.7388917]]}";1;Avenue Belkacemi Mohamed;1;50;false;false;true;false;false;false;987.0;0;0;0;0;0;false;LES SOURCES;5363640069;3.0641448;36.7384413;Les Jasmins;3749326578;3.0586418;36.7399495;2;9;10;3101476;Bus: 1er Mai -> Bir Mourad Rais;green;ETUSA;14;1er Mai;Bir Mourad Rais
26226478;"{\"type\":\"LineString\",\"coordinates\":[[3.0640198,36.738311],[3.0637505,36.7382518],[3.0635735,36.7382479],[3.0633643,36.7382582],[3.0631739,36.7382926],[3.0630129,36.7383532],[3.0628681,36.7384259],[3.0627596,36.7385064],[3.0626315,36.7386563],[3.0624872,36.7388583],[3.0624637,36.7388922],[3.0623673,36.739031],[3.06229,36.739114],[3.0620664,36.7393014],[3.0619018,36.7394056],[3.0617229,36.7394936],[3.0615278,36.7395604],[3.0613225,36.7396027],[3.0611415,36.7396255],[3.0609664,36.7396322],[3.0607626,36.7396382],[3.0605775,36.739621],[3.0603361,36.7395737],[3.0600205,36.7395111],[3.059704,36.7394874],[3.0594599,36.7395175],[3.0592426,36.739597],[3.0589047,36.7397496],[3.0587625,36.7398163],[3.0586005,36.7398948],[3.0582157,36.7400812],[3.0579552,36.7402032],[3.0576937,36.7402863],[3.0574434,36.740329],[3.0571803,36.7403546],[3.0569199,36.7403481],[3.0567044,36.7403286],[3.0564592,36.7402796],[3.0556436,36.7399942],[3.0553646,36.7398989],[3.0550592,36.7398136],[3.0548597,36.7397906],[3.0542808,36.7397491],[3.0534107,36.7396969],[3.0521978,36.7396242],[3.0520148,36.7396132],[3.0517889,36.7395967],[3.0513057,36.7395613],[3.050419,36.7394965]]}";2;Avenue des Frères Bouadou;1;50;false;false;true;false;false;false;1334.0;0;0;0;0;0;false;LES SOURCES;5363640069;3.0641448;36.7384413;Les Jasmins;3749326578;3.0586418;36.7399495;2;9;10;3101476;Bus: 1er Mai -> Bir Mourad Rais;green;ETUSA;14;1er Mai;Bir Mourad Rais
26226478;"{\"type\":\"LineString\",\"coordinates\":[[3.0640198,36.738311],[3.0637505,36.7382518],[3.0635735,36.7382479],[3.0633643,36.7382582],[3.0631739,36.7382926],[3.0630129,36.7383532],[3.0628681,36.7384259],[3.0627596,36.7385064],[3.0626315,36.7386563],[3.0624872,36.7388583],[3.0624637,36.7388922],[3.0623673,36.739031],[3.06229,36.739114],[3.0620664,36.7393014],[3.0619018,36.7394056],[3.0617229,36.7394936],[3.0615278,36.7395604],[3.0613225,36.7396027],[3.0611415,36.7396255],[3.0609664,36.7396322],[3.0607626,36.7396382],[3.0605775,36.739621],[3.0603361,36.7395737],[3.0600205,36.7395111],[3.059704,36.7394874],[3.0594599,36.7395175],[3.0592426,36.739597],[3.0589047,36.7397496],[3.0587625,36.7398163],[3.0586005,36.7398948],[3.0582157,36.7400812],[3.0579552,36.7402032],[3.0576937,36.7402863],[3.0574434,36.740329],[3.0571803,36.7403546],[3.0569199,36.7403481],[3.0567044,36.7403286],[3.0564592,36.7402796],[3.0556436,36.7399942],[3.0553646,36.7398989],[3.0550592,36.7398136],[3.0548597,36.7397906],[3.0542808,36.7397491],[3.0534107,36.7396969],[3.0521978,36.7396242],[3.0520148,36.7396132],[3.0517889,36.7395967],[3.0513057,36.7395613],[3.050419,36.7394965]]}";1;Avenue des Frères Bouadou;1;50;false;false;true;false;false;false;667.0;0;0;0;0;0;false;Bir Mourad Rais - CNAS;3784295302;3.0521923;36.7396826;Bir Mourad Raïs;2752195921;3.0495878;36.7401644;1;11;12;3101476;Bus: 1er Mai -> Bir Mourad Rais;green;ETUSA;14;1er Mai;Bir Mourad Rais
559218788;"{\"type\":\"LineString\",\"coordinates\":[[3.050419,36.7394965],[3.0501606,36.739475]]}";2;Avenue des Frères Bouadou;1;50;false;false;true;false;false;false;24.0;0;0;0;0;0;false;Bir Mourad Rais - CNAS;3784295302;3.0521923;36.7396826;Bir Mourad Raïs;2752195921;3.0495878;36.7401644;0;11;12;3101476;Bus: 1er Mai -> Bir Mourad Rais;green;ETUSA;14;1er Mai;Bir Mourad Rais
231937121;"{\"type\":\"LineString\",\"coordinates\":[[3.0501606,36.739475],[3.0500286,36.7394714]]}";3;Avenue des Frères Bouadou;1;50;false;false;true;false;false;false;12.0;0;0;0;0;0;false;Bir Mourad Rais - CNAS;3784295302;3.0521923;36.7396826;Bir Mourad Raïs;2752195921;3.0495878;36.7401644;0;11;12;3101476;Bus: 1er Mai -> Bir Mourad Rais;green;ETUSA;14;1er Mai;Bir Mourad Rais
375043215;"{\"type\":\"LineString\",\"coordinates\":[[3.0500286,36.7394714],[3.0499047,36.7394681]]}";4;Avenue des Frères Bouadou;1;50;false;false;true;false;false;false;12.0;0;0;0;0;0;false;Bir Mourad Rais - CNAS;3784295302;3.0521923;36.7396826;Bir Mourad Raïs;2752195921;3.0495878;36.7401644;0;11;12;3101476;Bus: 1er Mai -> Bir Mourad Rais;green;ETUSA;14;1er Mai;Bir Mourad Rais
27317537;"{\"type\":\"LineString\",\"coordinates\":[[3.0499047,36.7394681],[3.0498718,36.7395264],[3.049709,36.7397742],[3.0497001,36.7397809]]}";5;Avenue Mohamedi;1;50;false;true;true;false;false;false;40.0;0;0;0;0;0;false;Bir Mourad Rais - CNAS;3784295302;3.0521923;36.7396826;Bir Mourad Raïs;2752195921;3.0495878;36.7401644;0;11;12;3101476;Bus: 1er Mai -> Bir Mourad Rais;green;ETUSA;14;1er Mai;Bir Mourad Rais
213582615;"{\"type\":\"LineString\",\"coordinates\":[[3.0497001,36.7397809],[3.0495356,36.7401287],[3.0495276,36.7401494],[3.0494667,36.7403065],[3.0494211,36.7404376]]}";6;Avenue Mohamedi;1;50;false;true;true;false;false;false;79.0;0;0;0;0;0;false;Bir Mourad Rais - CNAS;3784295302;3.0521923;36.7396826;Bir Mourad Raïs;2752195921;3.0495878;36.7401644;1;11;12;3101476;Bus: 1er Mai -> Bir Mourad Rais;green;ETUSA;14;1er Mai;Bir Mourad Rais
