way_id;shape;index;name;nb_lanes;legal_speed;speed_zone_30;oneway;shares_bike;bike_box;bus_lane;dedicated_bus_lane;length;nb_traffic_signals;nb_crossings;nb_stops;nb_give_ways;nb_lvl_crossings;roundabout;stop_id_orig;node_id_orig;coord_x_orig;coord_y_orig;stop_id_dest;node_id_dest;coord_x_dest;coord_y_dest;nb_neighbouring_ways_bus_stop;ordre_orig;ordre_dest;id_line;line_name;colour;operator;ref;from;to
586937469;"{\"type\":\"LineString\",\"coordinates\":[[3.063184,36.7856488],[3.0630998,36.785581],[3.0630056,36.7855137],[3.062871,36.7853935]]}";1;Avenue du 1e Novembre;1;50;false;true;true;false;false;false;41.0;0;0;0;0;0;false;Place des Martyrs;2709436847;3.0630183;36.7856421;Port Saïd;3452502395;3.0617158;36.7810129;1;0;1;8093276;Bus: Place des Martyrs -> Birtouta;"";ETUSA;101;Place des Martyrs;Birtouta
231160539;"{\"type\":\"LineString\",\"coordinates\":[[3.062871,36.7853935],[3.0627622,36.7852776],[3.0627032,36.7851676],[3.0627046,36.7851095],[3.0627151,36.7850768],[3.0627369,36.7850087],[3.0629042,36.7845444]]}";2;Avenue du 1e Novembre;1;50;false;true;true;false;false;false;103.0;0;0;0;0;0;false;Place des Martyrs;2709436847;3.0630183;36.7856421;Port Saïd;3452502395;3.0617158;36.7810129;0;0;1;8093276;Bus: Place des Martyrs -> Birtouta;"";ETUSA;101;Place des Martyrs;Birtouta
82561326;"{\"type\":\"LineString\",\"coordinates\":[[3.0629042,36.7845444],[3.0629324,36.7844323],[3.0629351,36.7843635],[3.0628593,36.7839662]]}";3;Avenue du 1e Novembre;1;50;false;true;true;false;false;false;66.0;0;0;0;0;0;false;Place des Martyrs;2709436847;3.0630183;36.7856421;Port Saïd;3452502395;3.0617158;36.7810129;0;0;1;8093276;Bus: Place des Martyrs -> Birtouta;"";ETUSA;101;Place des Martyrs;Birtouta
265265639;"{\"type\":\"LineString\",\"coordinates\":[[3.0628593,36.7839662],[3.0628288,36.783893]]}";4;Rue Saadi et Mokhtar Ben Hafidh;1;50;false;false;true;false;false;false;9.0;0;0;0;0;0;false;Place des Martyrs;2709436847;3.0630183;36.7856421;Port Saïd;3452502395;3.0617158;36.7810129;0;0;1;8093276;Bus: Place des Martyrs -> Birtouta;"";ETUSA;101;Place des Martyrs;Birtouta
26002687;"{\"type\":\"LineString\",\"coordinates\":[[3.0628288,36.783893],[3.0627773,36.7837559],[3.0626672,36.7834312],[3.0626167,36.7832855],[3.062505,36.7829636],[3.0624043,36.7826224],[3.0622961,36.7823004],[3.0621964,36.7820155],[3.0620864,36.7817083],[3.0619188,36.7811791],[3.0618348,36.7809841],[3.0618095,36.7809196],[3.0617721,36.7808246]]}";5;Boulevard Ernesto Che Guevara;4;50;false;false;true;false;false;false;179.0;0;1;0;0;0;false;Place des Martyrs;2709436847;3.0630183;36.7856421;Port Saïd;3452502395;3.0617158;36.7810129;1;0;1;8093276;Bus: Place des Martyrs -> Birtouta;"";ETUSA;101;Place des Martyrs;Birtouta
26002687;"{\"type\":\"LineString\",\"coordinates\":[[3.0628288,36.783893],[3.0627773,36.7837559],[3.0626672,36.7834312],[3.0626167,36.7832855],[3.062505,36.7829636],[3.0624043,36.7826224],[3.0622961,36.7823004],[3.0621964,36.7820155],[3.0620864,36.7817083],[3.0619188,36.7811791],[3.0618348,36.7809841],[3.0618095,36.7809196],[3.0617721,36.7808246]]}";1;Boulevard Ernesto Che Guevara;4;50;false;false;true;false;false;false;179.0;0;1;0;0;0;false;Port Saïd;3452502395;3.0617158;36.7810129;Hôtel Es-Safir;5387397608;3.0601852;36.7776771;1;1;2;8093276;Bus: Place des Martyrs -> Birtouta;"";ETUSA;101;Place des Martyrs;Birtouta
25966398;"{\"type\":\"LineString\",\"coordinates\":[[3.0617721,36.7808246],[3.0615728,36.7803533],[3.0613987,36.7800026],[3.0612302,36.7796748],[3.061048,36.7793061],[3.0608123,36.778838],[3.0607876,36.7787911],[3.060634,36.7784874],[3.0605568,36.7783004]]}";2;Boulevard Zighoud Youcef;4;50;false;false;true;false;false;false;305.0;0;1;0;0;0;false;Port Saïd;3452502395;3.0617158;36.7810129;Hôtel Es-Safir;5387397608;3.0601852;36.7776771;0;1;2;8093276;Bus: Place des Martyrs -> Birtouta;"";ETUSA;101;Place des Martyrs;Birtouta
26026689;"{\"type\":\"LineString\",\"coordinates\":[[3.0605568,36.7783004],[3.0604709,36.7781639],[3.0602321,36.7776653],[3.0601908,36.7775814],[3.0601585,36.777528]]}";3;Boulevard Zighoud Youcef;2;40;false;true;true;false;false;false;47.5;0;1;0;0;0;false;Port Saïd;3452502395;3.0617158;36.7810129;Hôtel Es-Safir;5387397608;3.0601852;36.7776771;1;1;2;8093276;Bus: Place des Martyrs -> Birtouta;"";ETUSA;101;Place des Martyrs;Birtouta
208737725;"{\"type\":\"LineString\",\"coordinates\":[[3.0601585,36.777528],[3.0594884,36.7774128],[3.0593954,36.7773968],[3.0593139,36.7773663],[3.0592709,36.7773328],[3.0592446,36.7772988],[3.059222,36.7772695]]}";1;Rue des Freres Amrouche;4;30;false;true;true;false;false;false;93.0;0;0;0;0;0;false;Hôtel Es-Safir;5387397608;3.0601852;36.7776771;GRANDE POSTE;3780772966;3.059807;36.7737317;2;2;3;8093276;Bus: Place des Martyrs -> Birtouta;"";ETUSA;101;Place des Martyrs;Birtouta
26020237;"{\"type\":\"LineString\",\"coordinates\":[[3.059222,36.7772695],[3.0592055,36.7772152],[3.059199,36.7771309],[3.0592823,36.776583],[3.0594336,36.7755673],[3.059501,36.7752405],[3.0595423,36.7750016],[3.0595971,36.7746126],[3.0596785,36.774163],[3.0597653,36.7737511],[3.059781,36.7737177],[3.0598807,36.7732552],[3.0599956,36.7726601],[3.0599884,36.7726138],[3.0600085,36.7724118],[3.0600445,36.7721739]]}";2;Rue Asselah Hocine;3;50;false;true;true;false;false;false;579.0;2;2;0;0;0;false;Hôtel Es-Safir;5387397608;3.0601852;36.7776771;GRANDE POSTE;3780772966;3.059807;36.7737317;2;2;3;8093276;Bus: Place des Martyrs -> Birtouta;"";ETUSA;101;Place des Martyrs;Birtouta
26020237;"{\"type\":\"LineString\",\"coordinates\":[[3.059222,36.7772695],[3.0592055,36.7772152],[3.059199,36.7771309],[3.0592823,36.776583],[3.0594336,36.7755673],[3.059501,36.7752405],[3.0595423,36.7750016],[3.0595971,36.7746126],[3.0596785,36.774163],[3.0597653,36.7737511],[3.059781,36.7737177],[3.0598807,36.7732552],[3.0599956,36.7726601],[3.0599884,36.7726138],[3.0600085,36.7724118],[3.0600445,36.7721739]]}";1;Rue Asselah Hocine;3;50;false;true;true;false;false;false;289.5;2;2;0;0;0;false;GRANDE POSTE;3780772966;3.059807;36.7737317;Station 1 mai;5387397605;3.0577853;36.7643207;1;3;4;8093276;Bus: Place des Martyrs -> Birtouta;"";ETUSA;101;Place des Martyrs;Birtouta
25966399;"{\"type\":\"LineString\",\"coordinates\":[[3.0600445,36.7721739],[3.0598112,36.7719784]]}";2;Boulevard Colonel Amirouche;3;40;false;false;true;false;false;false;31.0;2;0;0;0;0;false;GRANDE POSTE;3780772966;3.059807;36.7737317;Station 1 mai;5387397605;3.0577853;36.7643207;0;3;4;8093276;Bus: Place des Martyrs -> Birtouta;"";ETUSA;101;Place des Martyrs;Birtouta
26020117;"{\"type\":\"LineString\",\"coordinates\":[[3.0598112,36.7719784],[3.060582,36.7712994],[3.060672,36.7710901],[3.0606767,36.7709086],[3.0606348,36.7707528],[3.0605798,36.7706389]]}";3;Rampe Tafourah;2;40;false;true;true;false;false;false;181.0;1;0;0;0;0;false;GRANDE POSTE;3780772966;3.059807;36.7737317;Station 1 mai;5387397605;3.0577853;36.7643207;0;3;4;8093276;Bus: Place des Martyrs -> Birtouta;"";ETUSA;101;Place des Martyrs;Birtouta
213662347;"{\"type\":\"LineString\",\"coordinates\":[[3.0605798,36.7706389],[3.0602542,36.7703955]]}";4;Rampe Tafourah;2;40;false;false;true;false;false;false;41.0;0;0;0;0;0;false;GRANDE POSTE;3780772966;3.059807;36.7737317;Station 1 mai;5387397605;3.0577853;36.7643207;0;3;4;8093276;Bus: Place des Martyrs -> Birtouta;"";ETUSA;101;Place des Martyrs;Birtouta
213662357;"{\"type\":\"LineString\",\"coordinates\":[[3.0602542,36.7703955],[3.059983,36.7702046]]}";5;Rampe Tafourah;1;40;false;true;true;false;false;false;33.0;0;0;0;0;0;false;GRANDE POSTE;3780772966;3.059807;36.7737317;Station 1 mai;5387397605;3.0577853;36.7643207;0;3;4;8093276;Bus: Place des Martyrs -> Birtouta;"";ETUSA;101;Place des Martyrs;Birtouta
26020202;"{\"type\":\"LineString\",\"coordinates\":[[3.059983,36.7702046],[3.0598395,36.7700999],[3.0595787,36.7699506],[3.0592638,36.7698252]]}";6;Rampe Tafourah;1;40;false;true;true;false;false;false;79.0;0;1;0;0;0;false;GRANDE POSTE;3780772966;3.059807;36.7737317;Station 1 mai;5387397605;3.0577853;36.7643207;0;3;4;8093276;Bus: Place des Martyrs -> Birtouta;"";ETUSA;101;Place des Martyrs;Birtouta
231933515;"{\"type\":\"LineString\",\"coordinates\":[[3.0592638,36.7698252],[3.0591088,36.7697058],[3.0590088,36.7695817],[3.0589314,36.7694079],[3.0588053,36.7690147],[3.0587329,36.7688385],[3.0585237,36.7682025],[3.0582525,36.7673935],[3.0580107,36.7667704],[3.0579885,36.7666862]]}";7;Rue Jawarhalal Nehru;3;60;false;true;true;false;false;false;375.0;1;1;0;0;0;false;GRANDE POSTE;3780772966;3.059807;36.7737317;Station 1 mai;5387397605;3.0577853;36.7643207;0;3;4;8093276;Bus: Place des Martyrs -> Birtouta;"";ETUSA;101;Place des Martyrs;Birtouta
297192319;"{\"type\":\"LineString\",\"coordinates\":[[3.0579885,36.7666862],[3.0579545,36.7665892]]}";8;Rue Djawarhalal Nehru;3;60;false;true;true;false;false;false;12.0;2;0;0;0;0;false;GRANDE POSTE;3780772966;3.059807;36.7737317;Station 1 mai;5387397605;3.0577853;36.7643207;0;3;4;8093276;Bus: Place des Martyrs -> Birtouta;"";ETUSA;101;Place des Martyrs;Birtouta
297192321;"{\"type\":\"LineString\",\"coordinates\":[[3.0579545,36.7665892],[3.0576678,36.7656646]]}";9;Rue Djawarhalal Nehru;3;60;false;true;true;false;false;false;108.0;1;0;0;0;0;false;GRANDE POSTE;3780772966;3.059807;36.7737317;Station 1 mai;5387397605;3.0577853;36.7643207;0;3;4;8093276;Bus: Place des Martyrs -> Birtouta;"";ETUSA;101;Place des Martyrs;Birtouta
374417222;"{\"type\":\"LineString\",\"coordinates\":[[3.0576678,36.7656646],[3.0576226,36.7653655],[3.0576269,36.7650693],[3.0576577,36.7649295],[3.0577648,36.7645729],[3.0578641,36.7643425],[3.0578935,36.7642742],[3.058244,36.7636985]]}";10;Rue Mohamed Bouzerari;3;50;false;true;true;false;false;false;116.0;0;0;0;0;0;false;GRANDE POSTE;3780772966;3.059807;36.7737317;Station 1 mai;5387397605;3.0577853;36.7643207;1;3;4;8093276;Bus: Place des Martyrs -> Birtouta;"";ETUSA;101;Place des Martyrs;Birtouta
374417222;"{\"type\":\"LineString\",\"coordinates\":[[3.0576678,36.7656646],[3.0576226,36.7653655],[3.0576269,36.7650693],[3.0576577,36.7649295],[3.0577648,36.7645729],[3.0578641,36.7643425],[3.0578935,36.7642742],[3.058244,36.7636985]]}";1;Rue Mohamed Bouzerari;3;50;false;true;true;false;false;false;116.0;0;0;0;0;0;false;Station 1 mai;5387397605;3.0577853;36.7643207;El Annasser;3068220343;3.0887339;36.7439709;1;4;5;8093276;Bus: Place des Martyrs -> Birtouta;"";ETUSA;101;Place des Martyrs;Birtouta
404285763;"{\"type\":\"LineString\",\"coordinates\":[[3.058244,36.7636985],[3.0590547,36.7626583]]}";2;Rue Mohamed Bouzerari;3;50;false;true;true;false;false;false;139.0;0;0;0;0;0;false;Station 1 mai;5387397605;3.0577853;36.7643207;El Annasser;3068220343;3.0887339;36.7439709;0;4;5;8093276;Bus: Place des Martyrs -> Birtouta;"";ETUSA;101;Place des Martyrs;Birtouta
404285759;"{\"type\":\"LineString\",\"coordinates\":[[3.0590547,36.7626583],[3.0598469,36.7617539]]}";3;Avenue de l'ALN;3;80;false;true;true;false;false;false;125.0;0;0;0;0;0;false;Station 1 mai;5387397605;3.0577853;36.7643207;El Annasser;3068220343;3.0887339;36.7439709;0;4;5;8093276;Bus: Place des Martyrs -> Birtouta;"";ETUSA;101;Place des Martyrs;Birtouta
556054779;"{\"type\":\"LineString\",\"coordinates\":[[3.0598469,36.7617539],[3.0603847,36.7612752],[3.0610868,36.760652],[3.0617735,36.7600606],[3.0626479,36.7592778],[3.0634775,36.7585738],[3.0643524,36.7577959],[3.0654092,36.7568633],[3.0658266,36.7565207]]}";4;Avenue de l'ALN;3;80;false;true;true;false;false;false;800.0;0;0;0;0;0;false;Station 1 mai;5387397605;3.0577853;36.7643207;El Annasser;3068220343;3.0887339;36.7439709;0;4;5;8093276;Bus: Place des Martyrs -> Birtouta;"";ETUSA;101;Place des Martyrs;Birtouta
263694084;"{\"type\":\"LineString\",\"coordinates\":[[3.0658266,36.7565207],[3.0661262,36.7563244],[3.0665749,36.7560304],[3.0669182,36.7558241],[3.0672076,36.7556642],[3.067496,36.7555307],[3.0685478,36.755087],[3.0726879,36.7531928],[3.0734368,36.752838],[3.0739782,36.7525816],[3.0753603,36.7520083],[3.075643,36.7518986]]}";5;Avenue de l'ALN;3;80;false;true;true;false;false;false;1031.0;0;0;0;0;0;false;Station 1 mai;5387397605;3.0577853;36.7643207;El Annasser;3068220343;3.0887339;36.7439709;0;4;5;8093276;Bus: Place des Martyrs -> Birtouta;"";ETUSA;101;Place des Martyrs;Birtouta
558567775;"{\"type\":\"LineString\",\"coordinates\":[[3.075643,36.7518986],[3.0760511,36.7517639],[3.0782789,36.7510285],[3.0793542,36.7506171],[3.0810419,36.7500118],[3.0827647,36.7494368],[3.0837257,36.7491218],[3.0846688,36.7488895]]}";6;Avenue de l'ALN;3;80;false;true;true;false;false;false;885.0;0;0;0;0;0;false;Station 1 mai;5387397605;3.0577853;36.7643207;El Annasser;3068220343;3.0887339;36.7439709;0;4;5;8093276;Bus: Place des Martyrs -> Birtouta;"";ETUSA;101;Place des Martyrs;Birtouta
263701581;"{\"type\":\"LineString\",\"coordinates\":[[3.0846688,36.7488895],[3.0857232,36.7485032],[3.0870082,36.7480556],[3.0880379,36.7477325]]}";7;Avenue de l'ALN;2;60;false;true;true;false;false;false;332.0;0;0;0;0;0;false;Station 1 mai;5387397605;3.0577853;36.7643207;El Annasser;3068220343;3.0887339;36.7439709;0;4;5;8093276;Bus: Place des Martyrs -> Birtouta;"";ETUSA;101;Place des Martyrs;Birtouta
25977188;"{\"type\":\"LineString\",\"coordinates\":[[3.0880379,36.7477325],[3.0886632,36.7475554],[3.0891961,36.7474231]]}";8;Vers Kouba;1;40;false;true;true;false;false;false;111.0;0;0;0;0;0;false;Station 1 mai;5387397605;3.0577853;36.7643207;El Annasser;3068220343;3.0887339;36.7439709;0;4;5;8093276;Bus: Place des Martyrs -> Birtouta;"";ETUSA;101;Place des Martyrs;Birtouta
25977193;"{\"type\":\"LineString\",\"coordinates\":[[3.0891961,36.7474231],[3.0899646,36.7472309],[3.0902819,36.7471572],[3.0904261,36.7470961],[3.0905432,36.7469789],[3.0905952,36.7468338],[3.0905837,36.7467041],[3.0904489,36.7464339]]}";9;Vers Kouba;1;30;false;true;true;false;false;false;199.0;0;0;0;0;0;false;Station 1 mai;5387397605;3.0577853;36.7643207;El Annasser;3068220343;3.0887339;36.7439709;0;4;5;8093276;Bus: Place des Martyrs -> Birtouta;"";ETUSA;101;Place des Martyrs;Birtouta
26226242;"{\"type\":\"LineString\",\"coordinates\":[[3.0904489,36.7464339],[3.0899592,36.7456296]]}";10;Pont de Hussin Day;2;60;false;true;true;false;false;false;101.0;0;0;0;0;0;false;Station 1 mai;5387397605;3.0577853;36.7643207;El Annasser;3068220343;3.0887339;36.7439709;0;4;5;8093276;Bus: Place des Martyrs -> Birtouta;"";ETUSA;101;Place des Martyrs;Birtouta
165952803;"{\"type\":\"LineString\",\"coordinates\":[[3.0899592,36.7456296],[3.0894263,36.7448121],[3.0891998,36.7444775]]}";11;"";2;80;false;true;true;false;false;false;147.0;0;0;0;0;0;false;Station 1 mai;5387397605;3.0577853;36.7643207;El Annasser;3068220343;3.0887339;36.7439709;0;4;5;8093276;Bus: Place des Martyrs -> Birtouta;"";ETUSA;101;Place des Martyrs;Birtouta
404548589;"{\"type\":\"LineString\",\"coordinates\":[[3.0891998,36.7444775],[3.0888233,36.7439313],[3.0885436,36.7435256]]}";12;"";3;80;false;true;true;false;false;false;61.5;0;0;0;0;0;false;Station 1 mai;5387397605;3.0577853;36.7643207;El Annasser;3068220343;3.0887339;36.7439709;1;4;5;8093276;Bus: Place des Martyrs -> Birtouta;"";ETUSA;101;Place des Martyrs;Birtouta
404548589;"{\"type\":\"LineString\",\"coordinates\":[[3.0891998,36.7444775],[3.0888233,36.7439313],[3.0885436,36.7435256]]}";1;"";3;80;false;true;true;false;false;false;61.5;0;0;0;0;0;false;El Annasser;3068220343;3.0887339;36.7439709;Drid Hocine;3778056946;3.0858168;36.7393487;1;5;6;8093276;Bus: Place des Martyrs -> Birtouta;"";ETUSA;101;Place des Martyrs;Birtouta
404548590;"{\"type\":\"LineString\",\"coordinates\":[[3.0885436,36.7435256],[3.0883326,36.7431959],[3.0880159,36.7427592]]}";2;"";2;80;false;true;true;false;false;false;99.0;0;0;0;0;0;false;El Annasser;3068220343;3.0887339;36.7439709;Drid Hocine;3778056946;3.0858168;36.7393487;0;5;6;8093276;Bus: Place des Martyrs -> Birtouta;"";ETUSA;101;Place des Martyrs;Birtouta
28506194;"{\"type\":\"LineString\",\"coordinates\":[[3.0880159,36.7427592],[3.0870524,36.7415587]]}";3;"";2;80;false;true;true;false;false;false;161.0;0;0;0;0;0;false;El Annasser;3068220343;3.0887339;36.7439709;Drid Hocine;3778056946;3.0858168;36.7393487;0;5;6;8093276;Bus: Place des Martyrs -> Birtouta;"";ETUSA;101;Place des Martyrs;Birtouta
26226363;"{\"type\":\"LineString\",\"coordinates\":[[3.0870524,36.7415587],[3.0866388,36.7409871],[3.0862559,36.740458]]}";4;"";1;50;false;true;true;false;false;false;144.0;0;0;0;0;0;false;El Annasser;3068220343;3.0887339;36.7439709;Drid Hocine;3778056946;3.0858168;36.7393487;0;5;6;8093276;Bus: Place des Martyrs -> Birtouta;"";ETUSA;101;Place des Martyrs;Birtouta
231430954;"{\"type\":\"LineString\",\"coordinates\":[[3.0862559,36.740458],[3.0861135,36.7402461],[3.085977,36.7399624],[3.0859255,36.739617]]}";5;"";1;50;false;true;true;false;false;false;101.0;0;0;0;0;0;false;El Annasser;3068220343;3.0887339;36.7439709;Drid Hocine;3778056946;3.0858168;36.7393487;0;5;6;8093276;Bus: Place des Martyrs -> Birtouta;"";ETUSA;101;Place des Martyrs;Birtouta
213978445;"{\"type\":\"LineString\",\"coordinates\":[[3.0859255,36.739617],[3.0859036,36.7393442],[3.0858781,36.7390264],[3.0858707,36.7386057],[3.0858305,36.7381278],[3.0857439,36.7378222],[3.0855827,36.7374862],[3.0853772,36.7372201],[3.0851833,36.7370249],[3.0848389,36.7367494],[3.0841568,36.7362806],[3.0837982,36.7360293]]}";6;"";3;50;false;true;true;false;false;false;237.5;0;0;0;0;0;false;El Annasser;3068220343;3.0887339;36.7439709;Drid Hocine;3778056946;3.0858168;36.7393487;1;5;6;8093276;Bus: Place des Martyrs -> Birtouta;"";ETUSA;101;Place des Martyrs;Birtouta
213978445;"{\"type\":\"LineString\",\"coordinates\":[[3.0859255,36.739617],[3.0859036,36.7393442],[3.0858781,36.7390264],[3.0858707,36.7386057],[3.0858305,36.7381278],[3.0857439,36.7378222],[3.0855827,36.7374862],[3.0853772,36.7372201],[3.0851833,36.7370249],[3.0848389,36.7367494],[3.0841568,36.7362806],[3.0837982,36.7360293]]}";1;"";3;50;false;true;true;false;false;false;237.5;0;0;0;0;0;false;Drid Hocine;3778056946;3.0858168;36.7393487;قريدي 2;3766186850;3.062613;36.7334343;1;6;7;8093276;Bus: Place des Martyrs -> Birtouta;"";ETUSA;101;Place des Martyrs;Birtouta
231934794;"{\"type\":\"LineString\",\"coordinates\":[[3.0837982,36.7360293],[3.0834761,36.7357868],[3.0830494,36.735404],[3.0827543,36.7350343],[3.0819252,36.7337263],[3.0815466,36.7330135],[3.0814491,36.7328299],[3.0813182,36.7326153],[3.081094,36.7324042],[3.0807826,36.73224],[3.0794232,36.7318034],[3.0791075,36.7317392],[3.0788106,36.7317088],[3.0785024,36.7317271],[3.0781846,36.731809],[3.0773974,36.7321291],[3.0764809,36.7325292]]}";2;"";3;60;false;true;true;false;false;false;935.0;0;0;0;0;0;false;Drid Hocine;3778056946;3.0858168;36.7393487;قريدي 2;3766186850;3.062613;36.7334343;0;6;7;8093276;Bus: Place des Martyrs -> Birtouta;"";ETUSA;101;Place des Martyrs;Birtouta
431840248;"{\"type\":\"LineString\",\"coordinates\":[[3.0764809,36.7325292],[3.0755922,36.7328944],[3.075336,36.732973],[3.0751049,36.7330226],[3.0748073,36.7330445],[3.0744735,36.7330154],[3.0741573,36.7329333],[3.0737351,36.7327619],[3.0727709,36.7322759],[3.0722438,36.7320206]]}";3;"";2;60;false;true;true;false;false;false;426.0;0;0;0;0;0;false;Drid Hocine;3778056946;3.0858168;36.7393487;قريدي 2;3766186850;3.062613;36.7334343;0;6;7;8093276;Bus: Place des Martyrs -> Birtouta;"";ETUSA;101;Place des Martyrs;Birtouta
404548604;"{\"type\":\"LineString\",\"coordinates\":[[3.0722438,36.7320206],[3.071611,36.7316912],[3.0714757,36.7316168],[3.0712916,36.7315156],[3.0710808,36.7314227]]}";4;"";3;60;false;true;true;false;false;false;125.0;0;0;0;0;0;false;Drid Hocine;3778056946;3.0858168;36.7393487;قريدي 2;3766186850;3.062613;36.7334343;0;6;7;8093276;Bus: Place des Martyrs -> Birtouta;"";ETUSA;101;Place des Martyrs;Birtouta
28453634;"{\"type\":\"LineString\",\"coordinates\":[[3.0710808,36.7314227],[3.0706749,36.7313023],[3.0705162,36.7312925],[3.0703509,36.7313023],[3.0701774,36.731329],[3.0699808,36.7313593],[3.0697898,36.731404],[3.0693287,36.731565],[3.0690952,36.7316358],[3.0689052,36.7316933],[3.06884,36.7317131],[3.0684069,36.7318589],[3.0681614,36.7319363],[3.067997,36.7319778],[3.0678302,36.7320126],[3.0676854,36.7320162],[3.0675628,36.7320325],[3.0673912,36.7320549],[3.0672632,36.7320955],[3.0671242,36.7321299]]}";5;"";1;50;false;true;true;false;false;false;377.0;0;0;0;0;0;false;Drid Hocine;3778056946;3.0858168;36.7393487;قريدي 2;3766186850;3.062613;36.7334343;0;6;7;8093276;Bus: Place des Martyrs -> Birtouta;"";ETUSA;101;Place des Martyrs;Birtouta
82142099;"{\"type\":\"LineString\",\"coordinates\":[[3.0670771,36.7320208],[3.0671035,36.7320409],[3.0671213,36.7320663],[3.0671293,36.7320979],[3.0671242,36.7321299],[3.0671161,36.7321461],[3.0671045,36.732161],[3.0670884,36.732175],[3.0670693,36.7321863],[3.0670479,36.7321944],[3.0670119,36.7322001],[3.0669754,36.732197],[3.0669416,36.7321855],[3.0669136,36.7321664],[3.0668938,36.7321417],[3.066884,36.7321133],[3.0668847,36.7320858],[3.0668948,36.7320596],[3.0669135,36.7320366],[3.0669394,36.7320186],[3.0669726,36.7320066],[3.0670087,36.7320028],[3.0670446,36.7320077],[3.0670771,36.7320208]]}";6;"";1;50;false;false;true;false;false;false;70.0;0;0;0;0;0;true;Drid Hocine;3778056946;3.0858168;36.7393487;قريدي 2;3766186850;3.062613;36.7334343;0;6;7;8093276;Bus: Place des Martyrs -> Birtouta;"";ETUSA;101;Place des Martyrs;Birtouta
82142098;"{\"type\":\"LineString\",\"coordinates\":[[3.0670479,36.7321944],[3.0670293,36.732214],[3.0669562,36.7323063],[3.0668468,36.7324463],[3.0667271,36.7325212],[3.0666431,36.7325731],[3.0665394,36.7326189],[3.0664123,36.7326701],[3.0661516,36.7327674],[3.0644339,36.7333385],[3.0640409,36.7334697],[3.0639013,36.7335113],[3.063674,36.7336626]]}";7;"";1;50;false;true;true;false;false;false;354.0;0;0;0;0;0;false;Drid Hocine;3778056946;3.0858168;36.7393487;قريدي 2;3766186850;3.062613;36.7334343;0;6;7;8093276;Bus: Place des Martyrs -> Birtouta;"";ETUSA;101;Place des Martyrs;Birtouta
29695943;"{\"type\":\"LineString\",\"coordinates\":[[3.0631153,36.7334169],[3.0631865,36.7333626],[3.0632749,36.733328],[3.0634252,36.73332],[3.0635166,36.73335],[3.0635546,36.7333625],[3.0636494,36.7334448],[3.0636919,36.7335515],[3.063674,36.7336626],[3.0635993,36.7337571],[3.0635073,36.733809],[3.0633987,36.7338323],[3.0632867,36.7338244],[3.0632308,36.7338077],[3.0631651,36.733774],[3.0631114,36.7337286],[3.0630729,36.7336742],[3.0630518,36.733614],[3.0630486,36.7335887],[3.0630484,36.7335632],[3.0630678,36.7334859],[3.0631153,36.7334169]]}";8;"";1;50;false;false;true;false;false;false;182.0;0;0;0;0;0;true;Drid Hocine;3778056946;3.0858168;36.7393487;قريدي 2;3766186850;3.062613;36.7334343;0;6;7;8093276;Bus: Place des Martyrs -> Birtouta;"";ETUSA;101;Place des Martyrs;Birtouta
29695940;"{\"type\":\"LineString\",\"coordinates\":[[3.0630484,36.7335632],[3.0629773,36.7334868],[3.0629127,36.7334448],[3.0627539,36.7334012],[3.0626248,36.7333823],[3.061892,36.7332749],[3.0597646,36.7329536],[3.0563016,36.7324993]]}";9;"";1;40;false;true;true;false;false;false;313.0;0;0;0;0;0;false;Drid Hocine;3778056946;3.0858168;36.7393487;قريدي 2;3766186850;3.062613;36.7334343;1;6;7;8093276;Bus: Place des Martyrs -> Birtouta;"";ETUSA;101;Place des Martyrs;Birtouta
29695940;"{\"type\":\"LineString\",\"coordinates\":[[3.0630484,36.7335632],[3.0629773,36.7334868],[3.0629127,36.7334448],[3.0627539,36.7334012],[3.0626248,36.7333823],[3.061892,36.7332749],[3.0597646,36.7329536],[3.0563016,36.7324993]]}";1;"";1;40;false;true;true;false;false;false;313.0;0;0;0;0;0;false;قريدي 2;3766186850;3.062613;36.7334343;Les Sources;2767339846;3.0543032;36.7323648;1;7;8;8093276;Bus: Place des Martyrs -> Birtouta;"";ETUSA;101;Place des Martyrs;Birtouta
231405935;"{\"type\":\"LineString\",\"coordinates\":[[3.0563016,36.7324993],[3.0556615,36.7324318],[3.0550405,36.7323665],[3.054525,36.732314]]}";2;"";1;50;false;true;true;false;false;false;163.0;0;0;0;0;0;false;قريدي 2;3766186850;3.062613;36.7334343;Les Sources;2767339846;3.0543032;36.7323648;0;7;8;8093276;Bus: Place des Martyrs -> Birtouta;"";ETUSA;101;Place des Martyrs;Birtouta
26227158;"{\"type\":\"LineString\",\"coordinates\":[[3.054525,36.732314],[3.0543748,36.7323065],[3.0542993,36.73231],[3.0538736,36.7323296],[3.0535439,36.7323469],[3.0531043,36.7323651]]}";3;"";1;50;false;true;true;false;false;false;64.5;0;0;0;0;0;false;قريدي 2;3766186850;3.062613;36.7334343;Les Sources;2767339846;3.0543032;36.7323648;1;7;8;8093276;Bus: Place des Martyrs -> Birtouta;"";ETUSA;101;Place des Martyrs;Birtouta
26227158;"{\"type\":\"LineString\",\"coordinates\":[[3.054525,36.732314],[3.0543748,36.7323065],[3.0542993,36.73231],[3.0538736,36.7323296],[3.0535439,36.7323469],[3.0531043,36.7323651]]}";1;"";1;50;false;true;true;false;false;false;64.5;0;0;0;0;0;false;Les Sources;2767339846;3.0543032;36.7323648;La Côte;5394047204;3.0478182;36.7307481;1;8;9;8093276;Bus: Place des Martyrs -> Birtouta;"";ETUSA;101;Place des Martyrs;Birtouta
26226805;"{\"type\":\"LineString\",\"coordinates\":[[3.0531043,36.7323651],[3.0524057,36.7323455],[3.0518711,36.7323668],[3.0508975,36.7324442]]}";2;"";1;50;false;true;true;false;false;false;201.0;0;0;0;0;0;false;Les Sources;2767339846;3.0543032;36.7323648;La Côte;5394047204;3.0478182;36.7307481;0;8;9;8093276;Bus: Place des Martyrs -> Birtouta;"";ETUSA;101;Place des Martyrs;Birtouta
26226804;"{\"type\":\"LineString\",\"coordinates\":[[3.0508975,36.7324442],[3.0505353,36.7324588],[3.0503931,36.7324523],[3.0503073,36.7324373],[3.0500871,36.732384],[3.049897,36.7322921],[3.0497549,36.732217],[3.0496159,36.7321145],[3.0494624,36.7319799],[3.0491245,36.7317005]]}";3;"";1;50;false;true;true;false;false;false;192.0;0;0;0;0;0;false;Les Sources;2767339846;3.0543032;36.7323648;La Côte;5394047204;3.0478182;36.7307481;0;8;9;8093276;Bus: Place des Martyrs -> Birtouta;"";ETUSA;101;Place des Martyrs;Birtouta
150239900;"{\"type\":\"LineString\",\"coordinates\":[[3.0491245,36.7317005],[3.0489904,36.7315973],[3.0484644,36.7312093],[3.0482608,36.7310298],[3.0480049,36.7307939]]}";4;"";1;50;false;true;true;false;false;false;144.0;0;0;0;0;0;false;Les Sources;2767339846;3.0543032;36.7323648;La Côte;5394047204;3.0478182;36.7307481;0;8;9;8093276;Bus: Place des Martyrs -> Birtouta;"";ETUSA;101;Place des Martyrs;Birtouta
231405925;"{\"type\":\"LineString\",\"coordinates\":[[3.0480049,36.7307939],[3.0478612,36.7306986],[3.0477032,36.7305845],[3.0473582,36.7303392],[3.0471568,36.7302195],[3.0468609,36.73006],[3.0462573,36.7297408],[3.0459856,36.7295862],[3.0457755,36.7294483],[3.0455557,36.7292925],[3.0453218,36.7291035],[3.0451518,36.7289383],[3.0450051,36.7287527],[3.0448954,36.7285832],[3.0448073,36.7283926],[3.044759,36.7282146],[3.0447294,36.7279652],[3.0447192,36.727653],[3.0447516,36.7274923],[3.0448676,36.7271309],[3.0450145,36.7268223],[3.0452146,36.7265396],[3.0455933,36.7260888],[3.0463349,36.7253207],[3.0464662,36.7251798],[3.0466628,36.7249688],[3.0469889,36.7245629],[3.0470938,36.7243986],[3.0471966,36.7242287],[3.0473098,36.723996],[3.0473757,36.7237995],[3.0474165,36.7236071],[3.0474293,36.7233364],[3.0474077,36.723071],[3.0473573,36.7227977],[3.0472668,36.7224913],[3.0470662,36.7220106],[3.046876,36.7216218],[3.0466885,36.7212882],[3.0464659,36.7209727],[3.0461306,36.7206071],[3.0458388,36.7203388],[3.0455379,36.7200891],[3.0451412,36.7197798],[3.0447601,36.7194527],[3.0443669,36.7190498],[3.0440439,36.7185902],[3.0439047,36.718275],[3.0438258,36.7179512],[3.043796,36.7176212],[3.0438475,36.7170914],[3.0439151,36.7168421],[3.0440621,36.7163002],[3.0443441,36.7153886],[3.0446359,36.7144451],[3.0448117,36.7138097],[3.0448775,36.7136031],[3.0449832,36.7132484],[3.0452686,36.7123738],[3.0455076,36.711726],[3.0457787,36.7111261],[3.0462701,36.7104262],[3.0463666,36.7102971]]}";5;Trans - Sahara;2;80;false;true;true;false;false;false;1321.5;0;0;0;0;0;false;Les Sources;2767339846;3.0543032;36.7323648;La Côte;5394047204;3.0478182;36.7307481;1;8;9;8093276;Bus: Place des Martyrs -> Birtouta;"";ETUSA;101;Place des Martyrs;Birtouta
231405925;"{\"type\":\"LineString\",\"coordinates\":[[3.0480049,36.7307939],[3.0478612,36.7306986],[3.0477032,36.7305845],[3.0473582,36.7303392],[3.0471568,36.7302195],[3.0468609,36.73006],[3.0462573,36.7297408],[3.0459856,36.7295862],[3.0457755,36.7294483],[3.0455557,36.7292925],[3.0453218,36.7291035],[3.0451518,36.7289383],[3.0450051,36.7287527],[3.0448954,36.7285832],[3.0448073,36.7283926],[3.044759,36.7282146],[3.0447294,36.7279652],[3.0447192,36.727653],[3.0447516,36.7274923],[3.0448676,36.7271309],[3.0450145,36.7268223],[3.0452146,36.7265396],[3.0455933,36.7260888],[3.0463349,36.7253207],[3.0464662,36.7251798],[3.0466628,36.7249688],[3.0469889,36.7245629],[3.0470938,36.7243986],[3.0471966,36.7242287],[3.0473098,36.723996],[3.0473757,36.7237995],[3.0474165,36.7236071],[3.0474293,36.7233364],[3.0474077,36.723071],[3.0473573,36.7227977],[3.0472668,36.7224913],[3.0470662,36.7220106],[3.046876,36.7216218],[3.0466885,36.7212882],[3.0464659,36.7209727],[3.0461306,36.7206071],[3.0458388,36.7203388],[3.0455379,36.7200891],[3.0451412,36.7197798],[3.0447601,36.7194527],[3.0443669,36.7190498],[3.0440439,36.7185902],[3.0439047,36.718275],[3.0438258,36.7179512],[3.043796,36.7176212],[3.0438475,36.7170914],[3.0439151,36.7168421],[3.0440621,36.7163002],[3.0443441,36.7153886],[3.0446359,36.7144451],[3.0448117,36.7138097],[3.0448775,36.7136031],[3.0449832,36.7132484],[3.0452686,36.7123738],[3.0455076,36.711726],[3.0457787,36.7111261],[3.0462701,36.7104262],[3.0463666,36.7102971]]}";1;Trans - Sahara;2;80;false;true;true;false;false;false;1321.5;0;0;0;0;0;false;Bir Khadem Marché;5465122825;3.0445862;36.7143185;Baba Ali;1474259121;3.0493111;36.6722519;1;12;13;8093276;Bus: Place des Martyrs -> Birtouta;"";ETUSA;101;Place des Martyrs;Birtouta
375043216;"{\"type\":\"LineString\",\"coordinates\":[[3.0463666,36.7102971],[3.0467229,36.70986],[3.0470061,36.7094334],[3.0472121,36.7090825],[3.0473107,36.7087748],[3.0473644,36.7086113],[3.0475897,36.7075893],[3.0476577,36.7071759],[3.0477271,36.7067636],[3.0477974,36.7060149],[3.0477908,36.7058492],[3.0478035,36.7048909],[3.0478531,36.704153],[3.0479899,36.7034305],[3.0482421,36.7028895],[3.0483248,36.7027185],[3.0485339,36.7023183],[3.0487176,36.7020253],[3.0506987,36.6990429],[3.0511844,36.6983523],[3.0513749,36.6980998],[3.0520622,36.6973704],[3.0526383,36.6968036],[3.0528238,36.6966411],[3.0535807,36.6959595],[3.0537733,36.6958291],[3.0551257,36.6949135],[3.0558086,36.6944842],[3.0562745,36.6941668],[3.0566618,36.6938717],[3.0568893,36.6936855],[3.0574641,36.6931417],[3.0579097,36.6926816],[3.05872,36.691829]]}";2;Trans - Sahara;2;80;false;true;true;false;false;false;2446.0;0;0;0;0;0;false;Bir Khadem Marché;5465122825;3.0445862;36.7143185;Baba Ali;1474259121;3.0493111;36.6722519;0;12;13;8093276;Bus: Place des Martyrs -> Birtouta;"";ETUSA;101;Place des Martyrs;Birtouta
490378286;"{\"type\":\"LineString\",\"coordinates\":[[3.05872,36.691829],[3.0597262,36.6907372]]}";3;"";1;80;false;true;true;false;false;false;153.0;0;0;0;0;0;false;Bir Khadem Marché;5465122825;3.0445862;36.7143185;Baba Ali;1474259121;3.0493111;36.6722519;0;12;13;8093276;Bus: Place des Martyrs -> Birtouta;"";ETUSA;101;Place des Martyrs;Birtouta
283947402;"{\"type\":\"LineString\",\"coordinates\":[[3.0597262,36.6907372],[3.060513,36.6898788],[3.0616495,36.6885991],[3.0620838,36.6881123],[3.0629113,36.6872423],[3.0636964,36.6863858],[3.0638307,36.686227],[3.0639785,36.6860357],[3.0642066,36.6856857],[3.0643841,36.6853373],[3.0644638,36.685106],[3.0644984,36.6849199],[3.0645196,36.6846051],[3.0645058,36.6843587],[3.0644559,36.6841122]]}";4;Trans - Sahara;3;80;false;true;true;false;false;false;881.0;0;0;0;0;0;false;Bir Khadem Marché;5465122825;3.0445862;36.7143185;Baba Ali;1474259121;3.0493111;36.6722519;0;12;13;8093276;Bus: Place des Martyrs -> Birtouta;"";ETUSA;101;Place des Martyrs;Birtouta
496382222;"{\"type\":\"LineString\",\"coordinates\":[[3.0644559,36.6841122],[3.0644197,36.6839601],[3.0643763,36.68381]]}";5;Trans - Sahara;3;80;false;true;true;false;false;false;35.0;0;0;0;0;0;false;Bir Khadem Marché;5465122825;3.0445862;36.7143185;Baba Ali;1474259121;3.0493111;36.6722519;0;12;13;8093276;Bus: Place des Martyrs -> Birtouta;"";ETUSA;101;Place des Martyrs;Birtouta
496382223;"{\"type\":\"LineString\",\"coordinates\":[[3.0643763,36.68381],[3.0641551,36.6833781],[3.0639147,36.6831097],[3.063786,36.6829789],[3.0634341,36.6827036],[3.0631292,36.6825136],[3.0624754,36.6821503],[3.0613144,36.6815737]]}";6;Trans - Sahara;3;80;false;true;true;false;false;false;384.0;0;0;0;0;0;false;Bir Khadem Marché;5465122825;3.0445862;36.7143185;Baba Ali;1474259121;3.0493111;36.6722519;0;12;13;8093276;Bus: Place des Martyrs -> Birtouta;"";ETUSA;101;Place des Martyrs;Birtouta
423672702;"{\"type\":\"LineString\",\"coordinates\":[[3.0613144,36.6815737],[3.0609485,36.681392]]}";7;Trans - Sahara;3;80;false;true;true;false;false;false;39.0;0;0;0;0;0;false;Bir Khadem Marché;5465122825;3.0445862;36.7143185;Baba Ali;1474259121;3.0493111;36.6722519;0;12;13;8093276;Bus: Place des Martyrs -> Birtouta;"";ETUSA;101;Place des Martyrs;Birtouta
423672701;"{\"type\":\"LineString\",\"coordinates\":[[3.0609485,36.681392],[3.0607335,36.6812852],[3.0596228,36.6806883],[3.0591745,36.6804187],[3.0588616,36.6801715],[3.0587262,36.6800441],[3.0586141,36.6799093],[3.0584227,36.6796883],[3.0582499,36.6794339],[3.0578637,36.6787318],[3.0574946,36.6777268],[3.0572437,36.6771089],[3.0568019,36.6763825],[3.0564426,36.6758943]]}";8;Trans - Sahara;3;80;false;true;true;false;false;false;767.0;0;0;0;0;0;false;Bir Khadem Marché;5465122825;3.0445862;36.7143185;Baba Ali;1474259121;3.0493111;36.6722519;0;12;13;8093276;Bus: Place des Martyrs -> Birtouta;"";ETUSA;101;Place des Martyrs;Birtouta
316754603;"{\"type\":\"LineString\",\"coordinates\":[[3.0564426,36.6758943],[3.0562235,36.6757045],[3.0559204,36.6754453],[3.0551913,36.674957],[3.0538252,36.6741338],[3.0529475,36.6736399],[3.0517909,36.6729884],[3.0513153,36.6727436]]}";9;Autoroute Est-Ouest الطريق السيار شرق-غرب;3;80;false;true;true;false;false;false;586.0;0;0;0;0;0;false;Bir Khadem Marché;5465122825;3.0445862;36.7143185;Baba Ali;1474259121;3.0493111;36.6722519;0;12;13;8093276;Bus: Place des Martyrs -> Birtouta;"";ETUSA;101;Place des Martyrs;Birtouta
374410778;"{\"type\":\"LineString\",\"coordinates\":[[3.0513153,36.6727436],[3.0507031,36.6724462],[3.0494313,36.6718808],[3.0481427,36.6713072],[3.0476129,36.671034],[3.0471905,36.6707867],[3.0466905,36.6704551]]}";10;Autoroute Est-Ouest الطريق السيار شرق-غرب;3;80;false;true;true;false;false;false;246.5;0;0;0;0;0;false;Bir Khadem Marché;5465122825;3.0445862;36.7143185;Baba Ali;1474259121;3.0493111;36.6722519;1;12;13;8093276;Bus: Place des Martyrs -> Birtouta;"";ETUSA;101;Place des Martyrs;Birtouta
374410778;"{\"type\":\"LineString\",\"coordinates\":[[3.0513153,36.6727436],[3.0507031,36.6724462],[3.0494313,36.6718808],[3.0481427,36.6713072],[3.0476129,36.671034],[3.0471905,36.6707867],[3.0466905,36.6704551]]}";1;Autoroute Est-Ouest الطريق السيار شرق-غرب;3;80;false;true;true;false;false;false;246.5;0;0;0;0;0;false;Baba Ali;1474259121;3.0493111;36.6722519;Birtouta;4527029581;3.0008624;36.6410304;1;13;14;8093276;Bus: Place des Martyrs -> Birtouta;"";ETUSA;101;Place des Martyrs;Birtouta
374410772;"{\"type\":\"LineString\",\"coordinates\":[[3.0466905,36.6704551],[3.0456151,36.6698197],[3.0442731,36.6689671],[3.043872,36.6687081],[3.0418621,36.66741],[3.0389224,36.6655253],[3.0326889,36.6618505],[3.0287585,36.6595655],[3.0233436,36.6565364],[3.0209162,36.6552262],[3.0205745,36.6550261],[3.0203859,36.6549163],[3.0202168,36.6548249],[3.0191888,36.6542514],[3.0173611,36.6532725],[3.0150557,36.6519663],[3.0133536,36.6510294],[3.0127365,36.6507402],[3.0113962,36.650016],[3.0105071,36.6495319],[3.0086393,36.6485366],[3.0079947,36.6481685],[3.0075982,36.647873],[3.0072266,36.6475663],[3.0066391,36.6470467],[3.0064638,36.6468771],[3.0061577,36.646581],[3.0046819,36.6450817],[3.0040847,36.6445032],[3.0019207,36.6426679],[3.0014981,36.6423413],[3.0011698,36.6421071],[3.0007797,36.6418495],[3.0003579,36.6416193],[2.9995335,36.6412329],[2.9985636,36.6408472],[2.9974502,36.6405331],[2.9969152,36.6404071],[2.9968875,36.6404006],[2.9964178,36.6402933],[2.9961263,36.6402496],[2.9959139,36.6402162]]}";2;Autoroute Est-Ouest الطريق السيار شرق-غرب;3;100;false;true;true;false;false;false;5760.0;0;0;0;0;0;false;Baba Ali;1474259121;3.0493111;36.6722519;Birtouta;4527029581;3.0008624;36.6410304;0;13;14;8093276;Bus: Place des Martyrs -> Birtouta;"";ETUSA;101;Place des Martyrs;Birtouta
196547437;"{\"type\":\"LineString\",\"coordinates\":[[2.9959139,36.6402162],[2.9955401,36.6401984],[2.9954643,36.6402088],[2.9953892,36.6402217],[2.995298,36.6402475],[2.9952336,36.640269],[2.9951316,36.6403237],[2.9950785,36.6403776],[2.9950219,36.6404713],[2.9949794,36.6405707],[2.9949707,36.640678],[2.9949865,36.6407752],[2.9950325,36.6408831],[2.9951139,36.6409655],[2.9952095,36.6410393],[2.9952873,36.6410932],[2.9954,36.6411579],[2.9956387,36.6412742],[2.9956763,36.6412871],[2.9957675,36.6413086],[2.9958292,36.6413064],[2.9958882,36.6412871],[2.9960193,36.6411813]]}";3;Branchement A1-Birtouta;1;40;false;true;true;false;false;false;253.0;0;0;0;0;0;false;Baba Ali;1474259121;3.0493111;36.6722519;Birtouta;4527029581;3.0008624;36.6410304;0;13;14;8093276;Bus: Place des Martyrs -> Birtouta;"";ETUSA;101;Place des Martyrs;Birtouta
316559766;"{\"type\":\"LineString\",\"coordinates\":[[2.9960193,36.6411813],[2.9965002,36.6405512]]}";4;"";2;50;false;false;true;false;false;false;84.0;0;0;0;0;0;false;Baba Ali;1474259121;3.0493111;36.6722519;Birtouta;4527029581;3.0008624;36.6410304;0;13;14;8093276;Bus: Place des Martyrs -> Birtouta;"";ETUSA;101;Place des Martyrs;Birtouta
30832258;"{\"type\":\"LineString\",\"coordinates\":[[2.9965002,36.6405512],[2.9968774,36.6400833]]}";5;"";2;40;false;false;true;false;false;false;63.0;0;0;0;0;0;false;Baba Ali;1474259121;3.0493111;36.6722519;Birtouta;4527029581;3.0008624;36.6410304;0;13;14;8093276;Bus: Place des Martyrs -> Birtouta;"";ETUSA;101;Place des Martyrs;Birtouta
30832261;"{\"type\":\"LineString\",\"coordinates\":[[2.9968774,36.6400833],[2.9970403,36.6397757]]}";6;"";2;40;false;false;true;false;false;false;38.0;0;0;0;0;0;false;Baba Ali;1474259121;3.0493111;36.6722519;Birtouta;4527029581;3.0008624;36.6410304;0;13;14;8093276;Bus: Place des Martyrs -> Birtouta;"";ETUSA;101;Place des Martyrs;Birtouta
316556424;"{\"type\":\"LineString\",\"coordinates\":[[2.9970403,36.6397757],[2.9971459,36.6395329],[2.9971903,36.6394028],[2.9972273,36.6392951]]}";7;"";1;40;false;true;true;false;false;false;57.0;0;0;0;0;0;false;Baba Ali;1474259121;3.0493111;36.6722519;Birtouta;4527029581;3.0008624;36.6410304;0;13;14;8093276;Bus: Place des Martyrs -> Birtouta;"";ETUSA;101;Place des Martyrs;Birtouta
197051296;"{\"type\":\"LineString\",\"coordinates\":[[2.9976014,36.6393428],[2.997562,36.6393784],[2.9975116,36.6394037],[2.9974544,36.6394165],[2.9973951,36.6394158],[2.9973384,36.6394017],[2.997289,36.6393753],[2.9972509,36.6393388],[2.9972273,36.6392951],[2.9972199,36.6392479],[2.9972315,36.6391961],[2.9972626,36.6391497],[2.9973102,36.6391134],[2.9973696,36.6390909],[2.9974347,36.6390843],[2.9974991,36.6390944],[2.9975465,36.6391141],[2.9975861,36.6391429],[2.9976152,36.6391788],[2.9976319,36.6392195],[2.9976352,36.6392623],[2.9976248,36.6393043],[2.9976014,36.6393428]]}";8;"";2;40;false;false;true;false;false;false;118.0;0;0;0;0;0;true;Baba Ali;1474259121;3.0493111;36.6722519;Birtouta;4527029581;3.0008624;36.6410304;0;13;14;8093276;Bus: Place des Martyrs -> Birtouta;"";ETUSA;101;Place des Martyrs;Birtouta
197051295;"{\"type\":\"LineString\",\"coordinates\":[[2.9974991,36.6390944],[2.997733,36.6391114],[2.9978514,36.6391154],[2.9979778,36.6390876],[2.998247,36.6390606]]}";9;"";1;40;false;true;true;false;false;false;69.0;0;0;0;0;0;false;Baba Ali;1474259121;3.0493111;36.6722519;Birtouta;4527029581;3.0008624;36.6410304;0;13;14;8093276;Bus: Place des Martyrs -> Birtouta;"";ETUSA;101;Place des Martyrs;Birtouta
299712030;"{\"type\":\"LineString\",\"coordinates\":[[2.998247,36.6390606],[2.9984782,36.6390249],[2.9986925,36.6390117],[2.9989232,36.6390095],[2.9990905,36.6390119],[2.9992722,36.6390268],[2.9994295,36.6390461],[2.9997691,36.6391197],[3.0000973,36.6391949],[3.0003539,36.6392381],[3.0005792,36.6392639],[3.0008486,36.6392776],[3.0011317,36.639279],[3.0014247,36.6392539]]}";10;"";2;60;false;false;true;false;false;false;292.0;0;0;0;0;0;false;Baba Ali;1474259121;3.0493111;36.6722519;Birtouta;4527029581;3.0008624;36.6410304;0;13;14;8093276;Bus: Place des Martyrs -> Birtouta;"";ETUSA;101;Place des Martyrs;Birtouta
316561721;"{\"type\":\"LineString\",\"coordinates\":[[3.0014247,36.6392539],[3.0020547,36.6390666],[3.002143,36.6390251],[3.002261,36.6389863],[3.0023414,36.6389304],[3.0023599,36.6389264]]}";11;"";1;40;false;true;true;false;false;false;94.0;0;0;0;0;0;false;Baba Ali;1474259121;3.0493111;36.6722519;Birtouta;4527029581;3.0008624;36.6410304;0;13;14;8093276;Bus: Place des Martyrs -> Birtouta;"";ETUSA;101;Place des Martyrs;Birtouta
196547807;"{\"type\":\"LineString\",\"coordinates\":[[3.0027975,36.6388489],[3.0028406,36.6389069],[3.0028576,36.6389731],[3.0028494,36.6390322],[3.0028204,36.6390868],[3.002773,36.6391323],[3.0027094,36.6391656],[3.0026364,36.6391823],[3.0025605,36.6391809],[3.0024885,36.6391615],[3.002432,36.6391297],[3.0023882,36.6390869],[3.0023605,36.6390361],[3.0023508,36.6389813],[3.0023599,36.6389264],[3.0023908,36.6388709],[3.0024407,36.6388251],[3.0025053,36.6387933],[3.0025787,36.6387782],[3.0026544,36.6387812],[3.002733,36.6388053],[3.0027975,36.6388489]]}";12;"";1;30;false;false;true;false;false;false;144.0;0;0;0;0;0;true;Baba Ali;1474259121;3.0493111;36.6722519;Birtouta;4527029581;3.0008624;36.6410304;0;13;14;8093276;Bus: Place des Martyrs -> Birtouta;"";ETUSA;101;Place des Martyrs;Birtouta
567909708;"{\"type\":\"LineString\",\"coordinates\":[[3.002773,36.6391323],[3.002674,36.6392747],[3.0024192,36.6396106]]}";13;"";1;50;false;true;true;false;false;false;63.0;0;0;0;0;0;false;Baba Ali;1474259121;3.0493111;36.6722519;Birtouta;4527029581;3.0008624;36.6410304;0;13;14;8093276;Bus: Place des Martyrs -> Birtouta;"";ETUSA;101;Place des Martyrs;Birtouta
196549254;"{\"type\":\"LineString\",\"coordinates\":[[3.0024192,36.6396106],[3.0014068,36.640951],[3.0011234,36.6413263],[3.0005062,36.6410893],[3.0007227,36.6407473],[3.0014068,36.640951]]}";14;"";1;50;false;false;true;false;false;false;398.0;0;0;0;0;0;false;Baba Ali;1474259121;3.0493111;36.6722519;Birtouta;4527029581;3.0008624;36.6410304;1;13;14;8093276;Bus: Place des Martyrs -> Birtouta;"";ETUSA;101;Place des Martyrs;Birtouta
