way_id;shape;index;name;nb_lanes;legal_speed;speed_zone_30;oneway;shares_bike;bike_box;bus_lane;dedicated_bus_lane;length;nb_traffic_signals;nb_crossings;nb_stops;nb_give_ways;nb_lvl_crossings;roundabout;stop_id_orig;node_id_orig;coord_x_orig;coord_y_orig;stop_id_dest;node_id_dest;coord_x_dest;coord_y_dest;nb_neighbouring_ways_bus_stop;ordre_orig;ordre_dest;id_line;line_name;colour;operator;ref;from;to
218176970;"{\"type\":\"LineString\",\"coordinates\":[[3.1154287,36.72134],[3.1157103,36.7214093]]}";1;"";1;50;false;false;true;false;false;false;27.0;0;0;0;0;0;false;Gare routière Bachdjerrah 2 -ETUSA-;2274503073;3.115703;36.7214326;BOUROUBA (CIMETIERE);5387202971;3.1089149;36.715586;1;0;1;7982528;Bus: Bach Djarah => Gare Routiere De Baraki;"";ETUSA;105;Bach Djarah;Gare Routiere De Baraki
202171694;"{\"type\":\"LineString\",\"coordinates\":[[3.1154287,36.72134],[3.115375,36.7212825],[3.1153482,36.7212374],[3.1152641,36.7211199]]}";2;"";1;50;false;false;true;false;false;false;29.0;0;0;0;0;0;false;Gare routière Bachdjerrah 2 -ETUSA-;2274503073;3.115703;36.7214326;BOUROUBA (CIMETIERE);5387202971;3.1089149;36.715586;0;0;1;7982528;Bus: Bach Djarah => Gare Routiere De Baraki;"";ETUSA;105;Bach Djarah;Gare Routiere De Baraki
521945661;"{\"type\":\"LineString\",\"coordinates\":[[3.1114901,36.7178641],[3.1118522,36.7181796],[3.1129695,36.719108],[3.1138505,36.7198636],[3.1142803,36.720224],[3.1152641,36.7211199]]}";3;Bachdjerah Boulevard;1;50;false;false;true;false;false;false;501.0;0;0;0;0;0;false;Gare routière Bachdjerrah 2 -ETUSA-;2274503073;3.115703;36.7214326;BOUROUBA (CIMETIERE);5387202971;3.1089149;36.715586;0;0;1;7982528;Bus: Bach Djarah => Gare Routiere De Baraki;"";ETUSA;105;Bach Djarah;Gare Routiere De Baraki
218176977;"{\"type\":\"LineString\",\"coordinates\":[[3.108239,36.7153742],[3.1083933,36.7153871],[3.1085062,36.7153992],[3.1087576,36.7154575],[3.1089481,36.7155304],[3.1090002,36.7155504],[3.1091042,36.7156085],[3.1092033,36.7156752],[3.1093428,36.7157795],[3.1097545,36.7161891],[3.1102332,36.7166611],[3.1114901,36.7178641]]}";4;Bachdjerah Boulevard;1;50;false;false;true;false;false;false;209.0;0;0;0;0;0;false;Gare routière Bachdjerrah 2 -ETUSA-;2274503073;3.115703;36.7214326;BOUROUBA (CIMETIERE);5387202971;3.1089149;36.715586;1;0;1;7982528;Bus: Bach Djarah => Gare Routiere De Baraki;"";ETUSA;105;Bach Djarah;Gare Routiere De Baraki
218176977;"{\"type\":\"LineString\",\"coordinates\":[[3.108239,36.7153742],[3.1083933,36.7153871],[3.1085062,36.7153992],[3.1087576,36.7154575],[3.1089481,36.7155304],[3.1090002,36.7155504],[3.1091042,36.7156085],[3.1092033,36.7156752],[3.1093428,36.7157795],[3.1097545,36.7161891],[3.1102332,36.7166611],[3.1114901,36.7178641]]}";1;Bachdjerah Boulevard;1;50;false;false;true;false;false;false;209.0;0;0;0;0;0;false;BOUROUBA (CIMETIERE);5387202971;3.1089149;36.715586;AOTU.A;5387523814;3.099373;36.714039;1;1;2;7982528;Bus: Bach Djarah => Gare Routiere De Baraki;"";ETUSA;105;Bach Djarah;Gare Routiere De Baraki
30293551;"{\"type\":\"LineString\",\"coordinates\":[[3.102176,36.713953],[3.1023404,36.7139645],[3.1025116,36.7139685],[3.1027235,36.7139986],[3.1029107,36.7140477],[3.103073,36.7141005],[3.1032358,36.7141534],[3.103686,36.7143379],[3.1044263,36.7146303],[3.1047629,36.7147722],[3.1051363,36.714915],[3.1053593,36.7149944],[3.1055363,36.7150313],[3.1056283,36.7150483],[3.1059739,36.7150958],[3.1066672,36.7151872],[3.1070562,36.7152388],[3.1076627,36.7153075],[3.1078202,36.7153274],[3.1080325,36.7153506],[3.108239,36.7153742]]}";2;Route de Bourouba;1;50;false;false;true;false;false;false;578.0;0;0;0;0;0;false;BOUROUBA (CIMETIERE);5387202971;3.1089149;36.715586;AOTU.A;5387523814;3.099373;36.714039;0;1;2;7982528;Bus: Bach Djarah => Gare Routiere De Baraki;"";ETUSA;105;Bach Djarah;Gare Routiere De Baraki
410108737;"{\"type\":\"LineString\",\"coordinates\":[[3.102176,36.713953],[3.1020056,36.7139874],[3.1019023,36.7139987],[3.1017789,36.7140084],[3.1015489,36.7140261],[3.1012036,36.7140589]]}";3;"";1;50;false;true;true;false;false;false;89.0;0;0;0;0;0;false;BOUROUBA (CIMETIERE);5387202971;3.1089149;36.715586;AOTU.A;5387523814;3.099373;36.714039;0;1;2;7982528;Bus: Bach Djarah => Gare Routiere De Baraki;"";ETUSA;105;Bach Djarah;Gare Routiere De Baraki
30293549;"{\"type\":\"LineString\",\"coordinates\":[[3.1012036,36.7140589],[3.1007588,36.7140789],[3.100401,36.7140756]]}";4;"";1;50;false;true;true;false;false;false;73.0;0;0;0;0;0;false;BOUROUBA (CIMETIERE);5387202971;3.1089149;36.715586;AOTU.A;5387523814;3.099373;36.714039;0;1;2;7982528;Bus: Bach Djarah => Gare Routiere De Baraki;"";ETUSA;105;Bach Djarah;Gare Routiere De Baraki
210839441;"{\"type\":\"LineString\",\"coordinates\":[[3.100401,36.7140756],[3.1002876,36.7140752],[3.0999376,36.7140616],[3.0997699,36.7140476],[3.0996667,36.7140315],[3.0995782,36.7140143],[3.0995044,36.7139842]]}";5;"";1;50;false;true;true;false;false;false;83.0;0;0;0;0;0;false;BOUROUBA (CIMETIERE);5387202971;3.1089149;36.715586;AOTU.A;5387523814;3.099373;36.714039;0;1;2;7982528;Bus: Bach Djarah => Gare Routiere De Baraki;"";ETUSA;105;Bach Djarah;Gare Routiere De Baraki
26323909;"{\"type\":\"LineString\",\"coordinates\":[[3.0932238,36.7138621],[3.0935003,36.7138691],[3.0941896,36.7139003],[3.0948708,36.7139434],[3.095039,36.7139503],[3.0952896,36.7139586],[3.0954972,36.713967],[3.0958687,36.7139702],[3.096238,36.7139685],[3.09668,36.713967],[3.0971985,36.7139619],[3.098113,36.7139397],[3.098426,36.7139429],[3.0990042,36.7139487],[3.0993757,36.7139681],[3.0995044,36.7139842]]}";6;Rue Saad Nacer;1;50;false;false;true;false;false;false;285.0;0;0;0;0;0;false;BOUROUBA (CIMETIERE);5387202971;3.1089149;36.715586;AOTU.A;5387523814;3.099373;36.714039;1;1;2;7982528;Bus: Bach Djarah => Gare Routiere De Baraki;"";ETUSA;105;Bach Djarah;Gare Routiere De Baraki
210839441;"{\"type\":\"LineString\",\"coordinates\":[[3.100401,36.7140756],[3.1002876,36.7140752],[3.0999376,36.7140616],[3.0997699,36.7140476],[3.0996667,36.7140315],[3.0995782,36.7140143],[3.0995044,36.7139842]]}";1;"";1;50;false;true;true;false;false;false;83.0;0;0;0;0;0;false;AOTU.A;5387523814;3.099373;36.714039;arrêt les Quatre Chemins;3095540842;3.0948659;36.7140208;2;2;3;7982528;Bus: Bach Djarah => Gare Routiere De Baraki;"";ETUSA;105;Bach Djarah;Gare Routiere De Baraki
26323909;"{\"type\":\"LineString\",\"coordinates\":[[3.0932238,36.7138621],[3.0935003,36.7138691],[3.0941896,36.7139003],[3.0948708,36.7139434],[3.095039,36.7139503],[3.0952896,36.7139586],[3.0954972,36.713967],[3.0958687,36.7139702],[3.096238,36.7139685],[3.09668,36.713967],[3.0971985,36.7139619],[3.098113,36.7139397],[3.098426,36.7139429],[3.0990042,36.7139487],[3.0993757,36.7139681],[3.0995044,36.7139842]]}";2;Rue Saad Nacer;1;50;false;false;true;false;false;false;570.0;0;0;0;0;0;false;AOTU.A;5387523814;3.099373;36.714039;arrêt les Quatre Chemins;3095540842;3.0948659;36.7140208;2;2;3;7982528;Bus: Bach Djarah => Gare Routiere De Baraki;"";ETUSA;105;Bach Djarah;Gare Routiere De Baraki
26323909;"{\"type\":\"LineString\",\"coordinates\":[[3.0932238,36.7138621],[3.0935003,36.7138691],[3.0941896,36.7139003],[3.0948708,36.7139434],[3.095039,36.7139503],[3.0952896,36.7139586],[3.0954972,36.713967],[3.0958687,36.7139702],[3.096238,36.7139685],[3.09668,36.713967],[3.0971985,36.7139619],[3.098113,36.7139397],[3.098426,36.7139429],[3.0990042,36.7139487],[3.0993757,36.7139681],[3.0995044,36.7139842]]}";1;Rue Saad Nacer;1;50;false;false;true;false;false;false;285.0;0;0;0;0;0;false;arrêt les Quatre Chemins;3095540842;3.0948659;36.7140208;Arret de bus;4516824889;3.0943712;36.7093796;1;3;4;7982528;Bus: Bach Djarah => Gare Routiere De Baraki;"";ETUSA;105;Bach Djarah;Gare Routiere De Baraki
406787941;"{\"type\":\"LineString\",\"coordinates\":[[3.0935088,36.7127617],[3.0933635,36.7133058],[3.0932238,36.7138621]]}";2;Route de Gué de Constantine;1;50;false;false;true;false;false;false;127.0;0;0;0;0;0;false;arrêt les Quatre Chemins;3095540842;3.0948659;36.7140208;Arret de bus;4516824889;3.0943712;36.7093796;0;3;4;7982528;Bus: Bach Djarah => Gare Routiere De Baraki;"";ETUSA;105;Bach Djarah;Gare Routiere De Baraki
406787940;"{\"type\":\"LineString\",\"coordinates\":[[3.0937113,36.7120827],[3.0935088,36.7127617]]}";3;Route de Gué de Constantine;1;50;false;false;true;false;false;false;79.0;0;0;0;0;0;false;arrêt les Quatre Chemins;3095540842;3.0948659;36.7140208;Arret de bus;4516824889;3.0943712;36.7093796;0;3;4;7982528;Bus: Bach Djarah => Gare Routiere De Baraki;"";ETUSA;105;Bach Djarah;Gare Routiere De Baraki
210873159;"{\"type\":\"LineString\",\"coordinates\":[[3.0948979,36.6978535],[3.0951812,36.6986656],[3.0952216,36.6987969],[3.0952295,36.6988191],[3.0953637,36.699193],[3.0955097,36.699544],[3.095676,36.699874],[3.0958241,36.7001686],[3.0958304,36.7002935],[3.0957783,36.7004049],[3.095454,36.7009256],[3.0953858,36.7010841],[3.0953141,36.7012239],[3.0951967,36.701396],[3.0950846,36.7014648],[3.0949525,36.7015091],[3.0948164,36.7015061],[3.0946115,36.7014907],[3.0944401,36.7014875],[3.0942851,36.7015082],[3.0939828,36.7016041],[3.0937248,36.701721],[3.0930073,36.7020302],[3.0928557,36.7021211],[3.0927943,36.7022393],[3.0927821,36.7023434],[3.0928355,36.7024551],[3.0929145,36.7025441],[3.0929871,36.7025832],[3.0931671,36.7026802],[3.0934769,36.7028629],[3.0936255,36.7030166],[3.0937853,36.7032881],[3.0938376,36.7033769],[3.093873,36.7034549],[3.0942651,36.7043198],[3.0944094,36.7046232],[3.0946176,36.7050725],[3.0946467,36.7051394],[3.0946544,36.705174],[3.0947292,36.7055085],[3.0947649,36.705709],[3.0947783,36.7060012],[3.0949322,36.7074201],[3.0949352,36.7075413],[3.094924,36.7076592],[3.0947372,36.7084622],[3.0944535,36.7093957],[3.0943917,36.7095992],[3.0943294,36.7098263],[3.0941239,36.7105901],[3.0940139,36.710989],[3.0939082,36.7114067],[3.0938328,36.7116178],[3.0937941,36.7117516],[3.0937113,36.7120827]]}";4;Route de Gué de Constantine;1;50;false;false;true;false;false;false;922.5;0;0;0;0;0;false;arrêt les Quatre Chemins;3095540842;3.0948659;36.7140208;Arret de bus;4516824889;3.0943712;36.7093796;1;3;4;7982528;Bus: Bach Djarah => Gare Routiere De Baraki;"";ETUSA;105;Bach Djarah;Gare Routiere De Baraki
210873159;"{\"type\":\"LineString\",\"coordinates\":[[3.0948979,36.6978535],[3.0951812,36.6986656],[3.0952216,36.6987969],[3.0952295,36.6988191],[3.0953637,36.699193],[3.0955097,36.699544],[3.095676,36.699874],[3.0958241,36.7001686],[3.0958304,36.7002935],[3.0957783,36.7004049],[3.095454,36.7009256],[3.0953858,36.7010841],[3.0953141,36.7012239],[3.0951967,36.701396],[3.0950846,36.7014648],[3.0949525,36.7015091],[3.0948164,36.7015061],[3.0946115,36.7014907],[3.0944401,36.7014875],[3.0942851,36.7015082],[3.0939828,36.7016041],[3.0937248,36.701721],[3.0930073,36.7020302],[3.0928557,36.7021211],[3.0927943,36.7022393],[3.0927821,36.7023434],[3.0928355,36.7024551],[3.0929145,36.7025441],[3.0929871,36.7025832],[3.0931671,36.7026802],[3.0934769,36.7028629],[3.0936255,36.7030166],[3.0937853,36.7032881],[3.0938376,36.7033769],[3.093873,36.7034549],[3.0942651,36.7043198],[3.0944094,36.7046232],[3.0946176,36.7050725],[3.0946467,36.7051394],[3.0946544,36.705174],[3.0947292,36.7055085],[3.0947649,36.705709],[3.0947783,36.7060012],[3.0949322,36.7074201],[3.0949352,36.7075413],[3.094924,36.7076592],[3.0947372,36.7084622],[3.0944535,36.7093957],[3.0943917,36.7095992],[3.0943294,36.7098263],[3.0941239,36.7105901],[3.0940139,36.710989],[3.0939082,36.7114067],[3.0938328,36.7116178],[3.0937941,36.7117516],[3.0937113,36.7120827]]}";1;Route de Gué de Constantine;1;50;false;false;true;false;false;false;922.5;0;0;0;0;0;false;Gue de Constantine;5389073474;3.0951606;36.698835;GUE DE CONSTANTINE STATION DE BUS;5389073472;3.0914336;36.6971113;1;6;7;7982528;Bus: Bach Djarah => Gare Routiere De Baraki;"";ETUSA;105;Bach Djarah;Gare Routiere De Baraki
497017374;"{\"type\":\"LineString\",\"coordinates\":[[3.0948979,36.6978535],[3.0947005,36.697849],[3.0935204,36.6978124],[3.0933112,36.6977844],[3.0931368,36.69775],[3.0929517,36.697707],[3.0927506,36.6976468],[3.0926081,36.6975999],[3.0924227,36.6975187],[3.0916991,36.6972016],[3.09166,36.6971443]]}";2;"";1;50;false;true;true;false;false;false;313.0;0;0;0;0;0;false;Gue de Constantine;5389073474;3.0951606;36.698835;GUE DE CONSTANTINE STATION DE BUS;5389073472;3.0914336;36.6971113;0;6;7;7982528;Bus: Bach Djarah => Gare Routiere De Baraki;"";ETUSA;105;Bach Djarah;Gare Routiere De Baraki
181106375;"{\"type\":\"LineString\",\"coordinates\":[[3.0897206,36.6961015],[3.0899424,36.6962872],[3.090071,36.6963844],[3.0901999,36.69647],[3.0907171,36.6967038],[3.0910114,36.6968447],[3.0914684,36.6970558],[3.0915329,36.6970856],[3.0915903,36.6971122],[3.09166,36.6971443]]}";3;"";1;50;false;false;true;false;false;false;106.5;0;0;0;0;0;false;Gue de Constantine;5389073474;3.0951606;36.698835;GUE DE CONSTANTINE STATION DE BUS;5389073472;3.0914336;36.6971113;1;6;7;7982528;Bus: Bach Djarah => Gare Routiere De Baraki;"";ETUSA;105;Bach Djarah;Gare Routiere De Baraki
181106375;"{\"type\":\"LineString\",\"coordinates\":[[3.0897206,36.6961015],[3.0899424,36.6962872],[3.090071,36.6963844],[3.0901999,36.69647],[3.0907171,36.6967038],[3.0910114,36.6968447],[3.0914684,36.6970558],[3.0915329,36.6970856],[3.0915903,36.6971122],[3.09166,36.6971443]]}";1;"";1;50;false;false;true;false;false;false;106.5;0;0;0;0;0;false;GUE DE CONSTANTINE STATION DE BUS;5389073472;3.0914336;36.6971113;PONT SMAR;5389073467;3.0892906;36.6950208;1;7;8;7982528;Bus: Bach Djarah => Gare Routiere De Baraki;"";ETUSA;105;Bach Djarah;Gare Routiere De Baraki
181106358;"{\"type\":\"LineString\",\"coordinates\":[[3.089449,36.69614],[3.089416,36.6960901],[3.0894119,36.6960392],[3.0894288,36.6959967],[3.089444,36.6959777],[3.0894987,36.6959416],[3.089538,36.6959306],[3.0895937,36.6959293],[3.0896272,36.6959362],[3.0896702,36.6959558],[3.0897071,36.6959892],[3.0897229,36.6960165],[3.0897301,36.6960684],[3.0897206,36.6961015],[3.089693,36.6961393],[3.0896442,36.6961705],[3.0895694,36.6961849],[3.0895057,36.6961738],[3.089449,36.69614]]}";2;"";1;50;false;false;true;false;false;false;91.0;0;0;0;0;0;true;GUE DE CONSTANTINE STATION DE BUS;5389073472;3.0914336;36.6971113;PONT SMAR;5389073467;3.0892906;36.6950208;0;7;8;7982528;Bus: Bach Djarah => Gare Routiere De Baraki;"";ETUSA;105;Bach Djarah;Gare Routiere De Baraki
28788775;"{\"type\":\"LineString\",\"coordinates\":[[3.0893757,36.6948223],[3.0893528,36.6950254],[3.0893213,36.6953047],[3.0894333,36.6956678],[3.089538,36.6959306]]}";3;"";1;50;false;false;true;false;false;false;64.0;0;0;0;0;0;false;GUE DE CONSTANTINE STATION DE BUS;5389073472;3.0914336;36.6971113;PONT SMAR;5389073467;3.0892906;36.6950208;1;7;8;7982528;Bus: Bach Djarah => Gare Routiere De Baraki;"";ETUSA;105;Bach Djarah;Gare Routiere De Baraki
28788775;"{\"type\":\"LineString\",\"coordinates\":[[3.0893757,36.6948223],[3.0893528,36.6950254],[3.0893213,36.6953047],[3.0894333,36.6956678],[3.089538,36.6959306]]}";1;"";1;50;false;false;true;false;false;false;64.0;0;0;0;0;0;false;PONT SMAR;5389073467;3.0892906;36.6950208;BIOTIC;5389073469;3.0907363;36.6913861;1;8;9;7982528;Bus: Bach Djarah => Gare Routiere De Baraki;"";ETUSA;105;Bach Djarah;Gare Routiere De Baraki
28788774;"{\"type\":\"LineString\",\"coordinates\":[[3.0898702,36.6937258],[3.0893757,36.6948223]]}";2;"";1;50;false;false;true;false;false;false;132.0;0;0;0;0;0;false;PONT SMAR;5389073467;3.0892906;36.6950208;BIOTIC;5389073469;3.0907363;36.6913861;0;8;9;7982528;Bus: Bach Djarah => Gare Routiere De Baraki;"";ETUSA;105;Bach Djarah;Gare Routiere De Baraki
202354469;"{\"type\":\"LineString\",\"coordinates\":[[3.091673,36.6867773],[3.091201,36.6874725],[3.091055,36.6878166],[3.0909692,36.6885118],[3.0910293,36.6900466],[3.0910285,36.6900812],[3.0910207,36.6904045],[3.0909954,36.6907621],[3.090952,36.6909689],[3.0908584,36.6912664],[3.0908356,36.6913973],[3.0908036,36.691581],[3.0907718,36.6917122],[3.0903507,36.692621],[3.0898702,36.6937258]]}";3;"";1;60;false;false;true;false;false;false;406.0;0;0;0;0;0;false;PONT SMAR;5389073467;3.0892906;36.6950208;BIOTIC;5389073469;3.0907363;36.6913861;1;8;9;7982528;Bus: Bach Djarah => Gare Routiere De Baraki;"";ETUSA;105;Bach Djarah;Gare Routiere De Baraki
202354469;"{\"type\":\"LineString\",\"coordinates\":[[3.091673,36.6867773],[3.091201,36.6874725],[3.091055,36.6878166],[3.0909692,36.6885118],[3.0910293,36.6900466],[3.0910285,36.6900812],[3.0910207,36.6904045],[3.0909954,36.6907621],[3.090952,36.6909689],[3.0908584,36.6912664],[3.0908356,36.6913973],[3.0908036,36.691581],[3.0907718,36.6917122],[3.0903507,36.692621],[3.0898702,36.6937258]]}";1;"";1;60;false;false;true;false;false;false;406.0;0;0;0;0;0;false;BIOTIC;5389073469;3.0907363;36.6913861;FOYER;5389073471;3.0913156;36.6842173;1;9;10;7982528;Bus: Bach Djarah => Gare Routiere De Baraki;"";ETUSA;105;Bach Djarah;Gare Routiere De Baraki
202354470;"{\"type\":\"LineString\",\"coordinates\":[[3.092085,36.6862129],[3.091673,36.6867773]]}";2;"";1;50;false;false;true;false;false;false;74.0;0;0;0;0;0;false;BIOTIC;5389073469;3.0907363;36.6913861;FOYER;5389073471;3.0913156;36.6842173;0;9;10;7982528;Bus: Bach Djarah => Gare Routiere De Baraki;"";ETUSA;105;Bach Djarah;Gare Routiere De Baraki
39611991;"{\"type\":\"LineString\",\"coordinates\":[[3.0909177,36.6775746],[3.0909177,36.6777868],[3.0909177,36.6779514],[3.0909177,36.6789924],[3.0909177,36.6811882],[3.0909177,36.6824289],[3.0909177,36.6830123],[3.0909553,36.683193],[3.0909864,36.6833427],[3.0910636,36.6834729],[3.0910875,36.6835132],[3.0914069,36.6840517],[3.0914735,36.6841441],[3.0922052,36.6851598],[3.0923425,36.6854833],[3.0923253,36.6857311],[3.0922052,36.6860477],[3.0921602,36.6861096],[3.092085,36.6862129]]}";3;"";2;40;false;false;true;false;false;false;1007.0;0;0;0;0;0;false;BIOTIC;5389073469;3.0907363;36.6913861;FOYER;5389073471;3.0913156;36.6842173;1;9;10;7982528;Bus: Bach Djarah => Gare Routiere De Baraki;"";ETUSA;105;Bach Djarah;Gare Routiere De Baraki
