way_id;shape;index;name;nb_lanes;legal_speed;speed_zone_30;oneway;shares_bike;bike_box;bus_lane;dedicated_bus_lane;length;nb_traffic_signals;nb_crossings;nb_stops;nb_give_ways;nb_lvl_crossings;roundabout;stop_id_orig;node_id_orig;coord_x_orig;coord_y_orig;stop_id_dest;node_id_dest;coord_x_dest;coord_y_dest;nb_neighbouring_ways_bus_stop;ordre_orig;ordre_dest;id_line;line_name;colour;operator;ref;from;to
622869218;"{\"type\":\"LineString\",\"coordinates\":[[-70.5720664,-33.445909],[-70.5718905,-33.4469346],[-70.5717028,-33.4480284]]}";1;Avenida Ossa;3;50;false;true;true;false;false;false;297.5;2;0;0;0;0;false;Simón Bolívar / Avenida Ossa;1175357353;-70.5718301;-33.4478431;E. Solitaria / Avenida Ossa;1175357403;-70.5714334;-33.4501255;1;31;32;8647798;Hacia Metro Irarrázaval;#F7941D;Express de Santiago Uno S.A.;D02;"";""
239329053;"{\"type\":\"LineString\",\"coordinates\":[[-70.5717028,-33.4480284],[-70.571692,-33.4481003],[-70.5716899,-33.4481124],[-70.5715155,-33.4491389],[-70.571477,-33.4493653],[-70.5712986,-33.4503406],[-70.5712198,-33.4508517],[-70.5711172,-33.4514168],[-70.5710878,-33.4515563],[-70.5710596,-33.4517188],[-70.5710011,-33.4520359],[-70.5709352,-33.4524136],[-70.5708672,-33.452871],[-70.5708594,-33.4530434],[-70.5708641,-33.4533071],[-70.5708699,-33.4534109]]}";2;Avenida Ossa;4;60;false;true;true;false;false;false;1510.0;2;1;0;0;0;false;Simón Bolívar / Avenida Ossa;1175357353;-70.5718301;-33.4478431;E. Solitaria / Avenida Ossa;1175357403;-70.5714334;-33.4501255;1;31;32;8647798;Hacia Metro Irarrázaval;#F7941D;Express de Santiago Uno S.A.;D02;"";""
239329053;"{\"type\":\"LineString\",\"coordinates\":[[-70.5717028,-33.4480284],[-70.571692,-33.4481003],[-70.5716899,-33.4481124],[-70.5715155,-33.4491389],[-70.571477,-33.4493653],[-70.5712986,-33.4503406],[-70.5712198,-33.4508517],[-70.5711172,-33.4514168],[-70.5710878,-33.4515563],[-70.5710596,-33.4517188],[-70.5710011,-33.4520359],[-70.5709352,-33.4524136],[-70.5708672,-33.452871],[-70.5708594,-33.4530434],[-70.5708641,-33.4533071],[-70.5708699,-33.4534109]]}";1;Avenida Ossa;4;60;false;true;true;false;false;false;755.0;2;1;0;0;0;false;Parada 6 / (M) Plaza Egaña;1175278687;-70.5709582;-33.4529182;Nuncio Laghi / Vespucio;1175358846;-70.5717682;-33.4566427;1;33;34;8647798;Hacia Metro Irarrázaval;#F7941D;Express de Santiago Uno S.A.;D02;"";""
188157906;"{\"type\":\"LineString\",\"coordinates\":[[-70.5708699,-33.4534109],[-70.5708931,-33.4535869]]}";2;Avenida Ossa;4;60;false;true;true;false;false;false;50.0;2;0;0;0;0;false;Parada 6 / (M) Plaza Egaña;1175278687;-70.5709582;-33.4529182;Nuncio Laghi / Vespucio;1175358846;-70.5717682;-33.4566427;0;33;34;8647798;Hacia Metro Irarrázaval;#F7941D;Express de Santiago Uno S.A.;D02;"";""
15090204;"{\"type\":\"LineString\",\"coordinates\":[[-70.5708931,-33.4535869],[-70.5709167,-33.4536723],[-70.5710189,-33.4540428],[-70.5711317,-33.4545694],[-70.5713501,-33.4552617],[-70.571402,-33.4554262]]}";3;Avenida Américo Vespucio;4;60;false;true;true;false;false;false;525.0;1;1;0;0;0;false;Parada 6 / (M) Plaza Egaña;1175278687;-70.5709582;-33.4529182;Nuncio Laghi / Vespucio;1175358846;-70.5717682;-33.4566427;0;33;34;8647798;Hacia Metro Irarrázaval;#F7941D;Express de Santiago Uno S.A.;D02;"";""
450386314;"{\"type\":\"LineString\",\"coordinates\":[[-70.571402,-33.4554262],[-70.5714313,-33.4555428],[-70.5714383,-33.4555708],[-70.5714697,-33.4557043],[-70.5717526,-33.4569065],[-70.5719113,-33.4574931],[-70.5719908,-33.4577785],[-70.5721663,-33.4583152],[-70.5723884,-33.4588697],[-70.5724223,-33.4589592]]}";4;Avenida Américo Vespucio;3;60;false;true;true;false;false;false;505.5;1;1;0;0;0;false;Parada 6 / (M) Plaza Egaña;1175278687;-70.5709582;-33.4529182;Nuncio Laghi / Vespucio;1175358846;-70.5717682;-33.4566427;1;33;34;8647798;Hacia Metro Irarrázaval;#F7941D;Express de Santiago Uno S.A.;D02;"";""
