way_id;shape;index;name;nb_lanes;legal_speed;speed_zone_30;oneway;shares_bike;bike_box;bus_lane;dedicated_bus_lane;length;nb_traffic_signals;nb_crossings;nb_stops;nb_give_ways;nb_lvl_crossings;roundabout;stop_id_orig;node_id_orig;coord_x_orig;coord_y_orig;stop_id_dest;node_id_dest;coord_x_dest;coord_y_dest;nb_neighbouring_ways_bus_stop;ordre_orig;ordre_dest;id_line;line_name;colour;operator;ref;from;to
573205707;"{\"type\":\"LineString\",\"coordinates\":[[-73.5166644,45.393351],[-73.5169161,45.3933324],[-73.5170041,45.3933282],[-73.5171998,45.3933179],[-73.5172392,45.3933119],[-73.5172645,45.3933059],[-73.5172914,45.3932977],[-73.5173378,45.393281]]}";1;"";1;50;false;true;true;false;true;false;54.0;0;1;1;0;0;false;75643;6133322652;-73.517101;45.393388;75018;6133324640;-73.465159;45.454858;1;0;1;9513131;Bus 323 : Direction Montréal;"";EXO;323 N;Stationnement incitatif Candiac;Terminus Centre-Ville - Métro Bonaventure
685125000;"{\"type\":\"LineString\",\"coordinates\":[[-73.5173378,45.393281],[-73.5172646,45.3931798],[-73.5171372,45.3930185]]}";2;Boulevard Montcalm Nord;2;50;false;false;true;false;false;false;34.0;0;0;0;0;0;false;75643;6133322652;-73.517101;45.393388;75018;6133324640;-73.465159;45.454858;0;0;1;9513131;Bus 323 : Direction Montréal;"";EXO;323 N;Stationnement incitatif Candiac;Terminus Centre-Ville - Métro Bonaventure
685125003;"{\"type\":\"LineString\",\"coordinates\":[[-73.5171372,45.3930185],[-73.5170727,45.3929397],[-73.517012,45.3928653]]}";3;Boulevard Montcalm Nord;2;50;false;false;true;false;false;false;20.0;0;1;0;0;0;false;75643;6133322652;-73.517101;45.393388;75018;6133324640;-73.465159;45.454858;0;0;1;9513131;Bus 323 : Direction Montréal;"";EXO;323 N;Stationnement incitatif Candiac;Terminus Centre-Ville - Métro Bonaventure
798090940;"{\"type\":\"LineString\",\"coordinates\":[[-73.517012,45.3928653],[-73.5169504,45.3927919]]}";4;Boulevard Montcalm Nord;2;50;false;false;true;false;false;false;10.0;0;0;0;0;0;false;75643;6133322652;-73.517101;45.393388;75018;6133324640;-73.465159;45.454858;0;0;1;9513131;Bus 323 : Direction Montréal;"";EXO;323 N;Stationnement incitatif Candiac;Terminus Centre-Ville - Métro Bonaventure
25654340;"{\"type\":\"LineString\",\"coordinates\":[[-73.5169504,45.3927919],[-73.516797,45.392551]]}";5;Boulevard Montcalm Nord;1;50;false;true;true;false;false;false;30.0;0;0;0;0;0;false;75643;6133322652;-73.517101;45.393388;75018;6133324640;-73.465159;45.454858;0;0;1;9513131;Bus 323 : Direction Montréal;"";EXO;323 N;Stationnement incitatif Candiac;Terminus Centre-Ville - Métro Bonaventure
798085661;"{\"type\":\"LineString\",\"coordinates\":[[-73.516797,45.392551],[-73.5166571,45.3924334],[-73.5166434,45.3924191],[-73.5166175,45.392392]]}";6;Boulevard Montcalm Nord;2;50;false;true;true;false;false;false;23.0;1;1;0;0;0;false;75643;6133322652;-73.517101;45.393388;75018;6133324640;-73.465159;45.454858;0;0;1;9513131;Bus 323 : Direction Montréal;"";EXO;323 N;Stationnement incitatif Candiac;Terminus Centre-Ville - Métro Bonaventure
798085663;"{\"type\":\"LineString\",\"coordinates\":[[-73.5166175,45.392392],[-73.5165695,45.3923404]]}";7;Boulevard Montcalm Nord;2;50;false;true;true;false;false;false;7.0;0;0;0;0;0;false;75643;6133322652;-73.517101;45.393388;75018;6133324640;-73.465159;45.454858;0;0;1;9513131;Bus 323 : Direction Montréal;"";EXO;323 N;Stationnement incitatif Candiac;Terminus Centre-Ville - Métro Bonaventure
798085655;"{\"type\":\"LineString\",\"coordinates\":[[-73.5165695,45.3923404],[-73.5165253,45.3922991],[-73.5163618,45.3921839],[-73.5162625,45.3921243],[-73.5161804,45.3920793],[-73.5160667,45.3920217]]}";8;Boulevard Montcalm Nord;1;50;false;true;true;false;false;false;54.0;0;0;0;0;0;false;75643;6133322652;-73.517101;45.393388;75018;6133324640;-73.465159;45.454858;0;0;1;9513131;Bus 323 : Direction Montréal;"";EXO;323 N;Stationnement incitatif Candiac;Terminus Centre-Ville - Métro Bonaventure
222469860;"{\"type\":\"LineString\",\"coordinates\":[[-73.5160667,45.3920217],[-73.5157023,45.3918583],[-73.5156789,45.3918481],[-73.5156097,45.3918183]]}";9;Boulevard Montcalm Nord;2;50;false;true;true;false;false;false;43.0;1;1;0;0;0;false;75643;6133322652;-73.517101;45.393388;75018;6133324640;-73.465159;45.454858;0;0;1;9513131;Bus 323 : Direction Montréal;"";EXO;323 N;Stationnement incitatif Candiac;Terminus Centre-Ville - Métro Bonaventure
798090943;"{\"type\":\"LineString\",\"coordinates\":[[-73.5156097,45.3918183],[-73.5155334,45.3917878]]}";10;Boulevard Montcalm Nord;2;50;false;true;true;false;false;false;7.0;0;0;0;0;0;false;75643;6133322652;-73.517101;45.393388;75018;6133324640;-73.465159;45.454858;0;0;1;9513131;Bus 323 : Direction Montréal;"";EXO;323 N;Stationnement incitatif Candiac;Terminus Centre-Ville - Métro Bonaventure
340489004;"{\"type\":\"LineString\",\"coordinates\":[[-73.5155334,45.3917878],[-73.5154548,45.3917554],[-73.5153116,45.3916882],[-73.5148603,45.3914812],[-73.51477,45.3914386],[-73.5146844,45.3913956],[-73.5146689,45.3913876],[-73.5146076,45.3913557]]}";11;Boulevard Montcalm Nord;2;50;false;true;true;false;false;false;87.0;0;2;0;0;0;false;75643;6133322652;-73.517101;45.393388;75018;6133324640;-73.465159;45.454858;0;0;1;9513131;Bus 323 : Direction Montréal;"";EXO;323 N;Stationnement incitatif Candiac;Terminus Centre-Ville - Métro Bonaventure
685444582;"{\"type\":\"LineString\",\"coordinates\":[[-73.5146076,45.3913557],[-73.5144957,45.3912961]]}";12;Boulevard Montcalm Sud;2;50;false;true;true;false;false;false;11.0;0;0;0;0;0;false;75643;6133322652;-73.517101;45.393388;75018;6133324640;-73.465159;45.454858;0;0;1;9513131;Bus 323 : Direction Montréal;"";EXO;323 N;Stationnement incitatif Candiac;Terminus Centre-Ville - Métro Bonaventure
490863662;"{\"type\":\"LineString\",\"coordinates\":[[-73.5144957,45.3912961],[-73.5144054,45.3913666],[-73.5143592,45.3914032],[-73.5136863,45.391845],[-73.5129634,45.392316],[-73.5129066,45.3923651],[-73.5128617,45.3924133],[-73.5128286,45.3924681],[-73.5127971,45.3925469]]}";13;"";1;65;false;true;false;false;false;false;195.0;0;1;0;0;0;false;75643;6133322652;-73.517101;45.393388;75018;6133324640;-73.465159;45.454858;0;0;1;9513131;Bus 323 : Direction Montréal;"";EXO;323 N;Stationnement incitatif Candiac;Terminus Centre-Ville - Métro Bonaventure
13467885;"{\"type\":\"LineString\",\"coordinates\":[[-73.5127971,45.3925469],[-73.5127794,45.3927138],[-73.5127637,45.3928212],[-73.5127405,45.3929201],[-73.5127127,45.3929947],[-73.5126718,45.3930876],[-73.5126165,45.3931745],[-73.5125431,45.3932642],[-73.512481,45.3933293],[-73.5123604,45.3934232],[-73.5122039,45.3935222],[-73.5115607,45.3939563]]}";14;"";1;65;false;true;false;false;false;false;193.0;0;0;0;0;0;false;75643;6133322652;-73.517101;45.393388;75018;6133324640;-73.465159;45.454858;0;0;1;9513131;Bus 323 : Direction Montréal;"";EXO;323 N;Stationnement incitatif Candiac;Terminus Centre-Ville - Métro Bonaventure
210992555;"{\"type\":\"LineString\",\"coordinates\":[[-73.5115607,45.3939563],[-73.5107752,45.394427],[-73.5105505,45.3945733],[-73.5103734,45.3946963],[-73.5102149,45.3948141],[-73.5100705,45.3949282],[-73.5099303,45.3950518],[-73.5097903,45.3951788],[-73.5096643,45.3953075],[-73.5095347,45.3954432],[-73.5094152,45.3955779],[-73.5093077,45.3957169],[-73.5092076,45.3958531],[-73.5091286,45.3959668],[-73.5090725,45.3960519],[-73.5089808,45.396202],[-73.5089236,45.3963131],[-73.5088611,45.3964347],[-73.5088135,45.3965385],[-73.5087515,45.3966862],[-73.5086936,45.3968409]]}";15;Autoroute René-Levesque;3;100;false;true;true;false;false;false;400.0;0;0;0;0;0;false;75643;6133322652;-73.517101;45.393388;75018;6133324640;-73.465159;45.454858;0;0;1;9513131;Bus 323 : Direction Montréal;"";EXO;323 N;Stationnement incitatif Candiac;Terminus Centre-Ville - Métro Bonaventure
45326618;"{\"type\":\"LineString\",\"coordinates\":[[-73.5086936,45.3968409],[-73.5086545,45.3969734],[-73.5086258,45.3970822],[-73.5086079,45.3971603]]}";16;Autoroute René-Levesque;3;100;false;true;true;false;false;false;37.0;0;0;0;0;0;false;75643;6133322652;-73.517101;45.393388;75018;6133324640;-73.465159;45.454858;0;0;1;9513131;Bus 323 : Direction Montréal;"";EXO;323 N;Stationnement incitatif Candiac;Terminus Centre-Ville - Métro Bonaventure
685121101;"{\"type\":\"LineString\",\"coordinates\":[[-73.5086079,45.3971603],[-73.5085617,45.3973724]]}";17;Autoroute René-Levesque;3;100;false;true;true;false;false;false;24.0;0;0;0;0;0;false;75643;6133322652;-73.517101;45.393388;75018;6133324640;-73.465159;45.454858;0;0;1;9513131;Bus 323 : Direction Montréal;"";EXO;323 N;Stationnement incitatif Candiac;Terminus Centre-Ville - Métro Bonaventure
45326619;"{\"type\":\"LineString\",\"coordinates\":[[-73.5085617,45.3973724],[-73.5084005,45.3983667],[-73.5081186,45.4001]]}";18;Autoroute René-Levesque;3;100;false;true;true;false;false;false;305.0;0;0;0;0;0;false;75643;6133322652;-73.517101;45.393388;75018;6133324640;-73.465159;45.454858;0;0;1;9513131;Bus 323 : Direction Montréal;"";EXO;323 N;Stationnement incitatif Candiac;Terminus Centre-Ville - Métro Bonaventure
17101818;"{\"type\":\"LineString\",\"coordinates\":[[-73.5081186,45.4001],[-73.5077136,45.402529],[-73.5074352,45.4041979],[-73.5072585,45.4049594],[-73.5070487,45.4055782],[-73.5069007,45.405935],[-73.5066866,45.4064051],[-73.5063677,45.4070785],[-73.5059028,45.4081046]]}";19;Autoroute René-Levesque;3;100;false;true;true;false;false;false;910.0;0;0;0;0;0;false;75643;6133322652;-73.517101;45.393388;75018;6133324640;-73.465159;45.454858;0;0;1;9513131;Bus 323 : Direction Montréal;"";EXO;323 N;Stationnement incitatif Candiac;Terminus Centre-Ville - Métro Bonaventure
45342077;"{\"type\":\"LineString\",\"coordinates\":[[-73.5059028,45.4081046],[-73.505725,45.4084863]]}";20;Autoroute René-Levesque;3;100;false;true;true;false;false;false;45.0;0;0;0;0;0;false;75643;6133322652;-73.517101;45.393388;75018;6133324640;-73.465159;45.454858;0;0;1;9513131;Bus 323 : Direction Montréal;"";EXO;323 N;Stationnement incitatif Candiac;Terminus Centre-Ville - Métro Bonaventure
685121097;"{\"type\":\"LineString\",\"coordinates\":[[-73.505725,45.4084863],[-73.5055761,45.4088139],[-73.5053214,45.4093662],[-73.5052068,45.409614],[-73.5050639,45.4099251],[-73.504921,45.4102415],[-73.5047859,45.4105043],[-73.5046968,45.4106612],[-73.5046133,45.4107913],[-73.5045029,45.41096],[-73.5043684,45.4111441],[-73.5042368,45.4113138],[-73.5041556,45.411409],[-73.50401,45.4115745],[-73.5038499,45.4117466],[-73.5036973,45.4119003],[-73.50357,45.4120205],[-73.5034044,45.4121706],[-73.5030723,45.4124482],[-73.5021658,45.4132101]]}";21;Autoroute René-Levesque;3;100;false;true;true;false;false;false;602.0;0;0;0;0;0;false;75643;6133322652;-73.517101;45.393388;75018;6133324640;-73.465159;45.454858;0;0;1;9513131;Bus 323 : Direction Montréal;"";EXO;323 N;Stationnement incitatif Candiac;Terminus Centre-Ville - Métro Bonaventure
45342075;"{\"type\":\"LineString\",\"coordinates\":[[-73.5021658,45.4132101],[-73.5020256,45.4133329],[-73.5018471,45.413498],[-73.5017099,45.4136347],[-73.5016396,45.4137067],[-73.5015643,45.4137856],[-73.5014019,45.4139669],[-73.5011949,45.4142165],[-73.5010403,45.4144267],[-73.500945,45.4145603],[-73.5008415,45.4147259],[-73.5007212,45.4149295],[-73.5006212,45.4151142],[-73.500508,45.4153483],[-73.5003717,45.4156221],[-73.5001678,45.416035],[-73.4999849,45.4164092],[-73.4998139,45.4167487],[-73.4996524,45.4170858],[-73.4994268,45.417531],[-73.499021,45.4183681],[-73.49893,45.4185491],[-73.4987304,45.4189578],[-73.4985064,45.4193931],[-73.4983594,45.4196571],[-73.4981479,45.4200107],[-73.4979887,45.4202617],[-73.4978427,45.4204839],[-73.4976958,45.4207016],[-73.4975756,45.4208687],[-73.49744,45.4210579],[-73.4972705,45.421278],[-73.497072,45.42153],[-73.4968797,45.4217683],[-73.4967093,45.4219657],[-73.4964603,45.422247],[-73.4961223,45.4226037],[-73.4957706,45.4229587],[-73.4955829,45.4231396],[-73.4952176,45.4234746],[-73.4950027,45.423665],[-73.4947365,45.4238884],[-73.4944481,45.4241263],[-73.4941589,45.4243539],[-73.4930902,45.4251798],[-73.4929044,45.4253284],[-73.4927364,45.425464],[-73.4926179,45.4255707],[-73.4924437,45.4257289],[-73.4922682,45.4258987],[-73.4920938,45.4260752],[-73.4919568,45.4262279],[-73.4917909,45.4264219],[-73.4916563,45.426588],[-73.4915126,45.4267744],[-73.4913621,45.426996],[-73.4912502,45.4271672],[-73.4911468,45.4273375],[-73.4910312,45.427546],[-73.490946,45.4277118],[-73.4908641,45.4278824],[-73.4907945,45.4280445],[-73.4907236,45.4282188],[-73.4906346,45.4284731],[-73.4905636,45.4287104],[-73.4905159,45.428902],[-73.4904747,45.4290973],[-73.4904368,45.4293219],[-73.4904098,45.4295183],[-73.4903918,45.4297145],[-73.4903842,45.4298756],[-73.4903792,45.4300729],[-73.4903822,45.4302567],[-73.4903934,45.4304645],[-73.4904031,45.4305866],[-73.4904226,45.4307333],[-73.4904568,45.4309539],[-73.4905427,45.4314772]]}";22;Autoroute René-Levesque;3;100;false;true;true;false;false;false;2277.0;0;0;0;0;0;false;75643;6133322652;-73.517101;45.393388;75018;6133324640;-73.465159;45.454858;0;0;1;9513131;Bus 323 : Direction Montréal;"";EXO;323 N;Stationnement incitatif Candiac;Terminus Centre-Ville - Métro Bonaventure
13511246;"{\"type\":\"LineString\",\"coordinates\":[[-73.4905427,45.4314772],[-73.4905809,45.4317283]]}";23;Autoroute René-Levesque;3;100;false;true;true;false;false;false;29.0;0;0;0;0;0;false;75643;6133322652;-73.517101;45.393388;75018;6133324640;-73.465159;45.454858;0;0;1;9513131;Bus 323 : Direction Montréal;"";EXO;323 N;Stationnement incitatif Candiac;Terminus Centre-Ville - Métro Bonaventure
24554816;"{\"type\":\"LineString\",\"coordinates\":[[-73.4905809,45.4317283],[-73.490572,45.4319394],[-73.4905639,45.432213],[-73.4905667,45.4324069],[-73.4905736,45.4325764],[-73.4905744,45.432671],[-73.4905725,45.4327482],[-73.4905644,45.4328421],[-73.4905497,45.4329978],[-73.4905449,45.4330969],[-73.490546,45.433189],[-73.4905497,45.4332719],[-73.4906031,45.4336856],[-73.4906358,45.4338978],[-73.490733,45.4344719],[-73.4907846,45.4348109]]}";24;"";1;65;false;true;true;false;false;false;344.0;0;0;0;0;0;false;75643;6133322652;-73.517101;45.393388;75018;6133324640;-73.465159;45.454858;0;0;1;9513131;Bus 323 : Direction Montréal;"";EXO;323 N;Stationnement incitatif Candiac;Terminus Centre-Ville - Métro Bonaventure
784953100;"{\"type\":\"LineString\",\"coordinates\":[[-73.4907846,45.4348109],[-73.490826,45.4350826]]}";25;"";2;65;false;true;true;false;false;false;31.0;0;0;0;0;0;false;75643;6133322652;-73.517101;45.393388;75018;6133324640;-73.465159;45.454858;0;0;1;9513131;Bus 323 : Direction Montréal;"";EXO;323 N;Stationnement incitatif Candiac;Terminus Centre-Ville - Métro Bonaventure
452652076;"{\"type\":\"LineString\",\"coordinates\":[[-73.490826,45.4350826],[-73.4908378,45.4351458],[-73.4908654,45.4352858]]}";26;Boulevard Marie-Victorin;2;70;false;true;false;false;false;false;23.0;0;0;1;0;0;false;75643;6133322652;-73.517101;45.393388;75018;6133324640;-73.465159;45.454858;0;0;1;9513131;Bus 323 : Direction Montréal;"";EXO;323 N;Stationnement incitatif Candiac;Terminus Centre-Ville - Métro Bonaventure
26732829;"{\"type\":\"LineString\",\"coordinates\":[[-73.4908654,45.4352858],[-73.4907663,45.4352441],[-73.4902371,45.4352397],[-73.4895284,45.4352309]]}";27;Boulevard Matte;2;50;false;true;true;false;false;false;106.0;0;0;0;0;0;false;75643;6133322652;-73.517101;45.393388;75018;6133324640;-73.465159;45.454858;0;0;1;9513131;Bus 323 : Direction Montréal;"";EXO;323 N;Stationnement incitatif Candiac;Terminus Centre-Ville - Métro Bonaventure
775620600;"{\"type\":\"LineString\",\"coordinates\":[[-73.4895284,45.4352309],[-73.4894534,45.4352306],[-73.4888504,45.435232]]}";28;Boulevard Matte;2;50;false;true;true;false;false;false;54.0;0;0;0;0;0;false;75643;6133322652;-73.517101;45.393388;75018;6133324640;-73.465159;45.454858;0;0;1;9513131;Bus 323 : Direction Montréal;"";EXO;323 N;Stationnement incitatif Candiac;Terminus Centre-Ville - Métro Bonaventure
749252656;"{\"type\":\"LineString\",\"coordinates\":[[-73.4888504,45.435232],[-73.4879396,45.4352342],[-73.4877844,45.4352326]]}";29;Boulevard Matte;3;50;false;true;true;false;false;false;84.0;1;0;0;0;0;false;75643;6133322652;-73.517101;45.393388;75018;6133324640;-73.465159;45.454858;0;0;1;9513131;Bus 323 : Direction Montréal;"";EXO;323 N;Stationnement incitatif Candiac;Terminus Centre-Ville - Métro Bonaventure
749252658;"{\"type\":\"LineString\",\"coordinates\":[[-73.4877844,45.4352326],[-73.487681,45.4352328],[-73.4863947,45.4352456]]}";30;Boulevard Matte;3;50;false;true;true;false;false;false;109.0;0;1;0;0;0;false;75643;6133322652;-73.517101;45.393388;75018;6133324640;-73.465159;45.454858;0;0;1;9513131;Bus 323 : Direction Montréal;"";EXO;323 N;Stationnement incitatif Candiac;Terminus Centre-Ville - Métro Bonaventure
749252659;"{\"type\":\"LineString\",\"coordinates\":[[-73.4863947,45.4352456],[-73.4848356,45.4352611],[-73.4846891,45.435265],[-73.4842836,45.4352671],[-73.4825678,45.43528]]}";31;Boulevard Matte;2;50;false;true;true;false;false;false;300.0;1;1;0;0;0;false;75643;6133322652;-73.517101;45.393388;75018;6133324640;-73.465159;45.454858;0;0;1;9513131;Bus 323 : Direction Montréal;"";EXO;323 N;Stationnement incitatif Candiac;Terminus Centre-Ville - Métro Bonaventure
749265805;"{\"type\":\"LineString\",\"coordinates\":[[-73.4825678,45.43528],[-73.4817227,45.435286],[-73.4816946,45.4352852],[-73.4816005,45.4352826]]}";32;Boulevard Matte;4;50;false;true;true;false;false;false;76.0;1;1;0;0;0;false;75643;6133322652;-73.517101;45.393388;75018;6133324640;-73.465159;45.454858;0;0;1;9513131;Bus 323 : Direction Montréal;"";EXO;323 N;Stationnement incitatif Candiac;Terminus Centre-Ville - Métro Bonaventure
501583475;"{\"type\":\"LineString\",\"coordinates\":[[-73.4816005,45.4352826],[-73.4814054,45.4352803]]}";33;Boulevard Matte;3;50;false;true;true;false;false;false;16.0;0;0;0;0;0;false;75643;6133322652;-73.517101;45.393388;75018;6133324640;-73.465159;45.454858;0;0;1;9513131;Bus 323 : Direction Montréal;"";EXO;323 N;Stationnement incitatif Candiac;Terminus Centre-Ville - Métro Bonaventure
501583476;"{\"type\":\"LineString\",\"coordinates\":[[-73.4814054,45.4352803],[-73.4813081,45.4352796],[-73.4793651,45.4352652],[-73.4791547,45.4352613],[-73.4788838,45.4352481],[-73.4785459,45.4352166],[-73.4782537,45.4351708],[-73.4779116,45.4351028],[-73.4776063,45.4350307]]}";34;Boulevard Matte;3;50;false;true;true;false;false;false;301.0;0;1;0;0;0;false;75643;6133322652;-73.517101;45.393388;75018;6133324640;-73.465159;45.454858;0;0;1;9513131;Bus 323 : Direction Montréal;"";EXO;323 N;Stationnement incitatif Candiac;Terminus Centre-Ville - Métro Bonaventure
40317954;"{\"type\":\"LineString\",\"coordinates\":[[-73.4776063,45.4350307],[-73.4768885,45.4348159],[-73.4767472,45.4347662]]}";35;Boulevard Matte;3;50;false;true;true;false;false;false;74.0;1;0;0;0;0;false;75643;6133322652;-73.517101;45.393388;75018;6133324640;-73.465159;45.454858;0;0;1;9513131;Bus 323 : Direction Montréal;"";EXO;323 N;Stationnement incitatif Candiac;Terminus Centre-Ville - Métro Bonaventure
34686341;"{\"type\":\"LineString\",\"coordinates\":[[-73.4767472,45.4347662],[-73.4764768,45.4346688]]}";36;Boulevard Matte;1;50;false;true;true;false;false;false;24.0;0;0;0;0;0;false;75643;6133322652;-73.517101;45.393388;75018;6133324640;-73.465159;45.454858;0;0;1;9513131;Bus 323 : Direction Montréal;"";EXO;323 N;Stationnement incitatif Candiac;Terminus Centre-Ville - Métro Bonaventure
34686324;"{\"type\":\"LineString\",\"coordinates\":[[-73.4764768,45.4346688],[-73.4764069,45.4347588]]}";37;Boulevard Taschereau;4;50;false;true;false;false;false;false;12.0;0;0;0;0;0;false;75643;6133322652;-73.517101;45.393388;75018;6133324640;-73.465159;45.454858;0;0;1;9513131;Bus 323 : Direction Montréal;"";EXO;323 N;Stationnement incitatif Candiac;Terminus Centre-Ville - Métro Bonaventure
34686334;"{\"type\":\"LineString\",\"coordinates\":[[-73.4764069,45.4347588],[-73.4763693,45.4348084],[-73.4763469,45.434838],[-73.4761903,45.4350696]]}";38;Boulevard Taschereau;3;50;false;true;false;false;false;false;39.0;0;0;0;0;0;false;75643;6133322652;-73.517101;45.393388;75018;6133324640;-73.465159;45.454858;0;0;1;9513131;Bus 323 : Direction Montréal;"";EXO;323 N;Stationnement incitatif Candiac;Terminus Centre-Ville - Métro Bonaventure
34686335;"{\"type\":\"LineString\",\"coordinates\":[[-73.4761903,45.4350696],[-73.47598,45.4353934],[-73.4758265,45.4356297],[-73.4754073,45.4362953],[-73.4752532,45.4365404],[-73.4749906,45.4369541],[-73.4745683,45.4375988]]}";39;Boulevard Taschereau;3;70;false;true;false;false;false;false;309.0;0;0;0;0;0;false;75643;6133322652;-73.517101;45.393388;75018;6133324640;-73.465159;45.454858;0;0;1;9513131;Bus 323 : Direction Montréal;"";EXO;323 N;Stationnement incitatif Candiac;Terminus Centre-Ville - Métro Bonaventure
34686311;"{\"type\":\"LineString\",\"coordinates\":[[-73.4745683,45.4375988],[-73.4744588,45.4377765],[-73.4743486,45.4379511],[-73.4743119,45.4380089],[-73.4742159,45.4381261]]}";40;Boulevard Taschereau;1;70;false;true;false;false;false;false;65.0;1;0;0;0;0;false;75643;6133322652;-73.517101;45.393388;75018;6133324640;-73.465159;45.454858;0;0;1;9513131;Bus 323 : Direction Montréal;"";EXO;323 N;Stationnement incitatif Candiac;Terminus Centre-Ville - Métro Bonaventure
34686313;"{\"type\":\"LineString\",\"coordinates\":[[-73.4742159,45.4381261],[-73.4741701,45.4381846],[-73.4740064,45.4384431]]}";41;Boulevard Taschereau;1;70;false;true;false;false;false;false;39.0;0;0;0;0;0;false;75643;6133322652;-73.517101;45.393388;75018;6133324640;-73.465159;45.454858;0;0;1;9513131;Bus 323 : Direction Montréal;"";EXO;323 N;Stationnement incitatif Candiac;Terminus Centre-Ville - Métro Bonaventure
34686312;"{\"type\":\"LineString\",\"coordinates\":[[-73.4740064,45.4384431],[-73.4738263,45.4387226],[-73.4732746,45.4396403],[-73.473098,45.4400172],[-73.4729286,45.4404553],[-73.4728354,45.4407764],[-73.4727519,45.4411253],[-73.4726863,45.4415913],[-73.47264,45.4419699],[-73.4725329,45.4424989],[-73.4724892,45.4426492],[-73.4723648,45.4430121],[-73.4723311,45.443095],[-73.4721908,45.4434183],[-73.4720599,45.4436709],[-73.4715451,45.4444961],[-73.4711248,45.4451335],[-73.4709226,45.4454515],[-73.4707447,45.4457125],[-73.4706318,45.4459043],[-73.4703623,45.4463151],[-73.4702264,45.4465307]]}";42;Boulevard Taschereau;1;70;false;true;false;false;true;false;953.0;0;0;0;0;0;false;75643;6133322652;-73.517101;45.393388;75018;6133324640;-73.465159;45.454858;0;0;1;9513131;Bus 323 : Direction Montréal;"";EXO;323 N;Stationnement incitatif Candiac;Terminus Centre-Ville - Métro Bonaventure
34686269;"{\"type\":\"LineString\",\"coordinates\":[[-73.4702264,45.4465307],[-73.4700753,45.4467935]]}";43;Boulevard Taschereau;1;70;false;true;false;false;false;false;32.0;1;0;0;0;0;false;75643;6133322652;-73.517101;45.393388;75018;6133324640;-73.465159;45.454858;0;0;1;9513131;Bus 323 : Direction Montréal;"";EXO;323 N;Stationnement incitatif Candiac;Terminus Centre-Ville - Métro Bonaventure
782701629;"{\"type\":\"LineString\",\"coordinates\":[[-73.4700753,45.4467935],[-73.4700497,45.4468363],[-73.4700213,45.4468838]]}";44;Boulevard Taschereau;1;70;false;true;false;false;false;false;11.0;1;1;0;0;0;false;75643;6133322652;-73.517101;45.393388;75018;6133324640;-73.465159;45.454858;0;0;1;9513131;Bus 323 : Direction Montréal;"";EXO;323 N;Stationnement incitatif Candiac;Terminus Centre-Ville - Métro Bonaventure
34686268;"{\"type\":\"LineString\",\"coordinates\":[[-73.4700213,45.4468838],[-73.4699477,45.4469916]]}";45;Boulevard Taschereau;1;70;false;true;false;false;false;false;14.0;0;0;0;0;0;false;75643;6133322652;-73.517101;45.393388;75018;6133324640;-73.465159;45.454858;0;0;1;9513131;Bus 323 : Direction Montréal;"";EXO;323 N;Stationnement incitatif Candiac;Terminus Centre-Ville - Métro Bonaventure
34686267;"{\"type\":\"LineString\",\"coordinates\":[[-73.4699477,45.4469916],[-73.4699132,45.4470412],[-73.4697064,45.4473308]]}";46;Boulevard Taschereau;1;70;false;true;true;false;true;false;43.0;0;1;0;0;0;false;75643;6133322652;-73.517101;45.393388;75018;6133324640;-73.465159;45.454858;0;0;1;9513131;Bus 323 : Direction Montréal;"";EXO;323 N;Stationnement incitatif Candiac;Terminus Centre-Ville - Métro Bonaventure
34686272;"{\"type\":\"LineString\",\"coordinates\":[[-73.4697064,45.4473308],[-73.4696267,45.4474575],[-73.4695237,45.4476213],[-73.4688891,45.4486304],[-73.4686247,45.4490509],[-73.468515,45.4492254],[-73.4682497,45.4496473],[-73.4679724,45.4500884],[-73.467901,45.4502019],[-73.4677141,45.4504992],[-73.4668543,45.4518663],[-73.4666766,45.4521489],[-73.4664885,45.4524481],[-73.4664145,45.4525657],[-73.4662321,45.4528558],[-73.466213,45.4528877],[-73.4661482,45.4529959],[-73.4659617,45.4533071],[-73.4658805,45.4534754],[-73.4657654,45.4537141],[-73.4656901,45.4538737],[-73.4654735,45.4543325],[-73.4653603,45.4545721],[-73.4653394,45.4546164]]}";47;Boulevard Taschereau;1;50;false;true;true;false;true;false;879.0;0;0;0;0;0;false;75643;6133322652;-73.517101;45.393388;75018;6133324640;-73.465159;45.454858;0;0;1;9513131;Bus 323 : Direction Montréal;"";EXO;323 N;Stationnement incitatif Candiac;Terminus Centre-Ville - Métro Bonaventure
34686237;"{\"type\":\"LineString\",\"coordinates\":[[-73.4653394,45.4546164],[-73.4652435,45.4548959],[-73.4652292,45.4549375],[-73.4651831,45.4550214]]}";48;Boulevard Taschereau;1;50;false;true;true;false;false;false;23.5;1;0;0;0;0;false;75643;6133322652;-73.517101;45.393388;75018;6133324640;-73.465159;45.454858;1;0;1;9513131;Bus 323 : Direction Montréal;"";EXO;323 N;Stationnement incitatif Candiac;Terminus Centre-Ville - Métro Bonaventure
34686238;"{\"type\":\"LineString\",\"coordinates\":[[-73.4651831,45.4550214],[-73.4651291,45.455169]]}";1;Boulevard Taschereau;1;50;false;true;false;false;false;false;17.0;0;0;0;0;0;false;75018;6133324640;-73.465159;45.454858;75465;6133322817;-73.558503;45.49744;2;1;2;9513131;Bus 323 : Direction Montréal;"";EXO;323 N;Stationnement incitatif Candiac;Terminus Centre-Ville - Métro Bonaventure
34686232;"{\"type\":\"LineString\",\"coordinates\":[[-73.4651291,45.455169],[-73.465079,45.4553803],[-73.4650429,45.4555326]]}";2;Boulevard Taschereau;1;50;false;true;true;false;true;false;41.0;0;0;0;0;0;false;75018;6133324640;-73.465159;45.454858;75465;6133322817;-73.558503;45.49744;0;1;2;9513131;Bus 323 : Direction Montréal;"";EXO;323 N;Stationnement incitatif Candiac;Terminus Centre-Ville - Métro Bonaventure
34686233;"{\"type\":\"LineString\",\"coordinates\":[[-73.4650429,45.4555326],[-73.4650135,45.4558401],[-73.4649871,45.4561158],[-73.4649816,45.4561728],[-73.4649512,45.4564903],[-73.4649371,45.4566378],[-73.4648999,45.4570262],[-73.464903,45.4572789],[-73.4649097,45.4578168]]}";3;Boulevard Taschereau;1;70;false;true;true;false;true;false;255.0;0;0;0;0;0;false;75018;6133324640;-73.465159;45.454858;75465;6133322817;-73.558503;45.49744;0;1;2;9513131;Bus 323 : Direction Montréal;"";EXO;323 N;Stationnement incitatif Candiac;Terminus Centre-Ville - Métro Bonaventure
39505959;"{\"type\":\"LineString\",\"coordinates\":[[-73.4649097,45.4578168],[-73.4649158,45.4583036],[-73.4649254,45.4584231],[-73.4649669,45.4589404],[-73.464979,45.4591055],[-73.4649852,45.4591892]]}";4;Boulevard Taschereau;1;70;false;true;true;false;true;false;153.0;1;0;0;0;0;false;75018;6133324640;-73.465159;45.454858;75465;6133322817;-73.558503;45.49744;0;1;2;9513131;Bus 323 : Direction Montréal;"";EXO;323 N;Stationnement incitatif Candiac;Terminus Centre-Ville - Métro Bonaventure
39239298;"{\"type\":\"LineString\",\"coordinates\":[[-73.4649852,45.4591892],[-73.4649926,45.4592755]]}";5;Boulevard Taschereau;1;50;false;true;true;false;false;false;10.0;0;0;0;0;0;false;75018;6133324640;-73.465159;45.454858;75465;6133322817;-73.558503;45.49744;0;1;2;9513131;Bus 323 : Direction Montréal;"";EXO;323 N;Stationnement incitatif Candiac;Terminus Centre-Ville - Métro Bonaventure
34686190;"{\"type\":\"LineString\",\"coordinates\":[[-73.4649926,45.4592755],[-73.4650024,45.4593671],[-73.4650153,45.4595342],[-73.4650309,45.459736],[-73.4650562,45.4600631]]}";6;Boulevard Taschereau;1;50;false;true;true;false;false;false;88.0;0;0;0;0;0;false;75018;6133324640;-73.465159;45.454858;75465;6133322817;-73.558503;45.49744;0;1;2;9513131;Bus 323 : Direction Montréal;"";EXO;323 N;Stationnement incitatif Candiac;Terminus Centre-Ville - Métro Bonaventure
479473732;"{\"type\":\"LineString\",\"coordinates\":[[-73.4650562,45.4600631],[-73.4651333,45.4607822],[-73.4651549,45.4609837]]}";7;Boulevard Taschereau;1;50;false;true;true;false;false;false;103.0;0;0;0;0;0;false;75018;6133324640;-73.465159;45.454858;75465;6133322817;-73.558503;45.49744;0;1;2;9513131;Bus 323 : Direction Montréal;"";EXO;323 N;Stationnement incitatif Candiac;Terminus Centre-Ville - Métro Bonaventure
34686189;"{\"type\":\"LineString\",\"coordinates\":[[-73.4651549,45.4609837],[-73.4652166,45.4615798],[-73.4652432,45.4619075]]}";8;Boulevard Taschereau;1;50;false;true;false;false;false;false;103.0;0;0;0;0;0;false;75018;6133324640;-73.465159;45.454858;75465;6133322817;-73.558503;45.49744;0;1;2;9513131;Bus 323 : Direction Montréal;"";EXO;323 N;Stationnement incitatif Candiac;Terminus Centre-Ville - Métro Bonaventure
452415393;"{\"type\":\"LineString\",\"coordinates\":[[-73.4652432,45.4619075],[-73.4654805,45.4635341],[-73.465522,45.4637024],[-73.4655435,45.4637896]]}";9;Boulevard Taschereau;1;50;false;true;false;false;false;false;211.0;1;0;0;0;0;false;75018;6133324640;-73.465159;45.454858;75465;6133322817;-73.558503;45.49744;0;1;2;9513131;Bus 323 : Direction Montréal;"";EXO;323 N;Stationnement incitatif Candiac;Terminus Centre-Ville - Métro Bonaventure
39239394;"{\"type\":\"LineString\",\"coordinates\":[[-73.4655435,45.4637896],[-73.4655823,45.4639539],[-73.4656533,45.46418],[-73.4660166,45.4650769]]}";10;Boulevard Taschereau;1;50;false;true;false;false;true;false;148.0;0;0;0;0;0;false;75018;6133324640;-73.465159;45.454858;75465;6133322817;-73.558503;45.49744;0;1;2;9513131;Bus 323 : Direction Montréal;"";EXO;323 N;Stationnement incitatif Candiac;Terminus Centre-Ville - Métro Bonaventure
476012636;"{\"type\":\"LineString\",\"coordinates\":[[-73.4660166,45.4650769],[-73.4662107,45.4654681],[-73.4662619,45.4655763],[-73.4663131,45.4656845]]}";11;Boulevard Taschereau;1;50;false;true;false;false;true;false;72.0;1;0;0;0;0;false;75018;6133324640;-73.465159;45.454858;75465;6133322817;-73.558503;45.49744;0;1;2;9513131;Bus 323 : Direction Montréal;"";EXO;323 N;Stationnement incitatif Candiac;Terminus Centre-Ville - Métro Bonaventure
473778377;"{\"type\":\"LineString\",\"coordinates\":[[-73.4663131,45.4656845],[-73.4665181,45.4656358]]}";12;"";1;50;false;false;true;false;false;false;17.0;0;0;0;0;0;false;75018;6133324640;-73.465159;45.454858;75465;6133322817;-73.558503;45.49744;0;1;2;9513131;Bus 323 : Direction Montréal;"";EXO;323 N;Stationnement incitatif Candiac;Terminus Centre-Ville - Métro Bonaventure
476012634;"{\"type\":\"LineString\",\"coordinates\":[[-73.466996,45.4655796],[-73.4667315,45.4656026],[-73.4667003,45.4656075],[-73.4665181,45.4656358]]}";13;"";1;50;false;false;false;false;true;false;38.0;1;0;0;0;0;false;75018;6133324640;-73.465159;45.454858;75465;6133322817;-73.558503;45.49744;0;1;2;9513131;Bus 323 : Direction Montréal;"";EXO;323 N;Stationnement incitatif Candiac;Terminus Centre-Ville - Métro Bonaventure
37637927;"{\"type\":\"LineString\",\"coordinates\":[[-73.468025,45.4659377],[-73.4677887,45.4657888],[-73.4677335,45.4657546],[-73.4676442,45.4657151],[-73.4674983,45.4656589],[-73.4673546,45.4656184],[-73.4671835,45.4655895],[-73.466996,45.4655796]]}";14;"";1;50;false;false;false;false;true;false;93.0;0;0;0;0;0;false;75018;6133324640;-73.465159;45.454858;75465;6133322817;-73.558503;45.49744;0;1;2;9513131;Bus 323 : Direction Montréal;"";EXO;323 N;Stationnement incitatif Candiac;Terminus Centre-Ville - Métro Bonaventure
703233488;"{\"type\":\"LineString\",\"coordinates\":[[-73.4733357,45.4656186],[-73.4699508,45.4656907],[-73.4695234,45.4656998],[-73.4691508,45.4657186],[-73.4688021,45.4657429],[-73.4685139,45.465784],[-73.4682324,45.4658535],[-73.468025,45.4659377]]}";15;"";1;50;false;false;true;false;true;false;420.0;0;0;0;0;0;false;75018;6133324640;-73.465159;45.454858;75465;6133322817;-73.558503;45.49744;0;1;2;9513131;Bus 323 : Direction Montréal;"";EXO;323 N;Stationnement incitatif Candiac;Terminus Centre-Ville - Métro Bonaventure
684189916;"{\"type\":\"LineString\",\"coordinates\":[[-73.4733357,45.4656186],[-73.4735794,45.4655613],[-73.4739808,45.4655103],[-73.4741277,45.4654925],[-73.4747925,45.4654563],[-73.4752773,45.4654395],[-73.4757455,45.4654647],[-73.4762138,45.465479],[-73.4767771,45.4654808],[-73.4776483,45.4653783]]}";16;"";1;50;false;true;true;false;true;false;341.0;0;0;0;0;0;false;75018;6133324640;-73.465159;45.454858;75465;6133322817;-73.558503;45.49744;0;1;2;9513131;Bus 323 : Direction Montréal;"";EXO;323 N;Stationnement incitatif Candiac;Terminus Centre-Ville - Métro Bonaventure
596245859;"{\"type\":\"LineString\",\"coordinates\":[[-73.4776483,45.4653783],[-73.47817,45.4654129],[-73.4791657,45.4654646],[-73.480342,45.4655445],[-73.4815645,45.4656424],[-73.4827092,45.4657465],[-73.483758,45.4658456]]}";17;Autoroute des Cantons-de-l'Est;4;80;false;true;true;false;false;false;481.0;0;0;0;0;0;false;75018;6133324640;-73.465159;45.454858;75465;6133322817;-73.558503;45.49744;0;1;2;9513131;Bus 323 : Direction Montréal;"";EXO;323 N;Stationnement incitatif Candiac;Terminus Centre-Ville - Métro Bonaventure
646417290;"{\"type\":\"LineString\",\"coordinates\":[[-73.483758,45.4658456],[-73.4846623,45.465954],[-73.4856177,45.4660809],[-73.4868069,45.4662534],[-73.4886334,45.4665299]]}";18;Autoroute des Cantons-de-l'Est;4;80;false;true;true;false;false;false;389.0;0;0;0;0;0;false;75018;6133324640;-73.465159;45.454858;75465;6133322817;-73.558503;45.49744;0;1;2;9513131;Bus 323 : Direction Montréal;"";EXO;323 N;Stationnement incitatif Candiac;Terminus Centre-Ville - Métro Bonaventure
617688037;"{\"type\":\"LineString\",\"coordinates\":[[-73.4886334,45.4665299],[-73.491919,45.4669863]]}";19;Autoroute des Cantons-de-l'Est;6;80;false;true;true;false;false;false;262.0;0;0;0;0;0;false;75018;6133324640;-73.465159;45.454858;75465;6133322817;-73.558503;45.49744;0;1;2;9513131;Bus 323 : Direction Montréal;"";EXO;323 N;Stationnement incitatif Candiac;Terminus Centre-Ville - Métro Bonaventure
364775282;"{\"type\":\"LineString\",\"coordinates\":[[-73.491919,45.4669863],[-73.497579,45.4676639],[-73.4995142,45.4678849],[-73.5001974,45.4679687],[-73.5014831,45.4681109]]}";20;Pont Samuel-De Champlain;5;80;false;true;true;false;false;false;758.0;0;0;0;0;0;false;75018;6133324640;-73.465159;45.454858;75465;6133322817;-73.558503;45.49744;0;1;2;9513131;Bus 323 : Direction Montréal;"";EXO;323 N;Stationnement incitatif Candiac;Terminus Centre-Ville - Métro Bonaventure
646417311;"{\"type\":\"LineString\",\"coordinates\":[[-73.5014831,45.4681109],[-73.5036146,45.4683312],[-73.505462,45.4685268],[-73.5081765,45.4687976]]}";21;Pont Samuel-De Champlain;4;80;false;true;true;false;false;false;529.0;0;0;0;0;0;false;75018;6133324640;-73.465159;45.454858;75465;6133322817;-73.558503;45.49744;0;1;2;9513131;Bus 323 : Direction Montréal;"";EXO;323 N;Stationnement incitatif Candiac;Terminus Centre-Ville - Métro Bonaventure
646417301;"{\"type\":\"LineString\",\"coordinates\":[[-73.5081765,45.4687976],[-73.5111952,45.4690972],[-73.5143589,45.4694003],[-73.5158971,45.4695402],[-73.5174379,45.4696676],[-73.5194792,45.4698271],[-73.5215332,45.4699746],[-73.5230666,45.470065],[-73.5245937,45.4701407],[-73.5256081,45.4701821],[-73.5276458,45.4702711]]}";22;Pont Samuel-De Champlain;4;80;false;true;true;false;false;false;1531.0;0;0;0;0;0;false;75018;6133324640;-73.465159;45.454858;75465;6133322817;-73.558503;45.49744;0;1;2;9513131;Bus 323 : Direction Montréal;"";EXO;323 N;Stationnement incitatif Candiac;Terminus Centre-Ville - Métro Bonaventure
699232600;"{\"type\":\"LineString\",\"coordinates\":[[-73.5276458,45.4702711],[-73.5361031,45.4705109]]}";23;Pont Samuel-De Champlain;5;80;false;true;true;false;false;false;662.0;0;0;0;0;0;false;75018;6133324640;-73.465159;45.454858;75465;6133322817;-73.558503;45.49744;0;1;2;9513131;Bus 323 : Direction Montréal;"";EXO;323 N;Stationnement incitatif Candiac;Terminus Centre-Ville - Métro Bonaventure
618983689;"{\"type\":\"LineString\",\"coordinates\":[[-73.5361031,45.4705109],[-73.537834,45.4706479]]}";24;"";2;50;false;true;true;false;false;false;137.0;0;0;0;0;0;false;75018;6133324640;-73.465159;45.454858;75465;6133322817;-73.558503;45.49744;0;1;2;9513131;Bus 323 : Direction Montréal;"";EXO;323 N;Stationnement incitatif Candiac;Terminus Centre-Ville - Métro Bonaventure
708682533;"{\"type\":\"LineString\",\"coordinates\":[[-73.537834,45.4706479],[-73.5382399,45.4706632]]}";25;"";2;50;false;true;true;false;false;false;32.0;0;0;0;0;0;false;75018;6133324640;-73.465159;45.454858;75465;6133322817;-73.558503;45.49744;0;1;2;9513131;Bus 323 : Direction Montréal;"";EXO;323 N;Stationnement incitatif Candiac;Terminus Centre-Ville - Métro Bonaventure
708682534;"{\"type\":\"LineString\",\"coordinates\":[[-73.5382399,45.4706632],[-73.53861,45.4706745]]}";26;"";2;50;false;true;true;false;false;false;29.0;0;0;0;0;0;false;75018;6133324640;-73.465159;45.454858;75465;6133322817;-73.558503;45.49744;0;1;2;9513131;Bus 323 : Direction Montréal;"";EXO;323 N;Stationnement incitatif Candiac;Terminus Centre-Ville - Métro Bonaventure
699476192;"{\"type\":\"LineString\",\"coordinates\":[[-73.53861,45.4706745],[-73.540245,45.4707481]]}";27;"";3;50;false;true;true;false;false;false;129.0;0;0;0;0;0;false;75018;6133324640;-73.465159;45.454858;75465;6133322817;-73.558503;45.49744;0;1;2;9513131;Bus 323 : Direction Montréal;"";EXO;323 N;Stationnement incitatif Candiac;Terminus Centre-Ville - Métro Bonaventure
4911723;"{\"type\":\"LineString\",\"coordinates\":[[-73.540245,45.4707481],[-73.5413818,45.4707819],[-73.541687,45.4708086],[-73.5421974,45.4708972],[-73.5425927,45.4709912],[-73.5428191,45.4710549],[-73.5430474,45.4711662],[-73.5432392,45.4713045],[-73.5433403,45.4714236],[-73.5434425,45.4715858],[-73.5434739,45.4717038],[-73.5434936,45.4718177],[-73.5434907,45.4719627],[-73.5434133,45.4721827],[-73.5433131,45.4723575],[-73.5431627,45.4725929]]}";28;"";2;50;false;true;false;false;false;false;401.0;0;0;0;0;0;false;75018;6133324640;-73.465159;45.454858;75465;6133322817;-73.558503;45.49744;0;1;2;9513131;Bus 323 : Direction Montréal;"";EXO;323 N;Stationnement incitatif Candiac;Terminus Centre-Ville - Métro Bonaventure
43068384;"{\"type\":\"LineString\",\"coordinates\":[[-73.5431627,45.4725929],[-73.5429229,45.4729338]]}";29;Autoroute Bonaventure;1;70;false;true;true;false;false;false;43.0;0;0;0;0;0;false;75018;6133324640;-73.465159;45.454858;75465;6133322817;-73.558503;45.49744;0;1;2;9513131;Bus 323 : Direction Montréal;"";EXO;323 N;Stationnement incitatif Candiac;Terminus Centre-Ville - Métro Bonaventure
43068383;"{\"type\":\"LineString\",\"coordinates\":[[-73.5429229,45.4729338],[-73.5422527,45.4738691],[-73.5419446,45.4743215]]}";30;Autoroute Bonaventure;2;70;false;true;true;false;false;false;173.0;0;0;0;0;0;false;75018;6133324640;-73.465159;45.454858;75465;6133322817;-73.558503;45.49744;0;1;2;9513131;Bus 323 : Direction Montréal;"";EXO;323 N;Stationnement incitatif Candiac;Terminus Centre-Ville - Métro Bonaventure
39180620;"{\"type\":\"LineString\",\"coordinates\":[[-73.5419446,45.4743215],[-73.5412854,45.4754033],[-73.5406968,45.4764762],[-73.5402899,45.4772874]]}";31;Pont Clément Bridge;2;70;false;true;false;false;false;false;354.0;0;0;0;0;0;false;75018;6133324640;-73.465159;45.454858;75465;6133322817;-73.558503;45.49744;0;1;2;9513131;Bus 323 : Direction Montréal;"";EXO;323 N;Stationnement incitatif Candiac;Terminus Centre-Ville - Métro Bonaventure
39180619;"{\"type\":\"LineString\",\"coordinates\":[[-73.5402899,45.4772874],[-73.5401596,45.4775746],[-73.5398431,45.4782661],[-73.5396085,45.4788043],[-73.5391517,45.4800847],[-73.538966,45.4805967],[-73.5387176,45.4811907]]}";32;Autoroute Bonaventure Expressway;1;70;false;true;false;false;false;false;451.0;0;0;0;0;0;false;75018;6133324640;-73.465159;45.454858;75465;6133322817;-73.558503;45.49744;0;1;2;9513131;Bus 323 : Direction Montréal;"";EXO;323 N;Stationnement incitatif Candiac;Terminus Centre-Ville - Métro Bonaventure
714073116;"{\"type\":\"LineString\",\"coordinates\":[[-73.5387176,45.4811907],[-73.5385292,45.4817377],[-73.538315,45.4823852],[-73.5379744,45.483343],[-73.5376418,45.4842992],[-73.5375961,45.4844398],[-73.5375533,45.4845924],[-73.5375181,45.4847637],[-73.5374955,45.4849505],[-73.5374873,45.4851355],[-73.5374945,45.4853045],[-73.5375079,45.4854602],[-73.5375393,45.4856318],[-73.5375752,45.4857888],[-73.5376211,45.4859471],[-73.5376808,45.4861113],[-73.5377538,45.4862759],[-73.5378288,45.4864202],[-73.5379137,45.486573],[-73.5380355,45.4867414],[-73.538156,45.4869012],[-73.5382864,45.4870512],[-73.538423,45.4871906],[-73.5385739,45.487331],[-73.5387469,45.4874765],[-73.5389268,45.4876091]]}";33;Autoroute Bonaventure Expressway;1;70;false;true;false;false;false;false;754.0;0;0;0;0;0;false;75018;6133324640;-73.465159;45.454858;75465;6133322817;-73.558503;45.49744;0;1;2;9513131;Bus 323 : Direction Montréal;"";EXO;323 N;Stationnement incitatif Candiac;Terminus Centre-Ville - Métro Bonaventure
714073115;"{\"type\":\"LineString\",\"coordinates\":[[-73.5389268,45.4876091],[-73.5390986,45.4877303],[-73.5392782,45.4878453],[-73.5394616,45.4879535],[-73.5396667,45.4880603],[-73.5398542,45.4881491],[-73.5400801,45.4882391],[-73.5402768,45.4883083],[-73.5404739,45.4883721],[-73.540669,45.4884272],[-73.5408867,45.4884816],[-73.5411043,45.4885267],[-73.5417485,45.4886541]]}";34;Autoroute Bonaventure Expressway;3;70;false;true;false;false;false;false;254.0;0;0;0;0;0;false;75018;6133324640;-73.465159;45.454858;75465;6133322817;-73.558503;45.49744;0;1;2;9513131;Bus 323 : Direction Montréal;"";EXO;323 N;Stationnement incitatif Candiac;Terminus Centre-Ville - Métro Bonaventure
385754251;"{\"type\":\"LineString\",\"coordinates\":[[-73.5417485,45.4886541],[-73.5419436,45.4886927]]}";35;Autoroute Bonaventure Expressway;3;70;false;true;false;false;false;false;16.0;0;0;0;0;0;false;75018;6133324640;-73.465159;45.454858;75465;6133322817;-73.558503;45.49744;0;1;2;9513131;Bus 323 : Direction Montréal;"";EXO;323 N;Stationnement incitatif Candiac;Terminus Centre-Ville - Métro Bonaventure
385754248;"{\"type\":\"LineString\",\"coordinates\":[[-73.5419436,45.4886927],[-73.5426767,45.4888376]]}";36;Autoroute Bonaventure Expressway;3;70;false;true;false;false;false;false;60.0;0;0;0;0;0;false;75018;6133324640;-73.465159;45.454858;75465;6133322817;-73.558503;45.49744;0;1;2;9513131;Bus 323 : Direction Montréal;"";EXO;323 N;Stationnement incitatif Candiac;Terminus Centre-Ville - Métro Bonaventure
353126989;"{\"type\":\"LineString\",\"coordinates\":[[-73.5426767,45.4888376],[-73.5462164,45.4895105]]}";37;Autoroute Bonaventure Expressway;3;70;false;true;false;false;false;false;287.0;0;0;0;0;0;false;75018;6133324640;-73.465159;45.454858;75465;6133322817;-73.558503;45.49744;0;1;2;9513131;Bus 323 : Direction Montréal;"";EXO;323 N;Stationnement incitatif Candiac;Terminus Centre-Ville - Métro Bonaventure
707195316;"{\"type\":\"LineString\",\"coordinates\":[[-73.5462164,45.4895105],[-73.5489756,45.4900306],[-73.5492538,45.4900843],[-73.5495285,45.4901432],[-73.5497816,45.4902043],[-73.5500349,45.4902694],[-73.5502567,45.4903348],[-73.5504441,45.490394],[-73.5506449,45.4904701],[-73.5508953,45.4905713],[-73.5511366,45.4906783],[-73.5513586,45.490785],[-73.5515595,45.490892],[-73.5517478,45.4909978],[-73.5519127,45.4911001],[-73.5520672,45.4912015],[-73.5522091,45.4912998],[-73.5523539,45.4914092],[-73.5525276,45.4915518],[-73.5526944,45.4917018],[-73.552832,45.4918401],[-73.5529608,45.4919816],[-73.5530889,45.4921305],[-73.5532079,45.4922828],[-73.5533215,45.4924456],[-73.5534193,45.4925961],[-73.5535088,45.4927419],[-73.5535989,45.4929094],[-73.5536783,45.4930774],[-73.5537808,45.4933075]]}";38;Autoroute Bonaventure Expressway;3;70;false;true;false;false;false;false;774.0;0;0;0;0;0;false;75018;6133324640;-73.465159;45.454858;75465;6133322817;-73.558503;45.49744;0;1;2;9513131;Bus 323 : Direction Montréal;"";EXO;323 N;Stationnement incitatif Candiac;Terminus Centre-Ville - Métro Bonaventure
361495433;"{\"type\":\"LineString\",\"coordinates\":[[-73.5537808,45.4933075],[-73.5539118,45.4936659],[-73.5540357,45.4940085],[-73.5544098,45.4949608],[-73.554558,45.4953022],[-73.5546448,45.4954662],[-73.5547355,45.4956087],[-73.5549538,45.4958246],[-73.5552225,45.4960209]]}";39;Autoroute Bonaventure;3;70;false;true;false;false;false;false;327.0;0;0;0;0;0;false;75018;6133324640;-73.465159;45.454858;75465;6133322817;-73.558503;45.49744;0;1;2;9513131;Bus 323 : Direction Montréal;"";EXO;323 N;Stationnement incitatif Candiac;Terminus Centre-Ville - Métro Bonaventure
731030660;"{\"type\":\"LineString\",\"coordinates\":[[-73.5552225,45.4960209],[-73.5555054,45.4961565],[-73.5556671,45.4962174]]}";40;Autoroute Bonaventure;3;70;false;true;false;false;false;false;42.0;1;0;0;0;0;false;75018;6133324640;-73.465159;45.454858;75465;6133322817;-73.558503;45.49744;0;1;2;9513131;Bus 323 : Direction Montréal;"";EXO;323 N;Stationnement incitatif Candiac;Terminus Centre-Ville - Métro Bonaventure
354710813;"{\"type\":\"LineString\",\"coordinates\":[[-73.5556671,45.4962174],[-73.5572645,45.496815],[-73.5587554,45.4973796],[-73.5596678,45.4977972]]}";41;Boulevard Robert-Bourassa;4;50;false;true;true;false;false;false;359.0;4;0;0;0;0;false;75018;6133324640;-73.465159;45.454858;75465;6133322817;-73.558503;45.49744;2;1;2;9513131;Bus 323 : Direction Montréal;"";EXO;323 N;Stationnement incitatif Candiac;Terminus Centre-Ville - Métro Bonaventure
354710813;"{\"type\":\"LineString\",\"coordinates\":[[-73.5556671,45.4962174],[-73.5572645,45.496815],[-73.5587554,45.4973796],[-73.5596678,45.4977972]]}";1;Boulevard Robert-Bourassa;4;50;false;true;true;false;false;false;179.5;4;0;0;0;0;false;75465;6133322817;-73.558503;45.49744;75261;6133323061;-73.565898;45.498295;1;2;3;9513131;Bus 323 : Direction Montréal;"";EXO;323 N;Stationnement incitatif Candiac;Terminus Centre-Ville - Métro Bonaventure
428978766;"{\"type\":\"LineString\",\"coordinates\":[[-73.5596678,45.4977972],[-73.5605507,45.4982539],[-73.5609011,45.4984149],[-73.5611605,45.4985326],[-73.5612381,45.4985678]]}";2;Boulevard Robert-Bourassa;4;50;false;true;true;false;false;false;150.0;2;1;0;0;0;false;75465;6133322817;-73.558503;45.49744;75261;6133323061;-73.565898;45.498295;0;2;3;9513131;Bus 323 : Direction Montréal;"";EXO;323 N;Stationnement incitatif Candiac;Terminus Centre-Ville - Métro Bonaventure
385754231;"{\"type\":\"LineString\",\"coordinates\":[[-73.5612381,45.4985678],[-73.561372,45.4986173],[-73.5615648,45.4986882],[-73.562215,45.4989662],[-73.5625386,45.4991131]]}";3;Boulevard Robert-Bourassa;4;50;false;true;true;false;false;false;119.0;2;1;0;0;0;false;75465;6133322817;-73.558503;45.49744;75261;6133323061;-73.565898;45.498295;0;2;3;9513131;Bus 323 : Direction Montréal;"";EXO;323 N;Stationnement incitatif Candiac;Terminus Centre-Ville - Métro Bonaventure
456321033;"{\"type\":\"LineString\",\"coordinates\":[[-73.5626665,45.4990006],[-73.5625386,45.4991131]]}";4;Rue Saint-Jacques;1;50;false;false;true;false;false;false;16.0;2;0;0;0;0;false;75465;6133322817;-73.558503;45.49744;75261;6133323061;-73.565898;45.498295;0;2;3;9513131;Bus 323 : Direction Montréal;"";EXO;323 N;Stationnement incitatif Candiac;Terminus Centre-Ville - Métro Bonaventure
356391598;"{\"type\":\"LineString\",\"coordinates\":[[-73.5635809,45.49803],[-73.5633031,45.4983271],[-73.5630598,45.4985874],[-73.5626665,45.4990006]]}";5;Rue Saint-Jacques;1;50;false;false;true;false;false;false;130.0;1;0;0;0;0;false;75465;6133322817;-73.558503;45.49744;75261;6133323061;-73.565898;45.498295;0;2;3;9513131;Bus 323 : Direction Montréal;"";EXO;323 N;Stationnement incitatif Candiac;Terminus Centre-Ville - Métro Bonaventure
464718640;"{\"type\":\"LineString\",\"coordinates\":[[-73.5639561,45.4976287],[-73.5635809,45.49803]]}";6;Rue Saint-Jacques;1;50;false;false;true;false;false;false;54.0;1;0;0;0;0;false;75465;6133322817;-73.558503;45.49744;75261;6133323061;-73.565898;45.498295;0;2;3;9513131;Bus 323 : Direction Montréal;"";EXO;323 N;Stationnement incitatif Candiac;Terminus Centre-Ville - Métro Bonaventure
674290279;"{\"type\":\"LineString\",\"coordinates\":[[-73.5639561,45.4976287],[-73.5651977,45.4982305]]}";7;Rue Mansfield;1;50;false;true;true;false;false;false;118.0;2;0;0;0;0;false;75465;6133322817;-73.558503;45.49744;75261;6133323061;-73.565898;45.498295;0;2;3;9513131;Bus 323 : Direction Montréal;"";EXO;323 N;Stationnement incitatif Candiac;Terminus Centre-Ville - Métro Bonaventure
685460902;"{\"type\":\"LineString\",\"coordinates\":[[-73.5651977,45.4982305],[-73.565441,45.4983539]]}";8;Rue Mansfield;1;50;false;true;true;false;false;false;24.0;1;0;0;0;0;false;75465;6133322817;-73.558503;45.49744;75261;6133323061;-73.565898;45.498295;0;2;3;9513131;Bus 323 : Direction Montréal;"";EXO;323 N;Stationnement incitatif Candiac;Terminus Centre-Ville - Métro Bonaventure
114875718;"{\"type\":\"LineString\",\"coordinates\":[[-73.565441,45.4983539],[-73.5655343,45.4983086]]}";9;"";1;50;false;true;true;false;true;false;9.0;0;0;0;0;0;false;75465;6133322817;-73.558503;45.49744;75261;6133323061;-73.565898;45.498295;0;2;3;9513131;Bus 323 : Direction Montréal;"";EXO;323 N;Stationnement incitatif Candiac;Terminus Centre-Ville - Métro Bonaventure
685460901;"{\"type\":\"LineString\",\"coordinates\":[[-73.5655343,45.4983086],[-73.5656361,45.4982765],[-73.5657572,45.4981627]]}";10;"";1;50;false;true;true;false;true;false;25.0;0;0;0;0;0;false;75465;6133322817;-73.558503;45.49744;75261;6133323061;-73.565898;45.498295;0;2;3;9513131;Bus 323 : Direction Montréal;"";EXO;323 N;Stationnement incitatif Candiac;Terminus Centre-Ville - Métro Bonaventure
685460900;"{\"type\":\"LineString\",\"coordinates\":[[-73.5659569,45.4982563],[-73.5658841,45.4982903],[-73.5657572,45.4981627]]}";11;"";1;50;false;true;true;false;true;false;25.0;0;0;0;0;0;false;75465;6133322817;-73.558503;45.49744;75261;6133323061;-73.565898;45.498295;1;2;3;9513131;Bus 323 : Direction Montréal;"";EXO;323 N;Stationnement incitatif Candiac;Terminus Centre-Ville - Métro Bonaventure
