way_id;shape;index;name;nb_lanes;legal_speed;speed_zone_30;oneway;shares_bike;bike_box;bus_lane;dedicated_bus_lane;length;nb_traffic_signals;nb_crossings;nb_stops;nb_give_ways;nb_lvl_crossings;roundabout;stop_id_orig;node_id_orig;coord_x_orig;coord_y_orig;stop_id_dest;node_id_dest;coord_x_dest;coord_y_dest;nb_neighbouring_ways_bus_stop;ordre_orig;ordre_dest;id_line;line_name;colour;operator;ref;from;to
798994211;"{\"type\":\"LineString\",\"coordinates\":[[-73.5474325,45.3845584],[-73.5475239,45.3845788],[-73.5475804,45.3845909],[-73.5476084,45.3845958],[-73.5476404,45.3845958],[-73.5476745,45.3845888],[-73.5477025,45.3845733],[-73.5477205,45.3845536],[-73.5478647,45.3842618],[-73.5478777,45.3842309],[-73.5478807,45.384214],[-73.5478777,45.3841957],[-73.5478607,45.3841732],[-73.5478316,45.3841557],[-73.5477946,45.3841409],[-73.5477804,45.3841368],[-73.5477512,45.3841289],[-73.5477025,45.384117],[-73.5476571,45.3841066]]}";1;"";1;50;false;true;true;false;false;false;88.0;0;2;1;0;0;false;76080;6133354127;-73.5478906;45.3844531;76189;6133353946;-73.558833;45.385008;1;0;1;9495767;Bus 34 : Saint-Constant;"";EXO;34;Stationnement Incitatif Georges-Gagné;Stationnement Incitatif Georges-Gagné
798994213;"{\"type\":\"LineString\",\"coordinates\":[[-73.5476571,45.3841066],[-73.5474325,45.3845584]]}";2;Boulevard Georges-Gagné Sud;4;50;false;false;true;false;false;false;54.0;0;0;0;0;0;false;76080;6133354127;-73.5478906;45.3844531;76189;6133353946;-73.558833;45.385008;0;0;1;9495767;Bus 34 : Saint-Constant;"";EXO;34;Stationnement Incitatif Georges-Gagné;Stationnement Incitatif Georges-Gagné
798994210;"{\"type\":\"LineString\",\"coordinates\":[[-73.5474325,45.3845584],[-73.5474046,45.3846145]]}";3;Boulevard Georges-Gagné Sud;4;50;false;false;true;false;false;false;7.0;0;0;0;0;0;false;76080;6133354127;-73.5478906;45.3844531;76189;6133353946;-73.558833;45.385008;0;0;1;9495767;Bus 34 : Saint-Constant;"";EXO;34;Stationnement Incitatif Georges-Gagné;Stationnement Incitatif Georges-Gagné
801354426;"{\"type\":\"LineString\",\"coordinates\":[[-73.5474046,45.3846145],[-73.5473662,45.3846918],[-73.5472818,45.3848615]]}";4;Boulevard Georges-Gagné Sud;4;50;false;false;true;false;false;false;30.0;0;0;0;0;0;false;76080;6133354127;-73.5478906;45.3844531;76189;6133353946;-73.558833;45.385008;0;0;1;9495767;Bus 34 : Saint-Constant;"";EXO;34;Stationnement Incitatif Georges-Gagné;Stationnement Incitatif Georges-Gagné
349640916;"{\"type\":\"LineString\",\"coordinates\":[[-73.5487077,45.3857344],[-73.5478879,45.3854761],[-73.5476794,45.3854223],[-73.5475711,45.3853911],[-73.5474867,45.3853605],[-73.5474113,45.3853229],[-73.5473658,45.3852946],[-73.5473284,45.3852675],[-73.5472971,45.3852405],[-73.5472771,45.3852214],[-73.5472642,45.3851941],[-73.5472591,45.3851635],[-73.5472583,45.3851395],[-73.5472818,45.3848615]]}";5;"";1;50;false;true;true;false;false;false;168.0;0;1;0;0;0;false;76080;6133354127;-73.5478906;45.3844531;76189;6133353946;-73.558833;45.385008;0;0;1;9495767;Bus 34 : Saint-Constant;"";EXO;34;Stationnement Incitatif Georges-Gagné;Stationnement Incitatif Georges-Gagné
474749542;"{\"type\":\"LineString\",\"coordinates\":[[-73.5519021,45.3864207],[-73.5518327,45.3864091],[-73.5517439,45.386394],[-73.5515609,45.3863633],[-73.5508086,45.386233],[-73.5505762,45.386188],[-73.5503506,45.3861388],[-73.5500854,45.3860778],[-73.5493973,45.3859107],[-73.5487077,45.3857344]]}";6;Route 132;2;70;false;true;true;false;false;false;262.0;0;1;0;0;0;false;76080;6133354127;-73.5478906;45.3844531;76189;6133353946;-73.558833;45.385008;0;0;1;9495767;Bus 34 : Saint-Constant;"";EXO;34;Stationnement Incitatif Georges-Gagné;Stationnement Incitatif Georges-Gagné
798950923;"{\"type\":\"LineString\",\"coordinates\":[[-73.5525616,45.3864994],[-73.5521023,45.386444],[-73.5519021,45.3864207]]}";7;Route 132;3;70;false;true;true;false;false;false;53.0;1;0;0;0;0;false;76080;6133354127;-73.5478906;45.3844531;76189;6133353946;-73.558833;45.385008;0;0;1;9495767;Bus 34 : Saint-Constant;"";EXO;34;Stationnement Incitatif Georges-Gagné;Stationnement Incitatif Georges-Gagné
801354425;"{\"type\":\"LineString\",\"coordinates\":[[-73.5530226,45.3865422],[-73.5525616,45.3864994]]}";8;Route 132;2;70;false;true;true;false;false;false;37.0;0;0;0;0;0;false;76080;6133354127;-73.5478906;45.3844531;76189;6133353946;-73.558833;45.385008;0;0;1;9495767;Bus 34 : Saint-Constant;"";EXO;34;Stationnement Incitatif Georges-Gagné;Stationnement Incitatif Georges-Gagné
474749543;"{\"type\":\"LineString\",\"coordinates\":[[-73.5533491,45.3866188],[-73.5530226,45.3865422]]}";9;Route 132;2;70;false;true;true;false;false;false;27.0;0;0;0;0;0;false;76080;6133354127;-73.5478906;45.3844531;76189;6133353946;-73.558833;45.385008;0;0;1;9495767;Bus 34 : Saint-Constant;"";EXO;34;Stationnement Incitatif Georges-Gagné;Stationnement Incitatif Georges-Gagné
474749537;"{\"type\":\"LineString\",\"coordinates\":[[-73.5518866,45.3865304],[-73.5522039,45.3865702],[-73.5524239,45.3865932],[-73.5526184,45.3866101],[-73.5533491,45.3866188]]}";10;Route 132;2;70;false;true;true;false;false;false;116.0;0;0;0;0;0;false;76080;6133354127;-73.5478906;45.3844531;76189;6133353946;-73.558833;45.385008;0;0;1;9495767;Bus 34 : Saint-Constant;"";EXO;34;Stationnement Incitatif Georges-Gagné;Stationnement Incitatif Georges-Gagné
760831495;"{\"type\":\"LineString\",\"coordinates\":[[-73.5538837,45.3866621],[-73.5533491,45.3866188]]}";11;Route 132;5;70;false;false;true;false;false;false;43.0;0;0;0;0;0;false;76080;6133354127;-73.5478906;45.3844531;76189;6133353946;-73.558833;45.385008;0;0;1;9495767;Bus 34 : Saint-Constant;"";EXO;34;Stationnement Incitatif Georges-Gagné;Stationnement Incitatif Georges-Gagné
760831496;"{\"type\":\"LineString\",\"coordinates\":[[-73.5540569,45.3866756],[-73.5538837,45.3866621]]}";12;Route 132;5;70;false;false;true;false;false;false;14.0;0;0;0;0;0;false;76080;6133354127;-73.5478906;45.3844531;76189;6133353946;-73.558833;45.385008;0;0;1;9495767;Bus 34 : Saint-Constant;"";EXO;34;Stationnement Incitatif Georges-Gagné;Stationnement Incitatif Georges-Gagné
798957406;"{\"type\":\"LineString\",\"coordinates\":[[-73.5557361,45.3868119],[-73.5556658,45.3868062],[-73.5553093,45.386776],[-73.5549002,45.3867431],[-73.5544429,45.3867064],[-73.5542414,45.3866903],[-73.5540569,45.3866756]]}";13;Route 132;5;70;false;false;true;false;false;false;133.0;0;0;0;0;0;false;76080;6133354127;-73.5478906;45.3844531;76189;6133353946;-73.558833;45.385008;0;0;1;9495767;Bus 34 : Saint-Constant;"";EXO;34;Stationnement Incitatif Georges-Gagné;Stationnement Incitatif Georges-Gagné
801354424;"{\"type\":\"LineString\",\"coordinates\":[[-73.5561538,45.3868432],[-73.5557361,45.3868119]]}";14;Route 132;4;70;false;false;true;false;false;false;33.0;0;0;0;0;0;false;76080;6133354127;-73.5478906;45.3844531;76189;6133353946;-73.558833;45.385008;0;0;1;9495767;Bus 34 : Saint-Constant;"";EXO;34;Stationnement Incitatif Georges-Gagné;Stationnement Incitatif Georges-Gagné
349638352;"{\"type\":\"LineString\",\"coordinates\":[[-73.5563281,45.3868549],[-73.5561538,45.3868432]]}";15;Route 132;4;70;false;false;true;false;false;false;14.0;0;0;0;0;0;false;76080;6133354127;-73.5478906;45.3844531;76189;6133353946;-73.558833;45.385008;0;0;1;9495767;Bus 34 : Saint-Constant;"";EXO;34;Stationnement Incitatif Georges-Gagné;Stationnement Incitatif Georges-Gagné
801354423;"{\"type\":\"LineString\",\"coordinates\":[[-73.5565316,45.3868228],[-73.5563281,45.3868549]]}";16;Route 132;2;70;false;true;true;false;false;false;17.0;0;0;0;0;0;false;76080;6133354127;-73.5478906;45.3844531;76189;6133353946;-73.558833;45.385008;0;0;1;9495767;Bus 34 : Saint-Constant;"";EXO;34;Stationnement Incitatif Georges-Gagné;Stationnement Incitatif Georges-Gagné
545442535;"{\"type\":\"LineString\",\"coordinates\":[[-73.5578056,45.3869268],[-73.5575927,45.3868965],[-73.5573565,45.3868754],[-73.5565968,45.3868124],[-73.5565316,45.3868228]]}";17;Route 132;2;70;false;true;true;false;false;false;101.0;0;0;0;0;0;false;76080;6133354127;-73.5478906;45.3844531;76189;6133353946;-73.558833;45.385008;0;0;1;9495767;Bus 34 : Saint-Constant;"";EXO;34;Stationnement Incitatif Georges-Gagné;Stationnement Incitatif Georges-Gagné
761308033;"{\"type\":\"LineString\",\"coordinates\":[[-73.5577454,45.3870329],[-73.5578056,45.3869268]]}";18;Rue Saint-Pierre;4;50;false;false;true;false;false;false;13.0;0;0;0;0;0;false;76080;6133354127;-73.5478906;45.3844531;76189;6133353946;-73.558833;45.385008;0;0;1;9495767;Bus 34 : Saint-Constant;"";EXO;34;Stationnement Incitatif Georges-Gagné;Stationnement Incitatif Georges-Gagné
684451738;"{\"type\":\"LineString\",\"coordinates\":[[-73.5578056,45.3869268],[-73.5578833,45.3867896],[-73.558049,45.3864557]]}";19;Rue Saint-Pierre;4;50;false;false;true;false;false;false;56.0;1;0;0;0;0;false;76080;6133354127;-73.5478906;45.3844531;76189;6133353946;-73.558833;45.385008;0;0;1;9495767;Bus 34 : Saint-Constant;"";EXO;34;Stationnement Incitatif Georges-Gagné;Stationnement Incitatif Georges-Gagné
801354413;"{\"type\":\"LineString\",\"coordinates\":[[-73.558049,45.3864557],[-73.5580601,45.3864319]]}";20;Rue Saint-Pierre;4;50;false;false;true;false;false;false;3.0;0;0;0;0;0;false;76080;6133354127;-73.5478906;45.3844531;76189;6133353946;-73.558833;45.385008;0;0;1;9495767;Bus 34 : Saint-Constant;"";EXO;34;Stationnement Incitatif Georges-Gagné;Stationnement Incitatif Georges-Gagné
801354415;"{\"type\":\"LineString\",\"coordinates\":[[-73.5580601,45.3864319],[-73.558165,45.386215]]}";21;Rue Saint-Pierre;4;50;false;false;true;false;false;false;26.0;0;0;0;0;0;false;76080;6133354127;-73.5478906;45.3844531;76189;6133353946;-73.558833;45.385008;0;0;1;9495767;Bus 34 : Saint-Constant;"";EXO;34;Stationnement Incitatif Georges-Gagné;Stationnement Incitatif Georges-Gagné
787512482;"{\"type\":\"LineString\",\"coordinates\":[[-73.558165,45.386215],[-73.5581941,45.386156],[-73.5582283,45.3860868],[-73.5583373,45.385866],[-73.5583682,45.3858035],[-73.5584107,45.3857173],[-73.5584315,45.3856752],[-73.5584733,45.3855933],[-73.5584892,45.3855615],[-73.5585912,45.3853577],[-73.5586848,45.3851707],[-73.5587338,45.3850728],[-73.558821,45.3848985],[-73.5588603,45.384817],[-73.5588889,45.3847596],[-73.5589237,45.3846898],[-73.5590603,45.3844157],[-73.5590989,45.3843382],[-73.5592295,45.3840724],[-73.559253,45.3840246],[-73.5594448,45.3836342],[-73.5594501,45.3836235],[-73.5595527,45.3834162],[-73.5595828,45.3833555],[-73.5596674,45.3831836],[-73.5596787,45.3831614],[-73.5596973,45.3831249],[-73.5597449,45.3830312],[-73.5598027,45.3829173],[-73.5598749,45.3827752],[-73.5599461,45.3826349],[-73.5599836,45.3825611],[-73.5600098,45.38251],[-73.5600409,45.3824492],[-73.5601047,45.3823316],[-73.5601207,45.3823038],[-73.5601551,45.3822437],[-73.560188,45.3821892],[-73.5602217,45.3821333],[-73.5602822,45.3820408],[-73.5602872,45.3820331],[-73.560295,45.3820212],[-73.560353,45.381938],[-73.5603809,45.3819004],[-73.5604169,45.3818519],[-73.5604782,45.3817777],[-73.5605447,45.3817006],[-73.5605988,45.3816389],[-73.560628,45.381607],[-73.5606524,45.3815804],[-73.560706,45.3815233],[-73.5607581,45.3814714],[-73.5607854,45.3814441],[-73.5608268,45.381405],[-73.5608756,45.3813572],[-73.560938,45.3812998],[-73.5609532,45.3812865],[-73.5610299,45.3812194],[-73.5611207,45.3811452],[-73.5611659,45.3811111],[-73.5612662,45.3810352],[-73.5613706,45.380962],[-73.5613837,45.3809528],[-73.5614041,45.3809385],[-73.5615113,45.3808639],[-73.5615843,45.3808163],[-73.5616304,45.3807862],[-73.5617196,45.3807323],[-73.5618147,45.380678],[-73.5618904,45.3806363],[-73.5619181,45.3806211],[-73.5620222,45.3805683],[-73.5620337,45.3805626],[-73.5621061,45.3805271],[-73.5622673,45.3804508],[-73.562299,45.3804367],[-73.5629256,45.3801573],[-73.5629645,45.38014],[-73.5629884,45.3801295],[-73.563146,45.3800604],[-73.5632203,45.3800274],[-73.5632726,45.3800041],[-73.5634044,45.3799392],[-73.5635472,45.3798617],[-73.5636744,45.379786],[-73.5637736,45.3797188],[-73.563827,45.3796826],[-73.5639313,45.3795987],[-73.5640301,45.3795036],[-73.564109,45.3794259],[-73.5641381,45.3793957],[-73.5641821,45.3793399]]}";22;Rue Saint-Pierre;4;50;false;false;true;false;false;false;464.0;1;7;0;0;0;false;76080;6133354127;-73.5478906;45.3844531;76189;6133353946;-73.558833;45.385008;1;0;1;9495767;Bus 34 : Saint-Constant;"";EXO;34;Stationnement Incitatif Georges-Gagné;Stationnement Incitatif Georges-Gagné
787512482;"{\"type\":\"LineString\",\"coordinates\":[[-73.558165,45.386215],[-73.5581941,45.386156],[-73.5582283,45.3860868],[-73.5583373,45.385866],[-73.5583682,45.3858035],[-73.5584107,45.3857173],[-73.5584315,45.3856752],[-73.5584733,45.3855933],[-73.5584892,45.3855615],[-73.5585912,45.3853577],[-73.5586848,45.3851707],[-73.5587338,45.3850728],[-73.558821,45.3848985],[-73.5588603,45.384817],[-73.5588889,45.3847596],[-73.5589237,45.3846898],[-73.5590603,45.3844157],[-73.5590989,45.3843382],[-73.5592295,45.3840724],[-73.559253,45.3840246],[-73.5594448,45.3836342],[-73.5594501,45.3836235],[-73.5595527,45.3834162],[-73.5595828,45.3833555],[-73.5596674,45.3831836],[-73.5596787,45.3831614],[-73.5596973,45.3831249],[-73.5597449,45.3830312],[-73.5598027,45.3829173],[-73.5598749,45.3827752],[-73.5599461,45.3826349],[-73.5599836,45.3825611],[-73.5600098,45.38251],[-73.5600409,45.3824492],[-73.5601047,45.3823316],[-73.5601207,45.3823038],[-73.5601551,45.3822437],[-73.560188,45.3821892],[-73.5602217,45.3821333],[-73.5602822,45.3820408],[-73.5602872,45.3820331],[-73.560295,45.3820212],[-73.560353,45.381938],[-73.5603809,45.3819004],[-73.5604169,45.3818519],[-73.5604782,45.3817777],[-73.5605447,45.3817006],[-73.5605988,45.3816389],[-73.560628,45.381607],[-73.5606524,45.3815804],[-73.560706,45.3815233],[-73.5607581,45.3814714],[-73.5607854,45.3814441],[-73.5608268,45.381405],[-73.5608756,45.3813572],[-73.560938,45.3812998],[-73.5609532,45.3812865],[-73.5610299,45.3812194],[-73.5611207,45.3811452],[-73.5611659,45.3811111],[-73.5612662,45.3810352],[-73.5613706,45.380962],[-73.5613837,45.3809528],[-73.5614041,45.3809385],[-73.5615113,45.3808639],[-73.5615843,45.3808163],[-73.5616304,45.3807862],[-73.5617196,45.3807323],[-73.5618147,45.380678],[-73.5618904,45.3806363],[-73.5619181,45.3806211],[-73.5620222,45.3805683],[-73.5620337,45.3805626],[-73.5621061,45.3805271],[-73.5622673,45.3804508],[-73.562299,45.3804367],[-73.5629256,45.3801573],[-73.5629645,45.38014],[-73.5629884,45.3801295],[-73.563146,45.3800604],[-73.5632203,45.3800274],[-73.5632726,45.3800041],[-73.5634044,45.3799392],[-73.5635472,45.3798617],[-73.5636744,45.379786],[-73.5637736,45.3797188],[-73.563827,45.3796826],[-73.5639313,45.3795987],[-73.5640301,45.3795036],[-73.564109,45.3794259],[-73.5641381,45.3793957],[-73.5641821,45.3793399]]}";1;Rue Saint-Pierre;4;50;false;false;true;false;false;false;464.0;1;7;0;0;0;false;76193;6133353942;-73.563231;45.380091;76009;6133354177;-73.564699;45.378378;1;3;4;9495767;Bus 34 : Saint-Constant;"";EXO;34;Stationnement Incitatif Georges-Gagné;Stationnement Incitatif Georges-Gagné
684606318;"{\"type\":\"LineString\",\"coordinates\":[[-73.5641821,45.3793399],[-73.5642352,45.3792625],[-73.5642461,45.379246],[-73.5642563,45.3792305],[-73.5642811,45.3791881],[-73.5643047,45.3791454],[-73.5643314,45.3790906],[-73.5643539,45.3790389],[-73.5643666,45.3790099],[-73.5644095,45.3789061],[-73.5644171,45.3788865],[-73.5644566,45.3787856],[-73.5644641,45.3787663],[-73.5644774,45.3787324],[-73.5644859,45.3787107],[-73.5645381,45.3785705],[-73.5645661,45.3784955],[-73.5645748,45.3784722],[-73.5646483,45.3782698],[-73.5646648,45.3782221],[-73.5646962,45.3781314],[-73.5647224,45.3780609],[-73.5647287,45.3780445],[-73.5647454,45.3780009],[-73.5647833,45.3779103],[-73.5647976,45.3778766],[-73.564816,45.3778329],[-73.5648385,45.3777842],[-73.564853,45.377753],[-73.56489,45.3776812],[-73.5649316,45.3776094],[-73.5649404,45.3775953],[-73.5649795,45.3775329],[-73.5650345,45.3774502],[-73.5650979,45.3773642],[-73.5651463,45.3773031],[-73.5652191,45.3772156],[-73.5652578,45.3771708],[-73.565314,45.3771058],[-73.5653853,45.3770328],[-73.5654141,45.3770032],[-73.5655156,45.3769099],[-73.5655302,45.376897],[-73.5656667,45.3767768],[-73.56581,45.3766506],[-73.5659488,45.3765285],[-73.5660947,45.3764],[-73.5662155,45.3762955],[-73.5662542,45.376262],[-73.5663505,45.3761754],[-73.5664571,45.3760787],[-73.5666102,45.3759407],[-73.5666901,45.3758642],[-73.5667183,45.3758372],[-73.5668271,45.3757283],[-73.5668901,45.3756664],[-73.5669096,45.3756473],[-73.5669885,45.3755673],[-73.5670306,45.3755227],[-73.5670731,45.3754775]]}";2;Rue Saint-Pierre;4;50;false;false;true;false;false;false;246.5;2;2;0;0;0;false;76193;6133353942;-73.563231;45.380091;76009;6133354177;-73.564699;45.378378;1;3;4;9495767;Bus 34 : Saint-Constant;"";EXO;34;Stationnement Incitatif Georges-Gagné;Stationnement Incitatif Georges-Gagné
684451737;"{\"type\":\"LineString\",\"coordinates\":[[-73.5670731,45.3754775],[-73.567122,45.3754247],[-73.5671617,45.3753809],[-73.567664,45.37484],[-73.5677507,45.3747467],[-73.5678488,45.374639],[-73.5681623,45.3742947],[-73.5683992,45.3740233],[-73.5687897,45.3735774],[-73.5688179,45.373546],[-73.5688397,45.3735212]]}";1;Rue Saint-Pierre;4;50;false;false;true;false;false;false;258.0;1;2;0;0;0;false;76010;6133354176;-73.567118;45.375596;76011;6133354175;-73.570429;45.371894;2;5;6;9495767;Bus 34 : Saint-Constant;"";EXO;34;Stationnement Incitatif Georges-Gagné;Stationnement Incitatif Georges-Gagné
788158837;"{\"type\":\"LineString\",\"coordinates\":[[-73.5688397,45.3735212],[-73.5689233,45.373429],[-73.5689985,45.3733448],[-73.5690144,45.3733271],[-73.5690756,45.3732586],[-73.5691134,45.3732163],[-73.5692626,45.3730493],[-73.569331,45.3729761],[-73.5694139,45.3728874],[-73.5694769,45.3728189],[-73.5695651,45.372723],[-73.5697092,45.3725663],[-73.5698028,45.3724647],[-73.5698999,45.372361],[-73.5699517,45.3723059],[-73.5701996,45.3720429],[-73.5704217,45.3718023],[-73.5704773,45.3717411]]}";2;Rue Saint-Pierre;4;50;false;false;true;false;false;false;236.0;0;2;0;0;0;false;76010;6133354176;-73.567118;45.375596;76011;6133354175;-73.570429;45.371894;2;5;6;9495767;Bus 34 : Saint-Constant;"";EXO;34;Stationnement Incitatif Georges-Gagné;Stationnement Incitatif Georges-Gagné
684466621;"{\"type\":\"LineString\",\"coordinates\":[[-73.5704773,45.3717411],[-73.5705271,45.3716837],[-73.5706042,45.3715896],[-73.5706926,45.3714748],[-73.5707676,45.3713708],[-73.5708289,45.3712809],[-73.5708369,45.3712692],[-73.57089,45.3711794],[-73.5709287,45.371114],[-73.5709672,45.3710426],[-73.5709747,45.3710286],[-73.5710142,45.3709498],[-73.5710855,45.3708005],[-73.571123,45.3707124],[-73.5711569,45.3706193],[-73.5711753,45.3705603],[-73.5711825,45.3705375],[-73.5711849,45.3705297],[-73.571202,45.3704601],[-73.5712088,45.3704322],[-73.571213,45.3704148],[-73.5712278,45.3703383]]}";1;Rue Saint-Pierre;4;50;false;false;true;false;false;false;168.0;0;2;0;0;0;false;76011;6133354175;-73.570429;45.371894;76161;6133353968;-73.569976;45.365672;2;6;7;9495767;Bus 34 : Saint-Constant;"";EXO;34;Stationnement Incitatif Georges-Gagné;Stationnement Incitatif Georges-Gagné
760186622;"{\"type\":\"LineString\",\"coordinates\":[[-73.5712278,45.3703383],[-73.5712309,45.3702804],[-73.5712313,45.3702352],[-73.5712318,45.3701758],[-73.571222,45.3700177]]}";2;Rue Saint-Pierre;2;50;false;false;true;false;false;false;36.0;0;1;0;0;0;false;76011;6133354175;-73.570429;45.371894;76161;6133353968;-73.569976;45.365672;0;6;7;9495767;Bus 34 : Saint-Constant;"";EXO;34;Stationnement Incitatif Georges-Gagné;Stationnement Incitatif Georges-Gagné
788161410;"{\"type\":\"LineString\",\"coordinates\":[[-73.571222,45.3700177],[-73.5712173,45.3699486],[-73.5712147,45.3699098],[-73.5712119,45.3698898],[-73.5711804,45.3696617],[-73.5711782,45.3696489],[-73.5711461,45.3694639],[-73.5711177,45.3693318],[-73.5710756,45.3691906],[-73.5710564,45.3691263],[-73.5710375,45.3690709],[-73.571012,45.3689962],[-73.5709977,45.3689542],[-73.5709862,45.3689205],[-73.5709639,45.3688528],[-73.5709457,45.3687976],[-73.570914,45.3687006],[-73.5709109,45.3686916],[-73.5708831,45.3686139],[-73.5707624,45.3682765],[-73.5707531,45.3682504],[-73.5706796,45.3680443],[-73.5706712,45.3680209],[-73.5705739,45.3677492],[-73.5705478,45.3676763],[-73.5704902,45.3675155],[-73.5704818,45.3674921],[-73.5704374,45.367367],[-73.5704138,45.3673006],[-73.5703452,45.3671023],[-73.5703095,45.3669953],[-73.5701932,45.3666461],[-73.5701723,45.3665834],[-73.5701146,45.3664053],[-73.5700774,45.3662905],[-73.5700329,45.3661533],[-73.570029,45.3661401],[-73.569999,45.3660393],[-73.5699848,45.3659915],[-73.5699723,45.3659471],[-73.5699559,45.3658891],[-73.5699534,45.3658791],[-73.5699369,45.3658143],[-73.5699178,45.3657127],[-73.569912,45.3656677],[-73.5698984,45.3655609]]}";3;Rue Saint-Pierre;2;50;false;false;true;false;false;false;507.0;0;5;0;0;0;false;76011;6133354175;-73.570429;45.371894;76161;6133353968;-73.569976;45.365672;2;6;7;9495767;Bus 34 : Saint-Constant;"";EXO;34;Stationnement Incitatif Georges-Gagné;Stationnement Incitatif Georges-Gagné
782783643;"{\"type\":\"LineString\",\"coordinates\":[[-73.5702486,45.3656291],[-73.5700437,45.3655823],[-73.5699853,45.3655695],[-73.5699639,45.3655651],[-73.5699349,45.3655613],[-73.5698984,45.3655609]]}";1;Montée Saint-Régis;2;30;false;false;true;false;false;false;29.0;0;1;1;0;0;false;76161;6133353968;-73.569976;45.365672;76422;6133353604;-73.573086;45.366418;2;7;8;9495767;Bus 34 : Saint-Constant;"";EXO;34;Stationnement Incitatif Georges-Gagné;Stationnement Incitatif Georges-Gagné
782786219;"{\"type\":\"LineString\",\"coordinates\":[[-73.572599,45.3662206],[-73.5724292,45.3661793],[-73.5722953,45.3661469],[-73.5721954,45.3661218],[-73.5721044,45.3660992],[-73.5715913,45.3659717],[-73.5709118,45.3658045],[-73.5708268,45.3657842],[-73.5707655,45.3657667],[-73.5707034,45.3657469],[-73.5706437,45.3657265],[-73.5705887,45.3657105],[-73.570567,45.3657053],[-73.5703687,45.3656578],[-73.5702486,45.3656291]]}";2;Montée Saint-Régis;2;30;false;false;true;false;false;false;196.0;0;3;1;0;0;false;76161;6133353968;-73.569976;45.365672;76422;6133353604;-73.573086;45.366418;0;7;8;9495767;Bus 34 : Saint-Constant;"";EXO;34;Stationnement Incitatif Georges-Gagné;Stationnement Incitatif Georges-Gagné
172295454;"{\"type\":\"LineString\",\"coordinates\":[[-73.5753964,45.3669117],[-73.5753039,45.3668893],[-73.5747477,45.3667444],[-73.5745587,45.3666967],[-73.5744559,45.3666707],[-73.5743352,45.3666416],[-73.5741886,45.3666062],[-73.5736527,45.3664787],[-73.5735458,45.3664533],[-73.5733337,45.366405],[-73.5732464,45.3663848],[-73.5731624,45.3663644],[-73.5727145,45.3662501],[-73.5726994,45.3662462],[-73.572599,45.3662206]]}";3;Montée Saint-Régis;2;50;false;false;true;false;false;false;233.0;0;7;1;0;0;false;76161;6133353968;-73.569976;45.365672;76422;6133353604;-73.573086;45.366418;2;7;8;9495767;Bus 34 : Saint-Constant;"";EXO;34;Stationnement Incitatif Georges-Gagné;Stationnement Incitatif Georges-Gagné
684606317;"{\"type\":\"LineString\",\"coordinates\":[[-73.5776045,45.3674892],[-73.577391,45.3674341],[-73.5772922,45.36741]]}";1;Montée Saint-Régis;2;30;false;false;true;false;false;false;26.0;0;0;1;0;0;false;76017;6133354169;-73.577153;45.367476;76397;6133353624;-73.580578;45.368439;2;10;11;9495767;Bus 34 : Saint-Constant;"";EXO;34;Stationnement Incitatif Georges-Gagné;Stationnement Incitatif Georges-Gagné
782786221;"{\"type\":\"LineString\",\"coordinates\":[[-73.5807882,45.3684167],[-73.5807236,45.3683799],[-73.5806489,45.368339],[-73.5805512,45.368291],[-73.5804807,45.3682592],[-73.5803769,45.3682153],[-73.5802764,45.3681755],[-73.5801581,45.3681334],[-73.5800601,45.3681034],[-73.5798368,45.3680363],[-73.5786877,45.3677577],[-73.5786652,45.3677521],[-73.5786095,45.3677383],[-73.5784981,45.3677107],[-73.5782276,45.3676436],[-73.5779947,45.3675859],[-73.5779505,45.3675749],[-73.5779143,45.3675656],[-73.5778378,45.367547],[-73.5777051,45.3675141],[-73.5776045,45.3674892]]}";2;Montée Saint-Régis;2;30;false;false;true;false;false;false;272.0;0;2;0;0;0;false;76017;6133354169;-73.577153;45.367476;76397;6133353624;-73.580578;45.368439;2;10;11;9495767;Bus 34 : Saint-Constant;"";EXO;34;Stationnement Incitatif Georges-Gagné;Stationnement Incitatif Georges-Gagné
782716853;"{\"type\":\"LineString\",\"coordinates\":[[-73.583367,45.3695943],[-73.5828563,45.3694711],[-73.5827123,45.3694349],[-73.5825583,45.3693942],[-73.5824408,45.3693621],[-73.5823529,45.3693359],[-73.5822731,45.3693125],[-73.582157,45.3692742],[-73.5820658,45.36924],[-73.5819744,45.3692],[-73.5818896,45.3691603],[-73.5817848,45.3691046],[-73.5816914,45.3690514],[-73.5816016,45.3689948],[-73.5815073,45.3689295],[-73.581404,45.3688544],[-73.5812575,45.3687465],[-73.5810221,45.3685725],[-73.5809495,45.3685215],[-73.5808904,45.3684814],[-73.5808253,45.3684398],[-73.5807882,45.3684167]]}";1;Montée Saint-Régis;2;50;false;false;true;false;false;false;246.0;0;0;0;0;0;false;76397;6133353624;-73.580578;45.368439;76398;6133353623;-73.58508;45.370074;2;11;12;9495767;Bus 34 : Saint-Constant;"";EXO;34;Stationnement Incitatif Georges-Gagné;Stationnement Incitatif Georges-Gagné
782716870;"{\"type\":\"LineString\",\"coordinates\":[[-73.5845456,45.3698708],[-73.5840861,45.3697628],[-73.583367,45.3695943]]}";2;Montée Saint-Régis;2;50;false;false;true;false;false;false;98.0;0;0;0;0;0;false;76397;6133353624;-73.580578;45.368439;76398;6133353623;-73.58508;45.370074;0;11;12;9495767;Bus 34 : Saint-Constant;"";EXO;34;Stationnement Incitatif Georges-Gagné;Stationnement Incitatif Georges-Gagné
48332243;"{\"type\":\"LineString\",\"coordinates\":[[-73.5852059,45.3700284],[-73.5851368,45.3700111],[-73.5850538,45.369991],[-73.5849011,45.3699541],[-73.5848466,45.369941],[-73.5845456,45.3698708]]}";3;Montée Saint-Régis;3;50;false;false;true;false;false;false;55.0;0;1;1;0;0;false;76397;6133353624;-73.580578;45.368439;76398;6133353623;-73.58508;45.370074;0;11;12;9495767;Bus 34 : Saint-Constant;"";EXO;34;Stationnement Incitatif Georges-Gagné;Stationnement Incitatif Georges-Gagné
684451735;"{\"type\":\"LineString\",\"coordinates\":[[-73.5852059,45.3700284],[-73.5851619,45.3701161]]}";4;Boulevard Monchamp;1;50;false;true;true;false;false;false;11.0;0;1;0;0;0;false;76397;6133353624;-73.580578;45.368439;76398;6133353623;-73.58508;45.370074;2;11;12;9495767;Bus 34 : Saint-Constant;"";EXO;34;Stationnement Incitatif Georges-Gagné;Stationnement Incitatif Georges-Gagné
782716867;"{\"type\":\"LineString\",\"coordinates\":[[-73.5851619,45.3701161],[-73.5850898,45.3702606],[-73.5849943,45.37044],[-73.5849753,45.3704771],[-73.5848495,45.3707141]]}";1;Boulevard Monchamp;1;50;false;true;true;false;false;false;71.0;0;2;0;0;0;false;76398;6133353623;-73.58508;45.370074;76428;6133353599;-73.584555;45.371062;2;12;13;9495767;Bus 34 : Saint-Constant;"";EXO;34;Stationnement Incitatif Georges-Gagné;Stationnement Incitatif Georges-Gagné
788068657;"{\"type\":\"LineString\",\"coordinates\":[[-73.5848495,45.3707141],[-73.5847979,45.3708113],[-73.5847361,45.3709278]]}";2;Boulevard Monchamp;2;50;false;true;true;false;false;false;26.0;0;0;0;0;0;false;76398;6133353623;-73.58508;45.370074;76428;6133353599;-73.584555;45.371062;0;12;13;9495767;Bus 34 : Saint-Constant;"";EXO;34;Stationnement Incitatif Georges-Gagné;Stationnement Incitatif Georges-Gagné
788068656;"{\"type\":\"LineString\",\"coordinates\":[[-73.5847361,45.3709278],[-73.5846618,45.3710679],[-73.5846266,45.3711338],[-73.5845873,45.3712074]]}";3;Boulevard Monchamp;3;50;false;true;true;false;false;false;34.0;0;1;1;0;0;false;76398;6133353623;-73.58508;45.370074;76428;6133353599;-73.584555;45.371062;2;12;13;9495767;Bus 34 : Saint-Constant;"";EXO;34;Stationnement Incitatif Georges-Gagné;Stationnement Incitatif Georges-Gagné
788068659;"{\"type\":\"LineString\",\"coordinates\":[[-73.5845873,45.3712074],[-73.5845519,45.3712761],[-73.5844698,45.3714351],[-73.5843141,45.3717367],[-73.5841579,45.3720394],[-73.5840022,45.372341],[-73.5839638,45.3724154],[-73.5839129,45.3725214],[-73.583873,45.372618],[-73.5838685,45.3726325],[-73.5838471,45.372701],[-73.5838274,45.3727823],[-73.583823,45.3728145],[-73.5838182,45.3728498],[-73.5838126,45.3729233],[-73.5838116,45.3729946],[-73.5838137,45.3730443],[-73.5838141,45.373054],[-73.58382,45.373114],[-73.583831,45.3731834],[-73.5838397,45.3732316],[-73.5838428,45.3732489],[-73.5838977,45.3735524],[-73.5839558,45.3738734],[-73.5839786,45.3739992],[-73.5839838,45.3740386],[-73.5839904,45.3740834],[-73.5840101,45.3741819]]}";1;Boulevard Monchamp;1;50;false;true;true;false;false;false;171.0;0;2;1;0;0;false;76437;6133353591;-73.583854;45.373977;76132;6133354089;-73.584181;45.375569;1;14;15;9495767;Bus 34 : Saint-Constant;"";EXO;34;Stationnement Incitatif Georges-Gagné;Stationnement Incitatif Georges-Gagné
342653870;"{\"type\":\"LineString\",\"coordinates\":[[-73.5840101,45.3741819],[-73.5840211,45.3742298],[-73.5841083,45.3747171]]}";2;Boulevard Monchamp;1;50;false;true;true;false;false;false;60.0;0;1;0;0;0;false;76437;6133353591;-73.583854;45.373977;76132;6133354089;-73.584181;45.375569;0;14;15;9495767;Bus 34 : Saint-Constant;"";EXO;34;Stationnement Incitatif Georges-Gagné;Stationnement Incitatif Georges-Gagné
782428513;"{\"type\":\"LineString\",\"coordinates\":[[-73.5841083,45.3747171],[-73.5841377,45.3748784]]}";3;Boulevard Monchamp;1;50;false;true;true;false;false;false;19.0;0;0;0;0;0;false;76437;6133353591;-73.583854;45.373977;76132;6133354089;-73.584181;45.375569;0;14;15;9495767;Bus 34 : Saint-Constant;"";EXO;34;Stationnement Incitatif Georges-Gagné;Stationnement Incitatif Georges-Gagné
782428514;"{\"type\":\"LineString\",\"coordinates\":[[-73.5841377,45.3748784],[-73.5841857,45.3751415],[-73.5842182,45.3753201]]}";4;Boulevard Monchamp;1;50;false;true;true;false;false;false;50.0;0;0;0;0;0;false;76437;6133353591;-73.583854;45.373977;76132;6133354089;-73.584181;45.375569;0;14;15;9495767;Bus 34 : Saint-Constant;"";EXO;34;Stationnement Incitatif Georges-Gagné;Stationnement Incitatif Georges-Gagné
782462812;"{\"type\":\"LineString\",\"coordinates\":[[-73.5842182,45.3753201],[-73.5842578,45.3755376],[-73.5842675,45.375591],[-73.5842789,45.3756464]]}";5;Boulevard Monchamp;2;50;false;true;true;false;false;false;18.5;0;1;1;0;0;false;76437;6133353591;-73.583854;45.373977;76132;6133354089;-73.584181;45.375569;1;14;15;9495767;Bus 34 : Saint-Constant;"";EXO;34;Stationnement Incitatif Georges-Gagné;Stationnement Incitatif Georges-Gagné
782462814;"{\"type\":\"LineString\",\"coordinates\":[[-73.5842789,45.3756464],[-73.5842885,45.3757071],[-73.584329,45.3759347],[-73.5843401,45.3760277],[-73.5843436,45.3761021],[-73.5843412,45.3761764],[-73.5843319,45.3762611],[-73.5843177,45.3763222],[-73.5843016,45.3763757],[-73.5842446,45.3765135],[-73.5842009,45.3766142]]}";1;Boulevard Monchamp;1;50;false;true;true;false;false;false;110.0;0;2;0;0;0;false;76132;6133354089;-73.584181;45.375569;76023;6133354165;-73.583483;45.378063;2;15;16;9495767;Bus 34 : Saint-Constant;"";EXO;34;Stationnement Incitatif Georges-Gagné;Stationnement Incitatif Georges-Gagné
779875699;"{\"type\":\"LineString\",\"coordinates\":[[-73.5842009,45.3766142],[-73.5841641,45.376694],[-73.5839436,45.3771649],[-73.5839262,45.3772004],[-73.5836536,45.3778332],[-73.5836426,45.3778609],[-73.5836166,45.377927],[-73.5836049,45.3779907],[-73.5835993,45.3780215],[-73.5835976,45.3780608],[-73.5836083,45.3781346],[-73.5836256,45.3781902],[-73.583682,45.3783147],[-73.5839385,45.3788833],[-73.5839563,45.3789229],[-73.5842561,45.3795873],[-73.5843121,45.3797126],[-73.5843356,45.3797651],[-73.5843649,45.3798309]]}";2;Boulevard Monchamp;2;30;false;true;true;false;false;false;374.0;0;5;3;0;0;false;76132;6133354089;-73.584181;45.375569;76023;6133354165;-73.583483;45.378063;2;15;16;9495767;Bus 34 : Saint-Constant;"";EXO;34;Stationnement Incitatif Georges-Gagné;Stationnement Incitatif Georges-Gagné
684466616;"{\"type\":\"LineString\",\"coordinates\":[[-73.5844446,45.3798147],[-73.5843649,45.3798309],[-73.5842714,45.3798535],[-73.5842004,45.3798706],[-73.5838612,45.3799712],[-73.5836624,45.3800301],[-73.5835659,45.3800622],[-73.5835055,45.3800884],[-73.5834635,45.3801066],[-73.5833972,45.3801419],[-73.5833483,45.380168],[-73.5832672,45.3802059],[-73.5831332,45.3802641],[-73.5830549,45.3802981],[-73.5830283,45.3803097]]}";1;Rue de l'Olivier;2;40;false;false;true;false;false;false;125.0;0;3;1;0;0;false;76024;6133354164;-73.584258;45.37978;76106;6133354112;-73.580741;45.380166;2;17;18;9495767;Bus 34 : Saint-Constant;"";EXO;34;Stationnement Incitatif Georges-Gagné;Stationnement Incitatif Georges-Gagné
787823386;"{\"type\":\"LineString\",\"coordinates\":[[-73.5830283,45.3803097],[-73.5829247,45.3803547],[-73.5827881,45.380414],[-73.5826931,45.3804552],[-73.5826771,45.3804622],[-73.5825547,45.3805153],[-73.5825248,45.3805283],[-73.5824618,45.3805495],[-73.5824502,45.3805518],[-73.5824084,45.3805602],[-73.5823357,45.3805653],[-73.5822568,45.3805651],[-73.5821956,45.3805602],[-73.5821344,45.3805486],[-73.5821023,45.3805408],[-73.5820749,45.3805342],[-73.5820583,45.3805302],[-73.5820023,45.3805171],[-73.581853,45.3804823],[-73.5816888,45.380444],[-73.5816308,45.3804305],[-73.5815879,45.3804209],[-73.581412,45.3803817],[-73.581328,45.3803618],[-73.5810461,45.3802949],[-73.5810129,45.380287],[-73.5808317,45.3802441],[-73.5808119,45.3802394],[-73.5806725,45.3802063],[-73.5805182,45.38017],[-73.580347,45.3801299],[-73.5801906,45.3800934],[-73.5799662,45.3800411],[-73.5797143,45.3799823],[-73.5796184,45.3799599],[-73.5794422,45.3799186],[-73.5793487,45.3798967],[-73.5792379,45.3798708],[-73.5791058,45.3798399],[-73.5789576,45.3798052],[-73.578865,45.3797835],[-73.5787071,45.3797465],[-73.5786122,45.3797241],[-73.5783551,45.3796636],[-73.578119,45.3796079],[-73.5778991,45.3795561],[-73.5777985,45.3795325]]}";2;Rue de l'Olivier;2;40;false;false;true;false;false;false;436.0;0;1;3;0;0;false;76024;6133354164;-73.584258;45.37978;76106;6133354112;-73.580741;45.380166;2;17;18;9495767;Bus 34 : Saint-Constant;"";EXO;34;Stationnement Incitatif Georges-Gagné;Stationnement Incitatif Georges-Gagné
779926953;"{\"type\":\"LineString\",\"coordinates\":[[-73.5755515,45.3819662],[-73.5767557,45.3822313],[-73.5768354,45.3822489]]}";1;Rue Sainte-Catherine;2;50;false;false;false;false;false;false;106.0;0;0;0;0;0;false;76108;6133354110;-73.576806;45.382162;76109;6133354109;-73.573683;45.381506;2;20;21;9495767;Bus 34 : Saint-Constant;"";EXO;34;Stationnement Incitatif Georges-Gagné;Stationnement Incitatif Georges-Gagné
779926954;"{\"type\":\"LineString\",\"coordinates\":[[-73.5751699,45.3818836],[-73.5755515,45.3819662]]}";2;Rue Sainte-Catherine;2;50;false;false;false;false;false;false;32.0;0;0;0;0;0;false;76108;6133354110;-73.576806;45.382162;76109;6133354109;-73.573683;45.381506;0;20;21;9495767;Bus 34 : Saint-Constant;"";EXO;34;Stationnement Incitatif Georges-Gagné;Stationnement Incitatif Georges-Gagné
779926956;"{\"type\":\"LineString\",\"coordinates\":[[-73.565031,45.3795373],[-73.5651329,45.3795596],[-73.5652301,45.3795813],[-73.5652648,45.3795894],[-73.5655286,45.3796508],[-73.565993,45.3797589],[-73.5661436,45.3797939],[-73.5662428,45.379817],[-73.5662933,45.3798288],[-73.5663498,45.3798419],[-73.5673099,45.3800655],[-73.567668,45.3801499],[-73.5677412,45.3801678],[-73.5678348,45.3801898],[-73.5695448,45.3805948],[-73.569644,45.3806173],[-73.5697285,45.3806374],[-73.5705158,45.3808243],[-73.5705954,45.380843],[-73.5706765,45.3808611],[-73.5719107,45.381144],[-73.5723633,45.3812477],[-73.5727074,45.3813266],[-73.5728394,45.3813569],[-73.5729492,45.3813824],[-73.5733663,45.3814792],[-73.5734595,45.381499],[-73.5735483,45.3815181],[-73.5751699,45.3818836]]}";3;Rue Sainte-Catherine;2;50;false;false;false;false;false;false;836.0;0;13;0;0;0;false;76108;6133354110;-73.576806;45.382162;76109;6133354109;-73.573683;45.381506;2;20;21;9495767;Bus 34 : Saint-Constant;"";EXO;34;Stationnement Incitatif Georges-Gagné;Stationnement Incitatif Georges-Gagné
779926956;"{\"type\":\"LineString\",\"coordinates\":[[-73.565031,45.3795373],[-73.5651329,45.3795596],[-73.5652301,45.3795813],[-73.5652648,45.3795894],[-73.5655286,45.3796508],[-73.565993,45.3797589],[-73.5661436,45.3797939],[-73.5662428,45.379817],[-73.5662933,45.3798288],[-73.5663498,45.3798419],[-73.5673099,45.3800655],[-73.567668,45.3801499],[-73.5677412,45.3801678],[-73.5678348,45.3801898],[-73.5695448,45.3805948],[-73.569644,45.3806173],[-73.5697285,45.3806374],[-73.5705158,45.3808243],[-73.5705954,45.380843],[-73.5706765,45.3808611],[-73.5719107,45.381144],[-73.5723633,45.3812477],[-73.5727074,45.3813266],[-73.5728394,45.3813569],[-73.5729492,45.3813824],[-73.5733663,45.3814792],[-73.5734595,45.381499],[-73.5735483,45.3815181],[-73.5751699,45.3818836]]}";1;Rue Sainte-Catherine;2;50;false;false;false;false;false;false;418.0;0;13;0;0;0;false;76113;6133354105;-73.565294;45.379547;76114;6133354104;-73.560758;45.381358;1;25;26;9495767;Bus 34 : Saint-Constant;"";EXO;34;Stationnement Incitatif Georges-Gagné;Stationnement Incitatif Georges-Gagné
779926929;"{\"type\":\"LineString\",\"coordinates\":[[-73.5647627,45.3794804],[-73.5649377,45.3795175],[-73.565031,45.3795373]]}";2;Rue Sainte-Catherine;2;50;false;false;true;false;false;false;22.0;0;1;0;0;0;false;76113;6133354105;-73.565294;45.379547;76114;6133354104;-73.560758;45.381358;0;25;26;9495767;Bus 34 : Saint-Constant;"";EXO;34;Stationnement Incitatif Georges-Gagné;Stationnement Incitatif Georges-Gagné
684466617;"{\"type\":\"LineString\",\"coordinates\":[[-73.5641821,45.3793399],[-73.5642965,45.3793707],[-73.5643728,45.3793898],[-73.5647627,45.3794804]]}";3;Rue Sainte-Catherine;3;50;false;false;true;false;false;false;49.0;1;1;0;0;0;false;76113;6133354105;-73.565294;45.379547;76114;6133354104;-73.560758;45.381358;0;25;26;9495767;Bus 34 : Saint-Constant;"";EXO;34;Stationnement Incitatif Georges-Gagné;Stationnement Incitatif Georges-Gagné
787512482;"{\"type\":\"LineString\",\"coordinates\":[[-73.558165,45.386215],[-73.5581941,45.386156],[-73.5582283,45.3860868],[-73.5583373,45.385866],[-73.5583682,45.3858035],[-73.5584107,45.3857173],[-73.5584315,45.3856752],[-73.5584733,45.3855933],[-73.5584892,45.3855615],[-73.5585912,45.3853577],[-73.5586848,45.3851707],[-73.5587338,45.3850728],[-73.558821,45.3848985],[-73.5588603,45.384817],[-73.5588889,45.3847596],[-73.5589237,45.3846898],[-73.5590603,45.3844157],[-73.5590989,45.3843382],[-73.5592295,45.3840724],[-73.559253,45.3840246],[-73.5594448,45.3836342],[-73.5594501,45.3836235],[-73.5595527,45.3834162],[-73.5595828,45.3833555],[-73.5596674,45.3831836],[-73.5596787,45.3831614],[-73.5596973,45.3831249],[-73.5597449,45.3830312],[-73.5598027,45.3829173],[-73.5598749,45.3827752],[-73.5599461,45.3826349],[-73.5599836,45.3825611],[-73.5600098,45.38251],[-73.5600409,45.3824492],[-73.5601047,45.3823316],[-73.5601207,45.3823038],[-73.5601551,45.3822437],[-73.560188,45.3821892],[-73.5602217,45.3821333],[-73.5602822,45.3820408],[-73.5602872,45.3820331],[-73.560295,45.3820212],[-73.560353,45.381938],[-73.5603809,45.3819004],[-73.5604169,45.3818519],[-73.5604782,45.3817777],[-73.5605447,45.3817006],[-73.5605988,45.3816389],[-73.560628,45.381607],[-73.5606524,45.3815804],[-73.560706,45.3815233],[-73.5607581,45.3814714],[-73.5607854,45.3814441],[-73.5608268,45.381405],[-73.5608756,45.3813572],[-73.560938,45.3812998],[-73.5609532,45.3812865],[-73.5610299,45.3812194],[-73.5611207,45.3811452],[-73.5611659,45.3811111],[-73.5612662,45.3810352],[-73.5613706,45.380962],[-73.5613837,45.3809528],[-73.5614041,45.3809385],[-73.5615113,45.3808639],[-73.5615843,45.3808163],[-73.5616304,45.3807862],[-73.5617196,45.3807323],[-73.5618147,45.380678],[-73.5618904,45.3806363],[-73.5619181,45.3806211],[-73.5620222,45.3805683],[-73.5620337,45.3805626],[-73.5621061,45.3805271],[-73.5622673,45.3804508],[-73.562299,45.3804367],[-73.5629256,45.3801573],[-73.5629645,45.38014],[-73.5629884,45.3801295],[-73.563146,45.3800604],[-73.5632203,45.3800274],[-73.5632726,45.3800041],[-73.5634044,45.3799392],[-73.5635472,45.3798617],[-73.5636744,45.379786],[-73.5637736,45.3797188],[-73.563827,45.3796826],[-73.5639313,45.3795987],[-73.5640301,45.3795036],[-73.564109,45.3794259],[-73.5641381,45.3793957],[-73.5641821,45.3793399]]}";4;Rue Saint-Pierre;4;50;false;false;true;false;false;false;464.0;1;7;0;0;0;false;76113;6133354105;-73.565294;45.379547;76114;6133354104;-73.560758;45.381358;1;25;26;9495767;Bus 34 : Saint-Constant;"";EXO;34;Stationnement Incitatif Georges-Gagné;Stationnement Incitatif Georges-Gagné
787512482;"{\"type\":\"LineString\",\"coordinates\":[[-73.558165,45.386215],[-73.5581941,45.386156],[-73.5582283,45.3860868],[-73.5583373,45.385866],[-73.5583682,45.3858035],[-73.5584107,45.3857173],[-73.5584315,45.3856752],[-73.5584733,45.3855933],[-73.5584892,45.3855615],[-73.5585912,45.3853577],[-73.5586848,45.3851707],[-73.5587338,45.3850728],[-73.558821,45.3848985],[-73.5588603,45.384817],[-73.5588889,45.3847596],[-73.5589237,45.3846898],[-73.5590603,45.3844157],[-73.5590989,45.3843382],[-73.5592295,45.3840724],[-73.559253,45.3840246],[-73.5594448,45.3836342],[-73.5594501,45.3836235],[-73.5595527,45.3834162],[-73.5595828,45.3833555],[-73.5596674,45.3831836],[-73.5596787,45.3831614],[-73.5596973,45.3831249],[-73.5597449,45.3830312],[-73.5598027,45.3829173],[-73.5598749,45.3827752],[-73.5599461,45.3826349],[-73.5599836,45.3825611],[-73.5600098,45.38251],[-73.5600409,45.3824492],[-73.5601047,45.3823316],[-73.5601207,45.3823038],[-73.5601551,45.3822437],[-73.560188,45.3821892],[-73.5602217,45.3821333],[-73.5602822,45.3820408],[-73.5602872,45.3820331],[-73.560295,45.3820212],[-73.560353,45.381938],[-73.5603809,45.3819004],[-73.5604169,45.3818519],[-73.5604782,45.3817777],[-73.5605447,45.3817006],[-73.5605988,45.3816389],[-73.560628,45.381607],[-73.5606524,45.3815804],[-73.560706,45.3815233],[-73.5607581,45.3814714],[-73.5607854,45.3814441],[-73.5608268,45.381405],[-73.5608756,45.3813572],[-73.560938,45.3812998],[-73.5609532,45.3812865],[-73.5610299,45.3812194],[-73.5611207,45.3811452],[-73.5611659,45.3811111],[-73.5612662,45.3810352],[-73.5613706,45.380962],[-73.5613837,45.3809528],[-73.5614041,45.3809385],[-73.5615113,45.3808639],[-73.5615843,45.3808163],[-73.5616304,45.3807862],[-73.5617196,45.3807323],[-73.5618147,45.380678],[-73.5618904,45.3806363],[-73.5619181,45.3806211],[-73.5620222,45.3805683],[-73.5620337,45.3805626],[-73.5621061,45.3805271],[-73.5622673,45.3804508],[-73.562299,45.3804367],[-73.5629256,45.3801573],[-73.5629645,45.38014],[-73.5629884,45.3801295],[-73.563146,45.3800604],[-73.5632203,45.3800274],[-73.5632726,45.3800041],[-73.5634044,45.3799392],[-73.5635472,45.3798617],[-73.5636744,45.379786],[-73.5637736,45.3797188],[-73.563827,45.3796826],[-73.5639313,45.3795987],[-73.5640301,45.3795036],[-73.564109,45.3794259],[-73.5641381,45.3793957],[-73.5641821,45.3793399]]}";1;Rue Saint-Pierre;4;50;false;false;true;false;false;false;464.0;1;7;0;0;0;false;76116;6133354102;-73.558815;45.384732;76080;6133354127;-73.5478906;45.3844531;1;28;29;9495767;Bus 34 : Saint-Constant;"";EXO;34;Stationnement Incitatif Georges-Gagné;Stationnement Incitatif Georges-Gagné
801354415;"{\"type\":\"LineString\",\"coordinates\":[[-73.5580601,45.3864319],[-73.558165,45.386215]]}";2;Rue Saint-Pierre;4;50;false;false;true;false;false;false;26.0;0;0;0;0;0;false;76116;6133354102;-73.558815;45.384732;76080;6133354127;-73.5478906;45.3844531;0;28;29;9495767;Bus 34 : Saint-Constant;"";EXO;34;Stationnement Incitatif Georges-Gagné;Stationnement Incitatif Georges-Gagné
801354413;"{\"type\":\"LineString\",\"coordinates\":[[-73.558049,45.3864557],[-73.5580601,45.3864319]]}";3;Rue Saint-Pierre;4;50;false;false;true;false;false;false;3.0;0;0;0;0;0;false;76116;6133354102;-73.558815;45.384732;76080;6133354127;-73.5478906;45.3844531;0;28;29;9495767;Bus 34 : Saint-Constant;"";EXO;34;Stationnement Incitatif Georges-Gagné;Stationnement Incitatif Georges-Gagné
684451738;"{\"type\":\"LineString\",\"coordinates\":[[-73.5578056,45.3869268],[-73.5578833,45.3867896],[-73.558049,45.3864557]]}";4;Rue Saint-Pierre;4;50;false;false;true;false;false;false;56.0;1;0;0;0;0;false;76116;6133354102;-73.558815;45.384732;76080;6133354127;-73.5478906;45.3844531;0;28;29;9495767;Bus 34 : Saint-Constant;"";EXO;34;Stationnement Incitatif Georges-Gagné;Stationnement Incitatif Georges-Gagné
761308033;"{\"type\":\"LineString\",\"coordinates\":[[-73.5577454,45.3870329],[-73.5578056,45.3869268]]}";5;Rue Saint-Pierre;4;50;false;false;true;false;false;false;13.0;0;0;0;0;0;false;76116;6133354102;-73.558815;45.384732;76080;6133354127;-73.5478906;45.3844531;0;28;29;9495767;Bus 34 : Saint-Constant;"";EXO;34;Stationnement Incitatif Georges-Gagné;Stationnement Incitatif Georges-Gagné
462489323;"{\"type\":\"LineString\",\"coordinates\":[[-73.5563281,45.3868549],[-73.5565741,45.386922],[-73.5568778,45.386959],[-73.5575667,45.3870177],[-73.5577454,45.3870329]]}";6;Route 132;2;70;false;true;true;false;false;false;114.0;1;0;0;0;0;false;76116;6133354102;-73.558815;45.384732;76080;6133354127;-73.5478906;45.3844531;0;28;29;9495767;Bus 34 : Saint-Constant;"";EXO;34;Stationnement Incitatif Georges-Gagné;Stationnement Incitatif Georges-Gagné
801354423;"{\"type\":\"LineString\",\"coordinates\":[[-73.5565316,45.3868228],[-73.5563281,45.3868549]]}";7;Route 132;2;70;false;true;true;false;false;false;17.0;0;0;0;0;0;false;76116;6133354102;-73.558815;45.384732;76080;6133354127;-73.5478906;45.3844531;0;28;29;9495767;Bus 34 : Saint-Constant;"";EXO;34;Stationnement Incitatif Georges-Gagné;Stationnement Incitatif Georges-Gagné
349638352;"{\"type\":\"LineString\",\"coordinates\":[[-73.5563281,45.3868549],[-73.5561538,45.3868432]]}";8;Route 132;4;70;false;false;true;false;false;false;14.0;0;0;0;0;0;false;76116;6133354102;-73.558815;45.384732;76080;6133354127;-73.5478906;45.3844531;0;28;29;9495767;Bus 34 : Saint-Constant;"";EXO;34;Stationnement Incitatif Georges-Gagné;Stationnement Incitatif Georges-Gagné
801354424;"{\"type\":\"LineString\",\"coordinates\":[[-73.5561538,45.3868432],[-73.5557361,45.3868119]]}";9;Route 132;4;70;false;false;true;false;false;false;33.0;0;0;0;0;0;false;76116;6133354102;-73.558815;45.384732;76080;6133354127;-73.5478906;45.3844531;0;28;29;9495767;Bus 34 : Saint-Constant;"";EXO;34;Stationnement Incitatif Georges-Gagné;Stationnement Incitatif Georges-Gagné
798957406;"{\"type\":\"LineString\",\"coordinates\":[[-73.5557361,45.3868119],[-73.5556658,45.3868062],[-73.5553093,45.386776],[-73.5549002,45.3867431],[-73.5544429,45.3867064],[-73.5542414,45.3866903],[-73.5540569,45.3866756]]}";10;Route 132;5;70;false;false;true;false;false;false;133.0;0;0;0;0;0;false;76116;6133354102;-73.558815;45.384732;76080;6133354127;-73.5478906;45.3844531;0;28;29;9495767;Bus 34 : Saint-Constant;"";EXO;34;Stationnement Incitatif Georges-Gagné;Stationnement Incitatif Georges-Gagné
760831496;"{\"type\":\"LineString\",\"coordinates\":[[-73.5540569,45.3866756],[-73.5538837,45.3866621]]}";11;Route 132;5;70;false;false;true;false;false;false;14.0;0;0;0;0;0;false;76116;6133354102;-73.558815;45.384732;76080;6133354127;-73.5478906;45.3844531;0;28;29;9495767;Bus 34 : Saint-Constant;"";EXO;34;Stationnement Incitatif Georges-Gagné;Stationnement Incitatif Georges-Gagné
760831495;"{\"type\":\"LineString\",\"coordinates\":[[-73.5538837,45.3866621],[-73.5533491,45.3866188]]}";12;Route 132;5;70;false;false;true;false;false;false;43.0;0;0;0;0;0;false;76116;6133354102;-73.558815;45.384732;76080;6133354127;-73.5478906;45.3844531;0;28;29;9495767;Bus 34 : Saint-Constant;"";EXO;34;Stationnement Incitatif Georges-Gagné;Stationnement Incitatif Georges-Gagné
474749537;"{\"type\":\"LineString\",\"coordinates\":[[-73.5518866,45.3865304],[-73.5522039,45.3865702],[-73.5524239,45.3865932],[-73.5526184,45.3866101],[-73.5533491,45.3866188]]}";13;Route 132;2;70;false;true;true;false;false;false;116.0;0;0;0;0;0;false;76116;6133354102;-73.558815;45.384732;76080;6133354127;-73.5478906;45.3844531;0;28;29;9495767;Bus 34 : Saint-Constant;"";EXO;34;Stationnement Incitatif Georges-Gagné;Stationnement Incitatif Georges-Gagné
474749543;"{\"type\":\"LineString\",\"coordinates\":[[-73.5533491,45.3866188],[-73.5530226,45.3865422]]}";14;Route 132;2;70;false;true;true;false;false;false;27.0;0;0;0;0;0;false;76116;6133354102;-73.558815;45.384732;76080;6133354127;-73.5478906;45.3844531;0;28;29;9495767;Bus 34 : Saint-Constant;"";EXO;34;Stationnement Incitatif Georges-Gagné;Stationnement Incitatif Georges-Gagné
801354425;"{\"type\":\"LineString\",\"coordinates\":[[-73.5530226,45.3865422],[-73.5525616,45.3864994]]}";15;Route 132;2;70;false;true;true;false;false;false;37.0;0;0;0;0;0;false;76116;6133354102;-73.558815;45.384732;76080;6133354127;-73.5478906;45.3844531;0;28;29;9495767;Bus 34 : Saint-Constant;"";EXO;34;Stationnement Incitatif Georges-Gagné;Stationnement Incitatif Georges-Gagné
798950923;"{\"type\":\"LineString\",\"coordinates\":[[-73.5525616,45.3864994],[-73.5521023,45.386444],[-73.5519021,45.3864207]]}";16;Route 132;3;70;false;true;true;false;false;false;53.0;1;0;0;0;0;false;76116;6133354102;-73.558815;45.384732;76080;6133354127;-73.5478906;45.3844531;0;28;29;9495767;Bus 34 : Saint-Constant;"";EXO;34;Stationnement Incitatif Georges-Gagné;Stationnement Incitatif Georges-Gagné
474749542;"{\"type\":\"LineString\",\"coordinates\":[[-73.5519021,45.3864207],[-73.5518327,45.3864091],[-73.5517439,45.386394],[-73.5515609,45.3863633],[-73.5508086,45.386233],[-73.5505762,45.386188],[-73.5503506,45.3861388],[-73.5500854,45.3860778],[-73.5493973,45.3859107],[-73.5487077,45.3857344]]}";17;Route 132;2;70;false;true;true;false;false;false;262.0;0;1;0;0;0;false;76116;6133354102;-73.558815;45.384732;76080;6133354127;-73.5478906;45.3844531;0;28;29;9495767;Bus 34 : Saint-Constant;"";EXO;34;Stationnement Incitatif Georges-Gagné;Stationnement Incitatif Georges-Gagné
349640916;"{\"type\":\"LineString\",\"coordinates\":[[-73.5487077,45.3857344],[-73.5478879,45.3854761],[-73.5476794,45.3854223],[-73.5475711,45.3853911],[-73.5474867,45.3853605],[-73.5474113,45.3853229],[-73.5473658,45.3852946],[-73.5473284,45.3852675],[-73.5472971,45.3852405],[-73.5472771,45.3852214],[-73.5472642,45.3851941],[-73.5472591,45.3851635],[-73.5472583,45.3851395],[-73.5472818,45.3848615]]}";18;"";1;50;false;true;true;false;false;false;168.0;0;1;0;0;0;false;76116;6133354102;-73.558815;45.384732;76080;6133354127;-73.5478906;45.3844531;0;28;29;9495767;Bus 34 : Saint-Constant;"";EXO;34;Stationnement Incitatif Georges-Gagné;Stationnement Incitatif Georges-Gagné
801354426;"{\"type\":\"LineString\",\"coordinates\":[[-73.5474046,45.3846145],[-73.5473662,45.3846918],[-73.5472818,45.3848615]]}";19;Boulevard Georges-Gagné Sud;4;50;false;false;true;false;false;false;30.0;0;0;0;0;0;false;76116;6133354102;-73.558815;45.384732;76080;6133354127;-73.5478906;45.3844531;0;28;29;9495767;Bus 34 : Saint-Constant;"";EXO;34;Stationnement Incitatif Georges-Gagné;Stationnement Incitatif Georges-Gagné
798994210;"{\"type\":\"LineString\",\"coordinates\":[[-73.5474325,45.3845584],[-73.5474046,45.3846145]]}";20;Boulevard Georges-Gagné Sud;4;50;false;false;true;false;false;false;7.0;0;0;0;0;0;false;76116;6133354102;-73.558815;45.384732;76080;6133354127;-73.5478906;45.3844531;0;28;29;9495767;Bus 34 : Saint-Constant;"";EXO;34;Stationnement Incitatif Georges-Gagné;Stationnement Incitatif Georges-Gagné
798994213;"{\"type\":\"LineString\",\"coordinates\":[[-73.5476571,45.3841066],[-73.5474325,45.3845584]]}";21;Boulevard Georges-Gagné Sud;4;50;false;false;true;false;false;false;54.0;0;0;0;0;0;false;76116;6133354102;-73.558815;45.384732;76080;6133354127;-73.5478906;45.3844531;0;28;29;9495767;Bus 34 : Saint-Constant;"";EXO;34;Stationnement Incitatif Georges-Gagné;Stationnement Incitatif Georges-Gagné
798994211;"{\"type\":\"LineString\",\"coordinates\":[[-73.5474325,45.3845584],[-73.5475239,45.3845788],[-73.5475804,45.3845909],[-73.5476084,45.3845958],[-73.5476404,45.3845958],[-73.5476745,45.3845888],[-73.5477025,45.3845733],[-73.5477205,45.3845536],[-73.5478647,45.3842618],[-73.5478777,45.3842309],[-73.5478807,45.384214],[-73.5478777,45.3841957],[-73.5478607,45.3841732],[-73.5478316,45.3841557],[-73.5477946,45.3841409],[-73.5477804,45.3841368],[-73.5477512,45.3841289],[-73.5477025,45.384117],[-73.5476571,45.3841066]]}";22;"";1;50;false;true;true;false;false;false;88.0;0;2;1;0;0;false;76116;6133354102;-73.558815;45.384732;76080;6133354127;-73.5478906;45.3844531;1;28;29;9495767;Bus 34 : Saint-Constant;"";EXO;34;Stationnement Incitatif Georges-Gagné;Stationnement Incitatif Georges-Gagné
