way_id;shape;index;name;nb_lanes;legal_speed;speed_zone_30;oneway;shares_bike;bike_box;bus_lane;dedicated_bus_lane;length;nb_traffic_signals;nb_crossings;nb_stops;nb_give_ways;nb_lvl_crossings;roundabout;stop_id_orig;node_id_orig;coord_x_orig;coord_y_orig;stop_id_dest;node_id_dest;coord_x_dest;coord_y_dest;nb_neighbouring_ways_bus_stop;order_orig;order_dest;id_line;line_name;colour;operator;ref;from;to
200160023;"{\"type\":\"LineString\",\"coordinates\":[[-6.3195012,53.324897],[-6.3188774,53.3249226],[-6.3185597,53.324957],[-6.318297,53.3249924],[-6.3178524,53.3250841],[-6.3175544,53.3251717]]}";1;Drimnagh Road;4;50;false;false;true;false;false;false;136.0;0;0;0;0;0;false;1423;2100364065;-6.3193169;53.3249872;1424;2100364046;-6.3167205;53.3256969;1;0;1;2689302;122 towards Ashington;"";Dublin Bus;122;Drimnagh Road;Ashington
378365527;"{\"type\":\"LineString\",\"coordinates\":[[-6.3175544,53.3251717],[-6.317412,53.3252143]]}";2;Drimnagh Road;4;50;false;false;true;false;false;false;11.0;1;0;0;0;0;false;1423;2100364065;-6.3193169;53.3249872;1424;2100364046;-6.3167205;53.3256969;0;0;1;2689302;122 towards Ashington;"";Dublin Bus;122;Drimnagh Road;Ashington
119895928;"{\"type\":\"LineString\",\"coordinates\":[[-6.317412,53.3252143],[-6.3170655,53.3253989],[-6.3169168,53.3254782],[-6.316391,53.3257584],[-6.3159249,53.3260104]]}";3;Crumlin Road;4;50;false;false;true;false;false;false;67.0;2;0;0;0;0;false;1423;2100364065;-6.3193169;53.3249872;1424;2100364046;-6.3167205;53.3256969;1;0;1;2689302;122 towards Ashington;"";Dublin Bus;122;Drimnagh Road;Ashington
119895928;"{\"type\":\"LineString\",\"coordinates\":[[-6.317412,53.3252143],[-6.3170655,53.3253989],[-6.3169168,53.3254782],[-6.316391,53.3257584],[-6.3159249,53.3260104]]}";1;Crumlin Road;4;50;false;false;true;false;false;false;67.0;2;0;0;0;0;false;1424;2100364046;-6.3167205;53.3256969;1425;2100364051;-6.3180053;53.3270529;1;1;2;2689302;122 towards Ashington;"";Dublin Bus;122;Drimnagh Road;Ashington
23307659;"{\"type\":\"LineString\",\"coordinates\":[[-6.3188255,53.3275098],[-6.3182692,53.3272257],[-6.3178932,53.3270337],[-6.3173271,53.3267447],[-6.3171647,53.326666],[-6.3170704,53.3266136],[-6.3164754,53.3263098],[-6.3161147,53.3261256],[-6.3160276,53.3260703],[-6.3159249,53.3260104]]}";2;Cooley Road;2;30;false;false;true;false;false;false;129.0;1;0;0;0;0;false;1424;2100364046;-6.3167205;53.3256969;1425;2100364051;-6.3180053;53.3270529;1;1;2;2689302;122 towards Ashington;"";Dublin Bus;122;Drimnagh Road;Ashington
23307659;"{\"type\":\"LineString\",\"coordinates\":[[-6.3188255,53.3275098],[-6.3182692,53.3272257],[-6.3178932,53.3270337],[-6.3173271,53.3267447],[-6.3171647,53.326666],[-6.3170704,53.3266136],[-6.3164754,53.3263098],[-6.3161147,53.3261256],[-6.3160276,53.3260703],[-6.3159249,53.3260104]]}";1;Cooley Road;2;30;false;false;true;false;false;false;129.0;1;0;0;0;0;false;1425;2100364051;-6.3180053;53.3270529;1426;2100364058;-6.3224406;53.329274;1;2;3;2689302;122 towards Ashington;"";Dublin Bus;122;Drimnagh Road;Ashington
732482191;"{\"type\":\"LineString\",\"coordinates\":[[-6.3234895,53.3298446],[-6.3234153,53.3298093],[-6.3218651,53.3290351],[-6.3204423,53.3283269],[-6.3188255,53.3275098]]}";2;Cooley Road;2;30;false;false;true;false;false;false;204.0;0;0;0;0;0;false;1425;2100364051;-6.3180053;53.3270529;1426;2100364058;-6.3224406;53.329274;1;2;3;2689302;122 towards Ashington;"";Dublin Bus;122;Drimnagh Road;Ashington
732482191;"{\"type\":\"LineString\",\"coordinates\":[[-6.3234895,53.3298446],[-6.3234153,53.3298093],[-6.3218651,53.3290351],[-6.3204423,53.3283269],[-6.3188255,53.3275098]]}";1;Cooley Road;2;30;false;false;true;false;false;false;204.0;0;0;0;0;0;false;1426;2100364058;-6.3224406;53.329274;1427;2100364062;-6.322293;53.3302551;1;3;4;2689302;122 towards Ashington;"";Dublin Bus;122;Drimnagh Road;Ashington
200160020;"{\"type\":\"LineString\",\"coordinates\":[[-6.3234895,53.3298446],[-6.3235175,53.329828],[-6.3235501,53.3298148],[-6.3235863,53.3298055],[-6.3236247,53.3298002],[-6.3236641,53.3297993],[-6.3237031,53.3298028],[-6.3237403,53.3298105],[-6.3237746,53.3298222],[-6.3238046,53.3298375],[-6.3238294,53.3298558],[-6.323848,53.3298765]]}";2;Coghlan Roundabout;1;30;false;false;true;false;false;false;30.0;0;0;0;0;0;true;1426;2100364058;-6.3224406;53.329274;1427;2100364062;-6.322293;53.3302551;0;3;4;2689302;122 towards Ashington;"";Dublin Bus;122;Drimnagh Road;Ashington
23307657;"{\"type\":\"LineString\",\"coordinates\":[[-6.323848,53.3298765],[-6.3238632,53.3299103],[-6.3238624,53.3299452],[-6.3238456,53.3299787],[-6.3238141,53.3300082],[-6.3237791,53.3300277],[-6.3237376,53.3300421],[-6.3236919,53.3300505],[-6.3236441,53.3300526],[-6.3235967,53.3300483],[-6.3235522,53.3300377],[-6.3235128,53.3300214],[-6.3234805,53.3300003],[-6.3234569,53.3299754]]}";3;Coghlan Roundabout;1;30;false;false;true;false;false;false;45.0;0;0;0;0;0;true;1426;2100364058;-6.3224406;53.329274;1427;2100364062;-6.322293;53.3302551;0;3;4;2689302;122 towards Ashington;"";Dublin Bus;122;Drimnagh Road;Ashington
23307472;"{\"type\":\"LineString\",\"coordinates\":[[-6.3234569,53.3299754],[-6.3233447,53.3299941],[-6.3226416,53.3301276],[-6.3218953,53.3302886],[-6.3211933,53.3304502],[-6.3208743,53.3305322],[-6.3204583,53.3306721],[-6.3201506,53.3308012],[-6.3199102,53.3309098],[-6.3181532,53.3317792],[-6.3179976,53.3318501],[-6.317441,53.3321036]]}";4;Mourne Road;2;30;false;false;true;false;false;false;237.5;0;0;0;0;0;false;1426;2100364058;-6.3224406;53.329274;1427;2100364062;-6.322293;53.3302551;1;3;4;2689302;122 towards Ashington;"";Dublin Bus;122;Drimnagh Road;Ashington
23307472;"{\"type\":\"LineString\",\"coordinates\":[[-6.3234569,53.3299754],[-6.3233447,53.3299941],[-6.3226416,53.3301276],[-6.3218953,53.3302886],[-6.3211933,53.3304502],[-6.3208743,53.3305322],[-6.3204583,53.3306721],[-6.3201506,53.3308012],[-6.3199102,53.3309098],[-6.3181532,53.3317792],[-6.3179976,53.3318501],[-6.317441,53.3321036]]}";1;Mourne Road;2;30;false;false;true;false;false;false;237.5;0;0;0;0;0;false;1428;2100364045;-6.3191171;53.3313555;1429;2100364049;-6.3161776;53.3325755;1;5;6;2689302;122 towards Ashington;"";Dublin Bus;122;Drimnagh Road;Ashington
200160021;"{\"type\":\"LineString\",\"coordinates\":[[-6.317441,53.3321036],[-6.3174626,53.3321438],[-6.3174711,53.3322102],[-6.3174546,53.3322634],[-6.3174279,53.3323024],[-6.3173816,53.332344],[-6.3173114,53.3323834]]}";2;"";1;30;false;false;true;false;false;false;36.0;0;0;0;0;0;true;1428;2100364045;-6.3191171;53.3313555;1429;2100364049;-6.3161776;53.3325755;0;5;6;2689302;122 towards Ashington;"";Dublin Bus;122;Drimnagh Road;Ashington
23307471;"{\"type\":\"LineString\",\"coordinates\":[[-6.3173114,53.3323834],[-6.3172085,53.3324156],[-6.3170954,53.3324283],[-6.3169932,53.3324226],[-6.3168978,53.3324015],[-6.3168305,53.3323746],[-6.3167531,53.332323]]}";3;"";1;30;false;false;true;false;false;false;43.0;0;0;0;0;0;true;1428;2100364045;-6.3191171;53.3313555;1429;2100364049;-6.3161776;53.3325755;0;5;6;2689302;122 towards Ashington;"";Dublin Bus;122;Drimnagh Road;Ashington
23307473;"{\"type\":\"LineString\",\"coordinates\":[[-6.3167531,53.332323],[-6.3163731,53.3324575],[-6.3159325,53.3326033],[-6.3154607,53.3327275],[-6.3148385,53.3328822],[-6.3142476,53.333022],[-6.3136844,53.3331358],[-6.3130316,53.3332634],[-6.3124788,53.3333426],[-6.3118986,53.3334227],[-6.3114637,53.3334726]]}";4;Mourne Road;2;30;false;false;true;false;false;false;190.0;0;0;0;0;0;false;1428;2100364045;-6.3191171;53.3313555;1429;2100364049;-6.3161776;53.3325755;1;5;6;2689302;122 towards Ashington;"";Dublin Bus;122;Drimnagh Road;Ashington
23307473;"{\"type\":\"LineString\",\"coordinates\":[[-6.3167531,53.332323],[-6.3163731,53.3324575],[-6.3159325,53.3326033],[-6.3154607,53.3327275],[-6.3148385,53.3328822],[-6.3142476,53.333022],[-6.3136844,53.3331358],[-6.3130316,53.3332634],[-6.3124788,53.3333426],[-6.3118986,53.3334227],[-6.3114637,53.3334726]]}";1;Mourne Road;2;30;false;false;true;false;false;false;190.0;0;0;0;0;0;false;1429;2100364049;-6.3161776;53.3325755;1430;2100364047;-6.3111217;53.3335304;1;6;7;2689302;122 towards Ashington;"";Dublin Bus;122;Drimnagh Road;Ashington
317145978;"{\"type\":\"LineString\",\"coordinates\":[[-6.3114637,53.3334726],[-6.3108298,53.3334997],[-6.3101861,53.3335034],[-6.3095987,53.3334896],[-6.3086513,53.3334517],[-6.3076444,53.3333992],[-6.3066282,53.3333307],[-6.3063551,53.3333261],[-6.3061834,53.3333337]]}";2;Mourne Road;2;30;false;false;true;false;false;false;178.0;0;0;0;0;0;false;1429;2100364049;-6.3161776;53.3325755;1430;2100364047;-6.3111217;53.3335304;1;6;7;2689302;122 towards Ashington;"";Dublin Bus;122;Drimnagh Road;Ashington
317145978;"{\"type\":\"LineString\",\"coordinates\":[[-6.3114637,53.3334726],[-6.3108298,53.3334997],[-6.3101861,53.3335034],[-6.3095987,53.3334896],[-6.3086513,53.3334517],[-6.3076444,53.3333992],[-6.3066282,53.3333307],[-6.3063551,53.3333261],[-6.3061834,53.3333337]]}";1;Mourne Road;2;30;false;false;true;false;false;false;178.0;0;0;0;0;0;false;1432;2100364061;-6.3083938;53.3334776;1433;2100364060;-6.3057798;53.3325344;1;8;9;2689302;122 towards Ashington;"";Dublin Bus;122;Drimnagh Road;Ashington
200161872;"{\"type\":\"LineString\",\"coordinates\":[[-6.3061834,53.3333337],[-6.3061595,53.3333786],[-6.3060893,53.3334443],[-6.305983,53.3334948],[-6.3058821,53.3335181],[-6.3057815,53.3335247],[-6.305665,53.3335133],[-6.3055779,53.3334896],[-6.3054975,53.3334512],[-6.3054485,53.3334143],[-6.3054119,53.3333716],[-6.3053929,53.3333341],[-6.3053845,53.3332702],[-6.3053966,53.3332234],[-6.3054238,53.3331788],[-6.3054612,53.3331414],[-6.3055093,53.3331086],[-6.3055999,53.3330698],[-6.3057096,53.3330467],[-6.3057822,53.3330421]]}";2;Carruth Roundabout;1;30;false;false;true;false;false;false;122.0;0;0;0;0;0;true;1432;2100364061;-6.3083938;53.3334776;1433;2100364060;-6.3057798;53.3325344;0;8;9;2689302;122 towards Ashington;"";Dublin Bus;122;Drimnagh Road;Ashington
107851480;"{\"type\":\"LineString\",\"coordinates\":[[-6.3058434,53.3322062],[-6.305849,53.3324438],[-6.305842,53.3326528],[-6.3058278,53.3328429],[-6.3057822,53.3330421]]}";3;Slievenamon Road;2;30;false;false;true;false;false;false;47.0;0;0;0;0;0;false;1432;2100364061;-6.3083938;53.3334776;1433;2100364060;-6.3057798;53.3325344;1;8;9;2689302;122 towards Ashington;"";Dublin Bus;122;Drimnagh Road;Ashington
107851480;"{\"type\":\"LineString\",\"coordinates\":[[-6.3058434,53.3322062],[-6.305849,53.3324438],[-6.305842,53.3326528],[-6.3058278,53.3328429],[-6.3057822,53.3330421]]}";1;Slievenamon Road;2;30;false;false;true;false;false;false;47.0;0;0;0;0;0;false;1433;2100364060;-6.3057798;53.3325344;1434;2100364050;-6.3022918;53.3319863;1;9;10;2689302;122 towards Ashington;"";Dublin Bus;122;Drimnagh Road;Ashington
129750570;"{\"type\":\"LineString\",\"coordinates\":[[-6.2979054,53.3311765],[-6.2980826,53.3311996],[-6.2991299,53.3313359],[-6.2994074,53.331372],[-6.3008199,53.3316341],[-6.3011279,53.3316912],[-6.3017429,53.3318035],[-6.3018706,53.3318268],[-6.3025853,53.3319626],[-6.3026704,53.3319788],[-6.3031489,53.3320516],[-6.3034584,53.3321056],[-6.3035434,53.3321204],[-6.3043178,53.3322095],[-6.3048473,53.3322271],[-6.3053661,53.3322207],[-6.3058434,53.3322062]]}";2;Keeper Road;2;30;false;false;true;false;false;false;274.5;1;1;0;0;0;false;1433;2100364060;-6.3057798;53.3325344;1434;2100364050;-6.3022918;53.3319863;1;9;10;2689302;122 towards Ashington;"";Dublin Bus;122;Drimnagh Road;Ashington
129750570;"{\"type\":\"LineString\",\"coordinates\":[[-6.2979054,53.3311765],[-6.2980826,53.3311996],[-6.2991299,53.3313359],[-6.2994074,53.331372],[-6.3008199,53.3316341],[-6.3011279,53.3316912],[-6.3017429,53.3318035],[-6.3018706,53.3318268],[-6.3025853,53.3319626],[-6.3026704,53.3319788],[-6.3031489,53.3320516],[-6.3034584,53.3321056],[-6.3035434,53.3321204],[-6.3043178,53.3322095],[-6.3048473,53.3322271],[-6.3053661,53.3322207],[-6.3058434,53.3322062]]}";1;Keeper Road;2;30;false;false;true;false;false;false;274.5;1;1;0;0;0;false;1435;2100364041;-6.2990114;53.331361;7439;2100364048;-6.2979679;53.332359;1;11;12;2689302;122 towards Ashington;"";Dublin Bus;122;Drimnagh Road;Ashington
368849531;"{\"type\":\"LineString\",\"coordinates\":[[-6.2977908,53.3315727],[-6.2978027,53.3315119],[-6.2978239,53.3314307],[-6.2978663,53.3312943],[-6.2979054,53.3311765]]}";2;Herberton Road;3;50;false;false;true;false;false;false;46.0;1;1;0;0;0;false;1435;2100364041;-6.2990114;53.331361;7439;2100364048;-6.2979679;53.332359;0;11;12;2689302;122 towards Ashington;"";Dublin Bus;122;Drimnagh Road;Ashington
810833308;"{\"type\":\"LineString\",\"coordinates\":[[-6.2985273,53.3334134],[-6.2985116,53.3333763],[-6.2984171,53.3332013],[-6.2983788,53.3331304],[-6.2982609,53.3329587],[-6.298234,53.3329196],[-6.2981752,53.3328339],[-6.2980344,53.3326288],[-6.297993,53.3325685],[-6.2979198,53.3324457],[-6.2978702,53.3323251],[-6.2978279,53.3321034],[-6.2978049,53.3319054],[-6.2977969,53.3317155],[-6.2977908,53.3315727]]}";3;Herberton Road;2;50;false;false;true;false;false;false;107.5;0;0;0;0;0;false;1435;2100364041;-6.2990114;53.331361;7439;2100364048;-6.2979679;53.332359;1;11;12;2689302;122 towards Ashington;"";Dublin Bus;122;Drimnagh Road;Ashington
810833308;"{\"type\":\"LineString\",\"coordinates\":[[-6.2985273,53.3334134],[-6.2985116,53.3333763],[-6.2984171,53.3332013],[-6.2983788,53.3331304],[-6.2982609,53.3329587],[-6.298234,53.3329196],[-6.2981752,53.3328339],[-6.2980344,53.3326288],[-6.297993,53.3325685],[-6.2979198,53.3324457],[-6.2978702,53.3323251],[-6.2978279,53.3321034],[-6.2978049,53.3319054],[-6.2977969,53.3317155],[-6.2977908,53.3315727]]}";1;Herberton Road;2;50;false;false;true;false;false;false;107.5;0;0;0;0;0;false;7439;2100364048;-6.2979679;53.332359;7454;2100364063;-6.2989202;53.3351141;1;12;13;2689302;122 towards Ashington;"";Dublin Bus;122;Drimnagh Road;Ashington
810833309;"{\"type\":\"LineString\",\"coordinates\":[[-6.2985745,53.3337075],[-6.2985825,53.3336068],[-6.2985787,53.3335355],[-6.2985273,53.3334134]]}";2;Herberton Road;3;50;false;false;true;false;false;false;34.0;1;0;0;0;0;false;7439;2100364048;-6.2979679;53.332359;7454;2100364063;-6.2989202;53.3351141;0;12;13;2689302;122 towards Ashington;"";Dublin Bus;122;Drimnagh Road;Ashington
22978769;"{\"type\":\"LineString\",\"coordinates\":[[-6.2985664,53.3338509],[-6.2985745,53.3337075]]}";3;Herberton Road;2;50;false;false;true;false;false;false;17.0;1;0;0;0;0;false;7439;2100364048;-6.2979679;53.332359;7454;2100364063;-6.2989202;53.3351141;0;12;13;2689302;122 towards Ashington;"";Dublin Bus;122;Drimnagh Road;Ashington
230478917;"{\"type\":\"LineString\",\"coordinates\":[[-6.2985424,53.334068],[-6.2985664,53.3338509]]}";4;Herberton Bridge;3;50;false;false;true;false;false;false;25.0;0;0;0;0;0;false;7439;2100364048;-6.2979679;53.332359;7454;2100364063;-6.2989202;53.3351141;0;12;13;2689302;122 towards Ashington;"";Dublin Bus;122;Drimnagh Road;Ashington
4287269;"{\"type\":\"LineString\",\"coordinates\":[[-6.2990672,53.3363055],[-6.2990955,53.3362595],[-6.2991102,53.3361712],[-6.2990674,53.3359664],[-6.2990564,53.3359229],[-6.2989085,53.3353371],[-6.2988438,53.3351421],[-6.2987192,53.3348408],[-6.298673,53.3347492],[-6.2985894,53.3345541],[-6.2985419,53.3344433],[-6.2985213,53.3343135],[-6.2985238,53.3341922],[-6.2985298,53.334152],[-6.2985424,53.334068]]}";5;Herberton Road;2;30;false;false;true;false;false;false;128.0;0;0;0;0;0;false;7439;2100364048;-6.2979679;53.332359;7454;2100364063;-6.2989202;53.3351141;1;12;13;2689302;122 towards Ashington;"";Dublin Bus;122;Drimnagh Road;Ashington
4287269;"{\"type\":\"LineString\",\"coordinates\":[[-6.2990672,53.3363055],[-6.2990955,53.3362595],[-6.2991102,53.3361712],[-6.2990674,53.3359664],[-6.2990564,53.3359229],[-6.2989085,53.3353371],[-6.2988438,53.3351421],[-6.2987192,53.3348408],[-6.298673,53.3347492],[-6.2985894,53.3345541],[-6.2985419,53.3344433],[-6.2985213,53.3343135],[-6.2985238,53.3341922],[-6.2985298,53.334152],[-6.2985424,53.334068]]}";1;Herberton Road;2;30;false;false;true;false;false;false;128.0;0;0;0;0;0;false;7454;2100364063;-6.2989202;53.3351141;1380;1564973282;-6.2959466;53.3356369;1;13;14;2689302;122 towards Ashington;"";Dublin Bus;122;Drimnagh Road;Ashington
200165896;"{\"type\":\"LineString\",\"coordinates\":[[-6.2990672,53.3363055],[-6.2990859,53.3363167],[-6.2991056,53.3363337],[-6.2991179,53.3363506],[-6.2991249,53.3363685],[-6.2991241,53.3363995],[-6.2991136,53.3364213],[-6.2990952,53.3364412],[-6.2990735,53.3364562],[-6.2990473,53.3364683],[-6.2990166,53.3364774],[-6.2989847,53.3364826]]}";2;"";1;50;false;false;true;false;false;false;26.0;0;0;0;0;0;true;7454;2100364063;-6.2989202;53.3351141;1380;1564973282;-6.2959466;53.3356369;0;13;14;2689302;122 towards Ashington;"";Dublin Bus;122;Drimnagh Road;Ashington
4934643;"{\"type\":\"LineString\",\"coordinates\":[[-6.2989847,53.3364826],[-6.2989537,53.3364839],[-6.2989227,53.3364819],[-6.2988834,53.336474],[-6.2988459,53.3364594],[-6.2988206,53.3364432],[-6.2988,53.3364217],[-6.2987888,53.3363979],[-6.2987872,53.3363764],[-6.2987931,53.3363552],[-6.2988044,53.3363377],[-6.2988224,53.3363204]]}";3;"";1;50;false;false;true;false;false;false;28.0;0;0;0;0;0;true;7454;2100364063;-6.2989202;53.3351141;1380;1564973282;-6.2959466;53.3356369;0;13;14;2689302;122 towards Ashington;"";Dublin Bus;122;Drimnagh Road;Ashington
4934645;"{\"type\":\"LineString\",\"coordinates\":[[-6.2988224,53.3363204],[-6.2983894,53.3361702],[-6.2981652,53.3361038],[-6.2979121,53.3360409],[-6.296932,53.335818],[-6.2968327,53.3357944],[-6.2963172,53.3356721],[-6.2962136,53.3356475]]}";4;South Circular Road;1;50;false;false;true;false;false;false;191.0;0;0;0;0;0;false;7454;2100364063;-6.2989202;53.3351141;1380;1564973282;-6.2959466;53.3356369;0;13;14;2689302;122 towards Ashington;"";Dublin Bus;122;Drimnagh Road;Ashington
143226428;"{\"type\":\"LineString\",\"coordinates\":[[-6.2962136,53.3356475],[-6.2961151,53.335624],[-6.2954401,53.3354627],[-6.2947708,53.3353039],[-6.2943659,53.3352134],[-6.2938002,53.3350704],[-6.2936616,53.3350356],[-6.293529,53.3349909],[-6.2934022,53.334929],[-6.2933374,53.3348865],[-6.2931978,53.3347891],[-6.2928422,53.3345441],[-6.2926585,53.3344116]]}";5;South Circular Road;2;50;false;false;true;false;false;false;141.0;0;0;0;0;0;false;7454;2100364063;-6.2989202;53.3351141;1380;1564973282;-6.2959466;53.3356369;1;13;14;2689302;122 towards Ashington;"";Dublin Bus;122;Drimnagh Road;Ashington
4934645;"{\"type\":\"LineString\",\"coordinates\":[[-6.2988224,53.3363204],[-6.2983894,53.3361702],[-6.2981652,53.3361038],[-6.2979121,53.3360409],[-6.296932,53.335818],[-6.2968327,53.3357944],[-6.2963172,53.3356721],[-6.2962136,53.3356475]]}";1;South Circular Road;1;50;false;false;true;false;false;false;191.0;0;0;0;0;0;false;1380;1564973282;-6.2959466;53.3356369;1381;1425903376;-6.293723;53.335106;2;14;15;2689302;122 towards Ashington;"";Dublin Bus;122;Drimnagh Road;Ashington
143226428;"{\"type\":\"LineString\",\"coordinates\":[[-6.2962136,53.3356475],[-6.2961151,53.335624],[-6.2954401,53.3354627],[-6.2947708,53.3353039],[-6.2943659,53.3352134],[-6.2938002,53.3350704],[-6.2936616,53.3350356],[-6.293529,53.3349909],[-6.2934022,53.334929],[-6.2933374,53.3348865],[-6.2931978,53.3347891],[-6.2928422,53.3345441],[-6.2926585,53.3344116]]}";2;South Circular Road;2;50;false;false;true;false;false;false;282.0;0;0;0;0;0;false;1380;1564973282;-6.2959466;53.3356369;1381;1425903376;-6.293723;53.335106;2;14;15;2689302;122 towards Ashington;"";Dublin Bus;122;Drimnagh Road;Ashington
143226428;"{\"type\":\"LineString\",\"coordinates\":[[-6.2962136,53.3356475],[-6.2961151,53.335624],[-6.2954401,53.3354627],[-6.2947708,53.3353039],[-6.2943659,53.3352134],[-6.2938002,53.3350704],[-6.2936616,53.3350356],[-6.293529,53.3349909],[-6.2934022,53.334929],[-6.2933374,53.3348865],[-6.2931978,53.3347891],[-6.2928422,53.3345441],[-6.2926585,53.3344116]]}";1;South Circular Road;2;50;false;false;true;false;false;false;141.0;0;0;0;0;0;false;1381;1425903376;-6.293723;53.335106;1382;1426100433;-6.2906609;53.3331596;1;15;16;2689302;122 towards Ashington;"";Dublin Bus;122;Drimnagh Road;Ashington
563920584;"{\"type\":\"LineString\",\"coordinates\":[[-6.2926585,53.3344116],[-6.2921336,53.3340329],[-6.2917756,53.3337758],[-6.2915765,53.3336328],[-6.2914005,53.3335164]]}";2;South Circular Road;2;50;false;false;true;false;false;false;132.0;1;0;0;0;0;false;1381;1425903376;-6.293723;53.335106;1382;1426100433;-6.2906609;53.3331596;0;15;16;2689302;122 towards Ashington;"";Dublin Bus;122;Drimnagh Road;Ashington
317770299;"{\"type\":\"LineString\",\"coordinates\":[[-6.2913219,53.3334528],[-6.2914005,53.3335164]]}";3;South Circular Road;1;50;false;false;true;false;false;false;9.0;2;0;0;0;0;false;1381;1425903376;-6.293723;53.335106;1382;1426100433;-6.2906609;53.3331596;0;15;16;2689302;122 towards Ashington;"";Dublin Bus;122;Drimnagh Road;Ashington
563920586;"{\"type\":\"LineString\",\"coordinates\":[[-6.2910504,53.3332796],[-6.2910587,53.3332851],[-6.2911734,53.3333621],[-6.2912109,53.333385],[-6.2913219,53.3334528]]}";4;South Circular Road;3;50;false;false;true;false;false;false;27.0;1;0;0;0;0;false;1381;1425903376;-6.293723;53.335106;1382;1426100433;-6.2906609;53.3331596;0;15;16;2689302;122 towards Ashington;"";Dublin Bus;122;Drimnagh Road;Ashington
369214165;"{\"type\":\"LineString\",\"coordinates\":[[-6.286475,53.3321655],[-6.2869247,53.3322802],[-6.2872396,53.3323543],[-6.2875278,53.3323784],[-6.2877538,53.3323784],[-6.2880986,53.3323769],[-6.2886389,53.3323638],[-6.2888384,53.3323667],[-6.2890988,53.3323977],[-6.2891735,53.3324126],[-6.2893062,53.3324507],[-6.2894254,53.3325113],[-6.28975,53.3326653],[-6.2904496,53.3329834],[-6.2910225,53.3332608],[-6.2910504,53.3332796]]}";5;South Circular Road;3;50;false;false;true;false;false;false;173.0;0;0;0;0;0;false;1381;1425903376;-6.293723;53.335106;1382;1426100433;-6.2906609;53.3331596;1;15;16;2689302;122 towards Ashington;"";Dublin Bus;122;Drimnagh Road;Ashington
369214165;"{\"type\":\"LineString\",\"coordinates\":[[-6.286475,53.3321655],[-6.2869247,53.3322802],[-6.2872396,53.3323543],[-6.2875278,53.3323784],[-6.2877538,53.3323784],[-6.2880986,53.3323769],[-6.2886389,53.3323638],[-6.2888384,53.3323667],[-6.2890988,53.3323977],[-6.2891735,53.3324126],[-6.2893062,53.3324507],[-6.2894254,53.3325113],[-6.28975,53.3326653],[-6.2904496,53.3329834],[-6.2910225,53.3332608],[-6.2910504,53.3332796]]}";1;South Circular Road;3;50;false;false;true;false;false;false;173.0;0;0;0;0;0;false;1383;2100364054;-6.2868305;53.3323278;1384;2100364052;-6.2823673;53.331328;1;17;18;2689302;122 towards Ashington;"";Dublin Bus;122;Drimnagh Road;Ashington
71423403;"{\"type\":\"LineString\",\"coordinates\":[[-6.2836477,53.3315146],[-6.2853963,53.3319176],[-6.2858299,53.3320202],[-6.2863017,53.3321265],[-6.2863987,53.3321483],[-6.286475,53.3321655]]}";2;South Circular Road;1;50;false;false;true;false;false;false;204.0;1;0;0;0;0;false;1383;2100364054;-6.2868305;53.3323278;1384;2100364052;-6.2823673;53.331328;0;17;18;2689302;122 towards Ashington;"";Dublin Bus;122;Drimnagh Road;Ashington
125873172;"{\"type\":\"LineString\",\"coordinates\":[[-6.2769454,53.3319581],[-6.2772139,53.3319048],[-6.2778384,53.3317808],[-6.2780595,53.3317345],[-6.2781613,53.3317138],[-6.278747,53.3315954],[-6.2793777,53.3314242],[-6.2795509,53.3313822],[-6.2795834,53.3313735],[-6.2802636,53.3311921],[-6.2804849,53.3311331],[-6.2807355,53.3310857],[-6.2807639,53.3310803],[-6.2808125,53.3310711],[-6.2809981,53.331064],[-6.2811288,53.3310709],[-6.2811751,53.3310753],[-6.2815935,53.3311409],[-6.2823145,53.3312727],[-6.2826819,53.3313393],[-6.2836477,53.3315146]]}";3;South Circular Road;1;50;false;false;true;false;false;false;238.0;1;1;0;0;0;false;1383;2100364054;-6.2868305;53.3323278;1384;2100364052;-6.2823673;53.331328;1;17;18;2689302;122 towards Ashington;"";Dublin Bus;122;Drimnagh Road;Ashington
125873172;"{\"type\":\"LineString\",\"coordinates\":[[-6.2769454,53.3319581],[-6.2772139,53.3319048],[-6.2778384,53.3317808],[-6.2780595,53.3317345],[-6.2781613,53.3317138],[-6.278747,53.3315954],[-6.2793777,53.3314242],[-6.2795509,53.3313822],[-6.2795834,53.3313735],[-6.2802636,53.3311921],[-6.2804849,53.3311331],[-6.2807355,53.3310857],[-6.2807639,53.3310803],[-6.2808125,53.3310711],[-6.2809981,53.331064],[-6.2811288,53.3310709],[-6.2811751,53.3310753],[-6.2815935,53.3311409],[-6.2823145,53.3312727],[-6.2826819,53.3313393],[-6.2836477,53.3315146]]}";1;South Circular Road;1;50;false;false;true;false;false;false;238.0;1;1;0;0;0;false;1385;2100364057;-6.2783273;53.3317413;1348;2100364043;-6.273821;53.332246;1;19;20;2689302;122 towards Ashington;"";Dublin Bus;122;Drimnagh Road;Ashington
563920582;"{\"type\":\"LineString\",\"coordinates\":[[-6.2764744,53.3320585],[-6.2769454,53.3319581]]}";2;South Circular Road;3;50;false;false;true;false;false;false;34.0;0;0;0;0;0;false;1385;2100364057;-6.2783273;53.3317413;1348;2100364043;-6.273821;53.332246;0;19;20;2689302;122 towards Ashington;"";Dublin Bus;122;Drimnagh Road;Ashington
384312816;"{\"type\":\"LineString\",\"coordinates\":[[-6.2752072,53.3322379],[-6.2754474,53.3322425],[-6.2755812,53.332234],[-6.2757368,53.3322166],[-6.275883,53.3321924],[-6.276247,53.3321086],[-6.2763443,53.3320862],[-6.2764744,53.3320585]]}";3;South Circular Road;3;50;false;false;true;false;false;false;89.0;1;0;0;0;0;false;1385;2100364057;-6.2783273;53.3317413;1348;2100364043;-6.273821;53.332246;0;19;20;2689302;122 towards Ashington;"";Dublin Bus;122;Drimnagh Road;Ashington
125880830;"{\"type\":\"LineString\",\"coordinates\":[[-6.2752072,53.3322379],[-6.27495,53.3322249],[-6.2744433,53.3322168],[-6.2740977,53.3322063],[-6.2735176,53.3321888],[-6.2731122,53.3321774],[-6.2727381,53.3321693],[-6.2725171,53.3321769],[-6.2723687,53.332189],[-6.2718749,53.3322706],[-6.2715556,53.3323125],[-6.2714873,53.3323153],[-6.2713642,53.3323192],[-6.2707838,53.3323485],[-6.2701656,53.3323797],[-6.2693166,53.3324192],[-6.2691412,53.3324302],[-6.2684089,53.3324609],[-6.2683155,53.332465]]}";4;South Circular Road;3;50;false;false;true;false;false;false;232.5;2;1;0;0;0;false;1385;2100364057;-6.2783273;53.3317413;1348;2100364043;-6.273821;53.332246;1;19;20;2689302;122 towards Ashington;"";Dublin Bus;122;Drimnagh Road;Ashington
125880830;"{\"type\":\"LineString\",\"coordinates\":[[-6.2752072,53.3322379],[-6.27495,53.3322249],[-6.2744433,53.3322168],[-6.2740977,53.3322063],[-6.2735176,53.3321888],[-6.2731122,53.3321774],[-6.2727381,53.3321693],[-6.2725171,53.3321769],[-6.2723687,53.332189],[-6.2718749,53.3322706],[-6.2715556,53.3323125],[-6.2714873,53.3323153],[-6.2713642,53.3323192],[-6.2707838,53.3323485],[-6.2701656,53.3323797],[-6.2693166,53.3324192],[-6.2691412,53.3324302],[-6.2684089,53.3324609],[-6.2683155,53.332465]]}";1;South Circular Road;3;50;false;false;true;false;false;false;232.5;2;1;0;0;0;false;1349;2100364042;-6.2707255;53.3323938;1350;2100364056;-6.2676688;53.3325646;1;21;22;2689302;122 towards Ashington;"";Dublin Bus;122;Drimnagh Road;Ashington
13894939;"{\"type\":\"LineString\",\"coordinates\":[[-6.2683155,53.332465],[-6.2682239,53.3324692],[-6.2669018,53.3325296],[-6.2658402,53.332568],[-6.265612,53.3325764],[-6.265012,53.3325927],[-6.2648597,53.3325969]]}";2;Harrington Street;4;50;false;false;true;false;false;false;116.5;2;0;0;0;0;false;1349;2100364042;-6.2707255;53.3323938;1350;2100364056;-6.2676688;53.3325646;1;21;22;2689302;122 towards Ashington;"";Dublin Bus;122;Drimnagh Road;Ashington
13894939;"{\"type\":\"LineString\",\"coordinates\":[[-6.2683155,53.332465],[-6.2682239,53.3324692],[-6.2669018,53.3325296],[-6.2658402,53.332568],[-6.265612,53.3325764],[-6.265012,53.3325927],[-6.2648597,53.3325969]]}";1;Harrington Street;4;50;false;false;true;false;false;false;116.5;2;0;0;0;0;false;1350;2100364056;-6.2676688;53.3325646;1352;2100364055;-6.2653928;53.3344426;1;22;23;2689302;122 towards Ashington;"";Dublin Bus;122;Drimnagh Road;Ashington
4628793;"{\"type\":\"LineString\",\"coordinates\":[[-6.2648597,53.3325969],[-6.2651057,53.3335086]]}";2;Camden Street Upper;3;30;false;true;true;false;false;false;104.0;2;0;0;0;0;false;1350;2100364056;-6.2676688;53.3325646;1352;2100364055;-6.2653928;53.3344426;0;22;23;2689302;122 towards Ashington;"";Dublin Bus;122;Drimnagh Road;Ashington
59416356;"{\"type\":\"LineString\",\"coordinates\":[[-6.2651057,53.3335086],[-6.265206,53.3338135],[-6.2651742,53.333871]]}";3;Camden Street Lower;1;30;false;true;true;false;false;false;42.0;1;0;0;0;0;false;1350;2100364056;-6.2676688;53.3325646;1352;2100364055;-6.2653928;53.3344426;0;22;23;2689302;122 towards Ashington;"";Dublin Bus;122;Drimnagh Road;Ashington
75741007;"{\"type\":\"LineString\",\"coordinates\":[[-6.2652779,53.3341412],[-6.2652722,53.3340684],[-6.2652571,53.3340264],[-6.2651742,53.333871]]}";4;Camden Street Lower;3;30;false;false;true;false;false;false;32.0;0;0;0;0;0;false;1350;2100364056;-6.2676688;53.3325646;1352;2100364055;-6.2653928;53.3344426;0;22;23;2689302;122 towards Ashington;"";Dublin Bus;122;Drimnagh Road;Ashington
4628792;"{\"type\":\"LineString\",\"coordinates\":[[-6.2652056,53.3354833],[-6.2652279,53.3352373],[-6.2652338,53.3351251],[-6.2652546,53.3347258],[-6.26526,53.3346632],[-6.2652617,53.3346431],[-6.2652787,53.3342509],[-6.2652778,53.3341951],[-6.2652779,53.3341412]]}";5;Camden Street Lower;4;30;false;false;true;false;false;false;75.5;0;1;0;0;0;false;1350;2100364056;-6.2676688;53.3325646;1352;2100364055;-6.2653928;53.3344426;1;22;23;2689302;122 towards Ashington;"";Dublin Bus;122;Drimnagh Road;Ashington
4628792;"{\"type\":\"LineString\",\"coordinates\":[[-6.2652056,53.3354833],[-6.2652279,53.3352373],[-6.2652338,53.3351251],[-6.2652546,53.3347258],[-6.26526,53.3346632],[-6.2652617,53.3346431],[-6.2652787,53.3342509],[-6.2652778,53.3341951],[-6.2652779,53.3341412]]}";1;Camden Street Lower;4;30;false;false;true;false;false;false;75.5;0;1;0;0;0;false;1352;2100364055;-6.2653928;53.3344426;1353;651796946;-6.2654234;53.3360593;1;23;24;2689302;122 towards Ashington;"";Dublin Bus;122;Drimnagh Road;Ashington
77616869;"{\"type\":\"LineString\",\"coordinates\":[[-6.2654495,53.3364281],[-6.2653561,53.336168],[-6.265339,53.3361203],[-6.265207,53.3356182],[-6.2652064,53.3355641],[-6.2652062,53.3355438],[-6.2652056,53.3354833]]}";2;Camden Street Lower;3;30;false;false;true;false;false;false;54.0;0;1;0;0;0;false;1352;2100364055;-6.2653928;53.3344426;1353;651796946;-6.2654234;53.3360593;1;23;24;2689302;122 towards Ashington;"";Dublin Bus;122;Drimnagh Road;Ashington
77616869;"{\"type\":\"LineString\",\"coordinates\":[[-6.2654495,53.3364281],[-6.2653561,53.336168],[-6.265339,53.3361203],[-6.265207,53.3356182],[-6.2652064,53.3355641],[-6.2652062,53.3355438],[-6.2652056,53.3354833]]}";1;Camden Street Lower;3;30;false;false;true;false;false;false;54.0;0;1;0;0;0;false;1353;651796946;-6.2654234;53.3360593;1354;2100364064;-6.2660801;53.3389819;1;24;25;2689302;122 towards Ashington;"";Dublin Bus;122;Drimnagh Road;Ashington
532427445;"{\"type\":\"LineString\",\"coordinates\":[[-6.2657367,53.3374278],[-6.2656096,53.3369777],[-6.2655083,53.3366034],[-6.2654495,53.3364281]]}";2;Wexford Street;2;30;false;false;true;false;false;false;114.0;0;0;0;0;0;false;1353;651796946;-6.2654234;53.3360593;1354;2100364064;-6.2660801;53.3389819;0;24;25;2689302;122 towards Ashington;"";Dublin Bus;122;Drimnagh Road;Ashington
5826349;"{\"type\":\"LineString\",\"coordinates\":[[-6.2657971,53.3376138],[-6.2657367,53.3374278]]}";3;Wexford Street;2;30;false;false;true;false;false;false;22.0;1;0;0;0;0;false;1353;651796946;-6.2654234;53.3360593;1354;2100364064;-6.2660801;53.3389819;0;24;25;2689302;122 towards Ashington;"";Dublin Bus;122;Drimnagh Road;Ashington
5976022;"{\"type\":\"LineString\",\"coordinates\":[[-6.2657971,53.3376138],[-6.2658551,53.3377832]]}";4;Redmonds Hill;3;30;false;false;true;false;false;false;20.0;1;0;0;0;0;false;1353;651796946;-6.2654234;53.3360593;1354;2100364064;-6.2660801;53.3389819;0;24;25;2689302;122 towards Ashington;"";Dublin Bus;122;Drimnagh Road;Ashington
341583777;"{\"type\":\"LineString\",\"coordinates\":[[-6.2658551,53.3377832],[-6.265943,53.3380251],[-6.2660752,53.3383892]]}";5;Redmonds Hill;3;30;false;false;true;false;false;false;70.0;0;0;0;0;0;false;1353;651796946;-6.2654234;53.3360593;1354;2100364064;-6.2660801;53.3389819;0;24;25;2689302;122 towards Ashington;"";Dublin Bus;122;Drimnagh Road;Ashington
3791744;"{\"type\":\"LineString\",\"coordinates\":[[-6.2660752,53.3383892],[-6.2660989,53.3384454],[-6.2661022,53.338532]]}";6;Aungier Street;3;30;false;false;true;false;false;false;17.0;0;0;0;0;0;false;1353;651796946;-6.2654234;53.3360593;1354;2100364064;-6.2660801;53.3389819;0;24;25;2689302;122 towards Ashington;"";Dublin Bus;122;Drimnagh Road;Ashington
532427444;"{\"type\":\"LineString\",\"coordinates\":[[-6.2661022,53.338532],[-6.2659588,53.3391577],[-6.2659077,53.3393903],[-6.2658639,53.3395894],[-6.2658319,53.3397359],[-6.2657997,53.3398737],[-6.2657421,53.3401448],[-6.2656749,53.3404613],[-6.2656141,53.3406712]]}";7;Aungier Street;3;30;false;false;false;false;false;false;121.0;3;0;0;0;0;false;1353;651796946;-6.2654234;53.3360593;1354;2100364064;-6.2660801;53.3389819;1;24;25;2689302;122 towards Ashington;"";Dublin Bus;122;Drimnagh Road;Ashington
532427444;"{\"type\":\"LineString\",\"coordinates\":[[-6.2661022,53.338532],[-6.2659588,53.3391577],[-6.2659077,53.3393903],[-6.2658639,53.3395894],[-6.2658319,53.3397359],[-6.2657997,53.3398737],[-6.2657421,53.3401448],[-6.2656749,53.3404613],[-6.2656141,53.3406712]]}";1;Aungier Street;3;30;false;false;false;false;false;false;121.0;3;0;0;0;0;false;1355;2100364059;-6.265887;53.3399539;1357;641807768;-6.2646066;53.3425971;1;26;27;2689302;122 towards Ashington;"";Dublin Bus;122;Drimnagh Road;Ashington
554991019;"{\"type\":\"LineString\",\"coordinates\":[[-6.2656141,53.3406712],[-6.265404,53.3414662]]}";2;Aungier Street;2;30;false;false;false;false;false;false;91.0;2;0;0;0;0;false;1355;2100364059;-6.265887;53.3399539;1357;641807768;-6.2646066;53.3425971;0;26;27;2689302;122 towards Ashington;"";Dublin Bus;122;Drimnagh Road;Ashington
5826896;"{\"type\":\"LineString\",\"coordinates\":[[-6.265404,53.3414662],[-6.2653785,53.3415003],[-6.2651756,53.3416728],[-6.2647743,53.3420481],[-6.2646944,53.3421317],[-6.2646287,53.3422258],[-6.2645738,53.342338],[-6.2645185,53.3424536]]}";3;South Great George's Street;3;30;false;false;true;false;false;false;127.0;1;0;0;0;0;false;1355;2100364059;-6.265887;53.3399539;1357;641807768;-6.2646066;53.3425971;0;26;27;2689302;122 towards Ashington;"";Dublin Bus;122;Drimnagh Road;Ashington
369564011;"{\"type\":\"LineString\",\"coordinates\":[[-6.2645185,53.3424536],[-6.26447,53.3425848],[-6.2644369,53.3427788],[-6.2644216,53.3429968]]}";4;South Great George's Street;3;30;false;false;true;false;false;false;31.0;0;0;0;0;0;false;1355;2100364059;-6.265887;53.3399539;1357;641807768;-6.2646066;53.3425971;1;26;27;2689302;122 towards Ashington;"";Dublin Bus;122;Drimnagh Road;Ashington
5826896;"{\"type\":\"LineString\",\"coordinates\":[[-6.265404,53.3414662],[-6.2653785,53.3415003],[-6.2651756,53.3416728],[-6.2647743,53.3420481],[-6.2646944,53.3421317],[-6.2646287,53.3422258],[-6.2645738,53.342338],[-6.2645185,53.3424536]]}";1;South Great George's Street;3;30;false;false;true;false;false;false;127.0;1;0;0;0;0;false;1357;641807768;-6.2646066;53.3425971;1359;2100364053;-6.2612889;53.344434;2;27;28;2689302;122 towards Ashington;"";Dublin Bus;122;Drimnagh Road;Ashington
369564011;"{\"type\":\"LineString\",\"coordinates\":[[-6.2645185,53.3424536],[-6.26447,53.3425848],[-6.2644369,53.3427788],[-6.2644216,53.3429968]]}";2;South Great George's Street;3;30;false;false;true;false;false;false;62.0;0;0;0;0;0;false;1357;641807768;-6.2646066;53.3425971;1359;2100364053;-6.2612889;53.344434;0;27;28;2689302;122 towards Ashington;"";Dublin Bus;122;Drimnagh Road;Ashington
317003249;"{\"type\":\"LineString\",\"coordinates\":[[-6.2644216,53.3429968],[-6.264419,53.3430446],[-6.2644192,53.3430603],[-6.2644271,53.3435595],[-6.26444,53.3438399],[-6.2644509,53.3441775]]}";3;South Great George's Street;3;30;false;false;true;false;false;false;133.0;1;1;0;0;0;false;1357;641807768;-6.2646066;53.3425971;1359;2100364053;-6.2612889;53.344434;0;27;28;2689302;122 towards Ashington;"";Dublin Bus;122;Drimnagh Road;Ashington
3791745;"{\"type\":\"LineString\",\"coordinates\":[[-6.2644509,53.3441775],[-6.2642788,53.3441799],[-6.26387,53.3441912],[-6.263792,53.3441935],[-6.2633394,53.3442105],[-6.2626055,53.34424],[-6.2624409,53.344246]]}";4;Dame Street;4;30;false;false;true;false;false;false;135.0;1;0;0;0;0;false;1357;641807768;-6.2646066;53.3425971;1359;2100364053;-6.2612889;53.344434;0;27;28;2689302;122 towards Ashington;"";Dublin Bus;122;Drimnagh Road;Ashington
304634278;"{\"type\":\"LineString\",\"coordinates\":[[-6.2624409,53.344246],[-6.2621664,53.3442638],[-6.2618465,53.3442846]]}";5;College Green;4;30;false;false;true;false;false;false;41.0;0;1;0;0;0;false;1357;641807768;-6.2646066;53.3425971;1359;2100364053;-6.2612889;53.344434;0;27;28;2689302;122 towards Ashington;"";Dublin Bus;122;Drimnagh Road;Ashington
4476043;"{\"type\":\"LineString\",\"coordinates\":[[-6.2618465,53.3442846],[-6.2613411,53.3443634],[-6.2611187,53.3443923],[-6.2609368,53.344416],[-6.260868,53.3444237]]}";6;College Green;2;30;false;true;true;false;false;false;68.0;0;1;0;0;0;false;1357;641807768;-6.2646066;53.3425971;1359;2100364053;-6.2612889;53.344434;2;27;28;2689302;122 towards Ashington;"";Dublin Bus;122;Drimnagh Road;Ashington
4476043;"{\"type\":\"LineString\",\"coordinates\":[[-6.2618465,53.3442846],[-6.2613411,53.3443634],[-6.2611187,53.3443923],[-6.2609368,53.344416],[-6.260868,53.3444237]]}";1;College Green;2;30;false;true;true;false;false;false;34.0;0;1;0;0;0;false;1359;2100364053;-6.2612889;53.344434;3;990299068;-6.2639063;53.3523483;1;28;29;2689302;122 towards Ashington;"";Dublin Bus;122;Drimnagh Road;Ashington
4476041;"{\"type\":\"LineString\",\"coordinates\":[[-6.260868,53.3444237],[-6.2602695,53.3444626],[-6.260186,53.3444694],[-6.2600844,53.3444774],[-6.259977,53.3444838]]}";2;College Green;2;30;false;true;true;false;false;false;61.0;0;0;0;0;0;false;1359;2100364053;-6.2612889;53.344434;3;990299068;-6.2639063;53.3523483;0;28;29;2689302;122 towards Ashington;"";Dublin Bus;122;Drimnagh Road;Ashington
55979303;"{\"type\":\"LineString\",\"coordinates\":[[-6.259977,53.3444838],[-6.259922,53.3444923],[-6.2597771,53.3445198],[-6.259706,53.3445363],[-6.2596846,53.3445428],[-6.2595472,53.344589]]}";3;College Green;1;30;false;true;true;false;false;false;32.0;1;1;0;0;0;false;1359;2100364053;-6.2612889;53.344434;3;990299068;-6.2639063;53.3523483;0;28;29;2689302;122 towards Ashington;"";Dublin Bus;122;Drimnagh Road;Ashington
68747753;"{\"type\":\"LineString\",\"coordinates\":[[-6.2595472,53.344589],[-6.2595095,53.3446074],[-6.2593771,53.344684]]}";4;College Green;1;30;false;true;true;false;false;false;16.0;0;0;0;0;0;false;1359;2100364053;-6.2612889;53.344434;3;990299068;-6.2639063;53.3523483;0;28;29;2689302;122 towards Ashington;"";Dublin Bus;122;Drimnagh Road;Ashington
4475677;"{\"type\":\"LineString\",\"coordinates\":[[-6.2593771,53.344684],[-6.2592915,53.3447707],[-6.259227,53.3448434]]}";5;College Green;3;30;false;false;true;false;false;false;21.0;0;0;0;0;0;false;1359;2100364053;-6.2612889;53.344434;3;990299068;-6.2639063;53.3523483;0;28;29;2689302;122 towards Ashington;"";Dublin Bus;122;Drimnagh Road;Ashington
24953749;"{\"type\":\"LineString\",\"coordinates\":[[-6.259227,53.3448434],[-6.2591901,53.3449181],[-6.2591764,53.3449632],[-6.2591547,53.3450569],[-6.2591382,53.3452495],[-6.2591475,53.3453253]]}";6;Westmoreland Street;1;30;false;true;true;false;false;false;55.0;1;1;0;0;0;false;1359;2100364053;-6.2612889;53.344434;3;990299068;-6.2639063;53.3523483;0;28;29;2689302;122 towards Ashington;"";Dublin Bus;122;Drimnagh Road;Ashington
488735970;"{\"type\":\"LineString\",\"coordinates\":[[-6.2591475,53.3453253],[-6.2591428,53.3456406],[-6.2591418,53.3456882]]}";7;Westmoreland Street;3;30;false;true;true;false;false;false;41.0;1;0;0;0;0;false;1359;2100364053;-6.2612889;53.344434;3;990299068;-6.2639063;53.3523483;0;28;29;2689302;122 towards Ashington;"";Dublin Bus;122;Drimnagh Road;Ashington
675882488;"{\"type\":\"LineString\",\"coordinates\":[[-6.2591418,53.3456882],[-6.2591395,53.3458327],[-6.2591388,53.3458795],[-6.2591385,53.3458965],[-6.2591326,53.3462654],[-6.2591279,53.3465631],[-6.2591207,53.3468036]]}";8;Westmoreland Street;3;30;false;true;true;false;false;false;125.0;0;2;0;0;0;false;1359;2100364053;-6.2612889;53.344434;3;990299068;-6.2639063;53.3523483;0;28;29;2689302;122 towards Ashington;"";Dublin Bus;122;Drimnagh Road;Ashington
488735972;"{\"type\":\"LineString\",\"coordinates\":[[-6.2591207,53.3468036],[-6.25911,53.3469351]]}";9;Westmoreland Street;3;30;false;true;true;false;false;false;15.0;1;1;0;0;0;false;1359;2100364053;-6.2612889;53.344434;3;990299068;-6.2639063;53.3523483;0;28;29;2689302;122 towards Ashington;"";Dublin Bus;122;Drimnagh Road;Ashington
23920340;"{\"type\":\"LineString\",\"coordinates\":[[-6.25911,53.3469351],[-6.2591077,53.3469658],[-6.259105,53.3469963],[-6.2591073,53.3470255],[-6.2591091,53.3470394]]}";10;O'Connell Bridge;4;30;false;true;true;false;false;false;12.0;1;0;0;0;0;false;1359;2100364053;-6.2612889;53.344434;3;990299068;-6.2639063;53.3523483;0;28;29;2689302;122 towards Ashington;"";Dublin Bus;122;Drimnagh Road;Ashington
585256046;"{\"type\":\"LineString\",\"coordinates\":[[-6.2591091,53.3470394],[-6.2591165,53.3470523],[-6.2593219,53.3474353],[-6.2593277,53.3474463]]}";11;O'Connell Bridge;4;30;false;true;true;false;false;false;48.0;0;0;0;0;0;false;1359;2100364053;-6.2612889;53.344434;3;990299068;-6.2639063;53.3523483;0;28;29;2689302;122 towards Ashington;"";Dublin Bus;122;Drimnagh Road;Ashington
585256047;"{\"type\":\"LineString\",\"coordinates\":[[-6.2593277,53.3474463],[-6.2593376,53.3474646],[-6.2593486,53.3474852],[-6.2593766,53.3475251]]}";12;O'Connell Bridge;2;30;false;true;true;false;false;false;10.0;0;0;0;0;0;false;1359;2100364053;-6.2612889;53.344434;3;990299068;-6.2639063;53.3523483;0;28;29;2689302;122 towards Ashington;"";Dublin Bus;122;Drimnagh Road;Ashington
3787955;"{\"type\":\"LineString\",\"coordinates\":[[-6.2593766,53.3475251],[-6.2593801,53.3475295],[-6.2594042,53.3475593],[-6.2594233,53.3475893],[-6.2594395,53.3476239],[-6.2597249,53.3482664],[-6.259742,53.3483049],[-6.2597517,53.3483267]]}";13;O'Connell Street Lower;2;30;false;true;true;false;false;false;94.0;1;0;0;0;0;false;1359;2100364053;-6.2612889;53.344434;3;990299068;-6.2639063;53.3523483;0;28;29;2689302;122 towards Ashington;"";Dublin Bus;122;Drimnagh Road;Ashington
677070806;"{\"type\":\"LineString\",\"coordinates\":[[-6.2597517,53.3483267],[-6.2597617,53.3483492],[-6.2597681,53.3483651]]}";14;O'Connell Street Lower;2;30;false;true;true;false;false;false;5.0;1;0;0;0;0;false;1359;2100364053;-6.2612889;53.344434;3;990299068;-6.2639063;53.3523483;0;28;29;2689302;122 towards Ashington;"";Dublin Bus;122;Drimnagh Road;Ashington
677070805;"{\"type\":\"LineString\",\"coordinates\":[[-6.2597681,53.3483651],[-6.259775,53.348382],[-6.259809,53.3484632],[-6.2599261,53.3487403],[-6.2600339,53.3489711],[-6.2600878,53.3490864],[-6.2603971,53.3497845]]}";15;O'Connell Street Lower;2;30;false;true;true;false;false;false;165.0;1;0;0;0;0;false;1359;2100364053;-6.2612889;53.344434;3;990299068;-6.2639063;53.3523483;0;28;29;2689302;122 towards Ashington;"";Dublin Bus;122;Drimnagh Road;Ashington
3788404;"{\"type\":\"LineString\",\"coordinates\":[[-6.2603971,53.3497845],[-6.2609869,53.3511305],[-6.2610745,53.3513358],[-6.2612061,53.3516442],[-6.2612743,53.3518042],[-6.2613575,53.3519992]]}";16;O'Connell Street Upper;2;30;false;true;true;false;false;false;257.0;1;0;0;0;0;false;1359;2100364053;-6.2612889;53.344434;3;990299068;-6.2639063;53.3523483;0;28;29;2689302;122 towards Ashington;"";Dublin Bus;122;Drimnagh Road;Ashington
192108786;"{\"type\":\"LineString\",\"coordinates\":[[-6.2613575,53.3519992],[-6.261362,53.3520103],[-6.2614983,53.3523542],[-6.2615297,53.3523922],[-6.2615818,53.3524269],[-6.261666,53.3524482],[-6.2617636,53.3524486]]}";17;O'Connell Street Upper;2;30;false;true;true;false;false;false;64.0;1;1;0;0;0;false;1359;2100364053;-6.2612889;53.344434;3;990299068;-6.2639063;53.3523483;0;28;29;2689302;122 towards Ashington;"";Dublin Bus;122;Drimnagh Road;Ashington
12341238;"{\"type\":\"LineString\",\"coordinates\":[[-6.2617636,53.3524486],[-6.2618767,53.3524043],[-6.2620021,53.3523465],[-6.2624708,53.3521121],[-6.2625064,53.3520943]]}";18;Parnell Street;2;30;false;true;false;false;false;false;64.0;0;0;0;0;0;false;1359;2100364053;-6.2612889;53.344434;3;990299068;-6.2639063;53.3523483;0;28;29;2689302;122 towards Ashington;"";Dublin Bus;122;Drimnagh Road;Ashington
369897005;"{\"type\":\"LineString\",\"coordinates\":[[-6.2625064,53.3520943],[-6.2626864,53.352007],[-6.2628858,53.351891]]}";19;Parnell Street;2;30;false;true;false;false;false;false;35.0;1;0;0;0;0;false;1359;2100364053;-6.2612889;53.344434;3;990299068;-6.2639063;53.3523483;0;28;29;2689302;122 towards Ashington;"";Dublin Bus;122;Drimnagh Road;Ashington
338075835;"{\"type\":\"LineString\",\"coordinates\":[[-6.2628858,53.351891],[-6.2629427,53.3518981],[-6.2630004,53.3519107],[-6.2632209,53.3519877],[-6.2637305,53.3523202],[-6.2639236,53.3524484],[-6.2645024,53.3528582],[-6.2647464,53.3530256],[-6.2653742,53.3534686],[-6.2655305,53.3535789]]}";20;Parnell Square West;3;30;false;true;true;false;false;false;131.0;1;0;0;0;0;false;1359;2100364053;-6.2612889;53.344434;3;990299068;-6.2639063;53.3523483;1;28;29;2689302;122 towards Ashington;"";Dublin Bus;122;Drimnagh Road;Ashington
338075835;"{\"type\":\"LineString\",\"coordinates\":[[-6.2628858,53.351891],[-6.2629427,53.3518981],[-6.2630004,53.3519107],[-6.2632209,53.3519877],[-6.2637305,53.3523202],[-6.2639236,53.3524484],[-6.2645024,53.3528582],[-6.2647464,53.3530256],[-6.2653742,53.3534686],[-6.2655305,53.3535789]]}";1;Parnell Square West;3;30;false;true;true;false;false;false;131.0;1;0;0;0;0;false;3;990299068;-6.2639063;53.3523483;11;659803429;-6.2646693;53.3568074;1;29;30;2689302;122 towards Ashington;"";Dublin Bus;122;Drimnagh Road;Ashington
4395627;"{\"type\":\"LineString\",\"coordinates\":[[-6.2655305,53.3535789],[-6.2656352,53.3536458],[-6.265917,53.3538217],[-6.266042,53.3538892],[-6.2669387,53.3541976]]}";2;Granby Row;3;30;false;true;true;false;false;false;119.0;1;1;0;0;0;false;3;990299068;-6.2639063;53.3523483;11;659803429;-6.2646693;53.3568074;0;29;30;2689302;122 towards Ashington;"";Dublin Bus;122;Drimnagh Road;Ashington
150800558;"{\"type\":\"LineString\",\"coordinates\":[[-6.2656877,53.3555167],[-6.2658702,53.3552989],[-6.2661315,53.3550087],[-6.2663897,53.3547316],[-6.2665247,53.3546003],[-6.2669387,53.3541976]]}";3;Dorset Street Upper;1;50;false;false;true;false;false;false;170.0;1;0;0;0;0;false;3;990299068;-6.2639063;53.3523483;11;659803429;-6.2646693;53.3568074;0;29;30;2689302;122 towards Ashington;"";Dublin Bus;122;Drimnagh Road;Ashington
37692306;"{\"type\":\"LineString\",\"coordinates\":[[-6.26526,53.3560174],[-6.2653344,53.3559153],[-6.2656877,53.3555167]]}";4;Dorset Street Upper;1;50;false;false;true;false;false;false;64.0;1;0;0;0;0;false;3;990299068;-6.2639063;53.3523483;11;659803429;-6.2646693;53.3568074;0;29;30;2689302;122 towards Ashington;"";Dublin Bus;122;Drimnagh Road;Ashington
150800557;"{\"type\":\"LineString\",\"coordinates\":[[-6.264688,53.3566296],[-6.2651532,53.3561317],[-6.26526,53.3560174]]}";5;Dorset Street Upper;4;50;false;false;true;false;false;false;79.0;1;1;0;0;0;false;3;990299068;-6.2639063;53.3523483;11;659803429;-6.2646693;53.3568074;0;29;30;2689302;122 towards Ashington;"";Dublin Bus;122;Drimnagh Road;Ashington
384401180;"{\"type\":\"LineString\",\"coordinates\":[[-6.2644595,53.3568653],[-6.2645466,53.3567755],[-6.2645656,53.3567559],[-6.264688,53.3566296]]}";6;Dorset Street Upper;4;50;false;false;true;false;false;false;15.5;0;0;0;0;0;false;3;990299068;-6.2639063;53.3523483;11;659803429;-6.2646693;53.3568074;1;29;30;2689302;122 towards Ashington;"";Dublin Bus;122;Drimnagh Road;Ashington
37747137;"{\"type\":\"LineString\",\"coordinates\":[[-6.2639758,53.3573649],[-6.2641277,53.3572046],[-6.2642936,53.357035],[-6.2644595,53.3568653]]}";1;Dorset Street Upper;4;50;false;false;true;false;false;false;65.0;0;0;0;0;0;false;11;659803429;-6.2646693;53.3568074;14;1399327259;-6.2627738;53.3585094;2;30;31;2689302;122 towards Ashington;"";Dublin Bus;122;Drimnagh Road;Ashington
37747498;"{\"type\":\"LineString\",\"coordinates\":[[-6.2639758,53.3573649],[-6.2639091,53.3575103]]}";2;Dorset Street Upper;2;50;false;true;true;false;false;false;17.0;1;0;0;0;0;false;11;659803429;-6.2646693;53.3568074;14;1399327259;-6.2627738;53.3585094;0;30;31;2689302;122 towards Ashington;"";Dublin Bus;122;Drimnagh Road;Ashington
4385874;"{\"type\":\"LineString\",\"coordinates\":[[-6.2639091,53.3575103],[-6.2632318,53.3580527],[-6.2627403,53.3584509],[-6.2620421,53.359035]]}";3;Dorset Street Lower;2;50;false;true;true;false;false;false;212.0;2;0;0;0;0;false;11;659803429;-6.2646693;53.3568074;14;1399327259;-6.2627738;53.3585094;2;30;31;2689302;122 towards Ashington;"";Dublin Bus;122;Drimnagh Road;Ashington
4385874;"{\"type\":\"LineString\",\"coordinates\":[[-6.2639091,53.3575103],[-6.2632318,53.3580527],[-6.2627403,53.3584509],[-6.2620421,53.359035]]}";1;Dorset Street Lower;2;50;false;true;true;false;false;false;106.0;2;0;0;0;0;false;14;1399327259;-6.2627738;53.3585094;53;2101305584;-6.2628514;53.3599448;1;31;32;2689302;122 towards Ashington;"";Dublin Bus;122;Drimnagh Road;Ashington
37747728;"{\"type\":\"LineString\",\"coordinates\":[[-6.2620421,53.359035],[-6.261748,53.3593341],[-6.2613238,53.359764]]}";2;Dorset Street Lower;3;50;false;true;true;false;false;false;95.0;2;0;0;0;0;false;14;1399327259;-6.2627738;53.3585094;53;2101305584;-6.2628514;53.3599448;0;31;32;2689302;122 towards Ashington;"";Dublin Bus;122;Drimnagh Road;Ashington
4395933;"{\"type\":\"LineString\",\"coordinates\":[[-6.2654744,53.3602481],[-6.2654214,53.3602438],[-6.2651881,53.3602249],[-6.2650516,53.3602135],[-6.2646298,53.3601784],[-6.2644492,53.3601634],[-6.264154,53.3601388],[-6.2640631,53.3601312],[-6.2634834,53.3600847],[-6.2629869,53.3600371],[-6.2619921,53.3599148],[-6.2616123,53.3598473],[-6.2613238,53.359764]]}";3;North Circular Road;2;50;false;false;true;false;false;false;142.5;1;0;0;0;0;false;14;1399327259;-6.2627738;53.3585094;53;2101305584;-6.2628514;53.3599448;1;31;32;2689302;122 towards Ashington;"";Dublin Bus;122;Drimnagh Road;Ashington
4395933;"{\"type\":\"LineString\",\"coordinates\":[[-6.2654744,53.3602481],[-6.2654214,53.3602438],[-6.2651881,53.3602249],[-6.2650516,53.3602135],[-6.2646298,53.3601784],[-6.2644492,53.3601634],[-6.264154,53.3601388],[-6.2640631,53.3601312],[-6.2634834,53.3600847],[-6.2629869,53.3600371],[-6.2619921,53.3599148],[-6.2616123,53.3598473],[-6.2613238,53.359764]]}";1;North Circular Road;2;50;false;false;true;false;false;false;142.5;1;0;0;0;0;false;53;2101305584;-6.2628514;53.3599448;54;2101305576;-6.2658005;53.3602085;1;32;33;2689302;122 towards Ashington;"";Dublin Bus;122;Drimnagh Road;Ashington
384401184;"{\"type\":\"LineString\",\"coordinates\":[[-6.2696708,53.3605583],[-6.2693636,53.3605434],[-6.2680622,53.3604501],[-6.2673243,53.3603995],[-6.26652,53.3603291],[-6.2661667,53.3603043],[-6.2661347,53.3603018],[-6.2656715,53.3602641],[-6.2654744,53.3602481]]}";2;North Circular Road;1;50;false;false;true;false;false;false;142.0;1;1;0;0;0;false;53;2101305584;-6.2628514;53.3599448;54;2101305576;-6.2658005;53.3602085;1;32;33;2689302;122 towards Ashington;"";Dublin Bus;122;Drimnagh Road;Ashington
384401184;"{\"type\":\"LineString\",\"coordinates\":[[-6.2696708,53.3605583],[-6.2693636,53.3605434],[-6.2680622,53.3604501],[-6.2673243,53.3603995],[-6.26652,53.3603291],[-6.2661667,53.3603043],[-6.2661347,53.3603018],[-6.2656715,53.3602641],[-6.2654744,53.3602481]]}";1;North Circular Road;1;50;false;false;true;false;false;false;142.0;1;1;0;0;0;false;55;2101305578;-6.2684752;53.3604124;56;2101305580;-6.2763569;53.3607638;1;34;35;2689302;122 towards Ashington;"";Dublin Bus;122;Drimnagh Road;Ashington
317183891;"{\"type\":\"LineString\",\"coordinates\":[[-6.2709908,53.3606741],[-6.2705833,53.3606417],[-6.2704785,53.3606334],[-6.2701799,53.3606103],[-6.2696708,53.3605583]]}";2;North Circular Road;1;50;false;false;true;false;false;false;90.0;1;0;0;0;0;false;55;2101305578;-6.2684752;53.3604124;56;2101305580;-6.2763569;53.3607638;0;34;35;2689302;122 towards Ashington;"";Dublin Bus;122;Drimnagh Road;Ashington
264822873;"{\"type\":\"LineString\",\"coordinates\":[[-6.2710835,53.360682],[-6.2709908,53.3606741]]}";3;North Circular Road;1;50;false;false;true;false;false;false;7.0;0;1;0;0;0;false;55;2101305578;-6.2684752;53.3604124;56;2101305580;-6.2763569;53.3607638;0;34;35;2689302;122 towards Ashington;"";Dublin Bus;122;Drimnagh Road;Ashington
317183888;"{\"type\":\"LineString\",\"coordinates\":[[-6.2713183,53.3607002],[-6.2710835,53.360682]]}";4;Blaquiere Bridge;1;50;false;false;true;false;false;false;16.0;0;1;0;0;0;false;55;2101305578;-6.2684752;53.3604124;56;2101305580;-6.2763569;53.3607638;0;34;35;2689302;122 towards Ashington;"";Dublin Bus;122;Drimnagh Road;Ashington
32117787;"{\"type\":\"LineString\",\"coordinates\":[[-6.2713934,53.3607062],[-6.2713183,53.3607002]]}";5;North Circular Road;1;50;false;false;true;false;false;false;6.0;0;0;0;0;0;false;55;2101305578;-6.2684752;53.3604124;56;2101305580;-6.2763569;53.3607638;0;34;35;2689302;122 towards Ashington;"";Dublin Bus;122;Drimnagh Road;Ashington
4395931;"{\"type\":\"LineString\",\"coordinates\":[[-6.2726879,53.3607926],[-6.2716717,53.3607283],[-6.2713934,53.3607062]]}";6;North Circular Road;1;50;false;false;true;false;false;false;88.0;1;0;0;0;0;false;55;2101305578;-6.2684752;53.3604124;56;2101305580;-6.2763569;53.3607638;0;34;35;2689302;122 towards Ashington;"";Dublin Bus;122;Drimnagh Road;Ashington
4395609;"{\"type\":\"LineString\",\"coordinates\":[[-6.2751154,53.3607759],[-6.2744461,53.3607829],[-6.273971,53.3607879],[-6.2737893,53.3607948],[-6.2729553,53.3607967],[-6.2726879,53.3607926]]}";7;North Circular Road;2;50;false;false;true;false;false;false;163.0;2;0;0;0;0;false;55;2101305578;-6.2684752;53.3604124;56;2101305580;-6.2763569;53.3607638;0;34;35;2689302;122 towards Ashington;"";Dublin Bus;122;Drimnagh Road;Ashington
83517075;"{\"type\":\"LineString\",\"coordinates\":[[-6.2770216,53.360813],[-6.2764089,53.3607987],[-6.2760714,53.360789],[-6.275529,53.3607806],[-6.2751154,53.3607759]]}";8;Dalymount;2;50;false;false;true;false;false;false;64.0;1;1;0;0;0;false;55;2101305578;-6.2684752;53.3604124;56;2101305580;-6.2763569;53.3607638;1;34;35;2689302;122 towards Ashington;"";Dublin Bus;122;Drimnagh Road;Ashington
83517075;"{\"type\":\"LineString\",\"coordinates\":[[-6.2770216,53.360813],[-6.2764089,53.3607987],[-6.2760714,53.360789],[-6.275529,53.3607806],[-6.2751154,53.3607759]]}";1;Dalymount;2;50;false;false;true;false;false;false;64.0;1;1;0;0;0;false;56;2101305580;-6.2763569;53.3607638;820;2101305583;-6.2935427;53.3619915;1;35;36;2689302;122 towards Ashington;"";Dublin Bus;122;Drimnagh Road;Ashington
39247679;"{\"type\":\"LineString\",\"coordinates\":[[-6.2792066,53.3609054],[-6.2791403,53.360902],[-6.2777623,53.3608436],[-6.2773159,53.3608245],[-6.2770216,53.360813]]}";2;Cabra Road;2;50;false;false;true;false;false;false;147.0;0;1;0;0;0;false;56;2101305580;-6.2763569;53.3607638;820;2101305583;-6.2935427;53.3619915;0;35;36;2689302;122 towards Ashington;"";Dublin Bus;122;Drimnagh Road;Ashington
39247678;"{\"type\":\"LineString\",\"coordinates\":[[-6.2794175,53.360914],[-6.2792852,53.3609084],[-6.2792066,53.3609054]]}";3;Cabra Road;2;50;false;false;true;false;false;false;15.0;0;1;0;0;0;false;56;2101305580;-6.2763569;53.3607638;820;2101305583;-6.2935427;53.3619915;0;35;36;2689302;122 towards Ashington;"";Dublin Bus;122;Drimnagh Road;Ashington
543359813;"{\"type\":\"LineString\",\"coordinates\":[[-6.2908503,53.3613326],[-6.2905588,53.3613213],[-6.289782,53.3613005],[-6.2891677,53.3612791],[-6.2879784,53.3612267],[-6.2861314,53.3611619],[-6.2856723,53.3611436],[-6.2855435,53.3611385],[-6.2847963,53.3611192],[-6.2841563,53.361092],[-6.2835464,53.3610661],[-6.2833187,53.3610562],[-6.2826416,53.3610344],[-6.2818402,53.3610006],[-6.2811353,53.3609751],[-6.2807536,53.3609606],[-6.279441,53.3609148],[-6.2794175,53.360914]]}";4;Cabra Road;2;50;false;false;true;false;false;false;768.0;3;1;0;0;0;false;56;2101305580;-6.2763569;53.3607638;820;2101305583;-6.2935427;53.3619915;0;35;36;2689302;122 towards Ashington;"";Dublin Bus;122;Drimnagh Road;Ashington
543359812;"{\"type\":\"LineString\",\"coordinates\":[[-6.2912337,53.3613417],[-6.2910938,53.3613386],[-6.2908503,53.3613326]]}";5;Cabra Road;2;50;false;false;true;false;false;false;26.0;1;0;0;0;0;false;56;2101305580;-6.2763569;53.3607638;820;2101305583;-6.2935427;53.3619915;0;35;36;2689302;122 towards Ashington;"";Dublin Bus;122;Drimnagh Road;Ashington
4395597;"{\"type\":\"LineString\",\"coordinates\":[[-6.2925838,53.3613936],[-6.2921077,53.3613768],[-6.2917548,53.3613626],[-6.2913532,53.3613465],[-6.2912337,53.3613417]]}";6;Cabra Road;2;50;false;false;true;false;false;false;91.0;0;0;0;0;0;false;56;2101305580;-6.2763569;53.3607638;820;2101305583;-6.2935427;53.3619915;0;35;36;2689302;122 towards Ashington;"";Dublin Bus;122;Drimnagh Road;Ashington
326785829;"{\"type\":\"LineString\",\"coordinates\":[[-6.2927407,53.3613985],[-6.2927315,53.3613983],[-6.2925838,53.3613936]]}";7;Cabra Road;2;50;false;false;true;false;false;false;11.0;0;0;0;0;0;false;56;2101305580;-6.2763569;53.3607638;820;2101305583;-6.2935427;53.3619915;0;35;36;2689302;122 towards Ashington;"";Dublin Bus;122;Drimnagh Road;Ashington
5825855;"{\"type\":\"LineString\",\"coordinates\":[[-6.2929951,53.3614073],[-6.2927407,53.3613985]]}";8;Cabra Road;2;50;false;false;true;false;false;false;18.0;0;0;0;0;0;false;56;2101305580;-6.2763569;53.3607638;820;2101305583;-6.2935427;53.3619915;0;35;36;2689302;122 towards Ashington;"";Dublin Bus;122;Drimnagh Road;Ashington
200170059;"{\"type\":\"LineString\",\"coordinates\":[[-6.2933682,53.3614243],[-6.2930926,53.3614117],[-6.2929951,53.3614073]]}";9;Cabra Road;2;50;false;false;true;false;false;false;26.0;0;0;0;0;0;false;56;2101305580;-6.2763569;53.3607638;820;2101305583;-6.2935427;53.3619915;0;35;36;2689302;122 towards Ashington;"";Dublin Bus;122;Drimnagh Road;Ashington
4215661;"{\"type\":\"LineString\",\"coordinates\":[[-6.2933682,53.3614243],[-6.2933712,53.3614631],[-6.2934029,53.3617419],[-6.2934061,53.3617723]]}";10;Carnlough Road;2;30;false;false;true;false;false;false;40.0;0;0;1;0;0;false;56;2101305580;-6.2763569;53.3607638;820;2101305583;-6.2935427;53.3619915;0;35;36;2689302;122 towards Ashington;"";Dublin Bus;122;Drimnagh Road;Ashington
201392271;"{\"type\":\"LineString\",\"coordinates\":[[-6.2934061,53.3617723],[-6.29341,53.3617944],[-6.2934237,53.3618722],[-6.2935834,53.3621666],[-6.2938465,53.3625186],[-6.2939293,53.3626456],[-6.294055,53.3629202],[-6.2940996,53.3631204],[-6.294141,53.363361],[-6.2941544,53.3636203],[-6.2941528,53.3636585]]}";11;Carnlough Road;2;30;false;false;true;false;false;false;110.0;0;0;0;0;0;false;56;2101305580;-6.2763569;53.3607638;820;2101305583;-6.2935427;53.3619915;1;35;36;2689302;122 towards Ashington;"";Dublin Bus;122;Drimnagh Road;Ashington
201392271;"{\"type\":\"LineString\",\"coordinates\":[[-6.2934061,53.3617723],[-6.29341,53.3617944],[-6.2934237,53.3618722],[-6.2935834,53.3621666],[-6.2938465,53.3625186],[-6.2939293,53.3626456],[-6.294055,53.3629202],[-6.2940996,53.3631204],[-6.294141,53.363361],[-6.2941544,53.3636203],[-6.2941528,53.3636585]]}";1;Carnlough Road;2;30;false;false;true;false;false;false;110.0;0;0;0;0;0;false;820;2101305583;-6.2935427;53.3619915;821;2101305575;-6.2938427;53.3645434;1;36;37;2689302;122 towards Ashington;"";Dublin Bus;122;Drimnagh Road;Ashington
201392272;"{\"type\":\"LineString\",\"coordinates\":[[-6.2941528,53.3636585],[-6.2941192,53.3638648],[-6.294003,53.3641476],[-6.293558,53.364912],[-6.2934028,53.3652267],[-6.2933847,53.3652633],[-6.2932686,53.3654862],[-6.2931817,53.365652],[-6.2931469,53.3656948],[-6.2931148,53.3657343],[-6.2927544,53.3659472]]}";2;Carnlough Road;2;30;false;false;true;false;false;false;139.0;0;0;0;0;0;false;820;2101305583;-6.2935427;53.3619915;821;2101305575;-6.2938427;53.3645434;1;36;37;2689302;122 towards Ashington;"";Dublin Bus;122;Drimnagh Road;Ashington
201392272;"{\"type\":\"LineString\",\"coordinates\":[[-6.2941528,53.3636585],[-6.2941192,53.3638648],[-6.294003,53.3641476],[-6.293558,53.364912],[-6.2934028,53.3652267],[-6.2933847,53.3652633],[-6.2932686,53.3654862],[-6.2931817,53.365652],[-6.2931469,53.3656948],[-6.2931148,53.3657343],[-6.2927544,53.3659472]]}";1;Carnlough Road;2;30;false;false;true;false;false;false;139.0;0;0;0;0;0;false;821;2101305575;-6.2938427;53.3645434;63;2101305581;-6.2929476;53.3668194;1;37;38;2689302;122 towards Ashington;"";Dublin Bus;122;Drimnagh Road;Ashington
201392270;"{\"type\":\"LineString\",\"coordinates\":[[-6.2927544,53.3659472],[-6.2927109,53.3659715],[-6.2925094,53.3661076],[-6.2923427,53.3662626],[-6.2921807,53.3664469],[-6.2921012,53.3665587],[-6.2920173,53.3666783]]}";2;Carnlough Road;2;30;false;false;true;false;false;false;97.0;1;0;0;0;0;false;821;2101305575;-6.2938427;53.3645434;63;2101305581;-6.2929476;53.3668194;0;37;38;2689302;122 towards Ashington;"";Dublin Bus;122;Drimnagh Road;Ashington
318765000;"{\"type\":\"LineString\",\"coordinates\":[[-6.3013045,53.3673524],[-6.3001914,53.3673269],[-6.3000079,53.3673223],[-6.299766,53.3673159],[-6.2993206,53.3673126],[-6.2988294,53.3672951],[-6.298622,53.3672877],[-6.2984346,53.36728],[-6.2979058,53.3672584],[-6.2972749,53.367221],[-6.2960096,53.3671587],[-6.2958467,53.3671509],[-6.29475,53.3670729],[-6.294105,53.367014],[-6.2937225,53.3669663],[-6.2934019,53.3669186],[-6.2926446,53.3667943],[-6.2920173,53.3666783]]}";3;Fassaugh Avenue;2;50;false;false;true;false;false;false;315.0;2;1;0;0;0;false;821;2101305575;-6.2938427;53.3645434;63;2101305581;-6.2929476;53.3668194;1;37;38;2689302;122 towards Ashington;"";Dublin Bus;122;Drimnagh Road;Ashington
318765000;"{\"type\":\"LineString\",\"coordinates\":[[-6.3013045,53.3673524],[-6.3001914,53.3673269],[-6.3000079,53.3673223],[-6.299766,53.3673159],[-6.2993206,53.3673126],[-6.2988294,53.3672951],[-6.298622,53.3672877],[-6.2984346,53.36728],[-6.2979058,53.3672584],[-6.2972749,53.367221],[-6.2960096,53.3671587],[-6.2958467,53.3671509],[-6.29475,53.3670729],[-6.294105,53.367014],[-6.2937225,53.3669663],[-6.2934019,53.3669186],[-6.2926446,53.3667943],[-6.2920173,53.3666783]]}";1;Fassaugh Avenue;2;50;false;false;true;false;false;false;315.0;2;1;0;0;0;false;66;2101305574;-6.3009465;53.3672978;4498;440849968;-6.3032457;53.3670973;1;41;42;2689302;122 towards Ashington;"";Dublin Bus;122;Drimnagh Road;Ashington
3708470;"{\"type\":\"LineString\",\"coordinates\":[[-6.3023366,53.3673659],[-6.3022603,53.3673656],[-6.3013045,53.3673524]]}";2;Fassaugh Avenue;1;50;false;false;true;false;false;false;70.0;0;0;0;0;0;false;66;2101305574;-6.3009465;53.3672978;4498;440849968;-6.3032457;53.3670973;0;41;42;2689302;122 towards Ashington;"";Dublin Bus;122;Drimnagh Road;Ashington
200170060;"{\"type\":\"LineString\",\"coordinates\":[[-6.3023366,53.3673659],[-6.3023394,53.3673338],[-6.3023498,53.3673138],[-6.3023662,53.3672956],[-6.3023881,53.3672796],[-6.3024197,53.3672645],[-6.3024529,53.3672547]]}";3;The Bogie's Roundabout;1;50;false;false;true;false;false;false;16.0;0;0;0;0;0;true;66;2101305574;-6.3009465;53.3672978;4498;440849968;-6.3032457;53.3670973;0;41;42;2689302;122 towards Ashington;"";Dublin Bus;122;Drimnagh Road;Ashington
2685314;"{\"type\":\"LineString\",\"coordinates\":[[-6.3024529,53.3672547],[-6.3024886,53.3672492],[-6.302522,53.367248],[-6.3025761,53.3672542],[-6.3026246,53.3672699],[-6.3026637,53.3672943],[-6.3026799,53.3673114],[-6.3026908,53.3673306]]}";4;The Bogie's Roundabout;1;50;false;false;true;false;false;false;21.0;0;0;0;0;0;true;66;2101305574;-6.3009465;53.3672978;4498;440849968;-6.3032457;53.3670973;0;41;42;2689302;122 towards Ashington;"";Dublin Bus;122;Drimnagh Road;Ashington
37692143;"{\"type\":\"LineString\",\"coordinates\":[[-6.3082836,53.3649239],[-6.3080675,53.3650758],[-6.3080222,53.3651051],[-6.3077868,53.3652573],[-6.3071782,53.3656416],[-6.3068503,53.365853],[-6.3063089,53.3661151],[-6.3057081,53.3663419],[-6.3053146,53.3664888],[-6.3048219,53.366658],[-6.3045649,53.3667423],[-6.3037681,53.3670038],[-6.3026908,53.3673306]]}";5;Nephin Road;1;50;false;false;true;false;false;false;233.5;1;1;0;0;0;false;66;2101305574;-6.3009465;53.3672978;4498;440849968;-6.3032457;53.3670973;1;41;42;2689302;122 towards Ashington;"";Dublin Bus;122;Drimnagh Road;Ashington
37692143;"{\"type\":\"LineString\",\"coordinates\":[[-6.3082836,53.3649239],[-6.3080675,53.3650758],[-6.3080222,53.3651051],[-6.3077868,53.3652573],[-6.3071782,53.3656416],[-6.3068503,53.365853],[-6.3063089,53.3661151],[-6.3057081,53.3663419],[-6.3053146,53.3664888],[-6.3048219,53.366658],[-6.3045649,53.3667423],[-6.3037681,53.3670038],[-6.3026908,53.3673306]]}";1;Nephin Road;1;50;false;false;true;false;false;false;233.5;1;1;0;0;0;false;4498;440849968;-6.3032457;53.3670973;4523;440847910;-6.3172765;53.3692505;1;42;43;2689302;122 towards Ashington;"";Dublin Bus;122;Drimnagh Road;Ashington
4253693;"{\"type\":\"LineString\",\"coordinates\":[[-6.3082836,53.3649239],[-6.3084887,53.3649816],[-6.3085744,53.3650096],[-6.309231,53.3652238],[-6.3096409,53.3653566],[-6.3102151,53.3655577],[-6.3104373,53.3656316],[-6.3109708,53.3658052],[-6.3113683,53.3659413],[-6.3116609,53.3660415],[-6.3119681,53.3661467],[-6.3122773,53.3662525],[-6.3125257,53.3663376],[-6.3125855,53.3663536],[-6.3129526,53.3664727],[-6.3130209,53.3664952],[-6.3131299,53.3665302],[-6.3134558,53.3666405],[-6.3137726,53.3667502],[-6.3143289,53.3669184],[-6.3147455,53.3670247],[-6.3149653,53.3670808],[-6.3154472,53.3671937],[-6.3174968,53.3676544],[-6.3175271,53.3676614],[-6.317638,53.3676854],[-6.3178501,53.3677292],[-6.3179092,53.3677414],[-6.3181143,53.3677898]]}";2;Navan Road;1;50;false;false;false;false;false;false;735.0;2;1;0;0;0;false;4498;440849968;-6.3032457;53.3670973;4523;440847910;-6.3172765;53.3692505;0;42;43;2689302;122 towards Ashington;"";Dublin Bus;122;Drimnagh Road;Ashington
3761189;"{\"type\":\"LineString\",\"coordinates\":[[-6.3181143,53.3677898],[-6.317988,53.3679704],[-6.3178012,53.3682694],[-6.3175433,53.3686886],[-6.3174649,53.3688204],[-6.3173265,53.3690377],[-6.3171863,53.3692781],[-6.3170568,53.3694931],[-6.3167997,53.3699116],[-6.3167829,53.3699389],[-6.3163867,53.3705945]]}";3;Kinvara Avenue;2;30;false;false;true;false;false;false;167.5;2;0;0;0;0;false;4498;440849968;-6.3032457;53.3670973;4523;440847910;-6.3172765;53.3692505;1;42;43;2689302;122 towards Ashington;"";Dublin Bus;122;Drimnagh Road;Ashington
3761189;"{\"type\":\"LineString\",\"coordinates\":[[-6.3181143,53.3677898],[-6.317988,53.3679704],[-6.3178012,53.3682694],[-6.3175433,53.3686886],[-6.3174649,53.3688204],[-6.3173265,53.3690377],[-6.3171863,53.3692781],[-6.3170568,53.3694931],[-6.3167997,53.3699116],[-6.3167829,53.3699389],[-6.3163867,53.3705945]]}";1;Kinvara Avenue;2;30;false;false;true;false;false;false;167.5;2;0;0;0;0;false;4523;440847910;-6.3172765;53.3692505;4524;2101305577;-6.3157376;53.371665;1;43;44;2689302;122 towards Ashington;"";Dublin Bus;122;Drimnagh Road;Ashington
3761190;"{\"type\":\"LineString\",\"coordinates\":[[-6.3163867,53.3705945],[-6.3162793,53.3707505],[-6.3162213,53.3708348],[-6.3158595,53.3713487],[-6.3154802,53.3719143],[-6.3151082,53.372427],[-6.3147708,53.3729218],[-6.3146959,53.3730182],[-6.3146123,53.3731504],[-6.3145183,53.3733173],[-6.3144978,53.3733893],[-6.3144867,53.3735163],[-6.3144937,53.373552]]}";2;Ashington Avenue;2;30;false;false;true;false;false;false;357.0;0;0;1;0;0;false;4523;440847910;-6.3172765;53.3692505;4524;2101305577;-6.3157376;53.371665;1;43;44;2689302;122 towards Ashington;"";Dublin Bus;122;Drimnagh Road;Ashington
