way_id;shape;index;name;nb_lanes;legal_speed;speed_zone_30;oneway;shares_bike;bike_box;bus_lane;dedicated_bus_lane;length;nb_traffic_signals;nb_crossings;nb_stops;nb_give_ways;nb_lvl_crossings;roundabout;stop_id_orig;node_id_orig;coord_x_orig;coord_y_orig;stop_id_dest;node_id_dest;coord_x_dest;coord_y_dest;nb_neighbouring_ways_bus_stop;ordre_orig;ordre_dest;id_line;line_name;colour;operator;ref;from;to
486357823;"{\"type\":\"LineString\",\"coordinates\":[[-73.7617144,45.665705],[-73.7622553,45.6660812],[-73.7624113,45.6660934]]}";1;Montée Gagnon;1;50;false;true;true;false;false;false;72.0;0;0;0;0;0;false;82063;6119525289;-73.7617354;45.665799;82128;6119525229;-73.766629;45.669165;1;0;1;9395035;Bus 27 : GARE STE-THÉRÈSE;"";EXO;27 O;Du Souvenir / Montée Gagnon;Gare Sainte-Thérèse
135457797;"{\"type\":\"LineString\",\"coordinates\":[[-73.7624113,45.6660934],[-73.7629884,45.6664964],[-73.764045,45.6672341],[-73.7668365,45.6691831]]}";2;Montée Gagnon;2;50;false;false;true;false;false;false;487.0;0;0;0;0;0;false;82063;6119525289;-73.7617354;45.665799;82128;6119525229;-73.766629;45.669165;2;0;1;9395035;Bus 27 : GARE STE-THÉRÈSE;"";EXO;27 O;Du Souvenir / Montée Gagnon;Gare Sainte-Thérèse
810096308;"{\"type\":\"LineString\",\"coordinates\":[[-73.7668365,45.6691831],[-73.7683359,45.6702652]]}";1;Montée Gagnon;2;50;false;false;false;false;false;false;168.0;0;0;0;0;0;false;82128;6119525229;-73.766629;45.669165;82130;6119525228;-73.774434;45.674557;2;1;2;9395035;Bus 27 : GARE STE-THÉRÈSE;"";EXO;27 O;Du Souvenir / Montée Gagnon;Gare Sainte-Thérèse
289882299;"{\"type\":\"LineString\",\"coordinates\":[[-73.7683359,45.6702652],[-73.7693153,45.670972]]}";2;Montée Gagnon;2;50;false;false;false;false;false;false;110.0;0;0;0;0;0;false;82128;6119525229;-73.766629;45.669165;82130;6119525228;-73.774434;45.674557;0;1;2;9395035;Bus 27 : GARE STE-THÉRÈSE;"";EXO;27 O;Du Souvenir / Montée Gagnon;Gare Sainte-Thérèse
164556096;"{\"type\":\"LineString\",\"coordinates\":[[-73.7693153,45.670972],[-73.7701368,45.6715729],[-73.7710191,45.6721737],[-73.7739238,45.6740868],[-73.7747088,45.6746039],[-73.7781244,45.6768534],[-73.7787245,45.6772487],[-73.7792417,45.6775893],[-73.7794452,45.6777233],[-73.7795887,45.6778178],[-73.7798553,45.6779934],[-73.7805376,45.6784427]]}";3;Montée Gagnon;2;50;false;false;false;false;false;false;1205.0;0;0;0;0;0;false;82128;6119525229;-73.766629;45.669165;82130;6119525228;-73.774434;45.674557;2;1;2;9395035;Bus 27 : GARE STE-THÉRÈSE;"";EXO;27 O;Du Souvenir / Montée Gagnon;Gare Sainte-Thérèse
674530008;"{\"type\":\"LineString\",\"coordinates\":[[-73.7816208,45.6791561],[-73.7816898,45.6792015]]}";1;Montée Gagnon;2;50;false;false;false;false;false;false;8.0;0;0;0;0;0;false;82134;6119525224;-73.781525;45.679186;82425;6119524289;-73.782211;45.679004;2;6;7;9395035;Bus 27 : GARE STE-THÉRÈSE;"";EXO;27 O;Du Souvenir / Montée Gagnon;Gare Sainte-Thérèse
635238621;"{\"type\":\"LineString\",\"coordinates\":[[-73.7816898,45.6792015],[-73.7822804,45.6787614],[-73.7828011,45.6783734],[-73.7835729,45.6777983],[-73.7838907,45.677542],[-73.7841845,45.6772697],[-73.7844379,45.6770017],[-73.7846502,45.6767032],[-73.7847408,45.6764923],[-73.784813,45.6762548],[-73.7848245,45.6762256],[-73.7848401,45.6760997],[-73.7848476,45.6760065],[-73.7848341,45.6756944],[-73.7847488,45.6752251]]}";2;Boulevard Vignory;1;50;false;true;true;false;false;false;529.0;0;0;0;0;0;false;82134;6119525224;-73.781525;45.679186;82425;6119524289;-73.782211;45.679004;2;6;7;9395035;Bus 27 : GARE STE-THÉRÈSE;"";EXO;27 O;Du Souvenir / Montée Gagnon;Gare Sainte-Thérèse
635238621;"{\"type\":\"LineString\",\"coordinates\":[[-73.7816898,45.6792015],[-73.7822804,45.6787614],[-73.7828011,45.6783734],[-73.7835729,45.6777983],[-73.7838907,45.677542],[-73.7841845,45.6772697],[-73.7844379,45.6770017],[-73.7846502,45.6767032],[-73.7847408,45.6764923],[-73.784813,45.6762548],[-73.7848245,45.6762256],[-73.7848401,45.6760997],[-73.7848476,45.6760065],[-73.7848341,45.6756944],[-73.7847488,45.6752251]]}";1;Boulevard Vignory;1;50;false;true;true;false;false;false;264.5;0;0;0;0;0;false;82427;6119524287;-73.784952;45.676326;82428;6119524286;-73.784792;45.675013;1;9;10;9395035;Bus 27 : GARE STE-THÉRÈSE;"";EXO;27 O;Du Souvenir / Montée Gagnon;Gare Sainte-Thérèse
635238618;"{\"type\":\"LineString\",\"coordinates\":[[-73.7847488,45.6752251],[-73.7847271,45.6751447]]}";2;Boulevard Vignory;1;50;false;true;true;false;false;false;10.0;0;0;0;0;0;false;82427;6119524287;-73.784952;45.676326;82428;6119524286;-73.784792;45.675013;0;9;10;9395035;Bus 27 : GARE STE-THÉRÈSE;"";EXO;27 O;Du Souvenir / Montée Gagnon;Gare Sainte-Thérèse
42353525;"{\"type\":\"LineString\",\"coordinates\":[[-73.7847271,45.6751447],[-73.7846019,45.6745625],[-73.7845499,45.6743208],[-73.7845638,45.6741555],[-73.7845853,45.6740597],[-73.7846089,45.6739546],[-73.7846904,45.6737618],[-73.7847895,45.6735949],[-73.7849823,45.6733488],[-73.7851817,45.6731574],[-73.7856135,45.6728393],[-73.7856868,45.672781]]}";3;Boulevard Vignory;1;50;false;true;true;false;false;false;145.5;0;0;0;0;0;false;82427;6119524287;-73.784952;45.676326;82428;6119524286;-73.784792;45.675013;1;9;10;9395035;Bus 27 : GARE STE-THÉRÈSE;"";EXO;27 O;Du Souvenir / Montée Gagnon;Gare Sainte-Thérèse
635238618;"{\"type\":\"LineString\",\"coordinates\":[[-73.7847488,45.6752251],[-73.7847271,45.6751447]]}";1;Boulevard Vignory;1;50;false;true;true;false;false;false;10.0;0;0;0;0;0;false;82428;6119524286;-73.784792;45.675013;82429;6119524285;-73.785604;45.672834;2;10;11;9395035;Bus 27 : GARE STE-THÉRÈSE;"";EXO;27 O;Du Souvenir / Montée Gagnon;Gare Sainte-Thérèse
42353525;"{\"type\":\"LineString\",\"coordinates\":[[-73.7847271,45.6751447],[-73.7846019,45.6745625],[-73.7845499,45.6743208],[-73.7845638,45.6741555],[-73.7845853,45.6740597],[-73.7846089,45.6739546],[-73.7846904,45.6737618],[-73.7847895,45.6735949],[-73.7849823,45.6733488],[-73.7851817,45.6731574],[-73.7856135,45.6728393],[-73.7856868,45.672781]]}";2;Boulevard Vignory;1;50;false;true;true;false;false;false;291.0;0;0;0;0;0;false;82428;6119524286;-73.784792;45.675013;82429;6119524285;-73.785604;45.672834;2;10;11;9395035;Bus 27 : GARE STE-THÉRÈSE;"";EXO;27 O;Du Souvenir / Montée Gagnon;Gare Sainte-Thérèse
676083594;"{\"type\":\"LineString\",\"coordinates\":[[-73.7870783,45.6693728],[-73.7844725,45.6679889],[-73.78386,45.6675261],[-73.7836755,45.6673253]]}";1;Boulevard de Gaulle;1;50;false;true;true;false;false;false;352.0;0;0;0;0;0;false;82432;6119524182;-73.787317;45.669424;82433;6119524181;-73.783406;45.666576;2;14;15;9395035;Bus 27 : GARE STE-THÉRÈSE;"";EXO;27 O;Du Souvenir / Montée Gagnon;Gare Sainte-Thérèse
674530006;"{\"type\":\"LineString\",\"coordinates\":[[-73.7836755,45.6673253],[-73.7836274,45.6672584],[-73.7834317,45.6669801],[-73.7832125,45.6664784],[-73.7831758,45.666397],[-73.7827274,45.6654493],[-73.7827093,45.665411],[-73.7826921,45.6653751],[-73.7822432,45.6644396]]}";2;Boulevard de Gaulle;1;50;false;true;true;false;false;false;340.0;0;0;0;0;0;false;82432;6119524182;-73.787317;45.669424;82433;6119524181;-73.783406;45.666576;2;14;15;9395035;Bus 27 : GARE STE-THÉRÈSE;"";EXO;27 O;Du Souvenir / Montée Gagnon;Gare Sainte-Thérèse
674530006;"{\"type\":\"LineString\",\"coordinates\":[[-73.7836755,45.6673253],[-73.7836274,45.6672584],[-73.7834317,45.6669801],[-73.7832125,45.6664784],[-73.7831758,45.666397],[-73.7827274,45.6654493],[-73.7827093,45.665411],[-73.7826921,45.6653751],[-73.7822432,45.6644396]]}";1;Boulevard de Gaulle;1;50;false;true;true;false;false;false;170.0;0;0;0;0;0;false;82434;6119524180;-73.782878;45.665527;82435;6119524179;-73.77862;45.660405;1;16;17;9395035;Bus 27 : GARE STE-THÉRÈSE;"";EXO;27 O;Du Souvenir / Montée Gagnon;Gare Sainte-Thérèse
674530005;"{\"type\":\"LineString\",\"coordinates\":[[-73.7822432,45.6644396],[-73.782191,45.6643178]]}";2;Boulevard de Gaulle;1;50;false;true;true;false;false;false;15.0;0;0;0;0;0;false;82434;6119524180;-73.782878;45.665527;82435;6119524179;-73.77862;45.660405;0;16;17;9395035;Bus 27 : GARE STE-THÉRÈSE;"";EXO;27 O;Du Souvenir / Montée Gagnon;Gare Sainte-Thérèse
44812763;"{\"type\":\"LineString\",\"coordinates\":[[-73.782191,45.6643178],[-73.7819522,45.6638012]]}";3;Boulevard de Gaulle;1;50;false;true;true;false;false;false;61.0;0;0;0;0;0;false;82434;6119524180;-73.782878;45.665527;82435;6119524179;-73.77862;45.660405;0;16;17;9395035;Bus 27 : GARE STE-THÉRÈSE;"";EXO;27 O;Du Souvenir / Montée Gagnon;Gare Sainte-Thérèse
455285358;"{\"type\":\"LineString\",\"coordinates\":[[-73.7819522,45.6638012],[-73.7818819,45.6636511]]}";4;Boulevard de Gaulle;1;50;false;true;true;false;false;false;18.0;0;0;0;0;0;false;82434;6119524180;-73.782878;45.665527;82435;6119524179;-73.77862;45.660405;0;16;17;9395035;Bus 27 : GARE STE-THÉRÈSE;"";EXO;27 O;Du Souvenir / Montée Gagnon;Gare Sainte-Thérèse
455285359;"{\"type\":\"LineString\",\"coordinates\":[[-73.7818819,45.6636511],[-73.7817901,45.6634904]]}";5;Boulevard de Gaulle;1;50;false;true;true;false;false;false;20.0;0;0;0;0;0;false;82434;6119524180;-73.782878;45.665527;82435;6119524179;-73.77862;45.660405;0;16;17;9395035;Bus 27 : GARE STE-THÉRÈSE;"";EXO;27 O;Du Souvenir / Montée Gagnon;Gare Sainte-Thérèse
42353893;"{\"type\":\"LineString\",\"coordinates\":[[-73.7817901,45.6634904],[-73.7815466,45.6630304],[-73.7812788,45.6626571],[-73.7809554,45.6622773],[-73.780715,45.6620269],[-73.7803476,45.6616962],[-73.7798576,45.6613496],[-73.7794215,45.6610374],[-73.7784796,45.6604261],[-73.7783727,45.6603505]]}";6;Boulevard de Gaulle;1;50;false;true;true;false;false;false;222.5;0;0;0;0;0;false;82434;6119524180;-73.782878;45.665527;82435;6119524179;-73.77862;45.660405;1;16;17;9395035;Bus 27 : GARE STE-THÉRÈSE;"";EXO;27 O;Du Souvenir / Montée Gagnon;Gare Sainte-Thérèse
42353893;"{\"type\":\"LineString\",\"coordinates\":[[-73.7817901,45.6634904],[-73.7815466,45.6630304],[-73.7812788,45.6626571],[-73.7809554,45.6622773],[-73.780715,45.6620269],[-73.7803476,45.6616962],[-73.7798576,45.6613496],[-73.7794215,45.6610374],[-73.7784796,45.6604261],[-73.7783727,45.6603505]]}";1;Boulevard de Gaulle;1;50;false;true;true;false;false;false;222.5;0;0;0;0;0;false;82435;6119524179;-73.77862;45.660405;82436;6119524178;-73.776468;45.658906;1;17;18;9395035;Bus 27 : GARE STE-THÉRÈSE;"";EXO;27 O;Du Souvenir / Montée Gagnon;Gare Sainte-Thérèse
676083592;"{\"type\":\"LineString\",\"coordinates\":[[-73.7783727,45.6603505],[-73.7766781,45.6592309],[-73.7762158,45.6589323],[-73.7758084,45.6586765],[-73.7744044,45.6577254]]}";2;Boulevard de Gaulle;1;50;false;true;true;false;false;false;212.5;0;0;0;0;0;false;82435;6119524179;-73.77862;45.660405;82436;6119524178;-73.776468;45.658906;1;17;18;9395035;Bus 27 : GARE STE-THÉRÈSE;"";EXO;27 O;Du Souvenir / Montée Gagnon;Gare Sainte-Thérèse
676083592;"{\"type\":\"LineString\",\"coordinates\":[[-73.7783727,45.6603505],[-73.7766781,45.6592309],[-73.7762158,45.6589323],[-73.7758084,45.6586765],[-73.7744044,45.6577254]]}";1;Boulevard de Gaulle;1;50;false;true;true;false;false;false;212.5;0;0;0;0;0;false;82436;6119524178;-73.776468;45.658906;82437;6119524177;-73.77433;45.657584;1;18;19;9395035;Bus 27 : GARE STE-THÉRÈSE;"";EXO;27 O;Du Souvenir / Montée Gagnon;Gare Sainte-Thérèse
676083581;"{\"type\":\"LineString\",\"coordinates\":[[-73.7744044,45.6577254],[-73.7743494,45.6576898],[-73.7727343,45.6566183],[-73.7713577,45.655725]]}";2;Boulevard de Gaulle;1;50;false;true;true;false;false;false;163.0;0;0;1;0;0;false;82436;6119524178;-73.776468;45.658906;82437;6119524177;-73.77433;45.657584;1;18;19;9395035;Bus 27 : GARE STE-THÉRÈSE;"";EXO;27 O;Du Souvenir / Montée Gagnon;Gare Sainte-Thérèse
676083592;"{\"type\":\"LineString\",\"coordinates\":[[-73.7783727,45.6603505],[-73.7766781,45.6592309],[-73.7762158,45.6589323],[-73.7758084,45.6586765],[-73.7744044,45.6577254]]}";1;Boulevard de Gaulle;1;50;false;true;true;false;false;false;425.0;0;0;0;0;0;false;82437;6119524177;-73.77433;45.657584;82438;6119524176;-73.771434;45.655727;2;19;20;9395035;Bus 27 : GARE STE-THÉRÈSE;"";EXO;27 O;Du Souvenir / Montée Gagnon;Gare Sainte-Thérèse
676083581;"{\"type\":\"LineString\",\"coordinates\":[[-73.7744044,45.6577254],[-73.7743494,45.6576898],[-73.7727343,45.6566183],[-73.7713577,45.655725]]}";2;Boulevard de Gaulle;1;50;false;true;true;false;false;false;326.0;0;0;1;0;0;false;82437;6119524177;-73.77433;45.657584;82438;6119524176;-73.771434;45.655727;2;19;20;9395035;Bus 27 : GARE STE-THÉRÈSE;"";EXO;27 O;Du Souvenir / Montée Gagnon;Gare Sainte-Thérèse
40778179;"{\"type\":\"LineString\",\"coordinates\":[[-73.7713577,45.655725],[-73.7715861,45.655525]]}";1;Chemin de la Grande-Côte;1;50;false;false;false;false;false;false;29.0;0;0;1;0;0;false;82438;6119524176;-73.771434;45.655727;82439;6119524175;-73.772759;45.654142;2;20;21;9395035;Bus 27 : GARE STE-THÉRÈSE;"";EXO;27 O;Du Souvenir / Montée Gagnon;Gare Sainte-Thérèse
209050637;"{\"type\":\"LineString\",\"coordinates\":[[-73.7715861,45.655525],[-73.7718618,45.6552908]]}";2;Chemin de la Grande-Côte;2;50;false;false;false;false;false;false;34.0;0;0;0;0;0;false;82438;6119524176;-73.771434;45.655727;82439;6119524175;-73.772759;45.654142;0;20;21;9395035;Bus 27 : GARE STE-THÉRÈSE;"";EXO;27 O;Du Souvenir / Montée Gagnon;Gare Sainte-Thérèse
209050638;"{\"type\":\"LineString\",\"coordinates\":[[-73.7718618,45.6552908],[-73.7720294,45.6551162],[-73.772197,45.6548947],[-73.7724059,45.6545723],[-73.7725835,45.6542647],[-73.7726111,45.6542093],[-73.7727437,45.6539167],[-73.773015,45.6533282],[-73.7731286,45.6531378],[-73.7733481,45.652886],[-73.7737444,45.652567],[-73.7742017,45.6523018]]}";3;Chemin de la Grande-Côte;1;50;false;false;false;false;false;false;386.0;0;0;0;0;0;false;82438;6119524176;-73.771434;45.655727;82439;6119524175;-73.772759;45.654142;2;20;21;9395035;Bus 27 : GARE STE-THÉRÈSE;"";EXO;27 O;Du Souvenir / Montée Gagnon;Gare Sainte-Thérèse
676044672;"{\"type\":\"LineString\",\"coordinates\":[[-73.7787403,45.6522444],[-73.7788807,45.6522338],[-73.7791309,45.6521793],[-73.7800202,45.6519117],[-73.7808081,45.6516461],[-73.781494,45.6513963],[-73.7817577,45.651342],[-73.7820306,45.6513037]]}";1;Boulevard Roland-Durand;2;50;false;false;false;false;false;false;279.0;0;0;0;0;0;false;82442;6119524172;-73.77863;45.652301;82443;6119524171;-73.782259;45.651345;2;25;26;9395035;Bus 27 : GARE STE-THÉRÈSE;"";EXO;27 O;Du Souvenir / Montée Gagnon;Gare Sainte-Thérèse
674530020;"{\"type\":\"LineString\",\"coordinates\":[[-73.7820306,45.6513037],[-73.78229,45.651278],[-73.7824524,45.6512708],[-73.7834967,45.6512248],[-73.784923,45.651162],[-73.7852143,45.6511304],[-73.7855047,45.6510405],[-73.785845,45.650878],[-73.7869251,45.6500727]]}";2;Boulevard Roland-Durand;2;50;false;false;false;false;false;false;429.0;0;0;0;0;0;false;82442;6119524172;-73.77863;45.652301;82443;6119524171;-73.782259;45.651345;2;25;26;9395035;Bus 27 : GARE STE-THÉRÈSE;"";EXO;27 O;Du Souvenir / Montée Gagnon;Gare Sainte-Thérèse
676044672;"{\"type\":\"LineString\",\"coordinates\":[[-73.7787403,45.6522444],[-73.7788807,45.6522338],[-73.7791309,45.6521793],[-73.7800202,45.6519117],[-73.7808081,45.6516461],[-73.781494,45.6513963],[-73.7817577,45.651342],[-73.7820306,45.6513037]]}";1;Boulevard Roland-Durand;2;50;false;false;false;false;false;false;279.0;0;0;0;0;0;false;82443;6119524171;-73.782259;45.651345;82444;6119524170;-73.786732;45.650278;2;26;27;9395035;Bus 27 : GARE STE-THÉRÈSE;"";EXO;27 O;Du Souvenir / Montée Gagnon;Gare Sainte-Thérèse
674530020;"{\"type\":\"LineString\",\"coordinates\":[[-73.7820306,45.6513037],[-73.78229,45.651278],[-73.7824524,45.6512708],[-73.7834967,45.6512248],[-73.784923,45.651162],[-73.7852143,45.6511304],[-73.7855047,45.6510405],[-73.785845,45.650878],[-73.7869251,45.6500727]]}";2;Boulevard Roland-Durand;2;50;false;false;false;false;false;false;429.0;0;0;0;0;0;false;82443;6119524171;-73.782259;45.651345;82444;6119524170;-73.786732;45.650278;2;26;27;9395035;Bus 27 : GARE STE-THÉRÈSE;"";EXO;27 O;Du Souvenir / Montée Gagnon;Gare Sainte-Thérèse
674530020;"{\"type\":\"LineString\",\"coordinates\":[[-73.7820306,45.6513037],[-73.78229,45.651278],[-73.7824524,45.6512708],[-73.7834967,45.6512248],[-73.784923,45.651162],[-73.7852143,45.6511304],[-73.7855047,45.6510405],[-73.785845,45.650878],[-73.7869251,45.6500727]]}";1;Boulevard Roland-Durand;2;50;false;false;false;false;false;false;214.5;0;0;0;0;0;false;82444;6119524170;-73.786732;45.650278;82445;6119524169;-73.791483;45.649831;1;27;28;9395035;Bus 27 : GARE STE-THÉRÈSE;"";EXO;27 O;Du Souvenir / Montée Gagnon;Gare Sainte-Thérèse
128322002;"{\"type\":\"LineString\",\"coordinates\":[[-73.7869251,45.6500727],[-73.787213,45.649858],[-73.7874288,45.6497481],[-73.78771,45.649693],[-73.788275,45.649675],[-73.7900304,45.6497495],[-73.7914923,45.6497723],[-73.7935797,45.6498828],[-73.7940422,45.6498679],[-73.7944515,45.6498099],[-73.7949504,45.6497013],[-73.7969318,45.6492009],[-73.7976392,45.6490222],[-73.797818,45.648977],[-73.7982148,45.6488434],[-73.798578,45.648677],[-73.799096,45.6483728],[-73.8003707,45.6474226],[-73.8018546,45.6463072],[-73.8025913,45.6457534],[-73.8033363,45.6451934],[-73.803543,45.645038],[-73.8036143,45.6449941],[-73.8040555,45.644722],[-73.804915,45.644192],[-73.8061477,45.643266],[-73.8068012,45.6427675],[-73.807487,45.64226],[-73.8076695,45.6421656],[-73.8085585,45.6417056],[-73.809037,45.641458],[-73.8094123,45.6411886]]}";2;Boulevard Roland-Durand;2;50;false;false;false;false;false;false;1068.5;0;0;0;0;0;false;82444;6119524170;-73.786732;45.650278;82445;6119524169;-73.791483;45.649831;1;27;28;9395035;Bus 27 : GARE STE-THÉRÈSE;"";EXO;27 O;Du Souvenir / Montée Gagnon;Gare Sainte-Thérèse
128322002;"{\"type\":\"LineString\",\"coordinates\":[[-73.7869251,45.6500727],[-73.787213,45.649858],[-73.7874288,45.6497481],[-73.78771,45.649693],[-73.788275,45.649675],[-73.7900304,45.6497495],[-73.7914923,45.6497723],[-73.7935797,45.6498828],[-73.7940422,45.6498679],[-73.7944515,45.6498099],[-73.7949504,45.6497013],[-73.7969318,45.6492009],[-73.7976392,45.6490222],[-73.797818,45.648977],[-73.7982148,45.6488434],[-73.798578,45.648677],[-73.799096,45.6483728],[-73.8003707,45.6474226],[-73.8018546,45.6463072],[-73.8025913,45.6457534],[-73.8033363,45.6451934],[-73.803543,45.645038],[-73.8036143,45.6449941],[-73.8040555,45.644722],[-73.804915,45.644192],[-73.8061477,45.643266],[-73.8068012,45.6427675],[-73.807487,45.64226],[-73.8076695,45.6421656],[-73.8085585,45.6417056],[-73.809037,45.641458],[-73.8094123,45.6411886]]}";1;Boulevard Roland-Durand;2;50;false;false;false;false;false;false;1068.5;0;0;0;0;0;false;82451;6119524163;-73.808731;45.641679;82452;6119524162;-73.809737;45.641067;1;34;35;9395035;Bus 27 : GARE STE-THÉRÈSE;"";EXO;27 O;Du Souvenir / Montée Gagnon;Gare Sainte-Thérèse
135456112;"{\"type\":\"LineString\",\"coordinates\":[[-73.8111654,45.6394299],[-73.8106392,45.6399722],[-73.8100659,45.6405514],[-73.809755,45.640882],[-73.8095187,45.6411027],[-73.8094123,45.6411886]]}";2;Boulevard Roland-Durand;2;50;false;false;false;false;false;false;119.5;0;0;0;0;0;false;82451;6119524163;-73.808731;45.641679;82452;6119524162;-73.809737;45.641067;1;34;35;9395035;Bus 27 : GARE STE-THÉRÈSE;"";EXO;27 O;Du Souvenir / Montée Gagnon;Gare Sainte-Thérèse
135456112;"{\"type\":\"LineString\",\"coordinates\":[[-73.8111654,45.6394299],[-73.8106392,45.6399722],[-73.8100659,45.6405514],[-73.809755,45.640882],[-73.8095187,45.6411027],[-73.8094123,45.6411886]]}";1;Boulevard Roland-Durand;2;50;false;false;false;false;false;false;119.5;0;0;0;0;0;false;82453;6119524161;-73.810798;45.640023;82454;6119524160;-73.811685;45.639037;1;36;37;9395035;Bus 27 : GARE STE-THÉRÈSE;"";EXO;27 O;Du Souvenir / Montée Gagnon;Gare Sainte-Thérèse
233965502;"{\"type\":\"LineString\",\"coordinates\":[[-73.811709,45.6390026],[-73.8116169,45.6390144],[-73.8115483,45.6390554],[-73.8111923,45.6394036],[-73.8111654,45.6394299]]}";2;Boulevard Roland-Durand;1;50;false;false;true;false;false;false;33.0;0;0;0;0;0;false;82453;6119524161;-73.810798;45.640023;82454;6119524160;-73.811685;45.639037;1;36;37;9395035;Bus 27 : GARE STE-THÉRÈSE;"";EXO;27 O;Du Souvenir / Montée Gagnon;Gare Sainte-Thérèse
473599069;"{\"type\":\"LineString\",\"coordinates\":[[-73.8119586,45.6390647],[-73.8118146,45.6390154],[-73.811709,45.6390026]]}";1;Boulevard Roland-Durand;1;50;false;false;true;false;false;false;21.0;0;0;0;0;0;false;82454;6119524160;-73.811685;45.639037;82033;6119525319;-73.822636;45.634986;2;37;38;9395035;Bus 27 : GARE STE-THÉRÈSE;"";EXO;27 O;Du Souvenir / Montée Gagnon;Gare Sainte-Thérèse
42901416;"{\"type\":\"LineString\",\"coordinates\":[[-73.8121995,45.6391941],[-73.8120881,45.6391343],[-73.8119586,45.6390647]]}";2;Boulevard Roland-Durand;1;50;false;false;true;false;false;false;24.0;0;0;0;0;0;false;82454;6119524160;-73.811685;45.639037;82033;6119525319;-73.822636;45.634986;0;37;38;9395035;Bus 27 : GARE STE-THÉRÈSE;"";EXO;27 O;Du Souvenir / Montée Gagnon;Gare Sainte-Thérèse
437706037;"{\"type\":\"LineString\",\"coordinates\":[[-73.8121995,45.6391941],[-73.81245,45.6393861],[-73.81257,45.6394785],[-73.8134578,45.6400738]]}";3;Boulevard René-A.-Robert;1;50;false;true;true;false;false;false;139.0;2;0;0;0;0;false;82454;6119524160;-73.811685;45.639037;82033;6119525319;-73.822636;45.634986;0;37;38;9395035;Bus 27 : GARE STE-THÉRÈSE;"";EXO;27 O;Du Souvenir / Montée Gagnon;Gare Sainte-Thérèse
676642392;"{\"type\":\"LineString\",\"coordinates\":[[-73.8134578,45.6400738],[-73.8135401,45.6399982],[-73.8141004,45.6394606],[-73.8158524,45.6375558],[-73.8164211,45.6370572]]}";4;"";2;50;false;true;true;false;false;false;408.0;2;0;0;0;0;false;82454;6119524160;-73.811685;45.639037;82033;6119525319;-73.822636;45.634986;0;37;38;9395035;Bus 27 : GARE STE-THÉRÈSE;"";EXO;27 O;Du Souvenir / Montée Gagnon;Gare Sainte-Thérèse
44625835;"{\"type\":\"LineString\",\"coordinates\":[[-73.8164211,45.6370572],[-73.8170872,45.63645]]}";5;"";2;50;false;true;true;false;false;false;86.0;0;0;0;0;0;false;82454;6119524160;-73.811685;45.639037;82033;6119525319;-73.822636;45.634986;0;37;38;9395035;Bus 27 : GARE STE-THÉRÈSE;"";EXO;27 O;Du Souvenir / Montée Gagnon;Gare Sainte-Thérèse
481972337;"{\"type\":\"LineString\",\"coordinates\":[[-73.8170872,45.63645],[-73.8173289,45.6362682]]}";6;"";2;50;false;true;true;false;false;false;28.0;0;0;0;0;0;false;82454;6119524160;-73.811685;45.639037;82033;6119525319;-73.822636;45.634986;0;37;38;9395035;Bus 27 : GARE STE-THÉRÈSE;"";EXO;27 O;Du Souvenir / Montée Gagnon;Gare Sainte-Thérèse
44625836;"{\"type\":\"LineString\",\"coordinates\":[[-73.8173289,45.6362682],[-73.818033,45.635803],[-73.818318,45.63566],[-73.818785,45.635585],[-73.820037,45.635677],[-73.820465,45.635625],[-73.820667,45.635522],[-73.8211188,45.6351403],[-73.8213525,45.6349621]]}";7;"";2;50;false;true;true;false;false;false;374.0;1;0;0;0;0;false;82454;6119524160;-73.811685;45.639037;82033;6119525319;-73.822636;45.634986;0;37;38;9395035;Bus 27 : GARE STE-THÉRÈSE;"";EXO;27 O;Du Souvenir / Montée Gagnon;Gare Sainte-Thérèse
470951517;"{\"type\":\"LineString\",\"coordinates\":[[-73.8213525,45.6349621],[-73.8214283,45.6349091]]}";8;Boulevard Desjardins Est;1;50;false;true;true;false;false;false;9.0;2;0;0;0;0;false;82454;6119524160;-73.811685;45.639037;82033;6119525319;-73.822636;45.634986;0;37;38;9395035;Bus 27 : GARE STE-THÉRÈSE;"";EXO;27 O;Du Souvenir / Montée Gagnon;Gare Sainte-Thérèse
23592123;"{\"type\":\"LineString\",\"coordinates\":[[-73.8214283,45.6349091],[-73.8215813,45.6348094],[-73.8217749,45.6347277],[-73.8219644,45.634696],[-73.8222244,45.6346836]]}";9;Boulevard Desjardins Est;1;40;false;true;true;false;false;false;70.0;1;0;0;0;0;false;82454;6119524160;-73.811685;45.639037;82033;6119525319;-73.822636;45.634986;0;37;38;9395035;Bus 27 : GARE STE-THÉRÈSE;"";EXO;27 O;Du Souvenir / Montée Gagnon;Gare Sainte-Thérèse
24783787;"{\"type\":\"LineString\",\"coordinates\":[[-73.8222244,45.6346836],[-73.8224752,45.6346844],[-73.8227957,45.6347287],[-73.8237039,45.6348755],[-73.8242893,45.6349395],[-73.8246625,45.6349529],[-73.8249806,45.6349644],[-73.82603,45.6349616],[-73.826275,45.63497],[-73.8265576,45.6349691],[-73.8277393,45.6349655],[-73.8279516,45.6349649],[-73.828371,45.6349636],[-73.828543,45.6349631],[-73.8288256,45.6349593],[-73.8295015,45.6349502],[-73.8297348,45.634928],[-73.83011,45.6348568],[-73.8303031,45.6348021],[-73.830473,45.6347483],[-73.8306253,45.634692],[-73.8308909,45.6346017],[-73.8312648,45.6344038],[-73.8312914,45.6343832]]}";10;Boulevard Desjardins Est;2;40;false;true;true;false;false;false;726.0;0;0;0;0;0;false;82454;6119524160;-73.811685;45.639037;82033;6119525319;-73.822636;45.634986;2;37;38;9395035;Bus 27 : GARE STE-THÉRÈSE;"";EXO;27 O;Du Souvenir / Montée Gagnon;Gare Sainte-Thérèse
24783787;"{\"type\":\"LineString\",\"coordinates\":[[-73.8222244,45.6346836],[-73.8224752,45.6346844],[-73.8227957,45.6347287],[-73.8237039,45.6348755],[-73.8242893,45.6349395],[-73.8246625,45.6349529],[-73.8249806,45.6349644],[-73.82603,45.6349616],[-73.826275,45.63497],[-73.8265576,45.6349691],[-73.8277393,45.6349655],[-73.8279516,45.6349649],[-73.828371,45.6349636],[-73.828543,45.6349631],[-73.8288256,45.6349593],[-73.8295015,45.6349502],[-73.8297348,45.634928],[-73.83011,45.6348568],[-73.8303031,45.6348021],[-73.830473,45.6347483],[-73.8306253,45.634692],[-73.8308909,45.6346017],[-73.8312648,45.6344038],[-73.8312914,45.6343832]]}";1;Boulevard Desjardins Est;2;40;false;true;true;false;false;false;363.0;0;0;0;0;0;false;82844;6119523785;-73.829385;45.634908;82035;6119525317;-73.834747;45.635784;1;40;41;9395035;Bus 27 : GARE STE-THÉRÈSE;"";EXO;27 O;Du Souvenir / Montée Gagnon;Gare Sainte-Thérèse
653256415;"{\"type\":\"LineString\",\"coordinates\":[[-73.8312914,45.6343832],[-73.8319665,45.6348309],[-73.8321067,45.6349239],[-73.8322795,45.6350385],[-73.8326436,45.6352799],[-73.8329976,45.6355146]]}";2;Rue Saint-Alphonse;1;50;false;false;true;false;false;false;183.0;0;0;0;0;0;false;82844;6119523785;-73.829385;45.634908;82035;6119525317;-73.834747;45.635784;0;40;41;9395035;Bus 27 : GARE STE-THÉRÈSE;"";EXO;27 O;Du Souvenir / Montée Gagnon;Gare Sainte-Thérèse
529203724;"{\"type\":\"LineString\",\"coordinates\":[[-73.8339481,45.6356843],[-73.8337953,45.6356449],[-73.8337255,45.6356355],[-73.8335183,45.6356418],[-73.8331872,45.6356518],[-73.8329976,45.6355146]]}";3;"";1;50;false;false;true;false;false;false;82.0;0;0;0;0;0;false;82844;6119523785;-73.829385;45.634908;82035;6119525317;-73.834747;45.635784;0;40;41;9395035;Bus 27 : GARE STE-THÉRÈSE;"";EXO;27 O;Du Souvenir / Montée Gagnon;Gare Sainte-Thérèse
529203723;"{\"type\":\"LineString\",\"coordinates\":[[-73.8339481,45.6356843],[-73.8343198,45.635673],[-73.8355432,45.6356357],[-73.835722,45.6356303],[-73.8358794,45.6356222],[-73.8360357,45.6356141]]}";4;"";1;50;false;true;true;false;false;false;163.0;0;0;0;0;0;false;82844;6119523785;-73.829385;45.634908;82035;6119525317;-73.834747;45.635784;0;40;41;9395035;Bus 27 : GARE STE-THÉRÈSE;"";EXO;27 O;Du Souvenir / Montée Gagnon;Gare Sainte-Thérèse
293537867;"{\"type\":\"LineString\",\"coordinates\":[[-73.8360357,45.6356141],[-73.8360384,45.635693],[-73.8360089,45.6357774],[-73.8359547,45.6358045],[-73.8358842,45.6358399]]}";5;"";1;50;false;true;true;false;false;false;31.0;0;0;0;0;0;false;82844;6119523785;-73.829385;45.634908;82035;6119525317;-73.834747;45.635784;0;40;41;9395035;Bus 27 : GARE STE-THÉRÈSE;"";EXO;27 O;Du Souvenir / Montée Gagnon;Gare Sainte-Thérèse
676299802;"{\"type\":\"LineString\",\"coordinates\":[[-73.8358842,45.6358399],[-73.8355794,45.6358509],[-73.834757,45.6358805]]}";6;"";1;50;false;true;true;false;false;false;88.0;0;0;0;0;0;false;82844;6119523785;-73.829385;45.634908;82035;6119525317;-73.834747;45.635784;1;40;41;9395035;Bus 27 : GARE STE-THÉRÈSE;"";EXO;27 O;Du Souvenir / Montée Gagnon;Gare Sainte-Thérèse
