way_id;shape;index;name;nb_lanes;legal_speed;speed_zone_30;oneway;shares_bike;bike_box;bus_lane;dedicated_bus_lane;length;nb_traffic_signals;nb_crossings;nb_stops;nb_give_ways;nb_lvl_crossings;roundabout;stop_id_orig;node_id_orig;coord_x_orig;coord_y_orig;stop_id_dest;node_id_dest;coord_x_dest;coord_y_dest;nb_neighbouring_ways_bus_stop;ordre_orig;ordre_dest;id_line;line_name;colour;operator;ref;from;to
449437619;"{\"type\":\"LineString\",\"coordinates\":[[-70.5854025,-33.4310528],[-70.5857374,-33.4307505],[-70.5858211,-33.4306832]]}";1;Avenida Tobalaba;2;50;false;true;true;false;false;false;142.0;1;1;0;0;0;false;Parada 1 / (M) Bilbao;1175278587;-70.5853526;-33.4310128;Alcántara / Isabel La Católica;1175352368;-70.5828113;-33.4298276;1;0;1;6790804;Hacia Cerro 18;#ED1C24;Redbus Urbano S.A.;C01;"";""
160412590;"{\"type\":\"LineString\",\"coordinates\":[[-70.5858211,-33.4306832],[-70.5857334,-33.4306292],[-70.5856357,-33.4305732]]}";2;Puente Alcalde Mauricio Litvak;3;50;false;true;false;false;false;false;53.0;1;1;0;0;0;false;Parada 1 / (M) Bilbao;1175278587;-70.5853526;-33.4310128;Alcántara / Isabel La Católica;1175352368;-70.5828113;-33.4298276;0;0;1;6790804;Hacia Cerro 18;#ED1C24;Redbus Urbano S.A.;C01;"";""
159771568;"{\"type\":\"LineString\",\"coordinates\":[[-70.5856357,-33.4305732],[-70.585495,-33.4304919]]}";3;Puente Alcalde Mauricio Litvak;3;50;false;true;false;false;false;false;40.0;0;0;0;0;0;false;Parada 1 / (M) Bilbao;1175278587;-70.5853526;-33.4310128;Alcántara / Isabel La Católica;1175352368;-70.5828113;-33.4298276;0;0;1;6790804;Hacia Cerro 18;#ED1C24;Redbus Urbano S.A.;C01;"";""
159771574;"{\"type\":\"LineString\",\"coordinates\":[[-70.585495,-33.4304919],[-70.5854181,-33.430448],[-70.5853131,-33.4304151]]}";4;Puente Alcalde Mauricio Litvak;3;50;false;true;false;false;false;false;48.0;1;1;0;0;0;false;Parada 1 / (M) Bilbao;1175278587;-70.5853526;-33.4310128;Alcántara / Isabel La Católica;1175352368;-70.5828113;-33.4298276;0;0;1;6790804;Hacia Cerro 18;#ED1C24;Redbus Urbano S.A.;C01;"";""
135699033;"{\"type\":\"LineString\",\"coordinates\":[[-70.5853131,-33.4304151],[-70.5844879,-33.4302145],[-70.5839072,-33.4300592],[-70.5837874,-33.4300272],[-70.5836845,-33.4299988],[-70.5832218,-33.4298781],[-70.5827705,-33.4297617],[-70.5826906,-33.429743]]}";5;Avenida Isabel La Católica;3;50;false;true;false;false;false;false;319.5;2;1;0;0;0;false;Parada 1 / (M) Bilbao;1175278587;-70.5853526;-33.4310128;Alcántara / Isabel La Católica;1175352368;-70.5828113;-33.4298276;1;0;1;6790804;Hacia Cerro 18;#ED1C24;Redbus Urbano S.A.;C01;"";""
135699033;"{\"type\":\"LineString\",\"coordinates\":[[-70.5853131,-33.4304151],[-70.5844879,-33.4302145],[-70.5839072,-33.4300592],[-70.5837874,-33.4300272],[-70.5836845,-33.4299988],[-70.5832218,-33.4298781],[-70.5827705,-33.4297617],[-70.5826906,-33.429743]]}";1;Avenida Isabel La Católica;3;50;false;true;false;false;false;false;319.5;2;1;0;0;0;false;Alcántara / Isabel La Católica;1175352368;-70.5828113;-33.4298276;Flandes / Isabel La Católica;1175352422;-70.5797187;-33.4284039;1;1;2;6790804;Hacia Cerro 18;#ED1C24;Redbus Urbano S.A.;C01;"";""
565122041;"{\"type\":\"LineString\",\"coordinates\":[[-70.5826906,-33.429743],[-70.582055,-33.4295827],[-70.581924,-33.429547],[-70.5815754,-33.4294586],[-70.5814114,-33.4294165],[-70.5810105,-33.4293143],[-70.580905,-33.4292808]]}";2;Avenida Isabel La Católica;3;50;false;true;false;false;false;false;436.0;2;1;0;0;0;false;Alcántara / Isabel La Católica;1175352368;-70.5828113;-33.4298276;Flandes / Isabel La Católica;1175352422;-70.5797187;-33.4284039;0;1;2;6790804;Hacia Cerro 18;#ED1C24;Redbus Urbano S.A.;C01;"";""
225865004;"{\"type\":\"LineString\",\"coordinates\":[[-70.580905,-33.4292808],[-70.580803,-33.4292356],[-70.5806932,-33.4291836],[-70.5805737,-33.4290807]]}";3;Avenida Isabel La Católica;3;50;false;true;false;false;false;false;97.0;2;0;0;0;0;false;Alcántara / Isabel La Católica;1175352368;-70.5828113;-33.4298276;Flandes / Isabel La Católica;1175352422;-70.5797187;-33.4284039;0;1;2;6790804;Hacia Cerro 18;#ED1C24;Redbus Urbano S.A.;C01;"";""
225864991;"{\"type\":\"LineString\",\"coordinates\":[[-70.5805737,-33.4290807],[-70.5804805,-33.4289956],[-70.5803222,-33.4288463],[-70.5801516,-33.4286896],[-70.5796887,-33.4282765],[-70.5796275,-33.4282201],[-70.5795674,-33.4281651],[-70.5788104,-33.42749],[-70.5783059,-33.4270299],[-70.5782393,-33.4269762]]}";4;Avenida Isabel La Católica;3;50;false;true;false;false;false;false;399.0;3;3;0;0;0;false;Alcántara / Isabel La Católica;1175352368;-70.5828113;-33.4298276;Flandes / Isabel La Católica;1175352422;-70.5797187;-33.4284039;1;1;2;6790804;Hacia Cerro 18;#ED1C24;Redbus Urbano S.A.;C01;"";""
225864991;"{\"type\":\"LineString\",\"coordinates\":[[-70.5805737,-33.4290807],[-70.5804805,-33.4289956],[-70.5803222,-33.4288463],[-70.5801516,-33.4286896],[-70.5796887,-33.4282765],[-70.5796275,-33.4282201],[-70.5795674,-33.4281651],[-70.5788104,-33.42749],[-70.5783059,-33.4270299],[-70.5782393,-33.4269762]]}";1;Avenida Isabel La Católica;3;50;false;true;false;false;false;false;399.0;3;3;0;0;0;false;Santa Adriana / Isabel La Catolica;1175352395;-70.578332;-33.4271481;Cristóbal Colón / Vespucio;1175605899;-70.5786852;-33.4236533;1;3;4;6790804;Hacia Cerro 18;#ED1C24;Redbus Urbano S.A.;C01;"";""
92162017;"{\"type\":\"LineString\",\"coordinates\":[[-70.5782393,-33.4269762],[-70.5781746,-33.4269162],[-70.577545,-33.4263536],[-70.5774173,-33.4262241],[-70.577175,-33.4259989],[-70.5771048,-33.4259372]]}";2;Avenida Isabel La Católica;4;50;false;true;true;false;false;false;392.0;2;2;0;0;0;false;Santa Adriana / Isabel La Catolica;1175352395;-70.578332;-33.4271481;Cristóbal Colón / Vespucio;1175605899;-70.5786852;-33.4236533;0;3;4;6790804;Hacia Cerro 18;#ED1C24;Redbus Urbano S.A.;C01;"";""
135892745;"{\"type\":\"LineString\",\"coordinates\":[[-70.5771048,-33.4259372],[-70.5770483,-33.4258905]]}";3;Avenida Isabel La Católica;4;50;false;true;true;false;false;false;19.0;1;0;0;0;0;false;Santa Adriana / Isabel La Catolica;1175352395;-70.578332;-33.4271481;Cristóbal Colón / Vespucio;1175605899;-70.5786852;-33.4236533;0;3;4;6790804;Hacia Cerro 18;#ED1C24;Redbus Urbano S.A.;C01;"";""
95334860;"{\"type\":\"LineString\",\"coordinates\":[[-70.5770483,-33.4258905],[-70.5769932,-33.4258042],[-70.5769688,-33.4257566],[-70.5769487,-33.4256798]]}";4;Avenida Américo Vespucio;2;50;false;true;true;false;false;false;64.0;0;1;0;0;0;false;Santa Adriana / Isabel La Catolica;1175352395;-70.578332;-33.4271481;Cristóbal Colón / Vespucio;1175605899;-70.5786852;-33.4236533;0;3;4;6790804;Hacia Cerro 18;#ED1C24;Redbus Urbano S.A.;C01;"";""
551123243;"{\"type\":\"LineString\",\"coordinates\":[[-70.5769487,-33.4256798],[-70.5769323,-33.4256052],[-70.5769384,-33.4255237]]}";5;Avenida Américo Vespucio;2;50;false;true;true;false;false;false;44.0;0;1;0;0;0;false;Santa Adriana / Isabel La Catolica;1175352395;-70.578332;-33.4271481;Cristóbal Colón / Vespucio;1175605899;-70.5786852;-33.4236533;0;3;4;6790804;Hacia Cerro 18;#ED1C24;Redbus Urbano S.A.;C01;"";""
459428329;"{\"type\":\"LineString\",\"coordinates\":[[-70.5769384,-33.4255237],[-70.5772503,-33.4252188],[-70.5781743,-33.424302],[-70.5788994,-33.4235185],[-70.5789719,-33.4234371]]}";6;Avenida Américo Vespucio;3;60;false;true;true;false;false;false;374.5;1;1;0;0;0;false;Santa Adriana / Isabel La Catolica;1175352395;-70.578332;-33.4271481;Cristóbal Colón / Vespucio;1175605899;-70.5786852;-33.4236533;1;3;4;6790804;Hacia Cerro 18;#ED1C24;Redbus Urbano S.A.;C01;"";""
459428329;"{\"type\":\"LineString\",\"coordinates\":[[-70.5769384,-33.4255237],[-70.5772503,-33.4252188],[-70.5781743,-33.424302],[-70.5788994,-33.4235185],[-70.5789719,-33.4234371]]}";1;Avenida Américo Vespucio;3;60;false;true;true;false;false;false;374.5;1;1;0;0;0;false;Cristóbal Colón / Vespucio;1175605899;-70.5786852;-33.4236533;Martín de Zamora / Vespucio;1175605927;-70.5800325;-33.4219456;1;4;5;6790804;Hacia Cerro 18;#ED1C24;Redbus Urbano S.A.;C01;"";""
96183615;"{\"type\":\"LineString\",\"coordinates\":[[-70.5789719,-33.4234371],[-70.5790457,-33.4233504],[-70.5796613,-33.4225387],[-70.580097,-33.4219642],[-70.5802305,-33.4217806],[-70.5802695,-33.4217347],[-70.5802879,-33.4217098],[-70.5811417,-33.420556],[-70.5813593,-33.4202595],[-70.581641,-33.4198908],[-70.5818115,-33.4196257],[-70.5820807,-33.4191167],[-70.5822507,-33.4187589],[-70.5822739,-33.4187114],[-70.5823883,-33.4184654],[-70.5825314,-33.4181657],[-70.5825462,-33.4181372],[-70.5825608,-33.4181092]]}";2;Avenida Américo Vespucio;3;50;false;true;true;false;false;false;852.0;4;5;0;0;0;false;Cristóbal Colón / Vespucio;1175605899;-70.5786852;-33.4236533;Martín de Zamora / Vespucio;1175605927;-70.5800325;-33.4219456;1;4;5;6790804;Hacia Cerro 18;#ED1C24;Redbus Urbano S.A.;C01;"";""
96183615;"{\"type\":\"LineString\",\"coordinates\":[[-70.5789719,-33.4234371],[-70.5790457,-33.4233504],[-70.5796613,-33.4225387],[-70.580097,-33.4219642],[-70.5802305,-33.4217806],[-70.5802695,-33.4217347],[-70.5802879,-33.4217098],[-70.5811417,-33.420556],[-70.5813593,-33.4202595],[-70.581641,-33.4198908],[-70.5818115,-33.4196257],[-70.5820807,-33.4191167],[-70.5822507,-33.4187589],[-70.5822739,-33.4187114],[-70.5823883,-33.4184654],[-70.5825314,-33.4181657],[-70.5825462,-33.4181372],[-70.5825608,-33.4181092]]}";1;Avenida Américo Vespucio;3;50;false;true;true;false;false;false;852.0;4;5;0;0;0;false;Del Inca / Vespucio;1175605951;-70.5821397;-33.4187727;Cruz Del Sur / Neveria;1175347003;-70.583143;-33.4157409;1;6;7;6790804;Hacia Cerro 18;#ED1C24;Redbus Urbano S.A.;C01;"";""
573304857;"{\"type\":\"LineString\",\"coordinates\":[[-70.5825608,-33.4181092],[-70.5830867,-33.4169493],[-70.5831247,-33.4168656],[-70.583141,-33.4168363],[-70.5831535,-33.4168102],[-70.5831965,-33.4167202],[-70.5832584,-33.416596],[-70.5834212,-33.4162747],[-70.5835938,-33.4159109],[-70.5836148,-33.4158667]]}";2;Avenida Américo Vespucio;3;50;false;true;true;false;false;false;669.0;2;1;0;0;0;false;Del Inca / Vespucio;1175605951;-70.5821397;-33.4187727;Cruz Del Sur / Neveria;1175347003;-70.583143;-33.4157409;0;6;7;6790804;Hacia Cerro 18;#ED1C24;Redbus Urbano S.A.;C01;"";""
442613733;"{\"type\":\"LineString\",\"coordinates\":[[-70.5836148,-33.4158667],[-70.5835681,-33.4158495],[-70.5826248,-33.4155221],[-70.5825544,-33.415496]]}";3;Neveria;1;50;false;true;false;false;false;false;134.0;0;2;0;0;0;false;Del Inca / Vespucio;1175605951;-70.5821397;-33.4187727;Cruz Del Sur / Neveria;1175347003;-70.583143;-33.4157409;1;6;7;6790804;Hacia Cerro 18;#ED1C24;Redbus Urbano S.A.;C01;"";""
442613733;"{\"type\":\"LineString\",\"coordinates\":[[-70.5836148,-33.4158667],[-70.5835681,-33.4158495],[-70.5826248,-33.4155221],[-70.5825544,-33.415496]]}";1;Neveria;1;50;false;true;false;false;false;false;134.0;0;2;0;0;0;false;Cruz Del Sur / Neveria;1175347003;-70.583143;-33.4157409;Parada 4 / (M) Escuela Militar;1175278675;-70.5822142;-33.413443;1;7;8;6790804;Hacia Cerro 18;#ED1C24;Redbus Urbano S.A.;C01;"";""
38590681;"{\"type\":\"LineString\",\"coordinates\":[[-70.5825544,-33.415496],[-70.5831208,-33.4143328],[-70.5831301,-33.4143132],[-70.5832718,-33.413998],[-70.5832843,-33.4139565],[-70.5832843,-33.4139087],[-70.5832672,-33.4138612],[-70.5831721,-33.4137462]]}";2;Cruz del Sur;1;50;false;true;true;false;false;false;526.0;0;2;0;1;0;false;Cruz Del Sur / Neveria;1175347003;-70.583143;-33.4157409;Parada 4 / (M) Escuela Militar;1175278675;-70.5822142;-33.413443;0;7;8;6790804;Hacia Cerro 18;#ED1C24;Redbus Urbano S.A.;C01;"";""
459428326;"{\"type\":\"LineString\",\"coordinates\":[[-70.5831721,-33.4137462],[-70.5819412,-33.4132431]]}";3;Avenida Apoquindo;3;50;false;true;true;false;true;false;159.5;0;0;0;0;0;false;Cruz Del Sur / Neveria;1175347003;-70.583143;-33.4157409;Parada 4 / (M) Escuela Militar;1175278675;-70.5822142;-33.413443;1;7;8;6790804;Hacia Cerro 18;#ED1C24;Redbus Urbano S.A.;C01;"";""
459428326;"{\"type\":\"LineString\",\"coordinates\":[[-70.5831721,-33.4137462],[-70.5819412,-33.4132431]]}";1;Avenida Apoquindo;3;50;false;true;true;false;true;false;159.5;0;0;0;0;0;false;Parada 4 / (M) Escuela Militar;1175278675;-70.5822142;-33.413443;Omnium;1175607863;-70.5778739;-33.4120126;1;8;9;6790804;Hacia Cerro 18;#ED1C24;Redbus Urbano S.A.;C01;"";""
454067143;"{\"type\":\"LineString\",\"coordinates\":[[-70.5819412,-33.4132431],[-70.58132,-33.4129911]]}";2;Avenida Apoquindo;3;60;false;true;true;false;true;false;161.0;1;0;0;0;0;false;Parada 4 / (M) Escuela Militar;1175278675;-70.5822142;-33.413443;Omnium;1175607863;-70.5778739;-33.4120126;0;8;9;6790804;Hacia Cerro 18;#ED1C24;Redbus Urbano S.A.;C01;"";""
238959511;"{\"type\":\"LineString\",\"coordinates\":[[-70.58132,-33.4129911],[-70.5812503,-33.4129613],[-70.5810004,-33.4128547],[-70.5808348,-33.4127898],[-70.5803846,-33.4126281],[-70.5801608,-33.4125616],[-70.5796376,-33.4124227],[-70.5795634,-33.4124046]]}";3;Avenida Apoquindo;3;50;false;true;true;false;false;false;441.0;2;2;0;0;0;false;Parada 4 / (M) Escuela Militar;1175278675;-70.5822142;-33.413443;Omnium;1175607863;-70.5778739;-33.4120126;0;8;9;6790804;Hacia Cerro 18;#ED1C24;Redbus Urbano S.A.;C01;"";""
238959513;"{\"type\":\"LineString\",\"coordinates\":[[-70.5795634,-33.4124046],[-70.5786119,-33.412137],[-70.5785103,-33.4121085],[-70.5776654,-33.4118709],[-70.5770678,-33.4117029],[-70.5760282,-33.4114105],[-70.5759369,-33.4113848]]}";4;Avenida Apoquindo;3;50;false;true;true;false;false;false;445.5;2;1;0;0;0;false;Parada 4 / (M) Escuela Militar;1175278675;-70.5822142;-33.413443;Omnium;1175607863;-70.5778739;-33.4120126;1;8;9;6790804;Hacia Cerro 18;#ED1C24;Redbus Urbano S.A.;C01;"";""
238959513;"{\"type\":\"LineString\",\"coordinates\":[[-70.5795634,-33.4124046],[-70.5786119,-33.412137],[-70.5785103,-33.4121085],[-70.5776654,-33.4118709],[-70.5770678,-33.4117029],[-70.5760282,-33.4114105],[-70.5759369,-33.4113848]]}";1;Avenida Apoquindo;3;50;false;true;true;false;false;false;445.5;2;1;0;0;0;false;Rosa O'Higgins / Avenida Apoquindo;1175607885;-70.5760726;-33.4114812;La Capitánia / Avenida Apoquindo;1175607901;-70.5726854;-33.4104046;1;10;11;6790804;Hacia Cerro 18;#ED1C24;Redbus Urbano S.A.;C01;"";""
238959517;"{\"type\":\"LineString\",\"coordinates\":[[-70.5759369,-33.4113848],[-70.5758103,-33.4113432],[-70.574322,-33.4108532],[-70.5742464,-33.4108283]]}";2;Avenida Apoquindo;3;50;false;true;true;false;false;false;423.0;2;2;0;0;0;false;Rosa O'Higgins / Avenida Apoquindo;1175607885;-70.5760726;-33.4114812;La Capitánia / Avenida Apoquindo;1175607901;-70.5726854;-33.4104046;0;10;11;6790804;Hacia Cerro 18;#ED1C24;Redbus Urbano S.A.;C01;"";""
238959519;"{\"type\":\"LineString\",\"coordinates\":[[-70.5742464,-33.4108283],[-70.5741712,-33.410805],[-70.5736662,-33.410642],[-70.5732561,-33.4105175],[-70.5721213,-33.4101935]]}";3;Avenida Apoquindo;1;50;false;true;true;false;false;false;262.5;1;1;0;0;0;false;Rosa O'Higgins / Avenida Apoquindo;1175607885;-70.5760726;-33.4114812;La Capitánia / Avenida Apoquindo;1175607901;-70.5726854;-33.4104046;1;10;11;6790804;Hacia Cerro 18;#ED1C24;Redbus Urbano S.A.;C01;"";""
238959519;"{\"type\":\"LineString\",\"coordinates\":[[-70.5742464,-33.4108283],[-70.5741712,-33.410805],[-70.5736662,-33.410642],[-70.5732561,-33.4105175],[-70.5721213,-33.4101935]]}";1;Avenida Apoquindo;1;50;false;true;true;false;false;false;262.5;1;1;0;0;0;false;La Capitánia / Avenida Apoquindo;1175607901;-70.5726854;-33.4104046;Parada 4 / (M) Manquehue;1175607918;-70.5695031;-33.4095145;1;11;12;6790804;Hacia Cerro 18;#ED1C24;Redbus Urbano S.A.;C01;"";""
282615555;"{\"type\":\"LineString\",\"coordinates\":[[-70.5721213,-33.4101935],[-70.5720068,-33.4101605],[-70.5719053,-33.4101305],[-70.5711387,-33.409902],[-70.5709746,-33.4098516],[-70.5709423,-33.4098417],[-70.5708588,-33.4098193],[-70.5707013,-33.4097872],[-70.5706116,-33.4097709],[-70.5705055,-33.4097439]]}";2;Avenida Apoquindo;3;50;false;true;true;false;false;false;397.0;1;2;0;0;0;false;La Capitánia / Avenida Apoquindo;1175607901;-70.5726854;-33.4104046;Parada 4 / (M) Manquehue;1175607918;-70.5695031;-33.4095145;0;11;12;6790804;Hacia Cerro 18;#ED1C24;Redbus Urbano S.A.;C01;"";""
238959512;"{\"type\":\"LineString\",\"coordinates\":[[-70.5705055,-33.4097439],[-70.5704088,-33.4097203],[-70.5701963,-33.409663],[-70.570002,-33.4096094]]}";3;Avenida Apoquindo;3;50;false;true;true;false;false;false;123.0;1;1;0;0;0;false;La Capitánia / Avenida Apoquindo;1175607901;-70.5726854;-33.4104046;Parada 4 / (M) Manquehue;1175607918;-70.5695031;-33.4095145;0;11;12;6790804;Hacia Cerro 18;#ED1C24;Redbus Urbano S.A.;C01;"";""
452126046;"{\"type\":\"LineString\",\"coordinates\":[[-70.570002,-33.4096094],[-70.5690195,-33.4093258],[-70.5681732,-33.4091005]]}";4;Avenida Apoquindo;4;50;false;true;true;false;false;false;224.5;0;0;0;0;0;false;La Capitánia / Avenida Apoquindo;1175607901;-70.5726854;-33.4104046;Parada 4 / (M) Manquehue;1175607918;-70.5695031;-33.4095145;1;11;12;6790804;Hacia Cerro 18;#ED1C24;Redbus Urbano S.A.;C01;"";""
452126046;"{\"type\":\"LineString\",\"coordinates\":[[-70.570002,-33.4096094],[-70.5690195,-33.4093258],[-70.5681732,-33.4091005]]}";1;Avenida Apoquindo;4;50;false;true;true;false;false;false;224.5;0;0;0;0;0;false;Parada 4 / (M) Manquehue;1175607918;-70.5695031;-33.4095145;Esteban Dell Orto / Avenida Apoquindo;1175607957;-70.5640406;-33.4080801;1;12;13;6790804;Hacia Cerro 18;#ED1C24;Redbus Urbano S.A.;C01;"";""
198152074;"{\"type\":\"LineString\",\"coordinates\":[[-70.5681732,-33.4091005],[-70.5673415,-33.408884],[-70.5671534,-33.4088264],[-70.5670499,-33.4087977],[-70.5664275,-33.4086205],[-70.5658326,-33.4084726]]}";2;Avenida Apoquindo;3;50;false;true;true;false;false;false;572.0;2;1;0;0;0;false;Parada 4 / (M) Manquehue;1175607918;-70.5695031;-33.4095145;Esteban Dell Orto / Avenida Apoquindo;1175607957;-70.5640406;-33.4080801;0;12;13;6790804;Hacia Cerro 18;#ED1C24;Redbus Urbano S.A.;C01;"";""
441496974;"{\"type\":\"LineString\",\"coordinates\":[[-70.5658326,-33.4084726],[-70.5656931,-33.4084366],[-70.5656428,-33.4084235],[-70.5654887,-33.4083833],[-70.5649515,-33.4082509],[-70.564422,-33.4081184],[-70.5641447,-33.4080493],[-70.5633843,-33.4078599],[-70.5626248,-33.4076694],[-70.5624006,-33.4076473],[-70.5621559,-33.4075977],[-70.5619673,-33.407563]]}";3;Avenida Apoquindo;3;50;false;true;true;false;false;false;467.5;1;3;0;0;0;false;Parada 4 / (M) Manquehue;1175607918;-70.5695031;-33.4095145;Esteban Dell Orto / Avenida Apoquindo;1175607957;-70.5640406;-33.4080801;1;12;13;6790804;Hacia Cerro 18;#ED1C24;Redbus Urbano S.A.;C01;"";""
441496974;"{\"type\":\"LineString\",\"coordinates\":[[-70.5658326,-33.4084726],[-70.5656931,-33.4084366],[-70.5656428,-33.4084235],[-70.5654887,-33.4083833],[-70.5649515,-33.4082509],[-70.564422,-33.4081184],[-70.5641447,-33.4080493],[-70.5633843,-33.4078599],[-70.5626248,-33.4076694],[-70.5624006,-33.4076473],[-70.5621559,-33.4075977],[-70.5619673,-33.407563]]}";1;Avenida Apoquindo;3;50;false;true;true;false;false;false;467.5;1;3;0;0;0;false;Esteban Dell Orto / Avenida Apoquindo;1175607957;-70.5640406;-33.4080801;Juan Montalvo / Avenida Las Condes;1175607402;-70.5600286;-33.4064143;1;13;14;6790804;Hacia Cerro 18;#ED1C24;Redbus Urbano S.A.;C01;"";""
22372426;"{\"type\":\"LineString\",\"coordinates\":[[-70.5626248,-33.4076694],[-70.5624556,-33.4076172],[-70.5621635,-33.4075434],[-70.5620185,-33.407511],[-70.5617224,-33.4074374],[-70.5616652,-33.4074144],[-70.5615826,-33.4073704]]}";2;Avenida Las Condes;2;50;false;true;true;false;false;false;258.0;1;0;0;0;0;false;Esteban Dell Orto / Avenida Apoquindo;1175607957;-70.5640406;-33.4080801;Juan Montalvo / Avenida Las Condes;1175607402;-70.5600286;-33.4064143;0;13;14;6790804;Hacia Cerro 18;#ED1C24;Redbus Urbano S.A.;C01;"";""
282619368;"{\"type\":\"LineString\",\"coordinates\":[[-70.5615826,-33.4073704],[-70.5614363,-33.4072809],[-70.56135,-33.4072269]]}";3;Avenida Las Condes;4;50;false;true;true;false;true;false;68.0;1;0;0;0;0;false;Esteban Dell Orto / Avenida Apoquindo;1175607957;-70.5640406;-33.4080801;Juan Montalvo / Avenida Las Condes;1175607402;-70.5600286;-33.4064143;0;13;14;6790804;Hacia Cerro 18;#ED1C24;Redbus Urbano S.A.;C01;"";""
452126047;"{\"type\":\"LineString\",\"coordinates\":[[-70.56135,-33.4072269],[-70.5610896,-33.4070177],[-70.5609465,-33.4068946],[-70.5607306,-33.4067648],[-70.5603306,-33.4065331]]}";4;Avenida Las Condes;2;60;false;true;true;false;true;false;307.0;0;1;0;0;0;false;Esteban Dell Orto / Avenida Apoquindo;1175607957;-70.5640406;-33.4080801;Juan Montalvo / Avenida Las Condes;1175607402;-70.5600286;-33.4064143;0;13;14;6790804;Hacia Cerro 18;#ED1C24;Redbus Urbano S.A.;C01;"";""
452126048;"{\"type\":\"LineString\",\"coordinates\":[[-70.5603306,-33.4065331],[-70.5599385,-33.4063116],[-70.5594408,-33.4060232]]}";5;Avenida Las Condes;3;60;false;true;true;false;true;false;125.5;0;0;0;0;0;false;Esteban Dell Orto / Avenida Apoquindo;1175607957;-70.5640406;-33.4080801;Juan Montalvo / Avenida Las Condes;1175607402;-70.5600286;-33.4064143;1;13;14;6790804;Hacia Cerro 18;#ED1C24;Redbus Urbano S.A.;C01;"";""
452126048;"{\"type\":\"LineString\",\"coordinates\":[[-70.5603306,-33.4065331],[-70.5599385,-33.4063116],[-70.5594408,-33.4060232]]}";1;Avenida Las Condes;3;60;false;true;true;false;true;false;125.5;0;0;0;0;0;false;Juan Montalvo / Avenida Las Condes;1175607402;-70.5600286;-33.4064143;Carol Urzua / Avenida Las Condes;1175607290;-70.5577137;-33.4050407;1;14;15;6790804;Hacia Cerro 18;#ED1C24;Redbus Urbano S.A.;C01;"";""
452126049;"{\"type\":\"LineString\",\"coordinates\":[[-70.5594408,-33.4060232],[-70.5588922,-33.4057052],[-70.5576263,-33.4049439],[-70.5574214,-33.4047947],[-70.5571,-33.4045618],[-70.5568194,-33.4043584],[-70.5567559,-33.4043133],[-70.556632,-33.4041663],[-70.556577,-33.4040924],[-70.5564122,-33.4038401],[-70.5563746,-33.4037772],[-70.5561197,-33.4033389]]}";2;Avenida Las Condes;3;60;false;true;true;false;true;false;547.0;2;0;0;0;0;false;Juan Montalvo / Avenida Las Condes;1175607402;-70.5600286;-33.4064143;Carol Urzua / Avenida Las Condes;1175607290;-70.5577137;-33.4050407;1;14;15;6790804;Hacia Cerro 18;#ED1C24;Redbus Urbano S.A.;C01;"";""
452126049;"{\"type\":\"LineString\",\"coordinates\":[[-70.5594408,-33.4060232],[-70.5588922,-33.4057052],[-70.5576263,-33.4049439],[-70.5574214,-33.4047947],[-70.5571,-33.4045618],[-70.5568194,-33.4043584],[-70.5567559,-33.4043133],[-70.556632,-33.4041663],[-70.556577,-33.4040924],[-70.5564122,-33.4038401],[-70.5563746,-33.4037772],[-70.5561197,-33.4033389]]}";1;Avenida Las Condes;3;60;false;true;true;false;true;false;547.0;2;0;0;0;0;false;Carol Urzua / Avenida Las Condes;1175607290;-70.5577137;-33.4050407;Paul Klee / Avenida Las Condes;1175607302;-70.5544193;-33.4010715;1;15;16;6790804;Hacia Cerro 18;#ED1C24;Redbus Urbano S.A.;C01;"";""
452126050;"{\"type\":\"LineString\",\"coordinates\":[[-70.5561197,-33.4033389],[-70.5558538,-33.4028023],[-70.5554679,-33.4020335],[-70.5552614,-33.4017536],[-70.5550481,-33.4015062],[-70.5549168,-33.4013688],[-70.5548255,-33.40128],[-70.5546927,-33.4011804],[-70.5542409,-33.4008489],[-70.5536105,-33.4004067],[-70.5530479,-33.3999743],[-70.5525064,-33.3994807],[-70.5514168,-33.3983015]]}";2;Avenida Las Condes;3;60;false;true;true;false;true;false;900.0;4;0;0;0;0;false;Carol Urzua / Avenida Las Condes;1175607290;-70.5577137;-33.4050407;Paul Klee / Avenida Las Condes;1175607302;-70.5544193;-33.4010715;1;15;16;6790804;Hacia Cerro 18;#ED1C24;Redbus Urbano S.A.;C01;"";""
452126050;"{\"type\":\"LineString\",\"coordinates\":[[-70.5561197,-33.4033389],[-70.5558538,-33.4028023],[-70.5554679,-33.4020335],[-70.5552614,-33.4017536],[-70.5550481,-33.4015062],[-70.5549168,-33.4013688],[-70.5548255,-33.40128],[-70.5546927,-33.4011804],[-70.5542409,-33.4008489],[-70.5536105,-33.4004067],[-70.5530479,-33.3999743],[-70.5525064,-33.3994807],[-70.5514168,-33.3983015]]}";1;Avenida Las Condes;3;60;false;true;true;false;true;false;900.0;4;0;0;0;0;false;Bocaccio / Avenida Las Condes;1175607321;-70.5515084;-33.3985394;Estadio Israelita / Avenida Las Condes;1175607342;-70.5496645;-33.3965113;1;17;18;6790804;Hacia Cerro 18;#ED1C24;Redbus Urbano S.A.;C01;"";""
280560004;"{\"type\":\"LineString\",\"coordinates\":[[-70.5514168,-33.3983015],[-70.5509099,-33.3977901],[-70.5504053,-33.397237],[-70.5501613,-33.3969696],[-70.5494748,-33.3962577],[-70.5493564,-33.3961384],[-70.5490381,-33.3958177],[-70.5488785,-33.3956766],[-70.5487216,-33.3955557],[-70.5485894,-33.3954633],[-70.548442,-33.3953866]]}";2;Avenida Las Condes;3;60;false;true;true;false;true;false;534.0;4;0;0;0;0;false;Bocaccio / Avenida Las Condes;1175607321;-70.5515084;-33.3985394;Estadio Israelita / Avenida Las Condes;1175607342;-70.5496645;-33.3965113;1;17;18;6790804;Hacia Cerro 18;#ED1C24;Redbus Urbano S.A.;C01;"";""
280560004;"{\"type\":\"LineString\",\"coordinates\":[[-70.5514168,-33.3983015],[-70.5509099,-33.3977901],[-70.5504053,-33.397237],[-70.5501613,-33.3969696],[-70.5494748,-33.3962577],[-70.5493564,-33.3961384],[-70.5490381,-33.3958177],[-70.5488785,-33.3956766],[-70.5487216,-33.3955557],[-70.5485894,-33.3954633],[-70.548442,-33.3953866]]}";1;Avenida Las Condes;3;60;false;true;true;false;true;false;534.0;4;0;0;0;0;false;Hospital Fach / Avenida Las Condes;1175607355;-70.5488044;-33.3956569;Padre Hurtado / Avenida Las Condes;1175607364;-70.5459017;-33.3945361;1;19;20;6790804;Hacia Cerro 18;#ED1C24;Redbus Urbano S.A.;C01;"";""
452130761;"{\"type\":\"LineString\",\"coordinates\":[[-70.548442,-33.3953866],[-70.5482216,-33.3952942],[-70.5472134,-33.3949384],[-70.5468808,-33.3948286],[-70.5464275,-33.3946954],[-70.5461754,-33.3946025],[-70.5460185,-33.3945319],[-70.5455965,-33.3943093],[-70.5455352,-33.3942752]]}";2;Avenida Las Condes;3;60;false;true;true;false;true;false;373.0;2;2;0;0;0;false;Hospital Fach / Avenida Las Condes;1175607355;-70.5488044;-33.3956569;Padre Hurtado / Avenida Las Condes;1175607364;-70.5459017;-33.3945361;1;19;20;6790804;Hacia Cerro 18;#ED1C24;Redbus Urbano S.A.;C01;"";""
452130761;"{\"type\":\"LineString\",\"coordinates\":[[-70.548442,-33.3953866],[-70.5482216,-33.3952942],[-70.5472134,-33.3949384],[-70.5468808,-33.3948286],[-70.5464275,-33.3946954],[-70.5461754,-33.3946025],[-70.5460185,-33.3945319],[-70.5455965,-33.3943093],[-70.5455352,-33.3942752]]}";1;Avenida Las Condes;3;60;false;true;true;false;true;false;373.0;2;2;0;0;0;false;Padre Hurtado / Avenida Las Condes;1175607364;-70.5459017;-33.3945361;Abadia / Avenida Las Condes;1175607380;-70.5429473;-33.3922174;1;20;21;6790804;Hacia Cerro 18;#ED1C24;Redbus Urbano S.A.;C01;"";""
175671972;"{\"type\":\"LineString\",\"coordinates\":[[-70.5455352,-33.3942752],[-70.5454047,-33.3942069]]}";2;Avenida Las Condes;1;60;false;true;true;false;false;false;36.0;2;0;0;0;0;false;Padre Hurtado / Avenida Las Condes;1175607364;-70.5459017;-33.3945361;Abadia / Avenida Las Condes;1175607380;-70.5429473;-33.3922174;0;20;21;6790804;Hacia Cerro 18;#ED1C24;Redbus Urbano S.A.;C01;"";""
67393110;"{\"type\":\"LineString\",\"coordinates\":[[-70.5454047,-33.3942069],[-70.5453312,-33.3941557],[-70.5450762,-33.393978],[-70.5447739,-33.3937319],[-70.5444599,-33.393451],[-70.544377,-33.3933747],[-70.5442824,-33.3932734],[-70.5442529,-33.3932392],[-70.5442113,-33.3931849]]}";3;Avenida Las Condes;3;60;false;true;true;false;false;false;399.0;1;1;0;0;0;false;Padre Hurtado / Avenida Las Condes;1175607364;-70.5459017;-33.3945361;Abadia / Avenida Las Condes;1175607380;-70.5429473;-33.3922174;0;20;21;6790804;Hacia Cerro 18;#ED1C24;Redbus Urbano S.A.;C01;"";""
452130762;"{\"type\":\"LineString\",\"coordinates\":[[-70.5431861,-33.3923239],[-70.5434315,-33.3925243],[-70.5437285,-33.3927757],[-70.5441087,-33.3930948],[-70.5441704,-33.3931491],[-70.5442113,-33.3931849]]}";4;Avenida Las Condes;6;60;false;false;true;false;false;false;338.0;1;0;0;0;0;false;Padre Hurtado / Avenida Las Condes;1175607364;-70.5459017;-33.3945361;Abadia / Avenida Las Condes;1175607380;-70.5429473;-33.3922174;0;20;21;6790804;Hacia Cerro 18;#ED1C24;Redbus Urbano S.A.;C01;"";""
280622941;"{\"type\":\"LineString\",\"coordinates\":[[-70.5426657,-33.3918928],[-70.5431861,-33.3923239]]}";5;Avenida Las Condes;6;60;false;false;true;false;false;false;85.5;1;0;0;0;0;false;Padre Hurtado / Avenida Las Condes;1175607364;-70.5459017;-33.3945361;Abadia / Avenida Las Condes;1175607380;-70.5429473;-33.3922174;1;20;21;6790804;Hacia Cerro 18;#ED1C24;Redbus Urbano S.A.;C01;"";""
280622941;"{\"type\":\"LineString\",\"coordinates\":[[-70.5426657,-33.3918928],[-70.5431861,-33.3923239]]}";1;Avenida Las Condes;6;60;false;false;true;false;false;false;85.5;1;0;0;0;0;false;Abadia / Avenida Las Condes;1175607380;-70.5429473;-33.3922174;Cerro Sombrero / Avenida Las Condes;1175607392;-70.539973;-33.389065;1;21;22;6790804;Hacia Cerro 18;#ED1C24;Redbus Urbano S.A.;C01;"";""
280622942;"{\"type\":\"LineString\",\"coordinates\":[[-70.5425063,-33.3917598],[-70.5426657,-33.3918928]]}";2;Avenida Las Condes;6;60;false;false;true;false;false;false;53.0;0;0;0;0;0;false;Abadia / Avenida Las Condes;1175607380;-70.5429473;-33.3922174;Cerro Sombrero / Avenida Las Condes;1175607392;-70.539973;-33.389065;0;21;22;6790804;Hacia Cerro 18;#ED1C24;Redbus Urbano S.A.;C01;"";""
280622003;"{\"type\":\"LineString\",\"coordinates\":[[-70.5422036,-33.3914827],[-70.5422895,-33.3915641],[-70.5425063,-33.3917598]]}";3;Avenida Las Condes;6;60;false;false;true;false;false;false;105.0;0;0;0;0;0;false;Abadia / Avenida Las Condes;1175607380;-70.5429473;-33.3922174;Cerro Sombrero / Avenida Las Condes;1175607392;-70.539973;-33.389065;0;21;22;6790804;Hacia Cerro 18;#ED1C24;Redbus Urbano S.A.;C01;"";""
280622002;"{\"type\":\"LineString\",\"coordinates\":[[-70.5422036,-33.3914827],[-70.5419549,-33.391278],[-70.541904,-33.3912344],[-70.5418584,-33.391189],[-70.5414464,-33.3907323]]}";4;Avenida Las Condes;3;60;false;true;true;false;false;false;274.0;0;0;0;0;0;false;Abadia / Avenida Las Condes;1175607380;-70.5429473;-33.3922174;Cerro Sombrero / Avenida Las Condes;1175607392;-70.539973;-33.389065;0;21;22;6790804;Hacia Cerro 18;#ED1C24;Redbus Urbano S.A.;C01;"";""
280623134;"{\"type\":\"LineString\",\"coordinates\":[[-70.5414464,-33.3907323],[-70.5413539,-33.3906291],[-70.5411373,-33.3903727],[-70.5410532,-33.3902731],[-70.5407252,-33.3898849],[-70.5402865,-33.3893627],[-70.5398458,-33.3887992],[-70.5396749,-33.388595],[-70.5394525,-33.388329],[-70.5393543,-33.3882117],[-70.5390088,-33.387802]]}";5;Avenida Las Condes;3;60;false;true;true;false;false;false;495.5;1;1;0;0;0;false;Abadia / Avenida Las Condes;1175607380;-70.5429473;-33.3922174;Cerro Sombrero / Avenida Las Condes;1175607392;-70.539973;-33.389065;1;21;22;6790804;Hacia Cerro 18;#ED1C24;Redbus Urbano S.A.;C01;"";""
280623134;"{\"type\":\"LineString\",\"coordinates\":[[-70.5414464,-33.3907323],[-70.5413539,-33.3906291],[-70.5411373,-33.3903727],[-70.5410532,-33.3902731],[-70.5407252,-33.3898849],[-70.5402865,-33.3893627],[-70.5398458,-33.3887992],[-70.5396749,-33.388595],[-70.5394525,-33.388329],[-70.5393543,-33.3882117],[-70.5390088,-33.387802]]}";1;Avenida Las Condes;3;60;false;true;true;false;false;false;495.5;1;1;0;0;0;false;Cerro Sombrero / Avenida Las Condes;1175607392;-70.539973;-33.389065;Presidente Kennedy / Avenida Las Condes;1175607408;-70.5383307;-33.3870477;1;22;23;6790804;Hacia Cerro 18;#ED1C24;Redbus Urbano S.A.;C01;"";""
452130765;"{\"type\":\"LineString\",\"coordinates\":[[-70.5390088,-33.387802],[-70.5389372,-33.3877208],[-70.5388163,-33.3875749],[-70.5383281,-33.3869856],[-70.5380944,-33.3867035],[-70.5379183,-33.3864829],[-70.5377511,-33.3862735],[-70.537534,-33.3859542],[-70.5374336,-33.3858148],[-70.5373943,-33.3857759],[-70.5373496,-33.3857492],[-70.5372708,-33.38571],[-70.536779,-33.3855289],[-70.5366032,-33.3854644],[-70.5364603,-33.3854231],[-70.5362794,-33.3853709],[-70.5360146,-33.3853014]]}";2;Avenida Las Condes;3;60;false;true;true;false;false;false;512.5;1;2;0;0;0;false;Cerro Sombrero / Avenida Las Condes;1175607392;-70.539973;-33.389065;Presidente Kennedy / Avenida Las Condes;1175607408;-70.5383307;-33.3870477;1;22;23;6790804;Hacia Cerro 18;#ED1C24;Redbus Urbano S.A.;C01;"";""
452130765;"{\"type\":\"LineString\",\"coordinates\":[[-70.5390088,-33.387802],[-70.5389372,-33.3877208],[-70.5388163,-33.3875749],[-70.5383281,-33.3869856],[-70.5380944,-33.3867035],[-70.5379183,-33.3864829],[-70.5377511,-33.3862735],[-70.537534,-33.3859542],[-70.5374336,-33.3858148],[-70.5373943,-33.3857759],[-70.5373496,-33.3857492],[-70.5372708,-33.38571],[-70.536779,-33.3855289],[-70.5366032,-33.3854644],[-70.5364603,-33.3854231],[-70.5362794,-33.3853709],[-70.5360146,-33.3853014]]}";1;Avenida Las Condes;3;60;false;true;true;false;false;false;512.5;1;2;0;0;0;false;Presidente Kennedy / Avenida Las Condes;1175607408;-70.5383307;-33.3870477;Estoril / Avenida Las Condes;1175607418;-70.5344647;-33.384451;1;23;24;6790804;Hacia Cerro 18;#ED1C24;Redbus Urbano S.A.;C01;"";""
453305519;"{\"type\":\"LineString\",\"coordinates\":[[-70.5360146,-33.3853014],[-70.5358506,-33.3851822],[-70.5356836,-33.3850808],[-70.5352293,-33.3848312],[-70.5348329,-33.3846037],[-70.5343326,-33.3843369],[-70.5340754,-33.3841667],[-70.5340034,-33.3841068]]}";2;Avenida Las Condes;3;60;false;true;true;false;false;false;287.5;1;2;0;0;0;false;Presidente Kennedy / Avenida Las Condes;1175607408;-70.5383307;-33.3870477;Estoril / Avenida Las Condes;1175607418;-70.5344647;-33.384451;1;23;24;6790804;Hacia Cerro 18;#ED1C24;Redbus Urbano S.A.;C01;"";""
453305519;"{\"type\":\"LineString\",\"coordinates\":[[-70.5360146,-33.3853014],[-70.5358506,-33.3851822],[-70.5356836,-33.3850808],[-70.5352293,-33.3848312],[-70.5348329,-33.3846037],[-70.5343326,-33.3843369],[-70.5340754,-33.3841667],[-70.5340034,-33.3841068]]}";1;Avenida Las Condes;3;60;false;true;true;false;false;false;287.5;1;2;0;0;0;false;Estoril / Avenida Las Condes;1175607418;-70.5344647;-33.384451;Curamavida / Avenida Las Condes;1175607426;-70.5323523;-33.3825099;1;24;25;6790804;Hacia Cerro 18;#ED1C24;Redbus Urbano S.A.;C01;"";""
449444685;"{\"type\":\"LineString\",\"coordinates\":[[-70.5340034,-33.3841068],[-70.5338984,-33.3840121],[-70.5337085,-33.3838368],[-70.5334432,-33.3835571],[-70.5334004,-33.3835119],[-70.5331151,-33.3832111],[-70.5328341,-33.3829148],[-70.5322595,-33.3822402],[-70.5322064,-33.3821223]]}";2;Avenida Las Condes;3;60;false;true;true;false;false;false;346.5;2;0;0;0;0;false;Estoril / Avenida Las Condes;1175607418;-70.5344647;-33.384451;Curamavida / Avenida Las Condes;1175607426;-70.5323523;-33.3825099;1;24;25;6790804;Hacia Cerro 18;#ED1C24;Redbus Urbano S.A.;C01;"";""
449444685;"{\"type\":\"LineString\",\"coordinates\":[[-70.5340034,-33.3841068],[-70.5338984,-33.3840121],[-70.5337085,-33.3838368],[-70.5334432,-33.3835571],[-70.5334004,-33.3835119],[-70.5331151,-33.3832111],[-70.5328341,-33.3829148],[-70.5322595,-33.3822402],[-70.5322064,-33.3821223]]}";1;Avenida Las Condes;3;60;false;true;true;false;false;false;346.5;2;0;0;0;0;false;Curamavida / Avenida Las Condes;1175607426;-70.5323523;-33.3825099;Universidad del Pacifico;1175607437;-70.52832;-33.3784057;1;25;26;6790804;Hacia Cerro 18;#ED1C24;Redbus Urbano S.A.;C01;"";""
449445100;"{\"type\":\"LineString\",\"coordinates\":[[-70.5322064,-33.3821223],[-70.5314446,-33.3814559],[-70.530771,-33.3808221],[-70.5295183,-33.3796435],[-70.5291561,-33.3792765],[-70.5290638,-33.37918],[-70.5290221,-33.3791274],[-70.5289462,-33.3790307],[-70.5288852,-33.3789626],[-70.5287056,-33.3787517],[-70.5286419,-33.3786775],[-70.528537,-33.3785549],[-70.5283244,-33.3782899],[-70.5281487,-33.3780851]]}";2;Avenida Las Condes;3;60;false;true;true;false;false;false;733.5;2;1;0;0;0;false;Curamavida / Avenida Las Condes;1175607426;-70.5323523;-33.3825099;Universidad del Pacifico;1175607437;-70.52832;-33.3784057;1;25;26;6790804;Hacia Cerro 18;#ED1C24;Redbus Urbano S.A.;C01;"";""
449445100;"{\"type\":\"LineString\",\"coordinates\":[[-70.5322064,-33.3821223],[-70.5314446,-33.3814559],[-70.530771,-33.3808221],[-70.5295183,-33.3796435],[-70.5291561,-33.3792765],[-70.5290638,-33.37918],[-70.5290221,-33.3791274],[-70.5289462,-33.3790307],[-70.5288852,-33.3789626],[-70.5287056,-33.3787517],[-70.5286419,-33.3786775],[-70.528537,-33.3785549],[-70.5283244,-33.3782899],[-70.5281487,-33.3780851]]}";1;Avenida Las Condes;3;60;false;true;true;false;false;false;733.5;2;1;0;0;0;false;Universidad del Pacifico;1175607437;-70.52832;-33.3784057;San Damian / Avenida Las Condes;1175607448;-70.5260386;-33.376601;1;26;27;6790804;Hacia Cerro 18;#ED1C24;Redbus Urbano S.A.;C01;"";""
449445987;"{\"type\":\"LineString\",\"coordinates\":[[-70.5281487,-33.3780851],[-70.5280899,-33.3780185],[-70.5279555,-33.3778671],[-70.5277319,-33.3776383],[-70.5274334,-33.3773874],[-70.5272721,-33.3772642],[-70.5270649,-33.3771153],[-70.526841,-33.3769746],[-70.5264854,-33.3767609],[-70.5260827,-33.3765366]]}";2;Avenida Las Condes;3;60;false;true;true;false;false;false;324.5;1;1;0;0;0;false;Universidad del Pacifico;1175607437;-70.52832;-33.3784057;San Damian / Avenida Las Condes;1175607448;-70.5260386;-33.376601;1;26;27;6790804;Hacia Cerro 18;#ED1C24;Redbus Urbano S.A.;C01;"";""
449445987;"{\"type\":\"LineString\",\"coordinates\":[[-70.5281487,-33.3780851],[-70.5280899,-33.3780185],[-70.5279555,-33.3778671],[-70.5277319,-33.3776383],[-70.5274334,-33.3773874],[-70.5272721,-33.3772642],[-70.5270649,-33.3771153],[-70.526841,-33.3769746],[-70.5264854,-33.3767609],[-70.5260827,-33.3765366]]}";1;Avenida Las Condes;3;60;false;true;true;false;false;false;324.5;1;1;0;0;0;false;San Damian / Avenida Las Condes;1175607448;-70.5260386;-33.376601;Dunalastair / Avenida Las Condes;1175607465;-70.5208819;-33.3742577;1;27;28;6790804;Hacia Cerro 18;#ED1C24;Redbus Urbano S.A.;C01;"";""
135704750;"{\"type\":\"LineString\",\"coordinates\":[[-70.5260827,-33.3765366],[-70.5257339,-33.3763787],[-70.5256395,-33.3763328],[-70.5253958,-33.3762085],[-70.5251726,-33.3760866],[-70.5250676,-33.376025],[-70.5248937,-33.3758993],[-70.5247465,-33.3758076],[-70.5245434,-33.3757174],[-70.5210516,-33.3742651],[-70.520223,-33.3739048],[-70.5201714,-33.3738847],[-70.5196125,-33.3736449],[-70.5195008,-33.3735827],[-70.5193893,-33.3735377],[-70.5188208,-33.3733083]]}";2;Avenida Las Condes;3;60;false;true;true;false;false;false;957.5;1;1;0;0;0;false;San Damian / Avenida Las Condes;1175607448;-70.5260386;-33.376601;Dunalastair / Avenida Las Condes;1175607465;-70.5208819;-33.3742577;1;27;28;6790804;Hacia Cerro 18;#ED1C24;Redbus Urbano S.A.;C01;"";""
135704750;"{\"type\":\"LineString\",\"coordinates\":[[-70.5260827,-33.3765366],[-70.5257339,-33.3763787],[-70.5256395,-33.3763328],[-70.5253958,-33.3762085],[-70.5251726,-33.3760866],[-70.5250676,-33.376025],[-70.5248937,-33.3758993],[-70.5247465,-33.3758076],[-70.5245434,-33.3757174],[-70.5210516,-33.3742651],[-70.520223,-33.3739048],[-70.5201714,-33.3738847],[-70.5196125,-33.3736449],[-70.5195008,-33.3735827],[-70.5193893,-33.3735377],[-70.5188208,-33.3733083]]}";1;Avenida Las Condes;3;60;false;true;true;false;false;false;957.5;1;1;0;0;0;false;Dunalastair / Avenida Las Condes;1175607465;-70.5208819;-33.3742577;San F. de Asís / Avenida Las Condes;1175352228;-70.5179425;-33.3729534;1;28;29;6790804;Hacia Cerro 18;#ED1C24;Redbus Urbano S.A.;C01;"";""
453367420;"{\"type\":\"LineString\",\"coordinates\":[[-70.5188208,-33.3733083],[-70.5175709,-33.3727298]]}";2;Avenida Las Condes;1;60;false;true;true;false;false;false;166.0;1;0;0;0;0;false;Dunalastair / Avenida Las Condes;1175607465;-70.5208819;-33.3742577;San F. de Asís / Avenida Las Condes;1175352228;-70.5179425;-33.3729534;1;28;29;6790804;Hacia Cerro 18;#ED1C24;Redbus Urbano S.A.;C01;"";""
453367420;"{\"type\":\"LineString\",\"coordinates\":[[-70.5188208,-33.3733083],[-70.5175709,-33.3727298]]}";1;Avenida Las Condes;1;60;false;true;true;false;false;false;166.0;1;0;0;0;0;false;San F. de Asís / Avenida Las Condes;1175352228;-70.5179425;-33.3729534;La Cabana / Avenida Las Condes;1175352123;-70.5132305;-33.3712869;1;29;30;6790804;Hacia Cerro 18;#ED1C24;Redbus Urbano S.A.;C01;"";""
449447417;"{\"type\":\"LineString\",\"coordinates\":[[-70.5175709,-33.3727298],[-70.5174062,-33.3726613],[-70.5171018,-33.3725348],[-70.5162813,-33.3721938],[-70.5160656,-33.3721041],[-70.5157002,-33.3719904],[-70.5156709,-33.3719813],[-70.5149252,-33.3717484],[-70.5147332,-33.3716884],[-70.5143495,-33.3715701],[-70.5142458,-33.3715378],[-70.514177,-33.3715164],[-70.5136613,-33.371356],[-70.5129328,-33.3711293]]}";2;Avenida Las Condes;1;60;false;true;true;false;false;false;584.0;2;1;0;0;0;false;San F. de Asís / Avenida Las Condes;1175352228;-70.5179425;-33.3729534;La Cabana / Avenida Las Condes;1175352123;-70.5132305;-33.3712869;1;29;30;6790804;Hacia Cerro 18;#ED1C24;Redbus Urbano S.A.;C01;"";""
449447417;"{\"type\":\"LineString\",\"coordinates\":[[-70.5175709,-33.3727298],[-70.5174062,-33.3726613],[-70.5171018,-33.3725348],[-70.5162813,-33.3721938],[-70.5160656,-33.3721041],[-70.5157002,-33.3719904],[-70.5156709,-33.3719813],[-70.5149252,-33.3717484],[-70.5147332,-33.3716884],[-70.5143495,-33.3715701],[-70.5142458,-33.3715378],[-70.514177,-33.3715164],[-70.5136613,-33.371356],[-70.5129328,-33.3711293]]}";1;Avenida Las Condes;1;60;false;true;true;false;false;false;584.0;2;1;0;0;0;false;La Cabana / Avenida Las Condes;1175352123;-70.5132305;-33.3712869;C. San Antonio / Avenida Las Condes;1175352155;-70.5108556;-33.370752;1;30;31;6790804;Hacia Cerro 18;#ED1C24;Redbus Urbano S.A.;C01;"";""
116009556;"{\"type\":\"LineString\",\"coordinates\":[[-70.5129328,-33.3711293],[-70.5127725,-33.3710845],[-70.5126987,-33.3710657],[-70.5125895,-33.3710361],[-70.5117899,-33.3708249],[-70.5117483,-33.3708139],[-70.5114822,-33.3707494]]}";2;Avenida Las Condes;3;60;false;true;true;false;false;false;354.0;2;0;0;0;0;false;La Cabana / Avenida Las Condes;1175352123;-70.5132305;-33.3712869;C. San Antonio / Avenida Las Condes;1175352155;-70.5108556;-33.370752;0;30;31;6790804;Hacia Cerro 18;#ED1C24;Redbus Urbano S.A.;C01;"";""
116009551;"{\"type\":\"LineString\",\"coordinates\":[[-70.5114822,-33.3707494],[-70.5113319,-33.370729],[-70.5112697,-33.3707205],[-70.5112163,-33.3707132],[-70.5109644,-33.3706869],[-70.5099254,-33.3705485],[-70.509578,-33.3704978],[-70.5090682,-33.3704235],[-70.5088151,-33.3703866],[-70.5087449,-33.3703723],[-70.5079736,-33.3702722],[-70.5078686,-33.3702579]]}";3;Avenida Las Condes;2;60;false;true;true;false;false;false;426.0;2;2;0;0;0;false;La Cabana / Avenida Las Condes;1175352123;-70.5132305;-33.3712869;C. San Antonio / Avenida Las Condes;1175352155;-70.5108556;-33.370752;1;30;31;6790804;Hacia Cerro 18;#ED1C24;Redbus Urbano S.A.;C01;"";""
116009551;"{\"type\":\"LineString\",\"coordinates\":[[-70.5114822,-33.3707494],[-70.5113319,-33.370729],[-70.5112697,-33.3707205],[-70.5112163,-33.3707132],[-70.5109644,-33.3706869],[-70.5099254,-33.3705485],[-70.509578,-33.3704978],[-70.5090682,-33.3704235],[-70.5088151,-33.3703866],[-70.5087449,-33.3703723],[-70.5079736,-33.3702722],[-70.5078686,-33.3702579]]}";1;Avenida Las Condes;2;60;false;true;true;false;false;false;426.0;2;2;0;0;0;false;Fernandez Concha / Avenida Las Condes;1175352193;-70.5081331;-33.3703794;San José de La S. / Avenida Las Condes;1175352206;-70.5047675;-33.3697709;1;32;33;6790804;Hacia Cerro 18;#ED1C24;Redbus Urbano S.A.;C01;"";""
229915587;"{\"type\":\"LineString\",\"coordinates\":[[-70.5078686,-33.3702579],[-70.507224,-33.3702001],[-70.5064047,-33.3701438],[-70.5061073,-33.3701163],[-70.505848,-33.3700704],[-70.5056402,-33.3700281],[-70.5053702,-33.3699402],[-70.5051556,-33.3698683],[-70.5047852,-33.3696908]]}";2;Avenida Las Condes;2;60;false;true;true;false;false;false;372.0;1;0;0;0;0;false;Fernandez Concha / Avenida Las Condes;1175352193;-70.5081331;-33.3703794;San José de La S. / Avenida Las Condes;1175352206;-70.5047675;-33.3697709;1;32;33;6790804;Hacia Cerro 18;#ED1C24;Redbus Urbano S.A.;C01;"";""
229915587;"{\"type\":\"LineString\",\"coordinates\":[[-70.5078686,-33.3702579],[-70.507224,-33.3702001],[-70.5064047,-33.3701438],[-70.5061073,-33.3701163],[-70.505848,-33.3700704],[-70.5056402,-33.3700281],[-70.5053702,-33.3699402],[-70.5051556,-33.3698683],[-70.5047852,-33.3696908]]}";1;Avenida Las Condes;2;60;false;true;true;false;false;false;372.0;1;0;0;0;0;false;San José de La S. / Avenida Las Condes;1175352206;-70.5047675;-33.3697709;Farellones / Avenida Las Condes;1175352218;-70.5024644;-33.3687706;1;33;34;6790804;Hacia Cerro 18;#ED1C24;Redbus Urbano S.A.;C01;"";""
449701014;"{\"type\":\"LineString\",\"coordinates\":[[-70.5044521,-33.3695568],[-70.5047852,-33.3696908]]}";2;Avenida Las Condes;4;60;false;false;true;false;false;false;86.0;1;0;0;0;0;false;San José de La S. / Avenida Las Condes;1175352206;-70.5047675;-33.3697709;Farellones / Avenida Las Condes;1175352218;-70.5024644;-33.3687706;0;33;34;6790804;Hacia Cerro 18;#ED1C24;Redbus Urbano S.A.;C01;"";""
449701010;"{\"type\":\"LineString\",\"coordinates\":[[-70.5035731,-33.3691713],[-70.5042962,-33.3694901],[-70.5044521,-33.3695568]]}";3;Avenida Las Condes;1;60;false;false;true;false;false;false;231.0;1;1;0;0;0;false;San José de La S. / Avenida Las Condes;1175352206;-70.5047675;-33.3697709;Farellones / Avenida Las Condes;1175352218;-70.5024644;-33.3687706;0;33;34;6790804;Hacia Cerro 18;#ED1C24;Redbus Urbano S.A.;C01;"";""
229915586;"{\"type\":\"LineString\",\"coordinates\":[[-70.5035731,-33.3691713],[-70.5029786,-33.368931],[-70.5025928,-33.3687724],[-70.5023507,-33.3686611],[-70.5018003,-33.368404],[-70.5016953,-33.3683529],[-70.5012902,-33.3681662],[-70.5000791,-33.3675646],[-70.4995794,-33.3673134],[-70.4993345,-33.3671903]]}";4;Avenida Las Condes;2;60;false;true;true;false;false;false;564.5;3;0;0;0;0;false;San José de La S. / Avenida Las Condes;1175352206;-70.5047675;-33.3697709;Farellones / Avenida Las Condes;1175352218;-70.5024644;-33.3687706;1;33;34;6790804;Hacia Cerro 18;#ED1C24;Redbus Urbano S.A.;C01;"";""
229915586;"{\"type\":\"LineString\",\"coordinates\":[[-70.5035731,-33.3691713],[-70.5029786,-33.368931],[-70.5025928,-33.3687724],[-70.5023507,-33.3686611],[-70.5018003,-33.368404],[-70.5016953,-33.3683529],[-70.5012902,-33.3681662],[-70.5000791,-33.3675646],[-70.4995794,-33.3673134],[-70.4993345,-33.3671903]]}";1;Avenida Las Condes;2;60;false;true;true;false;false;false;564.5;3;0;0;0;0;false;Farellones / Avenida Las Condes;1175352218;-70.5024644;-33.3687706;Camino a Farellones / Las Condes;1175338849;-70.4986392;-33.3667985;1;34;35;6790804;Hacia Cerro 18;#ED1C24;Redbus Urbano S.A.;C01;"";""
41556281;"{\"type\":\"LineString\",\"coordinates\":[[-70.4993345,-33.3671903],[-70.4991581,-33.3670692],[-70.4987909,-33.366839],[-70.498752,-33.3668103],[-70.4984589,-33.3666257],[-70.498274,-33.3664953],[-70.4981649,-33.3663703]]}";2;Avenida Las Condes;1;50;false;true;true;false;false;false;178.0;0;1;0;0;0;false;Farellones / Avenida Las Condes;1175352218;-70.5024644;-33.3687706;Camino a Farellones / Las Condes;1175338849;-70.4986392;-33.3667985;1;34;35;6790804;Hacia Cerro 18;#ED1C24;Redbus Urbano S.A.;C01;"";""
41556281;"{\"type\":\"LineString\",\"coordinates\":[[-70.4993345,-33.3671903],[-70.4991581,-33.3670692],[-70.4987909,-33.366839],[-70.498752,-33.3668103],[-70.4984589,-33.3666257],[-70.498274,-33.3664953],[-70.4981649,-33.3663703]]}";1;Avenida Las Condes;1;50;false;true;true;false;false;false;178.0;0;1;0;0;0;false;Camino a Farellones / Las Condes;1175338849;-70.4986392;-33.3667985;E. de Balaguer / Avenida Las Condes;1175338901;-70.4960941;-33.3651282;1;35;36;6790804;Hacia Cerro 18;#ED1C24;Redbus Urbano S.A.;C01;"";""
449699161;"{\"type\":\"LineString\",\"coordinates\":[[-70.4975715,-33.3660077],[-70.4978427,-33.3661669],[-70.4981649,-33.3663703]]}";2;Avenida Las Condes;1;50;false;false;true;false;false;false;171.0;0;0;0;0;0;false;Camino a Farellones / Las Condes;1175338849;-70.4986392;-33.3667985;E. de Balaguer / Avenida Las Condes;1175338901;-70.4960941;-33.3651282;0;35;36;6790804;Hacia Cerro 18;#ED1C24;Redbus Urbano S.A.;C01;"";""
449699167;"{\"type\":\"LineString\",\"coordinates\":[[-70.4975715,-33.3660077],[-70.4974832,-33.365971],[-70.497379,-33.3659272],[-70.4971181,-33.3657562],[-70.4966167,-33.3654282],[-70.4963447,-33.3652588],[-70.4962938,-33.365226],[-70.4958386,-33.3649046],[-70.4957556,-33.3648495],[-70.4956992,-33.3648032],[-70.4956681,-33.3647525]]}";3;Avenida Las Condes;1;50;false;true;true;false;false;false;283.0;1;1;0;0;0;false;Camino a Farellones / Las Condes;1175338849;-70.4986392;-33.3667985;E. de Balaguer / Avenida Las Condes;1175338901;-70.4960941;-33.3651282;1;35;36;6790804;Hacia Cerro 18;#ED1C24;Redbus Urbano S.A.;C01;"";""
449699167;"{\"type\":\"LineString\",\"coordinates\":[[-70.4975715,-33.3660077],[-70.4974832,-33.365971],[-70.497379,-33.3659272],[-70.4971181,-33.3657562],[-70.4966167,-33.3654282],[-70.4963447,-33.3652588],[-70.4962938,-33.365226],[-70.4958386,-33.3649046],[-70.4957556,-33.3648495],[-70.4956992,-33.3648032],[-70.4956681,-33.3647525]]}";1;Avenida Las Condes;1;50;false;true;true;false;false;false;283.0;1;1;0;0;0;false;E. de Balaguer / Avenida Las Condes;1175338901;-70.4960941;-33.3651282;San Enrique / Avenida Las Condes;1175338959;-70.4936573;-33.363275;1;36;37;6790804;Hacia Cerro 18;#ED1C24;Redbus Urbano S.A.;C01;"";""
449699173;"{\"type\":\"LineString\",\"coordinates\":[[-70.4948251,-33.3642005],[-70.4949626,-33.3642905],[-70.4952616,-33.3644863],[-70.4956681,-33.3647525]]}";2;Avenida Las Condes;1;50;false;false;true;false;false;false;249.0;0;0;0;0;0;false;E. de Balaguer / Avenida Las Condes;1175338901;-70.4960941;-33.3651282;San Enrique / Avenida Las Condes;1175338959;-70.4936573;-33.363275;0;36;37;6790804;Hacia Cerro 18;#ED1C24;Redbus Urbano S.A.;C01;"";""
449699163;"{\"type\":\"LineString\",\"coordinates\":[[-70.4948251,-33.3642005],[-70.4944605,-33.3639776],[-70.4940677,-33.3637374],[-70.4939692,-33.3636222]]}";3;Avenida Las Condes;1;50;false;true;true;false;false;false;258.0;1;1;0;0;0;false;E. de Balaguer / Avenida Las Condes;1175338901;-70.4960941;-33.3651282;San Enrique / Avenida Las Condes;1175338959;-70.4936573;-33.363275;0;36;37;6790804;Hacia Cerro 18;#ED1C24;Redbus Urbano S.A.;C01;"";""
22372382;"{\"type\":\"LineString\",\"coordinates\":[[-70.493577,-33.3630895],[-70.4939203,-33.3635512],[-70.4939692,-33.3636222]]}";4;Avenida Las Condes;1;50;false;false;true;false;false;false;87.0;1;1;0;0;0;false;E. de Balaguer / Avenida Las Condes;1175338901;-70.4960941;-33.3651282;San Enrique / Avenida Las Condes;1175338959;-70.4936573;-33.363275;1;36;37;6790804;Hacia Cerro 18;#ED1C24;Redbus Urbano S.A.;C01;"";""
22372382;"{\"type\":\"LineString\",\"coordinates\":[[-70.493577,-33.3630895],[-70.4939203,-33.3635512],[-70.4939692,-33.3636222]]}";1;Avenida Las Condes;1;50;false;false;true;false;false;false;87.0;1;1;0;0;0;false;San Enrique / Avenida Las Condes;1175338959;-70.4936573;-33.363275;Raúl Labbe 1 / Raúl Labbe;1175341689;-70.4966504;-33.3618224;1;37;38;6790804;Hacia Cerro 18;#ED1C24;Redbus Urbano S.A.;C01;"";""
449699164;"{\"type\":\"LineString\",\"coordinates\":[[-70.4933875,-33.3626011],[-70.49341,-33.3628039],[-70.4935042,-33.3629915],[-70.493577,-33.3630895]]}";2;Avenida Las Condes;2;50;false;false;true;false;false;false;145.0;0;0;0;0;0;false;San Enrique / Avenida Las Condes;1175338959;-70.4936573;-33.363275;Raúl Labbe 1 / Raúl Labbe;1175341689;-70.4966504;-33.3618224;0;37;38;6790804;Hacia Cerro 18;#ED1C24;Redbus Urbano S.A.;C01;"";""
69333110;"{\"type\":\"LineString\",\"coordinates\":[[-70.493341,-33.3622758],[-70.4933875,-33.3626011]]}";3;Avenida Las Condes;2;50;false;false;true;false;false;false;91.0;0;0;0;0;0;false;San Enrique / Avenida Las Condes;1175338959;-70.4936573;-33.363275;Raúl Labbe 1 / Raúl Labbe;1175341689;-70.4966504;-33.3618224;0;37;38;6790804;Hacia Cerro 18;#ED1C24;Redbus Urbano S.A.;C01;"";""
263100189;"{\"type\":\"LineString\",\"coordinates\":[[-70.4933256,-33.3622099],[-70.493341,-33.3622758]]}";4;Avenida Las Condes;2;50;false;false;true;false;false;false;19.0;0;0;0;0;0;false;San Enrique / Avenida Las Condes;1175338959;-70.4936573;-33.363275;Raúl Labbe 1 / Raúl Labbe;1175341689;-70.4966504;-33.3618224;0;37;38;6790804;Hacia Cerro 18;#ED1C24;Redbus Urbano S.A.;C01;"";""
527891750;"{\"type\":\"LineString\",\"coordinates\":[[-70.4936326,-33.3621144],[-70.4933256,-33.3622099]]}";5;Avenida Raúl Labbé;2;50;false;false;true;false;false;false;77.0;0;0;0;0;0;false;San Enrique / Avenida Las Condes;1175338959;-70.4936573;-33.363275;Raúl Labbe 1 / Raúl Labbe;1175341689;-70.4966504;-33.3618224;0;37;38;6790804;Hacia Cerro 18;#ED1C24;Redbus Urbano S.A.;C01;"";""
485200646;"{\"type\":\"LineString\",\"coordinates\":[[-70.5014135,-33.3625746],[-70.500814,-33.3625813],[-70.5007138,-33.3625866],[-70.5006646,-33.3625891],[-70.5002833,-33.3626091],[-70.5001958,-33.3626137],[-70.4996808,-33.3626065],[-70.4996164,-33.3626068],[-70.4989806,-33.3625847],[-70.4987767,-33.3625651],[-70.4986145,-33.3625399],[-70.4982958,-33.3624613],[-70.498159,-33.3624209],[-70.4980786,-33.3623772],[-70.4979525,-33.36231],[-70.4973919,-33.3620076],[-70.497239,-33.3619449],[-70.4970808,-33.3619068],[-70.4969172,-33.36188],[-70.4967777,-33.3618709],[-70.4966382,-33.3618642],[-70.4964961,-33.361862],[-70.4950394,-33.361891],[-70.4944193,-33.3619108],[-70.4942842,-33.3619263],[-70.4941589,-33.3619506],[-70.4936326,-33.3621144]]}";6;Avenida Raúl Labbé;2;50;false;false;true;false;false;false;932.5;0;1;0;0;0;false;San Enrique / Avenida Las Condes;1175338959;-70.4936573;-33.363275;Raúl Labbe 1 / Raúl Labbe;1175341689;-70.4966504;-33.3618224;1;37;38;6790804;Hacia Cerro 18;#ED1C24;Redbus Urbano S.A.;C01;"";""
485200646;"{\"type\":\"LineString\",\"coordinates\":[[-70.5014135,-33.3625746],[-70.500814,-33.3625813],[-70.5007138,-33.3625866],[-70.5006646,-33.3625891],[-70.5002833,-33.3626091],[-70.5001958,-33.3626137],[-70.4996808,-33.3626065],[-70.4996164,-33.3626068],[-70.4989806,-33.3625847],[-70.4987767,-33.3625651],[-70.4986145,-33.3625399],[-70.4982958,-33.3624613],[-70.498159,-33.3624209],[-70.4980786,-33.3623772],[-70.4979525,-33.36231],[-70.4973919,-33.3620076],[-70.497239,-33.3619449],[-70.4970808,-33.3619068],[-70.4969172,-33.36188],[-70.4967777,-33.3618709],[-70.4966382,-33.3618642],[-70.4964961,-33.361862],[-70.4950394,-33.361891],[-70.4944193,-33.3619108],[-70.4942842,-33.3619263],[-70.4941589,-33.3619506],[-70.4936326,-33.3621144]]}";1;Avenida Raúl Labbé;2;50;false;false;true;false;false;false;932.5;0;1;0;0;0;false;Raúl Labbe 2 / Raúl Labbe;1175341650;-70.5000215;-33.3625794;C. Las Lomas / Raúl Labbe;1175341769;-70.5025278;-33.3622886;1;39;40;6790804;Hacia Cerro 18;#ED1C24;Redbus Urbano S.A.;C01;"";""
453379663;"{\"type\":\"LineString\",\"coordinates\":[[-70.5027036,-33.3617412],[-70.5027083,-33.361792],[-70.5027428,-33.3621051],[-70.5027465,-33.362142],[-70.5027444,-33.3621679],[-70.5027385,-33.3621938],[-70.502725,-33.3622262],[-70.5027102,-33.3622499],[-70.5026909,-33.362273],[-70.5026678,-33.362294],[-70.502643,-33.3623112],[-70.502613,-33.362327],[-70.5025732,-33.3623412],[-70.5020769,-33.3624729],[-70.5018892,-33.3625182],[-70.5017698,-33.3625361],[-70.5016583,-33.3625487],[-70.5014135,-33.3625746]]}";2;Avenida Raúl Labbé;2;50;false;false;true;false;false;false;231.5;0;0;0;0;0;false;Raúl Labbe 2 / Raúl Labbe;1175341650;-70.5000215;-33.3625794;C. Las Lomas / Raúl Labbe;1175341769;-70.5025278;-33.3622886;1;39;40;6790804;Hacia Cerro 18;#ED1C24;Redbus Urbano S.A.;C01;"";""
453379663;"{\"type\":\"LineString\",\"coordinates\":[[-70.5027036,-33.3617412],[-70.5027083,-33.361792],[-70.5027428,-33.3621051],[-70.5027465,-33.362142],[-70.5027444,-33.3621679],[-70.5027385,-33.3621938],[-70.502725,-33.3622262],[-70.5027102,-33.3622499],[-70.5026909,-33.362273],[-70.5026678,-33.362294],[-70.502643,-33.3623112],[-70.502613,-33.362327],[-70.5025732,-33.3623412],[-70.5020769,-33.3624729],[-70.5018892,-33.3625182],[-70.5017698,-33.3625361],[-70.5016583,-33.3625487],[-70.5014135,-33.3625746]]}";1;Avenida Raúl Labbé;2;50;false;false;true;false;false;false;231.5;0;0;0;0;0;false;C. Las Lomas / Raúl Labbe;1175341769;-70.5025278;-33.3622886;Avenida Lo Barnechea / Raúl Labbe;1175341636;-70.5050355;-33.3615523;1;40;41;6790804;Hacia Cerro 18;#ED1C24;Redbus Urbano S.A.;C01;"";""
485200645;"{\"type\":\"LineString\",\"coordinates\":[[-70.5052308,-33.361669],[-70.5042619,-33.361408],[-70.5041452,-33.3613761],[-70.503828,-33.3612915],[-70.5037656,-33.3612747],[-70.5035278,-33.361213],[-70.5034623,-33.3611973],[-70.5034122,-33.3611894],[-70.5033425,-33.3611842],[-70.5032794,-33.3611851],[-70.5032196,-33.3611909],[-70.5031522,-33.3612035],[-70.503102,-33.3612172],[-70.5030424,-33.3612388],[-70.5029908,-33.3612629],[-70.5029501,-33.3612859],[-70.5029125,-33.3613109],[-70.5028754,-33.3613399],[-70.5028376,-33.361375],[-70.5028086,-33.3614068],[-70.5027852,-33.3614367],[-70.5027581,-33.3614784],[-70.5027379,-33.3615168],[-70.5027237,-33.3615504],[-70.5027132,-33.3615818],[-70.5027041,-33.3616176],[-70.5026975,-33.3616593],[-70.5027036,-33.3617412]]}";2;Avenida Raúl Labbé;2;50;false;false;true;false;false;false;351.5;0;0;0;0;0;false;C. Las Lomas / Raúl Labbe;1175341769;-70.5025278;-33.3622886;Avenida Lo Barnechea / Raúl Labbe;1175341636;-70.5050355;-33.3615523;1;40;41;6790804;Hacia Cerro 18;#ED1C24;Redbus Urbano S.A.;C01;"";""
485200645;"{\"type\":\"LineString\",\"coordinates\":[[-70.5052308,-33.361669],[-70.5042619,-33.361408],[-70.5041452,-33.3613761],[-70.503828,-33.3612915],[-70.5037656,-33.3612747],[-70.5035278,-33.361213],[-70.5034623,-33.3611973],[-70.5034122,-33.3611894],[-70.5033425,-33.3611842],[-70.5032794,-33.3611851],[-70.5032196,-33.3611909],[-70.5031522,-33.3612035],[-70.503102,-33.3612172],[-70.5030424,-33.3612388],[-70.5029908,-33.3612629],[-70.5029501,-33.3612859],[-70.5029125,-33.3613109],[-70.5028754,-33.3613399],[-70.5028376,-33.361375],[-70.5028086,-33.3614068],[-70.5027852,-33.3614367],[-70.5027581,-33.3614784],[-70.5027379,-33.3615168],[-70.5027237,-33.3615504],[-70.5027132,-33.3615818],[-70.5027041,-33.3616176],[-70.5026975,-33.3616593],[-70.5027036,-33.3617412]]}";1;Avenida Raúl Labbé;2;50;false;false;true;false;false;false;351.5;0;0;0;0;0;false;Avenida Lo Barnechea / Raúl Labbe;1175341636;-70.5050355;-33.3615523;P. Arteaga Barros / Raúl Labbe;1175341594;-70.5081025;-33.3623857;1;41;42;6790804;Hacia Cerro 18;#ED1C24;Redbus Urbano S.A.;C01;"";""
459428803;"{\"type\":\"LineString\",\"coordinates\":[[-70.5083601,-33.362518],[-70.507851,-33.3623786],[-70.5076171,-33.3623145],[-70.5069495,-33.3621317],[-70.5068333,-33.3620999],[-70.5056013,-33.3617677],[-70.5052308,-33.361669]]}";2;Avenida Raúl Labbé;2;50;false;false;true;false;false;false;382.5;0;0;0;0;0;false;Avenida Lo Barnechea / Raúl Labbe;1175341636;-70.5050355;-33.3615523;P. Arteaga Barros / Raúl Labbe;1175341594;-70.5081025;-33.3623857;1;41;42;6790804;Hacia Cerro 18;#ED1C24;Redbus Urbano S.A.;C01;"";""
459428803;"{\"type\":\"LineString\",\"coordinates\":[[-70.5083601,-33.362518],[-70.507851,-33.3623786],[-70.5076171,-33.3623145],[-70.5069495,-33.3621317],[-70.5068333,-33.3620999],[-70.5056013,-33.3617677],[-70.5052308,-33.361669]]}";1;Avenida Raúl Labbé;2;50;false;false;true;false;false;false;382.5;0;0;0;0;0;false;P. Arteaga Barros / Raúl Labbe;1175341594;-70.5081025;-33.3623857;Robles / Padre Alfredo Arteaga;1175339880;-70.5089038;-33.360875;1;42;43;6790804;Hacia Cerro 18;#ED1C24;Redbus Urbano S.A.;C01;"";""
26596301;"{\"type\":\"LineString\",\"coordinates\":[[-70.5083601,-33.362518],[-70.5087278,-33.3615088],[-70.5088203,-33.3612518],[-70.5088542,-33.3611613],[-70.5090211,-33.3606821],[-70.5092202,-33.3601117],[-70.5092893,-33.3599204],[-70.5093754,-33.3596924],[-70.509774,-33.3586131],[-70.5100102,-33.3579734],[-70.5101601,-33.3575846]]}";2;Avenida Padre Alfredo Arteaga Barros;2;50;false;true;true;false;false;false;715.0;0;0;0;0;0;false;P. Arteaga Barros / Raúl Labbe;1175341594;-70.5081025;-33.3623857;Robles / Padre Alfredo Arteaga;1175339880;-70.5089038;-33.360875;1;42;43;6790804;Hacia Cerro 18;#ED1C24;Redbus Urbano S.A.;C01;"";""
26596301;"{\"type\":\"LineString\",\"coordinates\":[[-70.5083601,-33.362518],[-70.5087278,-33.3615088],[-70.5088203,-33.3612518],[-70.5088542,-33.3611613],[-70.5090211,-33.3606821],[-70.5092202,-33.3601117],[-70.5092893,-33.3599204],[-70.5093754,-33.3596924],[-70.509774,-33.3586131],[-70.5100102,-33.3579734],[-70.5101601,-33.3575846]]}";1;Avenida Padre Alfredo Arteaga Barros;2;50;false;true;true;false;false;false;715.0;0;0;0;0;0;false;Garrido / Padre Alfredo Arteaga;1175339837;-70.5099816;-33.3577348;El Gabino / Padre Alfredo Arteaga;1175339788;-70.5107;-33.3532678;1;44;45;6790804;Hacia Cerro 18;#ED1C24;Redbus Urbano S.A.;C01;"";""
26596302;"{\"type\":\"LineString\",\"coordinates\":[[-70.5101601,-33.3575846],[-70.5101844,-33.3575159],[-70.5105162,-33.3566982]]}";2;Avenida Padre Alfredo Arteaga Barros;4;50;false;false;true;false;false;false;260.0;1;0;0;0;0;false;Garrido / Padre Alfredo Arteaga;1175339837;-70.5099816;-33.3577348;El Gabino / Padre Alfredo Arteaga;1175339788;-70.5107;-33.3532678;0;44;45;6790804;Hacia Cerro 18;#ED1C24;Redbus Urbano S.A.;C01;"";""
285597699;"{\"type\":\"LineString\",\"coordinates\":[[-70.5105162,-33.3566982],[-70.5105813,-33.35636],[-70.5108111,-33.3557632],[-70.5109621,-33.3553581],[-70.5110233,-33.3551886],[-70.5110535,-33.3551119],[-70.5110887,-33.3550008],[-70.511102,-33.3549395],[-70.5111311,-33.3547508]]}";3;Avenida Padre Alfredo Arteaga Barros;2;50;false;true;true;false;false;false;560.0;1;1;0;0;0;false;Garrido / Padre Alfredo Arteaga;1175339837;-70.5099816;-33.3577348;El Gabino / Padre Alfredo Arteaga;1175339788;-70.5107;-33.3532678;0;44;45;6790804;Hacia Cerro 18;#ED1C24;Redbus Urbano S.A.;C01;"";""
285597694;"{\"type\":\"LineString\",\"coordinates\":[[-70.5111311,-33.3547508],[-70.51094,-33.3539518],[-70.5106857,-33.3529491]]}";4;Avenida Padre Alfredo Arteaga Barros;4;50;false;false;true;false;false;false;255.0;1;0;0;0;0;false;Garrido / Padre Alfredo Arteaga;1175339837;-70.5099816;-33.3577348;El Gabino / Padre Alfredo Arteaga;1175339788;-70.5107;-33.3532678;1;44;45;6790804;Hacia Cerro 18;#ED1C24;Redbus Urbano S.A.;C01;"";""
285597694;"{\"type\":\"LineString\",\"coordinates\":[[-70.5111311,-33.3547508],[-70.51094,-33.3539518],[-70.5106857,-33.3529491]]}";1;Avenida Padre Alfredo Arteaga Barros;4;50;false;false;true;false;false;false;255.0;1;0;0;0;0;false;El Gabino / Padre Alfredo Arteaga;1175339788;-70.5107;-33.3532678;Los Quincheros / Nido de Aguilas;1175339609;-70.5046975;-33.3538174;1;45;46;6790804;Hacia Cerro 18;#ED1C24;Redbus Urbano S.A.;C01;"";""
459428804;"{\"type\":\"LineString\",\"coordinates\":[[-70.5106857,-33.3529491],[-70.5102807,-33.3530497],[-70.5098174,-33.3531649],[-70.5097472,-33.3531858],[-70.5096243,-33.3532224],[-70.5094504,-33.353276],[-70.5088561,-33.3534517],[-70.5082709,-33.3536248],[-70.5081157,-33.3536705],[-70.5080576,-33.3536959],[-70.50801,-33.3537139]]}";2;El Gabino;2;50;false;false;true;false;false;false;658.0;1;0;0;0;0;false;El Gabino / Padre Alfredo Arteaga;1175339788;-70.5107;-33.3532678;Los Quincheros / Nido de Aguilas;1175339609;-70.5046975;-33.3538174;0;45;46;6790804;Hacia Cerro 18;#ED1C24;Redbus Urbano S.A.;C01;"";""
26596455;"{\"type\":\"LineString\",\"coordinates\":[[-70.50801,-33.3537139],[-70.5080277,-33.353759],[-70.5080435,-33.3538114],[-70.5080502,-33.3538952],[-70.5080438,-33.3539909],[-70.5080207,-33.3540834],[-70.5079845,-33.3542111],[-70.5078898,-33.3544696],[-70.5077458,-33.3548448],[-70.5077331,-33.3548647],[-70.5077197,-33.3548857],[-70.5076944,-33.3549084]]}";3;Avenida Lo Barnechea;2;50;false;true;true;false;false;false;347.0;0;0;0;0;0;false;El Gabino / Padre Alfredo Arteaga;1175339788;-70.5107;-33.3532678;Los Quincheros / Nido de Aguilas;1175339609;-70.5046975;-33.3538174;0;45;46;6790804;Hacia Cerro 18;#ED1C24;Redbus Urbano S.A.;C01;"";""
302524709;"{\"type\":\"LineString\",\"coordinates\":[[-70.5076944,-33.3549084],[-70.5076653,-33.3549188],[-70.5076231,-33.3549238],[-70.5075748,-33.354912],[-70.5075366,-33.3548854],[-70.5075031,-33.3548462]]}";4;Avenida Lo Barnechea;1;50;false;true;true;false;false;false;54.0;0;0;0;0;0;false;El Gabino / Padre Alfredo Arteaga;1175339788;-70.5107;-33.3532678;Los Quincheros / Nido de Aguilas;1175339609;-70.5046975;-33.3538174;0;45;46;6790804;Hacia Cerro 18;#ED1C24;Redbus Urbano S.A.;C01;"";""
459428933;"{\"type\":\"LineString\",\"coordinates\":[[-70.5075031,-33.3548462],[-70.5075071,-33.3548014],[-70.5076104,-33.3545124],[-70.5076509,-33.3543965]]}";5;Avenida Lo Barnechea;1;50;false;true;true;false;false;false;130.0;0;0;0;0;0;false;El Gabino / Padre Alfredo Arteaga;1175339788;-70.5107;-33.3532678;Los Quincheros / Nido de Aguilas;1175339609;-70.5046975;-33.3538174;0;45;46;6790804;Hacia Cerro 18;#ED1C24;Redbus Urbano S.A.;C01;"";""
455120128;"{\"type\":\"LineString\",\"coordinates\":[[-70.5076509,-33.3543965],[-70.5076,-33.3543797],[-70.5071628,-33.3542845],[-70.5070957,-33.3542677],[-70.5067162,-33.3541753],[-70.5066102,-33.3541501],[-70.5063568,-33.3540901],[-70.5063179,-33.354084],[-70.5062414,-33.3540632],[-70.5061502,-33.3540341],[-70.5056513,-33.3538997],[-70.5055387,-33.3538706],[-70.5052973,-33.3537989],[-70.504967,-33.3536813]]}";6;Nido de Águilas;2;50;false;false;true;false;false;false;656.0;0;0;0;0;0;false;El Gabino / Padre Alfredo Arteaga;1175339788;-70.5107;-33.3532678;Los Quincheros / Nido de Aguilas;1175339609;-70.5046975;-33.3538174;0;45;46;6790804;Hacia Cerro 18;#ED1C24;Redbus Urbano S.A.;C01;"";""
26596395;"{\"type\":\"LineString\",\"coordinates\":[[-70.504967,-33.3536813],[-70.5048933,-33.3537016],[-70.5048007,-33.3537274],[-70.5045379,-33.3538618],[-70.5044655,-33.3538944],[-70.5043827,-33.3539245]]}";7;Los Quincheros;1;50;false;true;true;false;false;false;76.5;0;0;0;0;0;false;El Gabino / Padre Alfredo Arteaga;1175339788;-70.5107;-33.3532678;Los Quincheros / Nido de Aguilas;1175339609;-70.5046975;-33.3538174;1;45;46;6790804;Hacia Cerro 18;#ED1C24;Redbus Urbano S.A.;C01;"";""
26596395;"{\"type\":\"LineString\",\"coordinates\":[[-70.504967,-33.3536813],[-70.5048933,-33.3537016],[-70.5048007,-33.3537274],[-70.5045379,-33.3538618],[-70.5044655,-33.3538944],[-70.5043827,-33.3539245]]}";1;Los Quincheros;1;50;false;true;true;false;false;false;76.5;0;0;0;0;0;false;Los Quincheros / Nido de Aguilas;1175339609;-70.5046975;-33.3538174;Medina / Los Quincheros;1175338981;-70.5036772;-33.3559436;1;46;47;6790804;Hacia Cerro 18;#ED1C24;Redbus Urbano S.A.;C01;"";""
26596329;"{\"type\":\"LineString\",\"coordinates\":[[-70.5043827,-33.3539245],[-70.5042958,-33.3541557],[-70.5041091,-33.3546682],[-70.503873,-33.3552193],[-70.5036263,-33.3558108],[-70.5035512,-33.3560281],[-70.5032266,-33.3568301]]}";2;Los Quincheros;1;50;false;false;true;false;false;false;424.5;0;0;0;0;0;false;Los Quincheros / Nido de Aguilas;1175339609;-70.5046975;-33.3538174;Medina / Los Quincheros;1175338981;-70.5036772;-33.3559436;1;46;47;6790804;Hacia Cerro 18;#ED1C24;Redbus Urbano S.A.;C01;"";""
26596329;"{\"type\":\"LineString\",\"coordinates\":[[-70.5043827,-33.3539245],[-70.5042958,-33.3541557],[-70.5041091,-33.3546682],[-70.503873,-33.3552193],[-70.5036263,-33.3558108],[-70.5035512,-33.3560281],[-70.5032266,-33.3568301]]}";1;Los Quincheros;1;50;false;false;true;false;false;false;424.5;0;0;0;0;0;false;Medina / Los Quincheros;1175338981;-70.5036772;-33.3559436;Circunvalación / Camino Cerro 18;1175342228;-70.5009861;-33.3561083;1;47;48;6790804;Hacia Cerro 18;#ED1C24;Redbus Urbano S.A.;C01;"";""
191521467;"{\"type\":\"LineString\",\"coordinates\":[[-70.5032266,-33.3568301],[-70.5028297,-33.3567517],[-70.5023538,-33.3566132],[-70.5018115,-33.3563561],[-70.5016629,-33.3562924],[-70.5014,-33.3561804],[-70.5009655,-33.356055],[-70.5006678,-33.3559855],[-70.5005552,-33.3559821]]}";2;Camino Cerro Dieciocho;1;50;false;false;true;false;false;false;334.5;0;0;0;0;0;false;Medina / Los Quincheros;1175338981;-70.5036772;-33.3559436;Circunvalación / Camino Cerro 18;1175342228;-70.5009861;-33.3561083;1;47;48;6790804;Hacia Cerro 18;#ED1C24;Redbus Urbano S.A.;C01;"";""
191521467;"{\"type\":\"LineString\",\"coordinates\":[[-70.5032266,-33.3568301],[-70.5028297,-33.3567517],[-70.5023538,-33.3566132],[-70.5018115,-33.3563561],[-70.5016629,-33.3562924],[-70.5014,-33.3561804],[-70.5009655,-33.356055],[-70.5006678,-33.3559855],[-70.5005552,-33.3559821]]}";1;Camino Cerro Dieciocho;1;50;false;false;true;false;false;false;334.5;0;0;0;0;0;false;Circunvalación / Camino Cerro 18;1175342228;-70.5009861;-33.3561083;Senda 12 Sur/Camino Circunvalación;1175342249;-70.5010873;-33.357703;1;48;49;6790804;Hacia Cerro 18;#ED1C24;Redbus Urbano S.A.;C01;"";""
459429660;"{\"type\":\"LineString\",\"coordinates\":[[-70.5005552,-33.3559821],[-70.500492,-33.3558578],[-70.5004661,-33.355804],[-70.5004853,-33.3557574],[-70.5005251,-33.3557231],[-70.5005778,-33.3557014],[-70.5006344,-33.3556902],[-70.5008158,-33.3556987],[-70.5010835,-33.3557368],[-70.5012353,-33.3557336],[-70.5014219,-33.355687],[-70.5016194,-33.3556095],[-70.5018613,-33.355469]]}";2;Camino Circunvalación Norte;1;50;false;false;true;false;false;false;413.0;0;0;0;0;0;false;Circunvalación / Camino Cerro 18;1175342228;-70.5009861;-33.3561083;Senda 12 Sur/Camino Circunvalación;1175342249;-70.5010873;-33.357703;0;48;49;6790804;Hacia Cerro 18;#ED1C24;Redbus Urbano S.A.;C01;"";""
459429247;"{\"type\":\"LineString\",\"coordinates\":[[-70.5005552,-33.3559821],[-70.5003674,-33.3560152],[-70.5002333,-33.3560555],[-70.5001032,-33.3561238],[-70.500004,-33.3562078]]}";3;Camino Cerro Dieciocho;1;50;false;false;true;false;false;false;147.0;0;0;0;0;0;false;Circunvalación / Camino Cerro 18;1175342228;-70.5009861;-33.3561083;Senda 12 Sur/Camino Circunvalación;1175342249;-70.5010873;-33.357703;0;48;49;6790804;Hacia Cerro 18;#ED1C24;Redbus Urbano S.A.;C01;"";""
26596331;"{\"type\":\"LineString\",\"coordinates\":[[-70.500004,-33.3562078],[-70.4999516,-33.3563377],[-70.4999476,-33.3564022],[-70.4999879,-33.3564795],[-70.5000978,-33.3565389],[-70.5002453,-33.3565389],[-70.5003902,-33.3565411],[-70.5004881,-33.3565602],[-70.5005887,-33.3565882],[-70.5006788,-33.3566279],[-70.5007925,-33.3567125],[-70.5009011,-33.3568324],[-70.500948,-33.3570078],[-70.500949,-33.3572793],[-70.5009493,-33.3573759],[-70.5009603,-33.3577836],[-70.500978,-33.3583077],[-70.5009789,-33.3587893],[-70.5009795,-33.3588252],[-70.5009794,-33.3591659],[-70.500967,-33.3592631],[-70.5009543,-33.3593191],[-70.500944,-33.3593648],[-70.5009168,-33.3594147],[-70.5007037,-33.3598837],[-70.5006307,-33.3599786],[-70.5005401,-33.360014],[-70.5004226,-33.3600181],[-70.5003856,-33.360003],[-70.5003201,-33.3599764],[-70.5002568,-33.3599056],[-70.5002321,-33.3598228],[-70.5002428,-33.3597304],[-70.500414,-33.359286],[-70.5004473,-33.3591395],[-70.5004671,-33.3589551],[-70.5004594,-33.3587893],[-70.5004352,-33.3582674],[-70.5004178,-33.3577688],[-70.5004157,-33.3575784],[-70.5004036,-33.3574406],[-70.5003526,-33.3573387],[-70.500275,-33.3572905]]}";4;Circunvalación Sur;1;50;false;true;true;false;false;false;1031.0;0;0;0;0;0;false;Circunvalación / Camino Cerro 18;1175342228;-70.5009861;-33.3561083;Senda 12 Sur/Camino Circunvalación;1175342249;-70.5010873;-33.357703;1;48;49;6790804;Hacia Cerro 18;#ED1C24;Redbus Urbano S.A.;C01;"";""
26596331;"{\"type\":\"LineString\",\"coordinates\":[[-70.500004,-33.3562078],[-70.4999516,-33.3563377],[-70.4999476,-33.3564022],[-70.4999879,-33.3564795],[-70.5000978,-33.3565389],[-70.5002453,-33.3565389],[-70.5003902,-33.3565411],[-70.5004881,-33.3565602],[-70.5005887,-33.3565882],[-70.5006788,-33.3566279],[-70.5007925,-33.3567125],[-70.5009011,-33.3568324],[-70.500948,-33.3570078],[-70.500949,-33.3572793],[-70.5009493,-33.3573759],[-70.5009603,-33.3577836],[-70.500978,-33.3583077],[-70.5009789,-33.3587893],[-70.5009795,-33.3588252],[-70.5009794,-33.3591659],[-70.500967,-33.3592631],[-70.5009543,-33.3593191],[-70.500944,-33.3593648],[-70.5009168,-33.3594147],[-70.5007037,-33.3598837],[-70.5006307,-33.3599786],[-70.5005401,-33.360014],[-70.5004226,-33.3600181],[-70.5003856,-33.360003],[-70.5003201,-33.3599764],[-70.5002568,-33.3599056],[-70.5002321,-33.3598228],[-70.5002428,-33.3597304],[-70.500414,-33.359286],[-70.5004473,-33.3591395],[-70.5004671,-33.3589551],[-70.5004594,-33.3587893],[-70.5004352,-33.3582674],[-70.5004178,-33.3577688],[-70.5004157,-33.3575784],[-70.5004036,-33.3574406],[-70.5003526,-33.3573387],[-70.500275,-33.3572905]]}";1;Circunvalación Sur;1;50;false;true;true;false;false;false;1031.0;0;0;0;0;0;false;Senda 15 Sur/Camino Circunvalación;4214749486;-70.5004675;-33.357584;1 Sur / Camino Circunvalación;1175342312;-70.4997559;-33.3564437;1;52;53;6790804;Hacia Cerro 18;#ED1C24;Redbus Urbano S.A.;C01;"";""
421718524;"{\"type\":\"LineString\",\"coordinates\":[[-70.500275,-33.3572905],[-70.5002118,-33.3572748],[-70.5001394,-33.3572838],[-70.5000321,-33.3573152],[-70.4998229,-33.3573465],[-70.4996566,-33.3573891],[-70.4995465,-33.3574292],[-70.4994494,-33.3574592],[-70.4993133,-33.3575056],[-70.4991792,-33.3574742],[-70.4991336,-33.3573622],[-70.4992127,-33.3572385],[-70.4993119,-33.3571091],[-70.500004,-33.3562078]]}";2;Circunvalación Sur;1;50;false;true;true;false;false;false;339.5;0;0;0;0;0;false;Senda 15 Sur/Camino Circunvalación;4214749486;-70.5004675;-33.357584;1 Sur / Camino Circunvalación;1175342312;-70.4997559;-33.3564437;1;52;53;6790804;Hacia Cerro 18;#ED1C24;Redbus Urbano S.A.;C01;"";""
421718524;"{\"type\":\"LineString\",\"coordinates\":[[-70.500275,-33.3572905],[-70.5002118,-33.3572748],[-70.5001394,-33.3572838],[-70.5000321,-33.3573152],[-70.4998229,-33.3573465],[-70.4996566,-33.3573891],[-70.4995465,-33.3574292],[-70.4994494,-33.3574592],[-70.4993133,-33.3575056],[-70.4991792,-33.3574742],[-70.4991336,-33.3573622],[-70.4992127,-33.3572385],[-70.4993119,-33.3571091],[-70.500004,-33.3562078]]}";1;Circunvalación Sur;1;50;false;true;true;false;false;false;339.5;0;0;0;0;0;false;1 Sur / Camino Circunvalación;1175342312;-70.4997559;-33.3564437;1 Norte / Camino Circunvalación;1175342265;-70.5016046;-33.3555695;1;53;54;6790804;Hacia Cerro 18;#ED1C24;Redbus Urbano S.A.;C01;"";""
459429247;"{\"type\":\"LineString\",\"coordinates\":[[-70.5005552,-33.3559821],[-70.5003674,-33.3560152],[-70.5002333,-33.3560555],[-70.5001032,-33.3561238],[-70.500004,-33.3562078]]}";2;Camino Cerro Dieciocho;1;50;false;false;true;false;false;false;147.0;0;0;0;0;0;false;1 Sur / Camino Circunvalación;1175342312;-70.4997559;-33.3564437;1 Norte / Camino Circunvalación;1175342265;-70.5016046;-33.3555695;0;53;54;6790804;Hacia Cerro 18;#ED1C24;Redbus Urbano S.A.;C01;"";""
459429660;"{\"type\":\"LineString\",\"coordinates\":[[-70.5005552,-33.3559821],[-70.500492,-33.3558578],[-70.5004661,-33.355804],[-70.5004853,-33.3557574],[-70.5005251,-33.3557231],[-70.5005778,-33.3557014],[-70.5006344,-33.3556902],[-70.5008158,-33.3556987],[-70.5010835,-33.3557368],[-70.5012353,-33.3557336],[-70.5014219,-33.355687],[-70.5016194,-33.3556095],[-70.5018613,-33.355469]]}";3;Camino Circunvalación Norte;1;50;false;false;true;false;false;false;206.5;0;0;0;0;0;false;1 Sur / Camino Circunvalación;1175342312;-70.4997559;-33.3564437;1 Norte / Camino Circunvalación;1175342265;-70.5016046;-33.3555695;1;53;54;6790804;Hacia Cerro 18;#ED1C24;Redbus Urbano S.A.;C01;"";""
459429660;"{\"type\":\"LineString\",\"coordinates\":[[-70.5005552,-33.3559821],[-70.500492,-33.3558578],[-70.5004661,-33.355804],[-70.5004853,-33.3557574],[-70.5005251,-33.3557231],[-70.5005778,-33.3557014],[-70.5006344,-33.3556902],[-70.5008158,-33.3556987],[-70.5010835,-33.3557368],[-70.5012353,-33.3557336],[-70.5014219,-33.355687],[-70.5016194,-33.3556095],[-70.5018613,-33.355469]]}";1;Camino Circunvalación Norte;1;50;false;false;true;false;false;false;206.5;0;0;0;0;0;false;1 Norte / Camino Circunvalación;1175342265;-70.5016046;-33.3555695;Circunvalación / 1 Norte;1175339947;-70.5026427;-33.3553443;1;54;55;6790804;Hacia Cerro 18;#ED1C24;Redbus Urbano S.A.;C01;"";""
26596370;"{\"type\":\"LineString\",\"coordinates\":[[-70.5018613,-33.355469],[-70.5019203,-33.3555082],[-70.5019692,-33.3555401],[-70.5020128,-33.3555687],[-70.5020504,-33.3556],[-70.5020765,-33.3556252],[-70.5021067,-33.355665],[-70.5022342,-33.3558735],[-70.5023174,-33.3560079]]}";2;Uno Norte;2;50;false;true;true;false;false;false;187.0;0;0;0;0;0;false;1 Norte / Camino Circunvalación;1175342265;-70.5016046;-33.3555695;Circunvalación / 1 Norte;1175339947;-70.5026427;-33.3553443;0;54;55;6790804;Hacia Cerro 18;#ED1C24;Redbus Urbano S.A.;C01;"";""
191521389;"{\"type\":\"LineString\",\"coordinates\":[[-70.5023174,-33.3560079],[-70.5023978,-33.3560639],[-70.5024837,-33.356093],[-70.5025829,-33.3560729],[-70.5026687,-33.3560348],[-70.502717,-33.3559765],[-70.5027706,-33.3559093],[-70.5027975,-33.3558197],[-70.5028136,-33.3557256],[-70.5028109,-33.3556114],[-70.502776,-33.3555083],[-70.5027411,-33.355412],[-70.5026392,-33.3552731],[-70.5025024,-33.3551879]]}";3;Senda Diez Norte;1;50;false;true;true;false;false;false;180.5;0;0;0;0;0;false;1 Norte / Camino Circunvalación;1175342265;-70.5016046;-33.3555695;Circunvalación / 1 Norte;1175339947;-70.5026427;-33.3553443;1;54;55;6790804;Hacia Cerro 18;#ED1C24;Redbus Urbano S.A.;C01;"";""
191521389;"{\"type\":\"LineString\",\"coordinates\":[[-70.5023174,-33.3560079],[-70.5023978,-33.3560639],[-70.5024837,-33.356093],[-70.5025829,-33.3560729],[-70.5026687,-33.3560348],[-70.502717,-33.3559765],[-70.5027706,-33.3559093],[-70.5027975,-33.3558197],[-70.5028136,-33.3557256],[-70.5028109,-33.3556114],[-70.502776,-33.3555083],[-70.5027411,-33.355412],[-70.5026392,-33.3552731],[-70.5025024,-33.3551879]]}";1;Senda Diez Norte;1;50;false;true;true;false;false;false;180.5;0;0;0;0;0;false;Circunvalación / 1 Norte;1175339947;-70.5026427;-33.3553443;"";5129986459;-70.5003626;-33.3537819;1;55;56;6790804;Hacia Cerro 18;#ED1C24;Redbus Urbano S.A.;C01;"";""
459431186;"{\"type\":\"LineString\",\"coordinates\":[[-70.5025024,-33.3551879],[-70.5024185,-33.355073]]}";2;Senda Diez Norte;1;50;false;false;true;false;false;false;38.0;0;0;0;0;0;false;Circunvalación / 1 Norte;1175339947;-70.5026427;-33.3553443;"";5129986459;-70.5003626;-33.3537819;0;55;56;6790804;Hacia Cerro 18;#ED1C24;Redbus Urbano S.A.;C01;"";""
26596392;"{\"type\":\"LineString\",\"coordinates\":[[-70.5024185,-33.355073],[-70.5023333,-33.3550892],[-70.5022435,-33.3551099],[-70.5021456,-33.3551402],[-70.5019246,-33.3552296],[-70.5014182,-33.3554375],[-70.5012648,-33.3554442],[-70.5011104,-33.3554052],[-70.5009456,-33.3553411],[-70.50081,-33.3552999],[-70.5006887,-33.3552869],[-70.5005122,-33.3552977],[-70.5003695,-33.3553008],[-70.5002643,-33.355278],[-70.5001635,-33.3552126],[-70.5000357,-33.3550527],[-70.4999924,-33.354994]]}";3;Senda Seis Norte;2;50;false;true;true;false;false;false;634.0;0;1;0;0;0;false;Circunvalación / 1 Norte;1175339947;-70.5026427;-33.3553443;"";5129986459;-70.5003626;-33.3537819;0;55;56;6790804;Hacia Cerro 18;#ED1C24;Redbus Urbano S.A.;C01;"";""
459429653;"{\"type\":\"LineString\",\"coordinates\":[[-70.4999924,-33.354994],[-70.4997611,-33.3548693],[-70.4996137,-33.3547197],[-70.4995186,-33.3545781],[-70.4993223,-33.3542447],[-70.4992812,-33.3540848],[-70.4992638,-33.3539731],[-70.4992665,-33.3538374],[-70.4992676,-33.3538304],[-70.4992891,-33.3536913],[-70.4993395,-33.3536066]]}";4;Camino Circunvalación Norte;2;50;false;true;true;false;false;false;447.0;0;0;0;0;0;false;Circunvalación / 1 Norte;1175339947;-70.5026427;-33.3553443;"";5129986459;-70.5003626;-33.3537819;0;55;56;6790804;Hacia Cerro 18;#ED1C24;Redbus Urbano S.A.;C01;"";""
459429657;"{\"type\":\"LineString\",\"coordinates\":[[-70.4993395,-33.3536066],[-70.4994087,-33.3535991],[-70.4995118,-33.3535995],[-70.500311,-33.3538172],[-70.5003755,-33.3538321]]}";5;Camino Circunvalación Norte;2;50;false;true;true;false;false;false;252.0;0;0;0;0;0;false;Circunvalación / 1 Norte;1175339947;-70.5026427;-33.3553443;"";5129986459;-70.5003626;-33.3537819;1;55;56;6790804;Hacia Cerro 18;#ED1C24;Redbus Urbano S.A.;C01;"";""
