way_id;shape;index;name;nb_lanes;legal_speed;speed_zone_30;oneway;shares_bike;bike_box;bus_lane;dedicated_bus_lane;length;nb_traffic_signals;nb_crossings;nb_stops;nb_give_ways;nb_lvl_crossings;roundabout;stop_id_orig;node_id_orig;coord_x_orig;coord_y_orig;stop_id_dest;node_id_dest;coord_x_dest;coord_y_dest;nb_neighbouring_ways_bus_stop;order_orig;order_dest;id_line;line_name;colour;operator;ref;from;to
70410612;"{\"type\":\"LineString\",\"coordinates\":[[-6.2583905,53.3477594],[-6.2576656,53.3479096],[-6.2576104,53.3479201],[-6.2573793,53.3479618],[-6.2573305,53.3479706]]}";1;Eden Quay;2;30;false;true;true;false;false;false;75.0;1;1;0;0;0;false;9001;840183655;-6.2584151;53.347809;9002;840194262;-6.250185;53.3482644;1;0;1;1424983;Swords Express towards Swords Manor;"";Swords Express;SE1;Eden Quay;Swords Manor
285487940;"{\"type\":\"LineString\",\"coordinates\":[[-6.2573305,53.3479706],[-6.2571141,53.3480063],[-6.2557574,53.3482121]]}";2;Eden Quay;2;30;false;true;true;false;false;false;109.0;0;1;0;0;0;false;9001;840183655;-6.2584151;53.347809;9002;840194262;-6.250185;53.3482644;0;0;1;1424983;Swords Express towards Swords Manor;"";Swords Express;SE1;Eden Quay;Swords Manor
506780986;"{\"type\":\"LineString\",\"coordinates\":[[-6.2557574,53.3482121],[-6.2551554,53.3482604],[-6.2551263,53.3482631],[-6.2549447,53.3482797]]}";3;Eden Quay;2;30;false;true;true;false;false;false;55.0;1;1;0;0;0;false;9001;840183655;-6.2584151;53.347809;9002;840194262;-6.250185;53.3482644;0;0;1;1424983;Swords Express towards Swords Manor;"";Swords Express;SE1;Eden Quay;Swords Manor
3787951;"{\"type\":\"LineString\",\"coordinates\":[[-6.2549447,53.3482797],[-6.2547718,53.3482935],[-6.2547314,53.3482967],[-6.2541802,53.3482904],[-6.2519395,53.3483099],[-6.2518038,53.3483087],[-6.2517863,53.3483086],[-6.2515542,53.348302]]}";4;Custom House Quay;2;50;false;true;true;false;false;false;228.0;2;3;0;0;0;false;9001;840183655;-6.2584151;53.347809;9002;840194262;-6.250185;53.3482644;0;0;1;1424983;Swords Express towards Swords Manor;"";Swords Express;SE1;Eden Quay;Swords Manor
70408222;"{\"type\":\"LineString\",\"coordinates\":[[-6.2515542,53.348302],[-6.2512183,53.3482826]]}";5;Custom House Quay;1;50;false;true;true;false;false;false;23.0;1;0;0;0;0;false;9001;840183655;-6.2584151;53.347809;9002;840194262;-6.250185;53.3482644;0;0;1;1424983;Swords Express towards Swords Manor;"";Swords Express;SE1;Eden Quay;Swords Manor
83805216;"{\"type\":\"LineString\",\"coordinates\":[[-6.2512183,53.3482826],[-6.2510436,53.3482782],[-6.2499334,53.3482132],[-6.2491868,53.3481819]]}";6;Custom House Quay;2;50;false;true;true;false;false;false;68.5;0;0;0;0;0;false;9001;840183655;-6.2584151;53.347809;9002;840194262;-6.250185;53.3482644;1;0;1;1424983;Swords Express towards Swords Manor;"";Swords Express;SE1;Eden Quay;Swords Manor
83805216;"{\"type\":\"LineString\",\"coordinates\":[[-6.2512183,53.3482826],[-6.2510436,53.3482782],[-6.2499334,53.3482132],[-6.2491868,53.3481819]]}";1;Custom House Quay;2;50;false;true;true;false;false;false;68.5;0;0;0;0;0;false;9002;840194262;-6.250185;53.3482644;9003;840194291;-6.2472854;53.3480605;1;1;2;1424983;Swords Express towards Swords Manor;"";Swords Express;SE1;Eden Quay;Swords Manor
58403837;"{\"type\":\"LineString\",\"coordinates\":[[-6.2491868,53.3481819],[-6.2488459,53.3481615]]}";2;Custom House Quay;1;50;false;true;true;false;false;false;23.0;0;0;0;0;0;false;9002;840194262;-6.250185;53.3482644;9003;840194291;-6.2472854;53.3480605;0;1;2;1424983;Swords Express towards Swords Manor;"";Swords Express;SE1;Eden Quay;Swords Manor
12343288;"{\"type\":\"LineString\",\"coordinates\":[[-6.2488459,53.3481615],[-6.2483315,53.3481062],[-6.2481629,53.348068]]}";3;Custom House Quay;1;50;false;true;true;false;false;false;48.0;0;0;0;0;0;false;9002;840194262;-6.250185;53.3482644;9003;840194291;-6.2472854;53.3480605;0;1;2;1424983;Swords Express towards Swords Manor;"";Swords Express;SE1;Eden Quay;Swords Manor
58403835;"{\"type\":\"LineString\",\"coordinates\":[[-6.2481629,53.348068],[-6.2480404,53.3480604],[-6.247891,53.3480512],[-6.2475208,53.3480283],[-6.2464492,53.3479758],[-6.246304,53.3479657],[-6.2462343,53.3479608],[-6.2461021,53.3479516]]}";4;Custom House Quay;2;50;false;false;true;false;false;false;69.5;1;2;0;0;0;false;9002;840194262;-6.250185;53.3482644;9003;840194291;-6.2472854;53.3480605;1;1;2;1424983;Swords Express towards Swords Manor;"";Swords Express;SE1;Eden Quay;Swords Manor
58403835;"{\"type\":\"LineString\",\"coordinates\":[[-6.2481629,53.348068],[-6.2480404,53.3480604],[-6.247891,53.3480512],[-6.2475208,53.3480283],[-6.2464492,53.3479758],[-6.246304,53.3479657],[-6.2462343,53.3479608],[-6.2461021,53.3479516]]}";1;Custom House Quay;2;50;false;false;true;false;false;false;69.5;1;2;0;0;0;false;9003;840194291;-6.2472854;53.3480605;9004;840194294;-6.2423821;53.3477493;1;2;3;1424983;Swords Express towards Swords Manor;"";Swords Express;SE1;Eden Quay;Swords Manor
162745564;"{\"type\":\"LineString\",\"coordinates\":[[-6.2461021,53.3479516],[-6.2459482,53.3479409],[-6.245878,53.347936],[-6.2440412,53.3478193],[-6.2438343,53.3478061],[-6.2437243,53.3477991],[-6.2432402,53.3477572],[-6.242038,53.347681],[-6.2417238,53.3476586],[-6.2415164,53.3476443],[-6.2414577,53.3476402],[-6.2414093,53.3476369],[-6.2411872,53.3476215]]}";2;North Wall Quay;2;50;false;false;false;false;false;false;166.0;2;2;0;0;0;false;9003;840194291;-6.2472854;53.3480605;9004;840194294;-6.2423821;53.3477493;1;2;3;1424983;Swords Express towards Swords Manor;"";Swords Express;SE1;Eden Quay;Swords Manor
162745564;"{\"type\":\"LineString\",\"coordinates\":[[-6.2461021,53.3479516],[-6.2459482,53.3479409],[-6.245878,53.347936],[-6.2440412,53.3478193],[-6.2438343,53.3478061],[-6.2437243,53.3477991],[-6.2432402,53.3477572],[-6.242038,53.347681],[-6.2417238,53.3476586],[-6.2415164,53.3476443],[-6.2414577,53.3476402],[-6.2414093,53.3476369],[-6.2411872,53.3476215]]}";1;North Wall Quay;2;50;false;false;false;false;false;false;166.0;2;2;0;0;0;false;9004;840194294;-6.2423821;53.3477493;9005;840194278;-6.2364077;53.3473753;1;3;4;1424983;Swords Express towards Swords Manor;"";Swords Express;SE1;Eden Quay;Swords Manor
12341245;"{\"type\":\"LineString\",\"coordinates\":[[-6.2411872,53.3476215],[-6.2410592,53.3476121],[-6.2409841,53.3476065],[-6.2409435,53.3476047]]}";2;North Wall Quay;1;50;false;false;true;false;false;false;17.0;0;1;0;0;0;false;9004;840194294;-6.2423821;53.3477493;9005;840194278;-6.2364077;53.3473753;0;3;4;1424983;Swords Express towards Swords Manor;"";Swords Express;SE1;Eden Quay;Swords Manor
59183296;"{\"type\":\"LineString\",\"coordinates\":[[-6.2409435,53.3476047],[-6.2407225,53.3476182]]}";3;North Wall Quay;1;50;false;true;true;false;false;false;15.0;0;0;0;0;0;false;9004;840194294;-6.2423821;53.3477493;9005;840194278;-6.2364077;53.3473753;0;3;4;1424983;Swords Express towards Swords Manor;"";Swords Express;SE1;Eden Quay;Swords Manor
59183276;"{\"type\":\"LineString\",\"coordinates\":[[-6.2407225,53.3476182],[-6.2403451,53.3476016]]}";4;Scherzer Lifting Bridge;1;50;false;true;true;false;false;false;26.0;0;0;0;0;0;false;9004;840194294;-6.2423821;53.3477493;9005;840194278;-6.2364077;53.3473753;0;3;4;1424983;Swords Express towards Swords Manor;"";Swords Express;SE1;Eden Quay;Swords Manor
59183273;"{\"type\":\"LineString\",\"coordinates\":[[-6.2403451,53.3476016],[-6.2401924,53.3475802],[-6.239849,53.3475452]]}";5;North Wall Quay;1;50;false;true;true;false;false;false;34.0;0;0;0;0;0;false;9004;840194294;-6.2423821;53.3477493;9005;840194278;-6.2364077;53.3473753;0;3;4;1424983;Swords Express towards Swords Manor;"";Swords Express;SE1;Eden Quay;Swords Manor
240818350;"{\"type\":\"LineString\",\"coordinates\":[[-6.239849,53.3475452],[-6.2397865,53.3475418],[-6.2393112,53.3474994],[-6.2391061,53.3474857],[-6.2389026,53.347472],[-6.2381726,53.3474233],[-6.2380289,53.3474137]]}";6;North Wall Quay;1;50;false;false;false;false;false;false;123.0;1;0;0;0;0;false;9004;840194294;-6.2423821;53.3477493;9005;840194278;-6.2364077;53.3473753;0;3;4;1424983;Swords Express towards Swords Manor;"";Swords Express;SE1;Eden Quay;Swords Manor
256024070;"{\"type\":\"LineString\",\"coordinates\":[[-6.2380289,53.3474137],[-6.2368845,53.3473473],[-6.2357903,53.3472783],[-6.2357227,53.347274],[-6.2356748,53.347271],[-6.2355382,53.3472624]]}";7;North Wall Quay;2;50;false;false;false;false;false;false;84.0;1;1;0;0;0;false;9004;840194294;-6.2423821;53.3477493;9005;840194278;-6.2364077;53.3473753;1;3;4;1424983;Swords Express towards Swords Manor;"";Swords Express;SE1;Eden Quay;Swords Manor
256024070;"{\"type\":\"LineString\",\"coordinates\":[[-6.2380289,53.3474137],[-6.2368845,53.3473473],[-6.2357903,53.3472783],[-6.2357227,53.347274],[-6.2356748,53.347271],[-6.2355382,53.3472624]]}";1;North Wall Quay;2;50;false;false;false;false;false;false;84.0;1;1;0;0;0;false;9005;840194278;-6.2364077;53.3473753;9006;840194273;-6.2289889;53.3468618;1;4;5;1424983;Swords Express towards Swords Manor;"";Swords Express;SE1;Eden Quay;Swords Manor
768702593;"{\"type\":\"LineString\",\"coordinates\":[[-6.2355382,53.3472624],[-6.2353529,53.34725],[-6.235303,53.3472467],[-6.2352454,53.3472428],[-6.2336092,53.3471342],[-6.2322565,53.3470444]]}";2;North Wall Quay;2;50;false;false;false;false;false;false;222.0;1;1;0;0;0;false;9005;840194278;-6.2364077;53.3473753;9006;840194273;-6.2289889;53.3468618;0;4;5;1424983;Swords Express towards Swords Manor;"";Swords Express;SE1;Eden Quay;Swords Manor
768702594;"{\"type\":\"LineString\",\"coordinates\":[[-6.2322565,53.3470444],[-6.2300817,53.3468857],[-6.2279856,53.3467341],[-6.2277773,53.3467487],[-6.2276177,53.3467815]]}";3;North Wall Quay;2;50;false;false;false;false;false;false;157.0;0;0;0;0;0;false;9005;840194278;-6.2364077;53.3473753;9006;840194273;-6.2289889;53.3468618;1;4;5;1424983;Swords Express towards Swords Manor;"";Swords Express;SE1;Eden Quay;Swords Manor
768702594;"{\"type\":\"LineString\",\"coordinates\":[[-6.2322565,53.3470444],[-6.2300817,53.3468857],[-6.2279856,53.3467341],[-6.2277773,53.3467487],[-6.2276177,53.3467815]]}";1;North Wall Quay;2;50;false;false;false;false;false;false;157.0;0;0;0;0;0;false;9006;840194273;-6.2289889;53.3468618;9007;1150884144;-6.2271788;53.3481317;1;5;6;1424983;Swords Express towards Swords Manor;"";Swords Express;SE1;Eden Quay;Swords Manor
162745570;"{\"type\":\"LineString\",\"coordinates\":[[-6.2276177,53.3467815],[-6.2276219,53.3468089],[-6.2276141,53.3468361],[-6.2275951,53.3468612],[-6.2275659,53.3468825]]}";2;East-Link Roundabout;1;50;false;false;true;false;false;false;13.0;0;0;0;0;0;true;9006;840194273;-6.2289889;53.3468618;9007;1150884144;-6.2271788;53.3481317;0;5;6;1424983;Swords Express towards Swords Manor;"";Swords Express;SE1;Eden Quay;Swords Manor
9186551;"{\"type\":\"LineString\",\"coordinates\":[[-6.2275659,53.3468825],[-6.2274724,53.3469488],[-6.2273893,53.3470128],[-6.2273316,53.3470735],[-6.227282,53.3471393]]}";3;East Wall Road;1;50;false;true;true;false;false;false;35.0;0;0;0;0;0;false;9006;840194273;-6.2289889;53.3468618;9007;1150884144;-6.2271788;53.3481317;0;5;6;1424983;Swords Express towards Swords Manor;"";Swords Express;SE1;Eden Quay;Swords Manor
769801342;"{\"type\":\"LineString\",\"coordinates\":[[-6.227282,53.3471393],[-6.2271956,53.3473034]]}";4;East Wall Road;1;50;false;true;true;false;false;false;20.0;0;0;0;0;0;false;9006;840194273;-6.2289889;53.3468618;9007;1150884144;-6.2271788;53.3481317;0;5;6;1424983;Swords Express towards Swords Manor;"";Swords Express;SE1;Eden Quay;Swords Manor
769801343;"{\"type\":\"LineString\",\"coordinates\":[[-6.2271956,53.3473034],[-6.227126,53.3477876],[-6.2270883,53.3479851]]}";5;East Wall Road;3;50;false;false;true;false;false;false;77.0;0;0;0;0;0;false;9006;840194273;-6.2289889;53.3468618;9007;1150884144;-6.2271788;53.3481317;0;5;6;1424983;Swords Express towards Swords Manor;"";Swords Express;SE1;Eden Quay;Swords Manor
233082086;"{\"type\":\"LineString\",\"coordinates\":[[-6.2270883,53.3479851],[-6.227064,53.348114],[-6.227026,53.3483627],[-6.2269898,53.3488145]]}";6;East Wall Road;3;50;false;false;true;false;false;false;47.0;0;0;0;0;0;false;9006;840194273;-6.2289889;53.3468618;9007;1150884144;-6.2271788;53.3481317;1;5;6;1424983;Swords Express towards Swords Manor;"";Swords Express;SE1;Eden Quay;Swords Manor
769801343;"{\"type\":\"LineString\",\"coordinates\":[[-6.2271956,53.3473034],[-6.227126,53.3477876],[-6.2270883,53.3479851]]}";1;East Wall Road;3;50;false;false;true;false;false;false;77.0;0;0;0;0;0;false;9007;1150884144;-6.2271788;53.3481317;9009;1151846747;-6.2111855;53.4434352;2;6;7;1424983;Swords Express towards Swords Manor;"";Swords Express;SE1;Eden Quay;Swords Manor
233082086;"{\"type\":\"LineString\",\"coordinates\":[[-6.2270883,53.3479851],[-6.227064,53.348114],[-6.227026,53.3483627],[-6.2269898,53.3488145]]}";2;East Wall Road;3;50;false;false;true;false;false;false;94.0;0;0;0;0;0;false;9007;1150884144;-6.2271788;53.3481317;9009;1151846747;-6.2111855;53.4434352;0;6;7;1424983;Swords Express towards Swords Manor;"";Swords Express;SE1;Eden Quay;Swords Manor
22328498;"{\"type\":\"LineString\",\"coordinates\":[[-6.2269898,53.3488145],[-6.2270164,53.3490271],[-6.2270372,53.3496895]]}";3;East Wall Road;2;50;false;true;true;false;false;false;99.0;1;0;0;0;0;false;9007;1150884144;-6.2271788;53.3481317;9009;1151846747;-6.2111855;53.4434352;0;6;7;1424983;Swords Express towards Swords Manor;"";Swords Express;SE1;Eden Quay;Swords Manor
49961192;"{\"type\":\"LineString\",\"coordinates\":[[-6.2270372,53.3496895],[-6.2269486,53.3498961],[-6.2267995,53.3501603],[-6.2264365,53.3506425],[-6.2259775,53.3512649],[-6.2259659,53.3512798]]}";4;East Wall Road;3;50;false;true;true;false;false;false;193.0;1;0;0;0;0;false;9007;1150884144;-6.2271788;53.3481317;9009;1151846747;-6.2111855;53.4434352;0;6;7;1424983;Swords Express towards Swords Manor;"";Swords Express;SE1;Eden Quay;Swords Manor
100655411;"{\"type\":\"LineString\",\"coordinates\":[[-6.2259659,53.3512798],[-6.2259543,53.3512946],[-6.2258878,53.3513862],[-6.2255136,53.3519342],[-6.2252569,53.3522416],[-6.2249883,53.3525145]]}";5;East Wall Road;3;50;false;true;true;false;false;false;154.0;1;1;0;0;0;false;9007;1150884144;-6.2271788;53.3481317;9009;1151846747;-6.2111855;53.4434352;0;6;7;1424983;Swords Express towards Swords Manor;"";Swords Express;SE1;Eden Quay;Swords Manor
22328500;"{\"type\":\"LineString\",\"coordinates\":[[-6.2249883,53.3525145],[-6.2245117,53.3527704]]}";6;Bond Road;3;50;false;true;true;false;false;false;43.0;1;0;0;0;0;false;9007;1150884144;-6.2271788;53.3481317;9009;1151846747;-6.2111855;53.4434352;0;6;7;1424983;Swords Express towards Swords Manor;"";Swords Express;SE1;Eden Quay;Swords Manor
4881656;"{\"type\":\"LineString\",\"coordinates\":[[-6.2245117,53.3527704],[-6.2240454,53.3530608],[-6.223849,53.3532075],[-6.223694,53.3533474],[-6.2235126,53.3535256],[-6.223457,53.3536199],[-6.2233994,53.3537293],[-6.2233723,53.3538419],[-6.2233527,53.3539665],[-6.2233672,53.3541688],[-6.2234065,53.354333],[-6.2234318,53.3543923]]}";7;Dublin Port Tunnel;2;80;false;true;true;false;false;false;208.0;0;0;0;0;0;false;9007;1150884144;-6.2271788;53.3481317;9009;1151846747;-6.2111855;53.4434352;0;6;7;1424983;Swords Express towards Swords Manor;"";Swords Express;SE1;Eden Quay;Swords Manor
470567654;"{\"type\":\"LineString\",\"coordinates\":[[-6.2234318,53.3543923],[-6.2235498,53.3545805]]}";8;Dublin Port Tunnel;2;80;false;true;true;false;false;false;23.0;0;0;0;0;0;false;9007;1150884144;-6.2271788;53.3481317;9009;1151846747;-6.2111855;53.4434352;0;6;7;1424983;Swords Express towards Swords Manor;"";Swords Express;SE1;Eden Quay;Swords Manor
470567670;"{\"type\":\"LineString\",\"coordinates\":[[-6.2235498,53.3545805],[-6.2236532,53.3546949],[-6.2238297,53.3548227],[-6.2239719,53.3549199],[-6.2243007,53.3550729],[-6.2248618,53.3552658],[-6.2255425,53.3554566],[-6.2263011,53.3556434],[-6.2270634,53.3558257],[-6.227905,53.3560814],[-6.2282342,53.3562068]]}";9;Dublin Port Tunnel;2;80;false;true;true;false;false;false;369.0;0;0;0;0;0;false;9007;1150884144;-6.2271788;53.3481317;9009;1151846747;-6.2111855;53.4434352;0;6;7;1424983;Swords Express towards Swords Manor;"";Swords Express;SE1;Eden Quay;Swords Manor
422679894;"{\"type\":\"LineString\",\"coordinates\":[[-6.2282342,53.3562068],[-6.2288403,53.3564163],[-6.2289785,53.3564641],[-6.2294233,53.3566658],[-6.2295223,53.3567107],[-6.2301725,53.3571086],[-6.230939,53.3575991]]}";10;Dublin Port Tunnel;2;80;false;true;true;false;false;false;241.0;0;0;0;0;0;false;9007;1150884144;-6.2271788;53.3481317;9009;1151846747;-6.2111855;53.4434352;0;6;7;1424983;Swords Express towards Swords Manor;"";Swords Express;SE1;Eden Quay;Swords Manor
4937319;"{\"type\":\"LineString\",\"coordinates\":[[-6.230939,53.3575991],[-6.2313572,53.3578872]]}";11;Dublin Port Tunnel;2;80;false;true;false;false;false;false;43.0;0;0;0;0;0;false;9007;1150884144;-6.2271788;53.3481317;9009;1151846747;-6.2111855;53.4434352;0;6;7;1424983;Swords Express towards Swords Manor;"";Swords Express;SE1;Eden Quay;Swords Manor
4937318;"{\"type\":\"LineString\",\"coordinates\":[[-6.2313572,53.3578872],[-6.2315707,53.358039],[-6.2317938,53.358206],[-6.231987,53.3583664]]}";12;Dublin Port Tunnel;2;80;false;true;false;false;false;false;69.0;0;0;0;0;0;false;9007;1150884144;-6.2271788;53.3481317;9009;1151846747;-6.2111855;53.4434352;0;6;7;1424983;Swords Express towards Swords Manor;"";Swords Express;SE1;Eden Quay;Swords Manor
129662536;"{\"type\":\"LineString\",\"coordinates\":[[-6.231987,53.3583664],[-6.2332881,53.359575],[-6.233462,53.3598975],[-6.2336178,53.3601874],[-6.2339182,53.3608661],[-6.2341757,53.3615704],[-6.234283,53.3623515],[-6.2343903,53.3628381],[-6.2345078,53.3633401],[-6.234644,53.3639218],[-6.2358061,53.3660729],[-6.2379093,53.370028],[-6.2381454,53.3703538],[-6.243381,53.3738872],[-6.2437887,53.3744575],[-6.244132,53.3753024],[-6.2442179,53.3772225],[-6.2439389,53.3825216],[-6.2432053,53.3847403],[-6.2430078,53.3854118],[-6.2422867,53.387864],[-6.2420292,53.3889774],[-6.241364,53.3915111],[-6.2411948,53.3924414],[-6.2408797,53.3938987],[-6.2406587,53.3944921],[-6.2403975,53.3949992],[-6.2396235,53.3962116]]}";13;Dublin Port Tunnel;2;80;false;true;true;false;false;false;4485.0;0;0;0;0;0;false;9007;1150884144;-6.2271788;53.3481317;9009;1151846747;-6.2111855;53.4434352;0;6;7;1424983;Swords Express towards Swords Manor;"";Swords Express;SE1;Eden Quay;Swords Manor
4384688;"{\"type\":\"LineString\",\"coordinates\":[[-6.2396235,53.3962116],[-6.2392983,53.3966804],[-6.2388539,53.3972919]]}";14;Airport Motorway;2;80;false;true;true;false;false;false;132.0;0;0;0;0;0;false;9007;1150884144;-6.2271788;53.3481317;9009;1151846747;-6.2111855;53.4434352;0;6;7;1424983;Swords Express towards Swords Manor;"";Swords Express;SE1;Eden Quay;Swords Manor
55691860;"{\"type\":\"LineString\",\"coordinates\":[[-6.2388539,53.3972919],[-6.2381383,53.3981306],[-6.2369396,53.3993844],[-6.2347159,53.4016827]]}";15;Airport Motorway;3;80;false;true;false;false;false;false;565.0;0;0;0;0;0;false;9007;1150884144;-6.2271788;53.3481317;9009;1151846747;-6.2111855;53.4434352;0;6;7;1424983;Swords Express towards Swords Manor;"";Swords Express;SE1;Eden Quay;Swords Manor
4383362;"{\"type\":\"LineString\",\"coordinates\":[[-6.2347159,53.4016827],[-6.2301376,53.4062861]]}";16;Airport Motorway;3;80;false;true;true;false;false;false;600.0;0;0;0;0;0;false;9007;1150884144;-6.2271788;53.3481317;9009;1151846747;-6.2111855;53.4434352;0;6;7;1424983;Swords Express towards Swords Manor;"";Swords Express;SE1;Eden Quay;Swords Manor
4383363;"{\"type\":\"LineString\",\"coordinates\":[[-6.2301376,53.4062861],[-6.2294441,53.4070122],[-6.2290391,53.4074769],[-6.2284121,53.4082343],[-6.2275743,53.4093175],[-6.2272916,53.4097195],[-6.2269579,53.4101976],[-6.2265398,53.4108406],[-6.2259129,53.4118824],[-6.2251915,53.4132432],[-6.2246589,53.4142337],[-6.2245156,53.4144894],[-6.223674,53.4160525],[-6.2225082,53.418114]]}";17;Airport Motorway;2;80;false;true;true;false;false;false;1424.0;0;0;0;0;0;false;9007;1150884144;-6.2271788;53.3481317;9009;1151846747;-6.2111855;53.4434352;0;6;7;1424983;Swords Express towards Swords Manor;"";Swords Express;SE1;Eden Quay;Swords Manor
4383368;"{\"type\":\"LineString\",\"coordinates\":[[-6.2225082,53.418114],[-6.2200839,53.4227385]]}";18;Airport Motorway;4;80;false;true;true;false;false;false;543.0;0;0;0;0;0;false;9007;1150884144;-6.2271788;53.3481317;9009;1151846747;-6.2111855;53.4434352;0;6;7;1424983;Swords Express towards Swords Manor;"";Swords Express;SE1;Eden Quay;Swords Manor
23007371;"{\"type\":\"LineString\",\"coordinates\":[[-6.2200839,53.4227385],[-6.2188018,53.4249538],[-6.2176536,53.4271662]]}";19;Cloghran Lissenhall Motorway;3;80;false;true;true;false;false;false;523.0;0;0;0;0;0;false;9007;1150884144;-6.2271788;53.3481317;9009;1151846747;-6.2111855;53.4434352;0;6;7;1424983;Swords Express towards Swords Manor;"";Swords Express;SE1;Eden Quay;Swords Manor
223780745;"{\"type\":\"LineString\",\"coordinates\":[[-6.2176536,53.4271662],[-6.2170775,53.4282761],[-6.2163312,53.4296286],[-6.2154198,53.4309767],[-6.2143886,53.4323033]]}";20;Cloghran Lissenhall Motorway;3;120;false;true;true;false;false;false;617.0;0;0;0;0;0;false;9007;1150884144;-6.2271788;53.3481317;9009;1151846747;-6.2111855;53.4434352;0;6;7;1424983;Swords Express towards Swords Manor;"";Swords Express;SE1;Eden Quay;Swords Manor
111385654;"{\"type\":\"LineString\",\"coordinates\":[[-6.2143886,53.4323033],[-6.2117119,53.4349729],[-6.2108997,53.4357716],[-6.2100857,53.4366782],[-6.2092846,53.4378066],[-6.2088582,53.4383961],[-6.2080622,53.4396969]]}";21;Cloghran Lissenhall Motorway;3;120;false;true;true;false;false;false;933.0;0;0;0;0;0;false;9007;1150884144;-6.2271788;53.3481317;9009;1151846747;-6.2111855;53.4434352;0;6;7;1424983;Swords Express towards Swords Manor;"";Swords Express;SE1;Eden Quay;Swords Manor
781938794;"{\"type\":\"LineString\",\"coordinates\":[[-6.2080622,53.4396969],[-6.2075991,53.4407396],[-6.2073663,53.4414506],[-6.2073277,53.4416061]]}";22;"";1;120;false;true;true;false;false;false;220.0;0;0;0;0;0;false;9007;1150884144;-6.2271788;53.3481317;9009;1151846747;-6.2111855;53.4434352;0;6;7;1424983;Swords Express towards Swords Manor;"";Swords Express;SE1;Eden Quay;Swords Manor
2701699;"{\"type\":\"LineString\",\"coordinates\":[[-6.2073277,53.4416061],[-6.2072709,53.4418487],[-6.2072707,53.4423058],[-6.2073165,53.4427267],[-6.2074333,53.4428597],[-6.2074617,53.4429052]]}";23;"";1;60;false;true;true;false;false;false;149.0;0;0;0;0;0;false;9007;1150884144;-6.2271788;53.3481317;9009;1151846747;-6.2111855;53.4434352;0;6;7;1424983;Swords Express towards Swords Manor;"";Swords Express;SE1;Eden Quay;Swords Manor
2684379;"{\"type\":\"LineString\",\"coordinates\":[[-6.2071478,53.4430681],[-6.2071666,53.4430244],[-6.2072024,53.4429847],[-6.2072531,53.4429513],[-6.2073157,53.442926],[-6.2073866,53.4429103],[-6.2074617,53.4429052],[-6.2075261,53.4429094],[-6.2075878,53.4429213],[-6.207644,53.4429406],[-6.2076924,53.4429662],[-6.207731,53.4429973],[-6.2077657,53.4430482],[-6.2077743,53.4431029],[-6.2077558,53.4431567],[-6.2077119,53.443205],[-6.2076431,53.4432452],[-6.2075572,53.443271],[-6.2074621,53.4432802],[-6.2073669,53.4432718],[-6.2072803,53.4432467],[-6.2072106,53.4432072],[-6.2071641,53.443157],[-6.2071469,53.4431131],[-6.2071478,53.4430681]]}";24;Drinan Roundabout;1;60;false;false;true;false;false;false;132.0;0;0;0;0;0;true;9007;1150884144;-6.2271788;53.3481317;9009;1151846747;-6.2111855;53.4434352;0;6;7;1424983;Swords Express towards Swords Manor;"";Swords Express;SE1;Eden Quay;Swords Manor
227933463;"{\"type\":\"LineString\",\"coordinates\":[[-6.207731,53.4429973],[-6.2078208,53.4430391],[-6.2079388,53.4431126],[-6.2080779,53.4431657],[-6.2083705,53.4432151],[-6.208886,53.4432676],[-6.2099696,53.4433555],[-6.2100505,53.4433631],[-6.2106213,53.443417],[-6.2126478,53.4436113],[-6.2131478,53.4436805],[-6.2136243,53.4437665],[-6.2140128,53.4438463],[-6.2143122,53.4438778]]}";25;Drinan Link Road;2;60;false;true;true;false;false;false;456.0;0;1;0;0;0;false;9007;1150884144;-6.2271788;53.3481317;9009;1151846747;-6.2111855;53.4434352;2;6;7;1424983;Swords Express towards Swords Manor;"";Swords Express;SE1;Eden Quay;Swords Manor
227933463;"{\"type\":\"LineString\",\"coordinates\":[[-6.207731,53.4429973],[-6.2078208,53.4430391],[-6.2079388,53.4431126],[-6.2080779,53.4431657],[-6.2083705,53.4432151],[-6.208886,53.4432676],[-6.2099696,53.4433555],[-6.2100505,53.4433631],[-6.2106213,53.443417],[-6.2126478,53.4436113],[-6.2131478,53.4436805],[-6.2136243,53.4437665],[-6.2140128,53.4438463],[-6.2143122,53.4438778]]}";1;Drinan Link Road;2;60;false;true;true;false;false;false;228.0;0;1;0;0;0;false;9009;1151846747;-6.2111855;53.4434352;9010;1142159054;-6.2227528;53.4461563;1;7;8;1424983;Swords Express towards Swords Manor;"";Swords Express;SE1;Eden Quay;Swords Manor
4568785;"{\"type\":\"LineString\",\"coordinates\":[[-6.2146731,53.4438658],[-6.2147197,53.4439019],[-6.2147458,53.4439446],[-6.2147494,53.4439862],[-6.2147335,53.4440267],[-6.2146993,53.4440629],[-6.2146495,53.4440921],[-6.2145964,53.4441099],[-6.2145293,53.444121],[-6.2144643,53.4441208],[-6.2144127,53.444111],[-6.214355,53.4440922],[-6.2143077,53.444065],[-6.2142739,53.4440314],[-6.2142559,53.4439921],[-6.2142565,53.4439514],[-6.2142758,53.4439123],[-6.2143122,53.4438778],[-6.2143744,53.4438463],[-6.2144503,53.4438284],[-6.2145319,53.4438263],[-6.2146102,53.4438399],[-6.2146731,53.4438658]]}";2;Holywell Roundabout;2;60;false;false;true;false;false;false;104.0;0;0;0;0;0;true;9009;1151846747;-6.2111855;53.4434352;9010;1142159054;-6.2227528;53.4461563;0;7;8;1424983;Swords Express towards Swords Manor;"";Swords Express;SE1;Eden Quay;Swords Manor
4568786;"{\"type\":\"LineString\",\"coordinates\":[[-6.2147458,53.4439446],[-6.2149159,53.4440376],[-6.2151285,53.4441052],[-6.2156679,53.444265],[-6.216174,53.4444334],[-6.2166698,53.4446389],[-6.217052,53.4448082],[-6.2174317,53.4449979],[-6.2178861,53.4452605],[-6.218187,53.4454544],[-6.2184765,53.4456743],[-6.2187514,53.4458901],[-6.2191712,53.4462358],[-6.2194614,53.4464962],[-6.2197771,53.4467531],[-6.2200506,53.446987],[-6.2202227,53.4471334],[-6.2203652,53.4472057],[-6.2204531,53.4472263]]}";3;Drinan Link Road;2;60;false;true;false;false;false;false;539.0;0;0;0;0;0;false;9009;1151846747;-6.2111855;53.4434352;9010;1142159054;-6.2227528;53.4461563;0;7;8;1424983;Swords Express towards Swords Manor;"";Swords Express;SE1;Eden Quay;Swords Manor
2787835;"{\"type\":\"LineString\",\"coordinates\":[[-6.2207884,53.4473059],[-6.2208393,53.4473776],[-6.2208396,53.4474525],[-6.2207525,53.4475511],[-6.2206524,53.4475924],[-6.2205561,53.4476079],[-6.2204301,53.4476014],[-6.2202935,53.4475539],[-6.2202271,53.4474985],[-6.2201985,53.4474409],[-6.2202108,53.4473574],[-6.2203048,53.4472709],[-6.2204531,53.4472263],[-6.2205705,53.4472243],[-6.2207068,53.447257],[-6.2207884,53.4473059]]}";4;Airside Roundabout;1;50;false;false;true;false;false;false;136.0;0;0;0;0;0;true;9009;1151846747;-6.2111855;53.4434352;9010;1142159054;-6.2227528;53.4461563;0;7;8;1424983;Swords Express towards Swords Manor;"";Swords Express;SE1;Eden Quay;Swords Manor
586398431;"{\"type\":\"LineString\",\"coordinates\":[[-6.2233084,53.4460822],[-6.222929,53.4461395],[-6.2226325,53.446217],[-6.2224532,53.4462753],[-6.2222378,53.4463718],[-6.2217286,53.4466943],[-6.2210711,53.4471134],[-6.2207884,53.4473059]]}";5;Lakeshore Drive;2;50;false;false;false;false;false;false;111.5;0;0;0;0;0;false;9009;1151846747;-6.2111855;53.4434352;9010;1142159054;-6.2227528;53.4461563;1;7;8;1424983;Swords Express towards Swords Manor;"";Swords Express;SE1;Eden Quay;Swords Manor
586398431;"{\"type\":\"LineString\",\"coordinates\":[[-6.2233084,53.4460822],[-6.222929,53.4461395],[-6.2226325,53.446217],[-6.2224532,53.4462753],[-6.2222378,53.4463718],[-6.2217286,53.4466943],[-6.2210711,53.4471134],[-6.2207884,53.4473059]]}";1;Lakeshore Drive;2;50;false;false;false;false;false;false;111.5;0;0;0;0;0;false;9010;1142159054;-6.2227528;53.4461563;9011;1151846738;-6.2312988;53.4445606;1;8;9;1424983;Swords Express towards Swords Manor;"";Swords Express;SE1;Eden Quay;Swords Manor
228128954;"{\"type\":\"LineString\",\"coordinates\":[[-6.2274912,53.444842],[-6.227283,53.4448553],[-6.2271035,53.4448837],[-6.2270203,53.4449051],[-6.2268138,53.4449838],[-6.2265618,53.4451437],[-6.2263615,53.4452913],[-6.2261385,53.4454204],[-6.2259279,53.4454893],[-6.2257451,53.4455355],[-6.2253827,53.4456233],[-6.2251659,53.4456812],[-6.2247231,53.4458045],[-6.2245011,53.4458663],[-6.2242496,53.4459433],[-6.22411,53.445986],[-6.2237235,53.4460591],[-6.2233084,53.4460822]]}";2;Lakeshore Drive;2;50;false;false;false;false;false;false;321.0;0;0;0;0;0;false;9010;1142159054;-6.2227528;53.4461563;9011;1151846738;-6.2312988;53.4445606;0;8;9;1424983;Swords Express towards Swords Manor;"";Swords Express;SE1;Eden Quay;Swords Manor
228130422;"{\"type\":\"LineString\",\"coordinates\":[[-6.2274912,53.444842],[-6.228045,53.4448214],[-6.2283265,53.4448243]]}";3;Lakeshore Drive;1;50;false;true;true;false;false;false;56.0;1;0;0;0;0;false;9010;1142159054;-6.2227528;53.4461563;9011;1151846738;-6.2312988;53.4445606;0;8;9;1424983;Swords Express towards Swords Manor;"";Swords Express;SE1;Eden Quay;Swords Manor
791050138;"{\"type\":\"LineString\",\"coordinates\":[[-6.2283265,53.4448243],[-6.228462,53.4448257]]}";4;Lakeshore Drive;1;50;false;true;true;false;false;false;10.0;2;0;0;0;0;false;9010;1142159054;-6.2227528;53.4461563;9011;1151846738;-6.2312988;53.4445606;0;8;9;1424983;Swords Express towards Swords Manor;"";Swords Express;SE1;Eden Quay;Swords Manor
228130419;"{\"type\":\"LineString\",\"coordinates\":[[-6.228462,53.4448257],[-6.2286283,53.444826],[-6.2289636,53.4448308],[-6.2294196,53.4447924],[-6.2297388,53.4447365],[-6.2300616,53.4446915]]}";5;Boroimhe Road;1;50;false;true;true;false;false;false;109.0;1;0;0;0;0;false;9010;1142159054;-6.2227528;53.4461563;9011;1151846738;-6.2312988;53.4445606;0;8;9;1424983;Swords Express towards Swords Manor;"";Swords Express;SE1;Eden Quay;Swords Manor
3753922;"{\"type\":\"LineString\",\"coordinates\":[[-6.2375222,53.4472268],[-6.2374109,53.4471084],[-6.2370063,53.4467875],[-6.2365745,53.4464327],[-6.2357666,53.4458189],[-6.2354361,53.4455608],[-6.2350648,53.4452811],[-6.2348679,53.4451552],[-6.2346611,53.4450327],[-6.2343764,53.4449035],[-6.2341499,53.444819],[-6.2339687,53.4447607],[-6.2336809,53.4446901],[-6.233579,53.4446651],[-6.2331207,53.4445557],[-6.2329979,53.4445349],[-6.2328889,53.4445164],[-6.232657,53.444493],[-6.232131,53.444508],[-6.2312904,53.4445758],[-6.2306729,53.4446221],[-6.2303577,53.4446531],[-6.2300616,53.4446915]]}";6;Boroimhe Road;3;50;false;false;false;false;false;false;318.0;1;1;0;0;0;false;9010;1142159054;-6.2227528;53.4461563;9011;1151846738;-6.2312988;53.4445606;1;8;9;1424983;Swords Express towards Swords Manor;"";Swords Express;SE1;Eden Quay;Swords Manor
3753922;"{\"type\":\"LineString\",\"coordinates\":[[-6.2375222,53.4472268],[-6.2374109,53.4471084],[-6.2370063,53.4467875],[-6.2365745,53.4464327],[-6.2357666,53.4458189],[-6.2354361,53.4455608],[-6.2350648,53.4452811],[-6.2348679,53.4451552],[-6.2346611,53.4450327],[-6.2343764,53.4449035],[-6.2341499,53.444819],[-6.2339687,53.4447607],[-6.2336809,53.4446901],[-6.233579,53.4446651],[-6.2331207,53.4445557],[-6.2329979,53.4445349],[-6.2328889,53.4445164],[-6.232657,53.444493],[-6.232131,53.444508],[-6.2312904,53.4445758],[-6.2306729,53.4446221],[-6.2303577,53.4446531],[-6.2300616,53.4446915]]}";1;Boroimhe Road;3;50;false;false;false;false;false;false;318.0;1;1;0;0;0;false;9012;1151846732;-6.2349524;53.4451514;9016;1151846752;-6.2286058;53.4521321;1;10;11;1424983;Swords Express towards Swords Manor;"";Swords Express;SE1;Eden Quay;Swords Manor
4573326;"{\"type\":\"LineString\",\"coordinates\":[[-6.2375222,53.4472268],[-6.2369756,53.4473437],[-6.2365882,53.4474453],[-6.2362231,53.4475716],[-6.2358631,53.4477126],[-6.2356684,53.4477884],[-6.2354347,53.4478823],[-6.2351782,53.4479987],[-6.2350017,53.448061],[-6.2348179,53.4481031],[-6.2346235,53.4481351],[-6.2343707,53.4481439],[-6.2340217,53.4481524],[-6.2336753,53.4481831],[-6.2333362,53.4482653],[-6.2331185,53.4483379],[-6.2329317,53.4484069],[-6.2327548,53.4484862],[-6.2326073,53.4485604],[-6.2324383,53.4486734],[-6.232334,53.4487594],[-6.2322095,53.4489035],[-6.2321561,53.4490021]]}";2;Forest Road;2;50;false;false;false;false;false;false;427.0;1;0;0;0;0;false;9012;1151846732;-6.2349524;53.4451514;9016;1151846752;-6.2286058;53.4521321;0;10;11;1424983;Swords Express towards Swords Manor;"";Swords Express;SE1;Eden Quay;Swords Manor
363336477;"{\"type\":\"LineString\",\"coordinates\":[[-6.2321561,53.4490021],[-6.2320039,53.4492827],[-6.2318951,53.4495142],[-6.2318074,53.4497378],[-6.2317134,53.4499535],[-6.2316126,53.4501239],[-6.2315213,53.4502198],[-6.2310892,53.4505284]]}";3;Forest Road;2;50;false;false;true;false;false;false;189.0;0;0;0;0;0;false;9012;1151846732;-6.2349524;53.4451514;9016;1151846752;-6.2286058;53.4521321;0;10;11;1424983;Swords Express towards Swords Manor;"";Swords Express;SE1;Eden Quay;Swords Manor
231646245;"{\"type\":\"LineString\",\"coordinates\":[[-6.2310892,53.4505284],[-6.2310141,53.4505838],[-6.2307182,53.450802],[-6.2305458,53.4509112],[-6.2302446,53.4511031]]}";4;Forest Road;1;50;false;false;false;false;false;false;86.0;0;0;0;0;0;false;9012;1151846732;-6.2349524;53.4451514;9016;1151846752;-6.2286058;53.4521321;0;10;11;1424983;Swords Express towards Swords Manor;"";Swords Express;SE1;Eden Quay;Swords Manor
363962268;"{\"type\":\"LineString\",\"coordinates\":[[-6.2302446,53.4511031],[-6.2290922,53.4517586],[-6.2289407,53.4518532]]}";5;Forest Road;2;50;false;false;false;false;false;false;122.0;1;0;0;0;0;false;9012;1151846732;-6.2349524;53.4451514;9016;1151846752;-6.2286058;53.4521321;0;10;11;1424983;Swords Express towards Swords Manor;"";Swords Express;SE1;Eden Quay;Swords Manor
366208644;"{\"type\":\"LineString\",\"coordinates\":[[-6.2287333,53.4519761],[-6.2289407,53.4518532]]}";6;Forest Road;2;50;false;false;true;false;false;false;20.0;1;0;0;0;0;false;9012;1151846732;-6.2349524;53.4451514;9016;1151846752;-6.2286058;53.4521321;0;10;11;1424983;Swords Express towards Swords Manor;"";Swords Express;SE1;Eden Quay;Swords Manor
363336476;"{\"type\":\"LineString\",\"coordinates\":[[-6.2261932,53.4530849],[-6.2263798,53.4529569],[-6.2265848,53.4528712],[-6.2267926,53.4527935],[-6.2271783,53.4526686],[-6.227624,53.4525278],[-6.22799,53.4524102],[-6.2282632,53.4522548],[-6.2285173,53.4521041],[-6.2287333,53.4519761]]}";7;Forest Road;2;50;false;false;false;false;false;false;106.5;0;0;0;0;0;false;9012;1151846732;-6.2349524;53.4451514;9016;1151846752;-6.2286058;53.4521321;1;10;11;1424983;Swords Express towards Swords Manor;"";Swords Express;SE1;Eden Quay;Swords Manor
366208644;"{\"type\":\"LineString\",\"coordinates\":[[-6.2287333,53.4519761],[-6.2289407,53.4518532]]}";1;Forest Road;2;50;false;false;true;false;false;false;20.0;1;0;0;0;0;false;9016;1151846752;-6.2286058;53.4521321;9017;1151846751;-6.224466;53.4544301;2;11;12;1424983;Swords Express towards Swords Manor;"";Swords Express;SE1;Eden Quay;Swords Manor
363336476;"{\"type\":\"LineString\",\"coordinates\":[[-6.2261932,53.4530849],[-6.2263798,53.4529569],[-6.2265848,53.4528712],[-6.2267926,53.4527935],[-6.2271783,53.4526686],[-6.227624,53.4525278],[-6.22799,53.4524102],[-6.2282632,53.4522548],[-6.2285173,53.4521041],[-6.2287333,53.4519761]]}";2;Forest Road;2;50;false;false;false;false;false;false;213.0;0;0;0;0;0;false;9016;1151846752;-6.2286058;53.4521321;9017;1151846751;-6.224466;53.4544301;0;11;12;1424983;Swords Express towards Swords Manor;"";Swords Express;SE1;Eden Quay;Swords Manor
366119202;"{\"type\":\"LineString\",\"coordinates\":[[-6.224923,53.4542399],[-6.2250037,53.4541906],[-6.2250919,53.4541168],[-6.2251965,53.4540293],[-6.2255271,53.4536736],[-6.2256713,53.4535458],[-6.2259299,53.453315],[-6.2259983,53.453254],[-6.2261932,53.4530849]]}";3;Forest Road;1;50;false;false;true;false;false;false;156.0;0;0;0;0;0;false;9016;1151846752;-6.2286058;53.4521321;9017;1151846751;-6.224466;53.4544301;0;11;12;1424983;Swords Express towards Swords Manor;"";Swords Express;SE1;Eden Quay;Swords Manor
5363369;"{\"type\":\"LineString\",\"coordinates\":[[-6.2231188,53.4545789],[-6.2232343,53.454615],[-6.2233179,53.4546324],[-6.2234063,53.4546364],[-6.2235398,53.4546296],[-6.2236134,53.4546205],[-6.2237517,53.4545881],[-6.2240737,53.4545],[-6.2241562,53.4544783],[-6.2245067,53.4543762],[-6.224923,53.4542399]]}";4;Forest Road;2;50;false;false;true;false;false;false;133.0;1;0;0;0;0;false;9016;1151846752;-6.2286058;53.4521321;9017;1151846751;-6.224466;53.4544301;2;11;12;1424983;Swords Express towards Swords Manor;"";Swords Express;SE1;Eden Quay;Swords Manor
5363369;"{\"type\":\"LineString\",\"coordinates\":[[-6.2231188,53.4545789],[-6.2232343,53.454615],[-6.2233179,53.4546324],[-6.2234063,53.4546364],[-6.2235398,53.4546296],[-6.2236134,53.4546205],[-6.2237517,53.4545881],[-6.2240737,53.4545],[-6.2241562,53.4544783],[-6.2245067,53.4543762],[-6.224923,53.4542399]]}";1;Forest Road;2;50;false;false;true;false;false;false;66.5;1;0;0;0;0;false;9017;1151846751;-6.224466;53.4544301;9018;1151846763;-6.2223636;53.45534;1;12;13;1424983;Swords Express towards Swords Manor;"";Swords Express;SE1;Eden Quay;Swords Manor
52038941;"{\"type\":\"LineString\",\"coordinates\":[[-6.2231188,53.4545789],[-6.2226125,53.45503]]}";2;Main Street;1;50;false;false;true;false;false;false;61.0;1;0;0;0;0;false;9017;1151846751;-6.224466;53.4544301;9018;1151846763;-6.2223636;53.45534;0;12;13;1424983;Swords Express towards Swords Manor;"";Swords Express;SE1;Eden Quay;Swords Manor
366119203;"{\"type\":\"LineString\",\"coordinates\":[[-6.2226125,53.45503],[-6.222235,53.4553844],[-6.2221488,53.45549],[-6.2220735,53.45558],[-6.221906,53.4557801],[-6.221835,53.4558649],[-6.2217718,53.4559671],[-6.2215079,53.4563944]]}";3;Main Street;2;50;false;false;true;false;false;false;85.5;1;0;0;0;0;false;9017;1151846751;-6.224466;53.4544301;9018;1151846763;-6.2223636;53.45534;1;12;13;1424983;Swords Express towards Swords Manor;"";Swords Express;SE1;Eden Quay;Swords Manor
366119203;"{\"type\":\"LineString\",\"coordinates\":[[-6.2226125,53.45503],[-6.222235,53.4553844],[-6.2221488,53.45549],[-6.2220735,53.45558],[-6.221906,53.4557801],[-6.221835,53.4558649],[-6.2217718,53.4559671],[-6.2215079,53.4563944]]}";1;Main Street;2;50;false;false;true;false;false;false;85.5;1;0;0;0;0;false;9018;1151846763;-6.2223636;53.45534;9019;1151846761;-6.2161067;53.4544056;1;13;14;1424983;Swords Express towards Swords Manor;"";Swords Express;SE1;Eden Quay;Swords Manor
3753915;"{\"type\":\"LineString\",\"coordinates\":[[-6.2215079,53.4563944],[-6.221337,53.4563622],[-6.220929,53.4562515],[-6.2207669,53.4561922],[-6.2205445,53.4560949],[-6.2201924,53.4559174],[-6.2198982,53.4557819],[-6.219704,53.4557135],[-6.2192916,53.4556103],[-6.2189962,53.4555143],[-6.2187972,53.4554165],[-6.2184232,53.4550351],[-6.2183473,53.4548804]]}";2;Malahide Road;2;50;false;false;true;false;false;false;282.0;1;0;0;0;0;false;9018;1151846763;-6.2223636;53.45534;9019;1151846761;-6.2161067;53.4544056;0;13;14;1424983;Swords Express towards Swords Manor;"";Swords Express;SE1;Eden Quay;Swords Manor
366208645;"{\"type\":\"LineString\",\"coordinates\":[[-6.2183473,53.4548804],[-6.2183172,53.4548191],[-6.2182355,53.4547203]]}";3;Malahide Road;2;50;false;false;true;false;false;false;20.0;0;0;0;0;0;false;9018;1151846763;-6.2223636;53.45534;9019;1151846761;-6.2161067;53.4544056;0;13;14;1424983;Swords Express towards Swords Manor;"";Swords Express;SE1;Eden Quay;Swords Manor
4936765;"{\"type\":\"LineString\",\"coordinates\":[[-6.2182355,53.4547203],[-6.218041,53.4545775]]}";4;Malahide Road;1;50;false;true;true;false;false;false;21.0;0;0;0;0;0;false;9018;1151846763;-6.2223636;53.45534;9019;1151846761;-6.2161067;53.4544056;0;13;14;1424983;Swords Express towards Swords Manor;"";Swords Express;SE1;Eden Quay;Swords Manor
366260891;"{\"type\":\"LineString\",\"coordinates\":[[-6.218041,53.4545775],[-6.217952,53.4544977]]}";5;Malahide Road;1;50;false;true;true;false;false;false;11.0;0;0;0;0;0;false;9018;1151846763;-6.2223636;53.45534;9019;1151846761;-6.2161067;53.4544056;0;13;14;1424983;Swords Express towards Swords Manor;"";Swords Express;SE1;Eden Quay;Swords Manor
539854996;"{\"type\":\"LineString\",\"coordinates\":[[-6.217952,53.4544977],[-6.2178674,53.4544961],[-6.2177877,53.454479],[-6.2177208,53.4544482],[-6.2176732,53.4544065]]}";6;Pavilions Roundabout;2;50;false;false;true;false;false;false;23.0;0;0;0;0;0;true;9018;1151846763;-6.2223636;53.45534;9019;1151846761;-6.2161067;53.4544056;0;13;14;1424983;Swords Express towards Swords Manor;"";Swords Express;SE1;Eden Quay;Swords Manor
4936766;"{\"type\":\"LineString\",\"coordinates\":[[-6.2176732,53.4544065],[-6.2169105,53.4543218]]}";7;Malahide Road;2;50;false;true;true;false;false;false;52.0;0;0;0;0;0;false;9018;1151846763;-6.2223636;53.45534;9019;1151846761;-6.2161067;53.4544056;0;13;14;1424983;Swords Express towards Swords Manor;"";Swords Express;SE1;Eden Quay;Swords Manor
4804873;"{\"type\":\"LineString\",\"coordinates\":[[-6.2169105,53.4543218],[-6.2165318,53.4543084],[-6.2161172,53.4542884]]}";8;Malahide Road;4;50;false;false;true;false;false;false;27.0;0;0;0;0;0;false;9018;1151846763;-6.2223636;53.45534;9019;1151846761;-6.2161067;53.4544056;1;13;14;1424983;Swords Express towards Swords Manor;"";Swords Express;SE1;Eden Quay;Swords Manor
70417047;"{\"type\":\"LineString\",\"coordinates\":[[-6.2161172,53.4542884],[-6.215781,53.4542777],[-6.2154606,53.4542644]]}";1;Malahide Road;4;50;false;false;true;false;false;false;44.0;0;0;0;0;0;false;9019;1151846761;-6.2161067;53.4544056;9021;1151846753;-6.2134949;53.461677;2;14;15;1424983;Swords Express towards Swords Manor;"";Swords Express;SE1;Eden Quay;Swords Manor
4936769;"{\"type\":\"LineString\",\"coordinates\":[[-6.2154606,53.4542644],[-6.2147141,53.4542371]]}";2;Malahide Road;2;50;false;true;true;false;false;false;51.0;1;0;0;0;0;false;9019;1151846761;-6.2161067;53.4544056;9021;1151846753;-6.2134949;53.461677;0;14;15;1424983;Swords Express towards Swords Manor;"";Swords Express;SE1;Eden Quay;Swords Manor
529166761;"{\"type\":\"LineString\",\"coordinates\":[[-6.2147141,53.4542371],[-6.214575,53.4543039],[-6.2144599,53.4543316],[-6.2143372,53.4543421]]}";3;Malahide Road Roundabout;2;80;false;false;true;false;false;false;29.0;1;0;0;0;0;true;9019;1151846761;-6.2161067;53.4544056;9021;1151846753;-6.2134949;53.461677;0;14;15;1424983;Swords Express towards Swords Manor;"";Swords Express;SE1;Eden Quay;Swords Manor
3387340;"{\"type\":\"LineString\",\"coordinates\":[[-6.2143372,53.4543421],[-6.2140737,53.4545081],[-6.2137956,53.454734],[-6.2136152,53.4549733],[-6.2130428,53.4560623],[-6.2127441,53.457296],[-6.2126385,53.4585234],[-6.2127352,53.4595822],[-6.2128164,53.4598673],[-6.2128922,53.4601025],[-6.2129932,53.460341]]}";4;Swords Bypass;2;80;false;true;true;false;false;false;698.0;0;0;0;0;0;false;9019;1151846761;-6.2161067;53.4544056;9021;1151846753;-6.2134949;53.461677;0;14;15;1424983;Swords Express towards Swords Manor;"";Swords Express;SE1;Eden Quay;Swords Manor
2710807;"{\"type\":\"LineString\",\"coordinates\":[[-6.2129932,53.460341],[-6.2131141,53.4603778],[-6.2131898,53.46042],[-6.2132606,53.4604915],[-6.2132873,53.4605575],[-6.2132679,53.4606636],[-6.2131816,53.4607528]]}";5;Seatown Roundabout;1;50;false;false;true;false;false;false;57.0;0;0;0;0;0;true;9019;1151846761;-6.2161067;53.4544056;9021;1151846753;-6.2134949;53.461677;0;14;15;1424983;Swords Express towards Swords Manor;"";Swords Express;SE1;Eden Quay;Swords Manor
98724203;"{\"type\":\"LineString\",\"coordinates\":[[-6.2131816,53.4607528],[-6.2131389,53.4609347],[-6.213155,53.4611352],[-6.2132992,53.4614866],[-6.2140737,53.4632647],[-6.2144771,53.4641334],[-6.2146488,53.4645421],[-6.2148904,53.4649105]]}";6;Swords Bypass;2;80;false;true;true;false;false;false;483.0;0;0;0;0;0;false;9019;1151846761;-6.2161067;53.4544056;9021;1151846753;-6.2134949;53.461677;2;14;15;1424983;Swords Express towards Swords Manor;"";Swords Express;SE1;Eden Quay;Swords Manor
98724203;"{\"type\":\"LineString\",\"coordinates\":[[-6.2131816,53.4607528],[-6.2131389,53.4609347],[-6.213155,53.4611352],[-6.2132992,53.4614866],[-6.2140737,53.4632647],[-6.2144771,53.4641334],[-6.2146488,53.4645421],[-6.2148904,53.4649105]]}";1;Swords Bypass;2;80;false;true;true;false;false;false;241.5;0;0;0;0;0;false;9021;1151846753;-6.2134949;53.461677;9023;1151846727;-6.2169974;53.464877;1;15;16;1424983;Swords Express towards Swords Manor;"";Swords Express;SE1;Eden Quay;Swords Manor
529166757;"{\"type\":\"LineString\",\"coordinates\":[[-6.2148904,53.4649105],[-6.2149789,53.4649424],[-6.2150521,53.464986],[-6.2151058,53.4650386]]}";2;Estuary Roundabout;2;80;false;false;true;false;false;false;21.0;0;0;0;0;0;true;9021;1151846753;-6.2134949;53.461677;9023;1151846727;-6.2169974;53.464877;0;15;16;1424983;Swords Express towards Swords Manor;"";Swords Express;SE1;Eden Quay;Swords Manor
272181493;"{\"type\":\"LineString\",\"coordinates\":[[-6.2151058,53.4650386],[-6.2154028,53.465045],[-6.2156603,53.4650503]]}";3;Castlegrange Road;1;50;false;true;true;false;false;false;38.0;0;0;0;0;0;false;9021;1151846753;-6.2134949;53.461677;9023;1151846727;-6.2169974;53.464877;0;15;16;1424983;Swords Express towards Swords Manor;"";Swords Express;SE1;Eden Quay;Swords Manor
52038943;"{\"type\":\"LineString\",\"coordinates\":[[-6.2161476,53.4650236],[-6.2156603,53.4650503]]}";4;Castlegrange Road;2;50;false;false;true;false;false;false;33.0;0;0;0;0;0;false;9021;1151846753;-6.2134949;53.461677;9023;1151846727;-6.2169974;53.464877;0;15;16;1424983;Swords Express towards Swords Manor;"";Swords Express;SE1;Eden Quay;Swords Manor
32234385;"{\"type\":\"LineString\",\"coordinates\":[[-6.2182049,53.4648831],[-6.2175423,53.4649265],[-6.2167373,53.4649758],[-6.2161476,53.4650236]]}";5;Castlegrange Road;2;50;false;false;true;false;false;false;69.5;0;1;0;0;0;false;9021;1151846753;-6.2134949;53.461677;9023;1151846727;-6.2169974;53.464877;1;15;16;1424983;Swords Express towards Swords Manor;"";Swords Express;SE1;Eden Quay;Swords Manor
32234385;"{\"type\":\"LineString\",\"coordinates\":[[-6.2182049,53.4648831],[-6.2175423,53.4649265],[-6.2167373,53.4649758],[-6.2161476,53.4650236]]}";1;Castlegrange Road;2;50;false;false;true;false;false;false;69.5;0;1;0;0;0;false;9023;1151846727;-6.2169974;53.464877;9025;1151846768;-6.2215895;53.4680775;1;16;17;1424983;Swords Express towards Swords Manor;"";Swords Express;SE1;Eden Quay;Swords Manor
98722161;"{\"type\":\"LineString\",\"coordinates\":[[-6.2184103,53.4648722],[-6.2182907,53.4648798],[-6.2182049,53.4648831]]}";2;Castlegrange Road;2;50;false;false;true;false;false;false;14.0;0;0;0;0;0;false;9023;1151846727;-6.2169974;53.464877;9025;1151846768;-6.2215895;53.4680775;0;16;17;1424983;Swords Express towards Swords Manor;"";Swords Express;SE1;Eden Quay;Swords Manor
32234383;"{\"type\":\"LineString\",\"coordinates\":[[-6.2190875,53.4648328],[-6.2187727,53.4648501],[-6.2184993,53.4648652],[-6.2184103,53.4648722]]}";3;Castlegrange Road;2;50;false;false;true;false;false;false;46.0;1;0;0;0;0;false;9023;1151846727;-6.2169974;53.464877;9025;1151846768;-6.2215895;53.4680775;0;16;17;1424983;Swords Express towards Swords Manor;"";Swords Express;SE1;Eden Quay;Swords Manor
4256679;"{\"type\":\"LineString\",\"coordinates\":[[-6.2190875,53.4648328],[-6.2191112,53.4650409],[-6.2191792,53.4656373],[-6.2192146,53.4659913],[-6.2192631,53.4664767],[-6.2192926,53.4669729],[-6.2193049,53.4673435],[-6.2193312,53.4675642],[-6.2193657,53.4677054],[-6.2194688,53.4680264],[-6.2195098,53.4681437],[-6.2195955,53.468254]]}";4;Balheary Road;1;50;false;false;true;false;false;false;387.0;2;0;0;0;0;false;9023;1151846727;-6.2169974;53.464877;9025;1151846768;-6.2215895;53.4680775;0;16;17;1424983;Swords Express towards Swords Manor;"";Swords Express;SE1;Eden Quay;Swords Manor
3810283;"{\"type\":\"LineString\",\"coordinates\":[[-6.2275112,53.4685293],[-6.2268664,53.4684648],[-6.2249402,53.4683387],[-6.2240452,53.4682676],[-6.2221319,53.4681424],[-6.2215811,53.4681353],[-6.2209317,53.4681369],[-6.220657,53.4681486],[-6.2199232,53.4682215],[-6.2195955,53.468254]]}";5;Glen Ellan Road;2;50;false;false;false;false;false;false;266.5;1;0;0;0;0;false;9023;1151846727;-6.2169974;53.464877;9025;1151846768;-6.2215895;53.4680775;1;16;17;1424983;Swords Express towards Swords Manor;"";Swords Express;SE1;Eden Quay;Swords Manor
3810283;"{\"type\":\"LineString\",\"coordinates\":[[-6.2275112,53.4685293],[-6.2268664,53.4684648],[-6.2249402,53.4683387],[-6.2240452,53.4682676],[-6.2221319,53.4681424],[-6.2215811,53.4681353],[-6.2209317,53.4681369],[-6.220657,53.4681486],[-6.2199232,53.4682215],[-6.2195955,53.468254]]}";1;Glen Ellan Road;2;50;false;false;false;false;false;false;266.5;1;0;0;0;0;false;9025;1151846768;-6.2215895;53.4680775;9026;1151846745;-6.2275847;53.4684597;1;17;18;1424983;Swords Express towards Swords Manor;"";Swords Express;SE1;Eden Quay;Swords Manor
548432744;"{\"type\":\"LineString\",\"coordinates\":[[-6.2297326,53.468916],[-6.2294735,53.468853],[-6.2288569,53.4687351],[-6.2285269,53.4686795],[-6.2280159,53.4685935],[-6.2275112,53.4685293]]}";2;Glen Ellan Road;2;50;false;false;false;false;false;false;77.5;0;1;0;0;0;false;9025;1151846768;-6.2215895;53.4680775;9026;1151846745;-6.2275847;53.4684597;1;17;18;1424983;Swords Express towards Swords Manor;"";Swords Express;SE1;Eden Quay;Swords Manor
3810283;"{\"type\":\"LineString\",\"coordinates\":[[-6.2275112,53.4685293],[-6.2268664,53.4684648],[-6.2249402,53.4683387],[-6.2240452,53.4682676],[-6.2221319,53.4681424],[-6.2215811,53.4681353],[-6.2209317,53.4681369],[-6.220657,53.4681486],[-6.2199232,53.4682215],[-6.2195955,53.468254]]}";1;Glen Ellan Road;2;50;false;false;false;false;false;false;533.0;1;0;0;0;0;false;9026;1151846745;-6.2275847;53.4684597;9027;1151846737;-6.231859;53.4695777;2;18;19;1424983;Swords Express towards Swords Manor;"";Swords Express;SE1;Eden Quay;Swords Manor
548432744;"{\"type\":\"LineString\",\"coordinates\":[[-6.2297326,53.468916],[-6.2294735,53.468853],[-6.2288569,53.4687351],[-6.2285269,53.4686795],[-6.2280159,53.4685935],[-6.2275112,53.4685293]]}";2;Glen Ellan Road;2;50;false;false;false;false;false;false;155.0;0;1;0;0;0;false;9026;1151846745;-6.2275847;53.4684597;9027;1151846737;-6.231859;53.4695777;0;18;19;1424983;Swords Express towards Swords Manor;"";Swords Express;SE1;Eden Quay;Swords Manor
2988070;"{\"type\":\"LineString\",\"coordinates\":[[-6.2298986,53.4688384],[-6.2299714,53.4688373],[-6.2300411,53.46885],[-6.230099,53.4688741],[-6.2301416,53.4689077],[-6.2301649,53.4689475],[-6.2301667,53.4689896],[-6.2301467,53.46903],[-6.2301092,53.4690633],[-6.230057,53.4690886],[-6.2299946,53.4691037],[-6.2299275,53.4691074],[-6.2298616,53.4690992],[-6.2297968,53.4690773],[-6.2297474,53.4690441],[-6.2297186,53.4690032],[-6.2297135,53.4689589],[-6.2297326,53.468916],[-6.2297727,53.4688799],[-6.22983,53.4688531],[-6.2298986,53.4688384]]}";3;Glen Ellan Roundabout;2;50;false;false;true;false;false;false;96.0;0;0;0;0;0;true;9026;1151846745;-6.2275847;53.4684597;9027;1151846737;-6.231859;53.4695777;0;18;19;1424983;Swords Express towards Swords Manor;"";Swords Express;SE1;Eden Quay;Swords Manor
3810282;"{\"type\":\"LineString\",\"coordinates\":[[-6.2349337,53.4701055],[-6.2347924,53.47011],[-6.2347122,53.4701126],[-6.2344235,53.4700949],[-6.2339256,53.4700524],[-6.2330532,53.4699351],[-6.232957,53.4699182],[-6.2323674,53.4697972],[-6.2317588,53.469631],[-6.2314025,53.4695127],[-6.2312492,53.4694599],[-6.230745,53.4692663],[-6.2301467,53.46903]]}";4;Glen Ellan Road;2;50;false;false;false;false;false;false;348.0;0;0;0;0;0;false;9026;1151846745;-6.2275847;53.4684597;9027;1151846737;-6.231859;53.4695777;2;18;19;1424983;Swords Express towards Swords Manor;"";Swords Express;SE1;Eden Quay;Swords Manor
3810282;"{\"type\":\"LineString\",\"coordinates\":[[-6.2349337,53.4701055],[-6.2347924,53.47011],[-6.2347122,53.4701126],[-6.2344235,53.4700949],[-6.2339256,53.4700524],[-6.2330532,53.4699351],[-6.232957,53.4699182],[-6.2323674,53.4697972],[-6.2317588,53.469631],[-6.2314025,53.4695127],[-6.2312492,53.4694599],[-6.230745,53.4692663],[-6.2301467,53.46903]]}";1;Glen Ellan Road;2;50;false;false;false;false;false;false;174.0;0;0;0;0;0;false;9027;1151846737;-6.231859;53.4695777;9028;1151846725;-6.2362437;53.4683705;1;19;20;1424983;Swords Express towards Swords Manor;"";Swords Express;SE1;Eden Quay;Swords Manor
2988069;"{\"type\":\"LineString\",\"coordinates\":[[-6.2349438,53.4701831],[-6.2349287,53.4701448],[-6.2349337,53.4701055],[-6.2349563,53.4700709],[-6.2349945,53.4700416],[-6.2350451,53.47002],[-6.235104,53.4700078],[-6.2351662,53.4700061],[-6.2352323,53.4700163],[-6.2352897,53.4700382],[-6.2353329,53.4700697],[-6.2353575,53.4701076],[-6.2353612,53.4701482],[-6.2353458,53.4701843],[-6.2353137,53.4702163],[-6.2352676,53.4702415],[-6.2352113,53.4702578],[-6.2351496,53.470264],[-6.2350875,53.4702593],[-6.2350271,53.4702432],[-6.2349777,53.470217],[-6.2349438,53.4701831]]}";2;Applewood Roundabout;2;50;false;false;true;false;false;false;91.0;0;0;0;0;0;true;9027;1151846737;-6.231859;53.4695777;9028;1151846725;-6.2362437;53.4683705;0;19;20;1424983;Swords Express towards Swords Manor;"";Swords Express;SE1;Eden Quay;Swords Manor
3810281;"{\"type\":\"LineString\",\"coordinates\":[[-6.2385495,53.4670473],[-6.2382433,53.4672228],[-6.2377339,53.4675146],[-6.2371878,53.4678257],[-6.236438,53.4683279],[-6.2361509,53.4685518],[-6.2358463,53.4688203],[-6.2356382,53.469068],[-6.2354967,53.4692583],[-6.2353453,53.4695436],[-6.2352554,53.4697507],[-6.2351662,53.4700061]]}";3;Glen Ellan Road;2;50;false;false;false;false;false;false;205.5;1;0;0;0;0;false;9027;1151846737;-6.231859;53.4695777;9028;1151846725;-6.2362437;53.4683705;1;19;20;1424983;Swords Express towards Swords Manor;"";Swords Express;SE1;Eden Quay;Swords Manor
3810281;"{\"type\":\"LineString\",\"coordinates\":[[-6.2385495,53.4670473],[-6.2382433,53.4672228],[-6.2377339,53.4675146],[-6.2371878,53.4678257],[-6.236438,53.4683279],[-6.2361509,53.4685518],[-6.2358463,53.4688203],[-6.2356382,53.469068],[-6.2354967,53.4692583],[-6.2353453,53.4695436],[-6.2352554,53.4697507],[-6.2351662,53.4700061]]}";1;Glen Ellan Road;2;50;false;false;false;false;false;false;205.5;1;0;0;0;0;false;9028;1151846725;-6.2362437;53.4683705;9029;1163721757;-6.2392209;53.4666115;1;20;21;1424983;Swords Express towards Swords Manor;"";Swords Express;SE1;Eden Quay;Swords Manor
788230006;"{\"type\":\"LineString\",\"coordinates\":[[-6.2399568,53.4622319],[-6.2397388,53.4625052],[-6.2396881,53.4625804],[-6.2395843,53.4627852],[-6.23954,53.4628682],[-6.2394524,53.4631211],[-6.2394143,53.4633769],[-6.2393859,53.4636154],[-6.2393834,53.4638022],[-6.2394122,53.463964],[-6.2395147,53.4645403],[-6.2396218,53.4651139],[-6.2397087,53.4655482],[-6.2397254,53.4657244],[-6.2397254,53.4658534],[-6.2397254,53.4658993],[-6.2396992,53.4660301],[-6.2396562,53.4661523],[-6.2395869,53.4662902],[-6.2394813,53.4664301],[-6.2393171,53.4665931],[-6.2391475,53.4667281],[-6.2389302,53.4668532],[-6.2387201,53.4669641],[-6.2385495,53.4670473]]}";2;Murrough Road;2;50;false;false;false;false;false;false;287.5;1;0;0;0;0;false;9028;1151846725;-6.2362437;53.4683705;9029;1163721757;-6.2392209;53.4666115;1;20;21;1424983;Swords Express towards Swords Manor;"";Swords Express;SE1;Eden Quay;Swords Manor
788230006;"{\"type\":\"LineString\",\"coordinates\":[[-6.2399568,53.4622319],[-6.2397388,53.4625052],[-6.2396881,53.4625804],[-6.2395843,53.4627852],[-6.23954,53.4628682],[-6.2394524,53.4631211],[-6.2394143,53.4633769],[-6.2393859,53.4636154],[-6.2393834,53.4638022],[-6.2394122,53.463964],[-6.2395147,53.4645403],[-6.2396218,53.4651139],[-6.2397087,53.4655482],[-6.2397254,53.4657244],[-6.2397254,53.4658534],[-6.2397254,53.4658993],[-6.2396992,53.4660301],[-6.2396562,53.4661523],[-6.2395869,53.4662902],[-6.2394813,53.4664301],[-6.2393171,53.4665931],[-6.2391475,53.4667281],[-6.2389302,53.4668532],[-6.2387201,53.4669641],[-6.2385495,53.4670473]]}";1;Murrough Road;2;50;false;false;false;false;false;false;287.5;1;0;0;0;0;false;9031;1151846743;-6.239343;53.4641399;9032;1151846736;-6.2404212;53.4615493;1;23;24;1424983;Swords Express towards Swords Manor;"";Swords Express;SE1;Eden Quay;Swords Manor
3810114;"{\"type\":\"LineString\",\"coordinates\":[[-6.2421794,53.4594336],[-6.2421391,53.4594926],[-6.2421193,53.4595188],[-6.2420254,53.4596413],[-6.2416231,53.4601756],[-6.2408565,53.4611302],[-6.2406768,53.461349],[-6.2399568,53.4622319]]}";2;St. Cronans Avenue;2;50;false;false;false;false;false;false;174.0;0;0;1;0;0;false;9031;1151846743;-6.239343;53.4641399;9032;1151846736;-6.2404212;53.4615493;1;23;24;1424983;Swords Express towards Swords Manor;"";Swords Express;SE1;Eden Quay;Swords Manor
3810114;"{\"type\":\"LineString\",\"coordinates\":[[-6.2421794,53.4594336],[-6.2421391,53.4594926],[-6.2421193,53.4595188],[-6.2420254,53.4596413],[-6.2416231,53.4601756],[-6.2408565,53.4611302],[-6.2406768,53.461349],[-6.2399568,53.4622319]]}";1;St. Cronans Avenue;2;50;false;false;false;false;false;false;174.0;0;0;1;0;0;false;9033;1142031812;-6.2417255;53.4598859;9034;1151846759;-6.2451406;53.459856;1;25;26;1424983;Swords Express towards Swords Manor;"";Swords Express;SE1;Eden Quay;Swords Manor
3810116;"{\"type\":\"LineString\",\"coordinates\":[[-6.247783,53.4600491],[-6.2473061,53.4600785],[-6.2470462,53.4600844],[-6.2468069,53.460081],[-6.2460999,53.4600103],[-6.2449055,53.4598638],[-6.2445928,53.4598169],[-6.2437252,53.4597086],[-6.2429361,53.4595936],[-6.242596,53.4595379],[-6.2422799,53.4594587],[-6.2422597,53.4594537],[-6.2422449,53.45945],[-6.2421794,53.4594336]]}";2;Brackenstown Road;2;50;false;false;false;false;false;false;384.0;1;1;0;0;0;false;9033;1142031812;-6.2417255;53.4598859;9034;1151846759;-6.2451406;53.459856;1;25;26;1424983;Swords Express towards Swords Manor;"";Swords Express;SE1;Eden Quay;Swords Manor
