way_id;shape;index;name;nb_lanes;legal_speed;speed_zone_30;oneway;shares_bike;bike_box;bus_lane;dedicated_bus_lane;length;nb_traffic_signals;nb_crossings;nb_stops;nb_give_ways;nb_lvl_crossings;roundabout;stop_id_orig;node_id_orig;coord_x_orig;coord_y_orig;stop_id_dest;node_id_dest;coord_x_dest;coord_y_dest;nb_neighbouring_ways_bus_stop;ordre_orig;ordre_dest;id_line;line_name;colour;operator;ref;from;to
164552516;"{\"type\":\"LineString\",\"coordinates\":[[-73.8137352,45.700361],[-73.8156084,45.701647],[-73.8158444,45.7019011],[-73.81607,45.702358],[-73.818487,45.7101317],[-73.8185916,45.7104681],[-73.821817,45.720788],[-73.8226531,45.723477],[-73.8227597,45.7239521],[-73.8227586,45.7243361],[-73.8227154,45.7246353],[-73.8226515,45.7248977],[-73.8225706,45.7251663],[-73.8224887,45.7253477],[-73.8223528,45.7255965],[-73.8223071,45.7256801],[-73.8219425,45.7262571],[-73.8216965,45.7266185],[-73.821524,45.7268755],[-73.8213323,45.7272627],[-73.8212276,45.727642],[-73.8211754,45.7279705],[-73.8211842,45.7283091],[-73.821239,45.7287419],[-73.8215127,45.72965],[-73.8215998,45.7299389]]}";1;Montée Gagnon;2;90;false;false;true;false;false;false;3436.0;0;0;0;0;0;false;83230;6119522948;-73.8229028;45.723728;82110;6119525247;-73.81292;45.699625;1;29;30;9394569;Bus 23 : GARE STE-THÉRÈSE;"";EXO;23 S;des Cèdres / des Saisons;Gare Sainte-Thérèse
679593562;"{\"type\":\"LineString\",\"coordinates\":[[-73.8125592,45.6995826],[-73.8137352,45.700361]]}";2;Montée Gagnon;2;90;false;false;true;false;false;false;63.0;0;0;0;0;0;false;83230;6119522948;-73.8229028;45.723728;82110;6119525247;-73.81292;45.699625;1;29;30;9394569;Bus 23 : GARE STE-THÉRÈSE;"";EXO;23 S;des Cèdres / des Saisons;Gare Sainte-Thérèse
679593562;"{\"type\":\"LineString\",\"coordinates\":[[-73.8125592,45.6995826],[-73.8137352,45.700361]]}";1;Montée Gagnon;2;90;false;false;true;false;false;false;63.0;0;0;0;0;0;false;82110;6119525247;-73.81292;45.699625;82111;6119525246;-73.808924;45.697056;1;30;31;9394569;Bus 23 : GARE STE-THÉRÈSE;"";EXO;23 S;des Cèdres / des Saisons;Gare Sainte-Thérèse
676652949;"{\"type\":\"LineString\",\"coordinates\":[[-73.8086427,45.6970165],[-73.8091038,45.6973076],[-73.8096709,45.6976818],[-73.811615,45.6989646],[-73.8125592,45.6995826]]}";2;Montée Gagnon;2;90;false;false;true;false;false;false;209.0;1;0;0;0;0;false;82110;6119525247;-73.81292;45.699625;82111;6119525246;-73.808924;45.697056;1;30;31;9394569;Bus 23 : GARE STE-THÉRÈSE;"";EXO;23 S;des Cèdres / des Saisons;Gare Sainte-Thérèse
474618792;"{\"type\":\"LineString\",\"coordinates\":[[-73.8086427,45.6970165],[-73.8094604,45.6965197],[-73.810037,45.696088],[-73.811427,45.694722],[-73.812405,45.693958],[-73.812888,45.693655],[-73.816905,45.691548],[-73.818552,45.69074],[-73.820495,45.6895],[-73.821007,45.689268],[-73.8229722,45.6884522]]}";1;Chemin de la Côte-Saint-Louis Est;2;50;false;false;true;false;false;false;739.0;1;0;0;0;0;false;83231;6119522947;-73.81708;45.691583;82112;6119525245;-73.82942;45.684325;1;32;33;9394569;Bus 23 : GARE STE-THÉRÈSE;"";EXO;23 S;des Cèdres / des Saisons;Gare Sainte-Thérèse
808858091;"{\"type\":\"LineString\",\"coordinates\":[[-73.8229722,45.6884522],[-73.8238157,45.6880628],[-73.824206,45.6878284],[-73.825053,45.687162],[-73.8265025,45.6860216],[-73.827298,45.6854175],[-73.827461,45.685313],[-73.827567,45.685245],[-73.827943,45.685017],[-73.829521,45.6841901]]}";2;Chemin de la Côte-Saint-Louis Est;2;50;false;false;true;false;false;false;350.0;0;0;0;0;0;false;83231;6119522947;-73.81708;45.691583;82112;6119525245;-73.82942;45.684325;1;32;33;9394569;Bus 23 : GARE STE-THÉRÈSE;"";EXO;23 S;des Cèdres / des Saisons;Gare Sainte-Thérèse
522255566;"{\"type\":\"LineString\",\"coordinates\":[[-73.829521,45.6841901],[-73.8305344,45.6836244]]}";1;Chemin de la Côte-Saint-Louis Est;1;50;false;false;false;false;false;false;101.0;0;0;0;0;0;false;82112;6119525245;-73.82942;45.684325;83277;6119522934;-73.843571;45.672744;2;33;34;9394569;Bus 23 : GARE STE-THÉRÈSE;"";EXO;23 S;des Cèdres / des Saisons;Gare Sainte-Thérèse
594617103;"{\"type\":\"LineString\",\"coordinates\":[[-73.8305344,45.6836244],[-73.8309348,45.6833426],[-73.8317684,45.6827712],[-73.83744,45.678465],[-73.8410392,45.6757657],[-73.8413023,45.6755311],[-73.8415803,45.6752832],[-73.8422343,45.6745901],[-73.8427212,45.6739997],[-73.8430173,45.673551]]}";2;Chemin de la Côte-Saint-Louis Est;1;50;false;false;true;false;false;false;1488.0;0;0;0;0;0;false;82112;6119525245;-73.82942;45.684325;83277;6119522934;-73.843571;45.672744;0;33;34;9394569;Bus 23 : GARE STE-THÉRÈSE;"";EXO;23 S;des Cèdres / des Saisons;Gare Sainte-Thérèse
25020443;"{\"type\":\"LineString\",\"coordinates\":[[-73.8430173,45.673551],[-73.8432276,45.6731955],[-73.8435141,45.6726556],[-73.8438132,45.6718387],[-73.8439782,45.6712647],[-73.8440856,45.6706262],[-73.8441851,45.6693533]]}";3;Chemin de la Côte-Saint-Louis Est;2;50;false;false;false;false;false;false;479.0;0;0;0;0;0;false;82112;6119525245;-73.82942;45.684325;83277;6119522934;-73.843571;45.672744;2;33;34;9394569;Bus 23 : GARE STE-THÉRÈSE;"";EXO;23 S;des Cèdres / des Saisons;Gare Sainte-Thérèse
445473407;"{\"type\":\"LineString\",\"coordinates\":[[-73.8441851,45.6693533],[-73.844211,45.6688823],[-73.844447,45.665968],[-73.84437,45.6648662],[-73.8441732,45.6637709],[-73.844163,45.66365],[-73.8440741,45.662895],[-73.8440727,45.6628231]]}";1;Chemin de la Côte-Saint-Louis Est;1;50;false;false;true;false;false;false;364.0;0;1;0;0;0;false;82894;6119523243;-73.84428;45.662943;82947;6119523197;-73.844525;45.658752;1;36;37;9394569;Bus 23 : GARE STE-THÉRÈSE;"";EXO;23 S;des Cèdres / des Saisons;Gare Sainte-Thérèse
474619368;"{\"type\":\"LineString\",\"coordinates\":[[-73.8440727,45.6628231],[-73.844305,45.66027],[-73.8442585,45.6585341]]}";2;Chemin de la Côte-Saint-Louis Est;1;50;false;false;true;false;false;false;238.5;0;1;0;0;0;false;82894;6119523243;-73.84428;45.662943;82947;6119523197;-73.844525;45.658752;1;36;37;9394569;Bus 23 : GARE STE-THÉRÈSE;"";EXO;23 S;des Cèdres / des Saisons;Gare Sainte-Thérèse
474619368;"{\"type\":\"LineString\",\"coordinates\":[[-73.8440727,45.6628231],[-73.844305,45.66027],[-73.8442585,45.6585341]]}";1;Chemin de la Côte-Saint-Louis Est;1;50;false;false;true;false;false;false;238.5;0;1;0;0;0;false;82947;6119523197;-73.844525;45.658752;82113;6119525244;-73.844301;45.656847;1;37;38;9394569;Bus 23 : GARE STE-THÉRÈSE;"";EXO;23 S;des Cèdres / des Saisons;Gare Sainte-Thérèse
46493602;"{\"type\":\"LineString\",\"coordinates\":[[-73.8443118,45.6558347],[-73.8442809,45.6559729],[-73.8442411,45.6561871],[-73.8442276,45.6563224],[-73.8442263,45.656671],[-73.8442265,45.6567881],[-73.8442585,45.6585341]]}";2;Chemin de la Côte-Saint-Louis Est;2;50;false;false;false;false;false;false;150.5;0;0;0;0;0;false;82947;6119523197;-73.844525;45.658752;82113;6119525244;-73.844301;45.656847;1;37;38;9394569;Bus 23 : GARE STE-THÉRÈSE;"";EXO;23 S;des Cèdres / des Saisons;Gare Sainte-Thérèse
46493602;"{\"type\":\"LineString\",\"coordinates\":[[-73.8443118,45.6558347],[-73.8442809,45.6559729],[-73.8442411,45.6561871],[-73.8442276,45.6563224],[-73.8442263,45.656671],[-73.8442265,45.6567881],[-73.8442585,45.6585341]]}";1;Chemin de la Côte-Saint-Louis Est;2;50;false;false;false;false;false;false;150.5;0;0;0;0;0;false;82113;6119525244;-73.844301;45.656847;82114;6119525243;-73.845178;45.653811;1;38;39;9394569;Bus 23 : GARE STE-THÉRÈSE;"";EXO;23 S;des Cèdres / des Saisons;Gare Sainte-Thérèse
292948257;"{\"type\":\"LineString\",\"coordinates\":[[-73.8455719,45.6523934],[-73.8452796,45.653003],[-73.8449816,45.6537235],[-73.8447674,45.6542312],[-73.8446131,45.6546866],[-73.8444499,45.6552544],[-73.8443118,45.6558347]]}";2;Chemin de la Côte-Saint-Louis Est;1;50;false;false;false;false;false;false;198.0;0;0;0;0;0;false;82113;6119525244;-73.844301;45.656847;82114;6119525243;-73.845178;45.653811;1;38;39;9394569;Bus 23 : GARE STE-THÉRÈSE;"";EXO;23 S;des Cèdres / des Saisons;Gare Sainte-Thérèse
292948257;"{\"type\":\"LineString\",\"coordinates\":[[-73.8455719,45.6523934],[-73.8452796,45.653003],[-73.8449816,45.6537235],[-73.8447674,45.6542312],[-73.8446131,45.6546866],[-73.8444499,45.6552544],[-73.8443118,45.6558347]]}";1;Chemin de la Côte-Saint-Louis Est;1;50;false;false;false;false;false;false;198.0;0;0;0;0;0;false;82115;6119525242;-73.845498;45.653196;82116;6119525241;-73.845085;45.650741;1;40;41;9394569;Bus 23 : GARE STE-THÉRÈSE;"";EXO;23 S;des Cèdres / des Saisons;Gare Sainte-Thérèse
635208828;"{\"type\":\"LineString\",\"coordinates\":[[-73.8455719,45.6523934],[-73.8456578,45.6523231]]}";2;Chemin de la Côte-Saint-Louis Est;1;50;false;true;false;false;false;false;11.0;0;0;0;0;0;false;82115;6119525242;-73.845498;45.653196;82116;6119525241;-73.845085;45.650741;0;40;41;9394569;Bus 23 : GARE STE-THÉRÈSE;"";EXO;23 S;des Cèdres / des Saisons;Gare Sainte-Thérèse
635201149;"{\"type\":\"LineString\",\"coordinates\":[[-73.8456578,45.6523231],[-73.8460618,45.6515946]]}";3;Chemin de la Côte-Saint-Louis Est;1;50;false;true;false;false;false;false;87.0;1;0;0;0;0;false;82115;6119525242;-73.845498;45.653196;82116;6119525241;-73.845085;45.650741;0;40;41;9394569;Bus 23 : GARE STE-THÉRÈSE;"";EXO;23 S;des Cèdres / des Saisons;Gare Sainte-Thérèse
635201152;"{\"type\":\"LineString\",\"coordinates\":[[-73.8460618,45.6515946],[-73.8460794,45.6514558]]}";4;Chemin de la Côte-Saint-Louis Est;1;50;false;true;false;false;false;false;16.0;2;0;0;0;0;false;82115;6119525242;-73.845498;45.653196;82116;6119525241;-73.845085;45.650741;0;40;41;9394569;Bus 23 : GARE STE-THÉRÈSE;"";EXO;23 S;des Cèdres / des Saisons;Gare Sainte-Thérèse
174331618;"{\"type\":\"LineString\",\"coordinates\":[[-73.8460794,45.6514558],[-73.8449072,45.6507032],[-73.8440799,45.6501706],[-73.8415823,45.6484822],[-73.8406734,45.6478107],[-73.8403863,45.6475986]]}";5;Boulevard Curé-Labelle;2;60;false;true;true;false;false;false;308.5;1;0;0;0;0;false;82115;6119525242;-73.845498;45.653196;82116;6119525241;-73.845085;45.650741;1;40;41;9394569;Bus 23 : GARE STE-THÉRÈSE;"";EXO;23 S;des Cèdres / des Saisons;Gare Sainte-Thérèse
174331618;"{\"type\":\"LineString\",\"coordinates\":[[-73.8460794,45.6514558],[-73.8449072,45.6507032],[-73.8440799,45.6501706],[-73.8415823,45.6484822],[-73.8406734,45.6478107],[-73.8403863,45.6475986]]}";1;Boulevard Curé-Labelle;2;60;false;true;true;false;false;false;308.5;1;0;0;0;0;false;82116;6119525241;-73.845085;45.650741;82117;6119525240;-73.841028;45.647324;1;41;42;9394569;Bus 23 : GARE STE-THÉRÈSE;"";EXO;23 S;des Cèdres / des Saisons;Gare Sainte-Thérèse
23442703;"{\"type\":\"LineString\",\"coordinates\":[[-73.8403863,45.6475986],[-73.8408182,45.6473164],[-73.8412654,45.6470241],[-73.8420688,45.6464992],[-73.8425557,45.646181],[-73.8427134,45.6460779],[-73.8427426,45.6460589],[-73.8429355,45.6459328],[-73.843473,45.6455816]]}";2;Boulevard Ducharme;1;50;false;true;false;false;false;false;164.5;0;0;0;0;0;false;82116;6119525241;-73.845085;45.650741;82117;6119525240;-73.841028;45.647324;1;41;42;9394569;Bus 23 : GARE STE-THÉRÈSE;"";EXO;23 S;des Cèdres / des Saisons;Gare Sainte-Thérèse
110941726;"{\"type\":\"LineString\",\"coordinates\":[[-73.843473,45.6455816],[-73.845081,45.6445308],[-73.8451682,45.6444738],[-73.8458612,45.6440209],[-73.8463527,45.6436997],[-73.8466386,45.6435129]]}";1;Boulevard Ducharme;1;50;false;true;false;false;false;false;169.0;0;0;0;0;0;false;82119;6119525238;-73.845463;45.644398;82120;6119525237;-73.845907;45.642732;1;44;45;9394569;Bus 23 : GARE STE-THÉRÈSE;"";EXO;23 S;des Cèdres / des Saisons;Gare Sainte-Thérèse
110941724;"{\"type\":\"LineString\",\"coordinates\":[[-73.8466386,45.6435129],[-73.8466893,45.6434052]]}";2;Boulevard Ducharme;1;50;false;true;true;false;false;false;13.0;0;0;0;0;0;false;82119;6119525238;-73.845463;45.644398;82120;6119525237;-73.845907;45.642732;0;44;45;9394569;Bus 23 : GARE STE-THÉRÈSE;"";EXO;23 S;des Cèdres / des Saisons;Gare Sainte-Thérèse
474988195;"{\"type\":\"LineString\",\"coordinates\":[[-73.8466893,45.6434052],[-73.8459578,45.642914],[-73.8456848,45.6427688]]}";3;Rue Saint-Louis;1;40;false;true;true;false;false;false;53.0;0;0;0;0;0;false;82119;6119525238;-73.845463;45.644398;82120;6119525237;-73.845907;45.642732;1;44;45;9394569;Bus 23 : GARE STE-THÉRÈSE;"";EXO;23 S;des Cèdres / des Saisons;Gare Sainte-Thérèse
23442708;"{\"type\":\"LineString\",\"coordinates\":[[-73.8436671,45.6413554],[-73.8442213,45.6417392],[-73.8446995,45.6420704],[-73.8453058,45.6425001],[-73.8456848,45.6427688]]}";1;Rue Saint-Louis;1;40;false;false;false;false;false;false;223.0;1;0;0;0;0;false;82120;6119525237;-73.845907;45.642732;82121;6119525236;-73.844238;45.640259;2;45;46;9394569;Bus 23 : GARE STE-THÉRÈSE;"";EXO;23 S;des Cèdres / des Saisons;Gare Sainte-Thérèse
23442716;"{\"type\":\"LineString\",\"coordinates\":[[-73.8436671,45.6413554],[-73.8439881,45.6411818],[-73.8442124,45.6410797],[-73.8446447,45.6408857]]}";2;Rue Saint-Charles;1;50;false;false;false;false;false;false;93.0;2;0;0;0;0;false;82120;6119525237;-73.845907;45.642732;82121;6119525236;-73.844238;45.640259;0;45;46;9394569;Bus 23 : GARE STE-THÉRÈSE;"";EXO;23 S;des Cèdres / des Saisons;Gare Sainte-Thérèse
46493584;"{\"type\":\"LineString\",\"coordinates\":[[-73.8438792,45.6396826],[-73.8439119,45.6399256],[-73.8439693,45.6400621],[-73.84412,45.640292],[-73.8446447,45.6408857]]}";3;Rue de l'Église;2;50;false;false;false;false;false;false;149.0;2;0;0;0;0;false;82120;6119525237;-73.845907;45.642732;82121;6119525236;-73.844238;45.640259;2;45;46;9394569;Bus 23 : GARE STE-THÉRÈSE;"";EXO;23 S;des Cèdres / des Saisons;Gare Sainte-Thérèse
46493584;"{\"type\":\"LineString\",\"coordinates\":[[-73.8438792,45.6396826],[-73.8439119,45.6399256],[-73.8439693,45.6400621],[-73.84412,45.640292],[-73.8446447,45.6408857]]}";1;Rue de l'Église;2;50;false;false;false;false;false;false;74.5;2;0;0;0;0;false;82121;6119525236;-73.844238;45.640259;82122;6119525235;-73.843895;45.639548;1;46;47;9394569;Bus 23 : GARE STE-THÉRÈSE;"";EXO;23 S;des Cèdres / des Saisons;Gare Sainte-Thérèse
43189590;"{\"type\":\"LineString\",\"coordinates\":[[-73.8438792,45.6396826],[-73.8438236,45.6392277],[-73.8437198,45.6391004],[-73.8435221,45.6389544],[-73.8430387,45.6386369],[-73.8421588,45.6380366],[-73.8416541,45.6376883],[-73.840822,45.637113],[-73.8402754,45.6367297]]}";2;Rue Saint-Joseph;1;50;false;true;false;false;false;false;221.5;1;0;0;0;0;false;82121;6119525236;-73.844238;45.640259;82122;6119525235;-73.843895;45.639548;1;46;47;9394569;Bus 23 : GARE STE-THÉRÈSE;"";EXO;23 S;des Cèdres / des Saisons;Gare Sainte-Thérèse
46493584;"{\"type\":\"LineString\",\"coordinates\":[[-73.8438792,45.6396826],[-73.8439119,45.6399256],[-73.8439693,45.6400621],[-73.84412,45.640292],[-73.8446447,45.6408857]]}";1;Rue de l'Église;2;50;false;false;false;false;false;false;149.0;2;0;0;0;0;false;82122;6119525235;-73.843895;45.639548;82123;6119525234;-73.842256;45.638027;2;47;48;9394569;Bus 23 : GARE STE-THÉRÈSE;"";EXO;23 S;des Cèdres / des Saisons;Gare Sainte-Thérèse
43189590;"{\"type\":\"LineString\",\"coordinates\":[[-73.8438792,45.6396826],[-73.8438236,45.6392277],[-73.8437198,45.6391004],[-73.8435221,45.6389544],[-73.8430387,45.6386369],[-73.8421588,45.6380366],[-73.8416541,45.6376883],[-73.840822,45.637113],[-73.8402754,45.6367297]]}";2;Rue Saint-Joseph;1;50;false;true;false;false;false;false;443.0;1;0;0;0;0;false;82122;6119525235;-73.843895;45.639548;82123;6119525234;-73.842256;45.638027;2;47;48;9394569;Bus 23 : GARE STE-THÉRÈSE;"";EXO;23 S;des Cèdres / des Saisons;Gare Sainte-Thérèse
43189590;"{\"type\":\"LineString\",\"coordinates\":[[-73.8438792,45.6396826],[-73.8438236,45.6392277],[-73.8437198,45.6391004],[-73.8435221,45.6389544],[-73.8430387,45.6386369],[-73.8421588,45.6380366],[-73.8416541,45.6376883],[-73.840822,45.637113],[-73.8402754,45.6367297]]}";1;Rue Saint-Joseph;1;50;false;true;false;false;false;false;221.5;1;0;0;0;0;false;82124;6119525233;-73.841018;45.637108;82125;6119525232;-73.839051;45.637148;1;49;50;9394569;Bus 23 : GARE STE-THÉRÈSE;"";EXO;23 S;des Cèdres / des Saisons;Gare Sainte-Thérèse
25599774;"{\"type\":\"LineString\",\"coordinates\":[[-73.8402754,45.6367297],[-73.8400532,45.6368536],[-73.8393847,45.6372069],[-73.8391232,45.6372835],[-73.8388766,45.6373043]]}";2;Rue Dubois;1;50;false;true;true;false;false;false;64.5;0;0;0;0;0;false;82124;6119525233;-73.841018;45.637108;82125;6119525232;-73.839051;45.637148;1;49;50;9394569;Bus 23 : GARE STE-THÉRÈSE;"";EXO;23 S;des Cèdres / des Saisons;Gare Sainte-Thérèse
25599774;"{\"type\":\"LineString\",\"coordinates\":[[-73.8402754,45.6367297],[-73.8400532,45.6368536],[-73.8393847,45.6372069],[-73.8391232,45.6372835],[-73.8388766,45.6373043]]}";1;Rue Dubois;1;50;false;true;true;false;false;false;64.5;0;0;0;0;0;false;82125;6119525232;-73.839051;45.637148;82035;6119525317;-73.834747;45.635784;1;50;51;9394569;Bus 23 : GARE STE-THÉRÈSE;"";EXO;23 S;des Cèdres / des Saisons;Gare Sainte-Thérèse
23442717;"{\"type\":\"LineString\",\"coordinates\":[[-73.8388766,45.6373043],[-73.8382252,45.6368616]]}";2;Rue Turgeon;1;50;false;false;true;false;false;false;71.0;0;0;0;0;0;false;82125;6119525232;-73.839051;45.637148;82035;6119525317;-73.834747;45.635784;0;50;51;9394569;Bus 23 : GARE STE-THÉRÈSE;"";EXO;23 S;des Cèdres / des Saisons;Gare Sainte-Thérèse
25599776;"{\"type\":\"LineString\",\"coordinates\":[[-73.8382252,45.6368616],[-73.837826,45.636579],[-73.8372844,45.6361987],[-73.8372562,45.6361722],[-73.8371568,45.6361067],[-73.8368973,45.6359195],[-73.8366967,45.6357788],[-73.8365841,45.6356998],[-73.8363886,45.6355626]]}";3;Rue Turgeon;1;50;false;false;false;false;false;false;204.0;0;0;0;0;0;false;82125;6119525232;-73.839051;45.637148;82035;6119525317;-73.834747;45.635784;0;50;51;9394569;Bus 23 : GARE STE-THÉRÈSE;"";EXO;23 S;des Cèdres / des Saisons;Gare Sainte-Thérèse
293537864;"{\"type\":\"LineString\",\"coordinates\":[[-73.8363886,45.6355626],[-73.8360357,45.6356141]]}";4;"";1;50;false;false;true;false;false;false;29.0;0;0;0;0;0;false;82125;6119525232;-73.839051;45.637148;82035;6119525317;-73.834747;45.635784;0;50;51;9394569;Bus 23 : GARE STE-THÉRÈSE;"";EXO;23 S;des Cèdres / des Saisons;Gare Sainte-Thérèse
293537867;"{\"type\":\"LineString\",\"coordinates\":[[-73.8360357,45.6356141],[-73.8360384,45.635693],[-73.8360089,45.6357774],[-73.8359547,45.6358045],[-73.8358842,45.6358399]]}";5;"";1;50;false;true;true;false;false;false;31.0;0;0;0;0;0;false;82125;6119525232;-73.839051;45.637148;82035;6119525317;-73.834747;45.635784;0;50;51;9394569;Bus 23 : GARE STE-THÉRÈSE;"";EXO;23 S;des Cèdres / des Saisons;Gare Sainte-Thérèse
676299802;"{\"type\":\"LineString\",\"coordinates\":[[-73.8358842,45.6358399],[-73.8355794,45.6358509],[-73.834757,45.6358805]]}";6;"";1;50;false;true;true;false;false;false;88.0;0;0;0;0;0;false;82125;6119525232;-73.839051;45.637148;82035;6119525317;-73.834747;45.635784;1;50;51;9394569;Bus 23 : GARE STE-THÉRÈSE;"";EXO;23 S;des Cèdres / des Saisons;Gare Sainte-Thérèse
