way_id;shape;index;name;nb_lanes;legal_speed;speed_zone_30;oneway;shares_bike;bike_box;bus_lane;dedicated_bus_lane;length;nb_traffic_signals;nb_crossings;nb_stops;nb_give_ways;nb_lvl_crossings;roundabout;stop_id_orig;node_id_orig;coord_x_orig;coord_y_orig;stop_id_dest;node_id_dest;coord_x_dest;coord_y_dest;nb_neighbouring_ways_bus_stop;ordre_orig;ordre_dest;id_line;line_name;colour;operator;ref;from;to
679446411;"{\"type\":\"LineString\",\"coordinates\":[[-73.6699556,45.555716],[-73.6704056,45.5558438],[-73.6704587,45.5558589],[-73.6708807,45.5559787],[-73.6709441,45.5559967]]}";1;Rue Lajeunesse;2;50;false;true;false;false;false;false;84.0;1;1;0;0;0;false;"40031;40152;40052;40155;40055;40131;40252;40253";6272908095;-73.66993;45.555747;41706;6269510006;-73.65974;45.567262;1;0;1;9312796;Bus : 252 E - Direction Saint-François;"";STL;252E;Terminus Henri-Bourassa Quai:9;Chartrand / Face Au Maxi
460561565;"{\"type\":\"LineString\",\"coordinates\":[[-73.6709441,45.5559967],[-73.670902,45.556036],[-73.6702896,45.5566068]]}";2;Boulevard Gouin Est;2;50;false;true;true;false;false;false;85.0;1;1;0;0;0;false;"40031;40152;40052;40155;40055;40131;40252;40253";6272908095;-73.66993;45.555747;41706;6269510006;-73.65974;45.567262;0;0;1;9312796;Bus : 252 E - Direction Saint-François;"";STL;252E;Terminus Henri-Bourassa Quai:9;Chartrand / Face Au Maxi
607187564;"{\"type\":\"LineString\",\"coordinates\":[[-73.6702896,45.5566068],[-73.6696462,45.5571806],[-73.6696063,45.557217],[-73.6695045,45.5573077]]}";3;Boulevard Gouin Est;2;50;false;false;true;false;false;false;100.0;1;0;0;0;0;false;"40031;40152;40052;40155;40055;40131;40252;40253";6272908095;-73.66993;45.555747;41706;6269510006;-73.65974;45.567262;0;0;1;9312796;Bus : 252 E - Direction Saint-François;"";STL;252E;Terminus Henri-Bourassa Quai:9;Chartrand / Face Au Maxi
311420896;"{\"type\":\"LineString\",\"coordinates\":[[-73.6695045,45.5573077],[-73.6694539,45.5573529],[-73.6691854,45.5576135],[-73.6688224,45.5579658]]}";4;Boulevard Gouin Est;2;50;false;false;true;false;false;false;91.0;1;0;0;0;0;false;"40031;40152;40052;40155;40055;40131;40252;40253";6272908095;-73.66993;45.555747;41706;6269510006;-73.65974;45.567262;0;0;1;9312796;Bus : 252 E - Direction Saint-François;"";STL;252E;Terminus Henri-Bourassa Quai:9;Chartrand / Face Au Maxi
639683699;"{\"type\":\"LineString\",\"coordinates\":[[-73.6688224,45.5579658],[-73.6681949,45.5586588]]}";5;Boulevard Gouin Est;2;50;false;false;false;false;false;false;92.0;1;0;0;0;0;false;"40031;40152;40052;40155;40055;40131;40252;40253";6272908095;-73.66993;45.555747;41706;6269510006;-73.65974;45.567262;0;0;1;9312796;Bus : 252 E - Direction Saint-François;"";STL;252E;Terminus Henri-Bourassa Quai:9;Chartrand / Face Au Maxi
311420895;"{\"type\":\"LineString\",\"coordinates\":[[-73.6672645,45.5583801],[-73.6674084,45.5584232],[-73.6681949,45.5586588]]}";6;Rue Saint-Hubert;1;50;false;false;true;false;false;false;79.0;2;0;0;0;0;false;"40031;40152;40052;40155;40055;40131;40252;40253";6272908095;-73.66993;45.555747;41706;6269510006;-73.65974;45.567262;0;0;1;9312796;Bus : 252 E - Direction Saint-François;"";STL;252E;Terminus Henri-Bourassa Quai:9;Chartrand / Face Au Maxi
311420892;"{\"type\":\"LineString\",\"coordinates\":[[-73.6670392,45.5583198],[-73.6672645,45.5583801]]}";7;Rue Saint-Hubert;1;50;false;false;true;false;false;false;19.0;2;0;0;0;0;false;"40031;40152;40052;40155;40055;40131;40252;40253";6272908095;-73.66993;45.555747;41706;6269510006;-73.65974;45.567262;0;0;1;9312796;Bus : 252 E - Direction Saint-François;"";STL;252E;Terminus Henri-Bourassa Quai:9;Chartrand / Face Au Maxi
311420893;"{\"type\":\"LineString\",\"coordinates\":[[-73.6670392,45.5583198],[-73.6665235,45.559035],[-73.6660507,45.5596908],[-73.6655916,45.5603275],[-73.6655683,45.5603598]]}";8;Boulevard Henri-Bourassa Est;3;50;false;true;true;false;false;false;254.0;2;0;0;0;0;false;"40031;40152;40052;40155;40055;40131;40252;40253";6272908095;-73.66993;45.555747;41706;6269510006;-73.65974;45.567262;0;0;1;9312796;Bus : 252 E - Direction Saint-François;"";STL;252E;Terminus Henri-Bourassa Quai:9;Chartrand / Face Au Maxi
452268400;"{\"type\":\"LineString\",\"coordinates\":[[-73.6655683,45.5603598],[-73.6651495,45.5609214],[-73.6651202,45.5609607],[-73.6646306,45.5616173],[-73.6646004,45.5616577]]}";9;Boulevard Henri-Bourassa Est;3;50;false;true;true;false;false;false;163.0;2;0;0;0;0;false;"40031;40152;40052;40155;40055;40131;40252;40253";6272908095;-73.66993;45.555747;41706;6269510006;-73.65974;45.567262;0;0;1;9312796;Bus : 252 E - Direction Saint-François;"";STL;252E;Terminus Henri-Bourassa Quai:9;Chartrand / Face Au Maxi
452267144;"{\"type\":\"LineString\",\"coordinates\":[[-73.6646004,45.5616577],[-73.6645841,45.5616647],[-73.6643919,45.5617803],[-73.664147,45.5618862],[-73.6635448,45.5621109],[-73.6629308,45.5623148],[-73.6624084,45.5625063],[-73.6623694,45.5625242],[-73.6622979,45.5625571]]}";10;Boulevard Henri-Bourassa Est;3;50;false;true;true;false;false;false;207.0;1;0;0;0;0;false;"40031;40152;40052;40155;40055;40131;40252;40253";6272908095;-73.66993;45.555747;41706;6269510006;-73.65974;45.567262;0;0;1;9312796;Bus : 252 E - Direction Saint-François;"";STL;252E;Terminus Henri-Bourassa Quai:9;Chartrand / Face Au Maxi
460561552;"{\"type\":\"LineString\",\"coordinates\":[[-73.6622979,45.5625571],[-73.6620234,45.5628087],[-73.6618007,45.5632638],[-73.6614168,45.5639852]]}";11;Boulevard Henri-Bourassa Est;3;50;false;true;true;false;false;false;175.0;0;0;0;0;0;false;"40031;40152;40052;40155;40055;40131;40252;40253";6272908095;-73.66993;45.555747;41706;6269510006;-73.65974;45.567262;0;0;1;9312796;Bus : 252 E - Direction Saint-François;"";STL;252E;Terminus Henri-Bourassa Quai:9;Chartrand / Face Au Maxi
460561551;"{\"type\":\"LineString\",\"coordinates\":[[-73.6614168,45.5639852],[-73.6611083,45.5646332],[-73.6608077,45.5652646],[-73.6607793,45.5653242]]}";12;Boulevard Henri-Bourassa Est;3;50;false;true;true;false;false;false;157.0;1;0;0;0;0;false;"40031;40152;40052;40155;40055;40131;40252;40253";6272908095;-73.66993;45.555747;41706;6269510006;-73.65974;45.567262;0;0;1;9312796;Bus : 252 E - Direction Saint-François;"";STL;252E;Terminus Henri-Bourassa Quai:9;Chartrand / Face Au Maxi
460561538;"{\"type\":\"LineString\",\"coordinates\":[[-73.6607793,45.5653242],[-73.6601473,45.5666523],[-73.6599042,45.5672141],[-73.6597761,45.5675723],[-73.6597373,45.5676584]]}";13;Boulevard Henri-Bourassa Est;3;50;false;true;true;false;false;false;136.0;1;0;0;0;0;false;"40031;40152;40052;40155;40055;40131;40252;40253";6272908095;-73.66993;45.555747;41706;6269510006;-73.65974;45.567262;1;0;1;9312796;Bus : 252 E - Direction Saint-François;"";STL;252E;Terminus Henri-Bourassa Quai:9;Chartrand / Face Au Maxi
460561538;"{\"type\":\"LineString\",\"coordinates\":[[-73.6607793,45.5653242],[-73.6601473,45.5666523],[-73.6599042,45.5672141],[-73.6597761,45.5675723],[-73.6597373,45.5676584]]}";1;Boulevard Henri-Bourassa Est;3;50;false;true;true;false;false;false;136.0;1;0;0;0;0;false;41706;6269510006;-73.65974;45.567262;46631;6269509313;-73.65594;45.574474;1;1;2;9312796;Bus : 252 E - Direction Saint-François;"";STL;252E;Terminus Henri-Bourassa Quai:9;Chartrand / Face Au Maxi
436682108;"{\"type\":\"LineString\",\"coordinates\":[[-73.6597373,45.5676584],[-73.6594847,45.5681617],[-73.6587163,45.5696888],[-73.658532,45.5700551],[-73.6584781,45.5701494]]}";2;Boulevard Henri-Bourassa Est;3;50;false;true;true;false;false;false;294.0;1;0;0;0;0;false;41706;6269510006;-73.65974;45.567262;46631;6269509313;-73.65594;45.574474;0;1;2;9312796;Bus : 252 E - Direction Saint-François;"";STL;252E;Terminus Henri-Bourassa Quai:9;Chartrand / Face Au Maxi
436682107;"{\"type\":\"LineString\",\"coordinates\":[[-73.6584781,45.5701494],[-73.6584129,45.5702881]]}";3;Boulevard Henri-Bourassa Est;3;50;false;true;true;false;false;false;17.0;0;0;0;0;0;false;41706;6269510006;-73.65974;45.567262;46631;6269509313;-73.65594;45.574474;0;1;2;9312796;Bus : 252 E - Direction Saint-François;"";STL;252E;Terminus Henri-Bourassa Quai:9;Chartrand / Face Au Maxi
460561514;"{\"type\":\"LineString\",\"coordinates\":[[-73.6584129,45.5702881],[-73.6578078,45.5713289],[-73.65744,45.5719959]]}";4;Boulevard Henri-Bourassa Est;3;50;false;true;true;false;false;false;205.0;0;1;0;0;0;false;41706;6269510006;-73.65974;45.567262;46631;6269509313;-73.65594;45.574474;0;1;2;9312796;Bus : 252 E - Direction Saint-François;"";STL;252E;Terminus Henri-Bourassa Quai:9;Chartrand / Face Au Maxi
461097294;"{\"type\":\"LineString\",\"coordinates\":[[-73.65744,45.5719959],[-73.6570616,45.5727226],[-73.6570267,45.5727895]]}";5;Boulevard Henri-Bourassa Est;3;50;false;true;true;false;false;false;94.0;1;0;0;0;0;false;41706;6269510006;-73.65974;45.567262;46631;6269509313;-73.65594;45.574474;0;1;2;9312796;Bus : 252 E - Direction Saint-François;"";STL;252E;Terminus Henri-Bourassa Quai:9;Chartrand / Face Au Maxi
461097295;"{\"type\":\"LineString\",\"coordinates\":[[-73.6570267,45.5727895],[-73.6566543,45.5735405],[-73.6566194,45.5736259]]}";6;Boulevard Henri-Bourassa Est;3;50;false;true;true;false;false;false;99.0;1;0;0;0;0;false;41706;6269510006;-73.65974;45.567262;46631;6269509313;-73.65594;45.574474;0;1;2;9312796;Bus : 252 E - Direction Saint-François;"";STL;252E;Terminus Henri-Bourassa Quai:9;Chartrand / Face Au Maxi
588096972;"{\"type\":\"LineString\",\"coordinates\":[[-73.6566194,45.5736259],[-73.6564207,45.5739729],[-73.6561565,45.5743436]]}";7;Boulevard Henri-Bourassa Est;3;50;false;true;true;false;false;false;88.0;0;0;0;0;0;false;41706;6269510006;-73.65974;45.567262;46631;6269509313;-73.65594;45.574474;0;1;2;9312796;Bus : 252 E - Direction Saint-François;"";STL;252E;Terminus Henri-Bourassa Quai:9;Chartrand / Face Au Maxi
317988203;"{\"type\":\"LineString\",\"coordinates\":[[-73.6561565,45.5743436],[-73.6557535,45.574875],[-73.6553289,45.5754349],[-73.654866,45.5760453],[-73.6544697,45.5765679],[-73.6544068,45.5766508],[-73.6539408,45.5772653],[-73.653397,45.5779824]]}";8;Boulevard Henri-Bourassa Est;3;50;false;true;true;false;false;false;229.0;1;0;0;0;0;false;41706;6269510006;-73.65974;45.567262;46631;6269509313;-73.65594;45.574474;1;1;2;9312796;Bus : 252 E - Direction Saint-François;"";STL;252E;Terminus Henri-Bourassa Quai:9;Chartrand / Face Au Maxi
317988203;"{\"type\":\"LineString\",\"coordinates\":[[-73.6561565,45.5743436],[-73.6557535,45.574875],[-73.6553289,45.5754349],[-73.654866,45.5760453],[-73.6544697,45.5765679],[-73.6544068,45.5766508],[-73.6539408,45.5772653],[-73.653397,45.5779824]]}";1;Boulevard Henri-Bourassa Est;3;50;false;true;true;false;false;false;229.0;1;0;0;0;0;false;46631;6269509313;-73.65594;45.574474;46384;6269508836;-73.65046;45.582925;1;2;3;9312796;Bus : 252 E - Direction Saint-François;"";STL;252E;Terminus Henri-Bourassa Quai:9;Chartrand / Face Au Maxi
460561525;"{\"type\":\"LineString\",\"coordinates\":[[-73.653397,45.5779824],[-73.6531659,45.5782766],[-73.6528827,45.5786344],[-73.6524459,45.5791961],[-73.6523523,45.5793282]]}";2;Boulevard Henri-Bourassa Est;3;50;false;true;true;false;false;false;171.0;1;0;0;0;0;false;46631;6269509313;-73.65594;45.574474;46384;6269508836;-73.65046;45.582925;0;2;3;9312796;Bus : 252 E - Direction Saint-François;"";STL;252E;Terminus Henri-Bourassa Quai:9;Chartrand / Face Au Maxi
588286864;"{\"type\":\"LineString\",\"coordinates\":[[-73.6523523,45.5793282],[-73.6521174,45.5797117],[-73.6518778,45.5800985]]}";3;Boulevard Henri-Bourassa Est;3;50;false;true;true;false;false;false;94.0;0;0;0;0;0;false;46631;6269509313;-73.65594;45.574474;46384;6269508836;-73.65046;45.582925;0;2;3;9312796;Bus : 252 E - Direction Saint-François;"";STL;252E;Terminus Henri-Bourassa Quai:9;Chartrand / Face Au Maxi
460942364;"{\"type\":\"LineString\",\"coordinates\":[[-73.6518778,45.5800985],[-73.6515082,45.5806959],[-73.6514517,45.5808094]]}";4;Boulevard Henri-Bourassa Est;3;50;false;true;true;false;false;false;86.0;1;0;0;0;0;false;46631;6269509313;-73.65594;45.574474;46384;6269508836;-73.65046;45.582925;0;2;3;9312796;Bus : 252 E - Direction Saint-François;"";STL;252E;Terminus Henri-Bourassa Quai:9;Chartrand / Face Au Maxi
460942363;"{\"type\":\"LineString\",\"coordinates\":[[-73.6514517,45.5808094],[-73.651087,45.5815537]]}";5;Boulevard Henri-Bourassa Est;3;50;false;true;true;false;false;false;88.0;0;0;0;0;0;false;46631;6269509313;-73.65594;45.574474;46384;6269508836;-73.65046;45.582925;0;2;3;9312796;Bus : 252 E - Direction Saint-François;"";STL;252E;Terminus Henri-Bourassa Quai:9;Chartrand / Face Au Maxi
607076170;"{\"type\":\"LineString\",\"coordinates\":[[-73.651087,45.5815537],[-73.6508244,45.5822095]]}";6;Boulevard Henri-Bourassa Est;3;50;false;true;true;false;false;false;76.0;0;0;0;0;0;false;46631;6269509313;-73.65594;45.574474;46384;6269508836;-73.65046;45.582925;0;2;3;9312796;Bus : 252 E - Direction Saint-François;"";STL;252E;Terminus Henri-Bourassa Quai:9;Chartrand / Face Au Maxi
460561528;"{\"type\":\"LineString\",\"coordinates\":[[-73.6508244,45.5822095],[-73.6506897,45.5825928],[-73.650527,45.583056],[-73.6502302,45.5837298]]}";7;Boulevard Henri-Bourassa Est;3;50;false;true;true;false;false;false;88.0;1;0;0;0;0;false;46631;6269509313;-73.65594;45.574474;46384;6269508836;-73.65046;45.582925;1;2;3;9312796;Bus : 252 E - Direction Saint-François;"";STL;252E;Terminus Henri-Bourassa Quai:9;Chartrand / Face Au Maxi
460561528;"{\"type\":\"LineString\",\"coordinates\":[[-73.6508244,45.5822095],[-73.6506897,45.5825928],[-73.650527,45.583056],[-73.6502302,45.5837298]]}";1;Boulevard Henri-Bourassa Est;3;50;false;true;true;false;false;false;88.0;1;0;0;0;0;false;46384;6269508836;-73.65046;45.582925;43302;6269508753;-73.64308;45.586711;1;3;4;9312796;Bus : 252 E - Direction Saint-François;"";STL;252E;Terminus Henri-Bourassa Quai:9;Chartrand / Face Au Maxi
678635373;"{\"type\":\"LineString\",\"coordinates\":[[-73.6502302,45.5837298],[-73.6492524,45.58313],[-73.6491573,45.5830713]]}";2;Boulevard Saint-Michel;2;50;false;true;true;false;false;false;112.0;2;0;0;0;0;false;46384;6269508836;-73.65046;45.582925;43302;6269508753;-73.64308;45.586711;0;3;4;9312796;Bus : 252 E - Direction Saint-François;"";STL;252E;Terminus Henri-Bourassa Quai:9;Chartrand / Face Au Maxi
679446418;"{\"type\":\"LineString\",\"coordinates\":[[-73.6491573,45.5830713],[-73.6490731,45.583207]]}";3;Rue Monselet Est;1;50;false;false;true;false;false;false;17.0;0;0;0;0;0;false;46384;6269508836;-73.65046;45.582925;43302;6269508753;-73.64308;45.586711;0;3;4;9312796;Bus : 252 E - Direction Saint-François;"";STL;252E;Terminus Henri-Bourassa Quai:9;Chartrand / Face Au Maxi
22894972;"{\"type\":\"LineString\",\"coordinates\":[[-73.6490731,45.583207],[-73.6490318,45.5832635],[-73.6485449,45.5839288],[-73.64843,45.584036],[-73.6481078,45.5842223],[-73.6472551,45.5846633],[-73.6463969,45.5851076],[-73.6457228,45.585456],[-73.6450235,45.5858181],[-73.6443677,45.5861569],[-73.643617,45.5864981],[-73.6428694,45.5869101],[-73.6421545,45.5873016],[-73.6415095,45.5876354],[-73.6408032,45.5880007],[-73.6400898,45.5883697],[-73.6394384,45.5887066],[-73.6387076,45.5890846],[-73.6378851,45.5895101],[-73.636651,45.5901464]]}";4;Rue Monselet Est;1;50;false;false;true;false;false;false;624.0;1;0;0;0;0;false;46384;6269508836;-73.65046;45.582925;43302;6269508753;-73.64308;45.586711;1;3;4;9312796;Bus : 252 E - Direction Saint-François;"";STL;252E;Terminus Henri-Bourassa Quai:9;Chartrand / Face Au Maxi
22894972;"{\"type\":\"LineString\",\"coordinates\":[[-73.6490731,45.583207],[-73.6490318,45.5832635],[-73.6485449,45.5839288],[-73.64843,45.584036],[-73.6481078,45.5842223],[-73.6472551,45.5846633],[-73.6463969,45.5851076],[-73.6457228,45.585456],[-73.6450235,45.5858181],[-73.6443677,45.5861569],[-73.643617,45.5864981],[-73.6428694,45.5869101],[-73.6421545,45.5873016],[-73.6415095,45.5876354],[-73.6408032,45.5880007],[-73.6400898,45.5883697],[-73.6394384,45.5887066],[-73.6387076,45.5890846],[-73.6378851,45.5895101],[-73.636651,45.5901464]]}";1;Rue Monselet Est;1;50;false;false;true;false;false;false;624.0;1;0;0;0;0;false;43302;6269508753;-73.64308;45.586711;42584;6269508635;-73.63716;45.590948;1;4;5;9312796;Bus : 252 E - Direction Saint-François;"";STL;252E;Terminus Henri-Bourassa Quai:9;Chartrand / Face Au Maxi
460016638;"{\"type\":\"LineString\",\"coordinates\":[[-73.636651,45.5901464],[-73.6365049,45.5902196]]}";2;Rue Monselet Est;1;50;false;false;true;false;false;false;14.0;0;0;0;0;0;false;43302;6269508753;-73.64308;45.586711;42584;6269508635;-73.63716;45.590948;0;4;5;9312796;Bus : 252 E - Direction Saint-François;"";STL;252E;Terminus Henri-Bourassa Quai:9;Chartrand / Face Au Maxi
460016640;"{\"type\":\"LineString\",\"coordinates\":[[-73.6365049,45.5902196],[-73.6366,45.5903301],[-73.6373393,45.5910127]]}";3;Boulevard Pie-IX;2;50;false;true;true;false;false;false;55.0;1;0;0;0;0;false;43302;6269508753;-73.64308;45.586711;42584;6269508635;-73.63716;45.590948;1;4;5;9312796;Bus : 252 E - Direction Saint-François;"";STL;252E;Terminus Henri-Bourassa Quai:9;Chartrand / Face Au Maxi
471488916;"{\"type\":\"LineString\",\"coordinates\":[[-73.6373393,45.5910127],[-73.6379636,45.5915978],[-73.6381244,45.5917231]]}";1;Boulevard Pie-IX;2;50;false;true;true;false;false;false;100.0;1;0;0;0;0;false;42584;6269508635;-73.63716;45.590948;41393;6269507927;-73.6486;45.603306;2;5;6;9312796;Bus : 252 E - Direction Saint-François;"";STL;252E;Terminus Henri-Bourassa Quai:9;Chartrand / Face Au Maxi
783084315;"{\"type\":\"LineString\",\"coordinates\":[[-73.6381244,45.5917231],[-73.6385729,45.5921439]]}";2;Boulevard Pie-IX;3;50;false;true;true;false;false;false;59.0;1;0;0;0;0;false;42584;6269508635;-73.63716;45.590948;41393;6269507927;-73.6486;45.603306;0;5;6;9312796;Bus : 252 E - Direction Saint-François;"";STL;252E;Terminus Henri-Bourassa Quai:9;Chartrand / Face Au Maxi
460016639;"{\"type\":\"LineString\",\"coordinates\":[[-73.6385729,45.5921439],[-73.6392433,45.59278]]}";3;Boulevard Pie-IX;3;50;false;true;true;false;false;false;88.0;2;0;0;0;0;false;42584;6269508635;-73.63716;45.590948;41393;6269507927;-73.6486;45.603306;0;5;6;9312796;Bus : 252 E - Direction Saint-François;"";STL;252E;Terminus Henri-Bourassa Quai:9;Chartrand / Face Au Maxi
459551272;"{\"type\":\"LineString\",\"coordinates\":[[-73.6392433,45.59278],[-73.6402677,45.5937634]]}";4;Boulevard Pie-IX;3;50;false;true;true;false;false;false;136.0;1;0;0;0;0;false;42584;6269508635;-73.63716;45.590948;41393;6269507927;-73.6486;45.603306;0;5;6;9312796;Bus : 252 E - Direction Saint-François;"";STL;252E;Terminus Henri-Bourassa Quai:9;Chartrand / Face Au Maxi
783084310;"{\"type\":\"LineString\",\"coordinates\":[[-73.6402677,45.5937634],[-73.6403883,45.5939036],[-73.6408055,45.5943038]]}";5;Boulevard Pie-IX;2;50;false;true;true;false;false;false;74.0;0;0;0;0;0;false;42584;6269508635;-73.63716;45.590948;41393;6269507927;-73.6486;45.603306;0;5;6;9312796;Bus : 252 E - Direction Saint-François;"";STL;252E;Terminus Henri-Bourassa Quai:9;Chartrand / Face Au Maxi
433013959;"{\"type\":\"LineString\",\"coordinates\":[[-73.6408055,45.5943038],[-73.64099,45.5944748],[-73.6411402,45.5946128],[-73.6412273,45.594691]]}";6;Boulevard Pie-IX;2;50;false;true;true;false;false;false;55.0;1;0;0;0;0;false;42584;6269508635;-73.63716;45.590948;41393;6269507927;-73.6486;45.603306;0;5;6;9312796;Bus : 252 E - Direction Saint-François;"";STL;252E;Terminus Henri-Bourassa Quai:9;Chartrand / Face Au Maxi
781818705;"{\"type\":\"LineString\",\"coordinates\":[[-73.6412273,45.594691],[-73.6413365,45.5947889],[-73.6423278,45.5957512],[-73.6423344,45.595759],[-73.6424251,45.595848]]}";7;Boulevard Pie-IX;3;50;false;true;true;false;false;false;159.0;1;0;0;0;0;false;42584;6269508635;-73.63716;45.590948;41393;6269507927;-73.6486;45.603306;0;5;6;9312796;Bus : 252 E - Direction Saint-François;"";STL;252E;Terminus Henri-Bourassa Quai:9;Chartrand / Face Au Maxi
650719073;"{\"type\":\"LineString\",\"coordinates\":[[-73.6424251,45.595848],[-73.642585,45.5959991]]}";8;Boulevard Pie-IX;3;50;false;true;true;false;false;false;21.0;2;0;0;0;0;false;42584;6269508635;-73.63716;45.590948;41393;6269507927;-73.6486;45.603306;0;5;6;9312796;Bus : 252 E - Direction Saint-François;"";STL;252E;Terminus Henri-Bourassa Quai:9;Chartrand / Face Au Maxi
326316597;"{\"type\":\"LineString\",\"coordinates\":[[-73.642585,45.5959991],[-73.6427166,45.5961144]]}";9;Boulevard Pie-IX;3;50;false;true;false;false;false;false;17.0;1;0;0;0;0;false;42584;6269508635;-73.63716;45.590948;41393;6269507927;-73.6486;45.603306;0;5;6;9312796;Bus : 252 E - Direction Saint-François;"";STL;252E;Terminus Henri-Bourassa Quai:9;Chartrand / Face Au Maxi
609027480;"{\"type\":\"LineString\",\"coordinates\":[[-73.6427166,45.5961144],[-73.643251,45.5965825]]}";10;Boulevard Pie-IX;3;50;false;true;false;false;false;false;67.0;0;0;0;0;0;false;42584;6269508635;-73.63716;45.590948;41393;6269507927;-73.6486;45.603306;0;5;6;9312796;Bus : 252 E - Direction Saint-François;"";STL;252E;Terminus Henri-Bourassa Quai:9;Chartrand / Face Au Maxi
23606175;"{\"type\":\"LineString\",\"coordinates\":[[-73.643251,45.5965825],[-73.6433215,45.596647],[-73.6436967,45.5969954]]}";11;Boulevard Pie-IX;3;50;false;true;false;false;false;false;58.0;0;0;0;0;0;false;42584;6269508635;-73.63716;45.590948;41393;6269507927;-73.6486;45.603306;0;5;6;9312796;Bus : 252 E - Direction Saint-François;"";STL;252E;Terminus Henri-Bourassa Quai:9;Chartrand / Face Au Maxi
376874058;"{\"type\":\"LineString\",\"coordinates\":[[-73.6436967,45.5969954],[-73.6440982,45.5973637],[-73.6443106,45.59754],[-73.6445729,45.5977429],[-73.6460424,45.5986813]]}";12;Pont Pie-IX;3;50;false;true;false;false;false;false;263.0;0;0;0;0;0;false;42584;6269508635;-73.63716;45.590948;41393;6269507927;-73.6486;45.603306;0;5;6;9312796;Bus : 252 E - Direction Saint-François;"";STL;252E;Terminus Henri-Bourassa Quai:9;Chartrand / Face Au Maxi
622991911;"{\"type\":\"LineString\",\"coordinates\":[[-73.6460424,45.5986813],[-73.6490065,45.6006688]]}";13;Pont Pie-IX;3;80;false;true;false;false;false;false;320.0;0;0;0;0;0;false;42584;6269508635;-73.63716;45.590948;41393;6269507927;-73.6486;45.603306;0;5;6;9312796;Bus : 252 E - Direction Saint-François;"";STL;252E;Terminus Henri-Bourassa Quai:9;Chartrand / Face Au Maxi
678635372;"{\"type\":\"LineString\",\"coordinates\":[[-73.6490065,45.6006688],[-73.6494006,45.6009193],[-73.649599,45.6010568]]}";14;Boulevard Pie-IX;1;80;false;true;false;false;false;false;64.0;0;0;0;0;0;false;42584;6269508635;-73.63716;45.590948;41393;6269507927;-73.6486;45.603306;0;5;6;9312796;Bus : 252 E - Direction Saint-François;"";STL;252E;Terminus Henri-Bourassa Quai:9;Chartrand / Face Au Maxi
29156508;"{\"type\":\"LineString\",\"coordinates\":[[-73.649599,45.6010568],[-73.6501095,45.6015652],[-73.650277,45.601793],[-73.6503324,45.6020012],[-73.6503417,45.6033406],[-73.6503715,45.6034665]]}";15;"";1;50;false;true;false;false;false;false;284.0;0;0;0;0;0;false;42584;6269508635;-73.63716;45.590948;41393;6269507927;-73.6486;45.603306;0;5;6;9312796;Bus : 252 E - Direction Saint-François;"";STL;252E;Terminus Henri-Bourassa Quai:9;Chartrand / Face Au Maxi
29156511;"{\"type\":\"LineString\",\"coordinates\":[[-73.6503715,45.6034665],[-73.6503249,45.6036344],[-73.650257,45.6037352],[-73.6501464,45.6038155],[-73.6499895,45.6038723],[-73.649627,45.603939]]}";16;"";1;50;false;true;false;false;false;false;87.0;0;0;0;0;0;false;42584;6269508635;-73.63716;45.590948;41393;6269507927;-73.6486;45.603306;0;5;6;9312796;Bus : 252 E - Direction Saint-François;"";STL;252E;Terminus Henri-Bourassa Quai:9;Chartrand / Face Au Maxi
46773530;"{\"type\":\"LineString\",\"coordinates\":[[-73.649627,45.603939],[-73.6493321,45.6038727],[-73.6490562,45.6037714],[-73.6487197,45.6035869],[-73.6484166,45.6032848],[-73.6478461,45.6027235]]}";17;Boulevard de la Concorde Est;1;50;false;true;true;false;false;false;200.0;0;0;0;0;0;false;42584;6269508635;-73.63716;45.590948;41393;6269507927;-73.6486;45.603306;2;5;6;9312796;Bus : 252 E - Direction Saint-François;"";STL;252E;Terminus Henri-Bourassa Quai:9;Chartrand / Face Au Maxi
46773530;"{\"type\":\"LineString\",\"coordinates\":[[-73.649627,45.603939],[-73.6493321,45.6038727],[-73.6490562,45.6037714],[-73.6487197,45.6035869],[-73.6484166,45.6032848],[-73.6478461,45.6027235]]}";1;Boulevard de la Concorde Est;1;50;false;true;true;false;false;false;100.0;0;0;0;0;0;false;41393;6269507927;-73.6486;45.603306;42101;6269507924;-73.64644;45.603714;1;6;7;9312796;Bus : 252 E - Direction Saint-François;"";STL;252E;Terminus Henri-Bourassa Quai:9;Chartrand / Face Au Maxi
473001101;"{\"type\":\"LineString\",\"coordinates\":[[-73.6478461,45.6027235],[-73.6474627,45.6024084]]}";2;Boulevard de la Concorde Est;1;50;false;true;true;false;false;false;47.0;1;0;0;0;0;false;41393;6269507927;-73.6486;45.603306;42101;6269507924;-73.64644;45.603714;0;6;7;9312796;Bus : 252 E - Direction Saint-François;"";STL;252E;Terminus Henri-Bourassa Quai:9;Chartrand / Face Au Maxi
473001098;"{\"type\":\"LineString\",\"coordinates\":[[-73.6473336,45.6025211],[-73.6473787,45.6024818],[-73.6474627,45.6024084]]}";3;Boulevard Lévesque Est;2;50;false;false;true;false;false;false;17.0;2;0;0;0;0;false;41393;6269507927;-73.6486;45.603306;42101;6269507924;-73.64644;45.603714;0;6;7;9312796;Bus : 252 E - Direction Saint-François;"";STL;252E;Terminus Henri-Bourassa Quai:9;Chartrand / Face Au Maxi
473001099;"{\"type\":\"LineString\",\"coordinates\":[[-73.6471267,45.602778],[-73.6473336,45.6025211]]}";4;Boulevard Lévesque Est;2;50;false;false;true;false;false;false;33.0;1;0;0;0;0;false;41393;6269507927;-73.6486;45.603306;42101;6269507924;-73.64644;45.603714;0;6;7;9312796;Bus : 252 E - Direction Saint-François;"";STL;252E;Terminus Henri-Bourassa Quai:9;Chartrand / Face Au Maxi
682428312;"{\"type\":\"LineString\",\"coordinates\":[[-73.6454955,45.6057126],[-73.6460182,45.6048502],[-73.6462814,45.6041409],[-73.6464674,45.603761],[-73.6467098,45.603295],[-73.6469599,45.6029297],[-73.6471267,45.602778]]}";5;Boulevard Lévesque Est;2;50;false;false;true;false;false;false;176.0;0;0;0;0;0;false;41393;6269507927;-73.6486;45.603306;42101;6269507924;-73.64644;45.603714;1;6;7;9312796;Bus : 252 E - Direction Saint-François;"";STL;252E;Terminus Henri-Bourassa Quai:9;Chartrand / Face Au Maxi
682428311;"{\"type\":\"LineString\",\"coordinates\":[[-73.6454191,45.6058496],[-73.6454955,45.6057126]]}";1;Boulevard Lévesque Est;2;50;false;false;true;false;false;false;17.0;0;0;0;0;0;false;42103;6269507885;-73.64551;45.60556;42105;6269507855;-73.64481;45.60727;2;8;9;9312796;Bus : 252 E - Direction Saint-François;"";STL;252E;Terminus Henri-Bourassa Quai:9;Chartrand / Face Au Maxi
38311585;"{\"type\":\"LineString\",\"coordinates\":[[-73.6448884,45.6151681],[-73.6449712,45.6150398],[-73.6450284,45.6149029],[-73.6450636,45.6146506],[-73.6451076,45.613698],[-73.6450999,45.6132067],[-73.6450999,45.6124843],[-73.6450141,45.6111297],[-73.6449121,45.6096494],[-73.6448534,45.6089731],[-73.6447936,45.6083133],[-73.6447785,45.6080479],[-73.6448919,45.6072785],[-73.6451496,45.6063859],[-73.6452528,45.6061592],[-73.6454191,45.6058496]]}";2;Boulevard Lévesque Est;2;50;false;false;true;false;false;false;1044.0;1;1;0;0;0;false;42103;6269507885;-73.64551;45.60556;42105;6269507855;-73.64481;45.60727;2;8;9;9312796;Bus : 252 E - Direction Saint-François;"";STL;252E;Terminus Henri-Bourassa Quai:9;Chartrand / Face Au Maxi
38311585;"{\"type\":\"LineString\",\"coordinates\":[[-73.6448884,45.6151681],[-73.6449712,45.6150398],[-73.6450284,45.6149029],[-73.6450636,45.6146506],[-73.6451076,45.613698],[-73.6450999,45.6132067],[-73.6450999,45.6124843],[-73.6450141,45.6111297],[-73.6449121,45.6096494],[-73.6448534,45.6089731],[-73.6447936,45.6083133],[-73.6447785,45.6080479],[-73.6448919,45.6072785],[-73.6451496,45.6063859],[-73.6452528,45.6061592],[-73.6454191,45.6058496]]}";1;Boulevard Lévesque Est;2;50;false;false;true;false;false;false;522.0;1;1;0;0;0;false;42112;6269507716;-73.64501;45.614775;42114;6269507693;-73.64385;45.616351;1;12;13;9312796;Bus : 252 E - Direction Saint-François;"";STL;252E;Terminus Henri-Bourassa Quai:9;Chartrand / Face Au Maxi
365007259;"{\"type\":\"LineString\",\"coordinates\":[[-73.6444507,45.6157568],[-73.64482,45.6152536],[-73.6448884,45.6151681]]}";2;Boulevard Lévesque Est;3;50;false;false;false;false;false;false;74.0;1;1;0;0;0;false;42112;6269507716;-73.64501;45.614775;42114;6269507693;-73.64385;45.616351;0;12;13;9312796;Bus : 252 E - Direction Saint-François;"";STL;252E;Terminus Henri-Bourassa Quai:9;Chartrand / Face Au Maxi
365007194;"{\"type\":\"LineString\",\"coordinates\":[[-73.6441136,45.6162229],[-73.6441432,45.616182],[-73.6444507,45.6157568]]}";3;Boulevard Lévesque Est;2;50;false;false;false;false;false;false;59.0;0;0;0;0;0;false;42112;6269507716;-73.64501;45.614775;42114;6269507693;-73.64385;45.616351;0;12;13;9312796;Bus : 252 E - Direction Saint-François;"";STL;252E;Terminus Henri-Bourassa Quai:9;Chartrand / Face Au Maxi
38311586;"{\"type\":\"LineString\",\"coordinates\":[[-73.6441136,45.6162229],[-73.6440121,45.6163486],[-73.6436553,45.6167815],[-73.6432923,45.6172978],[-73.6429584,45.6178656],[-73.6419394,45.619893],[-73.6408144,45.6218808],[-73.6406114,45.6222707],[-73.6404161,45.622661],[-73.6402515,45.6230604],[-73.6402196,45.6232029],[-73.6400911,45.6237771],[-73.6399324,45.6241962]]}";4;Boulevard Lévesque Est;2;50;false;false;false;false;false;false;473.5;0;2;0;0;0;false;42112;6269507716;-73.64501;45.614775;42114;6269507693;-73.64385;45.616351;1;12;13;9312796;Bus : 252 E - Direction Saint-François;"";STL;252E;Terminus Henri-Bourassa Quai:9;Chartrand / Face Au Maxi
38311586;"{\"type\":\"LineString\",\"coordinates\":[[-73.6441136,45.6162229],[-73.6440121,45.6163486],[-73.6436553,45.6167815],[-73.6432923,45.6172978],[-73.6429584,45.6178656],[-73.6419394,45.619893],[-73.6408144,45.6218808],[-73.6406114,45.6222707],[-73.6404161,45.622661],[-73.6402515,45.6230604],[-73.6402196,45.6232029],[-73.6400911,45.6237771],[-73.6399324,45.6241962]]}";1;Boulevard Lévesque Est;2;50;false;false;false;false;false;false;473.5;0;2;0;0;0;false;42118;6269507616;-73.64044;45.62233;42121;6269507575;-73.63927;45.625391;1;15;16;9312796;Bus : 252 E - Direction Saint-François;"";STL;252E;Terminus Henri-Bourassa Quai:9;Chartrand / Face Au Maxi
365006796;"{\"type\":\"LineString\",\"coordinates\":[[-73.6399324,45.6241962],[-73.6397824,45.6245714]]}";2;Boulevard Lévesque Est;3;50;false;false;false;false;false;false;44.0;0;0;0;0;0;false;42118;6269507616;-73.64044;45.62233;42121;6269507575;-73.63927;45.625391;0;15;16;9312796;Bus : 252 E - Direction Saint-François;"";STL;252E;Terminus Henri-Bourassa Quai:9;Chartrand / Face Au Maxi
365006797;"{\"type\":\"LineString\",\"coordinates\":[[-73.6397824,45.6245714],[-73.6397258,45.6247014]]}";3;Boulevard Lévesque Est;3;50;false;false;false;false;false;false;16.0;0;0;1;0;0;false;42118;6269507616;-73.64044;45.62233;42121;6269507575;-73.63927;45.625391;0;15;16;9312796;Bus : 252 E - Direction Saint-François;"";STL;252E;Terminus Henri-Bourassa Quai:9;Chartrand / Face Au Maxi
771415980;"{\"type\":\"LineString\",\"coordinates\":[[-73.638062,45.6277408],[-73.6383154,45.6272756],[-73.6383575,45.6272058],[-73.6384054,45.6271304],[-73.6387743,45.6265431],[-73.6389879,45.6262268],[-73.6390654,45.6260696],[-73.6391672,45.6258483],[-73.6395431,45.6250777],[-73.6395852,45.6249909],[-73.6397258,45.6247014]]}";4;Boulevard Lévesque Est;2;50;false;false;false;false;false;false;181.0;0;0;1;0;0;false;42118;6269507616;-73.64044;45.62233;42121;6269507575;-73.63927;45.625391;1;15;16;9312796;Bus : 252 E - Direction Saint-François;"";STL;252E;Terminus Henri-Bourassa Quai:9;Chartrand / Face Au Maxi
771415980;"{\"type\":\"LineString\",\"coordinates\":[[-73.638062,45.6277408],[-73.6383154,45.6272756],[-73.6383575,45.6272058],[-73.6384054,45.6271304],[-73.6387743,45.6265431],[-73.6389879,45.6262268],[-73.6390654,45.6260696],[-73.6391672,45.6258483],[-73.6395431,45.6250777],[-73.6395852,45.6249909],[-73.6397258,45.6247014]]}";1;Boulevard Lévesque Est;2;50;false;false;false;false;false;false;181.0;0;0;1;0;0;false;42123;6269507552;-73.63826;45.627128;42125;6269507527;-73.63644;45.62992;1;17;18;9312796;Bus : 252 E - Direction Saint-François;"";STL;252E;Terminus Henri-Bourassa Quai:9;Chartrand / Face Au Maxi
542152627;"{\"type\":\"LineString\",\"coordinates\":[[-73.6370127,45.6293178],[-73.6371284,45.6291769],[-73.6374419,45.628795],[-73.637622,45.6285064],[-73.6378042,45.6282031],[-73.6380331,45.6277953],[-73.638062,45.6277408]]}";2;Boulevard Lévesque Est;2;50;false;false;false;false;false;false;194.0;0;0;0;0;0;false;42123;6269507552;-73.63826;45.627128;42125;6269507527;-73.63644;45.62992;0;17;18;9312796;Bus : 252 E - Direction Saint-François;"";STL;252E;Terminus Henri-Bourassa Quai:9;Chartrand / Face Au Maxi
542152628;"{\"type\":\"LineString\",\"coordinates\":[[-73.6361141,45.6304124],[-73.636813,45.629561],[-73.6370127,45.6293178]]}";3;Boulevard Lévesque Est;2;50;false;false;true;false;false;false;70.5;0;0;0;0;0;false;42123;6269507552;-73.63826;45.627128;42125;6269507527;-73.63644;45.62992;1;17;18;9312796;Bus : 252 E - Direction Saint-François;"";STL;252E;Terminus Henri-Bourassa Quai:9;Chartrand / Face Au Maxi
542152628;"{\"type\":\"LineString\",\"coordinates\":[[-73.6361141,45.6304124],[-73.636813,45.629561],[-73.6370127,45.6293178]]}";1;Boulevard Lévesque Est;2;50;false;false;true;false;false;false;70.5;0;0;0;0;0;false;42125;6269507527;-73.63644;45.62992;42127;6269507516;-73.63388;45.632182;1;18;19;9312796;Bus : 252 E - Direction Saint-François;"";STL;252E;Terminus Henri-Bourassa Quai:9;Chartrand / Face Au Maxi
52638187;"{\"type\":\"LineString\",\"coordinates\":[[-73.6250813,45.6387953],[-73.6265758,45.6377915],[-73.6272111,45.6373531],[-73.6294467,45.6358105],[-73.6303901,45.6351596],[-73.6309766,45.6346969],[-73.6312941,45.6344255],[-73.6318768,45.6339274],[-73.6321368,45.6336962],[-73.6331933,45.6327683],[-73.6338692,45.6322875],[-73.6352625,45.631319],[-73.6357153,45.6308983],[-73.6361141,45.6304124]]}";2;Boulevard Lévesque Est;2;50;false;false;false;false;false;false;635.5;0;0;0;0;0;false;42125;6269507527;-73.63644;45.62992;42127;6269507516;-73.63388;45.632182;1;18;19;9312796;Bus : 252 E - Direction Saint-François;"";STL;252E;Terminus Henri-Bourassa Quai:9;Chartrand / Face Au Maxi
52638187;"{\"type\":\"LineString\",\"coordinates\":[[-73.6250813,45.6387953],[-73.6265758,45.6377915],[-73.6272111,45.6373531],[-73.6294467,45.6358105],[-73.6303901,45.6351596],[-73.6309766,45.6346969],[-73.6312941,45.6344255],[-73.6318768,45.6339274],[-73.6321368,45.6336962],[-73.6331933,45.6327683],[-73.6338692,45.6322875],[-73.6352625,45.631319],[-73.6357153,45.6308983],[-73.6361141,45.6304124]]}";1;Boulevard Lévesque Est;2;50;false;false;false;false;false;false;635.5;0;0;0;0;0;false;42132;6269507459;-73.62779;45.636859;42134;6269507435;-73.62107;45.64141;1;21;22;9312796;Bus : 252 E - Direction Saint-François;"";STL;252E;Terminus Henri-Bourassa Quai:9;Chartrand / Face Au Maxi
695763680;"{\"type\":\"LineString\",\"coordinates\":[[-73.6240526,45.6395144],[-73.6241908,45.6394187],[-73.6250813,45.6387953]]}";2;Boulevard Lévesque Est;1;50;false;false;true;false;false;false;114.0;0;0;0;0;0;false;42132;6269507459;-73.62779;45.636859;42134;6269507435;-73.62107;45.64141;0;21;22;9312796;Bus : 252 E - Direction Saint-François;"";STL;252E;Terminus Henri-Bourassa Quai:9;Chartrand / Face Au Maxi
769400438;"{\"type\":\"LineString\",\"coordinates\":[[-73.6217349,45.6410641],[-73.6220469,45.6408477],[-73.6225656,45.6404881],[-73.6231266,45.6400991],[-73.6240526,45.6395144]]}";3;Boulevard Lévesque Est;1;50;false;false;true;false;false;false;250.0;0;0;0;0;0;false;42132;6269507459;-73.62779;45.636859;42134;6269507435;-73.62107;45.64141;0;21;22;9312796;Bus : 252 E - Direction Saint-François;"";STL;252E;Terminus Henri-Bourassa Quai:9;Chartrand / Face Au Maxi
52638188;"{\"type\":\"LineString\",\"coordinates\":[[-73.6210401,45.6415458],[-73.6211491,45.6414702],[-73.6217349,45.6410641]]}";4;Boulevard Lévesque Est;1;50;false;false;false;false;false;false;38.5;0;0;1;0;0;false;42132;6269507459;-73.62779;45.636859;42134;6269507435;-73.62107;45.64141;1;21;22;9312796;Bus : 252 E - Direction Saint-François;"";STL;252E;Terminus Henri-Bourassa Quai:9;Chartrand / Face Au Maxi
542152625;"{\"type\":\"LineString\",\"coordinates\":[[-73.6113922,45.6478312],[-73.6129544,45.6472486],[-73.6135599,45.6469649],[-73.6140314,45.6466959],[-73.6141617,45.6466147],[-73.6147354,45.6462216],[-73.6165442,45.6449864],[-73.6181552,45.643728],[-73.6210401,45.6415458]]}";1;Boulevard Lévesque Est;2;50;false;false;false;false;false;false;516.5;0;0;1;0;0;false;42138;6269507406;-73.61415;45.646501;42140;6269507395;-73.61053;45.648061;1;24;25;9312796;Bus : 252 E - Direction Saint-François;"";STL;252E;Terminus Henri-Bourassa Quai:9;Chartrand / Face Au Maxi
542152626;"{\"type\":\"LineString\",\"coordinates\":[[-73.609429,45.6485458],[-73.6105115,45.6481535],[-73.6113922,45.6478312]]}";2;Boulevard Lévesque Est;2;50;false;false;true;false;false;false;86.5;0;0;0;0;0;false;42138;6269507406;-73.61415;45.646501;42140;6269507395;-73.61053;45.648061;1;24;25;9312796;Bus : 252 E - Direction Saint-François;"";STL;252E;Terminus Henri-Bourassa Quai:9;Chartrand / Face Au Maxi
542152626;"{\"type\":\"LineString\",\"coordinates\":[[-73.609429,45.6485458],[-73.6105115,45.6481535],[-73.6113922,45.6478312]]}";1;Boulevard Lévesque Est;2;50;false;false;true;false;false;false;86.5;0;0;0;0;0;false;42140;6269507395;-73.61053;45.648061;41988;6269507391;-73.6081;45.648937;1;25;26;9312796;Bus : 252 E - Direction Saint-François;"";STL;252E;Terminus Henri-Bourassa Quai:9;Chartrand / Face Au Maxi
52638185;"{\"type\":\"LineString\",\"coordinates\":[[-73.5830505,45.6633878],[-73.5832241,45.6633931],[-73.5836998,45.6633824],[-73.5839311,45.6633711],[-73.5842579,45.6633394],[-73.5845564,45.6633007],[-73.5847358,45.6632695],[-73.5851182,45.6631551],[-73.58551,45.663008],[-73.5858497,45.6628262],[-73.5863717,45.6624984],[-73.5865314,45.6623819],[-73.5871776,45.6619226],[-73.5878795,45.661394],[-73.5883214,45.6610439],[-73.5889466,45.6605569],[-73.5896371,45.6600378],[-73.5902513,45.6596026],[-73.5904331,45.6594803],[-73.5908114,45.6592266],[-73.591361,45.6588549],[-73.5922042,45.6582825],[-73.5928676,45.6578286],[-73.5936132,45.6573236],[-73.5939493,45.6571024],[-73.5959148,45.6557981],[-73.5974019,45.6548144],[-73.5981329,45.6543387],[-73.5995337,45.65351],[-73.6004194,45.6529898],[-73.6031287,45.6513938],[-73.6048982,45.6504253],[-73.6054625,45.6501167],[-73.6056007,45.6500412],[-73.6059448,45.6498635],[-73.6064386,45.6496228],[-73.609429,45.6485458]]}";2;Boulevard Lévesque Est;2;50;false;false;false;false;false;false;1335.5;0;0;0;0;0;false;42140;6269507395;-73.61053;45.648061;41988;6269507391;-73.6081;45.648937;1;25;26;9312796;Bus : 252 E - Direction Saint-François;"";STL;252E;Terminus Henri-Bourassa Quai:9;Chartrand / Face Au Maxi
52638185;"{\"type\":\"LineString\",\"coordinates\":[[-73.5830505,45.6633878],[-73.5832241,45.6633931],[-73.5836998,45.6633824],[-73.5839311,45.6633711],[-73.5842579,45.6633394],[-73.5845564,45.6633007],[-73.5847358,45.6632695],[-73.5851182,45.6631551],[-73.58551,45.663008],[-73.5858497,45.6628262],[-73.5863717,45.6624984],[-73.5865314,45.6623819],[-73.5871776,45.6619226],[-73.5878795,45.661394],[-73.5883214,45.6610439],[-73.5889466,45.6605569],[-73.5896371,45.6600378],[-73.5902513,45.6596026],[-73.5904331,45.6594803],[-73.5908114,45.6592266],[-73.591361,45.6588549],[-73.5922042,45.6582825],[-73.5928676,45.6578286],[-73.5936132,45.6573236],[-73.5939493,45.6571024],[-73.5959148,45.6557981],[-73.5974019,45.6548144],[-73.5981329,45.6543387],[-73.5995337,45.65351],[-73.6004194,45.6529898],[-73.6031287,45.6513938],[-73.6048982,45.6504253],[-73.6054625,45.6501167],[-73.6056007,45.6500412],[-73.6059448,45.6498635],[-73.6064386,45.6496228],[-73.609429,45.6485458]]}";1;Boulevard Lévesque Est;2;50;false;false;false;false;false;false;1335.5;0;0;0;0;0;false;42008;6269507251;-73.58474;45.663173;42010;6269507248;-73.58199;45.663247;1;35;36;9312796;Bus : 252 E - Direction Saint-François;"";STL;252E;Terminus Henri-Bourassa Quai:9;Chartrand / Face Au Maxi
38311588;"{\"type\":\"LineString\",\"coordinates\":[[-73.5792905,45.6632566],[-73.5793784,45.6632244],[-73.5794956,45.6631846],[-73.5796507,45.6631311],[-73.5798294,45.6630766],[-73.5799086,45.6630556],[-73.5800003,45.6630379],[-73.5800918,45.6630233],[-73.5801881,45.663016],[-73.5802905,45.6630145],[-73.5803933,45.663025],[-73.5805342,45.6630436],[-73.5809972,45.6631305],[-73.5817055,45.6632687],[-73.5819024,45.6632989],[-73.5820897,45.6633272],[-73.5826233,45.6633633],[-73.5830505,45.6633878]]}";2;Boulevard Lévesque Est;1;50;false;false;true;false;false;false;151.5;0;0;0;0;0;false;42008;6269507251;-73.58474;45.663173;42010;6269507248;-73.58199;45.663247;1;35;36;9312796;Bus : 252 E - Direction Saint-François;"";STL;252E;Terminus Henri-Bourassa Quai:9;Chartrand / Face Au Maxi
38311588;"{\"type\":\"LineString\",\"coordinates\":[[-73.5792905,45.6632566],[-73.5793784,45.6632244],[-73.5794956,45.6631846],[-73.5796507,45.6631311],[-73.5798294,45.6630766],[-73.5799086,45.6630556],[-73.5800003,45.6630379],[-73.5800918,45.6630233],[-73.5801881,45.663016],[-73.5802905,45.6630145],[-73.5803933,45.663025],[-73.5805342,45.6630436],[-73.5809972,45.6631305],[-73.5817055,45.6632687],[-73.5819024,45.6632989],[-73.5820897,45.6633272],[-73.5826233,45.6633633],[-73.5830505,45.6633878]]}";1;Boulevard Lévesque Est;1;50;false;false;true;false;false;false;151.5;0;0;0;0;0;false;42010;6269507248;-73.58199;45.663247;42409;6269507242;-73.57971;45.663726;1;36;37;9312796;Bus : 252 E - Direction Saint-François;"";STL;252E;Terminus Henri-Bourassa Quai:9;Chartrand / Face Au Maxi
695752252;"{\"type\":\"LineString\",\"coordinates\":[[-73.5792905,45.6632566],[-73.5798376,45.663754],[-73.5804344,45.6642966],[-73.5810432,45.6648501]]}";2;Rue Mirelle;2;50;false;false;true;false;false;false;112.0;0;0;0;0;0;false;42010;6269507248;-73.58199;45.663247;42409;6269507242;-73.57971;45.663726;1;36;37;9312796;Bus : 252 E - Direction Saint-François;"";STL;252E;Terminus Henri-Bourassa Quai:9;Chartrand / Face Au Maxi
695752253;"{\"type\":\"LineString\",\"coordinates\":[[-73.587621,45.6708296],[-73.5882068,45.6713621],[-73.5888078,45.6719084]]}";1;Rue Mirelle;2;50;false;false;true;false;false;false;152.0;0;0;0;0;0;false;42411;6269507203;-73.58749;45.670811;42412;6269507195;-73.58867;45.671917;2;42;43;9312796;Bus : 252 E - Direction Saint-François;"";STL;252E;Terminus Henri-Bourassa Quai:9;Chartrand / Face Au Maxi
46411740;"{\"type\":\"LineString\",\"coordinates\":[[-73.5888078,45.6719084],[-73.5870771,45.6728473],[-73.5865248,45.6731363],[-73.5864444,45.6731751],[-73.5863624,45.6732043],[-73.5862803,45.6732216],[-73.5862041,45.6732266],[-73.5861181,45.6732256],[-73.5857189,45.6732014],[-73.583758,45.6730852],[-73.5829795,45.6730364],[-73.5826933,45.6730248],[-73.5823269,45.6730267],[-73.5821636,45.6730358],[-73.5819657,45.673052],[-73.5817896,45.6730722],[-73.5814461,45.6731211],[-73.580575,45.6732525],[-73.5804088,45.6732746],[-73.5802324,45.673307],[-73.5800675,45.6733557],[-73.5799961,45.6733858],[-73.5799194,45.6734252],[-73.5796342,45.6735843]]}";2;Rue Marius-Barbeau;2;50;false;false;false;false;false;false;777.0;0;0;0;0;0;false;42411;6269507203;-73.58749;45.670811;42412;6269507195;-73.58867;45.671917;2;42;43;9312796;Bus : 252 E - Direction Saint-François;"";STL;252E;Terminus Henri-Bourassa Quai:9;Chartrand / Face Au Maxi
695752253;"{\"type\":\"LineString\",\"coordinates\":[[-73.587621,45.6708296],[-73.5882068,45.6713621],[-73.5888078,45.6719084]]}";1;Rue Mirelle;2;50;false;false;true;false;false;false;152.0;0;0;0;0;0;false;42412;6269507195;-73.58867;45.671917;42178;6269507187;-73.58715;45.672755;2;43;44;9312796;Bus : 252 E - Direction Saint-François;"";STL;252E;Terminus Henri-Bourassa Quai:9;Chartrand / Face Au Maxi
46411740;"{\"type\":\"LineString\",\"coordinates\":[[-73.5888078,45.6719084],[-73.5870771,45.6728473],[-73.5865248,45.6731363],[-73.5864444,45.6731751],[-73.5863624,45.6732043],[-73.5862803,45.6732216],[-73.5862041,45.6732266],[-73.5861181,45.6732256],[-73.5857189,45.6732014],[-73.583758,45.6730852],[-73.5829795,45.6730364],[-73.5826933,45.6730248],[-73.5823269,45.6730267],[-73.5821636,45.6730358],[-73.5819657,45.673052],[-73.5817896,45.6730722],[-73.5814461,45.6731211],[-73.580575,45.6732525],[-73.5804088,45.6732746],[-73.5802324,45.673307],[-73.5800675,45.6733557],[-73.5799961,45.6733858],[-73.5799194,45.6734252],[-73.5796342,45.6735843]]}";2;Rue Marius-Barbeau;2;50;false;false;false;false;false;false;777.0;0;0;0;0;0;false;42412;6269507195;-73.58867;45.671917;42178;6269507187;-73.58715;45.672755;2;43;44;9312796;Bus : 252 E - Direction Saint-François;"";STL;252E;Terminus Henri-Bourassa Quai:9;Chartrand / Face Au Maxi
