way_id;shape;index;name;nb_lanes;legal_speed;speed_zone_30;oneway;shares_bike;bike_box;bus_lane;dedicated_bus_lane;length;nb_traffic_signals;nb_crossings;nb_stops;nb_give_ways;nb_lvl_crossings;roundabout;stop_id_orig;node_id_orig;coord_x_orig;coord_y_orig;stop_id_dest;node_id_dest;coord_x_dest;coord_y_dest;nb_neighbouring_ways_bus_stop;ordre_orig;ordre_dest;id_line;line_name;colour;operator;ref;from;to
682480346;"{\"type\":\"LineString\",\"coordinates\":[[-73.9916502,45.3881771],[-73.9915401,45.3880164],[-73.9914876,45.3879399]]}";1;"";1;50;false;true;true;false;true;false;30.0;0;0;0;0;0;false;72343;762420309;-73.991601;45.387962;72345;6133274685;-73.992551;45.385277;1;0;1;9479683;Bus 33 : Service PM;"";EXO;33 PM;Gare Pincourt / Terrasse-Vaudreuil;Gare Pincourt / Terrasse-Vaudreuil
110304436;"{\"type\":\"LineString\",\"coordinates\":[[-73.9914876,45.3879399],[-73.9914213,45.3878465],[-73.9913996,45.3877985],[-73.9913895,45.3877646],[-73.9913857,45.3877337]]}";2;"";1;50;false;true;true;false;true;false;25.0;0;0;0;0;0;false;72343;762420309;-73.991601;45.387962;72345;6133274685;-73.992551;45.385277;0;0;1;9479683;Bus 33 : Service PM;"";EXO;33 PM;Gare Pincourt / Terrasse-Vaudreuil;Gare Pincourt / Terrasse-Vaudreuil
770904517;"{\"type\":\"LineString\",\"coordinates\":[[-73.9913857,45.3877337],[-73.9913272,45.3877239]]}";3;"";1;50;false;false;true;false;true;false;5.0;0;0;0;0;0;false;72343;762420309;-73.991601;45.387962;72345;6133274685;-73.992551;45.385277;0;0;1;9479683;Bus 33 : Service PM;"";EXO;33 PM;Gare Pincourt / Terrasse-Vaudreuil;Gare Pincourt / Terrasse-Vaudreuil
770904518;"{\"type\":\"LineString\",\"coordinates\":[[-73.9913272,45.3877239],[-73.9912802,45.3877203],[-73.9912332,45.3877217],[-73.9911904,45.3877274],[-73.9911541,45.3877322],[-73.9911043,45.3877382],[-73.9910088,45.3877542]]}";4;"";1;50;false;true;true;false;true;false;26.0;0;1;1;0;0;false;72343;762420309;-73.991601;45.387962;72345;6133274685;-73.992551;45.385277;0;0;1;9479683;Bus 33 : Service PM;"";EXO;33 PM;Gare Pincourt / Terrasse-Vaudreuil;Gare Pincourt / Terrasse-Vaudreuil
682480330;"{\"type\":\"LineString\",\"coordinates\":[[-73.9910088,45.3877542],[-73.9910322,45.3877989],[-73.9910561,45.3878377],[-73.9911004,45.3878955],[-73.9911759,45.3879816],[-73.9912304,45.3880352],[-73.9912962,45.3880976],[-73.991466,45.3882409]]}";5;3e Avenue;2;40;false;false;true;false;false;false;66.0;0;0;0;0;0;false;72343;762420309;-73.991601;45.387962;72345;6133274685;-73.992551;45.385277;0;0;1;9479683;Bus 33 : Service PM;"";EXO;33 PM;Gare Pincourt / Terrasse-Vaudreuil;Gare Pincourt / Terrasse-Vaudreuil
509079301;"{\"type\":\"LineString\",\"coordinates\":[[-73.9909855,45.3875641],[-73.9909784,45.3875833],[-73.9909714,45.3876114],[-73.9909745,45.3876525],[-73.9909919,45.3877114],[-73.9910088,45.3877542]]}";6;3e Avenue;2;40;false;false;true;false;false;false;22.0;0;1;0;0;0;false;72343;762420309;-73.991601;45.387962;72345;6133274685;-73.992551;45.385277;0;0;1;9479683;Bus 33 : Service PM;"";EXO;33 PM;Gare Pincourt / Terrasse-Vaudreuil;Gare Pincourt / Terrasse-Vaudreuil
196778897;"{\"type\":\"LineString\",\"coordinates\":[[-73.9913541,45.3870087],[-73.9913393,45.3870266],[-73.9913123,45.3870664],[-73.9912469,45.3871513],[-73.9911904,45.387229],[-73.9911641,45.3872691],[-73.9910918,45.3873722],[-73.9910477,45.3874443],[-73.9910218,45.3874881],[-73.9910003,45.3875293],[-73.9909855,45.3875641]]}";7;3e Avenue;2;40;false;false;true;false;false;false;69.0;0;0;0;0;0;false;72343;762420309;-73.991601;45.387962;72345;6133274685;-73.992551;45.385277;0;0;1;9479683;Bus 33 : Service PM;"";EXO;33 PM;Gare Pincourt / Terrasse-Vaudreuil;Gare Pincourt / Terrasse-Vaudreuil
533369994;"{\"type\":\"LineString\",\"coordinates\":[[-73.9913848,45.3868362],[-73.9913645,45.3868696],[-73.991356,45.3869016],[-73.9913547,45.3869336],[-73.9913553,45.386968],[-73.9913541,45.3870087]]}";8;3e Avenue;1;50;false;true;true;false;false;false;20.0;0;0;0;0;0;false;72343;762420309;-73.991601;45.387962;72345;6133274685;-73.992551;45.385277;0;0;1;9479683;Bus 33 : Service PM;"";EXO;33 PM;Gare Pincourt / Terrasse-Vaudreuil;Gare Pincourt / Terrasse-Vaudreuil
42321743;"{\"type\":\"LineString\",\"coordinates\":[[-73.9913541,45.3870087],[-73.9914443,45.3869304],[-73.991482,45.3869057],[-73.9915345,45.3868805],[-73.9915688,45.386869],[-73.9917352,45.3868278]]}";9;3e Avenue;1;50;false;true;true;false;false;false;37.0;0;0;0;0;0;false;72343;762420309;-73.991601;45.387962;72345;6133274685;-73.992551;45.385277;0;0;1;9479683;Bus 33 : Service PM;"";EXO;33 PM;Gare Pincourt / Terrasse-Vaudreuil;Gare Pincourt / Terrasse-Vaudreuil
533369993;"{\"type\":\"LineString\",\"coordinates\":[[-73.9917352,45.3868278],[-73.9919139,45.3868205],[-73.9920231,45.3868167],[-73.9922753,45.3868052],[-73.992436,45.3867911],[-73.9926939,45.3867474]]}";10;3e Avenue;2;50;false;true;true;false;false;false;76.0;0;0;0;0;0;false;72343;762420309;-73.991601;45.387962;72345;6133274685;-73.992551;45.385277;0;0;1;9479683;Bus 33 : Service PM;"";EXO;33 PM;Gare Pincourt / Terrasse-Vaudreuil;Gare Pincourt / Terrasse-Vaudreuil
197189777;"{\"type\":\"LineString\",\"coordinates\":[[-73.9926939,45.3867474],[-73.9932091,45.386713],[-73.9933267,45.3867051],[-73.9934515,45.3866975]]}";11;3e Avenue;3;50;false;false;true;false;false;false;60.0;1;0;0;0;0;false;72343;762420309;-73.991601;45.387962;72345;6133274685;-73.992551;45.385277;0;0;1;9479683;Bus 33 : Service PM;"";EXO;33 PM;Gare Pincourt / Terrasse-Vaudreuil;Gare Pincourt / Terrasse-Vaudreuil
197189768;"{\"type\":\"LineString\",\"coordinates\":[[-73.9934289,45.3861925],[-73.9934263,45.386256],[-73.9934269,45.3862718],[-73.9934483,45.3866308],[-73.9934515,45.3866975]]}";12;Boulevard Cardinal-Léger;4;50;false;false;true;false;false;false;57.0;2;0;0;0;0;false;72343;762420309;-73.991601;45.387962;72345;6133274685;-73.992551;45.385277;0;0;1;9479683;Bus 33 : Service PM;"";EXO;33 PM;Gare Pincourt / Terrasse-Vaudreuil;Gare Pincourt / Terrasse-Vaudreuil
455057389;"{\"type\":\"LineString\",\"coordinates\":[[-73.993233,45.3853707],[-73.9932486,45.3854562],[-73.9932952,45.3856808],[-73.9933204,45.3858734],[-73.9933425,45.3861117],[-73.9933524,45.386121],[-73.9934289,45.3861925]]}";13;Boulevard Cardinal-Léger;2;50;false;true;true;false;false;false;95.0;1;0;0;0;0;false;72343;762420309;-73.991601;45.387962;72345;6133274685;-73.992551;45.385277;0;0;1;9479683;Bus 33 : Service PM;"";EXO;33 PM;Gare Pincourt / Terrasse-Vaudreuil;Gare Pincourt / Terrasse-Vaudreuil
455057386;"{\"type\":\"LineString\",\"coordinates\":[[-73.9934289,45.3861925],[-73.9934972,45.3861132],[-73.9935014,45.3859889],[-73.9935006,45.3859294]]}";14;Boulevard Cardinal-Léger;2;50;false;true;true;false;false;false;31.0;0;0;0;0;0;false;72343;762420309;-73.991601;45.387962;72345;6133274685;-73.992551;45.385277;0;0;1;9479683;Bus 33 : Service PM;"";EXO;33 PM;Gare Pincourt / Terrasse-Vaudreuil;Gare Pincourt / Terrasse-Vaudreuil
769937208;"{\"type\":\"LineString\",\"coordinates\":[[-73.9935006,45.3859294],[-73.9934884,45.3858253],[-73.9934781,45.3857637]]}";15;Boulevard Cardinal-Léger;3;50;false;true;true;false;false;false;19.0;0;0;0;0;0;false;72343;762420309;-73.991601;45.387962;72345;6133274685;-73.992551;45.385277;0;0;1;9479683;Bus 33 : Service PM;"";EXO;33 PM;Gare Pincourt / Terrasse-Vaudreuil;Gare Pincourt / Terrasse-Vaudreuil
769937209;"{\"type\":\"LineString\",\"coordinates\":[[-73.9934781,45.3857637],[-73.9934504,45.3855986],[-73.9934255,45.3854818],[-73.9934163,45.3854463],[-73.9933994,45.3853596]]}";16;Boulevard Cardinal-Léger;4;50;false;true;true;false;false;false;46.0;1;0;0;0;0;false;72343;762420309;-73.991601;45.387962;72345;6133274685;-73.992551;45.385277;0;0;1;9479683;Bus 33 : Service PM;"";EXO;33 PM;Gare Pincourt / Terrasse-Vaudreuil;Gare Pincourt / Terrasse-Vaudreuil
683393905;"{\"type\":\"LineString\",\"coordinates\":[[-73.9933994,45.3853596],[-73.9933728,45.3852729]]}";17;Boulevard Cardinal-Léger;3;50;false;true;true;false;false;false;10.0;0;0;0;0;0;false;72343;762420309;-73.991601;45.387962;72345;6133274685;-73.992551;45.385277;0;0;1;9479683;Bus 33 : Service PM;"";EXO;33 PM;Gare Pincourt / Terrasse-Vaudreuil;Gare Pincourt / Terrasse-Vaudreuil
474314584;"{\"type\":\"LineString\",\"coordinates\":[[-73.9933728,45.3852729],[-73.9932203,45.3852847]]}";18;Boulevard du Traversier;2;50;false;true;true;false;false;false;13.0;0;0;0;0;0;false;72343;762420309;-73.991601;45.387962;72345;6133274685;-73.992551;45.385277;0;0;1;9479683;Bus 33 : Service PM;"";EXO;33 PM;Gare Pincourt / Terrasse-Vaudreuil;Gare Pincourt / Terrasse-Vaudreuil
474314583;"{\"type\":\"LineString\",\"coordinates\":[[-73.9932203,45.3852847],[-73.9931056,45.3852927],[-73.9930019,45.3852997],[-73.9927552,45.3853212],[-73.9921812,45.3853864],[-73.9917991,45.3854306],[-73.991606,45.3854537],[-73.9914556,45.3854753],[-73.9912878,45.3855059],[-73.9911433,45.3855383],[-73.9910055,45.3855755],[-73.9908794,45.3856163],[-73.9907778,45.3856527],[-73.990663,45.3857],[-73.9905996,45.3857273],[-73.9903844,45.3858399],[-73.9901031,45.3859936],[-73.9899307,45.3860822],[-73.9898104,45.3861386],[-73.9896832,45.3861915],[-73.9895071,45.3862615],[-73.9893088,45.3863324],[-73.9891631,45.3863839],[-73.9890202,45.3864227],[-73.9888899,45.3864527],[-73.9887255,45.3864821],[-73.9884915,45.386522],[-73.9883036,45.3865544],[-73.9881824,45.3865753],[-73.987554,45.3866783],[-73.9866109,45.3868361],[-73.9853929,45.3870426],[-73.9852334,45.3870693],[-73.9848967,45.3871257],[-73.9846764,45.387161],[-73.9845614,45.3871758],[-73.9844698,45.3871849],[-73.984356,45.387188],[-73.9842414,45.3871853],[-73.9842121,45.3871825],[-73.9841278,45.3871743],[-73.9840284,45.3871563],[-73.9839094,45.3871291],[-73.9838046,45.3870944],[-73.983714,45.3870572],[-73.9836134,45.3870081],[-73.9835222,45.3869524],[-73.9833591,45.3868237],[-73.9833005,45.3867785],[-73.9832407,45.3867288],[-73.9831348,45.3866459],[-73.9830481,45.3865813],[-73.982987,45.3865422],[-73.9829165,45.3865014],[-73.9828149,45.3864562],[-73.9827133,45.3864198],[-73.9826031,45.3863889],[-73.9824888,45.3863636],[-73.9824071,45.3863518],[-73.9823745,45.3863471],[-73.9822645,45.3863372],[-73.9821486,45.3863342],[-73.9820042,45.3863379],[-73.9818861,45.3863506],[-73.9817757,45.3863686],[-73.9816648,45.3863927],[-73.9815551,45.3864174],[-73.981533,45.3864225],[-73.9814394,45.386444],[-73.9805556,45.3866447],[-73.9805237,45.386652],[-73.9804563,45.3866673]]}";19;Boulevard du Traversier;2;50;false;true;true;false;false;false;1078.0;1;1;1;0;0;false;72343;762420309;-73.991601;45.387962;72345;6133274685;-73.992551;45.385277;2;0;1;9479683;Bus 33 : Service PM;"";EXO;33 PM;Gare Pincourt / Terrasse-Vaudreuil;Gare Pincourt / Terrasse-Vaudreuil
771101941;"{\"type\":\"LineString\",\"coordinates\":[[-73.9924298,45.3854446],[-73.9925307,45.3854329],[-73.9929019,45.3853932],[-73.9930181,45.3853834],[-73.9930837,45.3853804]]}";1;Boulevard du Traversier;2;50;false;true;true;false;false;false;52.0;1;1;0;0;0;false;72345;6133274685;-73.992551;45.385277;72329;6133274698;-73.985819;45.386873;2;1;2;9479683;Bus 33 : Service PM;"";EXO;33 PM;Gare Pincourt / Terrasse-Vaudreuil;Gare Pincourt / Terrasse-Vaudreuil
778719204;"{\"type\":\"LineString\",\"coordinates\":[[-73.9930837,45.3853804],[-73.993233,45.3853707]]}";2;Boulevard du Traversier;2;50;false;true;true;false;false;false;12.0;0;1;0;0;0;false;72345;6133274685;-73.992551;45.385277;72329;6133274698;-73.985819;45.386873;0;1;2;9479683;Bus 33 : Service PM;"";EXO;33 PM;Gare Pincourt / Terrasse-Vaudreuil;Gare Pincourt / Terrasse-Vaudreuil
455057389;"{\"type\":\"LineString\",\"coordinates\":[[-73.993233,45.3853707],[-73.9932486,45.3854562],[-73.9932952,45.3856808],[-73.9933204,45.3858734],[-73.9933425,45.3861117],[-73.9933524,45.386121],[-73.9934289,45.3861925]]}";3;Boulevard Cardinal-Léger;2;50;false;true;true;false;false;false;95.0;1;0;0;0;0;false;72345;6133274685;-73.992551;45.385277;72329;6133274698;-73.985819;45.386873;0;1;2;9479683;Bus 33 : Service PM;"";EXO;33 PM;Gare Pincourt / Terrasse-Vaudreuil;Gare Pincourt / Terrasse-Vaudreuil
455057386;"{\"type\":\"LineString\",\"coordinates\":[[-73.9934289,45.3861925],[-73.9934972,45.3861132],[-73.9935014,45.3859889],[-73.9935006,45.3859294]]}";4;Boulevard Cardinal-Léger;2;50;false;true;true;false;false;false;31.0;0;0;0;0;0;false;72345;6133274685;-73.992551;45.385277;72329;6133274698;-73.985819;45.386873;0;1;2;9479683;Bus 33 : Service PM;"";EXO;33 PM;Gare Pincourt / Terrasse-Vaudreuil;Gare Pincourt / Terrasse-Vaudreuil
769937208;"{\"type\":\"LineString\",\"coordinates\":[[-73.9935006,45.3859294],[-73.9934884,45.3858253],[-73.9934781,45.3857637]]}";5;Boulevard Cardinal-Léger;3;50;false;true;true;false;false;false;19.0;0;0;0;0;0;false;72345;6133274685;-73.992551;45.385277;72329;6133274698;-73.985819;45.386873;0;1;2;9479683;Bus 33 : Service PM;"";EXO;33 PM;Gare Pincourt / Terrasse-Vaudreuil;Gare Pincourt / Terrasse-Vaudreuil
769937209;"{\"type\":\"LineString\",\"coordinates\":[[-73.9934781,45.3857637],[-73.9934504,45.3855986],[-73.9934255,45.3854818],[-73.9934163,45.3854463],[-73.9933994,45.3853596]]}";6;Boulevard Cardinal-Léger;4;50;false;true;true;false;false;false;46.0;1;0;0;0;0;false;72345;6133274685;-73.992551;45.385277;72329;6133274698;-73.985819;45.386873;0;1;2;9479683;Bus 33 : Service PM;"";EXO;33 PM;Gare Pincourt / Terrasse-Vaudreuil;Gare Pincourt / Terrasse-Vaudreuil
683393905;"{\"type\":\"LineString\",\"coordinates\":[[-73.9933994,45.3853596],[-73.9933728,45.3852729]]}";7;Boulevard Cardinal-Léger;3;50;false;true;true;false;false;false;10.0;0;0;0;0;0;false;72345;6133274685;-73.992551;45.385277;72329;6133274698;-73.985819;45.386873;0;1;2;9479683;Bus 33 : Service PM;"";EXO;33 PM;Gare Pincourt / Terrasse-Vaudreuil;Gare Pincourt / Terrasse-Vaudreuil
474314584;"{\"type\":\"LineString\",\"coordinates\":[[-73.9933728,45.3852729],[-73.9932203,45.3852847]]}";8;Boulevard du Traversier;2;50;false;true;true;false;false;false;13.0;0;0;0;0;0;false;72345;6133274685;-73.992551;45.385277;72329;6133274698;-73.985819;45.386873;0;1;2;9479683;Bus 33 : Service PM;"";EXO;33 PM;Gare Pincourt / Terrasse-Vaudreuil;Gare Pincourt / Terrasse-Vaudreuil
474314583;"{\"type\":\"LineString\",\"coordinates\":[[-73.9932203,45.3852847],[-73.9931056,45.3852927],[-73.9930019,45.3852997],[-73.9927552,45.3853212],[-73.9921812,45.3853864],[-73.9917991,45.3854306],[-73.991606,45.3854537],[-73.9914556,45.3854753],[-73.9912878,45.3855059],[-73.9911433,45.3855383],[-73.9910055,45.3855755],[-73.9908794,45.3856163],[-73.9907778,45.3856527],[-73.990663,45.3857],[-73.9905996,45.3857273],[-73.9903844,45.3858399],[-73.9901031,45.3859936],[-73.9899307,45.3860822],[-73.9898104,45.3861386],[-73.9896832,45.3861915],[-73.9895071,45.3862615],[-73.9893088,45.3863324],[-73.9891631,45.3863839],[-73.9890202,45.3864227],[-73.9888899,45.3864527],[-73.9887255,45.3864821],[-73.9884915,45.386522],[-73.9883036,45.3865544],[-73.9881824,45.3865753],[-73.987554,45.3866783],[-73.9866109,45.3868361],[-73.9853929,45.3870426],[-73.9852334,45.3870693],[-73.9848967,45.3871257],[-73.9846764,45.387161],[-73.9845614,45.3871758],[-73.9844698,45.3871849],[-73.984356,45.387188],[-73.9842414,45.3871853],[-73.9842121,45.3871825],[-73.9841278,45.3871743],[-73.9840284,45.3871563],[-73.9839094,45.3871291],[-73.9838046,45.3870944],[-73.983714,45.3870572],[-73.9836134,45.3870081],[-73.9835222,45.3869524],[-73.9833591,45.3868237],[-73.9833005,45.3867785],[-73.9832407,45.3867288],[-73.9831348,45.3866459],[-73.9830481,45.3865813],[-73.982987,45.3865422],[-73.9829165,45.3865014],[-73.9828149,45.3864562],[-73.9827133,45.3864198],[-73.9826031,45.3863889],[-73.9824888,45.3863636],[-73.9824071,45.3863518],[-73.9823745,45.3863471],[-73.9822645,45.3863372],[-73.9821486,45.3863342],[-73.9820042,45.3863379],[-73.9818861,45.3863506],[-73.9817757,45.3863686],[-73.9816648,45.3863927],[-73.9815551,45.3864174],[-73.981533,45.3864225],[-73.9814394,45.386444],[-73.9805556,45.3866447],[-73.9805237,45.386652],[-73.9804563,45.3866673]]}";9;Boulevard du Traversier;2;50;false;true;true;false;false;false;1078.0;1;1;1;0;0;false;72345;6133274685;-73.992551;45.385277;72329;6133274698;-73.985819;45.386873;2;1;2;9479683;Bus 33 : Service PM;"";EXO;33 PM;Gare Pincourt / Terrasse-Vaudreuil;Gare Pincourt / Terrasse-Vaudreuil
47459949;"{\"type\":\"LineString\",\"coordinates\":[[-73.9803327,45.3867828],[-73.9804945,45.3867462],[-73.9805613,45.3867312],[-73.9807595,45.3866867],[-73.9815844,45.3865017],[-73.9817083,45.3864758],[-73.981852,45.3864486],[-73.981979,45.3864294],[-73.982076,45.38642],[-73.9821941,45.3864169],[-73.9823119,45.3864253],[-73.9824056,45.3864389],[-73.9824212,45.3864412],[-73.9825194,45.3864599],[-73.9825665,45.386472],[-73.9826407,45.3864911],[-73.982742,45.3865275],[-73.9828331,45.3865674],[-73.9829268,45.3866189],[-73.9830107,45.3866726],[-73.9830934,45.3867355],[-73.983208,45.386832],[-73.9833048,45.3869115],[-73.9833961,45.3869842],[-73.9834575,45.3870276],[-73.983544,45.3870801],[-73.9836349,45.3871265],[-73.9837227,45.3871651],[-73.9838131,45.3871949],[-73.9839134,45.3872227],[-73.9840197,45.387245],[-73.9841371,45.3872632],[-73.9842448,45.3872724],[-73.9843622,45.3872759],[-73.9844747,45.387272],[-73.9845924,45.3872611],[-73.9847333,45.3872407],[-73.9849636,45.387202],[-73.985313,45.3871425],[-73.9854304,45.3871225],[-73.9868402,45.386885],[-73.9882002,45.3866561],[-73.9886191,45.3865887],[-73.988858,45.3865481],[-73.9889982,45.3865203],[-73.9891058,45.3864951],[-73.9891754,45.3864731],[-73.989276,45.3864396],[-73.9895839,45.3863279],[-73.989863,45.3862145],[-73.9900291,45.3861399],[-73.9901963,45.3860526],[-73.9904019,45.3859417],[-73.9906446,45.385816],[-73.9907235,45.3857788]]}";1;Boulevard du Traversier;2;50;false;true;true;false;false;false;886.0;0;0;1;0;0;false;72329;6133274698;-73.985819;45.386873;72395;6133274348;-73.979501;45.384679;2;2;3;9479683;Bus 33 : Service PM;"";EXO;33 PM;Gare Pincourt / Terrasse-Vaudreuil;Gare Pincourt / Terrasse-Vaudreuil
553570064;"{\"type\":\"LineString\",\"coordinates\":[[-73.9907235,45.3857788],[-73.9908527,45.3857245],[-73.9909666,45.3856789],[-73.9911398,45.3856271],[-73.9912963,45.3855913],[-73.9914857,45.3855582],[-73.9917818,45.3855184],[-73.9922087,45.3854701],[-73.9924298,45.3854446]]}";2;Boulevard du Traversier;2;50;false;true;true;false;false;false;140.0;0;0;0;0;0;false;72329;6133274698;-73.985819;45.386873;72395;6133274348;-73.979501;45.384679;0;2;3;9479683;Bus 33 : Service PM;"";EXO;33 PM;Gare Pincourt / Terrasse-Vaudreuil;Gare Pincourt / Terrasse-Vaudreuil
771101941;"{\"type\":\"LineString\",\"coordinates\":[[-73.9924298,45.3854446],[-73.9925307,45.3854329],[-73.9929019,45.3853932],[-73.9930181,45.3853834],[-73.9930837,45.3853804]]}";3;Boulevard du Traversier;2;50;false;true;true;false;false;false;52.0;1;1;0;0;0;false;72329;6133274698;-73.985819;45.386873;72395;6133274348;-73.979501;45.384679;0;2;3;9479683;Bus 33 : Service PM;"";EXO;33 PM;Gare Pincourt / Terrasse-Vaudreuil;Gare Pincourt / Terrasse-Vaudreuil
778719204;"{\"type\":\"LineString\",\"coordinates\":[[-73.9930837,45.3853804],[-73.993233,45.3853707]]}";4;Boulevard du Traversier;2;50;false;true;true;false;false;false;12.0;0;1;0;0;0;false;72329;6133274698;-73.985819;45.386873;72395;6133274348;-73.979501;45.384679;0;2;3;9479683;Bus 33 : Service PM;"";EXO;33 PM;Gare Pincourt / Terrasse-Vaudreuil;Gare Pincourt / Terrasse-Vaudreuil
455057389;"{\"type\":\"LineString\",\"coordinates\":[[-73.993233,45.3853707],[-73.9932486,45.3854562],[-73.9932952,45.3856808],[-73.9933204,45.3858734],[-73.9933425,45.3861117],[-73.9933524,45.386121],[-73.9934289,45.3861925]]}";5;Boulevard Cardinal-Léger;2;50;false;true;true;false;false;false;95.0;1;0;0;0;0;false;72329;6133274698;-73.985819;45.386873;72395;6133274348;-73.979501;45.384679;0;2;3;9479683;Bus 33 : Service PM;"";EXO;33 PM;Gare Pincourt / Terrasse-Vaudreuil;Gare Pincourt / Terrasse-Vaudreuil
455057386;"{\"type\":\"LineString\",\"coordinates\":[[-73.9934289,45.3861925],[-73.9934972,45.3861132],[-73.9935014,45.3859889],[-73.9935006,45.3859294]]}";6;Boulevard Cardinal-Léger;2;50;false;true;true;false;false;false;31.0;0;0;0;0;0;false;72329;6133274698;-73.985819;45.386873;72395;6133274348;-73.979501;45.384679;0;2;3;9479683;Bus 33 : Service PM;"";EXO;33 PM;Gare Pincourt / Terrasse-Vaudreuil;Gare Pincourt / Terrasse-Vaudreuil
769937208;"{\"type\":\"LineString\",\"coordinates\":[[-73.9935006,45.3859294],[-73.9934884,45.3858253],[-73.9934781,45.3857637]]}";7;Boulevard Cardinal-Léger;3;50;false;true;true;false;false;false;19.0;0;0;0;0;0;false;72329;6133274698;-73.985819;45.386873;72395;6133274348;-73.979501;45.384679;0;2;3;9479683;Bus 33 : Service PM;"";EXO;33 PM;Gare Pincourt / Terrasse-Vaudreuil;Gare Pincourt / Terrasse-Vaudreuil
769937209;"{\"type\":\"LineString\",\"coordinates\":[[-73.9934781,45.3857637],[-73.9934504,45.3855986],[-73.9934255,45.3854818],[-73.9934163,45.3854463],[-73.9933994,45.3853596]]}";8;Boulevard Cardinal-Léger;4;50;false;true;true;false;false;false;46.0;1;0;0;0;0;false;72329;6133274698;-73.985819;45.386873;72395;6133274348;-73.979501;45.384679;0;2;3;9479683;Bus 33 : Service PM;"";EXO;33 PM;Gare Pincourt / Terrasse-Vaudreuil;Gare Pincourt / Terrasse-Vaudreuil
683393905;"{\"type\":\"LineString\",\"coordinates\":[[-73.9933994,45.3853596],[-73.9933728,45.3852729]]}";9;Boulevard Cardinal-Léger;3;50;false;true;true;false;false;false;10.0;0;0;0;0;0;false;72329;6133274698;-73.985819;45.386873;72395;6133274348;-73.979501;45.384679;0;2;3;9479683;Bus 33 : Service PM;"";EXO;33 PM;Gare Pincourt / Terrasse-Vaudreuil;Gare Pincourt / Terrasse-Vaudreuil
474314584;"{\"type\":\"LineString\",\"coordinates\":[[-73.9933728,45.3852729],[-73.9932203,45.3852847]]}";10;Boulevard du Traversier;2;50;false;true;true;false;false;false;13.0;0;0;0;0;0;false;72329;6133274698;-73.985819;45.386873;72395;6133274348;-73.979501;45.384679;0;2;3;9479683;Bus 33 : Service PM;"";EXO;33 PM;Gare Pincourt / Terrasse-Vaudreuil;Gare Pincourt / Terrasse-Vaudreuil
474314583;"{\"type\":\"LineString\",\"coordinates\":[[-73.9932203,45.3852847],[-73.9931056,45.3852927],[-73.9930019,45.3852997],[-73.9927552,45.3853212],[-73.9921812,45.3853864],[-73.9917991,45.3854306],[-73.991606,45.3854537],[-73.9914556,45.3854753],[-73.9912878,45.3855059],[-73.9911433,45.3855383],[-73.9910055,45.3855755],[-73.9908794,45.3856163],[-73.9907778,45.3856527],[-73.990663,45.3857],[-73.9905996,45.3857273],[-73.9903844,45.3858399],[-73.9901031,45.3859936],[-73.9899307,45.3860822],[-73.9898104,45.3861386],[-73.9896832,45.3861915],[-73.9895071,45.3862615],[-73.9893088,45.3863324],[-73.9891631,45.3863839],[-73.9890202,45.3864227],[-73.9888899,45.3864527],[-73.9887255,45.3864821],[-73.9884915,45.386522],[-73.9883036,45.3865544],[-73.9881824,45.3865753],[-73.987554,45.3866783],[-73.9866109,45.3868361],[-73.9853929,45.3870426],[-73.9852334,45.3870693],[-73.9848967,45.3871257],[-73.9846764,45.387161],[-73.9845614,45.3871758],[-73.9844698,45.3871849],[-73.984356,45.387188],[-73.9842414,45.3871853],[-73.9842121,45.3871825],[-73.9841278,45.3871743],[-73.9840284,45.3871563],[-73.9839094,45.3871291],[-73.9838046,45.3870944],[-73.983714,45.3870572],[-73.9836134,45.3870081],[-73.9835222,45.3869524],[-73.9833591,45.3868237],[-73.9833005,45.3867785],[-73.9832407,45.3867288],[-73.9831348,45.3866459],[-73.9830481,45.3865813],[-73.982987,45.3865422],[-73.9829165,45.3865014],[-73.9828149,45.3864562],[-73.9827133,45.3864198],[-73.9826031,45.3863889],[-73.9824888,45.3863636],[-73.9824071,45.3863518],[-73.9823745,45.3863471],[-73.9822645,45.3863372],[-73.9821486,45.3863342],[-73.9820042,45.3863379],[-73.9818861,45.3863506],[-73.9817757,45.3863686],[-73.9816648,45.3863927],[-73.9815551,45.3864174],[-73.981533,45.3864225],[-73.9814394,45.386444],[-73.9805556,45.3866447],[-73.9805237,45.386652],[-73.9804563,45.3866673]]}";11;Boulevard du Traversier;2;50;false;true;true;false;false;false;1078.0;1;1;1;0;0;false;72329;6133274698;-73.985819;45.386873;72395;6133274348;-73.979501;45.384679;0;2;3;9479683;Bus 33 : Service PM;"";EXO;33 PM;Gare Pincourt / Terrasse-Vaudreuil;Gare Pincourt / Terrasse-Vaudreuil
683393903;"{\"type\":\"LineString\",\"coordinates\":[[-73.9804563,45.3866673],[-73.9804062,45.386566],[-73.9803737,45.3865001],[-73.9800187,45.3857662]]}";12;Boulevard de l'Île;2;50;false;true;true;false;false;false;106.0;0;0;0;0;0;false;72329;6133274698;-73.985819;45.386873;72395;6133274348;-73.979501;45.384679;0;2;3;9479683;Bus 33 : Service PM;"";EXO;33 PM;Gare Pincourt / Terrasse-Vaudreuil;Gare Pincourt / Terrasse-Vaudreuil
771117804;"{\"type\":\"LineString\",\"coordinates\":[[-73.9800187,45.3857662],[-73.979736,45.3851817]]}";13;Boulevard de l'Île;2;50;false;true;true;false;false;false;69.0;0;0;0;0;0;false;72329;6133274698;-73.985819;45.386873;72395;6133274348;-73.979501;45.384679;0;2;3;9479683;Bus 33 : Service PM;"";EXO;33 PM;Gare Pincourt / Terrasse-Vaudreuil;Gare Pincourt / Terrasse-Vaudreuil
771083253;"{\"type\":\"LineString\",\"coordinates\":[[-73.979736,45.3851817],[-73.9795816,45.3848623],[-73.9795551,45.3848114]]}";14;Boulevard de l'Île;3;50;false;true;true;false;false;false;44.0;0;0;0;0;0;false;72329;6133274698;-73.985819;45.386873;72395;6133274348;-73.979501;45.384679;0;2;3;9479683;Bus 33 : Service PM;"";EXO;33 PM;Gare Pincourt / Terrasse-Vaudreuil;Gare Pincourt / Terrasse-Vaudreuil
456701421;"{\"type\":\"LineString\",\"coordinates\":[[-73.9795551,45.3848114],[-73.9795136,45.3847471],[-73.9792909,45.3844304]]}";15;Boulevard de l'Île;1;50;false;true;true;false;false;false;48.0;0;0;0;0;0;false;72329;6133274698;-73.985819;45.386873;72395;6133274348;-73.979501;45.384679;2;2;3;9479683;Bus 33 : Service PM;"";EXO;33 PM;Gare Pincourt / Terrasse-Vaudreuil;Gare Pincourt / Terrasse-Vaudreuil
771083253;"{\"type\":\"LineString\",\"coordinates\":[[-73.979736,45.3851817],[-73.9795816,45.3848623],[-73.9795551,45.3848114]]}";1;Boulevard de l'Île;3;50;false;true;true;false;false;false;44.0;0;0;0;0;0;false;72395;6133274348;-73.979501;45.384679;72389;6133274354;-73.977781;45.383463;2;3;4;9479683;Bus 33 : Service PM;"";EXO;33 PM;Gare Pincourt / Terrasse-Vaudreuil;Gare Pincourt / Terrasse-Vaudreuil
456701421;"{\"type\":\"LineString\",\"coordinates\":[[-73.9795551,45.3848114],[-73.9795136,45.3847471],[-73.9792909,45.3844304]]}";2;Boulevard de l'Île;1;50;false;true;true;false;false;false;48.0;0;0;0;0;0;false;72395;6133274348;-73.979501;45.384679;72389;6133274354;-73.977781;45.383463;0;3;4;9479683;Bus 33 : Service PM;"";EXO;33 PM;Gare Pincourt / Terrasse-Vaudreuil;Gare Pincourt / Terrasse-Vaudreuil
683393889;"{\"type\":\"LineString\",\"coordinates\":[[-73.9792909,45.3844304],[-73.9791858,45.3841982],[-73.9791602,45.3841415],[-73.9791304,45.3840822],[-73.9790789,45.3839816],[-73.9789663,45.3837623],[-73.978893,45.3836102],[-73.9788392,45.383495],[-73.9787877,45.3833673],[-73.9787458,45.3832647]]}";3;Boulevard de l'Île;2;50;false;false;false;false;false;false;137.0;0;0;0;0;0;false;72395;6133274348;-73.979501;45.384679;72389;6133274354;-73.977781;45.383463;0;3;4;9479683;Bus 33 : Service PM;"";EXO;33 PM;Gare Pincourt / Terrasse-Vaudreuil;Gare Pincourt / Terrasse-Vaudreuil
44626260;"{\"type\":\"LineString\",\"coordinates\":[[-73.9776686,45.3835153],[-73.9777644,45.3834927],[-73.97857,45.3833026],[-73.9786791,45.3832787],[-73.9787458,45.3832647]]}";4;Rue Dumas;2;30;false;false;true;false;false;false;89.0;0;0;1;0;0;false;72395;6133274348;-73.979501;45.384679;72389;6133274354;-73.977781;45.383463;2;3;4;9479683;Bus 33 : Service PM;"";EXO;33 PM;Gare Pincourt / Terrasse-Vaudreuil;Gare Pincourt / Terrasse-Vaudreuil
13812758;"{\"type\":\"LineString\",\"coordinates\":[[-73.9789478,45.3803773],[-73.9788814,45.3803689],[-73.9787521,45.3803515],[-73.9786283,45.3803392],[-73.9784839,45.3803284],[-73.9783523,45.3803213],[-73.9782555,45.3803231],[-73.9781504,45.3803379],[-73.9778813,45.3803791]]}";1;Rue des Orioles;2;30;false;false;true;false;false;false;85.0;0;0;1;0;0;false;72297;6133274728;-73.977811;45.380427;72383;6133274360;-73.978782;45.380785;2;11;12;9479683;Bus 33 : Service PM;"";EXO;33 PM;Gare Pincourt / Terrasse-Vaudreuil;Gare Pincourt / Terrasse-Vaudreuil
683402667;"{\"type\":\"LineString\",\"coordinates\":[[-73.9788132,45.3808526],[-73.9789478,45.3803773]]}";2;Boulevard de l'Île;2;50;false;false;false;false;false;false;54.0;0;0;0;0;0;false;72297;6133274728;-73.977811;45.380427;72383;6133274360;-73.978782;45.380785;2;11;12;9479683;Bus 33 : Service PM;"";EXO;33 PM;Gare Pincourt / Terrasse-Vaudreuil;Gare Pincourt / Terrasse-Vaudreuil
44626234;"{\"type\":\"LineString\",\"coordinates\":[[-73.9814424,45.3760304],[-73.9814024,45.3759984],[-73.9813317,45.3759442],[-73.9810195,45.3757048],[-73.9809314,45.3756264],[-73.9808636,45.3755525],[-73.9808058,45.375478],[-73.9807577,45.3753996],[-73.9807224,45.3753222],[-73.9806923,45.375245],[-73.980674,45.3751673],[-73.9806642,45.3750976],[-73.9806614,45.3750177],[-73.9806622,45.3749564],[-73.9806693,45.3748885],[-73.9806849,45.3748282],[-73.9807062,45.374765],[-73.9807329,45.3747011],[-73.9807655,45.3746406],[-73.9808008,45.3745859],[-73.9808481,45.3745316],[-73.9810266,45.3743454],[-73.9810762,45.3742933],[-73.9811257,45.3742359],[-73.9811788,45.3741666],[-73.9812318,45.3740944],[-73.9812706,45.3740299],[-73.981282,45.3740083],[-73.9813041,45.3739566],[-73.9813229,45.3738998],[-73.9813386,45.3738356],[-73.9813543,45.3737596],[-73.981368,45.3736685],[-73.9813735,45.3736044],[-73.9813756,45.373527],[-73.9813671,45.3734386],[-73.9813495,45.3733624],[-73.9813274,45.3732916],[-73.9812961,45.3732089],[-73.9811858,45.3729435],[-73.9811405,45.3728566]]}";1;Rue Régent;2;30;false;false;true;false;false;false;194.0;0;0;2;0;0;false;72347;6133274383;-73.9807;45.374803;72330;6133274697;-73.979536;45.372609;1;20;21;9479683;Bus 33 : Service PM;"";EXO;33 PM;Gare Pincourt / Terrasse-Vaudreuil;Gare Pincourt / Terrasse-Vaudreuil
125578262;"{\"type\":\"LineString\",\"coordinates\":[[-73.9809558,45.372465],[-73.9811405,45.3728566]]}";2;Rue du Bosquet;2;30;false;false;true;false;false;false;46.0;0;0;1;0;0;false;72347;6133274383;-73.9807;45.374803;72330;6133274697;-73.979536;45.372609;0;20;21;9479683;Bus 33 : Service PM;"";EXO;33 PM;Gare Pincourt / Terrasse-Vaudreuil;Gare Pincourt / Terrasse-Vaudreuil
99415936;"{\"type\":\"LineString\",\"coordinates\":[[-73.9809558,45.372465],[-73.9808049,45.3725018],[-73.98014,45.3726484],[-73.9800928,45.3726577],[-73.980047,45.3726619],[-73.9799864,45.3726632],[-73.9799287,45.3726623],[-73.9795856,45.3726507],[-73.9794377,45.3726464]]}";3;Rue des Buissons;2;30;false;false;true;false;false;false;61.5;0;0;2;0;0;false;72347;6133274383;-73.9807;45.374803;72330;6133274697;-73.979536;45.372609;1;20;21;9479683;Bus 33 : Service PM;"";EXO;33 PM;Gare Pincourt / Terrasse-Vaudreuil;Gare Pincourt / Terrasse-Vaudreuil
774736183;"{\"type\":\"LineString\",\"coordinates\":[[-73.9731423,45.37839],[-73.9733642,45.3783462],[-73.9735355,45.3783143],[-73.9736562,45.3782908],[-73.9744328,45.3781438],[-73.9745338,45.3781237],[-73.9748247,45.3780709],[-73.9754784,45.3779472],[-73.9757648,45.3778943],[-73.9758693,45.3778746],[-73.9765962,45.3777374],[-73.9766946,45.3777188],[-73.977258,45.3776093],[-73.9776359,45.3775441],[-73.9776803,45.3775378],[-73.9777565,45.3775288],[-73.9778912,45.3775162],[-73.9781306,45.3774986],[-73.9785053,45.3774735],[-73.9786197,45.3774632],[-73.9786884,45.3774571]]}";1;Avenue Forest;2;50;false;false;false;false;false;false;224.0;0;0;0;0;0;false;72378;6133274365;-73.973657;45.378243;72382;6133274361;-73.970524;45.378862;1;25;26;9479683;Bus 33 : Service PM;"";EXO;33 PM;Gare Pincourt / Terrasse-Vaudreuil;Gare Pincourt / Terrasse-Vaudreuil
42294473;"{\"type\":\"LineString\",\"coordinates\":[[-73.9654869,45.381174],[-73.9655684,45.3811576],[-73.966449,45.380992],[-73.9666888,45.3809477],[-73.9667671,45.380933],[-73.9672366,45.3808447],[-73.967419,45.3808042],[-73.9675409,45.3807737],[-73.9677713,45.3807018],[-73.9678417,45.3806744],[-73.9679027,45.3806507],[-73.9680278,45.3805998],[-73.9681779,45.3805358],[-73.9683262,45.380465],[-73.9684593,45.3803928],[-73.9685437,45.3803451],[-73.9686129,45.3803021],[-73.9686268,45.3802934],[-73.9687326,45.3802242],[-73.9689199,45.3800885],[-73.9690835,45.3799671],[-73.969207,45.3798738],[-73.9693003,45.3798041],[-73.9693586,45.3797606],[-73.9696362,45.3795521],[-73.9700227,45.3792767],[-73.9701018,45.3792259],[-73.9702123,45.3791549],[-73.9703564,45.3790783],[-73.9705009,45.3790088],[-73.9706142,45.3789615],[-73.9707304,45.3789148],[-73.9708694,45.3788695],[-73.9709575,45.3788436],[-73.9710426,45.378819],[-73.9711589,45.3787914],[-73.9712827,45.3787628],[-73.9714056,45.3787352],[-73.9715982,45.3786963],[-73.9717157,45.3786734],[-73.9718766,45.378642],[-73.972582,45.3785032],[-73.9726771,45.3784848],[-73.9728521,45.3784488],[-73.9729391,45.3784308],[-73.9731423,45.37839]]}";2;Avenue Forest;2;50;false;false;true;false;false;false;346.0;0;8;0;0;0;false;72378;6133274365;-73.973657;45.378243;72382;6133274361;-73.970524;45.378862;1;25;26;9479683;Bus 33 : Service PM;"";EXO;33 PM;Gare Pincourt / Terrasse-Vaudreuil;Gare Pincourt / Terrasse-Vaudreuil
769425229;"{\"type\":\"LineString\",\"coordinates\":[[-73.966125,45.3828593],[-73.9661045,45.3828015],[-73.9660046,45.3825401],[-73.9658795,45.3822035],[-73.9658554,45.3821387],[-73.9657887,45.381962],[-73.9656861,45.3816902],[-73.9655821,45.3814147],[-73.9655654,45.3813723],[-73.9655271,45.3812751],[-73.9655106,45.3812334],[-73.9654869,45.381174]]}";1;Boulevard Pincourt;2;50;false;false;false;false;false;false;97.0;0;0;1;0;0;false;72291;6133274734;-73.965758;45.382072;72288;6133274737;-73.971517;45.386183;1;29;30;9479683;Bus 33 : Service PM;"";EXO;33 PM;Gare Pincourt / Terrasse-Vaudreuil;Gare Pincourt / Terrasse-Vaudreuil
772239251;"{\"type\":\"LineString\",\"coordinates\":[[-73.9662689,45.3831055],[-73.9662522,45.3830833],[-73.9662081,45.3830187],[-73.96616,45.3829368],[-73.9661429,45.3829001],[-73.966125,45.3828593]]}";2;Boulevard Pincourt;2;50;false;false;false;false;false;false;30.0;0;0;0;0;0;false;72291;6133274734;-73.965758;45.382072;72288;6133274737;-73.971517;45.386183;0;29;30;9479683;Bus 33 : Service PM;"";EXO;33 PM;Gare Pincourt / Terrasse-Vaudreuil;Gare Pincourt / Terrasse-Vaudreuil
772239249;"{\"type\":\"LineString\",\"coordinates\":[[-73.9681443,45.3842141],[-73.9681008,45.3841907],[-73.966698,45.3834362],[-73.9665487,45.3833507],[-73.966464,45.3832978],[-73.9663839,45.3832328],[-73.9663421,45.3831913],[-73.966298,45.3831414],[-73.9662689,45.3831055]]}";3;Boulevard Pincourt;2;50;false;false;true;false;false;false;193.0;0;0;0;0;0;false;72291;6133274734;-73.965758;45.382072;72288;6133274737;-73.971517;45.386183;0;29;30;9479683;Bus 33 : Service PM;"";EXO;33 PM;Gare Pincourt / Terrasse-Vaudreuil;Gare Pincourt / Terrasse-Vaudreuil
110165912;"{\"type\":\"LineString\",\"coordinates\":[[-73.969002,45.3846752],[-73.9681443,45.3842141]]}";4;Boulevard Pincourt;2;50;false;false;true;false;false;false;85.0;0;0;0;0;0;false;72291;6133274734;-73.965758;45.382072;72288;6133274737;-73.971517;45.386183;0;29;30;9479683;Bus 33 : Service PM;"";EXO;33 PM;Gare Pincourt / Terrasse-Vaudreuil;Gare Pincourt / Terrasse-Vaudreuil
772400124;"{\"type\":\"LineString\",\"coordinates\":[[-73.9721863,45.3864649],[-73.9721442,45.3864264],[-73.9720631,45.3863608],[-73.9718272,45.3861731],[-73.9717781,45.3861368],[-73.9717205,45.3860942],[-73.9716599,45.3860572],[-73.9716403,45.3860453],[-73.9714901,45.385962],[-73.971408,45.3859165],[-73.9709713,45.3856802],[-73.9708954,45.3856391],[-73.9704585,45.3854071],[-73.9703483,45.3853482],[-73.969689,45.3849957],[-73.9694061,45.384848],[-73.969002,45.3846752]]}";5;Boulevard Pincourt;2;30;false;true;true;false;false;false;160.0;0;3;0;0;0;false;72291;6133274734;-73.965758;45.382072;72288;6133274737;-73.971517;45.386183;1;29;30;9479683;Bus 33 : Service PM;"";EXO;33 PM;Gare Pincourt / Terrasse-Vaudreuil;Gare Pincourt / Terrasse-Vaudreuil
772400124;"{\"type\":\"LineString\",\"coordinates\":[[-73.9721863,45.3864649],[-73.9721442,45.3864264],[-73.9720631,45.3863608],[-73.9718272,45.3861731],[-73.9717781,45.3861368],[-73.9717205,45.3860942],[-73.9716599,45.3860572],[-73.9716403,45.3860453],[-73.9714901,45.385962],[-73.971408,45.3859165],[-73.9709713,45.3856802],[-73.9708954,45.3856391],[-73.9704585,45.3854071],[-73.9703483,45.3853482],[-73.969689,45.3849957],[-73.9694061,45.384848],[-73.969002,45.3846752]]}";1;Boulevard Pincourt;2;30;false;true;true;false;false;false;160.0;0;3;0;0;0;false;72288;6133274737;-73.971517;45.386183;72328;6133274699;-73.985951;45.387093;1;30;31;9479683;Bus 33 : Service PM;"";EXO;33 PM;Gare Pincourt / Terrasse-Vaudreuil;Gare Pincourt / Terrasse-Vaudreuil
60909143;"{\"type\":\"LineString\",\"coordinates\":[[-73.9722078,45.3865801],[-73.9722147,45.386499],[-73.9721863,45.3864649]]}";2;Boulevard Pincourt;2;30;false;true;false;false;false;false;14.0;0;1;0;0;0;false;72288;6133274737;-73.971517;45.386183;72328;6133274699;-73.985951;45.387093;0;30;31;9479683;Bus 33 : Service PM;"";EXO;33 PM;Gare Pincourt / Terrasse-Vaudreuil;Gare Pincourt / Terrasse-Vaudreuil
683393902;"{\"type\":\"LineString\",\"coordinates\":[[-73.9794,45.3848509],[-73.9793157,45.3848715],[-73.9748119,45.3859499],[-73.9747155,45.3859732],[-73.9746251,45.3859953],[-73.973386,45.3862966],[-73.9731428,45.3863545],[-73.9729957,45.3863896],[-73.9729296,45.3864053],[-73.9723303,45.3865481],[-73.9722078,45.3865801]]}";3;5e Avenue;2;50;false;false;false;false;false;false;595.0;0;1;0;0;0;false;72288;6133274737;-73.971517;45.386183;72328;6133274699;-73.985951;45.387093;0;30;31;9479683;Bus 33 : Service PM;"";EXO;33 PM;Gare Pincourt / Terrasse-Vaudreuil;Gare Pincourt / Terrasse-Vaudreuil
179377833;"{\"type\":\"LineString\",\"coordinates\":[[-73.9794,45.3848509],[-73.9794259,45.3849018],[-73.9797027,45.3854761]]}";4;Boulevard de l'Île;2;50;false;true;true;false;false;false;74.0;0;0;0;0;0;false;72288;6133274737;-73.971517;45.386183;72328;6133274699;-73.985951;45.387093;0;30;31;9479683;Bus 33 : Service PM;"";EXO;33 PM;Gare Pincourt / Terrasse-Vaudreuil;Gare Pincourt / Terrasse-Vaudreuil
771079108;"{\"type\":\"LineString\",\"coordinates\":[[-73.9797027,45.3854761],[-73.9798618,45.385806]]}";5;Boulevard de l'Île;3;50;false;true;true;false;false;false;39.0;0;0;0;0;0;false;72288;6133274737;-73.971517;45.386183;72328;6133274699;-73.985951;45.387093;0;30;31;9479683;Bus 33 : Service PM;"";EXO;33 PM;Gare Pincourt / Terrasse-Vaudreuil;Gare Pincourt / Terrasse-Vaudreuil
771079110;"{\"type\":\"LineString\",\"coordinates\":[[-73.9798618,45.385806],[-73.9802351,45.3865805],[-73.980244,45.3865988],[-73.9802944,45.3867035],[-73.9803327,45.3867828]]}";6;Boulevard de l'Île;2;50;false;true;true;false;false;false;115.0;1;0;0;0;0;false;72288;6133274737;-73.971517;45.386183;72328;6133274699;-73.985951;45.387093;0;30;31;9479683;Bus 33 : Service PM;"";EXO;33 PM;Gare Pincourt / Terrasse-Vaudreuil;Gare Pincourt / Terrasse-Vaudreuil
47459949;"{\"type\":\"LineString\",\"coordinates\":[[-73.9803327,45.3867828],[-73.9804945,45.3867462],[-73.9805613,45.3867312],[-73.9807595,45.3866867],[-73.9815844,45.3865017],[-73.9817083,45.3864758],[-73.981852,45.3864486],[-73.981979,45.3864294],[-73.982076,45.38642],[-73.9821941,45.3864169],[-73.9823119,45.3864253],[-73.9824056,45.3864389],[-73.9824212,45.3864412],[-73.9825194,45.3864599],[-73.9825665,45.386472],[-73.9826407,45.3864911],[-73.982742,45.3865275],[-73.9828331,45.3865674],[-73.9829268,45.3866189],[-73.9830107,45.3866726],[-73.9830934,45.3867355],[-73.983208,45.386832],[-73.9833048,45.3869115],[-73.9833961,45.3869842],[-73.9834575,45.3870276],[-73.983544,45.3870801],[-73.9836349,45.3871265],[-73.9837227,45.3871651],[-73.9838131,45.3871949],[-73.9839134,45.3872227],[-73.9840197,45.387245],[-73.9841371,45.3872632],[-73.9842448,45.3872724],[-73.9843622,45.3872759],[-73.9844747,45.387272],[-73.9845924,45.3872611],[-73.9847333,45.3872407],[-73.9849636,45.387202],[-73.985313,45.3871425],[-73.9854304,45.3871225],[-73.9868402,45.386885],[-73.9882002,45.3866561],[-73.9886191,45.3865887],[-73.988858,45.3865481],[-73.9889982,45.3865203],[-73.9891058,45.3864951],[-73.9891754,45.3864731],[-73.989276,45.3864396],[-73.9895839,45.3863279],[-73.989863,45.3862145],[-73.9900291,45.3861399],[-73.9901963,45.3860526],[-73.9904019,45.3859417],[-73.9906446,45.385816],[-73.9907235,45.3857788]]}";7;Boulevard du Traversier;2;50;false;true;true;false;false;false;443.0;0;0;1;0;0;false;72288;6133274737;-73.971517;45.386183;72328;6133274699;-73.985951;45.387093;1;30;31;9479683;Bus 33 : Service PM;"";EXO;33 PM;Gare Pincourt / Terrasse-Vaudreuil;Gare Pincourt / Terrasse-Vaudreuil
474314583;"{\"type\":\"LineString\",\"coordinates\":[[-73.9932203,45.3852847],[-73.9931056,45.3852927],[-73.9930019,45.3852997],[-73.9927552,45.3853212],[-73.9921812,45.3853864],[-73.9917991,45.3854306],[-73.991606,45.3854537],[-73.9914556,45.3854753],[-73.9912878,45.3855059],[-73.9911433,45.3855383],[-73.9910055,45.3855755],[-73.9908794,45.3856163],[-73.9907778,45.3856527],[-73.990663,45.3857],[-73.9905996,45.3857273],[-73.9903844,45.3858399],[-73.9901031,45.3859936],[-73.9899307,45.3860822],[-73.9898104,45.3861386],[-73.9896832,45.3861915],[-73.9895071,45.3862615],[-73.9893088,45.3863324],[-73.9891631,45.3863839],[-73.9890202,45.3864227],[-73.9888899,45.3864527],[-73.9887255,45.3864821],[-73.9884915,45.386522],[-73.9883036,45.3865544],[-73.9881824,45.3865753],[-73.987554,45.3866783],[-73.9866109,45.3868361],[-73.9853929,45.3870426],[-73.9852334,45.3870693],[-73.9848967,45.3871257],[-73.9846764,45.387161],[-73.9845614,45.3871758],[-73.9844698,45.3871849],[-73.984356,45.387188],[-73.9842414,45.3871853],[-73.9842121,45.3871825],[-73.9841278,45.3871743],[-73.9840284,45.3871563],[-73.9839094,45.3871291],[-73.9838046,45.3870944],[-73.983714,45.3870572],[-73.9836134,45.3870081],[-73.9835222,45.3869524],[-73.9833591,45.3868237],[-73.9833005,45.3867785],[-73.9832407,45.3867288],[-73.9831348,45.3866459],[-73.9830481,45.3865813],[-73.982987,45.3865422],[-73.9829165,45.3865014],[-73.9828149,45.3864562],[-73.9827133,45.3864198],[-73.9826031,45.3863889],[-73.9824888,45.3863636],[-73.9824071,45.3863518],[-73.9823745,45.3863471],[-73.9822645,45.3863372],[-73.9821486,45.3863342],[-73.9820042,45.3863379],[-73.9818861,45.3863506],[-73.9817757,45.3863686],[-73.9816648,45.3863927],[-73.9815551,45.3864174],[-73.981533,45.3864225],[-73.9814394,45.386444],[-73.9805556,45.3866447],[-73.9805237,45.386652],[-73.9804563,45.3866673]]}";1;Boulevard du Traversier;2;50;false;true;true;false;false;false;1078.0;1;1;1;0;0;false;72328;6133274699;-73.985951;45.387093;72344;2186107541;-73.992596;45.38548;2;31;32;9479683;Bus 33 : Service PM;"";EXO;33 PM;Gare Pincourt / Terrasse-Vaudreuil;Gare Pincourt / Terrasse-Vaudreuil
474314584;"{\"type\":\"LineString\",\"coordinates\":[[-73.9933728,45.3852729],[-73.9932203,45.3852847]]}";2;Boulevard du Traversier;2;50;false;true;true;false;false;false;13.0;0;0;0;0;0;false;72328;6133274699;-73.985951;45.387093;72344;2186107541;-73.992596;45.38548;0;31;32;9479683;Bus 33 : Service PM;"";EXO;33 PM;Gare Pincourt / Terrasse-Vaudreuil;Gare Pincourt / Terrasse-Vaudreuil
683393905;"{\"type\":\"LineString\",\"coordinates\":[[-73.9933994,45.3853596],[-73.9933728,45.3852729]]}";3;Boulevard Cardinal-Léger;3;50;false;true;true;false;false;false;10.0;0;0;0;0;0;false;72328;6133274699;-73.985951;45.387093;72344;2186107541;-73.992596;45.38548;0;31;32;9479683;Bus 33 : Service PM;"";EXO;33 PM;Gare Pincourt / Terrasse-Vaudreuil;Gare Pincourt / Terrasse-Vaudreuil
769937209;"{\"type\":\"LineString\",\"coordinates\":[[-73.9934781,45.3857637],[-73.9934504,45.3855986],[-73.9934255,45.3854818],[-73.9934163,45.3854463],[-73.9933994,45.3853596]]}";4;Boulevard Cardinal-Léger;4;50;false;true;true;false;false;false;46.0;1;0;0;0;0;false;72328;6133274699;-73.985951;45.387093;72344;2186107541;-73.992596;45.38548;0;31;32;9479683;Bus 33 : Service PM;"";EXO;33 PM;Gare Pincourt / Terrasse-Vaudreuil;Gare Pincourt / Terrasse-Vaudreuil
769937208;"{\"type\":\"LineString\",\"coordinates\":[[-73.9935006,45.3859294],[-73.9934884,45.3858253],[-73.9934781,45.3857637]]}";5;Boulevard Cardinal-Léger;3;50;false;true;true;false;false;false;19.0;0;0;0;0;0;false;72328;6133274699;-73.985951;45.387093;72344;2186107541;-73.992596;45.38548;0;31;32;9479683;Bus 33 : Service PM;"";EXO;33 PM;Gare Pincourt / Terrasse-Vaudreuil;Gare Pincourt / Terrasse-Vaudreuil
455057386;"{\"type\":\"LineString\",\"coordinates\":[[-73.9934289,45.3861925],[-73.9934972,45.3861132],[-73.9935014,45.3859889],[-73.9935006,45.3859294]]}";6;Boulevard Cardinal-Léger;2;50;false;true;true;false;false;false;31.0;0;0;0;0;0;false;72328;6133274699;-73.985951;45.387093;72344;2186107541;-73.992596;45.38548;0;31;32;9479683;Bus 33 : Service PM;"";EXO;33 PM;Gare Pincourt / Terrasse-Vaudreuil;Gare Pincourt / Terrasse-Vaudreuil
455057389;"{\"type\":\"LineString\",\"coordinates\":[[-73.993233,45.3853707],[-73.9932486,45.3854562],[-73.9932952,45.3856808],[-73.9933204,45.3858734],[-73.9933425,45.3861117],[-73.9933524,45.386121],[-73.9934289,45.3861925]]}";7;Boulevard Cardinal-Léger;2;50;false;true;true;false;false;false;95.0;1;0;0;0;0;false;72328;6133274699;-73.985951;45.387093;72344;2186107541;-73.992596;45.38548;0;31;32;9479683;Bus 33 : Service PM;"";EXO;33 PM;Gare Pincourt / Terrasse-Vaudreuil;Gare Pincourt / Terrasse-Vaudreuil
778719204;"{\"type\":\"LineString\",\"coordinates\":[[-73.9930837,45.3853804],[-73.993233,45.3853707]]}";8;Boulevard du Traversier;2;50;false;true;true;false;false;false;12.0;0;1;0;0;0;false;72328;6133274699;-73.985951;45.387093;72344;2186107541;-73.992596;45.38548;0;31;32;9479683;Bus 33 : Service PM;"";EXO;33 PM;Gare Pincourt / Terrasse-Vaudreuil;Gare Pincourt / Terrasse-Vaudreuil
771101941;"{\"type\":\"LineString\",\"coordinates\":[[-73.9924298,45.3854446],[-73.9925307,45.3854329],[-73.9929019,45.3853932],[-73.9930181,45.3853834],[-73.9930837,45.3853804]]}";9;Boulevard du Traversier;2;50;false;true;true;false;false;false;52.0;1;1;0;0;0;false;72328;6133274699;-73.985951;45.387093;72344;2186107541;-73.992596;45.38548;2;31;32;9479683;Bus 33 : Service PM;"";EXO;33 PM;Gare Pincourt / Terrasse-Vaudreuil;Gare Pincourt / Terrasse-Vaudreuil
553570064;"{\"type\":\"LineString\",\"coordinates\":[[-73.9907235,45.3857788],[-73.9908527,45.3857245],[-73.9909666,45.3856789],[-73.9911398,45.3856271],[-73.9912963,45.3855913],[-73.9914857,45.3855582],[-73.9917818,45.3855184],[-73.9922087,45.3854701],[-73.9924298,45.3854446]]}";1;Boulevard du Traversier;2;50;false;true;true;false;false;false;140.0;0;0;0;0;0;false;72344;2186107541;-73.992596;45.38548;72343;762420309;-73.991601;45.387962;2;32;33;9479683;Bus 33 : Service PM;"";EXO;33 PM;Gare Pincourt / Terrasse-Vaudreuil;Gare Pincourt / Terrasse-Vaudreuil
47459949;"{\"type\":\"LineString\",\"coordinates\":[[-73.9803327,45.3867828],[-73.9804945,45.3867462],[-73.9805613,45.3867312],[-73.9807595,45.3866867],[-73.9815844,45.3865017],[-73.9817083,45.3864758],[-73.981852,45.3864486],[-73.981979,45.3864294],[-73.982076,45.38642],[-73.9821941,45.3864169],[-73.9823119,45.3864253],[-73.9824056,45.3864389],[-73.9824212,45.3864412],[-73.9825194,45.3864599],[-73.9825665,45.386472],[-73.9826407,45.3864911],[-73.982742,45.3865275],[-73.9828331,45.3865674],[-73.9829268,45.3866189],[-73.9830107,45.3866726],[-73.9830934,45.3867355],[-73.983208,45.386832],[-73.9833048,45.3869115],[-73.9833961,45.3869842],[-73.9834575,45.3870276],[-73.983544,45.3870801],[-73.9836349,45.3871265],[-73.9837227,45.3871651],[-73.9838131,45.3871949],[-73.9839134,45.3872227],[-73.9840197,45.387245],[-73.9841371,45.3872632],[-73.9842448,45.3872724],[-73.9843622,45.3872759],[-73.9844747,45.387272],[-73.9845924,45.3872611],[-73.9847333,45.3872407],[-73.9849636,45.387202],[-73.985313,45.3871425],[-73.9854304,45.3871225],[-73.9868402,45.386885],[-73.9882002,45.3866561],[-73.9886191,45.3865887],[-73.988858,45.3865481],[-73.9889982,45.3865203],[-73.9891058,45.3864951],[-73.9891754,45.3864731],[-73.989276,45.3864396],[-73.9895839,45.3863279],[-73.989863,45.3862145],[-73.9900291,45.3861399],[-73.9901963,45.3860526],[-73.9904019,45.3859417],[-73.9906446,45.385816],[-73.9907235,45.3857788]]}";2;Boulevard du Traversier;2;50;false;true;true;false;false;false;886.0;0;0;1;0;0;false;72344;2186107541;-73.992596;45.38548;72343;762420309;-73.991601;45.387962;0;32;33;9479683;Bus 33 : Service PM;"";EXO;33 PM;Gare Pincourt / Terrasse-Vaudreuil;Gare Pincourt / Terrasse-Vaudreuil
771079110;"{\"type\":\"LineString\",\"coordinates\":[[-73.9798618,45.385806],[-73.9802351,45.3865805],[-73.980244,45.3865988],[-73.9802944,45.3867035],[-73.9803327,45.3867828]]}";3;Boulevard de l'Île;2;50;false;true;true;false;false;false;115.0;1;0;0;0;0;false;72344;2186107541;-73.992596;45.38548;72343;762420309;-73.991601;45.387962;0;32;33;9479683;Bus 33 : Service PM;"";EXO;33 PM;Gare Pincourt / Terrasse-Vaudreuil;Gare Pincourt / Terrasse-Vaudreuil
771079108;"{\"type\":\"LineString\",\"coordinates\":[[-73.9797027,45.3854761],[-73.9798618,45.385806]]}";4;Boulevard de l'Île;3;50;false;true;true;false;false;false;39.0;0;0;0;0;0;false;72344;2186107541;-73.992596;45.38548;72343;762420309;-73.991601;45.387962;0;32;33;9479683;Bus 33 : Service PM;"";EXO;33 PM;Gare Pincourt / Terrasse-Vaudreuil;Gare Pincourt / Terrasse-Vaudreuil
179377833;"{\"type\":\"LineString\",\"coordinates\":[[-73.9794,45.3848509],[-73.9794259,45.3849018],[-73.9797027,45.3854761]]}";5;Boulevard de l'Île;2;50;false;true;true;false;false;false;74.0;0;0;0;0;0;false;72344;2186107541;-73.992596;45.38548;72343;762420309;-73.991601;45.387962;0;32;33;9479683;Bus 33 : Service PM;"";EXO;33 PM;Gare Pincourt / Terrasse-Vaudreuil;Gare Pincourt / Terrasse-Vaudreuil
683393902;"{\"type\":\"LineString\",\"coordinates\":[[-73.9794,45.3848509],[-73.9793157,45.3848715],[-73.9748119,45.3859499],[-73.9747155,45.3859732],[-73.9746251,45.3859953],[-73.973386,45.3862966],[-73.9731428,45.3863545],[-73.9729957,45.3863896],[-73.9729296,45.3864053],[-73.9723303,45.3865481],[-73.9722078,45.3865801]]}";6;5e Avenue;2;50;false;false;false;false;false;false;595.0;0;1;0;0;0;false;72344;2186107541;-73.992596;45.38548;72343;762420309;-73.991601;45.387962;0;32;33;9479683;Bus 33 : Service PM;"";EXO;33 PM;Gare Pincourt / Terrasse-Vaudreuil;Gare Pincourt / Terrasse-Vaudreuil
60909143;"{\"type\":\"LineString\",\"coordinates\":[[-73.9722078,45.3865801],[-73.9722147,45.386499],[-73.9721863,45.3864649]]}";7;Boulevard Pincourt;2;30;false;true;false;false;false;false;14.0;0;1;0;0;0;false;72344;2186107541;-73.992596;45.38548;72343;762420309;-73.991601;45.387962;0;32;33;9479683;Bus 33 : Service PM;"";EXO;33 PM;Gare Pincourt / Terrasse-Vaudreuil;Gare Pincourt / Terrasse-Vaudreuil
772400124;"{\"type\":\"LineString\",\"coordinates\":[[-73.9721863,45.3864649],[-73.9721442,45.3864264],[-73.9720631,45.3863608],[-73.9718272,45.3861731],[-73.9717781,45.3861368],[-73.9717205,45.3860942],[-73.9716599,45.3860572],[-73.9716403,45.3860453],[-73.9714901,45.385962],[-73.971408,45.3859165],[-73.9709713,45.3856802],[-73.9708954,45.3856391],[-73.9704585,45.3854071],[-73.9703483,45.3853482],[-73.969689,45.3849957],[-73.9694061,45.384848],[-73.969002,45.3846752]]}";8;Boulevard Pincourt;2;30;false;true;true;false;false;false;320.0;0;3;0;0;0;false;72344;2186107541;-73.992596;45.38548;72343;762420309;-73.991601;45.387962;0;32;33;9479683;Bus 33 : Service PM;"";EXO;33 PM;Gare Pincourt / Terrasse-Vaudreuil;Gare Pincourt / Terrasse-Vaudreuil
110165912;"{\"type\":\"LineString\",\"coordinates\":[[-73.969002,45.3846752],[-73.9681443,45.3842141]]}";9;Boulevard Pincourt;2;50;false;false;true;false;false;false;85.0;0;0;0;0;0;false;72344;2186107541;-73.992596;45.38548;72343;762420309;-73.991601;45.387962;0;32;33;9479683;Bus 33 : Service PM;"";EXO;33 PM;Gare Pincourt / Terrasse-Vaudreuil;Gare Pincourt / Terrasse-Vaudreuil
772239249;"{\"type\":\"LineString\",\"coordinates\":[[-73.9681443,45.3842141],[-73.9681008,45.3841907],[-73.966698,45.3834362],[-73.9665487,45.3833507],[-73.966464,45.3832978],[-73.9663839,45.3832328],[-73.9663421,45.3831913],[-73.966298,45.3831414],[-73.9662689,45.3831055]]}";10;Boulevard Pincourt;2;50;false;false;true;false;false;false;193.0;0;0;0;0;0;false;72344;2186107541;-73.992596;45.38548;72343;762420309;-73.991601;45.387962;0;32;33;9479683;Bus 33 : Service PM;"";EXO;33 PM;Gare Pincourt / Terrasse-Vaudreuil;Gare Pincourt / Terrasse-Vaudreuil
772239251;"{\"type\":\"LineString\",\"coordinates\":[[-73.9662689,45.3831055],[-73.9662522,45.3830833],[-73.9662081,45.3830187],[-73.96616,45.3829368],[-73.9661429,45.3829001],[-73.966125,45.3828593]]}";11;Boulevard Pincourt;2;50;false;false;false;false;false;false;30.0;0;0;0;0;0;false;72344;2186107541;-73.992596;45.38548;72343;762420309;-73.991601;45.387962;0;32;33;9479683;Bus 33 : Service PM;"";EXO;33 PM;Gare Pincourt / Terrasse-Vaudreuil;Gare Pincourt / Terrasse-Vaudreuil
769425229;"{\"type\":\"LineString\",\"coordinates\":[[-73.966125,45.3828593],[-73.9661045,45.3828015],[-73.9660046,45.3825401],[-73.9658795,45.3822035],[-73.9658554,45.3821387],[-73.9657887,45.381962],[-73.9656861,45.3816902],[-73.9655821,45.3814147],[-73.9655654,45.3813723],[-73.9655271,45.3812751],[-73.9655106,45.3812334],[-73.9654869,45.381174]]}";12;Boulevard Pincourt;2;50;false;false;false;false;false;false;194.0;0;0;1;0;0;false;72344;2186107541;-73.992596;45.38548;72343;762420309;-73.991601;45.387962;0;32;33;9479683;Bus 33 : Service PM;"";EXO;33 PM;Gare Pincourt / Terrasse-Vaudreuil;Gare Pincourt / Terrasse-Vaudreuil
42294473;"{\"type\":\"LineString\",\"coordinates\":[[-73.9654869,45.381174],[-73.9655684,45.3811576],[-73.966449,45.380992],[-73.9666888,45.3809477],[-73.9667671,45.380933],[-73.9672366,45.3808447],[-73.967419,45.3808042],[-73.9675409,45.3807737],[-73.9677713,45.3807018],[-73.9678417,45.3806744],[-73.9679027,45.3806507],[-73.9680278,45.3805998],[-73.9681779,45.3805358],[-73.9683262,45.380465],[-73.9684593,45.3803928],[-73.9685437,45.3803451],[-73.9686129,45.3803021],[-73.9686268,45.3802934],[-73.9687326,45.3802242],[-73.9689199,45.3800885],[-73.9690835,45.3799671],[-73.969207,45.3798738],[-73.9693003,45.3798041],[-73.9693586,45.3797606],[-73.9696362,45.3795521],[-73.9700227,45.3792767],[-73.9701018,45.3792259],[-73.9702123,45.3791549],[-73.9703564,45.3790783],[-73.9705009,45.3790088],[-73.9706142,45.3789615],[-73.9707304,45.3789148],[-73.9708694,45.3788695],[-73.9709575,45.3788436],[-73.9710426,45.378819],[-73.9711589,45.3787914],[-73.9712827,45.3787628],[-73.9714056,45.3787352],[-73.9715982,45.3786963],[-73.9717157,45.3786734],[-73.9718766,45.378642],[-73.972582,45.3785032],[-73.9726771,45.3784848],[-73.9728521,45.3784488],[-73.9729391,45.3784308],[-73.9731423,45.37839]]}";13;Avenue Forest;2;50;false;false;true;false;false;false;692.0;0;8;0;0;0;false;72344;2186107541;-73.992596;45.38548;72343;762420309;-73.991601;45.387962;0;32;33;9479683;Bus 33 : Service PM;"";EXO;33 PM;Gare Pincourt / Terrasse-Vaudreuil;Gare Pincourt / Terrasse-Vaudreuil
774736183;"{\"type\":\"LineString\",\"coordinates\":[[-73.9731423,45.37839],[-73.9733642,45.3783462],[-73.9735355,45.3783143],[-73.9736562,45.3782908],[-73.9744328,45.3781438],[-73.9745338,45.3781237],[-73.9748247,45.3780709],[-73.9754784,45.3779472],[-73.9757648,45.3778943],[-73.9758693,45.3778746],[-73.9765962,45.3777374],[-73.9766946,45.3777188],[-73.977258,45.3776093],[-73.9776359,45.3775441],[-73.9776803,45.3775378],[-73.9777565,45.3775288],[-73.9778912,45.3775162],[-73.9781306,45.3774986],[-73.9785053,45.3774735],[-73.9786197,45.3774632],[-73.9786884,45.3774571]]}";14;Avenue Forest;2;50;false;false;false;false;false;false;448.0;0;0;0;0;0;false;72344;2186107541;-73.992596;45.38548;72343;762420309;-73.991601;45.387962;0;32;33;9479683;Bus 33 : Service PM;"";EXO;33 PM;Gare Pincourt / Terrasse-Vaudreuil;Gare Pincourt / Terrasse-Vaudreuil
683393900;"{\"type\":\"LineString\",\"coordinates\":[[-73.9783419,45.3739361],[-73.9783018,45.3745199],[-73.9782831,45.3746316],[-73.9782647,45.3747475],[-73.9782314,45.3751391],[-73.9782291,45.3752232],[-73.9782282,45.375384],[-73.9782399,45.3755664],[-73.9782507,45.3756722],[-73.9782707,45.3757938],[-73.9783103,45.3759828],[-73.9783858,45.3762728],[-73.9785373,45.3768791],[-73.9786679,45.3773813],[-73.9786747,45.3774063],[-73.9786884,45.3774571]]}";15;Boulevard de l'Île;2;50;false;false;false;false;false;false;395.0;0;0;1;0;0;false;72344;2186107541;-73.992596;45.38548;72343;762420309;-73.991601;45.387962;0;32;33;9479683;Bus 33 : Service PM;"";EXO;33 PM;Gare Pincourt / Terrasse-Vaudreuil;Gare Pincourt / Terrasse-Vaudreuil
99415937;"{\"type\":\"LineString\",\"coordinates\":[[-73.9783419,45.3739361],[-73.9784167,45.3739398],[-73.9785228,45.3739444],[-73.9785948,45.3739458],[-73.9786736,45.3739383],[-73.9787644,45.3739207],[-73.9789185,45.3738848],[-73.9790179,45.3738575],[-73.9790952,45.3738282],[-73.9791428,45.3737937],[-73.9791854,45.3737512],[-73.9793266,45.3735819],[-73.97935,45.3735455],[-73.9793672,45.3735021],[-73.9793916,45.3733341],[-73.9794377,45.3726464]]}";16;Rue des Merisiers;2;30;false;false;true;false;false;false;199.0;0;0;1;0;0;false;72344;2186107541;-73.992596;45.38548;72343;762420309;-73.991601;45.387962;0;32;33;9479683;Bus 33 : Service PM;"";EXO;33 PM;Gare Pincourt / Terrasse-Vaudreuil;Gare Pincourt / Terrasse-Vaudreuil
99415936;"{\"type\":\"LineString\",\"coordinates\":[[-73.9809558,45.372465],[-73.9808049,45.3725018],[-73.98014,45.3726484],[-73.9800928,45.3726577],[-73.980047,45.3726619],[-73.9799864,45.3726632],[-73.9799287,45.3726623],[-73.9795856,45.3726507],[-73.9794377,45.3726464]]}";17;Rue des Buissons;2;30;false;false;true;false;false;false;123.0;0;0;2;0;0;false;72344;2186107541;-73.992596;45.38548;72343;762420309;-73.991601;45.387962;0;32;33;9479683;Bus 33 : Service PM;"";EXO;33 PM;Gare Pincourt / Terrasse-Vaudreuil;Gare Pincourt / Terrasse-Vaudreuil
125578262;"{\"type\":\"LineString\",\"coordinates\":[[-73.9809558,45.372465],[-73.9811405,45.3728566]]}";18;Rue du Bosquet;2;30;false;false;true;false;false;false;46.0;0;0;1;0;0;false;72344;2186107541;-73.992596;45.38548;72343;762420309;-73.991601;45.387962;0;32;33;9479683;Bus 33 : Service PM;"";EXO;33 PM;Gare Pincourt / Terrasse-Vaudreuil;Gare Pincourt / Terrasse-Vaudreuil
44626234;"{\"type\":\"LineString\",\"coordinates\":[[-73.9814424,45.3760304],[-73.9814024,45.3759984],[-73.9813317,45.3759442],[-73.9810195,45.3757048],[-73.9809314,45.3756264],[-73.9808636,45.3755525],[-73.9808058,45.375478],[-73.9807577,45.3753996],[-73.9807224,45.3753222],[-73.9806923,45.375245],[-73.980674,45.3751673],[-73.9806642,45.3750976],[-73.9806614,45.3750177],[-73.9806622,45.3749564],[-73.9806693,45.3748885],[-73.9806849,45.3748282],[-73.9807062,45.374765],[-73.9807329,45.3747011],[-73.9807655,45.3746406],[-73.9808008,45.3745859],[-73.9808481,45.3745316],[-73.9810266,45.3743454],[-73.9810762,45.3742933],[-73.9811257,45.3742359],[-73.9811788,45.3741666],[-73.9812318,45.3740944],[-73.9812706,45.3740299],[-73.981282,45.3740083],[-73.9813041,45.3739566],[-73.9813229,45.3738998],[-73.9813386,45.3738356],[-73.9813543,45.3737596],[-73.981368,45.3736685],[-73.9813735,45.3736044],[-73.9813756,45.373527],[-73.9813671,45.3734386],[-73.9813495,45.3733624],[-73.9813274,45.3732916],[-73.9812961,45.3732089],[-73.9811858,45.3729435],[-73.9811405,45.3728566]]}";19;Rue Régent;2;30;false;false;true;false;false;false;388.0;0;0;2;0;0;false;72344;2186107541;-73.992596;45.38548;72343;762420309;-73.991601;45.387962;0;32;33;9479683;Bus 33 : Service PM;"";EXO;33 PM;Gare Pincourt / Terrasse-Vaudreuil;Gare Pincourt / Terrasse-Vaudreuil
683393896;"{\"type\":\"LineString\",\"coordinates\":[[-73.9814424,45.3760304],[-73.9819428,45.3757101],[-73.9820731,45.3756259],[-73.9821862,45.3755541],[-73.9823139,45.3754758],[-73.9824452,45.3753981],[-73.982569,45.3753276],[-73.9826863,45.3752601],[-73.9828359,45.375179],[-73.9829918,45.3750974]]}";20;Avenue Forest;2;50;false;false;false;false;false;false;160.0;0;0;1;0;0;false;72344;2186107541;-73.992596;45.38548;72343;762420309;-73.991601;45.387962;0;32;33;9479683;Bus 33 : Service PM;"";EXO;33 PM;Gare Pincourt / Terrasse-Vaudreuil;Gare Pincourt / Terrasse-Vaudreuil
771053351;"{\"type\":\"LineString\",\"coordinates\":[[-73.9844619,45.3778791],[-73.9844362,45.3778228],[-73.9844026,45.3777492],[-73.9842027,45.3773186],[-73.9838647,45.3765927],[-73.9838003,45.37645],[-73.9837103,45.376257],[-73.9836115,45.3760408],[-73.9833825,45.3755612],[-73.9833421,45.3754913],[-73.9832982,45.3754318],[-73.983255,45.3753794],[-73.9832002,45.3753197],[-73.9830766,45.3751769],[-73.9830427,45.3751433],[-73.9829918,45.3750974]]}";21;Rue Shamrock;2;30;false;false;true;false;false;false;332.0;0;1;2;0;0;false;72344;2186107541;-73.992596;45.38548;72343;762420309;-73.991601;45.387962;0;32;33;9479683;Bus 33 : Service PM;"";EXO;33 PM;Gare Pincourt / Terrasse-Vaudreuil;Gare Pincourt / Terrasse-Vaudreuil
44626217;"{\"type\":\"LineString\",\"coordinates\":[[-73.9850703,45.3792147],[-73.9850237,45.3791094],[-73.9846489,45.3782885],[-73.9844789,45.3779163],[-73.9844619,45.3778791]]}";22;Rue Shamrock;2;30;false;false;true;false;false;false;156.0;0;1;2;0;0;false;72344;2186107541;-73.992596;45.38548;72343;762420309;-73.991601;45.387962;0;32;33;9479683;Bus 33 : Service PM;"";EXO;33 PM;Gare Pincourt / Terrasse-Vaudreuil;Gare Pincourt / Terrasse-Vaudreuil
683393894;"{\"type\":\"LineString\",\"coordinates\":[[-73.9850703,45.3792147],[-73.9849312,45.3792443],[-73.9831127,45.3796526],[-73.9830155,45.3796813],[-73.9828732,45.3797265],[-73.9826743,45.3797913],[-73.9824983,45.3798558],[-73.9823205,45.3799348],[-73.9821822,45.379999],[-73.9820734,45.3800572]]}";23;Rue Northcote;2;30;false;false;true;false;false;false;254.0;0;0;2;0;0;false;72344;2186107541;-73.992596;45.38548;72343;762420309;-73.991601;45.387962;0;32;33;9479683;Bus 33 : Service PM;"";EXO;33 PM;Gare Pincourt / Terrasse-Vaudreuil;Gare Pincourt / Terrasse-Vaudreuil
683393892;"{\"type\":\"LineString\",\"coordinates\":[[-73.9832903,45.3814055],[-73.9832456,45.3813403],[-73.9830342,45.3810414],[-73.982925,45.3809026],[-73.9826964,45.3806409],[-73.9825349,45.3804806],[-73.9821598,45.380125],[-73.9821314,45.3801031],[-73.9820734,45.3800572]]}";24;Rue Frontenac;2;30;false;false;true;false;false;false;179.0;0;0;1;0;0;false;72344;2186107541;-73.992596;45.38548;72343;762420309;-73.991601;45.387962;0;32;33;9479683;Bus 33 : Service PM;"";EXO;33 PM;Gare Pincourt / Terrasse-Vaudreuil;Gare Pincourt / Terrasse-Vaudreuil
44626251;"{\"type\":\"LineString\",\"coordinates\":[[-73.9785538,45.3823823],[-73.9786492,45.3823797],[-73.9787139,45.3823773],[-73.9796484,45.3823503],[-73.9798319,45.3823455],[-73.9800402,45.3823352],[-73.9802774,45.3823159],[-73.9804991,45.3822906],[-73.9807158,45.3822594],[-73.9809028,45.3822262],[-73.9811404,45.3821757],[-73.9813201,45.3821301],[-73.9815187,45.3820749],[-73.9816299,45.3820389],[-73.9817635,45.3819956],[-73.9820726,45.3818837],[-73.9821863,45.3818366],[-73.982294,45.3817905],[-73.9824075,45.3817327],[-73.9825557,45.3816591],[-73.9827527,45.3815791],[-73.982909,45.3815216],[-73.9831764,45.3814419],[-73.9832903,45.3814055]]}";25;Rue Montcalm;2;30;false;false;true;false;false;false;394.0;0;0;2;0;0;false;72344;2186107541;-73.992596;45.38548;72343;762420309;-73.991601;45.387962;0;32;33;9479683;Bus 33 : Service PM;"";EXO;33 PM;Gare Pincourt / Terrasse-Vaudreuil;Gare Pincourt / Terrasse-Vaudreuil
110165909;"{\"type\":\"LineString\",\"coordinates\":[[-73.9785538,45.3823823],[-73.9785534,45.3821996],[-73.978555,45.3820979],[-73.978559,45.3819942],[-73.9785683,45.3818988],[-73.9785797,45.3818067],[-73.9785922,45.3817114],[-73.9786126,45.3816167],[-73.9786364,45.3815189],[-73.9786717,45.3813771],[-73.9787185,45.3812066],[-73.9787404,45.3811264],[-73.9788132,45.3808526]]}";26;Boulevard de l'Île;2;50;false;false;false;false;false;false;172.0;0;0;0;0;0;false;72344;2186107541;-73.992596;45.38548;72343;762420309;-73.991601;45.387962;0;32;33;9479683;Bus 33 : Service PM;"";EXO;33 PM;Gare Pincourt / Terrasse-Vaudreuil;Gare Pincourt / Terrasse-Vaudreuil
683402667;"{\"type\":\"LineString\",\"coordinates\":[[-73.9788132,45.3808526],[-73.9789478,45.3803773]]}";27;Boulevard de l'Île;2;50;false;false;false;false;false;false;54.0;0;0;0;0;0;false;72344;2186107541;-73.992596;45.38548;72343;762420309;-73.991601;45.387962;0;32;33;9479683;Bus 33 : Service PM;"";EXO;33 PM;Gare Pincourt / Terrasse-Vaudreuil;Gare Pincourt / Terrasse-Vaudreuil
13812758;"{\"type\":\"LineString\",\"coordinates\":[[-73.9789478,45.3803773],[-73.9788814,45.3803689],[-73.9787521,45.3803515],[-73.9786283,45.3803392],[-73.9784839,45.3803284],[-73.9783523,45.3803213],[-73.9782555,45.3803231],[-73.9781504,45.3803379],[-73.9778813,45.3803791]]}";28;Rue des Orioles;2;30;false;false;true;false;false;false;85.0;0;0;1;0;0;false;72344;2186107541;-73.992596;45.38548;72343;762420309;-73.991601;45.387962;0;32;33;9479683;Bus 33 : Service PM;"";EXO;33 PM;Gare Pincourt / Terrasse-Vaudreuil;Gare Pincourt / Terrasse-Vaudreuil
110348648;"{\"type\":\"LineString\",\"coordinates\":[[-73.9778813,45.3803791],[-73.9774442,45.38045],[-73.9773598,45.3804663],[-73.9772891,45.3804871],[-73.9772167,45.3805134],[-73.9771497,45.3805414],[-73.9770916,45.3805728],[-73.9770347,45.3806123],[-73.9769762,45.3806609],[-73.9766877,45.3809204],[-73.9763595,45.381214],[-73.9762745,45.381287]]}";29;Rue des Orioles;2;30;false;false;true;false;false;false;169.0;0;0;0;0;0;false;72344;2186107541;-73.992596;45.38548;72343;762420309;-73.991601;45.387962;0;32;33;9479683;Bus 33 : Service PM;"";EXO;33 PM;Gare Pincourt / Terrasse-Vaudreuil;Gare Pincourt / Terrasse-Vaudreuil
110348642;"{\"type\":\"LineString\",\"coordinates\":[[-73.9762745,45.381287],[-73.9761916,45.3812282],[-73.9751738,45.3804324],[-73.9751393,45.380397],[-73.9751104,45.380364],[-73.975099,45.3803392],[-73.975093,45.3803183]]}";30;Rue des Roitelets;2;30;false;false;true;false;false;false;143.0;0;0;2;0;0;false;72344;2186107541;-73.992596;45.38548;72343;762420309;-73.991601;45.387962;0;32;33;9479683;Bus 33 : Service PM;"";EXO;33 PM;Gare Pincourt / Terrasse-Vaudreuil;Gare Pincourt / Terrasse-Vaudreuil
683393882;"{\"type\":\"LineString\",\"coordinates\":[[-73.975093,45.3803183],[-73.9747872,45.380402],[-73.9744399,45.3804972],[-73.9743571,45.3805214],[-73.9742856,45.380548],[-73.974211,45.3805896],[-73.9741556,45.380633],[-73.9741002,45.3806813],[-73.9739966,45.3807718],[-73.9739019,45.3808504],[-73.9737114,45.3810175],[-73.9735425,45.3811734],[-73.9734711,45.3812365],[-73.9733973,45.3812959],[-73.9733094,45.3813589],[-73.9732179,45.381417],[-73.9730995,45.3814775],[-73.9729316,45.3815484],[-73.9728461,45.3815789],[-73.9727895,45.3816042],[-73.9727583,45.3816318],[-73.9727389,45.38167],[-73.9727316,45.3817071],[-73.9727481,45.3817528],[-73.9728002,45.3818304],[-73.9730559,45.3821834],[-73.9730918,45.3822523],[-73.9731173,45.3823252],[-73.9732681,45.3828423],[-73.9733065,45.3829872],[-73.9733525,45.383098],[-73.9733973,45.3832005],[-73.9734328,45.3832876],[-73.9736749,45.3838157],[-73.9736959,45.3838648]]}";31;Rue Renaissance;2;30;false;false;true;false;false;false;501.0;0;0;3;0;0;false;72344;2186107541;-73.992596;45.38548;72343;762420309;-73.991601;45.387962;0;32;33;9479683;Bus 33 : Service PM;"";EXO;33 PM;Gare Pincourt / Terrasse-Vaudreuil;Gare Pincourt / Terrasse-Vaudreuil
683393880;"{\"type\":\"LineString\",\"coordinates\":[[-73.9743815,45.3853137],[-73.9737288,45.3839492],[-73.9736959,45.3838648]]}";32;Rue Kendall;2;30;false;false;true;false;false;false;170.0;0;0;1;0;0;false;72344;2186107541;-73.992596;45.38548;72343;762420309;-73.991601;45.387962;0;32;33;9479683;Bus 33 : Service PM;"";EXO;33 PM;Gare Pincourt / Terrasse-Vaudreuil;Gare Pincourt / Terrasse-Vaudreuil
44626258;"{\"type\":\"LineString\",\"coordinates\":[[-73.9743815,45.3853137],[-73.9745042,45.3852841],[-73.9753425,45.3850839],[-73.9762623,45.3848573],[-73.9770949,45.3846653],[-73.977192,45.3846429],[-73.9773033,45.3846157],[-73.9779376,45.3844609],[-73.9779982,45.384444],[-73.9780384,45.3844182],[-73.9780627,45.3843898],[-73.97807,45.3843567],[-73.9780582,45.3843144],[-73.9777065,45.383593],[-73.9776686,45.3835153]]}";33;Rue Montfort;2;30;false;false;true;false;false;false;410.0;0;0;4;0;0;false;72344;2186107541;-73.992596;45.38548;72343;762420309;-73.991601;45.387962;0;32;33;9479683;Bus 33 : Service PM;"";EXO;33 PM;Gare Pincourt / Terrasse-Vaudreuil;Gare Pincourt / Terrasse-Vaudreuil
44626260;"{\"type\":\"LineString\",\"coordinates\":[[-73.9776686,45.3835153],[-73.9777644,45.3834927],[-73.97857,45.3833026],[-73.9786791,45.3832787],[-73.9787458,45.3832647]]}";34;Rue Dumas;2;30;false;false;true;false;false;false;89.0;0;0;1;0;0;false;72344;2186107541;-73.992596;45.38548;72343;762420309;-73.991601;45.387962;0;32;33;9479683;Bus 33 : Service PM;"";EXO;33 PM;Gare Pincourt / Terrasse-Vaudreuil;Gare Pincourt / Terrasse-Vaudreuil
683393889;"{\"type\":\"LineString\",\"coordinates\":[[-73.9792909,45.3844304],[-73.9791858,45.3841982],[-73.9791602,45.3841415],[-73.9791304,45.3840822],[-73.9790789,45.3839816],[-73.9789663,45.3837623],[-73.978893,45.3836102],[-73.9788392,45.383495],[-73.9787877,45.3833673],[-73.9787458,45.3832647]]}";35;Boulevard de l'Île;2;50;false;false;false;false;false;false;137.0;0;0;0;0;0;false;72344;2186107541;-73.992596;45.38548;72343;762420309;-73.991601;45.387962;0;32;33;9479683;Bus 33 : Service PM;"";EXO;33 PM;Gare Pincourt / Terrasse-Vaudreuil;Gare Pincourt / Terrasse-Vaudreuil
456701421;"{\"type\":\"LineString\",\"coordinates\":[[-73.9795551,45.3848114],[-73.9795136,45.3847471],[-73.9792909,45.3844304]]}";36;Boulevard de l'Île;1;50;false;true;true;false;false;false;48.0;0;0;0;0;0;false;72344;2186107541;-73.992596;45.38548;72343;762420309;-73.991601;45.387962;0;32;33;9479683;Bus 33 : Service PM;"";EXO;33 PM;Gare Pincourt / Terrasse-Vaudreuil;Gare Pincourt / Terrasse-Vaudreuil
771083253;"{\"type\":\"LineString\",\"coordinates\":[[-73.979736,45.3851817],[-73.9795816,45.3848623],[-73.9795551,45.3848114]]}";37;Boulevard de l'Île;3;50;false;true;true;false;false;false;44.0;0;0;0;0;0;false;72344;2186107541;-73.992596;45.38548;72343;762420309;-73.991601;45.387962;0;32;33;9479683;Bus 33 : Service PM;"";EXO;33 PM;Gare Pincourt / Terrasse-Vaudreuil;Gare Pincourt / Terrasse-Vaudreuil
771117804;"{\"type\":\"LineString\",\"coordinates\":[[-73.9800187,45.3857662],[-73.979736,45.3851817]]}";38;Boulevard de l'Île;2;50;false;true;true;false;false;false;69.0;0;0;0;0;0;false;72344;2186107541;-73.992596;45.38548;72343;762420309;-73.991601;45.387962;0;32;33;9479683;Bus 33 : Service PM;"";EXO;33 PM;Gare Pincourt / Terrasse-Vaudreuil;Gare Pincourt / Terrasse-Vaudreuil
683393903;"{\"type\":\"LineString\",\"coordinates\":[[-73.9804563,45.3866673],[-73.9804062,45.386566],[-73.9803737,45.3865001],[-73.9800187,45.3857662]]}";39;Boulevard de l'Île;2;50;false;true;true;false;false;false;106.0;0;0;0;0;0;false;72344;2186107541;-73.992596;45.38548;72343;762420309;-73.991601;45.387962;0;32;33;9479683;Bus 33 : Service PM;"";EXO;33 PM;Gare Pincourt / Terrasse-Vaudreuil;Gare Pincourt / Terrasse-Vaudreuil
474314583;"{\"type\":\"LineString\",\"coordinates\":[[-73.9932203,45.3852847],[-73.9931056,45.3852927],[-73.9930019,45.3852997],[-73.9927552,45.3853212],[-73.9921812,45.3853864],[-73.9917991,45.3854306],[-73.991606,45.3854537],[-73.9914556,45.3854753],[-73.9912878,45.3855059],[-73.9911433,45.3855383],[-73.9910055,45.3855755],[-73.9908794,45.3856163],[-73.9907778,45.3856527],[-73.990663,45.3857],[-73.9905996,45.3857273],[-73.9903844,45.3858399],[-73.9901031,45.3859936],[-73.9899307,45.3860822],[-73.9898104,45.3861386],[-73.9896832,45.3861915],[-73.9895071,45.3862615],[-73.9893088,45.3863324],[-73.9891631,45.3863839],[-73.9890202,45.3864227],[-73.9888899,45.3864527],[-73.9887255,45.3864821],[-73.9884915,45.386522],[-73.9883036,45.3865544],[-73.9881824,45.3865753],[-73.987554,45.3866783],[-73.9866109,45.3868361],[-73.9853929,45.3870426],[-73.9852334,45.3870693],[-73.9848967,45.3871257],[-73.9846764,45.387161],[-73.9845614,45.3871758],[-73.9844698,45.3871849],[-73.984356,45.387188],[-73.9842414,45.3871853],[-73.9842121,45.3871825],[-73.9841278,45.3871743],[-73.9840284,45.3871563],[-73.9839094,45.3871291],[-73.9838046,45.3870944],[-73.983714,45.3870572],[-73.9836134,45.3870081],[-73.9835222,45.3869524],[-73.9833591,45.3868237],[-73.9833005,45.3867785],[-73.9832407,45.3867288],[-73.9831348,45.3866459],[-73.9830481,45.3865813],[-73.982987,45.3865422],[-73.9829165,45.3865014],[-73.9828149,45.3864562],[-73.9827133,45.3864198],[-73.9826031,45.3863889],[-73.9824888,45.3863636],[-73.9824071,45.3863518],[-73.9823745,45.3863471],[-73.9822645,45.3863372],[-73.9821486,45.3863342],[-73.9820042,45.3863379],[-73.9818861,45.3863506],[-73.9817757,45.3863686],[-73.9816648,45.3863927],[-73.9815551,45.3864174],[-73.981533,45.3864225],[-73.9814394,45.386444],[-73.9805556,45.3866447],[-73.9805237,45.386652],[-73.9804563,45.3866673]]}";40;Boulevard du Traversier;2;50;false;true;true;false;false;false;1078.0;1;1;1;0;0;false;72344;2186107541;-73.992596;45.38548;72343;762420309;-73.991601;45.387962;0;32;33;9479683;Bus 33 : Service PM;"";EXO;33 PM;Gare Pincourt / Terrasse-Vaudreuil;Gare Pincourt / Terrasse-Vaudreuil
474314584;"{\"type\":\"LineString\",\"coordinates\":[[-73.9933728,45.3852729],[-73.9932203,45.3852847]]}";41;Boulevard du Traversier;2;50;false;true;true;false;false;false;13.0;0;0;0;0;0;false;72344;2186107541;-73.992596;45.38548;72343;762420309;-73.991601;45.387962;0;32;33;9479683;Bus 33 : Service PM;"";EXO;33 PM;Gare Pincourt / Terrasse-Vaudreuil;Gare Pincourt / Terrasse-Vaudreuil
683393905;"{\"type\":\"LineString\",\"coordinates\":[[-73.9933994,45.3853596],[-73.9933728,45.3852729]]}";42;Boulevard Cardinal-Léger;3;50;false;true;true;false;false;false;10.0;0;0;0;0;0;false;72344;2186107541;-73.992596;45.38548;72343;762420309;-73.991601;45.387962;0;32;33;9479683;Bus 33 : Service PM;"";EXO;33 PM;Gare Pincourt / Terrasse-Vaudreuil;Gare Pincourt / Terrasse-Vaudreuil
769937209;"{\"type\":\"LineString\",\"coordinates\":[[-73.9934781,45.3857637],[-73.9934504,45.3855986],[-73.9934255,45.3854818],[-73.9934163,45.3854463],[-73.9933994,45.3853596]]}";43;Boulevard Cardinal-Léger;4;50;false;true;true;false;false;false;46.0;1;0;0;0;0;false;72344;2186107541;-73.992596;45.38548;72343;762420309;-73.991601;45.387962;0;32;33;9479683;Bus 33 : Service PM;"";EXO;33 PM;Gare Pincourt / Terrasse-Vaudreuil;Gare Pincourt / Terrasse-Vaudreuil
769937208;"{\"type\":\"LineString\",\"coordinates\":[[-73.9935006,45.3859294],[-73.9934884,45.3858253],[-73.9934781,45.3857637]]}";44;Boulevard Cardinal-Léger;3;50;false;true;true;false;false;false;19.0;0;0;0;0;0;false;72344;2186107541;-73.992596;45.38548;72343;762420309;-73.991601;45.387962;0;32;33;9479683;Bus 33 : Service PM;"";EXO;33 PM;Gare Pincourt / Terrasse-Vaudreuil;Gare Pincourt / Terrasse-Vaudreuil
455057386;"{\"type\":\"LineString\",\"coordinates\":[[-73.9934289,45.3861925],[-73.9934972,45.3861132],[-73.9935014,45.3859889],[-73.9935006,45.3859294]]}";45;Boulevard Cardinal-Léger;2;50;false;true;true;false;false;false;31.0;0;0;0;0;0;false;72344;2186107541;-73.992596;45.38548;72343;762420309;-73.991601;45.387962;0;32;33;9479683;Bus 33 : Service PM;"";EXO;33 PM;Gare Pincourt / Terrasse-Vaudreuil;Gare Pincourt / Terrasse-Vaudreuil
455057389;"{\"type\":\"LineString\",\"coordinates\":[[-73.993233,45.3853707],[-73.9932486,45.3854562],[-73.9932952,45.3856808],[-73.9933204,45.3858734],[-73.9933425,45.3861117],[-73.9933524,45.386121],[-73.9934289,45.3861925]]}";46;Boulevard Cardinal-Léger;2;50;false;true;true;false;false;false;95.0;1;0;0;0;0;false;72344;2186107541;-73.992596;45.38548;72343;762420309;-73.991601;45.387962;0;32;33;9479683;Bus 33 : Service PM;"";EXO;33 PM;Gare Pincourt / Terrasse-Vaudreuil;Gare Pincourt / Terrasse-Vaudreuil
197189768;"{\"type\":\"LineString\",\"coordinates\":[[-73.9934289,45.3861925],[-73.9934263,45.386256],[-73.9934269,45.3862718],[-73.9934483,45.3866308],[-73.9934515,45.3866975]]}";47;Boulevard Cardinal-Léger;4;50;false;false;true;false;false;false;57.0;2;0;0;0;0;false;72344;2186107541;-73.992596;45.38548;72343;762420309;-73.991601;45.387962;0;32;33;9479683;Bus 33 : Service PM;"";EXO;33 PM;Gare Pincourt / Terrasse-Vaudreuil;Gare Pincourt / Terrasse-Vaudreuil
197189777;"{\"type\":\"LineString\",\"coordinates\":[[-73.9926939,45.3867474],[-73.9932091,45.386713],[-73.9933267,45.3867051],[-73.9934515,45.3866975]]}";48;3e Avenue;3;50;false;false;true;false;false;false;60.0;1;0;0;0;0;false;72344;2186107541;-73.992596;45.38548;72343;762420309;-73.991601;45.387962;0;32;33;9479683;Bus 33 : Service PM;"";EXO;33 PM;Gare Pincourt / Terrasse-Vaudreuil;Gare Pincourt / Terrasse-Vaudreuil
47459936;"{\"type\":\"LineString\",\"coordinates\":[[-73.9926939,45.3867474],[-73.9922407,45.3867508],[-73.9919818,45.3867457],[-73.991752,45.3867355],[-73.9916697,45.3867362],[-73.9915939,45.3867436],[-73.9915129,45.3867651],[-73.991459,45.386788],[-73.9914195,45.3868116],[-73.9913848,45.3868362]]}";49;3e Avenue;1;50;false;true;true;false;false;false;106.0;1;0;0;0;0;false;72344;2186107541;-73.992596;45.38548;72343;762420309;-73.991601;45.387962;0;32;33;9479683;Bus 33 : Service PM;"";EXO;33 PM;Gare Pincourt / Terrasse-Vaudreuil;Gare Pincourt / Terrasse-Vaudreuil
533369994;"{\"type\":\"LineString\",\"coordinates\":[[-73.9913848,45.3868362],[-73.9913645,45.3868696],[-73.991356,45.3869016],[-73.9913547,45.3869336],[-73.9913553,45.386968],[-73.9913541,45.3870087]]}";50;3e Avenue;1;50;false;true;true;false;false;false;20.0;0;0;0;0;0;false;72344;2186107541;-73.992596;45.38548;72343;762420309;-73.991601;45.387962;0;32;33;9479683;Bus 33 : Service PM;"";EXO;33 PM;Gare Pincourt / Terrasse-Vaudreuil;Gare Pincourt / Terrasse-Vaudreuil
42321743;"{\"type\":\"LineString\",\"coordinates\":[[-73.9913541,45.3870087],[-73.9914443,45.3869304],[-73.991482,45.3869057],[-73.9915345,45.3868805],[-73.9915688,45.386869],[-73.9917352,45.3868278]]}";51;3e Avenue;1;50;false;true;true;false;false;false;37.0;0;0;0;0;0;false;72344;2186107541;-73.992596;45.38548;72343;762420309;-73.991601;45.387962;0;32;33;9479683;Bus 33 : Service PM;"";EXO;33 PM;Gare Pincourt / Terrasse-Vaudreuil;Gare Pincourt / Terrasse-Vaudreuil
196778897;"{\"type\":\"LineString\",\"coordinates\":[[-73.9913541,45.3870087],[-73.9913393,45.3870266],[-73.9913123,45.3870664],[-73.9912469,45.3871513],[-73.9911904,45.387229],[-73.9911641,45.3872691],[-73.9910918,45.3873722],[-73.9910477,45.3874443],[-73.9910218,45.3874881],[-73.9910003,45.3875293],[-73.9909855,45.3875641]]}";52;3e Avenue;2;40;false;false;true;false;false;false;69.0;0;0;0;0;0;false;72344;2186107541;-73.992596;45.38548;72343;762420309;-73.991601;45.387962;0;32;33;9479683;Bus 33 : Service PM;"";EXO;33 PM;Gare Pincourt / Terrasse-Vaudreuil;Gare Pincourt / Terrasse-Vaudreuil
509079301;"{\"type\":\"LineString\",\"coordinates\":[[-73.9909855,45.3875641],[-73.9909784,45.3875833],[-73.9909714,45.3876114],[-73.9909745,45.3876525],[-73.9909919,45.3877114],[-73.9910088,45.3877542]]}";53;3e Avenue;2;40;false;false;true;false;false;false;22.0;0;1;0;0;0;false;72344;2186107541;-73.992596;45.38548;72343;762420309;-73.991601;45.387962;0;32;33;9479683;Bus 33 : Service PM;"";EXO;33 PM;Gare Pincourt / Terrasse-Vaudreuil;Gare Pincourt / Terrasse-Vaudreuil
682480330;"{\"type\":\"LineString\",\"coordinates\":[[-73.9910088,45.3877542],[-73.9910322,45.3877989],[-73.9910561,45.3878377],[-73.9911004,45.3878955],[-73.9911759,45.3879816],[-73.9912304,45.3880352],[-73.9912962,45.3880976],[-73.991466,45.3882409]]}";54;3e Avenue;2;40;false;false;true;false;false;false;66.0;0;0;0;0;0;false;72344;2186107541;-73.992596;45.38548;72343;762420309;-73.991601;45.387962;0;32;33;9479683;Bus 33 : Service PM;"";EXO;33 PM;Gare Pincourt / Terrasse-Vaudreuil;Gare Pincourt / Terrasse-Vaudreuil
682480328;"{\"type\":\"LineString\",\"coordinates\":[[-73.9916502,45.3881771],[-73.991562,45.3882076],[-73.9915413,45.3882148],[-73.9915011,45.3882287],[-73.991466,45.3882409]]}";55;4e Boulevard;2;40;false;false;true;false;false;false;17.0;0;1;1;0;0;false;72344;2186107541;-73.992596;45.38548;72343;762420309;-73.991601;45.387962;0;32;33;9479683;Bus 33 : Service PM;"";EXO;33 PM;Gare Pincourt / Terrasse-Vaudreuil;Gare Pincourt / Terrasse-Vaudreuil
682480346;"{\"type\":\"LineString\",\"coordinates\":[[-73.9916502,45.3881771],[-73.9915401,45.3880164],[-73.9914876,45.3879399]]}";56;"";1;50;false;true;true;false;true;false;30.0;0;0;0;0;0;false;72344;2186107541;-73.992596;45.38548;72343;762420309;-73.991601;45.387962;1;32;33;9479683;Bus 33 : Service PM;"";EXO;33 PM;Gare Pincourt / Terrasse-Vaudreuil;Gare Pincourt / Terrasse-Vaudreuil
