way_id;shape;index;name;nb_lanes;legal_speed;speed_zone_30;oneway;shares_bike;bike_box;bus_lane;dedicated_bus_lane;length;nb_traffic_signals;nb_crossings;nb_stops;nb_give_ways;nb_lvl_crossings;roundabout;stop_id_orig;node_id_orig;coord_x_orig;coord_y_orig;stop_id_dest;node_id_dest;coord_x_dest;coord_y_dest;nb_neighbouring_ways_bus_stop;ordre_orig;ordre_dest;id_line;line_name;colour;operator;ref;from;to
23442716;"{\"type\":\"LineString\",\"coordinates\":[[-73.8436671,45.6413554],[-73.8439881,45.6411818],[-73.8442124,45.6410797],[-73.8446447,45.6408857]]}";1;Rue Saint-Charles;1;50;false;false;false;false;false;false;93.0;2;0;0;0;0;false;84697;6129483662;-73.843714;45.641381;84718;6129483658;-73.835645;45.635648;1;0;1;9447596;Bus 23 : TERMINUS TERREBONNE;"";EXO;23 E;Cégep Lionel-Groulx;Terminus Terrebonne
46493584;"{\"type\":\"LineString\",\"coordinates\":[[-73.8438792,45.6396826],[-73.8439119,45.6399256],[-73.8439693,45.6400621],[-73.84412,45.640292],[-73.8446447,45.6408857]]}";2;Rue de l'Église;2;50;false;false;false;false;false;false;149.0;2;0;0;0;0;false;84697;6129483662;-73.843714;45.641381;84718;6129483658;-73.835645;45.635648;0;0;1;9447596;Bus 23 : TERMINUS TERREBONNE;"";EXO;23 E;Cégep Lionel-Groulx;Terminus Terrebonne
43189590;"{\"type\":\"LineString\",\"coordinates\":[[-73.8438792,45.6396826],[-73.8438236,45.6392277],[-73.8437198,45.6391004],[-73.8435221,45.6389544],[-73.8430387,45.6386369],[-73.8421588,45.6380366],[-73.8416541,45.6376883],[-73.840822,45.637113],[-73.8402754,45.6367297]]}";3;Rue Saint-Joseph;1;50;false;true;false;false;false;false;443.0;1;0;0;0;0;false;84697;6129483662;-73.843714;45.641381;84718;6129483658;-73.835645;45.635648;0;0;1;9447596;Bus 23 : TERMINUS TERREBONNE;"";EXO;23 E;Cégep Lionel-Groulx;Terminus Terrebonne
43201966;"{\"type\":\"LineString\",\"coordinates\":[[-73.8402754,45.6367297],[-73.8395937,45.6362185]]}";4;Rue Saint-Joseph;1;50;false;false;true;false;false;false;78.0;0;0;0;0;0;false;84697;6129483662;-73.843714;45.641381;84718;6129483658;-73.835645;45.635648;0;0;1;9447596;Bus 23 : TERMINUS TERREBONNE;"";EXO;23 E;Cégep Lionel-Groulx;Terminus Terrebonne
43186725;"{\"type\":\"LineString\",\"coordinates\":[[-73.8395937,45.6362185],[-73.8382252,45.6368616]]}";5;Rue Dion;1;50;false;false;false;false;false;false;129.0;0;0;0;0;0;false;84697;6129483662;-73.843714;45.641381;84718;6129483658;-73.835645;45.635648;0;0;1;9447596;Bus 23 : TERMINUS TERREBONNE;"";EXO;23 E;Cégep Lionel-Groulx;Terminus Terrebonne
25599776;"{\"type\":\"LineString\",\"coordinates\":[[-73.8382252,45.6368616],[-73.837826,45.636579],[-73.8372844,45.6361987],[-73.8372562,45.6361722],[-73.8371568,45.6361067],[-73.8368973,45.6359195],[-73.8366967,45.6357788],[-73.8365841,45.6356998],[-73.8363886,45.6355626]]}";6;Rue Turgeon;1;50;false;false;false;false;false;false;204.0;0;0;0;0;0;false;84697;6129483662;-73.843714;45.641381;84718;6129483658;-73.835645;45.635648;0;0;1;9447596;Bus 23 : TERMINUS TERREBONNE;"";EXO;23 E;Cégep Lionel-Groulx;Terminus Terrebonne
293537864;"{\"type\":\"LineString\",\"coordinates\":[[-73.8363886,45.6355626],[-73.8360357,45.6356141]]}";7;"";1;50;false;false;true;false;false;false;29.0;0;0;0;0;0;false;84697;6129483662;-73.843714;45.641381;84718;6129483658;-73.835645;45.635648;0;0;1;9447596;Bus 23 : TERMINUS TERREBONNE;"";EXO;23 E;Cégep Lionel-Groulx;Terminus Terrebonne
293537867;"{\"type\":\"LineString\",\"coordinates\":[[-73.8360357,45.6356141],[-73.8360384,45.635693],[-73.8360089,45.6357774],[-73.8359547,45.6358045],[-73.8358842,45.6358399]]}";8;"";1;50;false;true;true;false;false;false;31.0;0;0;0;0;0;false;84697;6129483662;-73.843714;45.641381;84718;6129483658;-73.835645;45.635648;0;0;1;9447596;Bus 23 : TERMINUS TERREBONNE;"";EXO;23 E;Cégep Lionel-Groulx;Terminus Terrebonne
676299802;"{\"type\":\"LineString\",\"coordinates\":[[-73.8358842,45.6358399],[-73.8355794,45.6358509],[-73.834757,45.6358805]]}";9;"";1;50;false;true;true;false;false;false;44.0;0;0;0;0;0;false;84697;6129483662;-73.843714;45.641381;84718;6129483658;-73.835645;45.635648;1;0;1;9447596;Bus 23 : TERMINUS TERREBONNE;"";EXO;23 E;Cégep Lionel-Groulx;Terminus Terrebonne
676299802;"{\"type\":\"LineString\",\"coordinates\":[[-73.8358842,45.6358399],[-73.8355794,45.6358509],[-73.834757,45.6358805]]}";1;"";1;50;false;true;true;false;false;false;44.0;0;0;0;0;0;false;84718;6129483658;-73.835645;45.635648;85424;6129481595;-73.822179;45.634333;1;1;2;9447596;Bus 23 : TERMINUS TERREBONNE;"";EXO;23 E;Cégep Lionel-Groulx;Terminus Terrebonne
653256416;"{\"type\":\"LineString\",\"coordinates\":[[-73.834757,45.6358805],[-73.8342691,45.6358967],[-73.8341807,45.6358659],[-73.8339481,45.6356843]]}";2;"";1;50;false;true;true;false;false;false;73.0;0;0;0;0;0;false;84718;6129483658;-73.835645;45.635648;85424;6129481595;-73.822179;45.634333;0;1;2;9447596;Bus 23 : TERMINUS TERREBONNE;"";EXO;23 E;Cégep Lionel-Groulx;Terminus Terrebonne
529203724;"{\"type\":\"LineString\",\"coordinates\":[[-73.8339481,45.6356843],[-73.8337953,45.6356449],[-73.8337255,45.6356355],[-73.8335183,45.6356418],[-73.8331872,45.6356518],[-73.8329976,45.6355146]]}";3;"";1;50;false;false;true;false;false;false;82.0;0;0;0;0;0;false;84718;6129483658;-73.835645;45.635648;85424;6129481595;-73.822179;45.634333;0;1;2;9447596;Bus 23 : TERMINUS TERREBONNE;"";EXO;23 E;Cégep Lionel-Groulx;Terminus Terrebonne
653256415;"{\"type\":\"LineString\",\"coordinates\":[[-73.8312914,45.6343832],[-73.8319665,45.6348309],[-73.8321067,45.6349239],[-73.8322795,45.6350385],[-73.8326436,45.6352799],[-73.8329976,45.6355146]]}";4;Rue Saint-Alphonse;1;50;false;false;true;false;false;false;183.0;0;0;0;0;0;false;84718;6129483658;-73.835645;45.635648;85424;6129481595;-73.822179;45.634333;0;1;2;9447596;Bus 23 : TERMINUS TERREBONNE;"";EXO;23 E;Cégep Lionel-Groulx;Terminus Terrebonne
42904463;"{\"type\":\"LineString\",\"coordinates\":[[-73.8312133,45.6343318],[-73.8312914,45.6343832]]}";5;Rue Saint-Alphonse;1;50;false;false;true;false;false;false;9.0;0;0;0;0;0;false;84718;6129483658;-73.835645;45.635648;85424;6129481595;-73.822179;45.634333;0;1;2;9447596;Bus 23 : TERMINUS TERREBONNE;"";EXO;23 E;Cégep Lionel-Groulx;Terminus Terrebonne
653254442;"{\"type\":\"LineString\",\"coordinates\":[[-73.8312133,45.6343318],[-73.8310774,45.6344094],[-73.8306085,45.6346142],[-73.8303329,45.6347019],[-73.8299105,45.6348048],[-73.8298803,45.6348098],[-73.8296492,45.6348481],[-73.8293823,45.6348668],[-73.8286284,45.6348731],[-73.8285388,45.634874],[-73.8282829,45.634875],[-73.8280665,45.6348758],[-73.827908,45.6348787],[-73.8266672,45.6348759],[-73.8265576,45.6348756],[-73.8263185,45.634875],[-73.8260891,45.6348617]]}";6;Boulevard Desjardins Est;2;40;false;true;true;false;false;false;414.0;0;0;0;0;0;false;84718;6129483658;-73.835645;45.635648;85424;6129481595;-73.822179;45.634333;0;1;2;9447596;Bus 23 : TERMINUS TERREBONNE;"";EXO;23 E;Cégep Lionel-Groulx;Terminus Terrebonne
519985186;"{\"type\":\"LineString\",\"coordinates\":[[-73.8260891,45.6348617],[-73.824991,45.6348491],[-73.8242915,45.6348411],[-73.8237806,45.6347432],[-73.8232529,45.634571],[-73.8228896,45.6344524],[-73.8224992,45.6343731],[-73.8222707,45.6343692],[-73.8220321,45.6344084],[-73.8219021,45.6344515],[-73.8218515,45.6344683],[-73.8216794,45.6345581],[-73.8214734,45.6346842]]}";7;Boulevard Desjardins Est;2;40;false;true;false;false;false;false;190.5;0;0;0;0;0;false;84718;6129483658;-73.835645;45.635648;85424;6129481595;-73.822179;45.634333;1;1;2;9447596;Bus 23 : TERMINUS TERREBONNE;"";EXO;23 E;Cégep Lionel-Groulx;Terminus Terrebonne
519985186;"{\"type\":\"LineString\",\"coordinates\":[[-73.8260891,45.6348617],[-73.824991,45.6348491],[-73.8242915,45.6348411],[-73.8237806,45.6347432],[-73.8232529,45.634571],[-73.8228896,45.6344524],[-73.8224992,45.6343731],[-73.8222707,45.6343692],[-73.8220321,45.6344084],[-73.8219021,45.6344515],[-73.8218515,45.6344683],[-73.8216794,45.6345581],[-73.8214734,45.6346842]]}";1;Boulevard Desjardins Est;2;40;false;true;false;false;false;false;190.5;0;0;0;0;0;false;85424;6129481595;-73.822179;45.634333;84924;6129482885;-73.665683;45.724038;1;2;3;9447596;Bus 23 : TERMINUS TERREBONNE;"";EXO;23 E;Cégep Lionel-Groulx;Terminus Terrebonne
519985188;"{\"type\":\"LineString\",\"coordinates\":[[-73.8214734,45.6346842],[-73.8213132,45.6348362]]}";2;Boulevard Desjardins Est;2;50;false;true;true;false;false;false;21.0;1;0;0;0;0;false;85424;6129481595;-73.822179;45.634333;84924;6129482885;-73.665683;45.724038;0;2;3;9447596;Bus 23 : TERMINUS TERREBONNE;"";EXO;23 E;Cégep Lionel-Groulx;Terminus Terrebonne
500685367;"{\"type\":\"LineString\",\"coordinates\":[[-73.8213132,45.6348362],[-73.8209998,45.6346679],[-73.8199812,45.6341938],[-73.8194268,45.6339614]]}";3;Boulevard Curé-Labelle;2;60;false;true;true;false;false;false;177.0;1;0;0;0;0;false;85424;6129481595;-73.822179;45.634333;84924;6129482885;-73.665683;45.724038;0;2;3;9447596;Bus 23 : TERMINUS TERREBONNE;"";EXO;23 E;Cégep Lionel-Groulx;Terminus Terrebonne
455097998;"{\"type\":\"LineString\",\"coordinates\":[[-73.8194268,45.6339614],[-73.8183998,45.6335307],[-73.817817,45.6332863],[-73.8175487,45.6331738],[-73.8174692,45.6331387],[-73.8170374,45.6329559]]}";4;Boulevard Curé-Labelle;2;60;false;true;true;false;false;false;218.0;0;0;0;0;0;false;85424;6129481595;-73.822179;45.634333;84924;6129482885;-73.665683;45.724038;0;2;3;9447596;Bus 23 : TERMINUS TERREBONNE;"";EXO;23 E;Cégep Lionel-Groulx;Terminus Terrebonne
455097996;"{\"type\":\"LineString\",\"coordinates\":[[-73.8170374,45.6329559],[-73.8164988,45.6327108]]}";5;Boulevard Curé-Labelle;2;60;false;true;true;false;false;false;51.0;1;0;0;0;0;false;85424;6129481595;-73.822179;45.634333;84924;6129482885;-73.665683;45.724038;0;2;3;9447596;Bus 23 : TERMINUS TERREBONNE;"";EXO;23 E;Cégep Lionel-Groulx;Terminus Terrebonne
455316734;"{\"type\":\"LineString\",\"coordinates\":[[-73.8164988,45.6327108],[-73.8163819,45.632666]]}";6;Boulevard Curé-Labelle;2;60;false;true;true;false;false;false;11.0;2;0;0;0;0;false;85424;6129481595;-73.822179;45.634333;84924;6129482885;-73.665683;45.724038;0;2;3;9447596;Bus 23 : TERMINUS TERREBONNE;"";EXO;23 E;Cégep Lionel-Groulx;Terminus Terrebonne
455316735;"{\"type\":\"LineString\",\"coordinates\":[[-73.8163819,45.632666],[-73.8162792,45.6327752]]}";7;"";1;50;false;true;true;false;false;false;15.0;2;0;0;0;0;false;85424;6129481595;-73.822179;45.634333;84924;6129482885;-73.665683;45.724038;0;2;3;9447596;Bus 23 : TERMINUS TERREBONNE;"";EXO;23 E;Cégep Lionel-Groulx;Terminus Terrebonne
40390850;"{\"type\":\"LineString\",\"coordinates\":[[-73.8162792,45.6327752],[-73.8161057,45.6330165],[-73.8160113,45.6332205],[-73.8159888,45.6334104],[-73.8160222,45.6336205],[-73.8161057,45.6337787],[-73.8162406,45.6338861],[-73.8165606,45.6340608],[-73.8169726,45.6342468],[-73.8173932,45.6344629],[-73.8176078,45.6346369],[-73.817685,45.634841],[-73.8177108,45.635093],[-73.8176301,45.6353071]]}";8;"";1;50;false;true;true;false;false;false;346.0;1;0;0;0;0;false;85424;6129481595;-73.822179;45.634333;84924;6129482885;-73.665683;45.724038;0;2;3;9447596;Bus 23 : TERMINUS TERREBONNE;"";EXO;23 E;Cégep Lionel-Groulx;Terminus Terrebonne
481972338;"{\"type\":\"LineString\",\"coordinates\":[[-73.8176301,45.6353071],[-73.8164225,45.636396]]}";9;"";2;50;false;true;true;false;false;false;154.0;0;0;0;0;0;false;85424;6129481595;-73.822179;45.634333;84924;6129482885;-73.665683;45.724038;0;2;3;9447596;Bus 23 : TERMINUS TERREBONNE;"";EXO;23 E;Cégep Lionel-Groulx;Terminus Terrebonne
44625831;"{\"type\":\"LineString\",\"coordinates\":[[-73.8164225,45.636396],[-73.8157104,45.637028]]}";10;"";1;50;false;true;true;false;false;false;90.0;0;0;0;0;0;false;85424;6129481595;-73.822179;45.634333;84924;6129482885;-73.665683;45.724038;0;2;3;9447596;Bus 23 : TERMINUS TERREBONNE;"";EXO;23 E;Cégep Lionel-Groulx;Terminus Terrebonne
44625832;"{\"type\":\"LineString\",\"coordinates\":[[-73.8157104,45.637028],[-73.8151432,45.6374837],[-73.8136559,45.6385137]]}";11;"";2;50;false;true;true;false;false;false;230.0;0;0;0;0;0;false;85424;6129481595;-73.822179;45.634333;84924;6129482885;-73.665683;45.724038;0;2;3;9447596;Bus 23 : TERMINUS TERREBONNE;"";EXO;23 E;Cégep Lionel-Groulx;Terminus Terrebonne
676642389;"{\"type\":\"LineString\",\"coordinates\":[[-73.8136559,45.6385137],[-73.8125151,45.6393276]]}";12;"";3;50;false;true;true;false;false;false;127.0;1;0;0;0;0;false;85424;6129481595;-73.822179;45.634333;84924;6129482885;-73.665683;45.724038;0;2;3;9447596;Bus 23 : TERMINUS TERREBONNE;"";EXO;23 E;Cégep Lionel-Groulx;Terminus Terrebonne
221964521;"{\"type\":\"LineString\",\"coordinates\":[[-73.8125151,45.6393276],[-73.81245,45.6393861],[-73.811023,45.6408295]]}";13;"";3;50;false;true;true;false;false;false;204.0;2;0;0;0;0;false;85424;6129481595;-73.822179;45.634333;84924;6129482885;-73.665683;45.724038;0;2;3;9447596;Bus 23 : TERMINUS TERREBONNE;"";EXO;23 E;Cégep Lionel-Groulx;Terminus Terrebonne
221964520;"{\"type\":\"LineString\",\"coordinates\":[[-73.811023,45.6408295],[-73.8103912,45.6414628]]}";14;"";2;50;false;true;true;false;false;false;86.0;0;0;0;0;0;false;85424;6129481595;-73.822179;45.634333;84924;6129482885;-73.665683;45.724038;0;2;3;9447596;Bus 23 : TERMINUS TERREBONNE;"";EXO;23 E;Cégep Lionel-Groulx;Terminus Terrebonne
221964522;"{\"type\":\"LineString\",\"coordinates\":[[-73.8103912,45.6414628],[-73.8096606,45.6421949],[-73.8088883,45.6429179],[-73.8078448,45.64387],[-73.8071855,45.6444824],[-73.8070698,45.6446537]]}";15;"";1;50;false;true;true;false;false;false;440.0;0;0;0;0;0;false;85424;6129481595;-73.822179;45.634333;84924;6129482885;-73.665683;45.724038;0;2;3;9447596;Bus 23 : TERMINUS TERREBONNE;"";EXO;23 E;Cégep Lionel-Groulx;Terminus Terrebonne
46492587;"{\"type\":\"LineString\",\"coordinates\":[[-73.8070698,45.6446537],[-73.8057591,45.6457882],[-73.804918,45.6466043],[-73.8041713,45.6475043],[-73.8036219,45.6482423],[-73.8018529,45.6510622]]}";16;Autoroute de la Rive-Nord;2;100;false;true;true;false;false;false;825.0;0;0;0;0;0;false;85424;6129481595;-73.822179;45.634333;84924;6129482885;-73.665683;45.724038;0;2;3;9447596;Bus 23 : TERMINUS TERREBONNE;"";EXO;23 E;Cégep Lionel-Groulx;Terminus Terrebonne
44812678;"{\"type\":\"LineString\",\"coordinates\":[[-73.8018529,45.6510622],[-73.8015285,45.6515721]]}";17;Autoroute de la Rive-Nord;2;100;false;true;true;false;false;false;63.0;0;0;0;0;0;false;85424;6129481595;-73.822179;45.634333;84924;6129482885;-73.665683;45.724038;0;2;3;9447596;Bus 23 : TERMINUS TERREBONNE;"";EXO;23 E;Cégep Lionel-Groulx;Terminus Terrebonne
674530018;"{\"type\":\"LineString\",\"coordinates\":[[-73.8015285,45.6515721],[-73.801474,45.6516642]]}";18;Autoroute de la Rive-Nord;2;100;false;true;true;false;false;false;12.0;0;0;0;0;0;false;85424;6129481595;-73.822179;45.634333;84924;6129482885;-73.665683;45.724038;0;2;3;9447596;Bus 23 : TERMINUS TERREBONNE;"";EXO;23 E;Cégep Lionel-Groulx;Terminus Terrebonne
676575969;"{\"type\":\"LineString\",\"coordinates\":[[-73.801474,45.6516642],[-73.7996051,45.6546501]]}";19;Autoroute de la Rive-Nord;2;100;false;true;true;false;false;false;363.0;0;0;0;0;0;false;85424;6129481595;-73.822179;45.634333;84924;6129482885;-73.665683;45.724038;0;2;3;9447596;Bus 23 : TERMINUS TERREBONNE;"";EXO;23 E;Cégep Lionel-Groulx;Terminus Terrebonne
674530017;"{\"type\":\"LineString\",\"coordinates\":[[-73.7996051,45.6546501],[-73.7988326,45.655568],[-73.7979829,45.6563239],[-73.7968842,45.6571038],[-73.7957856,45.6576857],[-73.7942407,45.6583096],[-73.7912795,45.6594254],[-73.7898633,45.6600613],[-73.7858779,45.6620786],[-73.7855839,45.6622172]]}";20;Autoroute de la Rive-Nord;2;100;false;true;true;false;false;false;1397.0;0;0;0;0;0;false;85424;6129481595;-73.822179;45.634333;84924;6129482885;-73.665683;45.724038;0;2;3;9447596;Bus 23 : TERMINUS TERREBONNE;"";EXO;23 E;Cégep Lionel-Groulx;Terminus Terrebonne
46492460;"{\"type\":\"LineString\",\"coordinates\":[[-73.7855839,45.6622172],[-73.7797818,45.665067],[-73.7775466,45.6662037],[-73.7739846,45.6679252],[-73.7728516,45.668465],[-73.7674066,45.6711847],[-73.7652447,45.6722377],[-73.764672,45.6725374],[-73.7643359,45.6727407],[-73.7639428,45.6729937],[-73.7637479,45.6731384],[-73.763543,45.673299],[-73.7633256,45.6734832],[-73.7631647,45.6736181],[-73.7630016,45.6737678],[-73.7623889,45.6744266],[-73.7618567,45.6752482],[-73.7614018,45.6762737],[-73.7608954,45.6802677],[-73.760609,45.6830426]]}";21;Autoroute de la Rive-Nord;2;100;false;true;true;false;false;false;3242.0;0;0;0;0;0;false;85424;6129481595;-73.822179;45.634333;84924;6129482885;-73.665683;45.724038;0;2;3;9447596;Bus 23 : TERMINUS TERREBONNE;"";EXO;23 E;Cégep Lionel-Groulx;Terminus Terrebonne
545484123;"{\"type\":\"LineString\",\"coordinates\":[[-73.760609,45.6830426],[-73.7605378,45.683732]]}";22;Autoroute de la Rive-Nord;2;100;false;true;true;false;false;false;77.0;0;0;0;0;0;false;85424;6129481595;-73.822179;45.634333;84924;6129482885;-73.665683;45.724038;0;2;3;9447596;Bus 23 : TERMINUS TERREBONNE;"";EXO;23 E;Cégep Lionel-Groulx;Terminus Terrebonne
473723967;"{\"type\":\"LineString\",\"coordinates\":[[-73.7605378,45.683732],[-73.760329,45.6857543],[-73.7600715,45.6866358]]}";23;Autoroute de la Rive-Nord;2;100;false;true;true;false;false;false;326.0;0;0;0;0;0;false;85424;6129481595;-73.822179;45.634333;84924;6129482885;-73.665683;45.724038;0;2;3;9447596;Bus 23 : TERMINUS TERREBONNE;"";EXO;23 E;Cégep Lionel-Groulx;Terminus Terrebonne
473725572;"{\"type\":\"LineString\",\"coordinates\":[[-73.7600715,45.6866358],[-73.7595736,45.6875471],[-73.7588012,45.6884645],[-73.7579085,45.689214],[-73.7569301,45.6898315],[-73.7471047,45.6949049]]}";24;Autoroute de la Rive-Nord;2;100;false;true;true;false;false;false;1388.0;0;0;0;0;0;false;85424;6129481595;-73.822179;45.634333;84924;6129482885;-73.665683;45.724038;0;2;3;9447596;Bus 23 : TERMINUS TERREBONNE;"";EXO;23 E;Cégep Lionel-Groulx;Terminus Terrebonne
473725571;"{\"type\":\"LineString\",\"coordinates\":[[-73.7471047,45.6949049],[-73.7459819,45.6954909]]}";25;Autoroute de la Rive-Nord;2;100;false;true;true;false;false;false;109.0;0;0;0;0;0;false;85424;6129481595;-73.822179;45.634333;84924;6129482885;-73.665683;45.724038;0;2;3;9447596;Bus 23 : TERMINUS TERREBONNE;"";EXO;23 E;Cégep Lionel-Groulx;Terminus Terrebonne
473725570;"{\"type\":\"LineString\",\"coordinates\":[[-73.7459819,45.6954909],[-73.7452433,45.6958658],[-73.7390119,45.6990809]]}";26;Autoroute de la Rive-Nord;2;100;false;true;true;false;false;false;674.0;0;0;0;0;0;false;85424;6129481595;-73.822179;45.634333;84924;6129482885;-73.665683;45.724038;0;2;3;9447596;Bus 23 : TERMINUS TERREBONNE;"";EXO;23 E;Cégep Lionel-Groulx;Terminus Terrebonne
679593557;"{\"type\":\"LineString\",\"coordinates\":[[-73.7390119,45.6990809],[-73.7375724,45.6998389]]}";27;Autoroute de la Rive-Nord;2;100;false;true;true;false;false;false;141.0;0;0;0;0;0;false;85424;6129481595;-73.822179;45.634333;84924;6129482885;-73.665683;45.724038;0;2;3;9447596;Bus 23 : TERMINUS TERREBONNE;"";EXO;23 E;Cégep Lionel-Groulx;Terminus Terrebonne
473725946;"{\"type\":\"LineString\",\"coordinates\":[[-73.7375724,45.6998389],[-73.7354724,45.7009104],[-73.7231556,45.7072581]]}";28;Autoroute de la Rive-Nord;2;100;false;true;true;false;false;false;1392.0;0;0;0;0;0;false;85424;6129481595;-73.822179;45.634333;84924;6129482885;-73.665683;45.724038;0;2;3;9447596;Bus 23 : TERMINUS TERREBONNE;"";EXO;23 E;Cégep Lionel-Groulx;Terminus Terrebonne
473725943;"{\"type\":\"LineString\",\"coordinates\":[[-73.7231556,45.7072581],[-73.7113594,45.713349]]}";29;Autoroute de la Rive-Nord;2;100;false;true;true;false;false;false;1141.0;0;0;0;0;0;false;85424;6129481595;-73.822179;45.634333;84924;6129482885;-73.665683;45.724038;0;2;3;9447596;Bus 23 : TERMINUS TERREBONNE;"";EXO;23 E;Cégep Lionel-Groulx;Terminus Terrebonne
473725947;"{\"type\":\"LineString\",\"coordinates\":[[-73.7113594,45.713349],[-73.7103154,45.7139168],[-73.7078519,45.7151809]]}";30;Autoroute de la Rive-Nord;2;100;false;true;true;false;false;false;341.0;0;0;0;0;0;false;85424;6129481595;-73.822179;45.634333;84924;6129482885;-73.665683;45.724038;0;2;3;9447596;Bus 23 : TERMINUS TERREBONNE;"";EXO;23 E;Cégep Lionel-Groulx;Terminus Terrebonne
473725944;"{\"type\":\"LineString\",\"coordinates\":[[-73.7078519,45.7151809],[-73.7074305,45.7153972]]}";31;Autoroute de la Rive-Nord;2;100;false;true;true;false;false;false;41.0;0;0;0;0;0;false;85424;6129481595;-73.822179;45.634333;84924;6129482885;-73.665683;45.724038;0;2;3;9447596;Bus 23 : TERMINUS TERREBONNE;"";EXO;23 E;Cégep Lionel-Groulx;Terminus Terrebonne
473727642;"{\"type\":\"LineString\",\"coordinates\":[[-73.7074305,45.7153972],[-73.7010028,45.718729]]}";32;Autoroute de la Rive-Nord;2;100;false;true;true;false;false;false;623.0;0;0;0;0;0;false;85424;6129481595;-73.822179;45.634333;84924;6129482885;-73.665683;45.724038;0;2;3;9447596;Bus 23 : TERMINUS TERREBONNE;"";EXO;23 E;Cégep Lionel-Groulx;Terminus Terrebonne
680114118;"{\"type\":\"LineString\",\"coordinates\":[[-73.7010028,45.718729],[-73.6963421,45.7211261]]}";33;Autoroute de la Rive-Nord;2;100;false;true;true;false;false;false;450.0;0;0;0;0;0;false;85424;6129481595;-73.822179;45.634333;84924;6129482885;-73.665683;45.724038;0;2;3;9447596;Bus 23 : TERMINUS TERREBONNE;"";EXO;23 E;Cégep Lionel-Groulx;Terminus Terrebonne
473727639;"{\"type\":\"LineString\",\"coordinates\":[[-73.6963421,45.7211261],[-73.6953637,45.7216293],[-73.6940076,45.7222046],[-73.69266,45.722672],[-73.6914842,45.7230075]]}";34;Autoroute de la Rive-Nord;2;100;false;true;true;false;false;false;434.0;0;0;0;0;0;false;85424;6129481595;-73.822179;45.634333;84924;6129482885;-73.665683;45.724038;0;2;3;9447596;Bus 23 : TERMINUS TERREBONNE;"";EXO;23 E;Cégep Lionel-Groulx;Terminus Terrebonne
473727633;"{\"type\":\"LineString\",\"coordinates\":[[-73.6914842,45.7230075],[-73.6899135,45.7233431],[-73.6877591,45.7236547],[-73.681751,45.7243857],[-73.6776086,45.7249031]]}";35;Autoroute de la Rive-Nord;2;100;false;true;true;false;false;false;1101.0;0;0;0;0;0;false;85424;6129481595;-73.822179;45.634333;84924;6129482885;-73.665683;45.724038;0;2;3;9447596;Bus 23 : TERMINUS TERREBONNE;"";EXO;23 E;Cégep Lionel-Groulx;Terminus Terrebonne
545479648;"{\"type\":\"LineString\",\"coordinates\":[[-73.6776086,45.7249031],[-73.676305,45.7250659]]}";36;Autoroute de la Rive-Nord;2;100;false;true;true;false;false;false;103.0;0;0;0;0;0;false;85424;6129481595;-73.822179;45.634333;84924;6129482885;-73.665683;45.724038;0;2;3;9447596;Bus 23 : TERMINUS TERREBONNE;"";EXO;23 E;Cégep Lionel-Groulx;Terminus Terrebonne
473727631;"{\"type\":\"LineString\",\"coordinates\":[[-73.676305,45.7250659],[-73.6745068,45.7252905],[-73.6732169,45.7254479]]}";37;Autoroute de la Rive-Nord;2;100;false;true;true;false;false;false;244.0;0;0;0;0;0;false;85424;6129481595;-73.822179;45.634333;84924;6129482885;-73.665683;45.724038;0;2;3;9447596;Bus 23 : TERMINUS TERREBONNE;"";EXO;23 E;Cégep Lionel-Groulx;Terminus Terrebonne
23616436;"{\"type\":\"LineString\",\"coordinates\":[[-73.6732169,45.7254479],[-73.672438,45.725457],[-73.668819,45.725533],[-73.667927,45.72554],[-73.667578,45.7255325]]}";38;"";1;50;false;true;true;false;false;false;439.0;1;0;0;0;0;false;85424;6129481595;-73.822179;45.634333;84924;6129482885;-73.665683;45.724038;0;2;3;9447596;Bus 23 : TERMINUS TERREBONNE;"";EXO;23 E;Cégep Lionel-Groulx;Terminus Terrebonne
455498688;"{\"type\":\"LineString\",\"coordinates\":[[-73.667578,45.7255325],[-73.6668727,45.7250574],[-73.6663319,45.724704],[-73.6662021,45.7246192],[-73.6654699,45.7241221],[-73.6652089,45.72395]]}";39;Chemin Gascon;1;50;false;true;true;false;false;false;127.5;1;0;0;0;0;false;85424;6129481595;-73.822179;45.634333;84924;6129482885;-73.665683;45.724038;1;2;3;9447596;Bus 23 : TERMINUS TERREBONNE;"";EXO;23 E;Cégep Lionel-Groulx;Terminus Terrebonne
455498688;"{\"type\":\"LineString\",\"coordinates\":[[-73.667578,45.7255325],[-73.6668727,45.7250574],[-73.6663319,45.724704],[-73.6662021,45.7246192],[-73.6654699,45.7241221],[-73.6652089,45.72395]]}";1;Chemin Gascon;1;50;false;true;true;false;false;false;127.5;1;0;0;0;0;false;84924;6129482885;-73.665683;45.724038;84872;6129482929;-73.662465;45.72194;1;3;4;9447596;Bus 23 : TERMINUS TERREBONNE;"";EXO;23 E;Cégep Lionel-Groulx;Terminus Terrebonne
678900135;"{\"type\":\"LineString\",\"coordinates\":[[-73.6652089,45.72395],[-73.6642528,45.7233103],[-73.6640988,45.7232647]]}";2;Chemin Gascon;1;50;false;true;true;false;false;false;116.0;0;0;0;0;0;false;84924;6129482885;-73.665683;45.724038;84872;6129482929;-73.662465;45.72194;0;3;4;9447596;Bus 23 : TERMINUS TERREBONNE;"";EXO;23 E;Cégep Lionel-Groulx;Terminus Terrebonne
455498689;"{\"type\":\"LineString\",\"coordinates\":[[-73.6588368,45.7197388],[-73.65993,45.7204702],[-73.661124,45.7212658],[-73.6612549,45.7213536],[-73.6618342,45.7217409],[-73.6640988,45.7232647]]}";3;Chemin Gascon;1;50;false;false;true;false;false;false;283.5;0;0;0;0;0;false;84924;6129482885;-73.665683;45.724038;84872;6129482929;-73.662465;45.72194;1;3;4;9447596;Bus 23 : TERMINUS TERREBONNE;"";EXO;23 E;Cégep Lionel-Groulx;Terminus Terrebonne
455498689;"{\"type\":\"LineString\",\"coordinates\":[[-73.6588368,45.7197388],[-73.65993,45.7204702],[-73.661124,45.7212658],[-73.6612549,45.7213536],[-73.6618342,45.7217409],[-73.6640988,45.7232647]]}";1;Chemin Gascon;1;50;false;false;true;false;false;false;283.5;0;0;0;0;0;false;84754;6129483630;-73.660243;45.72055;85488;6129481585;-73.657693;45.718861;1;5;6;9447596;Bus 23 : TERMINUS TERREBONNE;"";EXO;23 E;Cégep Lionel-Groulx;Terminus Terrebonne
678900134;"{\"type\":\"LineString\",\"coordinates\":[[-73.6569773,45.7184906],[-73.6571129,45.7185979],[-73.6575531,45.7188768],[-73.6582981,45.7193752],[-73.6588368,45.7197388]]}";2;Chemin Gascon;1;50;false;false;true;false;false;false;100.5;0;0;0;0;0;false;84754;6129483630;-73.660243;45.72055;85488;6129481585;-73.657693;45.718861;1;5;6;9447596;Bus 23 : TERMINUS TERREBONNE;"";EXO;23 E;Cégep Lionel-Groulx;Terminus Terrebonne
678900134;"{\"type\":\"LineString\",\"coordinates\":[[-73.6569773,45.7184906],[-73.6571129,45.7185979],[-73.6575531,45.7188768],[-73.6582981,45.7193752],[-73.6588368,45.7197388]]}";1;Chemin Gascon;1;50;false;false;true;false;false;false;100.5;0;0;0;0;0;false;85488;6129481585;-73.657693;45.718861;84789;6129483597;-73.655343;45.71638;1;6;7;9447596;Bus 23 : TERMINUS TERREBONNE;"";EXO;23 E;Cégep Lionel-Groulx;Terminus Terrebonne
473290132;"{\"type\":\"LineString\",\"coordinates\":[[-73.6545518,45.7152469],[-73.6551261,45.7164157],[-73.6560712,45.7176675],[-73.6564652,45.718081],[-73.6569773,45.7184906]]}";2;Chemin Gascon;1;50;false;false;true;false;false;false;205.5;0;0;0;0;0;false;85488;6129481585;-73.657693;45.718861;84789;6129483597;-73.655343;45.71638;1;6;7;9447596;Bus 23 : TERMINUS TERREBONNE;"";EXO;23 E;Cégep Lionel-Groulx;Terminus Terrebonne
473290132;"{\"type\":\"LineString\",\"coordinates\":[[-73.6545518,45.7152469],[-73.6551261,45.7164157],[-73.6560712,45.7176675],[-73.6564652,45.718081],[-73.6569773,45.7184906]]}";1;Chemin Gascon;1;50;false;false;true;false;false;false;205.5;0;0;0;0;0;false;84789;6129483597;-73.655343;45.71638;84999;6129482233;-73.654335;45.7144;1;7;8;9447596;Bus 23 : TERMINUS TERREBONNE;"";EXO;23 E;Cégep Lionel-Groulx;Terminus Terrebonne
473290128;"{\"type\":\"LineString\",\"coordinates\":[[-73.6545518,45.7152469],[-73.654473,45.714991],[-73.6541601,45.7142556]]}";2;Chemin Gascon;1;50;false;true;true;false;false;false;57.5;0;0;0;0;0;false;84789;6129483597;-73.655343;45.71638;84999;6129482233;-73.654335;45.7144;1;7;8;9447596;Bus 23 : TERMINUS TERREBONNE;"";EXO;23 E;Cégep Lionel-Groulx;Terminus Terrebonne
473290128;"{\"type\":\"LineString\",\"coordinates\":[[-73.6545518,45.7152469],[-73.654473,45.714991],[-73.6541601,45.7142556]]}";1;Chemin Gascon;1;50;false;true;true;false;false;false;57.5;0;0;0;0;0;false;84999;6129482233;-73.654335;45.7144;85004;6129482229;-73.652176;45.709604;1;8;9;9447596;Bus 23 : TERMINUS TERREBONNE;"";EXO;23 E;Cégep Lionel-Groulx;Terminus Terrebonne
679583075;"{\"type\":\"LineString\",\"coordinates\":[[-73.6541601,45.7142556],[-73.6537803,45.7133956],[-73.6536254,45.7131908]]}";2;Chemin Gascon;1;50;false;true;true;false;false;false;126.0;0;0;0;0;0;false;84999;6129482233;-73.654335;45.7144;85004;6129482229;-73.652176;45.709604;0;8;9;9447596;Bus 23 : TERMINUS TERREBONNE;"";EXO;23 E;Cégep Lionel-Groulx;Terminus Terrebonne
473290135;"{\"type\":\"LineString\",\"coordinates\":[[-73.6522013,45.7100069],[-73.6522575,45.7101334],[-73.6525375,45.710764],[-73.6536254,45.7131908]]}";3;Chemin Gascon;1;50;false;false;true;false;false;false;371.0;0;0;0;0;0;false;84999;6129482233;-73.654335;45.7144;85004;6129482229;-73.652176;45.709604;0;8;9;9447596;Bus 23 : TERMINUS TERREBONNE;"";EXO;23 E;Cégep Lionel-Groulx;Terminus Terrebonne
472911199;"{\"type\":\"LineString\",\"coordinates\":[[-73.6522013,45.7100069],[-73.6520252,45.7094878],[-73.6518785,45.7091157]]}";4;Chemin Gascon;1;50;false;true;true;false;false;false;51.5;0;0;0;0;0;false;84999;6129482233;-73.654335;45.7144;85004;6129482229;-73.652176;45.709604;1;8;9;9447596;Bus 23 : TERMINUS TERREBONNE;"";EXO;23 E;Cégep Lionel-Groulx;Terminus Terrebonne
472911199;"{\"type\":\"LineString\",\"coordinates\":[[-73.6522013,45.7100069],[-73.6520252,45.7094878],[-73.6518785,45.7091157]]}";1;Chemin Gascon;1;50;false;true;true;false;false;false;51.5;0;0;0;0;0;false;85004;6129482229;-73.652176;45.709604;84841;6129482953;-73.650291;45.705495;1;9;10;9447596;Bus 23 : TERMINUS TERREBONNE;"";EXO;23 E;Cégep Lionel-Groulx;Terminus Terrebonne
679583074;"{\"type\":\"LineString\",\"coordinates\":[[-73.6518785,45.7091157],[-73.6518347,45.7090162]]}";2;Chemin Gascon;1;50;false;true;true;false;false;false;12.0;0;0;0;0;0;false;85004;6129482229;-73.652176;45.709604;84841;6129482953;-73.650291;45.705495;0;9;10;9447596;Bus 23 : TERMINUS TERREBONNE;"";EXO;23 E;Cégep Lionel-Groulx;Terminus Terrebonne
473297336;"{\"type\":\"LineString\",\"coordinates\":[[-73.6518347,45.7090162],[-73.6517627,45.7088661],[-73.6517111,45.7087551]]}";3;Boulevard Moody;1;50;false;true;true;false;false;false;31.0;0;0;0;0;0;false;85004;6129482229;-73.652176;45.709604;84841;6129482953;-73.650291;45.705495;0;9;10;9447596;Bus 23 : TERMINUS TERREBONNE;"";EXO;23 E;Cégep Lionel-Groulx;Terminus Terrebonne
473297337;"{\"type\":\"LineString\",\"coordinates\":[[-73.6517111,45.7087551],[-73.6515333,45.708404],[-73.6513456,45.7080458]]}";4;Boulevard Moody;1;50;false;true;true;false;false;false;84.0;0;0;0;0;0;false;85004;6129482229;-73.652176;45.709604;84841;6129482953;-73.650291;45.705495;0;9;10;9447596;Bus 23 : TERMINUS TERREBONNE;"";EXO;23 E;Cégep Lionel-Groulx;Terminus Terrebonne
472911205;"{\"type\":\"LineString\",\"coordinates\":[[-73.6513456,45.7080458],[-73.6510092,45.7073822]]}";5;Boulevard Moody;1;50;false;true;true;false;false;false;79.0;0;0;0;0;0;false;85004;6129482229;-73.652176;45.709604;84841;6129482953;-73.650291;45.705495;0;9;10;9447596;Bus 23 : TERMINUS TERREBONNE;"";EXO;23 E;Cégep Lionel-Groulx;Terminus Terrebonne
472911206;"{\"type\":\"LineString\",\"coordinates\":[[-73.6510092,45.7073822],[-73.6509814,45.7073274]]}";6;Boulevard Moody;1;50;false;true;true;false;false;false;7.0;0;0;0;0;0;false;85004;6129482229;-73.652176;45.709604;84841;6129482953;-73.650291;45.705495;0;9;10;9447596;Bus 23 : TERMINUS TERREBONNE;"";EXO;23 E;Cégep Lionel-Groulx;Terminus Terrebonne
472911229;"{\"type\":\"LineString\",\"coordinates\":[[-73.6509814,45.7073274],[-73.6499962,45.705384],[-73.6498862,45.705167],[-73.649522,45.7044487],[-73.649486,45.7043777],[-73.6485947,45.7026193],[-73.6485443,45.7025199],[-73.6476514,45.7007585]]}";7;Boulevard Moody;1;50;false;true;true;false;false;false;387.5;0;0;0;0;0;false;85004;6129482229;-73.652176;45.709604;84841;6129482953;-73.650291;45.705495;1;9;10;9447596;Bus 23 : TERMINUS TERREBONNE;"";EXO;23 E;Cégep Lionel-Groulx;Terminus Terrebonne
472911229;"{\"type\":\"LineString\",\"coordinates\":[[-73.6509814,45.7073274],[-73.6499962,45.705384],[-73.6498862,45.705167],[-73.649522,45.7044487],[-73.649486,45.7043777],[-73.6485947,45.7026193],[-73.6485443,45.7025199],[-73.6476514,45.7007585]]}";1;Boulevard Moody;1;50;false;true;true;false;false;false;387.5;0;0;0;0;0;false;84837;6129482956;-73.64921;45.70323;84875;6129482927;-73.652978;45.698038;1;11;12;9447596;Bus 23 : TERMINUS TERREBONNE;"";EXO;23 E;Cégep Lionel-Groulx;Terminus Terrebonne
472911225;"{\"type\":\"LineString\",\"coordinates\":[[-73.6476514,45.7007585],[-73.6476096,45.7005954],[-73.6475385,45.7004381],[-73.647501,45.7003182],[-73.6475092,45.700267],[-73.6475382,45.7002315],[-73.6476348,45.7001917],[-73.6478477,45.7001344]]}";2;"";1;50;false;true;true;false;false;false;88.0;0;0;0;0;0;false;84837;6129482956;-73.64921;45.70323;84875;6129482927;-73.652978;45.698038;0;11;12;9447596;Bus 23 : TERMINUS TERREBONNE;"";EXO;23 E;Cégep Lionel-Groulx;Terminus Terrebonne
32824035;"{\"type\":\"LineString\",\"coordinates\":[[-73.6478477,45.7001344],[-73.6494132,45.6999961]]}";3;Boulevard des Seigneurs;1;50;false;true;false;false;false;false;123.0;1;0;0;0;0;false;84837;6129482956;-73.64921;45.70323;84875;6129482927;-73.652978;45.698038;0;11;12;9447596;Bus 23 : TERMINUS TERREBONNE;"";EXO;23 E;Cégep Lionel-Groulx;Terminus Terrebonne
460511882;"{\"type\":\"LineString\",\"coordinates\":[[-73.6494132,45.6999961],[-73.6515641,45.6998436]]}";4;Boulevard des Seigneurs;1;50;false;true;false;false;false;false;169.0;1;0;0;0;0;false;84837;6129482956;-73.64921;45.70323;84875;6129482927;-73.652978;45.698038;0;11;12;9447596;Bus 23 : TERMINUS TERREBONNE;"";EXO;23 E;Cégep Lionel-Groulx;Terminus Terrebonne
177354202;"{\"type\":\"LineString\",\"coordinates\":[[-73.6515641,45.6998436],[-73.6522207,45.6997971]]}";5;Boulevard des Seigneurs;1;50;false;true;false;false;false;false;52.0;0;0;0;0;0;false;84837;6129482956;-73.64921;45.70323;84875;6129482927;-73.652978;45.698038;0;11;12;9447596;Bus 23 : TERMINUS TERREBONNE;"";EXO;23 E;Cégep Lionel-Groulx;Terminus Terrebonne
177354201;"{\"type\":\"LineString\",\"coordinates\":[[-73.6522207,45.6997971],[-73.6541584,45.6996598],[-73.6541994,45.6996569],[-73.6543243,45.699648]]}";6;Boulevard des Seigneurs;3;50;false;true;false;false;false;false;165.0;1;1;0;0;0;false;84837;6129482956;-73.64921;45.70323;84875;6129482927;-73.652978;45.698038;0;11;12;9447596;Bus 23 : TERMINUS TERREBONNE;"";EXO;23 E;Cégep Lionel-Groulx;Terminus Terrebonne
678903376;"{\"type\":\"LineString\",\"coordinates\":[[-73.6543243,45.699648],[-73.6543935,45.6995058]]}";7;Côte de Terrebonne;1;50;false;true;true;false;false;false;17.0;0;0;0;0;0;false;84837;6129482956;-73.64921;45.70323;84875;6129482927;-73.652978;45.698038;0;11;12;9447596;Bus 23 : TERMINUS TERREBONNE;"";EXO;23 E;Cégep Lionel-Groulx;Terminus Terrebonne
678900124;"{\"type\":\"LineString\",\"coordinates\":[[-73.6543935,45.6995058],[-73.6543959,45.6994455],[-73.6544061,45.6991935]]}";8;Côte de Terrebonne;2;50;false;true;true;false;false;false;35.0;0;1;0;0;0;false;84837;6129482956;-73.64921;45.70323;84875;6129482927;-73.652978;45.698038;0;11;12;9447596;Bus 23 : TERMINUS TERREBONNE;"";EXO;23 E;Cégep Lionel-Groulx;Terminus Terrebonne
810018731;"{\"type\":\"LineString\",\"coordinates\":[[-73.6544061,45.6991935],[-73.6544516,45.6980667]]}";9;Côte de Terrebonne;2;50;false;true;false;false;false;false;126.0;0;0;0;0;0;false;84837;6129482956;-73.64921;45.70323;84875;6129482927;-73.652978;45.698038;0;11;12;9447596;Bus 23 : TERMINUS TERREBONNE;"";EXO;23 E;Cégep Lionel-Groulx;Terminus Terrebonne
679579107;"{\"type\":\"LineString\",\"coordinates\":[[-73.6544516,45.6980667],[-73.6544536,45.6980164]]}";10;Côte de Terrebonne;1;50;false;true;false;false;false;false;6.0;0;0;0;0;0;false;84837;6129482956;-73.64921;45.70323;84875;6129482927;-73.652978;45.698038;0;11;12;9447596;Bus 23 : TERMINUS TERREBONNE;"";EXO;23 E;Cégep Lionel-Groulx;Terminus Terrebonne
810021669;"{\"type\":\"LineString\",\"coordinates\":[[-73.6544536,45.6980164],[-73.6544566,45.6979421]]}";11;Côte de Terrebonne;1;50;false;true;false;false;false;false;9.0;0;0;0;0;0;false;84837;6129482956;-73.64921;45.70323;84875;6129482927;-73.652978;45.698038;0;11;12;9447596;Bus 23 : TERMINUS TERREBONNE;"";EXO;23 E;Cégep Lionel-Groulx;Terminus Terrebonne
679579096;"{\"type\":\"LineString\",\"coordinates\":[[-73.6544566,45.6979421],[-73.6543098,45.6979415]]}";12;BUS;1;50;false;true;true;false;true;false;12.0;0;0;0;0;0;false;84837;6129482956;-73.64921;45.70323;84875;6129482927;-73.652978;45.698038;0;11;12;9447596;Bus 23 : TERMINUS TERREBONNE;"";EXO;23 E;Cégep Lionel-Groulx;Terminus Terrebonne
678900150;"{\"type\":\"LineString\",\"coordinates\":[[-73.6543098,45.6979415],[-73.654154,45.6979414],[-73.6533204,45.6979395],[-73.6532321,45.6979644],[-73.6531831,45.6979995],[-73.6531647,45.6980517],[-73.6531659,45.6981074]]}";13;BUS;1;50;false;true;true;false;true;false;103.0;0;1;0;0;0;false;84837;6129482956;-73.64921;45.70323;84875;6129482927;-73.652978;45.698038;1;11;12;9447596;Bus 23 : TERMINUS TERREBONNE;"";EXO;23 E;Cégep Lionel-Groulx;Terminus Terrebonne
