way_id;shape;index;name;nb_lanes;legal_speed;speed_zone_30;oneway;shares_bike;bike_box;bus_lane;dedicated_bus_lane;length;nb_traffic_signals;nb_crossings;nb_stops;nb_give_ways;nb_lvl_crossings;roundabout;stop_id_orig;node_id_orig;coord_x_orig;coord_y_orig;stop_id_dest;node_id_dest;coord_x_dest;coord_y_dest;nb_neighbouring_ways_bus_stop;ordre_orig;ordre_dest;id_line;line_name;colour;operator;ref;from;to
45794698;"{\"type\":\"LineString\",\"coordinates\":[[-73.834677,45.5693544],[-73.8349645,45.5697083],[-73.8352157,45.5699539],[-73.83612,45.5708452],[-73.8384248,45.5732102]]}";1;43e Avenue;2;50;false;false;true;false;false;false;519.0;0;0;1;0;0;false;41049;6269509542;-73.83671;45.571385;41050;6269509985;-73.83424;45.569486;1;3;4;9312738;Bus : 73 S - Direction Métro Cartier;"";STL;73S;Séguin / Face à L'usine D'épuration;Métro Cartier Quai:2
673268283;"{\"type\":\"LineString\",\"coordinates\":[[-73.834677,45.5693544],[-73.8339156,45.5697736],[-73.8337283,45.5698768],[-73.8334654,45.5700297],[-73.83224,45.5707621],[-73.8321846,45.5707951],[-73.8320004,45.570961]]}";2;Boulevard Sainte-Rose;2;50;false;false;false;false;false;false;138.0;0;0;1;0;0;false;41049;6269509542;-73.83671;45.571385;41050;6269509985;-73.83424;45.569486;1;3;4;9312738;Bus : 73 S - Direction Métro Cartier;"";STL;73S;Séguin / Face à L'usine D'épuration;Métro Cartier Quai:2
673268283;"{\"type\":\"LineString\",\"coordinates\":[[-73.834677,45.5693544],[-73.8339156,45.5697736],[-73.8337283,45.5698768],[-73.8334654,45.5700297],[-73.83224,45.5707621],[-73.8321846,45.5707951],[-73.8320004,45.570961]]}";1;Boulevard Sainte-Rose;2;50;false;false;false;false;false;false;138.0;0;0;1;0;0;false;41050;6269509985;-73.83424;45.569486;42958;6269509502;-73.83081;45.572099;1;4;5;9312738;Bus : 73 S - Direction Métro Cartier;"";STL;73S;Séguin / Face à L'usine D'épuration;Métro Cartier Quai:2
45793824;"{\"type\":\"LineString\",\"coordinates\":[[-73.8320004,45.570961],[-73.8317954,45.5711161],[-73.8315731,45.5713299],[-73.830849,45.5722011],[-73.8308239,45.5722313]]}";2;Boulevard Sainte-Rose;1;50;false;true;true;false;false;false;84.5;0;0;0;0;0;false;41050;6269509985;-73.83424;45.569486;42958;6269509502;-73.83081;45.572099;1;4;5;9312738;Bus : 73 S - Direction Métro Cartier;"";STL;73S;Séguin / Face à L'usine D'épuration;Métro Cartier Quai:2
45795225;"{\"type\":\"LineString\",\"coordinates\":[[-73.8308239,45.5722313],[-73.8307933,45.5722685],[-73.8301271,45.5730793]]}";1;Boulevard Sainte-Rose;1;50;false;true;true;false;false;false;109.0;0;0;0;0;0;false;42958;6269509502;-73.83081;45.572099;42960;6269509300;-73.82834;45.575063;2;5;6;9312738;Bus : 73 S - Direction Métro Cartier;"";STL;73S;Séguin / Face à L'usine D'épuration;Métro Cartier Quai:2
45795229;"{\"type\":\"LineString\",\"coordinates\":[[-73.8301271,45.5730793],[-73.8298117,45.5734541],[-73.8296672,45.5736236],[-73.8293648,45.5739896]]}";2;Boulevard Sainte-Rose;1;50;false;true;true;false;false;false;118.0;0;0;0;0;0;false;42958;6269509502;-73.83081;45.572099;42960;6269509300;-73.82834;45.575063;0;5;6;9312738;Bus : 73 S - Direction Métro Cartier;"";STL;73S;Séguin / Face à L'usine D'épuration;Métro Cartier Quai:2
45795219;"{\"type\":\"LineString\",\"coordinates\":[[-73.8293648,45.5739896],[-73.8289551,45.5744681]]}";3;Boulevard Sainte-Rose;1;50;false;true;true;false;false;false;63.0;0;0;0;0;0;false;42958;6269509502;-73.83081;45.572099;42960;6269509300;-73.82834;45.575063;0;5;6;9312738;Bus : 73 S - Direction Métro Cartier;"";STL;73S;Séguin / Face à L'usine D'épuration;Métro Cartier Quai:2
45795235;"{\"type\":\"LineString\",\"coordinates\":[[-73.8289551,45.5744681],[-73.8287312,45.5747487]]}";4;Boulevard Sainte-Rose;1;50;false;true;true;false;false;false;36.0;0;0;0;0;0;false;42958;6269509502;-73.83081;45.572099;42960;6269509300;-73.82834;45.575063;0;5;6;9312738;Bus : 73 S - Direction Métro Cartier;"";STL;73S;Séguin / Face à L'usine D'épuration;Métro Cartier Quai:2
455469452;"{\"type\":\"LineString\",\"coordinates\":[[-73.8287312,45.5747487],[-73.8286749,45.5748112]]}";5;Boulevard Sainte-Rose;1;50;false;true;true;false;false;false;9.0;0;0;0;0;0;false;42958;6269509502;-73.83081;45.572099;42960;6269509300;-73.82834;45.575063;0;5;6;9312738;Bus : 73 S - Direction Métro Cartier;"";STL;73S;Séguin / Face à L'usine D'épuration;Métro Cartier Quai:2
45792961;"{\"type\":\"LineString\",\"coordinates\":[[-73.8286749,45.5748112],[-73.8281659,45.5754121],[-73.8279529,45.5757334]]}";6;Boulevard Sainte-Rose;1;50;false;true;true;false;false;false;118.0;0;0;0;0;0;false;42958;6269509502;-73.83081;45.572099;42960;6269509300;-73.82834;45.575063;2;5;6;9312738;Bus : 73 S - Direction Métro Cartier;"";STL;73S;Séguin / Face à L'usine D'épuration;Métro Cartier Quai:2
45792961;"{\"type\":\"LineString\",\"coordinates\":[[-73.8286749,45.5748112],[-73.8281659,45.5754121],[-73.8279529,45.5757334]]}";1;Boulevard Sainte-Rose;1;50;false;true;true;false;false;false;59.0;0;0;0;0;0;false;42960;6269509300;-73.82834;45.575063;43982;6269509286;-73.82705;45.576651;1;6;7;9312738;Bus : 73 S - Direction Métro Cartier;"";STL;73S;Séguin / Face à L'usine D'épuration;Métro Cartier Quai:2
46203718;"{\"type\":\"LineString\",\"coordinates\":[[-73.8279529,45.5757334],[-73.8270781,45.5767114],[-73.8266584,45.5771662],[-73.8263828,45.5774784],[-73.8261024,45.5777871],[-73.8259643,45.5779391],[-73.8259036,45.5779955],[-73.8257618,45.5781273],[-73.825597,45.5782804],[-73.8254281,45.5783986],[-73.825168,45.5785804],[-73.8250585,45.578657],[-73.8249408,45.5787267],[-73.824856,45.5787769],[-73.8245234,45.5789515],[-73.824234,45.5791035],[-73.824053,45.5791947],[-73.8235087,45.579469],[-73.8233057,45.5795678],[-73.8230517,45.5797212],[-73.8224316,45.5800004],[-73.8216688,45.5803725],[-73.82111,45.5806363],[-73.8196867,45.5813289],[-73.8196391,45.5813521],[-73.8192355,45.5815272],[-73.8190754,45.5816014],[-73.8178117,45.5821876],[-73.8173976,45.5824055],[-73.8173122,45.5824504],[-73.8168658,45.5828348]]}";2;Boulevard Sainte-Rose;2;50;false;false;false;false;false;false;594.5;0;0;0;0;0;false;42960;6269509300;-73.82834;45.575063;43982;6269509286;-73.82705;45.576651;1;6;7;9312738;Bus : 73 S - Direction Métro Cartier;"";STL;73S;Séguin / Face à L'usine D'épuration;Métro Cartier Quai:2
46203718;"{\"type\":\"LineString\",\"coordinates\":[[-73.8279529,45.5757334],[-73.8270781,45.5767114],[-73.8266584,45.5771662],[-73.8263828,45.5774784],[-73.8261024,45.5777871],[-73.8259643,45.5779391],[-73.8259036,45.5779955],[-73.8257618,45.5781273],[-73.825597,45.5782804],[-73.8254281,45.5783986],[-73.825168,45.5785804],[-73.8250585,45.578657],[-73.8249408,45.5787267],[-73.824856,45.5787769],[-73.8245234,45.5789515],[-73.824234,45.5791035],[-73.824053,45.5791947],[-73.8235087,45.579469],[-73.8233057,45.5795678],[-73.8230517,45.5797212],[-73.8224316,45.5800004],[-73.8216688,45.5803725],[-73.82111,45.5806363],[-73.8196867,45.5813289],[-73.8196391,45.5813521],[-73.8192355,45.5815272],[-73.8190754,45.5816014],[-73.8178117,45.5821876],[-73.8173976,45.5824055],[-73.8173122,45.5824504],[-73.8168658,45.5828348]]}";1;Boulevard Sainte-Rose;2;50;false;false;false;false;false;false;594.5;0;0;0;0;0;false;42969;6269508887;-73.81724;45.582403;42971;6269508805;-73.81633;45.586534;1;11;12;9312738;Bus : 73 S - Direction Métro Cartier;"";STL;73S;Séguin / Face à L'usine D'épuration;Métro Cartier Quai:2
32551211;"{\"type\":\"LineString\",\"coordinates\":[[-73.8168658,45.5828348],[-73.8167628,45.582967],[-73.8165311,45.5834356],[-73.8164539,45.583784],[-73.8164539,45.5845288],[-73.8164539,45.5853721],[-73.8164539,45.5855139],[-73.8164503,45.5855835],[-73.8164472,45.5856426],[-73.8164024,45.5864991],[-73.816258,45.5872735],[-73.8162327,45.5874091],[-73.8162191,45.5874823],[-73.8159102,45.5890642],[-73.8158137,45.5895404],[-73.8157461,45.5899561],[-73.8156944,45.5902332],[-73.8155127,45.5911158],[-73.8154622,45.5913515],[-73.8154582,45.5913703],[-73.8154428,45.5914305],[-73.8153123,45.5919409],[-73.8151321,45.5924514],[-73.8150195,45.5926362],[-73.8149089,45.5928178],[-73.8144626,45.5933703],[-73.8136043,45.594121],[-73.8134186,45.5942711],[-73.8125666,45.5949594],[-73.8111066,45.596139],[-73.8109892,45.5962295],[-73.8104529,45.5966429],[-73.810008,45.5969858],[-73.8097758,45.5971522],[-73.8090209,45.5976932],[-73.8082399,45.5982529],[-73.8077278,45.5985928],[-73.8076518,45.5986432],[-73.8072356,45.5989195]]}";2;Boulevard Sainte-Rose;2;50;false;false;false;false;false;false;1016.0;0;0;1;0;0;false;42969;6269508887;-73.81724;45.582403;42971;6269508805;-73.81633;45.586534;1;11;12;9312738;Bus : 73 S - Direction Métro Cartier;"";STL;73S;Séguin / Face à L'usine D'épuration;Métro Cartier Quai:2
32551211;"{\"type\":\"LineString\",\"coordinates\":[[-73.8168658,45.5828348],[-73.8167628,45.582967],[-73.8165311,45.5834356],[-73.8164539,45.583784],[-73.8164539,45.5845288],[-73.8164539,45.5853721],[-73.8164539,45.5855139],[-73.8164503,45.5855835],[-73.8164472,45.5856426],[-73.8164024,45.5864991],[-73.816258,45.5872735],[-73.8162327,45.5874091],[-73.8162191,45.5874823],[-73.8159102,45.5890642],[-73.8158137,45.5895404],[-73.8157461,45.5899561],[-73.8156944,45.5902332],[-73.8155127,45.5911158],[-73.8154622,45.5913515],[-73.8154582,45.5913703],[-73.8154428,45.5914305],[-73.8153123,45.5919409],[-73.8151321,45.5924514],[-73.8150195,45.5926362],[-73.8149089,45.5928178],[-73.8144626,45.5933703],[-73.8136043,45.594121],[-73.8134186,45.5942711],[-73.8125666,45.5949594],[-73.8111066,45.596139],[-73.8109892,45.5962295],[-73.8104529,45.5966429],[-73.810008,45.5969858],[-73.8097758,45.5971522],[-73.8090209,45.5976932],[-73.8082399,45.5982529],[-73.8077278,45.5985928],[-73.8076518,45.5986432],[-73.8072356,45.5989195]]}";1;Boulevard Sainte-Rose;2;50;false;false;false;false;false;false;1016.0;0;0;1;0;0;false;42980;6269508383;-73.81104;45.59606;42982;6269508325;-73.80694;45.598995;1;16;17;9312738;Bus : 73 S - Direction Métro Cartier;"";STL;73S;Séguin / Face à L'usine D'épuration;Métro Cartier Quai:2
695750258;"{\"type\":\"LineString\",\"coordinates\":[[-73.8072356,45.5989195],[-73.807052,45.5990203],[-73.8070046,45.5990476]]}";2;Boulevard Sainte-Rose;2;50;false;false;false;false;false;false;23.0;0;0;0;0;0;false;42980;6269508383;-73.81104;45.59606;42982;6269508325;-73.80694;45.598995;0;16;17;9312738;Bus : 73 S - Direction Métro Cartier;"";STL;73S;Séguin / Face à L'usine D'épuration;Métro Cartier Quai:2
695750256;"{\"type\":\"LineString\",\"coordinates\":[[-73.8070046,45.5990476],[-73.806658,45.5992367],[-73.8065094,45.5993062]]}";3;Boulevard Sainte-Rose;2;50;false;false;false;false;false;false;24.5;0;0;0;0;0;false;42980;6269508383;-73.81104;45.59606;42982;6269508325;-73.80694;45.598995;1;16;17;9312738;Bus : 73 S - Direction Métro Cartier;"";STL;73S;Séguin / Face à L'usine D'épuration;Métro Cartier Quai:2
695750258;"{\"type\":\"LineString\",\"coordinates\":[[-73.8072356,45.5989195],[-73.807052,45.5990203],[-73.8070046,45.5990476]]}";1;Boulevard Sainte-Rose;2;50;false;false;false;false;false;false;23.0;0;0;0;0;0;false;42982;6269508325;-73.80694;45.598995;46430;6269508317;-73.80126;45.60054;2;17;18;9312738;Bus : 73 S - Direction Métro Cartier;"";STL;73S;Séguin / Face à L'usine D'épuration;Métro Cartier Quai:2
695750256;"{\"type\":\"LineString\",\"coordinates\":[[-73.8070046,45.5990476],[-73.806658,45.5992367],[-73.8065094,45.5993062]]}";2;Boulevard Sainte-Rose;2;50;false;false;false;false;false;false;49.0;0;0;0;0;0;false;42982;6269508325;-73.80694;45.598995;46430;6269508317;-73.80126;45.60054;0;17;18;9312738;Bus : 73 S - Direction Métro Cartier;"";STL;73S;Séguin / Face à L'usine D'épuration;Métro Cartier Quai:2
455243779;"{\"type\":\"LineString\",\"coordinates\":[[-73.8065094,45.5993062],[-73.8063421,45.5993155],[-73.8063186,45.5993211],[-73.8061483,45.5993699],[-73.8060424,45.5994016],[-73.8057429,45.5994919],[-73.8053504,45.5996343]]}";3;Boulevard Sainte-Rose;4;50;false;true;true;false;false;false;99.0;0;0;0;0;0;false;42982;6269508325;-73.80694;45.598995;46430;6269508317;-73.80126;45.60054;0;17;18;9312738;Bus : 73 S - Direction Métro Cartier;"";STL;73S;Séguin / Face à L'usine D'épuration;Métro Cartier Quai:2
455243776;"{\"type\":\"LineString\",\"coordinates\":[[-73.8053504,45.5996343],[-73.8039449,45.6000566]]}";4;Boulevard Sainte-Rose;4;50;false;true;true;false;false;false;120.0;0;0;0;0;0;false;42982;6269508325;-73.80694;45.598995;46430;6269508317;-73.80126;45.60054;0;17;18;9312738;Bus : 73 S - Direction Métro Cartier;"";STL;73S;Séguin / Face à L'usine D'épuration;Métro Cartier Quai:2
455243772;"{\"type\":\"LineString\",\"coordinates\":[[-73.8039449,45.6000566],[-73.8032041,45.6002475]]}";5;Boulevard Sainte-Rose;4;50;false;true;true;false;false;false;62.0;0;0;0;0;0;false;42982;6269508325;-73.80694;45.598995;46430;6269508317;-73.80126;45.60054;0;17;18;9312738;Bus : 73 S - Direction Métro Cartier;"";STL;73S;Séguin / Face à L'usine D'épuration;Métro Cartier Quai:2
455243771;"{\"type\":\"LineString\",\"coordinates\":[[-73.8032041,45.6002475],[-73.8028901,45.600315]]}";6;Boulevard Sainte-Rose;4;50;false;true;true;false;false;false;26.0;0;0;0;0;0;false;42982;6269508325;-73.80694;45.598995;46430;6269508317;-73.80126;45.60054;0;17;18;9312738;Bus : 73 S - Direction Métro Cartier;"";STL;73S;Séguin / Face à L'usine D'épuration;Métro Cartier Quai:2
455243774;"{\"type\":\"LineString\",\"coordinates\":[[-73.8028901,45.600315],[-73.8027587,45.6003385]]}";7;Boulevard Sainte-Rose;4;50;false;true;true;false;false;false;11.0;0;0;0;0;0;false;42982;6269508325;-73.80694;45.598995;46430;6269508317;-73.80126;45.60054;0;17;18;9312738;Bus : 73 S - Direction Métro Cartier;"";STL;73S;Séguin / Face à L'usine D'épuration;Métro Cartier Quai:2
455243773;"{\"type\":\"LineString\",\"coordinates\":[[-73.8027587,45.6003385],[-73.8024001,45.6004058]]}";8;Avenue de la Renaissance;4;50;false;true;true;false;false;false;29.0;0;0;0;0;0;false;42982;6269508325;-73.80694;45.598995;46430;6269508317;-73.80126;45.60054;0;17;18;9312738;Bus : 73 S - Direction Métro Cartier;"";STL;73S;Séguin / Face à L'usine D'épuration;Métro Cartier Quai:2
455243777;"{\"type\":\"LineString\",\"coordinates\":[[-73.8024001,45.6004058],[-73.8018313,45.6004919],[-73.801715,45.6005538]]}";9;Avenue de la Renaissance;4;50;false;true;true;false;false;false;57.0;0;0;0;0;0;false;42982;6269508325;-73.80694;45.598995;46430;6269508317;-73.80126;45.60054;0;17;18;9312738;Bus : 73 S - Direction Métro Cartier;"";STL;73S;Séguin / Face à L'usine D'épuration;Métro Cartier Quai:2
455243775;"{\"type\":\"LineString\",\"coordinates\":[[-73.8010697,45.6006546],[-73.801715,45.6005538]]}";10;Avenue de la Renaissance;4;50;false;false;false;false;false;false;52.0;0;0;0;0;0;false;42982;6269508325;-73.80694;45.598995;46430;6269508317;-73.80126;45.60054;2;17;18;9312738;Bus : 73 S - Direction Métro Cartier;"";STL;73S;Séguin / Face à L'usine D'épuration;Métro Cartier Quai:2
686078338;"{\"type\":\"LineString\",\"coordinates\":[[-73.7976514,45.601126],[-73.7990692,45.6009122],[-73.8010697,45.6006546]]}";1;Avenue de la Renaissance;4;50;false;false;false;false;false;false;136.0;0;0;0;0;0;false;46436;6269508307;-73.79847;45.600898;46434;6269507976;-73.80018;45.603017;1;19;20;9312738;Bus : 73 S - Direction Métro Cartier;"";STL;73S;Séguin / Face à L'usine D'épuration;Métro Cartier Quai:2
111443338;"{\"type\":\"LineString\",\"coordinates\":[[-73.7976514,45.601126],[-73.7977751,45.6012932],[-73.7980674,45.6015847],[-73.7984123,45.6018254],[-73.7988515,45.6020981],[-73.7993258,45.6023835],[-73.8003704,45.6030321],[-73.8007559,45.6032722],[-73.8012447,45.6035609]]}";2;Rue P-É Borduas;2;50;false;false;false;false;false;false;196.0;0;0;0;0;0;false;46436;6269508307;-73.79847;45.600898;46434;6269507976;-73.80018;45.603017;1;19;20;9312738;Bus : 73 S - Direction Métro Cartier;"";STL;73S;Séguin / Face à L'usine D'épuration;Métro Cartier Quai:2
111443338;"{\"type\":\"LineString\",\"coordinates\":[[-73.7976514,45.601126],[-73.7977751,45.6012932],[-73.7980674,45.6015847],[-73.7984123,45.6018254],[-73.7988515,45.6020981],[-73.7993258,45.6023835],[-73.8003704,45.6030321],[-73.8007559,45.6032722],[-73.8012447,45.6035609]]}";1;Rue P-É Borduas;2;50;false;false;false;false;false;false;196.0;0;0;0;0;0;false;46403;6269507956;-73.8009;45.603447;42989;6269507950;-73.80015;45.604421;1;21;22;9312738;Bus : 73 S - Direction Métro Cartier;"";STL;73S;Séguin / Face à L'usine D'épuration;Métro Cartier Quai:2
45362087;"{\"type\":\"LineString\",\"coordinates\":[[-73.8012447,45.6035609],[-73.8008261,45.60391],[-73.8001342,45.6044878],[-73.7993819,45.6050398],[-73.7988907,45.6054002],[-73.7973614,45.6064209],[-73.7966407,45.6069743]]}";2;Boulevard Sainte-Rose;1;50;false;false;true;false;false;false;261.5;0;0;0;0;0;false;46403;6269507956;-73.8009;45.603447;42989;6269507950;-73.80015;45.604421;1;21;22;9312738;Bus : 73 S - Direction Métro Cartier;"";STL;73S;Séguin / Face à L'usine D'épuration;Métro Cartier Quai:2
45362087;"{\"type\":\"LineString\",\"coordinates\":[[-73.8012447,45.6035609],[-73.8008261,45.60391],[-73.8001342,45.6044878],[-73.7993819,45.6050398],[-73.7988907,45.6054002],[-73.7973614,45.6064209],[-73.7966407,45.6069743]]}";1;Boulevard Sainte-Rose;1;50;false;false;true;false;false;false;261.5;0;0;0;0;0;false;42991;6269507869;-73.79741;45.606309;42993;6269507865;-73.79551;45.60815;1;23;24;9312738;Bus : 73 S - Direction Métro Cartier;"";STL;73S;Séguin / Face à L'usine D'épuration;Métro Cartier Quai:2
455252748;"{\"type\":\"LineString\",\"coordinates\":[[-73.7966407,45.6069743],[-73.7963115,45.6073301]]}";2;Boulevard Sainte-Rose;1;50;false;false;true;false;false;false;48.0;0;0;0;0;0;false;42991;6269507869;-73.79741;45.606309;42993;6269507865;-73.79551;45.60815;0;23;24;9312738;Bus : 73 S - Direction Métro Cartier;"";STL;73S;Séguin / Face à L'usine D'épuration;Métro Cartier Quai:2
45300650;"{\"type\":\"LineString\",\"coordinates\":[[-73.7963115,45.6073301],[-73.7961626,45.6075048],[-73.7959985,45.6076975],[-73.7958859,45.6078217],[-73.7957134,45.6080119],[-73.7956694,45.6080604],[-73.7954738,45.6082752]]}";3;Boulevard Sainte-Rose;1;50;false;false;true;false;false;false;62.0;0;0;0;0;0;false;42991;6269507869;-73.79741;45.606309;42993;6269507865;-73.79551;45.60815;1;23;24;9312738;Bus : 73 S - Direction Métro Cartier;"";STL;73S;Séguin / Face à L'usine D'épuration;Métro Cartier Quai:2
45300649;"{\"type\":\"LineString\",\"coordinates\":[[-73.7954738,45.6082752],[-73.7953975,45.6083516],[-73.7947752,45.6090387],[-73.7941744,45.6096631],[-73.793934,45.6098793],[-73.7937607,45.610031],[-73.7937338,45.6100546],[-73.7933504,45.6103536],[-73.7929627,45.6106139],[-73.7928097,45.6107138],[-73.7927214,45.6107653],[-73.7921736,45.6110677]]}";1;Boulevard Sainte-Rose;1;50;false;false;true;false;false;false;203.0;1;0;0;0;0;false;42995;6269507834;-73.79373;45.609954;42998;6269507734;-73.79151;45.611345;1;25;26;9312738;Bus : 73 S - Direction Métro Cartier;"";STL;73S;Séguin / Face à L'usine D'épuration;Métro Cartier Quai:2
455259033;"{\"type\":\"LineString\",\"coordinates\":[[-73.7921736,45.6110677],[-73.7918363,45.6112602]]}";2;Boulevard Sainte-Rose;2;50;false;false;true;false;false;false;34.0;1;0;0;0;0;false;42995;6269507834;-73.79373;45.609954;42998;6269507734;-73.79151;45.611345;0;25;26;9312738;Bus : 73 S - Direction Métro Cartier;"";STL;73S;Séguin / Face à L'usine D'épuration;Métro Cartier Quai:2
45189008;"{\"type\":\"LineString\",\"coordinates\":[[-73.7918363,45.6112602],[-73.7911598,45.6115937],[-73.7906556,45.6118511],[-73.7902747,45.6120326],[-73.7898253,45.6121756],[-73.7897184,45.6122096],[-73.7890954,45.6123993],[-73.7888108,45.6124804],[-73.7885815,45.6125483],[-73.7884982,45.6125774],[-73.788419,45.6126168],[-73.7882284,45.6127217],[-73.7879137,45.612904],[-73.7875768,45.6131049],[-73.7875162,45.6131383],[-73.7873438,45.6132332],[-73.7872776,45.6132696],[-73.7867715,45.6137184],[-73.7865495,45.6139154],[-73.7863366,45.6141042],[-73.7857604,45.614525],[-73.7856951,45.6145784],[-73.7853246,45.6148486],[-73.784681,45.6153181],[-73.7841768,45.6156859],[-73.7835201,45.6161124],[-73.7827799,45.6166246]]}";3;Boulevard Sainte-Rose;2;50;false;false;true;false;false;false;467.5;0;0;0;0;0;false;42995;6269507834;-73.79373;45.609954;42998;6269507734;-73.79151;45.611345;1;25;26;9312738;Bus : 73 S - Direction Métro Cartier;"";STL;73S;Séguin / Face à L'usine D'épuration;Métro Cartier Quai:2
45189008;"{\"type\":\"LineString\",\"coordinates\":[[-73.7918363,45.6112602],[-73.7911598,45.6115937],[-73.7906556,45.6118511],[-73.7902747,45.6120326],[-73.7898253,45.6121756],[-73.7897184,45.6122096],[-73.7890954,45.6123993],[-73.7888108,45.6124804],[-73.7885815,45.6125483],[-73.7884982,45.6125774],[-73.788419,45.6126168],[-73.7882284,45.6127217],[-73.7879137,45.612904],[-73.7875768,45.6131049],[-73.7875162,45.6131383],[-73.7873438,45.6132332],[-73.7872776,45.6132696],[-73.7867715,45.6137184],[-73.7865495,45.6139154],[-73.7863366,45.6141042],[-73.7857604,45.614525],[-73.7856951,45.6145784],[-73.7853246,45.6148486],[-73.784681,45.6153181],[-73.7841768,45.6156859],[-73.7835201,45.6161124],[-73.7827799,45.6166246]]}";1;Boulevard Sainte-Rose;2;50;false;false;true;false;false;false;467.5;0;0;0;0;0;false;43008;6269507715;-73.78287;45.616442;42886;6269507686;-73.78107;45.618354;1;30;31;9312738;Bus : 73 S - Direction Métro Cartier;"";STL;73S;Séguin / Face à L'usine D'épuration;Métro Cartier Quai:2
673264006;"{\"type\":\"LineString\",\"coordinates\":[[-73.7827799,45.6166246],[-73.7824948,45.6168599],[-73.7822804,45.617076],[-73.7820704,45.6173717],[-73.781859,45.617657],[-73.7815741,45.6179874],[-73.7812727,45.6182978],[-73.7804729,45.618917],[-73.7802481,45.6191288],[-73.7800607,45.619342],[-73.7799208,45.6195081]]}";2;Boulevard Sainte-Rose;2;50;false;false;true;false;false;false;196.0;0;0;0;0;0;false;43008;6269507715;-73.78287;45.616442;42886;6269507686;-73.78107;45.618354;1;30;31;9312738;Bus : 73 S - Direction Métro Cartier;"";STL;73S;Séguin / Face à L'usine D'épuration;Métro Cartier Quai:2
686625322;"{\"type\":\"LineString\",\"coordinates\":[[-73.7799208,45.6195081],[-73.7791092,45.6206056],[-73.7784988,45.6217753],[-73.7781236,45.6223447],[-73.7778562,45.6226052],[-73.7776665,45.6227348],[-73.7775552,45.6228108],[-73.7775123,45.6228401],[-73.7770884,45.6230575],[-73.7769398,45.6231308],[-73.7764692,45.6233455]]}";1;Boulevard Sainte-Rose;2;50;false;false;true;false;false;false;259.0;0;0;0;0;0;false;42893;6269507637;-73.77707;45.622962;42897;6269507617;-73.77449;45.623796;1;34;35;9312738;Bus : 73 S - Direction Métro Cartier;"";STL;73S;Séguin / Face à L'usine D'épuration;Métro Cartier Quai:2
50954633;"{\"type\":\"LineString\",\"coordinates\":[[-73.7764692,45.6233455],[-73.7763815,45.6233851],[-73.7761611,45.6234926],[-73.7758347,45.6236145],[-73.7754153,45.6237441]]}";2;Boulevard Sainte-Rose;2;50;false;false;false;false;false;false;94.0;0;0;0;0;0;false;42893;6269507637;-73.77707;45.622962;42897;6269507617;-73.77449;45.623796;0;34;35;9312738;Bus : 73 S - Direction Métro Cartier;"";STL;73S;Séguin / Face à L'usine D'épuration;Métro Cartier Quai:2
45289895;"{\"type\":\"LineString\",\"coordinates\":[[-73.7754153,45.6237441],[-73.7753045,45.6237622],[-73.774985,45.6238109],[-73.7747332,45.6238493],[-73.7743284,45.6239111],[-73.7737998,45.6239978],[-73.7732648,45.6240856],[-73.772866,45.6241701],[-73.7722445,45.6243455],[-73.7714635,45.6245698],[-73.7703596,45.6249104],[-73.7697405,45.625107],[-73.7695794,45.6251581],[-73.7693165,45.6252399],[-73.7679537,45.6256642],[-73.767057,45.6259343]]}";3;Boulevard Sainte-Rose Est;2;50;false;false;false;false;false;false;349.0;0;0;0;0;0;false;42893;6269507637;-73.77707;45.622962;42897;6269507617;-73.77449;45.623796;1;34;35;9312738;Bus : 73 S - Direction Métro Cartier;"";STL;73S;Séguin / Face à L'usine D'épuration;Métro Cartier Quai:2
45289895;"{\"type\":\"LineString\",\"coordinates\":[[-73.7754153,45.6237441],[-73.7753045,45.6237622],[-73.774985,45.6238109],[-73.7747332,45.6238493],[-73.7743284,45.6239111],[-73.7737998,45.6239978],[-73.7732648,45.6240856],[-73.772866,45.6241701],[-73.7722445,45.6243455],[-73.7714635,45.6245698],[-73.7703596,45.6249104],[-73.7697405,45.625107],[-73.7695794,45.6251581],[-73.7693165,45.6252399],[-73.7679537,45.6256642],[-73.767057,45.6259343]]}";1;Boulevard Sainte-Rose Est;2;50;false;false;false;false;false;false;349.0;0;0;0;0;0;false;42898;6269507609;-73.77156;45.624487;42902;6269507589;-73.76639;45.626047;1;36;37;9312738;Bus : 73 S - Direction Métro Cartier;"";STL;73S;Séguin / Face à L'usine D'épuration;Métro Cartier Quai:2
673264005;"{\"type\":\"LineString\",\"coordinates\":[[-73.767057,45.6259343],[-73.766467,45.626108],[-73.7663458,45.6261484],[-73.7662552,45.6261785],[-73.7647751,45.6266645],[-73.7636671,45.6270709]]}";2;Boulevard Sainte-Rose Est;2;50;false;false;false;false;false;false;146.5;1;0;0;0;0;false;42898;6269507609;-73.77156;45.624487;42902;6269507589;-73.76639;45.626047;1;36;37;9312738;Bus : 73 S - Direction Métro Cartier;"";STL;73S;Séguin / Face à L'usine D'épuration;Métro Cartier Quai:2
673264005;"{\"type\":\"LineString\",\"coordinates\":[[-73.767057,45.6259343],[-73.766467,45.626108],[-73.7663458,45.6261484],[-73.7662552,45.6261785],[-73.7647751,45.6266645],[-73.7636671,45.6270709]]}";1;Boulevard Sainte-Rose Est;2;50;false;false;false;false;false;false;146.5;1;0;0;0;0;false;42902;6269507589;-73.76639;45.626047;42904;6269507562;-73.76265;45.627252;1;37;38;9312738;Bus : 73 S - Direction Métro Cartier;"";STL;73S;Séguin / Face à L'usine D'épuration;Métro Cartier Quai:2
74729124;"{\"type\":\"LineString\",\"coordinates\":[[-73.7636671,45.6270709],[-73.763168,45.6272143],[-73.7626576,45.6273357],[-73.7625653,45.6273571],[-73.7624216,45.6273891],[-73.7619518,45.6274854],[-73.7618889,45.6274984],[-73.7616019,45.6275574],[-73.7602583,45.6278295],[-73.7595155,45.6280178],[-73.7593624,45.6280623],[-73.7592708,45.6280889],[-73.7585587,45.6283912],[-73.7573492,45.6288894],[-73.7570193,45.6290173],[-73.7566103,45.6291455],[-73.7552159,45.629541],[-73.7542993,45.6298066],[-73.7541238,45.6298618],[-73.7532577,45.6301572],[-73.7525921,45.6303789]]}";2;Boulevard Sainte-Rose Est;2;50;false;false;false;false;false;false;471.0;2;0;0;0;0;false;42902;6269507589;-73.76639;45.626047;42904;6269507562;-73.76265;45.627252;1;37;38;9312738;Bus : 73 S - Direction Métro Cartier;"";STL;73S;Séguin / Face à L'usine D'épuration;Métro Cartier Quai:2
74729124;"{\"type\":\"LineString\",\"coordinates\":[[-73.7636671,45.6270709],[-73.763168,45.6272143],[-73.7626576,45.6273357],[-73.7625653,45.6273571],[-73.7624216,45.6273891],[-73.7619518,45.6274854],[-73.7618889,45.6274984],[-73.7616019,45.6275574],[-73.7602583,45.6278295],[-73.7595155,45.6280178],[-73.7593624,45.6280623],[-73.7592708,45.6280889],[-73.7585587,45.6283912],[-73.7573492,45.6288894],[-73.7570193,45.6290173],[-73.7566103,45.6291455],[-73.7552159,45.629541],[-73.7542993,45.6298066],[-73.7541238,45.6298618],[-73.7532577,45.6301572],[-73.7525921,45.6303789]]}";1;Boulevard Sainte-Rose Est;2;50;false;false;false;false;false;false;471.0;2;0;0;0;0;false;46471;6269507538;-73.75295;45.630152;41866;6269507555;-73.7522;45.628586;1;42;43;9312738;Bus : 73 S - Direction Métro Cartier;"";STL;73S;Séguin / Face à L'usine D'épuration;Métro Cartier Quai:2
473352709;"{\"type\":\"LineString\",\"coordinates\":[[-73.7525921,45.6303789],[-73.7522153,45.6291069],[-73.7520696,45.628567],[-73.7519892,45.6284861]]}";2;Boulevard des Laurentides;2;50;false;true;true;false;false;false;108.5;2;0;0;0;0;false;46471;6269507538;-73.75295;45.630152;41866;6269507555;-73.7522;45.628586;1;42;43;9312738;Bus : 73 S - Direction Métro Cartier;"";STL;73S;Séguin / Face à L'usine D'épuration;Métro Cartier Quai:2
686611413;"{\"type\":\"LineString\",\"coordinates\":[[-73.7467167,45.6217277],[-73.7455032,45.620589]]}";1;Boulevard des Laurentides;4;50;false;false;true;false;false;false;158.0;1;0;0;0;0;false;41859;6269507635;-73.74685;45.621753;41857;6269507650;-73.74493;45.619868;2;46;47;9312738;Bus : 73 S - Direction Métro Cartier;"";STL;73S;Séguin / Face à L'usine D'épuration;Métro Cartier Quai:2
455269000;"{\"type\":\"LineString\",\"coordinates\":[[-73.7455032,45.620589],[-73.7446231,45.6197693]]}";2;Boulevard des Laurentides;4;50;false;false;true;false;false;false;114.0;1;0;0;0;0;false;41859;6269507635;-73.74685;45.621753;41857;6269507650;-73.74493;45.619868;2;46;47;9312738;Bus : 73 S - Direction Métro Cartier;"";STL;73S;Séguin / Face à L'usine D'épuration;Métro Cartier Quai:2
455269000;"{\"type\":\"LineString\",\"coordinates\":[[-73.7455032,45.620589],[-73.7446231,45.6197693]]}";1;Boulevard des Laurentides;4;50;false;false;true;false;false;false;57.0;1;0;0;0;0;false;41857;6269507650;-73.74493;45.619868;41855;6269507690;-73.74269;45.617722;1;47;48;9312738;Bus : 73 S - Direction Métro Cartier;"";STL;73S;Séguin / Face à L'usine D'épuration;Métro Cartier Quai:2
455260229;"{\"type\":\"LineString\",\"coordinates\":[[-73.7446231,45.6197693],[-73.7425008,45.6177734],[-73.7417467,45.6170641],[-73.7406573,45.6160395],[-73.7405914,45.6159776],[-73.7400403,45.6154592]]}";2;Boulevard des Laurentides;4;50;false;false;true;false;false;false;299.0;1;0;0;0;0;false;41857;6269507650;-73.74493;45.619868;41855;6269507690;-73.74269;45.617722;1;47;48;9312738;Bus : 73 S - Direction Métro Cartier;"";STL;73S;Séguin / Face à L'usine D'épuration;Métro Cartier Quai:2
455260229;"{\"type\":\"LineString\",\"coordinates\":[[-73.7446231,45.6197693],[-73.7425008,45.6177734],[-73.7417467,45.6170641],[-73.7406573,45.6160395],[-73.7405914,45.6159776],[-73.7400403,45.6154592]]}";1;Boulevard des Laurentides;4;50;false;false;true;false;false;false;299.0;1;0;0;0;0;false;41853;6269507712;-73.74037;45.615585;41851;6269507758;-73.73775;45.613107;1;49;50;9312738;Bus : 73 S - Direction Métro Cartier;"";STL;73S;Séguin / Face à L'usine D'épuration;Métro Cartier Quai:2
455260226;"{\"type\":\"LineString\",\"coordinates\":[[-73.7400403,45.6154592],[-73.7396278,45.6150647],[-73.7387648,45.6142395],[-73.7378909,45.6134045],[-73.7374315,45.6129487],[-73.7371568,45.6126485],[-73.7370187,45.612488],[-73.7368022,45.612143],[-73.7367228,45.612007],[-73.736659,45.6118593]]}";2;Boulevard des Laurentides;4;50;false;false;true;false;false;false;240.5;0;0;0;0;0;false;41853;6269507712;-73.74037;45.615585;41851;6269507758;-73.73775;45.613107;1;49;50;9312738;Bus : 73 S - Direction Métro Cartier;"";STL;73S;Séguin / Face à L'usine D'épuration;Métro Cartier Quai:2
455260226;"{\"type\":\"LineString\",\"coordinates\":[[-73.7400403,45.6154592],[-73.7396278,45.6150647],[-73.7387648,45.6142395],[-73.7378909,45.6134045],[-73.7374315,45.6129487],[-73.7371568,45.6126485],[-73.7370187,45.612488],[-73.7368022,45.612143],[-73.7367228,45.612007],[-73.736659,45.6118593]]}";1;Boulevard des Laurentides;4;50;false;false;true;false;false;false;240.5;0;0;0;0;0;false;41851;6269507758;-73.73775;45.613107;41850;6269507804;-73.73656;45.610998;1;50;51;9312738;Bus : 73 S - Direction Métro Cartier;"";STL;73S;Séguin / Face à L'usine D'épuration;Métro Cartier Quai:2
45760616;"{\"type\":\"LineString\",\"coordinates\":[[-73.736659,45.6118593],[-73.7366643,45.6116253],[-73.736594,45.6113275],[-73.736517,45.6109063]]}";2;Boulevard des Laurentides;2;50;false;true;true;false;false;false;53.5;1;0;0;0;0;false;41851;6269507758;-73.73775;45.613107;41850;6269507804;-73.73656;45.610998;1;50;51;9312738;Bus : 73 S - Direction Métro Cartier;"";STL;73S;Séguin / Face à L'usine D'épuration;Métro Cartier Quai:2
45760618;"{\"type\":\"LineString\",\"coordinates\":[[-73.736517,45.6109063],[-73.7364642,45.6107878]]}";1;Boulevard des Laurentides;2;50;false;true;true;false;false;false;14.0;2;0;0;0;0;false;41850;6269507804;-73.73656;45.610998;41847;6269507859;-73.73373;45.607795;2;51;52;9312738;Bus : 73 S - Direction Métro Cartier;"";STL;73S;Séguin / Face à L'usine D'épuration;Métro Cartier Quai:2
453313648;"{\"type\":\"LineString\",\"coordinates\":[[-73.7364642,45.6107878],[-73.7361989,45.6103338]]}";2;Boulevard des Laurentides;2;50;false;true;true;false;false;false;55.0;1;0;0;0;0;false;41850;6269507804;-73.73656;45.610998;41847;6269507859;-73.73373;45.607795;0;51;52;9312738;Bus : 73 S - Direction Métro Cartier;"";STL;73S;Séguin / Face à L'usine D'épuration;Métro Cartier Quai:2
45760620;"{\"type\":\"LineString\",\"coordinates\":[[-73.7361989,45.6103338],[-73.7360936,45.6101968],[-73.7358874,45.6099783]]}";3;Boulevard des Laurentides;2;50;false;true;true;false;false;false;47.0;0;0;0;0;0;false;41850;6269507804;-73.73656;45.610998;41847;6269507859;-73.73373;45.607795;0;51;52;9312738;Bus : 73 S - Direction Métro Cartier;"";STL;73S;Séguin / Face à L'usine D'épuration;Métro Cartier Quai:2
45760604;"{\"type\":\"LineString\",\"coordinates\":[[-73.7358874,45.6099783],[-73.7346601,45.6088131],[-73.7338961,45.6080877],[-73.7330666,45.6073002],[-73.7325341,45.6067946]]}";4;Boulevard des Laurentides;4;50;false;false;true;false;false;false;440.0;0;0;0;0;0;false;41850;6269507804;-73.73656;45.610998;41847;6269507859;-73.73373;45.607795;2;51;52;9312738;Bus : 73 S - Direction Métro Cartier;"";STL;73S;Séguin / Face à L'usine D'épuration;Métro Cartier Quai:2
45760604;"{\"type\":\"LineString\",\"coordinates\":[[-73.7358874,45.6099783],[-73.7346601,45.6088131],[-73.7338961,45.6080877],[-73.7330666,45.6073002],[-73.7325341,45.6067946]]}";1;Boulevard des Laurentides;4;50;false;false;true;false;false;false;220.0;0;0;0;0;0;false;41847;6269507859;-73.73373;45.607795;41845;6269507875;-73.73251;45.60663;1;52;53;9312738;Bus : 73 S - Direction Métro Cartier;"";STL;73S;Séguin / Face à L'usine D'épuration;Métro Cartier Quai:2
453312139;"{\"type\":\"LineString\",\"coordinates\":[[-73.7325341,45.6067946],[-73.7323191,45.6065782]]}";2;Boulevard des Laurentides;4;50;false;false;true;false;false;false;15.0;0;0;0;0;0;false;41847;6269507859;-73.73373;45.607795;41845;6269507875;-73.73251;45.60663;1;52;53;9312738;Bus : 73 S - Direction Métro Cartier;"";STL;73S;Séguin / Face à L'usine D'épuration;Métro Cartier Quai:2
453312138;"{\"type\":\"LineString\",\"coordinates\":[[-73.7323191,45.6065782],[-73.7322061,45.6064632]]}";1;Boulevard des Laurentides;4;50;false;false;true;false;false;false;16.0;0;0;0;0;0;false;41845;6269507875;-73.73251;45.60663;41843;6269507918;-73.73038;45.604601;2;53;54;9312738;Bus : 73 S - Direction Métro Cartier;"";STL;73S;Séguin / Face à L'usine D'épuration;Métro Cartier Quai:2
453312144;"{\"type\":\"LineString\",\"coordinates\":[[-73.7322061,45.6064632],[-73.7319837,45.6062501]]}";2;Boulevard des Laurentides;4;50;false;false;true;false;false;false;30.0;0;0;0;0;0;false;41845;6269507875;-73.73251;45.60663;41843;6269507918;-73.73038;45.604601;0;53;54;9312738;Bus : 73 S - Direction Métro Cartier;"";STL;73S;Séguin / Face à L'usine D'épuration;Métro Cartier Quai:2
23292176;"{\"type\":\"LineString\",\"coordinates\":[[-73.7319837,45.6062501],[-73.7318931,45.6061672],[-73.7301515,45.6045749],[-73.7289712,45.6035194],[-73.7284733,45.603094],[-73.7264864,45.6011645],[-73.7259903,45.6006827],[-73.7243769,45.5991727],[-73.7231922,45.5980638],[-73.7217949,45.596756]]}";3;Boulevard des Laurentides;4;50;false;false;true;false;false;false;1321.0;0;0;0;0;0;false;41845;6269507875;-73.73251;45.60663;41843;6269507918;-73.73038;45.604601;2;53;54;9312738;Bus : 73 S - Direction Métro Cartier;"";STL;73S;Séguin / Face à L'usine D'épuration;Métro Cartier Quai:2
23292176;"{\"type\":\"LineString\",\"coordinates\":[[-73.7319837,45.6062501],[-73.7318931,45.6061672],[-73.7301515,45.6045749],[-73.7289712,45.6035194],[-73.7284733,45.603094],[-73.7264864,45.6011645],[-73.7259903,45.6006827],[-73.7243769,45.5991727],[-73.7231922,45.5980638],[-73.7217949,45.596756]]}";1;Boulevard des Laurentides;4;50;false;false;true;false;false;false;660.5;0;0;0;0;0;false;41840;6119522924;-73.7234;45.5981;41832;6269508372;-73.72114;45.595972;1;58;59;9312738;Bus : 73 S - Direction Métro Cartier;"";STL;73S;Séguin / Face à L'usine D'épuration;Métro Cartier Quai:2
694161758;"{\"type\":\"LineString\",\"coordinates\":[[-73.7217949,45.596756],[-73.7209128,45.5959303],[-73.7202442,45.5953045],[-73.7200206,45.5950952]]}";2;Boulevard des Laurentides;4;50;false;false;true;false;false;false;115.5;0;0;0;0;0;false;41840;6119522924;-73.7234;45.5981;41832;6269508372;-73.72114;45.595972;1;58;59;9312738;Bus : 73 S - Direction Métro Cartier;"";STL;73S;Séguin / Face à L'usine D'épuration;Métro Cartier Quai:2
23292111;"{\"type\":\"LineString\",\"coordinates\":[[-73.7200206,45.5950952],[-73.7199739,45.5950101],[-73.7199188,45.5949358],[-73.7193506,45.5944197],[-73.7187237,45.5939086],[-73.7187146,45.5939012],[-73.7176455,45.5931754]]}";1;Boulevard des Laurentides;2;50;false;true;true;false;false;false;284.0;0;0;0;0;0;false;41830;6269508381;-73.72024;45.595137;41827;6269508664;-73.71507;45.590684;2;60;61;9312738;Bus : 73 S - Direction Métro Cartier;"";STL;73S;Séguin / Face à L'usine D'épuration;Métro Cartier Quai:2
672674565;"{\"type\":\"LineString\",\"coordinates\":[[-73.7176455,45.5931754],[-73.7173484,45.5929725]]}";2;Boulevard des Laurentides;2;50;false;true;true;false;false;false;33.0;0;0;0;0;0;false;41830;6269508381;-73.72024;45.595137;41827;6269508664;-73.71507;45.590684;0;60;61;9312738;Bus : 73 S - Direction Métro Cartier;"";STL;73S;Séguin / Face à L'usine D'épuration;Métro Cartier Quai:2
37722246;"{\"type\":\"LineString\",\"coordinates\":[[-73.7173484,45.5929725],[-73.7170879,45.5927901],[-73.7168118,45.5925764],[-73.716514,45.5923341],[-73.7163802,45.5922191]]}";3;Boulevard des Laurentides;2;50;false;true;true;false;false;false;113.0;0;0;0;0;0;false;41830;6269508381;-73.72024;45.595137;41827;6269508664;-73.71507;45.590684;0;60;61;9312738;Bus : 73 S - Direction Métro Cartier;"";STL;73S;Séguin / Face à L'usine D'épuration;Métro Cartier Quai:2
511504658;"{\"type\":\"LineString\",\"coordinates\":[[-73.7163802,45.5922191],[-73.716336,45.5921809]]}";4;Boulevard des Laurentides;2;50;false;true;true;false;false;false;6.0;0;0;0;0;0;false;41830;6269508381;-73.72024;45.595137;41827;6269508664;-73.71507;45.590684;0;60;61;9312738;Bus : 73 S - Direction Métro Cartier;"";STL;73S;Séguin / Face à L'usine D'épuration;Métro Cartier Quai:2
483683383;"{\"type\":\"LineString\",\"coordinates\":[[-73.716336,45.5921809],[-73.7161486,45.5920136]]}";5;Boulevard des Laurentides;2;50;false;true;true;false;false;false;24.0;0;0;0;0;0;false;41830;6269508381;-73.72024;45.595137;41827;6269508664;-73.71507;45.590684;0;60;61;9312738;Bus : 73 S - Direction Métro Cartier;"";STL;73S;Séguin / Face à L'usine D'épuration;Métro Cartier Quai:2
511504662;"{\"type\":\"LineString\",\"coordinates\":[[-73.7161486,45.5920136],[-73.7158622,45.5917283],[-73.7157899,45.5916594]]}";6;Boulevard des Laurentides;2;50;false;true;true;false;false;false;49.0;0;0;0;0;0;false;41830;6269508381;-73.72024;45.595137;41827;6269508664;-73.71507;45.590684;0;60;61;9312738;Bus : 73 S - Direction Métro Cartier;"";STL;73S;Séguin / Face à L'usine D'épuration;Métro Cartier Quai:2
37722247;"{\"type\":\"LineString\",\"coordinates\":[[-73.7157899,45.5916594],[-73.7156545,45.5915211],[-73.7150055,45.590814],[-73.7145267,45.5902424],[-73.7143693,45.5900475],[-73.7137609,45.5894643]]}";7;Boulevard des Laurentides;2;50;false;true;true;false;false;false;291.0;0;0;0;0;0;false;41830;6269508381;-73.72024;45.595137;41827;6269508664;-73.71507;45.590684;2;60;61;9312738;Bus : 73 S - Direction Métro Cartier;"";STL;73S;Séguin / Face à L'usine D'épuration;Métro Cartier Quai:2
37722247;"{\"type\":\"LineString\",\"coordinates\":[[-73.7157899,45.5916594],[-73.7156545,45.5915211],[-73.7150055,45.590814],[-73.7145267,45.5902424],[-73.7143693,45.5900475],[-73.7137609,45.5894643]]}";1;Boulevard des Laurentides;2;50;false;true;true;false;false;false;145.5;0;0;0;0;0;false;41827;6269508664;-73.71507;45.590684;41825;6269508711;-73.71332;45.588869;1;61;62;9312738;Bus : 73 S - Direction Métro Cartier;"";STL;73S;Séguin / Face à L'usine D'épuration;Métro Cartier Quai:2
23292070;"{\"type\":\"LineString\",\"coordinates\":[[-73.7092377,45.5853605],[-73.7110568,45.587011],[-73.7127438,45.5885415],[-73.7128208,45.5886113],[-73.7131232,45.5888858],[-73.7137609,45.5894643]]}";2;Boulevard des Laurentides;4;50;false;false;true;false;false;false;288.5;0;0;0;0;0;false;41827;6269508664;-73.71507;45.590684;41825;6269508711;-73.71332;45.588869;1;61;62;9312738;Bus : 73 S - Direction Métro Cartier;"";STL;73S;Séguin / Face à L'usine D'épuration;Métro Cartier Quai:2
23292070;"{\"type\":\"LineString\",\"coordinates\":[[-73.7092377,45.5853605],[-73.7110568,45.587011],[-73.7127438,45.5885415],[-73.7128208,45.5886113],[-73.7131232,45.5888858],[-73.7137609,45.5894643]]}";1;Boulevard des Laurentides;4;50;false;false;true;false;false;false;288.5;0;0;0;0;0;false;41821;6269508797;-73.70955;45.585529;41819;6269508827;-73.70803;45.583822;1;64;65;9312738;Bus : 73 S - Direction Métro Cartier;"";STL;73S;Séguin / Face à L'usine D'épuration;Métro Cartier Quai:2
452204249;"{\"type\":\"LineString\",\"coordinates\":[[-73.7092377,45.5853605],[-73.7086369,45.5846772],[-73.70778,45.5837267],[-73.7073522,45.5833487],[-73.7059597,45.5821183]]}";2;Boulevard des Laurentides;1;50;false;true;true;false;false;false;221.5;0;0;0;0;0;false;41821;6269508797;-73.70955;45.585529;41819;6269508827;-73.70803;45.583822;1;64;65;9312738;Bus : 73 S - Direction Métro Cartier;"";STL;73S;Séguin / Face à L'usine D'épuration;Métro Cartier Quai:2
452204248;"{\"type\":\"LineString\",\"coordinates\":[[-73.7059597,45.5821183],[-73.7056531,45.5818527]]}";1;Boulevard des Laurentides;1;50;false;true;true;false;false;false;38.0;0;0;0;0;0;false;41815;6119522930;-73.70617;45.582161;41816;6269508903;-73.70416;45.58041;2;66;67;9312738;Bus : 73 S - Direction Métro Cartier;"";STL;73S;Séguin / Face à L'usine D'épuration;Métro Cartier Quai:2
452204245;"{\"type\":\"LineString\",\"coordinates\":[[-73.7056531,45.5818527],[-73.7054813,45.5817192]]}";2;Boulevard des Laurentides;1;50;false;true;true;false;false;false;20.0;0;0;0;0;0;false;41815;6119522930;-73.70617;45.582161;41816;6269508903;-73.70416;45.58041;0;66;67;9312738;Bus : 73 S - Direction Métro Cartier;"";STL;73S;Séguin / Face à L'usine D'épuration;Métro Cartier Quai:2
452204246;"{\"type\":\"LineString\",\"coordinates\":[[-73.7054813,45.5817192],[-73.7051555,45.5814161]]}";3;Boulevard des Laurentides;1;50;false;true;true;false;false;false;43.0;0;0;0;0;0;false;41815;6119522930;-73.70617;45.582161;41816;6269508903;-73.70416;45.58041;0;66;67;9312738;Bus : 73 S - Direction Métro Cartier;"";STL;73S;Séguin / Face à L'usine D'épuration;Métro Cartier Quai:2
23292068;"{\"type\":\"LineString\",\"coordinates\":[[-73.7051555,45.5814161],[-73.7037511,45.580188],[-73.7031883,45.5796982],[-73.702581,45.5792442],[-73.7020488,45.5788173],[-73.7018843,45.5786846],[-73.7012367,45.5782416],[-73.7010736,45.5781875]]}";4;Boulevard des Laurentides;1;50;false;true;true;false;false;false;482.0;0;1;0;0;0;false;41815;6119522930;-73.70617;45.582161;41816;6269508903;-73.70416;45.58041;2;66;67;9312738;Bus : 73 S - Direction Métro Cartier;"";STL;73S;Séguin / Face à L'usine D'épuration;Métro Cartier Quai:2
23292068;"{\"type\":\"LineString\",\"coordinates\":[[-73.7051555,45.5814161],[-73.7037511,45.580188],[-73.7031883,45.5796982],[-73.702581,45.5792442],[-73.7020488,45.5788173],[-73.7018843,45.5786846],[-73.7012367,45.5782416],[-73.7010736,45.5781875]]}";1;Boulevard des Laurentides;1;50;false;true;true;false;false;false;241.0;0;1;0;0;0;false;41812;6269508921;-73.70208;45.578839;41810;6269508953;-73.70021;45.57733;1;68;69;9312738;Bus : 73 S - Direction Métro Cartier;"";STL;73S;Séguin / Face à L'usine D'épuration;Métro Cartier Quai:2
259643627;"{\"type\":\"LineString\",\"coordinates\":[[-73.6923511,45.5706606],[-73.6935441,45.5717052],[-73.6938656,45.5719868],[-73.6941278,45.5722163],[-73.694173,45.572256],[-73.6948715,45.5728676],[-73.6960798,45.5739255],[-73.6961954,45.5740268],[-73.6975572,45.5752191],[-73.6982178,45.5757768],[-73.6987252,45.5762051],[-73.6991329,45.5765493],[-73.6998396,45.5771459],[-73.699969,45.5772551],[-73.700393,45.577613],[-73.7010736,45.5781875]]}";2;Boulevard des Laurentides;4;50;false;false;true;false;false;false;539.0;2;0;0;0;0;false;41812;6269508921;-73.70208;45.578839;41810;6269508953;-73.70021;45.57733;1;68;69;9312738;Bus : 73 S - Direction Métro Cartier;"";STL;73S;Séguin / Face à L'usine D'épuration;Métro Cartier Quai:2
452227545;"{\"type\":\"LineString\",\"coordinates\":[[-73.6921816,45.5704852],[-73.6923511,45.5706606]]}";1;Boulevard des Laurentides;4;50;false;false;true;false;false;false;24.0;1;0;0;0;0;false;41801;6269509504;-73.69252;45.570631;41799;6269509559;-73.69062;45.568906;2;73;74;9312738;Bus : 73 S - Direction Métro Cartier;"";STL;73S;Séguin / Face à L'usine D'épuration;Métro Cartier Quai:2
258700555;"{\"type\":\"LineString\",\"coordinates\":[[-73.6920842,45.5703911],[-73.6921816,45.5704852]]}";2;Boulevard des Laurentides;4;50;false;false;true;false;false;false;13.0;2;0;0;0;0;false;41801;6269509504;-73.69252;45.570631;41799;6269509559;-73.69062;45.568906;0;73;74;9312738;Bus : 73 S - Direction Métro Cartier;"";STL;73S;Séguin / Face à L'usine D'épuration;Métro Cartier Quai:2
452227548;"{\"type\":\"LineString\",\"coordinates\":[[-73.6901977,45.568689],[-73.6920842,45.5703911]]}";3;Boulevard des Laurentides;4;50;false;false;true;false;false;false;240.0;1;0;0;0;0;false;41801;6269509504;-73.69252;45.570631;41799;6269509559;-73.69062;45.568906;2;73;74;9312738;Bus : 73 S - Direction Métro Cartier;"";STL;73S;Séguin / Face à L'usine D'épuration;Métro Cartier Quai:2
452227548;"{\"type\":\"LineString\",\"coordinates\":[[-73.6901977,45.568689],[-73.6920842,45.5703911]]}";1;Boulevard des Laurentides;4;50;false;false;true;false;false;false;120.0;1;0;0;0;0;false;41799;6269509559;-73.69062;45.568906;41797;6269510018;-73.68847;45.566975;1;74;75;9312738;Bus : 73 S - Direction Métro Cartier;"";STL;73S;Séguin / Face à L'usine D'épuration;Métro Cartier Quai:2
452227547;"{\"type\":\"LineString\",\"coordinates\":[[-73.6883244,45.5669908],[-73.6901977,45.568689]]}";2;Boulevard des Laurentides;4;50;false;false;true;false;false;false;119.5;0;0;0;0;0;false;41799;6269509559;-73.69062;45.568906;41797;6269510018;-73.68847;45.566975;1;74;75;9312738;Bus : 73 S - Direction Métro Cartier;"";STL;73S;Séguin / Face à L'usine D'épuration;Métro Cartier Quai:2
452227546;"{\"type\":\"LineString\",\"coordinates\":[[-73.68769,45.5664197],[-73.6883244,45.5669908]]}";1;Boulevard des Laurentides;4;50;false;false;true;false;false;false;81.0;0;0;0;0;0;false;41797;6269510018;-73.68847;45.566975;41795;6269510062;-73.68661;45.565286;2;75;76;9312738;Bus : 73 S - Direction Métro Cartier;"";STL;73S;Séguin / Face à L'usine D'épuration;Métro Cartier Quai:2
46086120;"{\"type\":\"LineString\",\"coordinates\":[[-73.6864142,45.565271],[-73.68769,45.5664197]]}";2;Boulevard des Laurentides;4;50;false;false;true;false;false;false;162.0;0;0;0;0;0;false;41797;6269510018;-73.68847;45.566975;41795;6269510062;-73.68661;45.565286;2;75;76;9312738;Bus : 73 S - Direction Métro Cartier;"";STL;73S;Séguin / Face à L'usine D'épuration;Métro Cartier Quai:2
452227544;"{\"type\":\"LineString\",\"coordinates\":[[-73.684522,45.5635813],[-73.6864142,45.565271]]}";1;Boulevard des Laurentides;4;50;false;false;true;false;false;false;239.0;0;0;0;0;0;false;41795;6269510062;-73.68661;45.565286;41876;6269510187;-73.68437;45.563286;2;76;77;9312738;Bus : 73 S - Direction Métro Cartier;"";STL;73S;Séguin / Face à L'usine D'épuration;Métro Cartier Quai:2
452227549;"{\"type\":\"LineString\",\"coordinates\":[[-73.6826844,45.5619598],[-73.684522,45.5635813]]}";2;Boulevard des Laurentides;4;50;false;false;true;false;false;false;231.0;0;0;0;0;0;false;41795;6269510062;-73.68661;45.565286;41876;6269510187;-73.68437;45.563286;2;76;77;9312738;Bus : 73 S - Direction Métro Cartier;"";STL;73S;Séguin / Face à L'usine D'épuration;Métro Cartier Quai:2
452227549;"{\"type\":\"LineString\",\"coordinates\":[[-73.6826844,45.5619598],[-73.684522,45.5635813]]}";1;Boulevard des Laurentides;4;50;false;false;true;false;false;false;115.5;0;0;0;0;0;false;41876;6269510187;-73.68437;45.563286;46423;6269510246;-73.68257;45.561685;1;77;78;9312738;Bus : 73 S - Direction Métro Cartier;"";STL;73S;Séguin / Face à L'usine D'épuration;Métro Cartier Quai:2
22894254;"{\"type\":\"LineString\",\"coordinates\":[[-73.6826844,45.5619598],[-73.6824704,45.5616761],[-73.6824561,45.5616678],[-73.6818442,45.561099]]}";2;Boulevard des Laurentides;2;50;false;true;true;false;false;false;58.5;1;0;0;0;0;false;41876;6269510187;-73.68437;45.563286;46423;6269510246;-73.68257;45.561685;1;77;78;9312738;Bus : 73 S - Direction Métro Cartier;"";STL;73S;Séguin / Face à L'usine D'épuration;Métro Cartier Quai:2
22894254;"{\"type\":\"LineString\",\"coordinates\":[[-73.6826844,45.5619598],[-73.6824704,45.5616761],[-73.6824561,45.5616678],[-73.6818442,45.561099]]}";1;Boulevard des Laurentides;2;50;false;true;true;false;false;false;58.5;1;0;0;0;0;false;46423;6269510246;-73.68257;45.561685;"47128;47170;47120;47012;47002;47173;47058;47158;47141;47102;47122;47911;47133;47160;47163;47127;47137;47117;47031;47143;47174;47124;47112;47070;47148;47017";6269510222;-73.6825;45.559923;1;78;79;9312738;Bus : 73 S - Direction Métro Cartier;"";STL;73S;Séguin / Face à L'usine D'épuration;Métro Cartier Quai:2
259643625;"{\"type\":\"LineString\",\"coordinates\":[[-73.6818442,45.561099],[-73.6826796,45.5606463],[-73.6831194,45.5604083]]}";2;Boulevard Cartier Ouest;2;50;false;true;true;false;false;false;126.0;2;0;0;0;0;false;46423;6269510246;-73.68257;45.561685;"47128;47170;47120;47012;47002;47173;47058;47158;47141;47102;47122;47911;47133;47160;47163;47127;47137;47117;47031;47143;47174;47124;47112;47070;47148;47017";6269510222;-73.6825;45.559923;0;78;79;9312738;Bus : 73 S - Direction Métro Cartier;"";STL;73S;Séguin / Face à L'usine D'épuration;Métro Cartier Quai:2
259643631;"{\"type\":\"LineString\",\"coordinates\":[[-73.6831194,45.5604083],[-73.6830194,45.5603075]]}";3;"";1;50;false;false;true;false;false;false;14.0;2;0;0;0;0;false;46423;6269510246;-73.68257;45.561685;"47128;47170;47120;47012;47002;47173;47058;47158;47141;47102;47122;47911;47133;47160;47163;47127;47137;47117;47031;47143;47174;47124;47112;47070;47148;47017";6269510222;-73.6825;45.559923;0;78;79;9312738;Bus : 73 S - Direction Métro Cartier;"";STL;73S;Séguin / Face à L'usine D'épuration;Métro Cartier Quai:2
242652088;"{\"type\":\"LineString\",\"coordinates\":[[-73.6830194,45.5603075],[-73.6828755,45.560162]]}";4;"";1;50;false;false;true;false;false;false;20.0;1;0;0;0;0;false;46423;6269510246;-73.68257;45.561685;"47128;47170;47120;47012;47002;47173;47058;47158;47141;47102;47122;47911;47133;47160;47163;47127;47137;47117;47031;47143;47174;47124;47112;47070;47148;47017";6269510222;-73.6825;45.559923;0;78;79;9312738;Bus : 73 S - Direction Métro Cartier;"";STL;73S;Séguin / Face à L'usine D'épuration;Métro Cartier Quai:2
259643630;"{\"type\":\"LineString\",\"coordinates\":[[-73.683108,45.5597546],[-73.6832991,45.5596564],[-73.6834151,45.5595825],[-73.6834772,45.5596133],[-73.6835498,45.5596565],[-73.6835923,45.5597297],[-73.6835737,45.5597964],[-73.6834678,45.5598527],[-73.6828755,45.560162]]}";5;"";1;50;false;false;true;false;false;false;129.0;0;0;0;0;0;false;46423;6269510246;-73.68257;45.561685;"47128;47170;47120;47012;47002;47173;47058;47158;47141;47102;47122;47911;47133;47160;47163;47127;47137;47117;47031;47143;47174;47124;47112;47070;47148;47017";6269510222;-73.6825;45.559923;0;78;79;9312738;Bus : 73 S - Direction Métro Cartier;"";STL;73S;Séguin / Face à L'usine D'épuration;Métro Cartier Quai:2
694196043;"{\"type\":\"LineString\",\"coordinates\":[[-73.6829383,45.5598439],[-73.683108,45.5597546]]}";6;"";1;50;false;false;true;false;false;false;17.0;0;0;0;0;0;false;46423;6269510246;-73.68257;45.561685;"47128;47170;47120;47012;47002;47173;47058;47158;47141;47102;47122;47911;47133;47160;47163;47127;47137;47117;47031;47143;47174;47124;47112;47070;47148;47017";6269510222;-73.6825;45.559923;0;78;79;9312738;Bus : 73 S - Direction Métro Cartier;"";STL;73S;Séguin / Face à L'usine D'épuration;Métro Cartier Quai:2
694409795;"{\"type\":\"LineString\",\"coordinates\":[[-73.6827819,45.5599253],[-73.6829383,45.5598439]]}";7;"";1;50;false;false;true;false;false;false;16.0;0;0;0;0;0;false;46423;6269510246;-73.68257;45.561685;"47128;47170;47120;47012;47002;47173;47058;47158;47141;47102;47122;47911;47133;47160;47163;47127;47137;47117;47031;47143;47174;47124;47112;47070;47148;47017";6269510222;-73.6825;45.559923;0;78;79;9312738;Bus : 73 S - Direction Métro Cartier;"";STL;73S;Séguin / Face à L'usine D'épuration;Métro Cartier Quai:2
669902223;"{\"type\":\"LineString\",\"coordinates\":[[-73.6826117,45.5600129],[-73.6827819,45.5599253]]}";8;"";1;50;false;false;true;false;false;false;17.0;0;0;0;0;0;false;46423;6269510246;-73.68257;45.561685;"47128;47170;47120;47012;47002;47173;47058;47158;47141;47102;47122;47911;47133;47160;47163;47127;47137;47117;47031;47143;47174;47124;47112;47070;47148;47017";6269510222;-73.6825;45.559923;1;78;79;9312738;Bus : 73 S - Direction Métro Cartier;"";STL;73S;Séguin / Face à L'usine D'épuration;Métro Cartier Quai:2
